Energy (MeV/u)1	0 - [He-base] F.Hubert et al, AD&ND Tables 46(1990)1	Energy (MeV/u)2	1 - [H -base] J.F.Ziegler et al, Pergamon Press, NY (low energy)	Energy (MeV/u)3	2 - ATIMA 1.2  LS-theory (recommended for high energy)	Energy (MeV/u)4	3 - ATIMA 1.2  without LS-correction	Energy (MeV/u)5	4 - electrical component of [1] - J.F.Ziegler et al	Energy (MeV/u)6	5 - nuclear component of [1] - J.F.Ziegler et al	
0.001000	12.7779   	0.001000	9.53828   	0.001000	9.12625   	0.001000	9.12625   	0.001000	1.30111   	0.001000	8.23718   	
0.002000	13.2091   	0.002000	9.92797   	0.002000	9.38304   	0.002000	9.38304   	0.002000	1.80218   	0.002000	8.12579   	
0.005000	13.1079   	0.005000	9.72527   	0.005000	8.9408    	0.005000	8.9408    	0.005000	2.77223   	0.005000	6.95304   	
0.008000	13.0279   	0.008000	9.47051   	0.008000	8.52726   	0.008000	8.52726   	0.008000	3.45753   	0.008000	6.01298   	
0.010000	13.0494   	0.010000	9.36811   	0.010000	8.33929   	0.010000	8.33929   	0.010000	3.83984   	0.010000	5.52827   	
0.015000	13.2571   	0.015000	9.28231   	0.015000	8.07908   	0.015000	8.07908   	0.015000	4.64597   	0.015000	4.63635   	
0.020000	13.5754   	0.020000	9.34271   	0.020000	7.99941   	0.020000	7.99941   	0.020000	5.3186    	0.020000	4.02411   	
0.025000	13.9383   	0.025000	9.48086   	0.025000	8.01865   	0.025000	8.01865   	0.025000	5.9067    	0.025000	3.57416   	
0.030000	14.3174   	0.030000	9.66242   	0.030000	8.09593   	0.030000	8.09593   	0.030000	6.43517   	0.030000	3.22724   	
0.035000	14.6995   	0.035000	9.86895   	0.035000	8.20901   	0.035000	8.20901   	0.035000	6.91871   	0.035000	2.95024   	
0.040000	15.078    	0.040000	10.0899   	0.040000	8.34495   	0.040000	8.34495   	0.040000	7.36684   	0.040000	2.7231    	
0.045000	15.4498   	0.045000	10.3191   	0.045000	8.49576   	0.045000	8.49576   	0.045000	7.78616   	0.045000	2.53289   	
0.050000	15.8132   	0.050000	10.5523   	0.050000	8.65632   	0.050000	8.65632   	0.050000	8.18143   	0.050000	2.37091   	
0.055000	16.1677   	0.055000	10.7873   	0.055000	8.82322   	0.055000	8.82322   	0.055000	8.55625   	0.055000	2.23104   	
0.060000	16.5131   	0.060000	11.0222   	0.060000	8.99414   	0.060000	8.99414   	0.060000	8.91342   	0.060000	2.10883   	
0.070000	17.6799   	0.070000	11.5291   	0.070000	9.38337   	0.070000	9.38337   	0.070000	9.62403   	0.070000	1.90504   	
0.080000	19.7113   	0.080000	12.6629   	0.080000	10.4268   	0.080000	10.4268   	0.080000	10.9216   	0.080000	1.74137   	
0.090000	21.5791   	0.090000	13.7794   	0.090000	11.4467   	0.090000	11.4467   	0.090000	12.1728   	0.090000	1.60661   	
0.100000	23.3228   	0.100000	14.88     	0.100000	12.4351   	0.100000	12.4351   	0.100000	13.3865   	0.100000	1.49344   	
0.120000	25.8766   	0.120000	16.6551   	0.120000	14.2985   	0.120000	14.2985   	0.120000	15.354    	0.120000	1.3011    	
0.140000	28.0662   	0.140000	18.3267   	0.140000	16.0495   	0.140000	16.0495   	0.140000	17.1614   	0.140000	1.16528   	
0.160000	30.0656   	0.160000	19.9025   	0.160000	17.6901   	0.160000	17.6901   	0.160000	18.8449   	0.160000	1.05755   	
0.180000	31.9767   	0.180000	21.3959   	0.180000	19.2352   	0.180000	19.2352   	0.180000	20.4261   	0.180000	0.969789  	
0.200000	33.8514   	0.200000	22.8151   	0.200000	20.696    	0.200000	20.696    	0.200000	21.9183   	0.200000	0.896756  	
0.250000	37.4096   	0.250000	25.7805   	0.250000	24.0288   	0.250000	24.0288   	0.250000	25.0226   	0.250000	0.757976  	
0.300000	40.7158   	0.300000	28.3133   	0.300000	26.9684   	0.300000	26.9684   	0.300000	27.654    	0.300000	0.659271  	
0.350000	43.7283   	0.350000	30.4511   	0.350000	29.5731   	0.350000	29.5731   	0.350000	29.866    	0.350000	0.585109  	
0.400000	46.4467   	0.400000	32.2567   	0.400000	31.8897   	0.400000	31.8897   	0.400000	31.7296   	0.400000	0.527145  	
0.450000	48.8846   	0.450000	33.7818   	0.450000	33.9576   	0.450000	33.9576   	0.450000	33.3014   	0.450000	0.48047   	
0.500000	51.5196   	0.500000	35.3439   	0.500000	35.8102   	0.500000	35.8102   	0.500000	34.9019   	0.500000	0.442002  	
0.600000	54.9357   	0.600000	39.0815   	0.600000	38.9785   	0.600000	38.9785   	0.600000	38.6994   	0.600000	0.382147  	
0.700000	56.9224   	0.700000	42.0056   	0.700000	41.5726   	0.700000	41.5726   	0.700000	41.668    	0.700000	0.337564  	
0.800000	60.1662   	0.800000	45.014    	0.800000	43.9669   	0.800000	43.9669   	0.800000	44.7111   	0.800000	0.302956  	
0.900000	62.7789   	0.900000	47.6072   	0.900000	46.2817   	0.900000	46.2817   	0.900000	47.3319   	0.900000	0.275243  	
1.000000	64.6134   	1.000000	49.6592   	1.000000	48.2106   	1.000000	48.2106   	1.000000	49.4067   	1.000000	0.252508  	
1.250000	67.4869   	1.250000	52.7674   	1.250000	51.7839   	1.250000	51.7839   	1.250000	52.5572   	1.250000	0.21012   	
1.500000	69.0474   	1.500000	54.9139   	1.500000	54.1239   	1.500000	54.1239   	1.500000	54.7333   	1.500000	0.180625  	
1.750000	69.4967   	1.750000	56.2039   	1.750000	55.6613   	1.750000	55.6613   	1.750000	56.0451   	1.750000	0.158826  	
2.000000	69.2176   	2.000000	56.8907   	2.000000	56.6542   	2.000000	56.6542   	2.000000	56.7487   	2.000000	0.142007  	
2.250000	68.863    	2.250000	56.984    	2.250000	57.2654   	2.250000	57.2654   	2.250000	56.8554   	2.250000	0.128608  	
2.500000	101.77    	2.500000	56.9527   	2.500000	57.6025   	2.500000	57.6025   	2.500000	56.835    	2.500000	0.117663  	
3.000000	98.7303   	3.000000	56.6483   	3.000000	57.7258   	3.000000	57.7258   	3.000000	56.5475   	3.000000	0.100815  	
3.500000	95.3501   	3.500000	56.1329   	3.500000	57.3901   	3.500000	57.3901   	3.500000	56.0445   	3.500000	0.0884147 	
4.000000	91.937    	4.000000	55.4746   	4.000000	56.7903   	4.000000	56.7903   	4.000000	55.3957   	4.000000	0.0788803 	
4.500000	88.6274   	4.500000	54.7323   	4.500000	56.0372   	4.500000	56.0372   	4.500000	54.661    	4.500000	0.0713055 	
5.000000	85.4795   	5.000000	53.9425   	5.000000	55.0892   	5.000000	55.0892   	5.000000	53.8773   	5.000000	0.0651328 	
5.500000	82.5137   	5.500000	53.1285   	5.500000	54.0583   	5.500000	54.0583   	5.500000	53.0685   	5.500000	0.0599993 	
6.000000	79.7324   	6.000000	52.3056   	6.000000	53.0494   	6.000000	53.0494   	6.000000	52.2499   	6.000000	0.0556586 	
6.500000	77.1292   	6.500000	51.4775   	6.500000	52.0671   	6.500000	52.0671   	6.500000	51.4255   	6.500000	0.0519369 	
7.000000	74.6937   	7.000000	50.6579   	7.000000	51.1135   	7.000000	51.1135   	7.000000	50.6092   	7.000000	0.0487083 	
7.500000	72.4139   	7.500000	49.8533   	7.500000	50.1899   	7.500000	50.1899   	7.500000	49.8075   	7.500000	0.0458792 	
8.000000	70.2777   	8.000000	49.0659   	8.000000	49.2964   	8.000000	49.2964   	8.000000	49.0225   	8.000000	0.0433785 	
8.500000	68.2736   	8.500000	48.2842   	8.500000	48.4326   	8.500000	48.4326   	8.500000	48.2431   	8.500000	0.041151  	
9.000000	66.3905   	9.000000	47.5276   	9.000000	47.5979   	9.000000	47.5979   	9.000000	47.4885   	9.000000	0.0391535 	
9.500000	64.6184   	9.500000	46.7959   	9.500000	46.7914   	9.500000	46.7914   	9.500000	46.7585   	9.500000	0.0373515 	
10.000000	62.9482   	10.000000	46.3077   	10.000000	46.0122   	10.000000	46.0122   	10.000000	46.272    	10.000000	0.0357171 	
11.000000	59.8807   	11.000000	45.076    	11.000000	44.2081   	11.000000	44.8594   	11.000000	45.0431   	11.000000	0.0328639 	
12.000000	57.1306   	12.000000	43.8704   	12.000000	42.5467   	12.000000	43.7456   	12.000000	43.8399   	12.000000	0.0304548 	
13.000000	54.6509   	13.000000	42.7013   	13.000000	41.0143   	13.000000	42.676    	13.000000	42.6729   	13.000000	0.028392  	
14.000000	52.4033   	14.000000	41.5759   	14.000000	39.5976   	14.000000	41.6524   	14.000000	41.5493   	14.000000	0.0266046 	
15.000000	50.3561   	15.000000	40.4977   	15.000000	38.2843   	15.000000	40.6749   	15.000000	40.4727   	15.000000	0.0250401 	
16.000000	48.4831   	16.000000	39.4675   	16.000000	37.0643   	16.000000	39.7422   	16.000000	39.4438   	16.000000	0.0236584 	
17.000000	46.7625   	17.000000	38.4846   	17.000000	35.9291   	17.000000	38.8529   	17.000000	38.4622   	17.000000	0.0224288 	
18.000000	45.1761   	18.000000	37.5477   	18.000000	34.8716   	18.000000	38.0049   	18.000000	37.5263   	18.000000	0.0213271 	
19.000000	43.7082   	19.000000	36.6547   	19.000000	33.8837   	19.000000	37.1963   	19.000000	36.6344   	19.000000	0.020334  	
20.000000	42.3458   	20.000000	35.8036   	20.000000	32.9573   	20.000000	36.4249   	20.000000	35.7842   	20.000000	0.0194339 	
21.000000	41.0775   	21.000000	34.9922   	21.000000	32.0878   	21.000000	35.6887   	21.000000	34.9736   	21.000000	0.0186141 	
22.000000	39.8937   	22.000000	34.2181   	22.000000	31.273    	22.000000	34.9857   	22.000000	34.2002   	22.000000	0.0178641 	
23.000000	38.7859   	23.000000	33.4792   	23.000000	30.508    	23.000000	34.3142   	23.000000	33.462    	23.000000	0.0171752 	
24.000000	37.7469   	24.000000	32.7735   	24.000000	29.7873   	24.000000	33.6722   	24.000000	32.7569   	24.000000	0.0165402 	
25.000000	36.7702   	25.000000	32.0988   	25.000000	29.1072   	25.000000	33.0583   	25.000000	32.0829   	25.000000	0.0159528 	
27.000000	34.9819   	27.000000	30.8357   	27.000000	27.8592   	27.000000	31.9081   	27.000000	30.8208   	27.000000	0.0149007 	
29.000000	33.3838   	29.000000	29.6762   	29.000000	26.7444   	29.000000	30.8524   	29.000000	29.6622   	29.000000	0.0139851 	
31.000000	31.946    	31.000000	28.6085   	31.000000	25.8268   	31.000000	29.7672   	31.000000	28.5953   	31.000000	0.0131806 	
33.000000	30.6451   	33.000000	27.6225   	33.000000	25.0587   	33.000000	28.6623   	33.000000	27.61     	33.000000	0.0124679 	
35.000000	29.4617   	35.000000	26.7092   	35.000000	24.34     	35.000000	27.6466   	35.000000	26.6974   	35.000000	0.0118318 	
38.000000	27.8736   	38.000000	25.4593   	38.000000	23.3476   	38.000000	26.2673   	38.000000	25.4483   	38.000000	0.0109961 	
41.000000	26.4732   	41.000000	24.3342   	41.000000	22.4469   	41.000000	25.0357   	41.000000	24.3239   	41.000000	0.0102758 	
44.000000	25.2283   	44.000000	23.3163   	44.000000	21.6214   	44.000000	23.9286   	44.000000	23.3067   	44.000000	0.0096481 	
47.000000	24.1137   	47.000000	22.3909   	47.000000	20.8642   	47.000000	22.9279   	47.000000	22.3818   	47.000000	0.00909606	
50.000000	23.1094   	50.000000	21.546    	50.000000	20.1651   	50.000000	22.0185   	50.000000	21.5374   	50.000000	0.00860654	
55.000000	21.6385   	55.000000	20.2901   	55.000000	19.1175   	55.000000	20.674    	55.000000	20.2822   	55.000000	0.0079029 	
60.000000	20.3736   	60.000000	19.193    	60.000000	18.1894   	60.000000	19.5064   	60.000000	19.1857   	60.000000	0.00731024	
65.000000	19.2732   	65.000000	18.2264   	65.000000	17.365    	65.000000	18.4826   	65.000000	18.2196   	65.000000	0.00680389	
70.000000	18.3065   	70.000000	17.3682   	70.000000	16.6262   	70.000000	17.5774   	70.000000	17.3619   	70.000000	0.00636602	
75.000000	17.4498   	75.000000	16.6012   	75.000000	15.9583   	75.000000	16.7712   	75.000000	16.5952   	75.000000	0.00598343	
80.000000	16.685    	80.000000	15.9115   	80.000000	15.3559   	80.000000	16.0486   	80.000000	15.9059   	80.000000	0.00564614	
85.000000	15.9976   	85.000000	15.288    	85.000000	14.8049   	85.000000	15.3972   	85.000000	15.2827   	85.000000	0.00534643	
90.000000	15.3762   	90.000000	14.7216   	90.000000	14.3031   	90.000000	14.807    	90.000000	14.7165   	90.000000	0.00507827	
95.000000	14.8114   	95.000000	14.2048   	95.000000	13.8421   	95.000000	14.2697   	95.000000	14.1999   	95.000000	0.00483687	
100.000000	14.2957   	100.000000	13.7313   	100.000000	13.4172   	100.000000	13.7785   	100.000000	13.7267   	100.000000	0.00461834	
105.000000	13.8227   	105.000000	13.2959   	105.000000	13.0258   	105.000000	13.3278   	105.000000	13.2915   	105.000000	0.00441954	
110.000000	13.3872   	110.000000	12.8943   	110.000000	12.6629   	110.000000	12.9127   	110.000000	12.89     	110.000000	0.00423787	
115.000000	12.9849   	115.000000	12.5226   	115.000000	12.3252   	115.000000	12.5292   	115.000000	12.5185   	115.000000	0.00407119	
120.000000	12.6119   	120.000000	12.1776   	120.000000	12.0101   	120.000000	12.1738   	120.000000	12.1737   	120.000000	0.00391768	
125.000000	12.2651   	125.000000	11.8566   	125.000000	11.7159   	125.000000	11.8436   	125.000000	11.8528   	125.000000	0.00377581	
130.000000	11.9417   	130.000000	11.5571   	130.000000	11.4412   	130.000000	11.536    	130.000000	11.5534   	130.000000	0.0036443 	
135.000000	11.6394   	135.000000	11.277    	135.000000	11.1831   	135.000000	11.2488   	135.000000	11.2735   	135.000000	0.00352204	
140.000000	11.3561   	140.000000	11.0146   	140.000000	10.9409   	140.000000	10.98     	140.000000	11.0112   	140.000000	0.00340806	
145.000000	11.0901   	145.000000	10.7683   	145.000000	10.7131   	145.000000	10.7279   	145.000000	10.765    	145.000000	0.00330154	
150.000000	10.8398   	150.000000	10.5365   	150.000000	10.4978   	150.000000	10.491    	150.000000	10.5333   	150.000000	0.00320176	
155.000000	10.4799   	155.000000	10.3181   	155.000000	10.2948   	155.000000	10.268    	155.000000	10.315    	155.000000	0.00310809	
160.000000	10.2727   	160.000000	10.1119   	160.000000	10.1029   	160.000000	10.0577   	160.000000	10.1089   	160.000000	0.00301999	
165.000000	10.0769   	165.000000	9.91698   	165.000000	9.92073   	165.000000	9.85908   	165.000000	9.91404   	165.000000	0.00293695	
170.000000	9.89139   	170.000000	9.73241   	170.000000	9.74753   	170.000000	9.6712    	170.000000	9.72955   	170.000000	0.00285855	
175.000000	9.71548   	175.000000	9.55739   	175.000000	9.58291   	175.000000	9.49321   	175.000000	9.55461   	175.000000	0.00278441	
180.000000	9.54841   	180.000000	9.39122   	180.000000	9.42657   	180.000000	9.32437   	180.000000	9.3885    	180.000000	0.00271417	
185.000000	9.38952   	185.000000	9.23324   	185.000000	9.27798   	185.000000	9.16399   	185.000000	9.23059   	185.000000	0.00264755	
190.000000	9.23822   	190.000000	9.08286   	190.000000	9.13649   	190.000000	9.01146   	190.000000	9.08028   	190.000000	0.00258426	
195.000000	9.09396   	195.000000	8.93957   	195.000000	9.00132   	195.000000	8.86623   	195.000000	8.93704   	195.000000	0.00252405	
200.000000	8.95626   	200.000000	8.80287   	200.000000	8.87194   	200.000000	8.72778   	200.000000	8.8004    	200.000000	0.0024667 	
210.000000	8.69883   	210.000000	8.54753   	210.000000	8.62952   	210.000000	8.46948   	210.000000	8.54517   	210.000000	0.0023598 	
220.000000	8.46282   	220.000000	8.31376   	220.000000	8.40769   	220.000000	8.23335   	220.000000	8.31149   	220.000000	0.00226215	
230.000000	8.24566   	230.000000	8.09897   	230.000000	8.20344   	230.000000	8.01669   	230.000000	8.09679   	230.000000	0.00217258	
240.000000	8.04515   	240.000000	7.90097   	240.000000	8.01417   	240.000000	7.81724   	240.000000	7.89888   	240.000000	0.00209012	
250.000000	7.85945   	250.000000	7.7179    	250.000000	7.83889   	250.000000	7.63306   	250.000000	7.71588   	250.000000	0.00201393	
260.000000	7.68697   	260.000000	7.54815   	260.000000	7.67641   	260.000000	7.46249   	260.000000	7.54621   	260.000000	0.00194333	
270.000000	7.52634   	270.000000	7.39035   	270.000000	7.52538   	270.000000	7.30413   	270.000000	7.38847   	270.000000	0.00187771	
280.000000	7.3764    	280.000000	7.2433    	280.000000	7.38461   	280.000000	7.15672   	280.000000	7.24148   	280.000000	0.00181655	
290.000000	7.2361    	290.000000	7.10596   	290.000000	7.25265   	290.000000	7.01921   	290.000000	7.1042    	290.000000	0.00175941	
300.000000	7.10455   	300.000000	6.97743   	300.000000	7.12847   	300.000000	6.89066   	300.000000	6.97572   	300.000000	0.0017059 	
310.000000	6.98097   	310.000000	6.85689   	310.000000	7.01203   	310.000000	6.77024   	310.000000	6.85523   	310.000000	0.00165568	
320.000000	6.86466   	320.000000	6.74365   	320.000000	6.90318   	320.000000	6.65723   	320.000000	6.74204   	320.000000	0.00160845	
330.000000	6.755     	330.000000	6.63707   	330.000000	6.80044   	330.000000	6.55099   	330.000000	6.63551   	330.000000	0.00156395	
340.000000	6.65144   	340.000000	6.53661   	340.000000	6.70326   	340.000000	6.45095   	340.000000	6.53509   	340.000000	0.00152194	
350.000000	6.5535    	350.000000	6.44177   	350.000000	6.61163   	350.000000	6.3566    	350.000000	6.44029   	350.000000	0.00148222	
360.000000	6.46075   	360.000000	6.35211   	360.000000	6.52511   	360.000000	6.26749   	360.000000	6.35066   	360.000000	0.00144461	
370.000000	6.37278   	370.000000	6.26722   	370.000000	6.44316   	370.000000	6.18321   	370.000000	6.26581   	370.000000	0.00140893	
380.000000	6.28925   	380.000000	6.18675   	380.000000	6.36522   	380.000000	6.1034    	380.000000	6.18537   	380.000000	0.00137504	
390.000000	6.20984   	390.000000	6.11037   	390.000000	6.29108   	390.000000	6.02772   	390.000000	6.10903   	390.000000	0.00134281	
400.000000	6.13426   	400.000000	6.0378    	400.000000	6.2207    	400.000000	5.95587   	400.000000	6.03649   	400.000000	0.00131212	
410.000000	6.06224   	410.000000	5.96877   	410.000000	6.1538    	410.000000	5.8876    	410.000000	5.96748   	410.000000	0.00128285	
420.000000	5.99356   	420.000000	5.90303   	420.000000	6.0901    	420.000000	5.82264   	420.000000	5.90177   	420.000000	0.00125492	
430.000000	5.92798   	430.000000	5.84037   	430.000000	6.02942   	430.000000	5.76078   	430.000000	5.83914   	430.000000	0.00122822	
440.000000	5.86532   	440.000000	5.78059   	440.000000	5.97159   	440.000000	5.70181   	440.000000	5.77938   	440.000000	0.00120268	
450.000000	5.8054    	450.000000	5.7235    	450.000000	5.91634   	450.000000	5.64555   	450.000000	5.72232   	450.000000	0.00117822	
460.000000	5.74804   	460.000000	5.66893   	460.000000	5.86337   	460.000000	5.59182   	460.000000	5.66778   	460.000000	0.00115478	
470.000000	5.69309   	470.000000	5.61674   	470.000000	5.8126    	470.000000	5.54047   	470.000000	5.61561   	470.000000	0.00113229	
480.000000	5.64041   	480.000000	5.56678   	480.000000	5.76399   	480.000000	5.49136   	480.000000	5.56567   	480.000000	0.0011107 	
490.000000	5.58988   	490.000000	5.51891   	490.000000	5.71748   	490.000000	5.44434   	490.000000	5.51782   	490.000000	0.00108994	
500.000000	5.54137   	500.000000	5.47302   	500.000000	5.67292   	500.000000	5.3993    	500.000000	5.47195   	500.000000	0.00106998	
520.000000	5.44997   	520.000000	5.38674   	520.000000	5.58914   	520.000000	5.3147    	520.000000	5.3857    	520.000000	0.00103226	
540.000000	5.36542   	540.000000	5.30712   	540.000000	5.51197   	540.000000	5.23675   	540.000000	5.30612   	540.000000	0.000997201	
560.000000	5.28704   	560.000000	5.23349   	560.000000	5.44048   	560.000000	5.16475   	560.000000	5.23252   	560.000000	0.000964539	
580.000000	5.21422   	580.000000	5.16524   	580.000000	5.37392   	580.000000	5.0981    	580.000000	5.1643    	580.000000	0.000934029	
600.000000	5.14644   	600.000000	5.10185   	600.000000	5.3124    	600.000000	5.03627   	600.000000	5.10095   	600.000000	0.000905463	
620.000000	5.08325   	620.000000	5.04288   	620.000000	5.25534   	620.000000	4.97879   	620.000000	5.042     	620.000000	0.000878658	
640.000000	5.02425   	640.000000	4.98791   	640.000000	5.2019    	640.000000	4.92527   	640.000000	4.98706   	640.000000	0.000853455	
660.000000	4.96907   	660.000000	4.9366    	660.000000	5.15189   	660.000000	4.87534   	660.000000	4.93577   	660.000000	0.000829712	
680.000000	4.9174    	680.000000	4.88864   	680.000000	5.10518   	680.000000	4.82869   	680.000000	4.88783   	680.000000	0.000807304	
700.000000	4.86895   	700.000000	4.84374   	700.000000	5.06152   	700.000000	4.78504   	700.000000	4.84295   	700.000000	0.000786121	
720.000000	4.82348   	720.000000	4.80166   	720.000000	5.0206    	720.000000	4.74414   	720.000000	4.80089   	720.000000	0.000766062	
740.000000	4.78077   	740.000000	4.76217   	740.000000	4.98237   	740.000000	4.70608   	740.000000	4.76143   	740.000000	0.000747041	
760.000000	4.74059   	760.000000	4.72509   	760.000000	4.94698   	760.000000	4.67103   	760.000000	4.72436   	760.000000	0.000728977	
780.000000	4.70278   	780.000000	4.69022   	780.000000	4.91367   	780.000000	4.63806   	780.000000	4.68951   	780.000000	0.000711799	
800.000000	4.66717   	800.000000	4.65741   	800.000000	4.88246   	800.000000	4.60702   	800.000000	4.65671   	800.000000	0.000695443	
820.000000	4.6336    	820.000000	4.62651   	820.000000	4.85312   	820.000000	4.57775   	820.000000	4.62583   	820.000000	0.000679849	
840.000000	4.60194   	840.000000	4.59738   	840.000000	4.82538   	840.000000	4.55015   	840.000000	4.59672   	840.000000	0.000664966	
860.000000	4.57206   	860.000000	4.56991   	860.000000	4.79905   	860.000000	4.52408   	860.000000	4.56926   	860.000000	0.000650746	
880.000000	4.54385   	880.000000	4.54399   	880.000000	4.77409   	880.000000	4.49945   	880.000000	4.54336   	880.000000	0.000637144	
900.000000	4.51721   	900.000000	4.51952   	900.000000	4.75047   	900.000000	4.47615   	900.000000	4.51889   	900.000000	0.00062412	
920.000000	4.49204   	920.000000	4.4964    	920.000000	4.72813   	920.000000	4.4541    	920.000000	4.49579   	920.000000	0.000611638	
940.000000	4.46825   	940.000000	4.47455   	940.000000	4.70698   	940.000000	4.43322   	940.000000	4.47395   	940.000000	0.000599664	
960.000000	4.44577   	960.000000	4.45389   	960.000000	4.68692   	960.000000	4.41343   	960.000000	4.4533    	960.000000	0.000588168	
980.000000	4.42451   	980.000000	4.43435   	980.000000	4.66789   	980.000000	4.39466   	980.000000	4.43377   	980.000000	0.000577121	
1000.000000	4.40441   	1000.000000	4.41587   	1000.000000	4.64983   	1000.000000	4.37686   	1000.000000	4.4153    	1000.000000	0.000566497	
1020.000000	4.3854    	1020.000000	4.39838   	1020.000000	4.63267   	1020.000000	4.35995   	1020.000000	4.39783   	1020.000000	0.000556272	
1040.000000	4.36743   	1040.000000	4.38183   	1040.000000	4.61638   	1040.000000	4.3439    	1040.000000	4.38129   	1040.000000	0.000546423	
1060.000000	4.35044   	1060.000000	4.36617   	1060.000000	4.6009    	1060.000000	4.32864   	1060.000000	4.36563   	1060.000000	0.00053693	
1080.000000	4.33438   	1080.000000	4.35135   	1080.000000	4.58618   	1080.000000	4.31414   	1080.000000	4.35082   	1080.000000	0.000527773	
1100.000000	4.31921   	1100.000000	4.33732   	1100.000000	4.57215   	1100.000000	4.30034   	1100.000000	4.3368    	1100.000000	0.000518936	
1120.000000	4.30487   	1120.000000	4.32404   	1120.000000	4.55877   	1120.000000	4.28722   	1120.000000	4.32353   	1120.000000	0.0005104 	
1140.000000	4.29133   	1140.000000	4.31148   	1140.000000	4.54601   	1140.000000	4.27473   	1140.000000	4.31097   	1140.000000	0.000502152	
1160.000000	4.27855   	1160.000000	4.29959   	1160.000000	4.53384   	1160.000000	4.26284   	1160.000000	4.29909   	1160.000000	0.000494175	
1180.000000	4.26649   	1180.000000	4.28835   	1180.000000	4.52224   	1180.000000	4.25152   	1180.000000	4.28786   	1180.000000	0.000486458	
1200.000000	4.25513   	1200.000000	4.27771   	1200.000000	4.51119   	1200.000000	4.24073   	1200.000000	4.27723   	1200.000000	0.000478987	
1220.000000	4.24442   	1220.000000	4.26766   	1220.000000	4.50068   	1220.000000	4.23045   	1220.000000	4.26719   	1220.000000	0.000471751	
1240.000000	4.23434   	1240.000000	4.25817   	1240.000000	4.49066   	1240.000000	4.22065   	1240.000000	4.2577    	1240.000000	0.000464738	
1260.000000	4.22486   	1260.000000	4.2492    	1260.000000	4.48111   	1260.000000	4.21131   	1260.000000	4.24875   	1260.000000	0.000457938	
1280.000000	4.21595   	1280.000000	4.24074   	1280.000000	4.472     	1280.000000	4.20241   	1280.000000	4.24029   	1280.000000	0.000451342	
1300.000000	4.2076    	1300.000000	4.23276   	1300.000000	4.46332   	1300.000000	4.19392   	1300.000000	4.23232   	1300.000000	0.000444941	
1320.000000	4.19977   	1320.000000	4.22524   	1320.000000	4.45502   	1320.000000	4.18583   	1320.000000	4.2248    	1320.000000	0.000438725	
1340.000000	4.19245   	1340.000000	4.21816   	1340.000000	4.4471    	1340.000000	4.1781    	1340.000000	4.21773   	1340.000000	0.000432687	
1360.000000	4.18561   	1360.000000	4.2115    	1360.000000	4.43954   	1360.000000	4.17074   	1360.000000	4.21108   	1360.000000	0.000426819	
1380.000000	4.17924   	1380.000000	4.20525   	1380.000000	4.43232   	1380.000000	4.16371   	1380.000000	4.20483   	1380.000000	0.000421114	
1400.000000	4.17332   	1400.000000	4.19938   	1400.000000	4.42542   	1400.000000	4.15701   	1400.000000	4.19896   	1400.000000	0.000415565	
1420.000000	4.16782   	1420.000000	4.19388   	1420.000000	4.41883   	1420.000000	4.15062   	1420.000000	4.19347   	1420.000000	0.000410166	
1440.000000	4.16274   	1440.000000	4.18873   	1440.000000	4.41253   	1440.000000	4.14452   	1440.000000	4.18833   	1440.000000	0.000404911	
1460.000000	4.15805   	1460.000000	4.18392   	1460.000000	4.40652   	1460.000000	4.1387    	1460.000000	4.18353   	1460.000000	0.000399794	
1480.000000	4.15375   	1480.000000	4.17945   	1480.000000	4.40077   	1480.000000	4.13315   	1480.000000	4.17905   	1480.000000	0.000394809	
1500.000000	4.14981   	1500.000000	4.17528   	1500.000000	4.39529   	1500.000000	4.12786   	1500.000000	4.17489   	1500.000000	0.000389952	
1520.000000	4.14623   	1520.000000	4.17142   	1520.000000	4.39006   	1520.000000	4.12281   	1520.000000	4.17103   	1520.000000	0.000385217	
1540.000000	4.14299   	1540.000000	4.16784   	1540.000000	4.38506   	1540.000000	4.118     	1540.000000	4.16746   	1540.000000	0.0003806 	
1560.000000	4.14008   	1560.000000	4.16455   	1560.000000	4.38029   	1560.000000	4.11341   	1560.000000	4.16417   	1560.000000	0.000376096	
1580.000000	4.13749   	1580.000000	4.16152   	1580.000000	4.37575   	1580.000000	4.10904   	1580.000000	4.16115   	1580.000000	0.000371702	
1600.000000	4.13521   	1600.000000	4.15875   	1600.000000	4.37141   	1600.000000	4.10488   	1600.000000	4.15839   	1600.000000	0.000367413	
1620.000000	4.13322   	1620.000000	4.15623   	1620.000000	4.36728   	1620.000000	4.10091   	1620.000000	4.15587   	1620.000000	0.000363226	
1640.000000	4.13153   	1640.000000	4.15396   	1640.000000	4.36334   	1640.000000	4.09713   	1640.000000	4.1536    	1640.000000	0.000359136	
1660.000000	4.13011   	1660.000000	4.15191   	1660.000000	4.35959   	1660.000000	4.09353   	1660.000000	4.15155   	1660.000000	0.000355141	
1680.000000	4.12896   	1680.000000	4.15008   	1680.000000	4.35602   	1680.000000	4.09011   	1680.000000	4.14973   	1680.000000	0.000351237	
1700.000000	4.12807   	1700.000000	4.14848   	1700.000000	4.35261   	1700.000000	4.08685   	1700.000000	4.14813   	1700.000000	0.000347421	
1750.000000	4.12693   	1750.000000	4.14535   	1750.000000	4.3448    	1750.000000	4.0794    	1750.000000	4.14501   	1750.000000	0.000338248	
1800.000000	4.12725   	1800.000000	4.14342   	1800.000000	4.3379    	1800.000000	4.07285   	1800.000000	4.14309   	1800.000000	0.000329564	
1850.000000	4.12891   	1850.000000	4.14258   	1850.000000	4.33184   	1850.000000	4.06712   	1850.000000	4.14226   	1850.000000	0.00032133	
1900.000000	4.13184   	1900.000000	4.14276   	1900.000000	4.32653   	1900.000000	4.06214   	1900.000000	4.14244   	1900.000000	0.000313512	
1950.000000	4.13593   	1950.000000	4.14387   	1950.000000	4.32191   	1950.000000	4.05784   	1950.000000	4.14356   	1950.000000	0.000306078	
2000.000000	4.14111   	2000.000000	4.14584   	2000.000000	4.31791   	2000.000000	4.05415   	2000.000000	4.14555   	2000.000000	0.000299002	
2100.000000	4.15445   	2100.000000	4.15214   	2100.000000	4.3116    	2100.000000	4.0484    	2100.000000	4.15186   	2100.000000	0.00028582	
2200.000000	4.17138   	2200.000000	4.16122   	2200.000000	4.30721   	2200.000000	4.04454   	2200.000000	4.16094   	2200.000000	0.000273789	
2300.000000	4.19149   	2300.000000	4.1727    	2300.000000	4.30444   	2300.000000	4.04225   	2300.000000	4.17244   	2300.000000	0.000262764	
2400.000000	4.21441   	2400.000000	4.1863    	2400.000000	4.30303   	2400.000000	4.04128   	2400.000000	4.18605   	2400.000000	0.000252621	
2500.000000	4.23988   	2500.000000	4.20175   	2500.000000	4.30277   	2500.000000	4.04143   	2500.000000	4.20151   	2500.000000	0.000243259	
2600.000000	4.26762   	2600.000000	4.21885   	2600.000000	4.30348   	2600.000000	4.04253   	2600.000000	4.21861   	2600.000000	0.000234588	
2700.000000	4.29744   	2700.000000	4.2374    	2700.000000	4.30502   	2700.000000	4.04443   	2700.000000	4.23717   	2700.000000	0.000226535	
2800.000000	4.32914   	2800.000000	4.25724   	2800.000000	4.30727   	2800.000000	4.04702   	2800.000000	4.25702   	2800.000000	0.000219035	
2900.000000	4.36257   	2900.000000	4.27825   	2900.000000	4.31013   	2900.000000	4.05018   	2900.000000	4.27804   	2900.000000	0.000212032	
3000.000000	4.39759   	3000.000000	4.3003    	3000.000000	4.3135    	3000.000000	4.05384   	3000.000000	4.3001    	3000.000000	0.000205478	
3200.000000	4.47191   	3200.000000	4.34714   	3200.000000	4.32149   	3200.000000	4.06237   	3200.000000	4.34694   	3200.000000	0.000193552	
3400.000000	4.55129   	3400.000000	4.39706   	3400.000000	4.33073   	3400.000000	4.07211   	3400.000000	4.39687   	3400.000000	0.000182977	
3600.000000	4.63509   	3600.000000	4.44954   	3600.000000	4.34085   	3600.000000	4.08274   	3600.000000	4.44936   	3600.000000	0.000173534	
3800.000000	4.72281   	3800.000000	4.50415   	3800.000000	4.3516    	3800.000000	4.09398   	3800.000000	4.50399   	3800.000000	0.000165047	
4000.000000	4.81403   	4000.000000	4.56057   	4000.000000	4.36279   	4000.000000	4.10565   	4000.000000	4.56041   	4000.000000	0.000157378	
4200.000000	4.90842   	4200.000000	4.61852   	4200.000000	4.37428   	4200.000000	4.11759   	4200.000000	4.61837   	4200.000000	0.000150411	
4400.000000	5.0057    	4400.000000	4.67777   	4400.000000	4.38595   	4400.000000	4.12969   	4400.000000	4.67763   	4400.000000	0.000144055	
4600.000000	5.10564   	4600.000000	4.73815   	4600.000000	4.39773   	4600.000000	4.14187   	4600.000000	4.73801   	4600.000000	0.000138231	
4800.000000	5.20805   	4800.000000	4.7995    	4800.000000	4.40955   	4800.000000	4.15405   	4800.000000	4.79937   	4800.000000	0.000132875	
5000.000000	5.31278   	5000.000000	4.8617    	5000.000000	4.42136   	5000.000000	4.1662    	5000.000000	4.86157   	5000.000000	0.000127931	
5250.000000	5.44672   	5250.000000	4.94046   	5250.000000	4.43604   	5250.000000	4.18126   	5250.000000	4.94034   	5250.000000	0.000122261	
5500.000000	5.58382   	5500.000000	5.02021   	5500.000000	4.45058   	5500.000000	4.19614   	5500.000000	5.02009   	5500.000000	0.000117088	
6000.000000	5.86679   	6000.000000	5.18206   	6000.000000	4.47896   	6000.000000	4.22521   	6000.000000	5.18195   	6000.000000	0.00010799	
6500.000000	6.1605    	6500.000000	5.34637   	6500.000000	4.50594   	6500.000000	4.25321   	6500.000000	5.34627   	6500.000000	0.000100243	
7000.000000	6.46411   	7000.000000	5.51251   	7000.000000	4.53209   	7000.000000	4.28007   	7000.000000	5.51242   	7000.000000	9.3564e-05	
7500.000000	6.77699   	7500.000000	5.68002   	7500.000000	4.557     	7500.000000	4.3058    	7500.000000	5.67994   	7500.000000	8.77445e-05	
8000.000000	7.09865   	8000.000000	5.84857   	8000.000000	4.58069   	8000.000000	4.3304    	8000.000000	5.84849   	8000.000000	8.26272e-05	
8500.000000	7.42874   	8500.000000	6.0179    	8500.000000	4.60333   	8500.000000	4.35394   	8500.000000	6.01783   	8500.000000	7.80909e-05	
9000.000000	7.76696   	9000.000000	6.18783   	9000.000000	4.62501   	9000.000000	4.37646   	9000.000000	6.18775   	9000.000000	7.40412e-05	
9500.000000	8.11311   	9500.000000	6.35819   	9500.000000	4.64572   	9500.000000	4.39802   	9500.000000	6.35812   	9500.000000	7.0403e-05	
10000.000000	8.46699   	10000.000000	6.52888   	10000.000000	4.6655    	10000.000000	4.41868   	10000.000000	6.52882   	10000.000000	6.7116e-05	
11000.000000	9.19742   	11000.000000	6.8709    	11000.000000	4.70247   	11000.000000	4.45751   	11000.000000	6.87084   	11000.000000	6.14084e-05	
12000.000000	9.9574    	12000.000000	7.21334   	12000.000000	4.73634   	12000.000000	4.49338   	12000.000000	7.21328   	12000.000000	5.66206e-05	
13000.000000	10.7464   	13000.000000	7.55585   	13000.000000	4.76743   	13000.000000	4.52664   	13000.000000	7.5558    	13000.000000	5.25451e-05	
14000.000000	11.5639   	14000.000000	7.89822   	14000.000000	4.79613   	14000.000000	4.55761   	14000.000000	7.89817   	14000.000000	4.90325e-05	
15000.000000	12.4098   	15000.000000	8.24029   	15000.000000	4.82271   	15000.000000	4.58655   	15000.000000	8.24024   	15000.000000	4.59727e-05	
16000.000000	13.2839   	16000.000000	8.58196   	16000.000000	4.84737   	16000.000000	4.61368   	16000.000000	8.58191   	16000.000000	4.32828e-05	
17000.000000	14.1861   	17000.000000	8.92316   	17000.000000	4.87034   	17000.000000	4.63921   	17000.000000	8.92312   	17000.000000	4.08988e-05	
18000.000000	15.1163   	18000.000000	9.26385   	18000.000000	4.89183   	18000.000000	4.66329   	18000.000000	9.26381   	18000.000000	3.8771e-05	
19000.000000	16.0745   	19000.000000	9.604     	19000.000000	4.91206   	19000.000000	4.68607   	19000.000000	9.60396   	19000.000000	3.68598e-05	
20000.000000	17.0608   	20000.000000	9.94359   	20000.000000	4.93119   	20000.000000	4.70767   	20000.000000	9.94356   	20000.000000	3.51333e-05	
21000.000000	18.0751   	21000.000000	10.2826   	21000.000000	4.94917   	21000.000000	4.72821   	21000.000000	10.2826   	21000.000000	3.35659e-05	
22000.000000	19.1176   	22000.000000	10.6211   	22000.000000	4.96577   	22000.000000	4.74777   	22000.000000	10.6211   	22000.000000	3.21363e-05	
23000.000000	20.1883   	23000.000000	10.959    	23000.000000	4.98142   	23000.000000	4.76645   	23000.000000	10.959    	23000.000000	3.08269e-05	
24000.000000	21.2873   	24000.000000	11.2963   	24000.000000	4.99629   	24000.000000	4.7843    	24000.000000	11.2963   	24000.000000	2.96231e-05	
25000.000000	22.4147   	25000.000000	11.6331   	25000.000000	5.01039   	25000.000000	4.8014    	25000.000000	11.6331   	25000.000000	2.85124e-05	
26000.000000	23.5706   	26000.000000	11.9694   	26000.000000	5.02371   	26000.000000	4.81781   	26000.000000	11.9694   	26000.000000	2.74843e-05	
27000.000000	24.7551   	27000.000000	12.3051   	27000.000000	5.0363    	27000.000000	4.83357   	27000.000000	12.3051   	27000.000000	2.65299e-05	
28000.000000	25.9683   	28000.000000	12.6403   	28000.000000	5.04822   	28000.000000	4.84874   	28000.000000	12.6403   	28000.000000	2.56415e-05	
29000.000000	27.2104   	29000.000000	12.975    	29000.000000	5.05953   	29000.000000	4.86335   	29000.000000	12.975    	29000.000000	2.48123e-05	
30000.000000	28.4815   	30000.000000	13.3092   	30000.000000	5.07029   	30000.000000	4.87744   	30000.000000	13.3091   	30000.000000	2.40366e-05	
32000.000000	31.1111   	32000.000000	13.9761   	32000.000000	5.09026   	32000.000000	4.9042    	32000.000000	13.976    	32000.000000	2.2626e-05	
34000.000000	33.8582   	34000.000000	14.6411   	34000.000000	5.10838   	34000.000000	4.92926   	34000.000000	14.6411   	34000.000000	2.13761e-05	
36000.000000	36.724    	36000.000000	15.3043   	36000.000000	5.12478   	36000.000000	4.95281   	36000.000000	15.3043   	36000.000000	2.02607e-05	
38000.000000	39.7098   	38000.000000	15.9658   	38000.000000	5.13965   	38000.000000	4.97501   	38000.000000	15.9658   	38000.000000	1.9259e-05	
40000.000000	42.8166   	40000.000000	16.6257   	40000.000000	5.15321   	40000.000000	4.99602   	40000.000000	16.6257   	40000.000000	1.83543e-05	
42000.000000	46.0458   	42000.000000	17.284    	42000.000000	5.16564   	42000.000000	5.01593   	42000.000000	17.284    	42000.000000	1.75331e-05	
44000.000000	49.3986   	44000.000000	17.9408   	44000.000000	5.17713   	44000.000000	5.03487   	44000.000000	17.9408   	44000.000000	1.67842e-05	
46000.000000	52.8764   	46000.000000	18.5962   	46000.000000	5.18786   	46000.000000	5.05292   	46000.000000	18.5962   	46000.000000	1.60984e-05	
48000.000000	56.4803   	48000.000000	19.2502   	48000.000000	5.19785   	48000.000000	5.07015   	48000.000000	19.2502   	48000.000000	1.54679e-05	
50000.000000	60.2118   	50000.000000	19.9028   	50000.000000	5.20696   	50000.000000	5.08663   	50000.000000	19.9028   	50000.000000	1.48863e-05	
