Energy (MeV/u)1	0 - [He-base] F.Hubert et al, AD&ND Tables 46(1990)1	Energy (MeV/u)2	1 - [H -base] J.F.Ziegler et al, Pergamon Press, NY (low energy)	Energy (MeV/u)3	2 - ATIMA 1.2  LS-theory (recommended for high energy)	Energy (MeV/u)4	3 - ATIMA 1.2  without LS-correction	Energy (MeV/u)5	4 - electrical component of [1] - J.F.Ziegler et al	Energy (MeV/u)6	5 - nuclear component of [1] - J.F.Ziegler et al	
0.001000	2.49466   	0.001000	1.47795   	0.001000	1.70147   	0.001000	1.70147   	0.001000	0.619275  	0.001000	0.858674  	
0.002000	2.58211   	0.002000	1.52805   	0.002000	1.79914   	0.002000	1.79914   	0.002000	0.8031    	0.002000	0.72495   	
0.005000	2.90673   	0.005000	1.63459   	0.005000	1.98252   	0.005000	1.98252   	0.005000	1.13239   	0.005000	0.502199  	
0.008000	3.21338   	0.008000	1.74432   	0.008000	2.13867   	0.008000	2.13867   	0.008000	1.35065   	0.008000	0.393673  	
0.010000	3.39876   	0.010000	1.81538   	0.010000	2.23359   	0.010000	2.23359   	0.010000	1.46853   	0.010000	0.346844  	
0.015000	3.98527   	0.015000	2.04427   	0.015000	2.49488   	0.015000	2.49488   	0.015000	1.77306   	0.015000	0.271209  	
0.020000	4.50613   	0.020000	2.50876   	0.020000	2.93059   	0.020000	2.93059   	0.020000	2.28347   	0.020000	0.225285  	
0.025000	5.09644   	0.025000	2.98216   	0.025000	3.37619   	0.025000	3.37619   	0.025000	2.78814   	0.025000	0.194012  	
0.030000	5.62361   	0.030000	3.45054   	0.030000	3.7754    	0.030000	3.7754    	0.030000	3.27939   	0.030000	0.171152  	
0.035000	6.08057   	0.035000	3.90382   	0.035000	4.15692   	0.035000	4.15692   	0.035000	3.7502    	0.035000	0.153613  	
0.040000	6.45255   	0.040000	4.3323    	0.040000	4.51709   	0.040000	4.51709   	0.040000	4.1939    	0.040000	0.138394  	
0.045000	6.74249   	0.045000	4.72307   	0.045000	4.85717   	0.045000	4.85717   	0.045000	4.59593   	0.045000	0.127143  	
0.050000	6.95964   	0.050000	5.0838    	0.050000	5.17496   	0.050000	5.17496   	0.050000	4.96605   	0.050000	0.11775   	
0.055000	7.32868   	0.055000	5.41346   	0.055000	5.47026   	0.055000	5.47026   	0.055000	5.30368   	0.055000	0.109777  	
0.060000	7.65369   	0.060000	5.71217   	0.060000	5.7433    	0.060000	5.7433    	0.060000	5.60926   	0.060000	0.102915  	
0.070000	8.17997   	0.070000	6.22133   	0.070000	6.22504   	0.070000	6.22504   	0.070000	6.12965   	0.070000	0.0916844 	
0.080000	8.73508   	0.080000	6.62532   	0.080000	6.6273    	0.080000	6.6273    	0.080000	6.54246   	0.080000	0.0828551 	
0.090000	9.20166   	0.090000	6.95067   	0.090000	6.95924   	0.090000	6.95924   	0.090000	6.87496   	0.090000	0.075712  	
0.100000	9.59037   	0.100000	7.21293   	0.100000	7.23072   	0.100000	7.23072   	0.100000	7.14313   	0.100000	0.0698017 	
0.120000	9.95488   	0.120000	7.5817    	0.120000	7.62967   	0.120000	7.62967   	0.120000	7.52114   	0.120000	0.0605631 	
0.140000	10.191    	0.140000	7.81661   	0.140000	7.88948   	0.140000	7.88948   	0.140000	7.76296   	0.140000	0.053647  	
0.160000	10.3689   	0.160000	7.97127   	0.160000	8.05834   	0.160000	8.05834   	0.160000	7.92302   	0.160000	0.0482567 	
0.180000	10.508    	0.180000	8.05604   	0.180000	8.16907   	0.180000	8.16907   	0.180000	8.01211   	0.180000	0.0439263 	
0.200000	10.6571   	0.200000	8.12027   	0.200000	8.243     	0.200000	8.243     	0.200000	8.07991   	0.200000	0.0403641 	
0.250000	10.7236   	0.250000	8.23382   	0.250000	8.34313   	0.250000	8.34313   	0.250000	8.20012   	0.250000	0.0336984 	
0.300000	10.882    	0.300000	8.35525   	0.300000	8.38853   	0.300000	8.38853   	0.300000	8.32621   	0.300000	0.02904   	
0.350000	11.0546   	0.350000	8.47123   	0.350000	8.41001   	0.350000	8.41001   	0.350000	8.44564   	0.350000	0.0255857 	
0.400000	11.1709   	0.400000	8.53848   	0.400000	8.41659   	0.400000	8.41659   	0.400000	8.51557   	0.400000	0.0229137 	
0.450000	11.238    	0.450000	8.56994   	0.450000	8.49834   	0.450000	8.49834   	0.450000	8.54916   	0.450000	0.0207804 	
0.500000	11.286    	0.500000	8.59086   	0.500000	8.55874   	0.500000	8.55874   	0.500000	8.57182   	0.500000	0.0190345 	
0.600000	10.9158   	0.600000	8.58341   	0.600000	8.60069   	0.600000	8.60069   	0.600000	8.56707   	0.600000	0.0163411 	
0.700000	10.5243   	0.700000	8.57872   	0.700000	8.57069   	0.700000	8.57069   	0.700000	8.56436   	0.700000	0.0143538 	
0.800000	10.4679   	0.800000	8.52725   	0.800000	8.45682   	0.800000	8.45682   	0.800000	8.51443   	0.800000	0.0128227 	
0.900000	10.292    	0.900000	8.38732   	0.900000	8.32365   	0.900000	8.32365   	0.900000	8.37572   	0.900000	0.0116043 	
1.000000	10.0904   	1.000000	8.23144   	1.000000	8.18049   	1.000000	8.18049   	1.000000	8.22083   	1.000000	0.0106099 	
1.250000	9.51196   	1.250000	7.81442   	1.250000	7.80662   	1.250000	7.80662   	1.250000	7.80565   	1.250000	0.00876934	
1.500000	8.94569   	1.500000	7.41226   	1.500000	7.391     	1.500000	7.391     	1.500000	7.40476   	1.500000	0.00749939	
1.750000	8.41873   	1.750000	7.03946   	1.750000	7.02246   	1.750000	7.02246   	1.750000	7.03289   	1.750000	0.0065669 	
2.000000	7.94066   	2.000000	6.70148   	2.000000	6.69162   	2.000000	6.69162   	2.000000	6.69563   	2.000000	0.00585129	
2.250000	7.52213   	2.250000	6.39636   	2.250000	6.39221   	2.250000	6.39221   	2.250000	6.39108   	2.250000	0.00528367	
2.500000	7.40535   	2.500000	6.11883   	2.500000	6.11968   	2.500000	6.11968   	2.500000	6.11401   	2.500000	0.00482174	
3.000000	6.68704   	3.000000	5.63294   	3.000000	5.64178   	3.000000	5.64178   	3.000000	5.62883   	3.000000	0.00411392	
3.500000	6.09952   	3.500000	5.21666   	3.500000	5.23648   	3.500000	5.23648   	3.500000	5.21306   	3.500000	0.00359564	
4.000000	5.61088   	4.000000	4.86264   	4.000000	4.88849   	4.000000	4.88849   	4.000000	4.85944   	4.000000	0.00319881	
4.500000	5.19831   	4.500000	4.55847   	4.500000	4.58649   	4.500000	4.58649   	4.500000	4.55559   	4.500000	0.00288465	
5.000000	4.84534   	5.000000	4.29376   	5.000000	4.3219    	5.000000	4.3219    	5.000000	4.29114   	5.000000	0.0026294 	
5.500000	4.53989   	5.500000	4.06072   	5.500000	4.08814   	5.500000	4.08814   	5.500000	4.0583    	5.500000	0.00241768	
6.000000	4.27289   	6.000000	3.85279   	6.000000	3.88006   	6.000000	3.88006   	6.000000	3.85055   	6.000000	0.00223907	
6.500000	4.03745   	6.500000	3.66751   	6.500000	3.6936    	6.500000	3.6936    	6.500000	3.66543   	6.500000	0.00208624	
7.000000	3.82823   	7.000000	3.5011    	7.000000	3.52551   	7.000000	3.52551   	7.000000	3.49915   	7.000000	0.00195392	
7.500000	3.64104   	7.500000	3.35065   	7.500000	3.37315   	7.500000	3.37315   	7.500000	3.34881   	7.500000	0.00183816	
8.000000	3.47253   	8.000000	3.21383   	8.000000	3.23439   	8.000000	3.23439   	8.000000	3.2121    	8.000000	0.00173599	
8.500000	3.32      	8.500000	3.08881   	8.500000	3.10745   	8.500000	3.10745   	8.500000	3.08716   	8.500000	0.00164511	
9.000000	3.18126   	9.000000	2.97405   	9.000000	2.99086   	9.000000	2.99086   	9.000000	2.97249   	9.000000	0.00156373	
9.500000	3.05448   	9.500000	2.8683    	9.500000	2.88337   	9.500000	2.88337   	9.500000	2.86681   	9.500000	0.0014904 	
10.000000	2.93817   	10.000000	2.78298   	10.000000	2.78395   	10.000000	2.78395   	10.000000	2.78155   	10.000000	0.00142397	
11.000000	2.73209   	11.000000	2.60551   	11.000000	2.60119   	11.000000	2.60568   	11.000000	2.6042    	11.000000	0.00130817	
12.000000	2.55507   	12.000000	2.44985   	12.000000	2.44187   	12.000000	2.4494    	12.000000	2.44864   	12.000000	0.00121059	
13.000000	2.40128   	13.000000	2.31234   	13.000000	2.30162   	13.000000	2.31124   	13.000000	2.31121   	13.000000	0.00112717	
14.000000	2.26639   	14.000000	2.19005   	14.000000	2.17716   	14.000000	2.1882    	14.000000	2.189     	14.000000	0.00105501	
15.000000	2.14705   	15.000000	2.08064   	15.000000	2.06596   	15.000000	2.07789   	15.000000	2.07965   	15.000000	0.000991922	
16.000000	2.0407    	16.000000	1.9822    	16.000000	1.9659    	16.000000	1.97841   	16.000000	1.98127   	16.000000	0.000936286	
17.000000	1.94529   	17.000000	1.89319   	17.000000	1.87536   	17.000000	1.88822   	17.000000	1.8923    	17.000000	0.000886832	
18.000000	1.8592    	18.000000	1.81232   	18.000000	1.79307   	18.000000	1.80607   	18.000000	1.81148   	18.000000	0.000842569	
19.000000	1.7811    	19.000000	1.73853   	19.000000	1.71796   	19.000000	1.73091   	19.000000	1.73773   	19.000000	0.000802709	
20.000000	1.70991   	20.000000	1.67094   	20.000000	1.64911   	20.000000	1.66188   	20.000000	1.67018   	20.000000	0.000766616	
21.000000	1.64475   	21.000000	1.60881   	21.000000	1.58574   	21.000000	1.59825   	21.000000	1.60807   	21.000000	0.000733773	
22.000000	1.58486   	22.000000	1.55149   	22.000000	1.52718   	22.000000	1.53941   	22.000000	1.55078   	22.000000	0.000703753	
23.000000	1.52963   	23.000000	1.49845   	23.000000	1.47291   	23.000000	1.48484   	23.000000	1.49777   	23.000000	0.000676202	
24.000000	1.47852   	24.000000	1.44923   	24.000000	1.42248   	24.000000	1.43408   	24.000000	1.44858   	24.000000	0.000650822	
25.000000	1.43107   	25.000000	1.40343   	25.000000	1.37551   	25.000000	1.38675   	25.000000	1.40281   	25.000000	0.000627364	
27.000000	1.3457    	27.000000	1.32077   	27.000000	1.2906    	27.000000	1.30107   	27.000000	1.32018   	27.000000	0.000585385	
29.000000	1.271     	29.000000	1.24818   	29.000000	1.21586   	29.000000	1.2256    	29.000000	1.24763   	29.000000	0.000548898	
31.000000	1.20505   	31.000000	1.18393   	31.000000	1.15213   	31.000000	1.16068   	31.000000	1.18341   	31.000000	0.000516877	
33.000000	1.14638   	33.000000	1.12666   	33.000000	1.09766   	33.000000	1.10474   	33.000000	1.12617   	33.000000	0.000488538	
35.000000	1.09383   	35.000000	1.07527   	35.000000	1.04869   	35.000000	1.05461   	35.000000	1.07481   	35.000000	0.000463271	
38.000000	1.0245    	38.000000	1.00739   	38.000000	0.983962  	38.000000	0.988411  	38.000000	1.00696   	38.000000	0.000430109	
41.000000	0.964493  	41.000000	0.948555  	41.000000	0.927712  	41.000000	0.931064  	41.000000	0.948154  	41.000000	0.000401559	
44.000000	0.912011  	44.000000	0.897064  	44.000000	0.87842   	44.000000	0.880874  	44.000000	0.896687  	44.000000	0.00037671	
47.000000	0.865703  	47.000000	0.85161   	47.000000	0.834782  	47.000000	0.836561  	47.000000	0.851255  	47.000000	0.000354877	
50.000000	0.824521  	50.000000	0.811182  	50.000000	0.795887  	50.000000	0.797132  	50.000000	0.810847  	50.000000	0.000335535	
55.000000	0.765122  	55.000000	0.752882  	55.000000	0.73974   	55.000000	0.740233  	55.000000	0.752574  	55.000000	0.000307764	
60.000000	0.714901  	60.000000	0.703617  	60.000000	0.692188  	60.000000	0.692104  	60.000000	0.703332  	60.000000	0.000284403	
65.000000	0.671849  	65.000000	0.66142   	65.000000	0.651335  	65.000000	0.650835  	65.000000	0.661156  	65.000000	0.000264467	
70.000000	0.634506  	70.000000	0.62486   	70.000000	0.615884  	70.000000	0.615036  	70.000000	0.624613  	70.000000	0.000247245	
75.000000	0.601787  	75.000000	0.592867  	75.000000	0.584772  	75.000000	0.583675  	75.000000	0.592635  	75.000000	0.000232212	
80.000000	0.572866  	80.000000	0.564627  	80.000000	0.557183  	80.000000	0.555963  	80.000000	0.564408  	80.000000	0.000218971	
85.000000	0.547107  	85.000000	0.539512  	85.000000	0.532692  	85.000000	0.531291  	85.000000	0.539304  	85.000000	0.000207214	
90.000000	0.524007  	90.000000	0.517024  	90.000000	0.510732  	90.000000	0.509179  	90.000000	0.516827  	90.000000	0.000196704	
95.000000	0.503165  	95.000000	0.496768  	95.000000	0.49086   	95.000000	0.489243  	95.000000	0.496581  	95.000000	0.000187248	
100.000000	0.48426   	100.000000	0.478425  	100.000000	0.472845  	100.000000	0.471174  	100.000000	0.478246  	100.000000	0.000178694	
105.000000	0.467027  	105.000000	0.461733  	105.000000	0.456498  	105.000000	0.454718  	105.000000	0.461562  	105.000000	0.000170917	
110.000000	0.451249  	110.000000	0.446477  	110.000000	0.441497  	110.000000	0.439668  	110.000000	0.446313  	110.000000	0.000163815	
115.000000	0.436744  	115.000000	0.432478  	115.000000	0.427706  	115.000000	0.425848  	115.000000	0.432321  	115.000000	0.000157302	
120.000000	0.423362  	120.000000	0.419586  	120.000000	0.415002  	120.000000	0.413113  	120.000000	0.419435  	120.000000	0.000151307	
125.000000	0.410973  	125.000000	0.407673  	125.000000	0.403252  	125.000000	0.401338  	125.000000	0.407527  	125.000000	0.000145769	
130.000000	0.399469  	130.000000	0.396631  	130.000000	0.392355  	130.000000	0.390419  	130.000000	0.39649   	130.000000	0.000140638	
135.000000	0.388755  	135.000000	0.386367  	135.000000	0.38222   	135.000000	0.380265  	135.000000	0.386231  	135.000000	0.00013587	
140.000000	0.37875   	140.000000	0.376801  	140.000000	0.372768  	140.000000	0.370797  	140.000000	0.37667   	140.000000	0.000131427	
145.000000	0.369385  	145.000000	0.367864  	145.000000	0.363936  	145.000000	0.361949  	145.000000	0.367737  	145.000000	0.000127277	
150.000000	0.360599  	150.000000	0.359496  	150.000000	0.355663  	150.000000	0.35366   	150.000000	0.359373  	150.000000	0.000123391	
155.000000	0.348225  	155.000000	0.351643  	155.000000	0.347868  	155.000000	0.34588   	155.000000	0.351523  	155.000000	0.000119744	
160.000000	0.340973  	160.000000	0.34426   	160.000000	0.340534  	160.000000	0.338563  	160.000000	0.344143  	160.000000	0.000116315	
165.000000	0.334134  	165.000000	0.337304  	165.000000	0.333649  	165.000000	0.331669  	165.000000	0.337191  	165.000000	0.000113084	
170.000000	0.327674  	170.000000	0.330741  	170.000000	0.327155  	170.000000	0.325162  	170.000000	0.330631  	170.000000	0.000110035	
175.000000	0.32156   	175.000000	0.324536  	175.000000	0.321009  	175.000000	0.319011  	175.000000	0.324429  	175.000000	0.000107152	
180.000000	0.315766  	180.000000	0.318663  	180.000000	0.315183  	180.000000	0.313186  	180.000000	0.318559  	180.000000	0.000104422	
185.000000	0.310267  	185.000000	0.313095  	185.000000	0.309653  	185.000000	0.307664  	185.000000	0.312993  	185.000000	0.000101833	
190.000000	0.305041  	190.000000	0.307808  	190.000000	0.304399  	190.000000	0.302421  	190.000000	0.307708  	190.000000	9.93749e-05	
195.000000	0.300067  	195.000000	0.302782  	195.000000	0.299415  	195.000000	0.297436  	195.000000	0.302685  	195.000000	9.70368e-05	
200.000000	0.295328  	200.000000	0.297998  	200.000000	0.294677  	200.000000	0.292691  	200.000000	0.297903  	200.000000	9.48104e-05	
210.000000	0.286489  	210.000000	0.28909   	210.000000	0.285813  	210.000000	0.283855  	210.000000	0.288999  	210.000000	9.06619e-05	
220.000000	0.27841   	220.000000	0.280964  	220.000000	0.277757  	220.000000	0.275797  	220.000000	0.280877  	220.000000	8.68742e-05	
230.000000	0.270996  	230.000000	0.273523  	230.000000	0.270354  	230.000000	0.268419  	230.000000	0.27344   	230.000000	8.34017e-05	
240.000000	0.264169  	240.000000	0.266683  	240.000000	0.263571  	240.000000	0.261639  	240.000000	0.266603  	240.000000	8.02062e-05	
250.000000	0.25786   	250.000000	0.260376  	250.000000	0.257305  	250.000000	0.255388  	250.000000	0.260298  	250.000000	7.72554e-05	
260.000000	0.252013  	260.000000	0.254541  	260.000000	0.251511  	260.000000	0.249608  	260.000000	0.254466  	260.000000	7.45218e-05	
270.000000	0.246578  	270.000000	0.249128  	270.000000	0.24615   	270.000000	0.244248  	270.000000	0.249056  	270.000000	7.19821e-05	
280.000000	0.241514  	280.000000	0.244093  	280.000000	0.241142  	280.000000	0.239265  	280.000000	0.244023  	280.000000	6.9616e-05	
290.000000	0.236784  	290.000000	0.239398  	290.000000	0.236498  	290.000000	0.234621  	290.000000	0.239331  	290.000000	6.74062e-05	
300.000000	0.232356  	300.000000	0.235011  	300.000000	0.232154  	300.000000	0.230283  	300.000000	0.234946  	300.000000	6.53375e-05	
310.000000	0.228202  	310.000000	0.230902  	310.000000	0.22807   	310.000000	0.226224  	310.000000	0.230839  	310.000000	6.33966e-05	
320.000000	0.224298  	320.000000	0.227047  	320.000000	0.224243  	320.000000	0.222417  	320.000000	0.226986  	320.000000	6.15718e-05	
330.000000	0.220622  	330.000000	0.223423  	330.000000	0.220663  	330.000000	0.21884   	330.000000	0.223363  	330.000000	5.9853e-05	
340.000000	0.217154  	340.000000	0.220011  	340.000000	0.217297  	340.000000	0.215475  	340.000000	0.219952  	340.000000	5.8231e-05	
350.000000	0.213879  	350.000000	0.216792  	350.000000	0.214111  	350.000000	0.212303  	350.000000	0.216735  	350.000000	5.66978e-05	
360.000000	0.21078   	360.000000	0.213751  	360.000000	0.211096  	360.000000	0.209308  	360.000000	0.213696  	360.000000	5.52463e-05	
370.000000	0.207844  	370.000000	0.210875  	370.000000	0.208251  	370.000000	0.206477  	370.000000	0.210821  	370.000000	5.38699e-05	
380.000000	0.205058  	380.000000	0.20815   	380.000000	0.205568  	380.000000	0.203798  	380.000000	0.208097  	380.000000	5.25629e-05	
390.000000	0.202413  	390.000000	0.205565  	390.000000	0.203029  	390.000000	0.201258  	390.000000	0.205514  	390.000000	5.13201e-05	
400.000000	0.199897  	400.000000	0.203111  	400.000000	0.200611  	400.000000	0.198848  	400.000000	0.203061  	400.000000	5.01369e-05	
410.000000	0.197501  	410.000000	0.200777  	410.000000	0.198306  	410.000000	0.196558  	410.000000	0.200728  	410.000000	4.90089e-05	
420.000000	0.195219  	420.000000	0.198556  	420.000000	0.196113  	420.000000	0.194381  	420.000000	0.198508  	420.000000	4.79325e-05	
430.000000	0.193041  	430.000000	0.19644   	430.000000	0.19403   	430.000000	0.192308  	430.000000	0.196393  	430.000000	4.69041e-05	
440.000000	0.190961  	440.000000	0.194422  	440.000000	0.192053  	440.000000	0.190332  	440.000000	0.194376  	440.000000	4.59204e-05	
450.000000	0.188973  	450.000000	0.192496  	450.000000	0.190169  	450.000000	0.188448  	450.000000	0.192451  	450.000000	4.49787e-05	
460.000000	0.187072  	460.000000	0.190655  	460.000000	0.188364  	460.000000	0.186648  	460.000000	0.190611  	460.000000	4.40762e-05	
470.000000	0.185252  	470.000000	0.188895  	470.000000	0.186634  	470.000000	0.184929  	470.000000	0.188852  	470.000000	4.32106e-05	
480.000000	0.183507  	480.000000	0.18721   	480.000000	0.184979  	480.000000	0.183285  	480.000000	0.187168  	480.000000	4.23795e-05	
490.000000	0.181835  	490.000000	0.185597  	490.000000	0.183396  	490.000000	0.181712  	490.000000	0.185556  	490.000000	4.15809e-05	
500.000000	0.18023   	500.000000	0.184051  	500.000000	0.181881  	500.000000	0.180205  	500.000000	0.18401   	500.000000	4.0813e-05	
520.000000	0.177209  	520.000000	0.181144  	520.000000	0.179031  	520.000000	0.177375  	520.000000	0.181105  	520.000000	3.93622e-05	
540.000000	0.174417  	540.000000	0.178463  	540.000000	0.176419  	540.000000	0.174768  	540.000000	0.178425  	540.000000	3.80145e-05	
560.000000	0.171831  	560.000000	0.175984  	560.000000	0.174011  	560.000000	0.172361  	560.000000	0.175947  	560.000000	3.67592e-05	
580.000000	0.16943   	580.000000	0.173687  	580.000000	0.171769  	580.000000	0.170133  	580.000000	0.173652  	580.000000	3.5587e-05	
600.000000	0.167196  	600.000000	0.171554  	600.000000	0.169688  	600.000000	0.168067  	600.000000	0.17152   	600.000000	3.44899e-05	
620.000000	0.165116  	620.000000	0.16957   	620.000000	0.167756  	620.000000	0.166147  	620.000000	0.169537  	620.000000	3.34606e-05	
640.000000	0.163174  	640.000000	0.167721  	640.000000	0.165954  	640.000000	0.164359  	640.000000	0.167688  	640.000000	3.24932e-05	
660.000000	0.161359  	660.000000	0.165995  	660.000000	0.164279  	660.000000	0.162692  	660.000000	0.165963  	660.000000	3.15821e-05	
680.000000	0.15966   	680.000000	0.164382  	680.000000	0.162721  	680.000000	0.161134  	680.000000	0.164351  	680.000000	3.07224e-05	
700.000000	0.158068  	700.000000	0.162871  	700.000000	0.161262  	700.000000	0.159677  	700.000000	0.162841  	700.000000	2.99099e-05	
720.000000	0.156574  	720.000000	0.161456  	720.000000	0.159888  	720.000000	0.158312  	720.000000	0.161427  	720.000000	2.91407e-05	
740.000000	0.155172  	740.000000	0.160128  	740.000000	0.158596  	740.000000	0.157031  	740.000000	0.160099  	740.000000	2.84115e-05	
760.000000	0.153853  	760.000000	0.15888   	760.000000	0.157384  	760.000000	0.155828  	760.000000	0.158853  	760.000000	2.77191e-05	
780.000000	0.152612  	780.000000	0.157707  	780.000000	0.156244  	780.000000	0.154696  	780.000000	0.15768   	780.000000	2.70609e-05	
800.000000	0.151444  	800.000000	0.156603  	800.000000	0.155172  	800.000000	0.153631  	800.000000	0.156577  	800.000000	2.64343e-05	
820.000000	0.150343  	820.000000	0.155564  	820.000000	0.154166  	820.000000	0.152632  	820.000000	0.155538  	820.000000	2.5837e-05	
840.000000	0.149305  	840.000000	0.154584  	840.000000	0.153239  	840.000000	0.151713  	840.000000	0.154558  	840.000000	2.5267e-05	
860.000000	0.148326  	860.000000	0.153659  	860.000000	0.152364  	860.000000	0.150846  	860.000000	0.153634  	860.000000	2.47226e-05	
880.000000	0.147401  	880.000000	0.152787  	880.000000	0.151538  	880.000000	0.150027  	880.000000	0.152763  	880.000000	2.42019e-05	
900.000000	0.146529  	900.000000	0.151963  	900.000000	0.15076   	900.000000	0.149252  	900.000000	0.151939  	900.000000	2.37034e-05	
920.000000	0.145704  	920.000000	0.151184  	920.000000	0.150027  	920.000000	0.148519  	920.000000	0.151161  	920.000000	2.32258e-05	
940.000000	0.144925  	940.000000	0.150448  	940.000000	0.149333  	940.000000	0.147825  	940.000000	0.150426  	940.000000	2.27677e-05	
960.000000	0.144189  	960.000000	0.149752  	960.000000	0.148674  	960.000000	0.147167  	960.000000	0.14973   	960.000000	2.23279e-05	
980.000000	0.143493  	980.000000	0.149094  	980.000000	0.148047  	980.000000	0.146544  	980.000000	0.149072  	980.000000	2.19054e-05	
1000.000000	0.142835  	1000.000000	0.148471  	1000.000000	0.14745   	1000.000000	0.145953  	1000.000000	0.14845   	1000.000000	2.14992e-05	
1020.000000	0.142213  	1020.000000	0.147882  	1020.000000	0.146883  	1020.000000	0.145392  	1020.000000	0.147861  	1020.000000	2.11082e-05	
1040.000000	0.141625  	1040.000000	0.147324  	1040.000000	0.146345  	1040.000000	0.144859  	1040.000000	0.147303  	1040.000000	2.07317e-05	
1060.000000	0.141069  	1060.000000	0.146796  	1060.000000	0.145835  	1060.000000	0.144353  	1060.000000	0.146775  	1060.000000	2.03689e-05	
1080.000000	0.140543  	1080.000000	0.146295  	1080.000000	0.14535   	1080.000000	0.143872  	1080.000000	0.146275  	1080.000000	2.0019e-05	
1100.000000	0.140047  	1100.000000	0.145822  	1100.000000	0.144889  	1100.000000	0.143415  	1100.000000	0.145802  	1100.000000	1.96813e-05	
1120.000000	0.139577  	1120.000000	0.145374  	1120.000000	0.14445   	1120.000000	0.14298   	1120.000000	0.145354  	1120.000000	1.93552e-05	
1140.000000	0.139134  	1140.000000	0.144949  	1140.000000	0.144033  	1140.000000	0.142567  	1140.000000	0.14493   	1140.000000	1.90401e-05	
1160.000000	0.138716  	1160.000000	0.144548  	1160.000000	0.143635  	1160.000000	0.142173  	1160.000000	0.144529  	1160.000000	1.87355e-05	
1180.000000	0.138322  	1180.000000	0.144167  	1180.000000	0.143257  	1180.000000	0.141798  	1180.000000	0.144149  	1180.000000	1.84407e-05	
1200.000000	0.13795   	1200.000000	0.143808  	1200.000000	0.142897  	1200.000000	0.141441  	1200.000000	0.14379   	1200.000000	1.81555e-05	
1220.000000	0.1376    	1220.000000	0.143468  	1220.000000	0.142553  	1220.000000	0.141102  	1220.000000	0.14345   	1220.000000	1.78792e-05	
1240.000000	0.13727   	1240.000000	0.143146  	1240.000000	0.142227  	1240.000000	0.140778  	1240.000000	0.143129  	1240.000000	1.76115e-05	
1260.000000	0.13696   	1260.000000	0.142843  	1260.000000	0.141915  	1260.000000	0.140469  	1260.000000	0.142825  	1260.000000	1.7352e-05	
1280.000000	0.136668  	1280.000000	0.142556  	1280.000000	0.141618  	1280.000000	0.140176  	1280.000000	0.142539  	1280.000000	1.71002e-05	
1300.000000	0.136395  	1300.000000	0.142285  	1300.000000	0.141335  	1300.000000	0.139895  	1300.000000	0.142268  	1300.000000	1.6856e-05	
1320.000000	0.136139  	1320.000000	0.14203   	1320.000000	0.141065  	1320.000000	0.139628  	1320.000000	0.142013  	1320.000000	1.66188e-05	
1340.000000	0.135899  	1340.000000	0.141789  	1340.000000	0.140807  	1340.000000	0.139374  	1340.000000	0.141773  	1340.000000	1.63885e-05	
1360.000000	0.135675  	1360.000000	0.141563  	1360.000000	0.140562  	1360.000000	0.139131  	1360.000000	0.141547  	1360.000000	1.61646e-05	
1380.000000	0.135466  	1380.000000	0.14135   	1380.000000	0.140328  	1380.000000	0.1389    	1380.000000	0.141334  	1380.000000	1.5947e-05	
1400.000000	0.135272  	1400.000000	0.14115   	1400.000000	0.140105  	1400.000000	0.138679  	1400.000000	0.141135  	1400.000000	1.57354e-05	
1420.000000	0.135092  	1420.000000	0.140963  	1420.000000	0.139892  	1420.000000	0.138469  	1420.000000	0.140947  	1420.000000	1.55295e-05	
1440.000000	0.134925  	1440.000000	0.140787  	1440.000000	0.13969   	1440.000000	0.138269  	1440.000000	0.140772  	1440.000000	1.53292e-05	
1460.000000	0.134772  	1460.000000	0.140623  	1460.000000	0.139497  	1460.000000	0.138078  	1460.000000	0.140608  	1460.000000	1.51341e-05	
1480.000000	0.134631  	1480.000000	0.14047   	1480.000000	0.139314  	1480.000000	0.137896  	1480.000000	0.140455  	1480.000000	1.4944e-05	
1500.000000	0.134501  	1500.000000	0.140327  	1500.000000	0.139139  	1500.000000	0.137722  	1500.000000	0.140312  	1500.000000	1.47589e-05	
1520.000000	0.134384  	1520.000000	0.140194  	1520.000000	0.138973  	1520.000000	0.137557  	1520.000000	0.140179  	1520.000000	1.45784e-05	
1540.000000	0.134277  	1540.000000	0.140071  	1540.000000	0.138815  	1540.000000	0.137399  	1540.000000	0.140057  	1540.000000	1.44025e-05	
1560.000000	0.134182  	1560.000000	0.139958  	1560.000000	0.138664  	1560.000000	0.137249  	1560.000000	0.139943  	1560.000000	1.42309e-05	
1580.000000	0.134096  	1580.000000	0.139853  	1580.000000	0.13852   	1580.000000	0.137106  	1580.000000	0.139839  	1580.000000	1.40634e-05	
1600.000000	0.134021  	1600.000000	0.139757  	1600.000000	0.138384  	1600.000000	0.13697   	1600.000000	0.139743  	1600.000000	1.39e-05  	
1620.000000	0.133955  	1620.000000	0.139669  	1620.000000	0.138253  	1620.000000	0.136841  	1620.000000	0.139656  	1620.000000	1.37405e-05	
1640.000000	0.133899  	1640.000000	0.13959   	1640.000000	0.138129  	1640.000000	0.136718  	1640.000000	0.139576  	1640.000000	1.35848e-05	
1660.000000	0.133852  	1660.000000	0.139518  	1660.000000	0.138011  	1660.000000	0.136601  	1660.000000	0.139505  	1660.000000	1.34326e-05	
1680.000000	0.133814  	1680.000000	0.139454  	1680.000000	0.137899  	1680.000000	0.136489  	1680.000000	0.13944   	1680.000000	1.32839e-05	
1700.000000	0.133784  	1700.000000	0.139397  	1700.000000	0.137792  	1700.000000	0.136384  	1700.000000	0.139384  	1700.000000	1.31386e-05	
1750.000000	0.133744  	1750.000000	0.139284  	1750.000000	0.137548  	1750.000000	0.136142  	1750.000000	0.139271  	1750.000000	1.27893e-05	
1800.000000	0.133752  	1800.000000	0.139211  	1800.000000	0.137334  	1800.000000	0.135931  	1800.000000	0.139199  	1800.000000	1.24587e-05	
1850.000000	0.133804  	1850.000000	0.139176  	1850.000000	0.137147  	1850.000000	0.135747  	1850.000000	0.139163  	1850.000000	1.21454e-05	
1900.000000	0.133897  	1900.000000	0.139174  	1900.000000	0.136985  	1900.000000	0.135588  	1900.000000	0.139162  	1900.000000	1.18479e-05	
1950.000000	0.134028  	1950.000000	0.139203  	1950.000000	0.136845  	1950.000000	0.135451  	1950.000000	0.139191  	1950.000000	1.15651e-05	
2000.000000	0.134194  	2000.000000	0.139261  	2000.000000	0.136726  	2000.000000	0.135335  	2000.000000	0.13925   	2000.000000	1.12959e-05	
2100.000000	0.134624  	2100.000000	0.139457  	2100.000000	0.136542  	2100.000000	0.135157  	2100.000000	0.139446  	2100.000000	1.07946e-05	
2200.000000	0.13517   	2200.000000	0.139745  	2200.000000	0.136422  	2200.000000	0.135042  	2200.000000	0.139735  	2200.000000	1.03373e-05	
2300.000000	0.13582   	2300.000000	0.140115  	2300.000000	0.136354  	2300.000000	0.134978  	2300.000000	0.140105  	2300.000000	9.91832e-06	
2400.000000	0.136561  	2400.000000	0.140555  	2400.000000	0.136331  	2400.000000	0.134959  	2400.000000	0.140545  	2400.000000	9.53302e-06	
2500.000000	0.137384  	2500.000000	0.141057  	2500.000000	0.136345  	2500.000000	0.134977  	2500.000000	0.141048  	2500.000000	9.17744e-06	
2600.000000	0.138282  	2600.000000	0.141614  	2600.000000	0.136391  	2600.000000	0.135025  	2600.000000	0.141606  	2600.000000	8.84824e-06	
2700.000000	0.139247  	2700.000000	0.142221  	2700.000000	0.136463  	2700.000000	0.135101  	2700.000000	0.142212  	2700.000000	8.54256e-06	
2800.000000	0.140273  	2800.000000	0.14287   	2800.000000	0.136559  	2800.000000	0.135199  	2800.000000	0.142862  	2800.000000	8.25794e-06	
2900.000000	0.141356  	2900.000000	0.143559  	2900.000000	0.136674  	2900.000000	0.135316  	2900.000000	0.143551  	2900.000000	7.99226e-06	
3000.000000	0.142489  	3000.000000	0.144282  	3000.000000	0.136805  	3000.000000	0.13545   	3000.000000	0.144275  	3000.000000	7.74367e-06	
3200.000000	0.144896  	3200.000000	0.145821  	3200.000000	0.137107  	3200.000000	0.135756  	3200.000000	0.145814  	3200.000000	7.29148e-06	
3400.000000	0.147467  	3400.000000	0.147463  	3400.000000	0.137451  	3400.000000	0.136103  	3400.000000	0.147457  	3400.000000	6.89068e-06	
3600.000000	0.150181  	3600.000000	0.149192  	3600.000000	0.137823  	3600.000000	0.136478  	3600.000000	0.149185  	3600.000000	6.53289e-06	
3800.000000	0.153023  	3800.000000	0.150991  	3800.000000	0.138215  	3800.000000	0.136873  	3800.000000	0.150985  	3800.000000	6.21148e-06	
4000.000000	0.155978  	4000.000000	0.152852  	4000.000000	0.138621  	4000.000000	0.137281  	4000.000000	0.152846  	4000.000000	5.92112e-06	
4200.000000	0.159036  	4200.000000	0.154763  	4200.000000	0.139036  	4200.000000	0.137698  	4200.000000	0.154758  	4200.000000	5.65748e-06	
4400.000000	0.162187  	4400.000000	0.156719  	4400.000000	0.139455  	4400.000000	0.13812   	4400.000000	0.156714  	4400.000000	5.41699e-06	
4600.000000	0.165425  	4600.000000	0.158712  	4600.000000	0.139877  	4600.000000	0.138544  	4600.000000	0.158707  	4600.000000	5.1967e-06	
4800.000000	0.168743  	4800.000000	0.160738  	4800.000000	0.140298  	4800.000000	0.138968  	4800.000000	0.160733  	4800.000000	4.99415e-06	
5000.000000	0.172136  	5000.000000	0.162792  	5000.000000	0.140718  	5000.000000	0.139389  	5000.000000	0.162788  	5000.000000	4.80725e-06	
5250.000000	0.176475  	5250.000000	0.165395  	5250.000000	0.141238  	5250.000000	0.139912  	5250.000000	0.16539   	5250.000000	4.59298e-06	
5500.000000	0.180917  	5500.000000	0.16803   	5500.000000	0.141752  	5500.000000	0.140427  	5500.000000	0.168025  	5500.000000	4.39754e-06	
6000.000000	0.190085  	6000.000000	0.173379  	6000.000000	0.142754  	6000.000000	0.141434  	6000.000000	0.173375  	6000.000000	4.05394e-06	
6500.000000	0.199601  	6500.000000	0.178812  	6500.000000	0.143719  	6500.000000	0.142402  	6500.000000	0.178808  	6500.000000	3.76151e-06	
7000.000000	0.209438  	7000.000000	0.184306  	7000.000000	0.144645  	7000.000000	0.14333   	7000.000000	0.184302  	7000.000000	3.50952e-06	
7500.000000	0.219575  	7500.000000	0.189846  	7500.000000	0.145531  	7500.000000	0.144219  	7500.000000	0.189842  	7500.000000	3.29006e-06	
8000.000000	0.229997  	8000.000000	0.195421  	8000.000000	0.14638   	8000.000000	0.145068  	8000.000000	0.195418  	8000.000000	3.09714e-06	
8500.000000	0.240691  	8500.000000	0.201023  	8500.000000	0.147189  	8500.000000	0.14588   	8500.000000	0.20102   	8500.000000	2.9262e-06	
9000.000000	0.25165   	9000.000000	0.206644  	9000.000000	0.147961  	9000.000000	0.146657  	9000.000000	0.206642  	9000.000000	2.77365e-06	
9500.000000	0.262865  	9500.000000	0.212281  	9500.000000	0.1487    	9500.000000	0.1474    	9500.000000	0.212279  	9500.000000	2.63664e-06	
10000.000000	0.274331  	10000.000000	0.217929  	10000.000000	0.14941   	10000.000000	0.148113  	10000.000000	0.217927  	10000.000000	2.51289e-06	
11000.000000	0.297997  	11000.000000	0.229247  	11000.000000	0.150744  	11000.000000	0.149451  	11000.000000	0.229244  	11000.000000	2.29811e-06	
12000.000000	0.32262   	12000.000000	0.240579  	12000.000000	0.151972  	12000.000000	0.150687  	12000.000000	0.240577  	12000.000000	2.11803e-06	
13000.000000	0.348182  	13000.000000	0.251915  	13000.000000	0.153109  	13000.000000	0.151833  	13000.000000	0.251913  	13000.000000	1.96481e-06	
14000.000000	0.374671  	14000.000000	0.263246  	14000.000000	0.15417   	14000.000000	0.152899  	14000.000000	0.263245  	14000.000000	1.83281e-06	
15000.000000	0.402078  	15000.000000	0.274568  	15000.000000	0.155161  	15000.000000	0.153895  	15000.000000	0.274567  	15000.000000	1.71787e-06	
16000.000000	0.430398  	16000.000000	0.285878  	16000.000000	0.156089  	16000.000000	0.154828  	16000.000000	0.285876  	16000.000000	1.61686e-06	
17000.000000	0.459628  	17000.000000	0.297171  	17000.000000	0.156959  	17000.000000	0.155706  	17000.000000	0.29717   	17000.000000	1.52738e-06	
18000.000000	0.489767  	18000.000000	0.308449  	18000.000000	0.157777  	18000.000000	0.156535  	18000.000000	0.308447  	18000.000000	1.44753e-06	
19000.000000	0.520813  	19000.000000	0.319708  	19000.000000	0.15855   	19000.000000	0.157318  	19000.000000	0.319707  	19000.000000	1.37583e-06	
20000.000000	0.552768  	20000.000000	0.33095   	20000.000000	0.159281  	20000.000000	0.15806   	20000.000000	0.330948  	20000.000000	1.31108e-06	
21000.000000	0.585633  	21000.000000	0.342172  	21000.000000	0.159975  	21000.000000	0.158766  	21000.000000	0.342171  	21000.000000	1.25231e-06	
22000.000000	0.61941   	22000.000000	0.353377  	22000.000000	0.160638  	22000.000000	0.159438  	22000.000000	0.353376  	22000.000000	1.19872e-06	
23000.000000	0.654101  	23000.000000	0.364562  	23000.000000	0.16127   	23000.000000	0.16008   	23000.000000	0.364561  	23000.000000	1.14965e-06	
24000.000000	0.689708  	24000.000000	0.37573   	24000.000000	0.161871  	24000.000000	0.160693  	24000.000000	0.375729  	24000.000000	1.10454e-06	
25000.000000	0.726236  	25000.000000	0.386879  	25000.000000	0.162442  	25000.000000	0.16128   	25000.000000	0.386878  	25000.000000	1.06293e-06	
26000.000000	0.763687  	26000.000000	0.39801   	26000.000000	0.16299   	26000.000000	0.161843  	26000.000000	0.398009  	26000.000000	1.02443e-06	
27000.000000	0.802065  	27000.000000	0.409124  	27000.000000	0.163519  	27000.000000	0.162383  	27000.000000	0.409123  	27000.000000	9.88691e-07	
28000.000000	0.841373  	28000.000000	0.420221  	28000.000000	0.164028  	28000.000000	0.162904  	28000.000000	0.42022   	28000.000000	9.55428e-07	
29000.000000	0.881617  	29000.000000	0.4313    	29000.000000	0.164517  	29000.000000	0.163405  	29000.000000	0.431299  	29000.000000	9.2439e-07	
30000.000000	0.922799  	30000.000000	0.442363  	30000.000000	0.164987  	30000.000000	0.163888  	30000.000000	0.442363  	30000.000000	8.95358e-07	
32000.000000	1.008     	32000.000000	0.464441  	32000.000000	0.165875  	32000.000000	0.164805  	32000.000000	0.464441  	32000.000000	8.42578e-07	
34000.000000	1.09701   	34000.000000	0.486457  	34000.000000	0.166701  	34000.000000	0.165663  	34000.000000	0.486457  	34000.000000	7.95825e-07	
36000.000000	1.18986   	36000.000000	0.508414  	36000.000000	0.167473  	36000.000000	0.166469  	36000.000000	0.508413  	36000.000000	7.54115e-07	
38000.000000	1.2866    	38000.000000	0.530314  	38000.000000	0.1682    	38000.000000	0.167229  	38000.000000	0.530314  	38000.000000	7.16668e-07	
40000.000000	1.38726   	40000.000000	0.55216   	40000.000000	0.168884  	40000.000000	0.167948  	40000.000000	0.55216   	40000.000000	6.82856e-07	
42000.000000	1.49188   	42000.000000	0.573954  	42000.000000	0.169528  	42000.000000	0.168628  	42000.000000	0.573954  	42000.000000	6.5217e-07	
44000.000000	1.60052   	44000.000000	0.595699  	44000.000000	0.170134  	44000.000000	0.169276  	44000.000000	0.595698  	44000.000000	6.24193e-07	
46000.000000	1.71319   	46000.000000	0.617395  	46000.000000	0.170707  	46000.000000	0.169892  	46000.000000	0.617395  	46000.000000	5.98577e-07	
48000.000000	1.82996   	48000.000000	0.639046  	48000.000000	0.17125   	48000.000000	0.17048   	48000.000000	0.639046  	48000.000000	5.75034e-07	
50000.000000	1.95086   	50000.000000	0.660653  	50000.000000	0.171764  	50000.000000	0.171043  	50000.000000	0.660653  	50000.000000	5.5332e-07	
