0.001000	2.65075   	0.001000	1.70959   	0.001000	1.86187   	0.001000	1.86187   	0.001000	0.502767  	0.001000	1.20682   	
0.002000	2.68106   	0.002000	1.66733   	0.002000	1.86886   	0.002000	1.86886   	0.002000	0.672045  	0.002000	0.995287  	
0.005000	2.91681   	0.005000	1.65935   	0.005000	1.95484   	0.005000	1.95484   	0.005000	0.98792   	0.005000	0.671429  	
0.008000	3.17734   	0.008000	1.72536   	0.008000	2.08692   	0.008000	2.08692   	0.008000	1.20467   	0.008000	0.520691  	
0.010000	3.34106   	0.010000	1.78058   	0.010000	2.17901   	0.010000	2.17901   	0.010000	1.32386   	0.010000	0.456716  	
0.015000	3.93411   	0.015000	1.95705   	0.015000	2.42929   	0.015000	2.42929   	0.015000	1.60245   	0.015000	0.354597  	
0.020000	4.5088    	0.020000	2.34747   	0.020000	2.84847   	0.020000	2.84847   	0.020000	2.05419   	0.020000	0.293279  	
0.025000	5.16652   	0.025000	2.76688   	0.025000	3.28926   	0.025000	3.28926   	0.025000	2.51507   	0.025000	0.251809  	
0.030000	5.76986   	0.030000	3.19535   	0.030000	3.65162   	0.030000	3.65162   	0.030000	2.97485   	0.030000	0.220508  	
0.035000	6.30616   	0.035000	3.62518   	0.035000	4.00806   	0.035000	4.00806   	0.035000	3.42759   	0.035000	0.197584  	
0.040000	6.76715   	0.040000	4.04719   	0.040000	4.3537    	0.040000	4.3537    	0.040000	3.86853   	0.040000	0.178664  	
0.045000	7.14422   	0.045000	4.4579    	0.045000	4.6883    	0.045000	4.6883    	0.045000	4.29397   	0.045000	0.163923  	
0.050000	7.3772    	0.050000	4.82826   	0.050000	5.00986   	0.050000	5.00986   	0.050000	4.67662   	0.050000	0.151645  	
0.055000	7.77197   	0.055000	5.15698   	0.055000	5.3177    	0.055000	5.3177    	0.055000	5.01573   	0.055000	0.141243  	
0.060000	8.1213    	0.060000	5.46719   	0.060000	5.61146   	0.060000	5.61146   	0.060000	5.33489   	0.060000	0.132305  	
0.070000	8.69166   	0.070000	6.03253   	0.070000	6.15664   	0.070000	6.15664   	0.070000	5.91482   	0.070000	0.117704  	
0.080000	9.29575   	0.080000	6.52831   	0.080000	6.64688   	0.080000	6.64688   	0.080000	6.42206   	0.080000	0.10625   	
0.090000	9.7917    	0.090000	6.96163   	0.090000	7.08559   	0.090000	7.08559   	0.090000	6.86463   	0.090000	0.0970002 	
0.100000	10.1784   	0.100000	7.33766   	0.100000	7.47707   	0.100000	7.47707   	0.100000	7.2483    	0.100000	0.0893575 	
0.120000	10.4404   	0.120000	7.85284   	0.120000	8.13677   	0.120000	8.13677   	0.120000	7.77541   	0.120000	0.0774313 	
0.140000	10.617    	0.140000	8.25789   	0.140000	8.66093   	0.140000	8.66093   	0.140000	8.18937   	0.140000	0.0685197 	
0.160000	10.7763   	0.160000	8.58399   	0.160000	9.07879   	0.160000	9.07879   	0.160000	8.52241   	0.160000	0.0615844 	
0.180000	10.9464   	0.180000	8.85167   	0.180000	9.41319   	0.180000	9.41319   	0.180000	8.79565   	0.180000	0.0560194 	
0.200000	11.2151   	0.200000	9.13291   	0.200000	9.68159   	0.200000	9.68159   	0.200000	9.08147   	0.200000	0.0514461 	
0.250000	11.5148   	0.250000	9.66779   	0.250000	10.1439   	0.250000	10.1439   	0.250000	9.62489   	0.250000	0.0428998 	
0.300000	11.7818   	0.300000	10.0093   	0.300000	10.4079   	0.300000	10.4079   	0.300000	9.97233   	0.300000	0.0369365 	
0.350000	12.0702   	0.350000	10.2868   	0.350000	10.5515   	0.350000	10.5515   	0.350000	10.2543   	0.350000	0.0325199 	
0.400000	12.313    	0.400000	10.4973   	0.400000	10.6905   	0.400000	10.6905   	0.400000	10.4682   	0.400000	0.0291068 	
0.450000	12.4817   	0.450000	10.6321   	0.450000	10.8494   	0.450000	10.8494   	0.450000	10.6057   	0.450000	0.0263838 	
0.500000	12.5894   	0.500000	10.7126   	0.500000	10.9433   	0.500000	10.9433   	0.500000	10.6884   	0.500000	0.0241569 	
0.600000	12.2944   	0.600000	10.808    	0.600000	11.006    	0.600000	11.006    	0.600000	10.7873   	0.600000	0.0207241 	
0.700000	11.88     	0.700000	10.8242   	0.700000	10.9684   	0.700000	10.9684   	0.700000	10.806    	0.700000	0.0181935 	
0.800000	11.8313   	0.800000	10.7656   	0.800000	10.8148   	0.800000	10.8148   	0.800000	10.7493   	0.800000	0.0162452 	
0.900000	11.7187   	0.900000	10.6593   	0.900000	10.6395   	0.900000	10.6395   	0.900000	10.6446   	0.900000	0.0146957 	
1.000000	11.5846   	1.000000	10.5406   	1.000000	10.4572   	1.000000	10.4572   	1.000000	10.5272   	1.000000	0.0134319 	
1.250000	11.1232   	1.250000	10.1747   	1.250000	9.99131   	1.250000	9.99131   	1.250000	10.1636   	1.250000	0.0110941 	
1.500000	10.5397   	1.500000	9.70163   	1.500000	9.47286   	1.500000	9.47286   	1.500000	9.69215   	1.500000	0.00948243	
1.750000	9.9729    	1.750000	9.24258   	1.750000	9.01764   	1.750000	9.01764   	1.750000	9.23428   	1.750000	0.0082998 	
2.000000	9.43391   	2.000000	8.80357   	2.000000	8.60929   	2.000000	8.60929   	2.000000	8.79618   	2.000000	0.00739269	
2.250000	8.95708   	2.250000	8.40269   	2.250000	8.23867   	2.250000	8.23867   	2.250000	8.39601   	2.250000	0.0066735 	
2.500000	8.86159   	2.500000	8.02941   	2.500000	7.89988   	2.500000	7.89988   	2.500000	8.02333   	2.500000	0.00608844	
3.000000	8.03384   	3.000000	7.37117   	3.000000	7.3016    	3.000000	7.3016    	3.000000	7.36598   	3.000000	0.00519237	
3.500000	7.3506    	3.500000	6.8229    	3.500000	6.78959   	3.500000	6.78959   	3.500000	6.81837   	3.500000	0.00453661	
4.000000	6.77846   	4.000000	6.35127   	4.000000	6.34652   	4.000000	6.34652   	4.000000	6.34723   	4.000000	0.00403472	
4.500000	6.29282   	4.500000	5.94732   	4.500000	5.95945   	4.500000	5.95945   	4.500000	5.94368   	4.500000	0.00363752	
5.000000	5.87556   	5.000000	5.59703   	5.000000	5.61846   	5.000000	5.61846   	5.000000	5.59372   	5.000000	0.00331492	
5.500000	5.51317   	5.500000	5.28952   	5.500000	5.31581   	5.500000	5.31581   	5.500000	5.28647   	5.500000	0.0030474 	
6.000000	5.19544   	6.000000	5.01688   	6.000000	5.04537   	6.000000	5.04537   	6.000000	5.01406   	6.000000	0.00282177	
6.500000	4.91455   	6.500000	4.77303   	6.500000	4.80225   	6.500000	4.80225   	6.500000	4.7704    	6.500000	0.00262875	
7.000000	4.66439   	7.000000	4.55348   	7.000000	4.58249   	7.000000	4.58249   	7.000000	4.55102   	7.000000	0.00246166	
7.500000	4.44011   	7.500000	4.35479   	7.500000	4.38286   	7.500000	4.38286   	7.500000	4.35247   	7.500000	0.00231551	
8.000000	4.23786   	8.000000	4.17398   	8.000000	4.20068   	8.000000	4.20068   	8.000000	4.1718    	8.000000	0.00218654	
8.500000	4.0545    	8.500000	4.00867   	8.500000	4.03375   	8.500000	4.03375   	8.500000	4.0066    	8.500000	0.00207185	
9.000000	3.88747   	9.000000	3.85688   	9.000000	3.88022   	9.000000	3.88022   	9.000000	3.85491   	9.000000	0.00196915	
9.500000	3.73466   	9.500000	3.71696   	9.500000	3.73851   	9.500000	3.73851   	9.500000	3.71509   	9.500000	0.00187662	
10.000000	3.59429   	10.000000	3.61267   	10.000000	3.60731   	10.000000	3.60731   	10.000000	3.61088   	10.000000	0.00179281	
11.000000	3.34522   	11.000000	3.37947   	11.000000	3.36723   	11.000000	3.37387   	11.000000	3.37783   	11.000000	0.00164674	
12.000000	3.13086   	12.000000	3.17543   	12.000000	3.15822   	12.000000	3.16945   	12.000000	3.17391   	12.000000	0.00152367	
13.000000	2.94436   	13.000000	2.9955    	13.000000	2.97465   	13.000000	2.98902   	13.000000	2.99408   	13.000000	0.00141849	
14.000000	2.78054   	14.000000	2.8357    	14.000000	2.8121    	14.000000	2.82862   	14.000000	2.83438   	14.000000	0.00132751	
15.000000	2.63544   	15.000000	2.69289   	15.000000	2.66712   	15.000000	2.68514   	15.000000	2.69164   	15.000000	0.00124799	
16.000000	2.506     	16.000000	2.56451   	16.000000	2.53712   	16.000000	2.55605   	16.000000	2.56333   	16.000000	0.00117786	
17.000000	2.38976   	17.000000	2.44849   	17.000000	2.41994   	17.000000	2.43932   	17.000000	2.44738   	17.000000	0.00111554	
18.000000	2.28479   	18.000000	2.34316   	18.000000	2.31369   	18.000000	2.33327   	18.000000	2.3421    	18.000000	0.00105977	
19.000000	2.18949   	19.000000	2.24709   	19.000000	2.21691   	19.000000	2.23654   	19.000000	2.24608   	19.000000	0.00100955	
20.000000	2.10257   	20.000000	2.15913   	20.000000	2.12842   	20.000000	2.14796   	20.000000	2.15817   	20.000000	0.000964077	
21.000000	2.02296   	21.000000	2.0783    	21.000000	2.04725   	21.000000	2.06656   	21.000000	2.07737   	21.000000	0.000922705	
22.000000	1.94975   	22.000000	2.00376   	22.000000	1.97255   	22.000000	1.99153   	22.000000	2.00287   	22.000000	0.000884893	
23.000000	1.88219   	23.000000	1.9348    	23.000000	1.9036    	23.000000	1.92217   	23.000000	1.93395   	23.000000	0.000850193	
24.000000	1.81964   	24.000000	1.87083   	24.000000	1.83979   	24.000000	1.85787   	24.000000	1.87001   	24.000000	0.000818231	
25.000000	1.76156   	25.000000	1.81132   	25.000000	1.78056   	25.000000	1.79812   	25.000000	1.81053   	25.000000	0.00078869	
27.000000	1.65699   	27.000000	1.70393   	27.000000	1.6741    	27.000000	1.69052   	27.000000	1.70319   	27.000000	0.000735835	
29.000000	1.56541   	29.000000	1.60967   	29.000000	1.58117   	29.000000	1.59642   	29.000000	1.60898   	29.000000	0.000689899	
31.000000	1.48452   	31.000000	1.52628   	31.000000	1.50019   	31.000000	1.5136    	31.000000	1.52563   	31.000000	0.00064959	
33.000000	1.41253   	33.000000	1.45196   	33.000000	1.42876   	33.000000	1.44002   	33.000000	1.45135   	33.000000	0.000613921	
35.000000	1.34801   	35.000000	1.38531   	35.000000	1.36455   	35.000000	1.37409   	35.000000	1.38473   	35.000000	0.000582122	
38.000000	1.26285   	38.000000	1.29729   	38.000000	1.27974   	38.000000	1.28709   	38.000000	1.29675   	38.000000	0.000540391	
41.000000	1.18909   	41.000000	1.22103   	41.000000	1.20607   	41.000000	1.21175   	41.000000	1.22053   	41.000000	0.000504469	
44.000000	1.12456   	44.000000	1.15432   	44.000000	1.14155   	44.000000	1.14585   	44.000000	1.15385   	44.000000	0.000473207	
47.000000	1.0676    	47.000000	1.09546   	47.000000	1.08446   	47.000000	1.0877    	47.000000	1.09501   	47.000000	0.000445743	
50.000000	1.01693   	50.000000	1.04312   	50.000000	1.03362   	50.000000	1.03599   	50.000000	1.0427    	50.000000	0.000421415	
55.000000	0.943812  	55.000000	0.967674  	55.000000	0.960095  	55.000000	0.961415  	55.000000	0.967287  	55.000000	0.000386488	
60.000000	0.881971  	60.000000	0.903956  	60.000000	0.898006  	60.000000	0.898381  	60.000000	0.903599  	60.000000	0.000357112	
65.000000	0.828939  	65.000000	0.849406  	65.000000	0.844636  	65.000000	0.844371  	65.000000	0.849074  	65.000000	0.000332047	
70.000000	0.782928  	70.000000	0.802163  	70.000000	0.79825   	70.000000	0.797552  	70.000000	0.801853  	70.000000	0.000310396	
75.000000	0.742605  	75.000000	0.760838  	75.000000	0.757687  	75.000000	0.75656   	75.000000	0.760546  	75.000000	0.0002915 	
80.000000	0.706957  	80.000000	0.724374  	80.000000	0.721766  	80.000000	0.72036   	80.000000	0.724099  	80.000000	0.000274856	
85.000000	0.6752    	85.000000	0.691955  	85.000000	0.689782  	85.000000	0.688146  	85.000000	0.691695  	85.000000	0.000260081	
90.000000	0.646717  	90.000000	0.662936  	90.000000	0.661121  	90.000000	0.659289  	90.000000	0.662689  	90.000000	0.000246872	
95.000000	0.621016  	95.000000	0.636804  	95.000000	0.635285  	95.000000	0.633284  	95.000000	0.636569  	95.000000	0.00023499	
100.000000	0.5977    	100.000000	0.613146  	100.000000	0.611872  	100.000000	0.609723  	100.000000	0.612922  	100.000000	0.000224242	
105.000000	0.576445  	105.000000	0.591623  	105.000000	0.590559  	105.000000	0.588276  	105.000000	0.591409  	105.000000	0.000214471	
110.000000	0.556983  	110.000000	0.571956  	110.000000	0.570996  	110.000000	0.568666  	110.000000	0.571751  	110.000000	0.000205548	
115.000000	0.53909   	115.000000	0.553913  	115.000000	0.55308   	115.000000	0.550666  	115.000000	0.553716  	115.000000	0.000197366	
120.000000	0.522581  	120.000000	0.537299  	120.000000	0.536571  	120.000000	0.534084  	120.000000	0.537109  	120.000000	0.000189835	
125.000000	0.507296  	125.000000	0.52195   	125.000000	0.521257  	125.000000	0.518757  	125.000000	0.521767  	125.000000	0.00018288	
130.000000	0.493102  	130.000000	0.507725  	130.000000	0.507073  	130.000000	0.504547  	130.000000	0.507548  	130.000000	0.000176435	
135.000000	0.479882  	135.000000	0.494504  	135.000000	0.493931  	135.000000	0.491337  	135.000000	0.494333  	135.000000	0.000170446	
140.000000	0.467538  	140.000000	0.482184  	140.000000	0.481656  	140.000000	0.479023  	140.000000	0.482019  	140.000000	0.000164866	
145.000000	0.455982  	145.000000	0.470676  	145.000000	0.470155  	145.000000	0.467517  	145.000000	0.470516  	145.000000	0.000159653	
150.000000	0.44514   	150.000000	0.459901  	150.000000	0.459391  	150.000000	0.456741  	150.000000	0.459746  	150.000000	0.000154773	
155.000000	0.429868  	155.000000	0.449791  	155.000000	0.449289  	155.000000	0.446629  	155.000000	0.449641  	155.000000	0.000150193	
160.000000	0.420919  	160.000000	0.440286  	160.000000	0.439787  	160.000000	0.437121  	160.000000	0.44014   	160.000000	0.000145887	
165.000000	0.412479  	165.000000	0.431333  	165.000000	0.430836  	165.000000	0.428164  	165.000000	0.431191  	165.000000	0.000141831	
170.000000	0.404506  	170.000000	0.422885  	170.000000	0.422389  	170.000000	0.419711  	170.000000	0.422747  	170.000000	0.000138002	
175.000000	0.396961  	175.000000	0.414901  	175.000000	0.414403  	175.000000	0.411722  	175.000000	0.414766  	175.000000	0.000134383	
180.000000	0.38981   	180.000000	0.407342  	180.000000	0.406844  	180.000000	0.404159  	180.000000	0.407211  	180.000000	0.000130955	
185.000000	0.383024  	185.000000	0.400177  	185.000000	0.399676  	185.000000	0.396989  	185.000000	0.400049  	185.000000	0.000127705	
190.000000	0.376573  	190.000000	0.393375  	190.000000	0.39287   	190.000000	0.390183  	190.000000	0.39325   	190.000000	0.000124619	
195.000000	0.370434  	195.000000	0.386908  	195.000000	0.386405  	195.000000	0.383713  	195.000000	0.386787  	195.000000	0.000121683	
200.000000	0.364585  	200.000000	0.380754  	200.000000	0.38025   	200.000000	0.377555  	200.000000	0.380635  	200.000000	0.000118888	
210.000000	0.353675  	210.000000	0.369294  	210.000000	0.368743  	210.000000	0.366092  	210.000000	0.369181  	210.000000	0.000113681	
220.000000	0.343703  	220.000000	0.358843  	220.000000	0.358281  	220.000000	0.355639  	220.000000	0.358734  	220.000000	0.000108926	
230.000000	0.334552  	230.000000	0.349272  	230.000000	0.348712  	230.000000	0.346071  	230.000000	0.349168  	230.000000	0.000104568	
240.000000	0.326125  	240.000000	0.340476  	240.000000	0.339924  	240.000000	0.337281  	240.000000	0.340376  	240.000000	0.000100557	
250.000000	0.318337  	250.000000	0.332365  	250.000000	0.331793  	250.000000	0.329179  	250.000000	0.332268  	250.000000	9.68537e-05	
260.000000	0.31112   	260.000000	0.324862  	260.000000	0.324274  	260.000000	0.321688  	260.000000	0.324768  	260.000000	9.34231e-05	
270.000000	0.304411  	270.000000	0.317902  	270.000000	0.317333  	270.000000	0.314744  	270.000000	0.317812  	270.000000	9.02359e-05	
280.000000	0.29816   	280.000000	0.311428  	280.000000	0.310873  	280.000000	0.308288  	280.000000	0.311341  	280.000000	8.72668e-05	
290.000000	0.292321  	290.000000	0.305393  	290.000000	0.304825  	290.000000	0.302274  	290.000000	0.305308  	290.000000	8.44939e-05	
300.000000	0.286855  	300.000000	0.299753  	300.000000	0.299194  	300.000000	0.296657  	300.000000	0.299671  	300.000000	8.18981e-05	
310.000000	0.281727  	310.000000	0.294471  	310.000000	0.293932  	310.000000	0.291401  	310.000000	0.294391  	310.000000	7.94628e-05	
320.000000	0.276908  	320.000000	0.289515  	320.000000	0.288974  	320.000000	0.286473  	320.000000	0.289438  	320.000000	7.71733e-05	
330.000000	0.272369  	330.000000	0.284857  	330.000000	0.28433   	330.000000	0.281844  	330.000000	0.284782  	330.000000	7.50168e-05	
340.000000	0.268089  	340.000000	0.28047   	340.000000	0.279976  	340.000000	0.277489  	340.000000	0.280397  	340.000000	7.29818e-05	
350.000000	0.264045  	350.000000	0.276332  	350.000000	0.27587   	350.000000	0.273384  	350.000000	0.276261  	350.000000	7.10584e-05	
360.000000	0.26022   	360.000000	0.272424  	360.000000	0.27198   	360.000000	0.26951   	360.000000	0.272355  	360.000000	6.92373e-05	
370.000000	0.256595  	370.000000	0.268726  	370.000000	0.268294  	370.000000	0.265848  	370.000000	0.268659  	370.000000	6.75106e-05	
380.000000	0.253157  	380.000000	0.265224  	380.000000	0.26482   	380.000000	0.262383  	380.000000	0.265158  	380.000000	6.58711e-05	
390.000000	0.249891  	390.000000	0.261902  	390.000000	0.261533  	390.000000	0.259099  	390.000000	0.261838  	390.000000	6.43121e-05	
400.000000	0.246785  	400.000000	0.258747  	400.000000	0.258401  	400.000000	0.255982  	400.000000	0.258684  	400.000000	6.28279e-05	
410.000000	0.243828  	410.000000	0.255748  	410.000000	0.25542   	410.000000	0.253022  	410.000000	0.255686  	410.000000	6.14131e-05	
420.000000	0.241009  	420.000000	0.252893  	420.000000	0.25259   	420.000000	0.250208  	420.000000	0.252833  	420.000000	6.0063e-05	
430.000000	0.238321  	430.000000	0.250173  	430.000000	0.249902  	430.000000	0.247528  	430.000000	0.250114  	430.000000	5.8773e-05	
440.000000	0.235753  	440.000000	0.247579  	440.000000	0.247342  	440.000000	0.244975  	440.000000	0.247522  	440.000000	5.75393e-05	
450.000000	0.233299  	450.000000	0.245103  	450.000000	0.244897  	450.000000	0.242541  	450.000000	0.245047  	450.000000	5.63581e-05	
460.000000	0.230952  	460.000000	0.242737  	460.000000	0.242557  	460.000000	0.240216  	460.000000	0.242682  	460.000000	5.52263e-05	
470.000000	0.228705  	470.000000	0.240474  	470.000000	0.24032   	470.000000	0.237996  	470.000000	0.24042   	470.000000	5.41406e-05	
480.000000	0.226552  	480.000000	0.238309  	480.000000	0.238188  	480.000000	0.235872  	480.000000	0.238256  	480.000000	5.30983e-05	
490.000000	0.224487  	490.000000	0.236235  	490.000000	0.236154  	490.000000	0.233841  	490.000000	0.236183  	490.000000	5.20968e-05	
500.000000	0.222506  	500.000000	0.234248  	500.000000	0.234206  	500.000000	0.231895  	500.000000	0.234197  	500.000000	5.11338e-05	
520.000000	0.218776  	520.000000	0.230511  	520.000000	0.230527  	520.000000	0.228242  	520.000000	0.230462  	520.000000	4.93144e-05	
540.000000	0.215329  	540.000000	0.227064  	540.000000	0.22715   	540.000000	0.224879  	540.000000	0.227017  	540.000000	4.76244e-05	
560.000000	0.212136  	560.000000	0.223878  	560.000000	0.22404   	560.000000	0.221774  	560.000000	0.223831  	560.000000	4.60503e-05	
580.000000	0.209172  	580.000000	0.220924  	580.000000	0.221147  	580.000000	0.218901  	580.000000	0.22088   	580.000000	4.45805e-05	
600.000000	0.206415  	600.000000	0.218182  	600.000000	0.218459  	600.000000	0.216238  	600.000000	0.218138  	600.000000	4.32048e-05	
620.000000	0.203846  	620.000000	0.21563   	620.000000	0.215968  	620.000000	0.213764  	620.000000	0.215588  	620.000000	4.19144e-05	
640.000000	0.201449  	640.000000	0.213252  	640.000000	0.213662  	640.000000	0.211461  	640.000000	0.213211  	640.000000	4.07014e-05	
660.000000	0.199208  	660.000000	0.211032  	660.000000	0.211509  	660.000000	0.209314  	660.000000	0.210993  	660.000000	3.95591e-05	
680.000000	0.197111  	680.000000	0.208957  	680.000000	0.209487  	680.000000	0.20731   	680.000000	0.208919  	680.000000	3.84813e-05	
700.000000	0.195145  	700.000000	0.207014  	700.000000	0.2076    	700.000000	0.205435  	700.000000	0.206977  	700.000000	3.74627e-05	
720.000000	0.193301  	720.000000	0.205193  	720.000000	0.205842  	720.000000	0.20368   	720.000000	0.205157  	720.000000	3.64985e-05	
740.000000	0.19157   	740.000000	0.203485  	740.000000	0.204193  	740.000000	0.202034  	740.000000	0.203449  	740.000000	3.55843e-05	
760.000000	0.189942  	760.000000	0.201879  	760.000000	0.202637  	760.000000	0.200489  	760.000000	0.201844  	760.000000	3.47164e-05	
780.000000	0.18841   	780.000000	0.20037   	780.000000	0.20117   	780.000000	0.199037  	780.000000	0.200336  	780.000000	3.38913e-05	
800.000000	0.186968  	800.000000	0.198949  	800.000000	0.19979   	800.000000	0.197671  	800.000000	0.198916  	800.000000	3.31058e-05	
820.000000	0.185609  	820.000000	0.19761   	820.000000	0.198494  	820.000000	0.196387  	820.000000	0.197578  	820.000000	3.23572e-05	
840.000000	0.184327  	840.000000	0.196348  	840.000000	0.19729   	840.000000	0.19519   	840.000000	0.196317  	840.000000	3.16428e-05	
860.000000	0.183118  	860.000000	0.195158  	860.000000	0.196159  	860.000000	0.194061  	860.000000	0.195127  	860.000000	3.09603e-05	
880.000000	0.181977  	880.000000	0.194034  	880.000000	0.195091  	880.000000	0.192995  	880.000000	0.194004  	880.000000	3.03077e-05	
900.000000	0.1809    	900.000000	0.192972  	900.000000	0.19408   	900.000000	0.191988  	900.000000	0.192943  	900.000000	2.96829e-05	
920.000000	0.179882  	920.000000	0.191969  	920.000000	0.19312   	920.000000	0.191036  	920.000000	0.19194   	920.000000	2.90843e-05	
940.000000	0.17892   	940.000000	0.191021  	940.000000	0.19221   	940.000000	0.190135  	940.000000	0.190992  	940.000000	2.85102e-05	
960.000000	0.178011  	960.000000	0.190124  	960.000000	0.191347  	960.000000	0.189281  	960.000000	0.190096  	960.000000	2.7959e-05	
980.000000	0.177152  	980.000000	0.189275  	980.000000	0.190529  	980.000000	0.188473  	980.000000	0.189248  	980.000000	2.74295e-05	
1000.000000	0.176339  	1000.000000	0.188472  	1000.000000	0.189755  	1000.000000	0.187707  	1000.000000	0.188445  	1000.000000	2.69204e-05	
1020.000000	0.175571  	1020.000000	0.187711  	1020.000000	0.189022  	1020.000000	0.186981  	1020.000000	0.187685  	1020.000000	2.64304e-05	
1040.000000	0.174845  	1040.000000	0.186991  	1040.000000	0.18833   	1040.000000	0.186292  	1040.000000	0.186965  	1040.000000	2.59586e-05	
1060.000000	0.174159  	1060.000000	0.186309  	1060.000000	0.187674  	1060.000000	0.185638  	1060.000000	0.186284  	1060.000000	2.55039e-05	
1080.000000	0.17351   	1080.000000	0.185664  	1080.000000	0.187052  	1080.000000	0.185016  	1080.000000	0.185639  	1080.000000	2.50654e-05	
1100.000000	0.172897  	1100.000000	0.185052  	1100.000000	0.18646   	1100.000000	0.184426  	1100.000000	0.185027  	1100.000000	2.46423e-05	
1120.000000	0.172318  	1120.000000	0.184473  	1120.000000	0.185897  	1120.000000	0.183866  	1120.000000	0.184449  	1120.000000	2.42336e-05	
1140.000000	0.171771  	1140.000000	0.183924  	1140.000000	0.185359  	1140.000000	0.183333  	1140.000000	0.183901  	1140.000000	2.38388e-05	
1160.000000	0.171255  	1160.000000	0.183405  	1160.000000	0.184847  	1160.000000	0.182826  	1160.000000	0.183382  	1160.000000	2.34571e-05	
1180.000000	0.170768  	1180.000000	0.182913  	1180.000000	0.184358  	1180.000000	0.182344  	1180.000000	0.18289   	1180.000000	2.30878e-05	
1200.000000	0.170309  	1200.000000	0.182448  	1200.000000	0.183894  	1200.000000	0.181886  	1200.000000	0.182425  	1200.000000	2.27303e-05	
1220.000000	0.169876  	1220.000000	0.182008  	1220.000000	0.183452  	1220.000000	0.18145   	1220.000000	0.181986  	1220.000000	2.23841e-05	
1240.000000	0.169469  	1240.000000	0.181592  	1240.000000	0.183032  	1240.000000	0.181035  	1240.000000	0.181569  	1240.000000	2.20487e-05	
1260.000000	0.169086  	1260.000000	0.181198  	1260.000000	0.182632  	1260.000000	0.18064   	1260.000000	0.181176  	1260.000000	2.17235e-05	
1280.000000	0.168726  	1280.000000	0.180826  	1280.000000	0.182252  	1280.000000	0.180264  	1280.000000	0.180805  	1280.000000	2.14081e-05	
1300.000000	0.168389  	1300.000000	0.180475  	1300.000000	0.18189   	1300.000000	0.179906  	1300.000000	0.180454  	1300.000000	2.11021e-05	
1320.000000	0.168072  	1320.000000	0.180144  	1320.000000	0.181546  	1320.000000	0.179565  	1320.000000	0.180123  	1320.000000	2.08049e-05	
1340.000000	0.167776  	1340.000000	0.179831  	1340.000000	0.181218  	1340.000000	0.179241  	1340.000000	0.179811  	1340.000000	2.05163e-05	
1360.000000	0.1675    	1360.000000	0.179537  	1360.000000	0.180907  	1360.000000	0.178933  	1360.000000	0.179517  	1360.000000	2.02359e-05	
1380.000000	0.167242  	1380.000000	0.17926   	1380.000000	0.180611  	1380.000000	0.178639  	1380.000000	0.17924   	1380.000000	1.99633e-05	
1400.000000	0.167003  	1400.000000	0.178999  	1400.000000	0.180329  	1400.000000	0.178359  	1400.000000	0.17898   	1400.000000	1.96981e-05	
1420.000000	0.16678   	1420.000000	0.178755  	1420.000000	0.18006   	1420.000000	0.178093  	1420.000000	0.178736  	1420.000000	1.94402e-05	
1440.000000	0.166575  	1440.000000	0.178526  	1440.000000	0.179805  	1440.000000	0.17784   	1440.000000	0.178507  	1440.000000	1.91892e-05	
1460.000000	0.166385  	1460.000000	0.178311  	1460.000000	0.179562  	1460.000000	0.177599  	1460.000000	0.178292  	1460.000000	1.89447e-05	
1480.000000	0.166211  	1480.000000	0.178111  	1480.000000	0.179331  	1480.000000	0.177369  	1480.000000	0.178092  	1480.000000	1.87067e-05	
1500.000000	0.166051  	1500.000000	0.177924  	1500.000000	0.179111  	1500.000000	0.177151  	1500.000000	0.177905  	1500.000000	1.84747e-05	
1520.000000	0.165906  	1520.000000	0.17775   	1520.000000	0.178902  	1520.000000	0.176944  	1520.000000	0.177731  	1520.000000	1.82487e-05	
1540.000000	0.165774  	1540.000000	0.177588  	1540.000000	0.178703  	1540.000000	0.176747  	1540.000000	0.17757   	1540.000000	1.80282e-05	
1560.000000	0.165656  	1560.000000	0.177439  	1560.000000	0.178514  	1560.000000	0.17656   	1560.000000	0.177421  	1560.000000	1.78133e-05	
1580.000000	0.165551  	1580.000000	0.177301  	1580.000000	0.178334  	1580.000000	0.176382  	1580.000000	0.177283  	1580.000000	1.76035e-05	
1600.000000	0.165458  	1600.000000	0.177174  	1600.000000	0.178163  	1600.000000	0.176213  	1600.000000	0.177156  	1600.000000	1.73988e-05	
1620.000000	0.165377  	1620.000000	0.177057  	1620.000000	0.178001  	1620.000000	0.176053  	1620.000000	0.17704   	1620.000000	1.7199e-05	
1640.000000	0.165308  	1640.000000	0.176952  	1640.000000	0.177847  	1640.000000	0.175901  	1640.000000	0.176935  	1640.000000	1.70039e-05	
1660.000000	0.16525   	1660.000000	0.176856  	1660.000000	0.1777    	1660.000000	0.175757  	1660.000000	0.176839  	1660.000000	1.68133e-05	
1680.000000	0.165202  	1680.000000	0.17677   	1680.000000	0.177561  	1680.000000	0.17562   	1680.000000	0.176753  	1680.000000	1.6627e-05	
1700.000000	0.165165  	1700.000000	0.176693  	1700.000000	0.177429  	1700.000000	0.175491  	1700.000000	0.176676  	1700.000000	1.6445e-05	
1750.000000	0.165117  	1750.000000	0.176539  	1750.000000	0.17713   	1750.000000	0.175198  	1750.000000	0.176523  	1750.000000	1.60075e-05	
1800.000000	0.165126  	1800.000000	0.176436  	1800.000000	0.176871  	1800.000000	0.174945  	1800.000000	0.17642   	1800.000000	1.55934e-05	
1850.000000	0.165191  	1850.000000	0.176381  	1850.000000	0.176647  	1850.000000	0.174727  	1850.000000	0.176365  	1850.000000	1.52009e-05	
1900.000000	0.165305  	1900.000000	0.176369  	1900.000000	0.176457  	1900.000000	0.174542  	1900.000000	0.176354  	1900.000000	1.48283e-05	
1950.000000	0.165467  	1950.000000	0.176397  	1950.000000	0.176297  	1950.000000	0.174386  	1950.000000	0.176383  	1950.000000	1.44741e-05	
2000.000000	0.165672  	2000.000000	0.176463  	2000.000000	0.176164  	2000.000000	0.174257  	2000.000000	0.176449  	2000.000000	1.41369e-05	
2100.000000	0.166202  	2100.000000	0.176695  	2100.000000	0.175971  	2100.000000	0.174071  	2100.000000	0.176681  	2100.000000	1.35091e-05	
2200.000000	0.166877  	2200.000000	0.177047  	2200.000000	0.175861  	2200.000000	0.173966  	2200.000000	0.177034  	2200.000000	1.29363e-05	
2300.000000	0.167679  	2300.000000	0.177502  	2300.000000	0.175821  	2300.000000	0.17393   	2300.000000	0.17749   	2300.000000	1.24116e-05	
2400.000000	0.168594  	2400.000000	0.178048  	2400.000000	0.175838  	2400.000000	0.173951  	2400.000000	0.178036  	2400.000000	1.19291e-05	
2500.000000	0.16961   	2500.000000	0.178674  	2500.000000	0.175905  	2500.000000	0.174021  	2500.000000	0.178663  	2500.000000	1.14838e-05	
2600.000000	0.170719  	2600.000000	0.179371  	2600.000000	0.176013  	2600.000000	0.174131  	2600.000000	0.17936   	2600.000000	1.10716e-05	
2700.000000	0.17191   	2700.000000	0.180131  	2700.000000	0.176156  	2700.000000	0.174277  	2700.000000	0.18012   	2700.000000	1.06888e-05	
2800.000000	0.173177  	2800.000000	0.180946  	2800.000000	0.176328  	2800.000000	0.174452  	2800.000000	0.180936  	2800.000000	1.03325e-05	
2900.000000	0.174513  	2900.000000	0.181811  	2900.000000	0.176526  	2900.000000	0.174652  	2900.000000	0.181801  	2900.000000	9.99979e-06	
3000.000000	0.175913  	3000.000000	0.182721  	3000.000000	0.176744  	3000.000000	0.174873  	3000.000000	0.182712  	3000.000000	9.68853e-06	
3200.000000	0.178884  	3200.000000	0.184659  	3200.000000	0.177232  	3200.000000	0.175367  	3200.000000	0.18465   	3200.000000	9.12238e-06	
3400.000000	0.182058  	3400.000000	0.186731  	3400.000000	0.177773  	3400.000000	0.175912  	3400.000000	0.186722  	3400.000000	8.62058e-06	
3600.000000	0.185409  	3600.000000	0.188912  	3600.000000	0.17835   	3600.000000	0.176495  	3600.000000	0.188904  	3600.000000	8.17266e-06	
3800.000000	0.188917  	3800.000000	0.191185  	3800.000000	0.178954  	3800.000000	0.177103  	3800.000000	0.191177  	3800.000000	7.77031e-06	
4000.000000	0.192565  	4000.000000	0.193536  	4000.000000	0.179575  	4000.000000	0.177729  	4000.000000	0.193529  	4000.000000	7.40683e-06	
4200.000000	0.19634   	4200.000000	0.195953  	4200.000000	0.180207  	4200.000000	0.178365  	4200.000000	0.195946  	4200.000000	7.07681e-06	
4400.000000	0.200231  	4400.000000	0.198427  	4400.000000	0.180845  	4400.000000	0.179006  	4400.000000	0.19842   	4400.000000	6.77578e-06	
4600.000000	0.204228  	4600.000000	0.200948  	4600.000000	0.181485  	4600.000000	0.179649  	4600.000000	0.200942  	4600.000000	6.50005e-06	
4800.000000	0.208325  	4800.000000	0.203512  	4800.000000	0.182125  	4800.000000	0.180292  	4800.000000	0.203506  	4800.000000	6.24653e-06	
5000.000000	0.212513  	5000.000000	0.206113  	5000.000000	0.182761  	5000.000000	0.180931  	5000.000000	0.206107  	5000.000000	6.01261e-06	
5250.000000	0.217871  	5250.000000	0.209407  	5250.000000	0.183549  	5250.000000	0.181722  	5250.000000	0.209401  	5250.000000	5.74444e-06	
5500.000000	0.223354  	5500.000000	0.212744  	5500.000000	0.184328  	5500.000000	0.182504  	5500.000000	0.212738  	5500.000000	5.49985e-06	
6000.000000	0.234673  	6000.000000	0.21952   	6000.000000	0.185849  	6000.000000	0.18403   	6000.000000	0.219515  	6000.000000	5.06984e-06	
6500.000000	0.246421  	6500.000000	0.226403  	6500.000000	0.187316  	6500.000000	0.185502  	6500.000000	0.226398  	6500.000000	4.7039e-06	
7000.000000	0.258565  	7000.000000	0.233365  	7000.000000	0.188727  	7000.000000	0.186917  	7000.000000	0.23336   	7000.000000	4.38858e-06	
7500.000000	0.27108   	7500.000000	0.240386  	7500.000000	0.190082  	7500.000000	0.188274  	7500.000000	0.240382  	7500.000000	4.11397e-06	
8000.000000	0.283946  	8000.000000	0.247453  	8000.000000	0.191382  	8000.000000	0.189576  	8000.000000	0.247449  	8000.000000	3.8726e-06	
8500.000000	0.29715   	8500.000000	0.254554  	8500.000000	0.192627  	8500.000000	0.190824  	8500.000000	0.254551  	8500.000000	3.65873e-06	
9000.000000	0.310679  	9000.000000	0.261681  	9000.000000	0.193819  	9000.000000	0.192022  	9000.000000	0.261678  	9000.000000	3.46787e-06	
9500.000000	0.324525  	9500.000000	0.268828  	9500.000000	0.194964  	9500.000000	0.193171  	9500.000000	0.268825  	9500.000000	3.29646e-06	
10000.000000	0.33868   	10000.000000	0.275989  	10000.000000	0.196066  	10000.000000	0.194276  	10000.000000	0.275986  	10000.000000	3.14165e-06	
11000.000000	0.367897  	11000.000000	0.290341  	11000.000000	0.198143  	11000.000000	0.196361  	11000.000000	0.290338  	11000.000000	2.87297e-06	
12000.000000	0.398296  	12000.000000	0.304712  	12000.000000	0.200068  	12000.000000	0.198297  	12000.000000	0.304709  	12000.000000	2.64771e-06	
13000.000000	0.429854  	13000.000000	0.319088  	13000.000000	0.201862  	13000.000000	0.200101  	13000.000000	0.319085  	13000.000000	2.45606e-06	
14000.000000	0.462557  	14000.000000	0.333459  	14000.000000	0.203542  	14000.000000	0.201789  	14000.000000	0.333457  	14000.000000	2.29097e-06	
15000.000000	0.496393  	15000.000000	0.347819  	15000.000000	0.205119  	15000.000000	0.203374  	15000.000000	0.347817  	15000.000000	2.14722e-06	
16000.000000	0.531356  	16000.000000	0.362163  	16000.000000	0.206603  	16000.000000	0.204866  	16000.000000	0.362161  	16000.000000	2.02089e-06	
17000.000000	0.567442  	17000.000000	0.376488  	17000.000000	0.208001  	17000.000000	0.206276  	17000.000000	0.376486  	17000.000000	1.90898e-06	
18000.000000	0.604651  	18000.000000	0.390792  	18000.000000	0.209322  	18000.000000	0.207611  	18000.000000	0.39079   	18000.000000	1.80913e-06	
19000.000000	0.64298   	19000.000000	0.405073  	19000.000000	0.210574  	19000.000000	0.208879  	19000.000000	0.405072  	19000.000000	1.71947e-06	
20000.000000	0.68243   	20000.000000	0.419333  	20000.000000	0.211765  	20000.000000	0.210086  	20000.000000	0.419331  	20000.000000	1.6385e-06	
21000.000000	0.723004  	21000.000000	0.433568  	21000.000000	0.2129    	21000.000000	0.211236  	21000.000000	0.433567  	21000.000000	1.56501e-06	
22000.000000	0.764704  	22000.000000	0.447781  	22000.000000	0.213989  	22000.000000	0.212336  	22000.000000	0.447779  	22000.000000	1.49801e-06	
23000.000000	0.807532  	23000.000000	0.46197   	23000.000000	0.215025  	23000.000000	0.213389  	23000.000000	0.461968  	23000.000000	1.43665e-06	
24000.000000	0.851492  	24000.000000	0.476135  	24000.000000	0.216015  	24000.000000	0.214399  	24000.000000	0.476134  	24000.000000	1.38025e-06	
25000.000000	0.896588  	25000.000000	0.490278  	25000.000000	0.216969  	25000.000000	0.215369  	25000.000000	0.490277  	25000.000000	1.32823e-06	
26000.000000	0.942823  	26000.000000	0.504398  	26000.000000	0.217886  	26000.000000	0.216302  	26000.000000	0.504397  	26000.000000	1.28009e-06	
27000.000000	0.990203  	27000.000000	0.518496  	27000.000000	0.218768  	27000.000000	0.2172    	27000.000000	0.518495  	27000.000000	1.23541e-06	
28000.000000	1.03873   	28000.000000	0.532573  	28000.000000	0.219616  	28000.000000	0.218067  	28000.000000	0.532572  	28000.000000	1.19382e-06	
29000.000000	1.08842   	29000.000000	0.546628  	29000.000000	0.220433  	29000.000000	0.218904  	29000.000000	0.546626  	29000.000000	1.15502e-06	
30000.000000	1.13926   	30000.000000	0.560662  	30000.000000	0.221221  	30000.000000	0.219713  	30000.000000	0.56066   	30000.000000	1.11872e-06	
32000.000000	1.24444   	32000.000000	0.588668  	32000.000000	0.222722  	32000.000000	0.221254  	32000.000000	0.588667  	32000.000000	1.05274e-06	
34000.000000	1.35433   	34000.000000	0.616597  	34000.000000	0.224132  	34000.000000	0.222703  	34000.000000	0.616596  	34000.000000	9.94298e-07	
36000.000000	1.46896   	36000.000000	0.64445   	36000.000000	0.225456  	36000.000000	0.22407   	36000.000000	0.644449  	36000.000000	9.4216e-07	
38000.000000	1.58839   	38000.000000	0.672232  	38000.000000	0.226698  	38000.000000	0.225363  	38000.000000	0.672231  	38000.000000	8.95351e-07	
40000.000000	1.71266   	40000.000000	0.699945  	40000.000000	0.227869  	40000.000000	0.226591  	40000.000000	0.699944  	40000.000000	8.53087e-07	
42000.000000	1.84183   	42000.000000	0.727593  	42000.000000	0.22898   	42000.000000	0.227758  	42000.000000	0.727592  	42000.000000	8.14732e-07	
44000.000000	1.97595   	44000.000000	0.755177  	44000.000000	0.230039  	44000.000000	0.228871  	44000.000000	0.755176  	44000.000000	7.79763e-07	
46000.000000	2.11505   	46000.000000	0.782701  	46000.000000	0.231051  	46000.000000	0.229935  	46000.000000	0.7827    	46000.000000	7.47748e-07	
48000.000000	2.25921   	48000.000000	0.810167  	48000.000000	0.232018  	48000.000000	0.230953  	48000.000000	0.810166  	48000.000000	7.18323e-07	
50000.000000	2.40847   	50000.000000	0.837577  	50000.000000	0.232941  	50000.000000	0.231929  	50000.000000	0.837577  	50000.000000	6.91184e-07	
