Energy (MeV/u)1	0 - [He-base] F.Hubert et al, AD&ND Tables 46(1990)1	Energy (MeV/u)2	1 - [H -base] J.F.Ziegler et al, Pergamon Press, NY (low energy)	Energy (MeV/u)3	2 - ATIMA 1.2  LS-theory (recommended for high energy)	Energy (MeV/u)4	3 - ATIMA 1.2  without LS-correction	Energy (MeV/u)5	4 - electrical component of [1] - J.F.Ziegler et al	Energy (MeV/u)6	5 - nuclear component of [1] - J.F.Ziegler et al	
0.001000	1.80139   	0.001000	1.67875   	0.001000	1.37317   	0.001000	1.37317   	0.001000	1.02181   	0.001000	0.656934  	
0.002000	1.96143   	0.002000	1.81367   	0.002000	1.50144   	0.002000	1.50144   	0.002000	1.32513   	0.002000	0.488537  	
0.005000	2.36973   	0.005000	2.16263   	0.005000	1.89569   	0.005000	1.89569   	0.005000	1.86847   	0.005000	0.294167  	
0.008000	2.69565   	0.008000	2.44648   	0.008000	2.24368   	0.008000	2.24368   	0.008000	2.22859   	0.008000	0.217893  	
0.010000	2.8827    	0.010000	2.61062   	0.010000	2.45241   	0.010000	2.45241   	0.010000	2.4231    	0.010000	0.187522  	
0.015000	3.35756   	0.015000	3.00643   	0.015000	2.81695   	0.015000	2.81695   	0.015000	2.86651   	0.015000	0.139921  	
0.020000	3.73712   	0.020000	3.39455   	0.020000	3.13737   	0.020000	3.13737   	0.020000	3.28093   	0.020000	0.113616  	
0.025000	4.15613   	0.025000	3.75738   	0.025000	3.44801   	0.025000	3.44801   	0.025000	3.6611    	0.025000	0.0962764 	
0.030000	4.51131   	0.030000	4.09798   	0.030000	3.79279   	0.030000	3.79279   	0.030000	4.01409   	0.030000	0.0838958 	
0.035000	4.80332   	0.035000	4.41762   	0.035000	4.11967   	0.035000	4.11967   	0.035000	4.34306   	0.035000	0.0745671 	
0.040000	5.03347   	0.040000	4.71705   	0.040000	4.42855   	0.040000	4.42855   	0.040000	4.64979   	0.040000	0.0672596 	
0.045000	5.20418   	0.045000	4.99684   	0.045000	4.7194    	0.045000	4.7194    	0.045000	4.93547   	0.045000	0.0613649 	
0.050000	5.31895   	0.050000	5.25753   	0.050000	4.9923    	0.050000	4.9923    	0.050000	5.20103   	0.050000	0.0564994 	
0.055000	5.55052   	0.055000	5.49967   	0.055000	5.24741   	0.055000	5.24741   	0.055000	5.44726   	0.055000	0.0524082 	
0.060000	5.74777   	0.060000	5.72381   	0.060000	5.485     	0.060000	5.485     	0.060000	5.67489   	0.060000	0.0489155 	
0.070000	6.04908   	0.070000	6.12061   	0.070000	5.90924   	0.070000	5.90924   	0.070000	6.07735   	0.070000	0.0432558 	
0.080000	6.3724    	0.080000	6.4534    	0.080000	6.26906   	0.080000	6.26906   	0.080000	6.41454   	0.080000	0.0388555 	
0.090000	6.6264    	0.090000	6.73358   	0.090000	6.56965   	0.090000	6.56965   	0.090000	6.69825   	0.090000	0.0353276 	
0.100000	6.83011   	0.100000	6.9698    	0.100000	6.81684   	0.100000	6.81684   	0.100000	6.93737   	0.100000	0.0324303 	
0.120000	6.95384   	0.120000	7.30707   	0.120000	7.1754    	0.120000	7.1754    	0.120000	7.27913   	0.120000	0.0279416 	
0.140000	7.00301   	0.140000	7.504     	0.140000	7.39161   	0.140000	7.39161   	0.140000	7.47939   	0.140000	0.024614  	
0.160000	7.02041   	0.160000	7.59142   	0.160000	7.50584   	0.160000	7.50584   	0.160000	7.56938   	0.160000	0.0220406 	
0.180000	7.01892   	0.180000	7.58734   	0.180000	7.54984   	0.180000	7.54984   	0.180000	7.56736   	0.180000	0.0199863 	
0.200000	7.03426   	0.200000	7.54788   	0.200000	7.54714   	0.200000	7.54714   	0.200000	7.52957   	0.200000	0.0183054 	
0.250000	6.90588   	0.250000	7.37605   	0.250000	7.43338   	0.250000	7.43338   	0.250000	7.36087   	0.250000	0.0151827 	
0.300000	6.93423   	0.300000	7.28485   	0.300000	7.26413   	0.300000	7.26413   	0.300000	7.27184   	0.300000	0.0130188 	
0.350000	6.98619   	0.350000	7.20899   	0.350000	7.09044   	0.350000	7.09044   	0.350000	7.19757   	0.350000	0.0114246 	
0.400000	6.97399   	0.400000	7.08162   	0.400000	6.93898   	0.400000	6.93898   	0.400000	7.07142   	0.400000	0.0101979 	
0.450000	6.9355    	0.450000	6.94945   	0.450000	6.84282   	0.450000	6.84282   	0.450000	6.94023   	0.450000	0.00922262	
0.500000	6.91605   	0.500000	6.85701   	0.500000	6.74032   	0.500000	6.74032   	0.500000	6.84858   	0.500000	0.00842745	
0.600000	6.60873   	0.600000	6.68297   	0.600000	6.52877   	0.600000	6.52877   	0.600000	6.67576   	0.600000	0.00720615	
0.700000	6.2635    	0.700000	6.51002   	0.700000	6.30151   	0.700000	6.30151   	0.700000	6.50371   	0.700000	0.00630952	
0.800000	6.13026   	0.800000	6.32686   	0.800000	6.08189   	0.800000	6.08189   	0.800000	6.32123   	0.800000	0.0056215 	
0.900000	5.98306   	0.900000	6.14686   	0.900000	5.87446   	0.900000	5.87446   	0.900000	6.14178   	0.900000	0.00507582	
1.000000	5.8283    	1.000000	5.97037   	1.000000	5.6784    	1.000000	5.6784    	1.000000	5.96574   	1.000000	0.00463178	
1.250000	5.38647   	1.250000	5.51177   	1.250000	5.22595   	1.250000	5.22595   	1.250000	5.50796   	1.250000	0.00381309	
1.500000	4.93156   	1.500000	5.05297   	1.500000	4.81907   	1.500000	4.81907   	1.500000	5.04972   	1.500000	0.00325089	
1.750000	4.54335   	1.750000	4.66699   	1.750000	4.4758    	1.750000	4.4758    	1.750000	4.66415   	1.750000	0.0028396 	
2.000000	4.18215   	2.000000	4.30864   	2.000000	4.17977   	2.000000	4.17977   	2.000000	4.30612   	2.000000	0.00252492	
2.250000	3.88171   	2.250000	4.0054    	2.250000	3.92096   	2.250000	3.92096   	2.250000	4.00313   	2.250000	0.00227595	
2.500000	3.61506   	2.500000	3.74963   	2.500000	3.69248   	2.500000	3.69248   	2.500000	3.74755   	2.500000	0.00207377	
3.000000	3.22152   	3.000000	3.33684   	3.000000	3.30728   	3.000000	3.30728   	3.000000	3.33508   	3.000000	0.0017648 	
3.500000	2.90887   	3.500000	3.01262   	3.500000	2.9953    	3.500000	2.9953    	3.500000	3.01108   	3.500000	0.00153925	
4.000000	2.65443   	4.000000	2.75037   	4.000000	2.73774   	4.000000	2.73774   	4.000000	2.74901   	4.000000	0.00136697	
4.500000	2.44324   	4.500000	2.53308   	4.500000	2.52169   	4.500000	2.52169   	4.500000	2.53185   	4.500000	0.00123087	
5.000000	2.26502   	5.000000	2.34939   	5.000000	2.33794   	5.000000	2.33794   	5.000000	2.34827   	5.000000	0.0011205 	
5.500000	2.11254   	5.500000	2.19173   	5.500000	2.1798    	5.500000	2.1798    	5.500000	2.1907    	5.500000	0.00102908	
6.000000	1.98053   	6.000000	2.05476   	6.000000	2.04229   	6.000000	2.04229   	6.000000	2.0538    	6.000000	0.000952074	
6.500000	1.86508   	6.500000	1.93456   	6.500000	1.9216    	6.500000	1.9216    	6.500000	1.93367   	6.500000	0.000886265	
7.000000	1.76322   	7.000000	1.82817   	7.000000	1.81484   	7.000000	1.81484   	7.000000	1.82734   	7.000000	0.000829345	
7.500000	1.67266   	7.500000	1.73331   	7.500000	1.71971   	7.500000	1.71971   	7.500000	1.73253   	7.500000	0.000779604	
8.000000	1.59158   	8.000000	1.64818   	8.000000	1.6344    	8.000000	1.6344    	8.000000	1.64745   	8.000000	0.000735744	
8.500000	1.51855   	8.500000	1.57135   	8.500000	1.55745   	8.500000	1.55745   	8.500000	1.57065   	8.500000	0.000696767	
9.000000	1.45241   	9.000000	1.50163   	9.000000	1.4877    	9.000000	1.4877    	9.000000	1.50097   	9.000000	0.000661888	
9.500000	1.39222   	9.500000	1.43808   	9.500000	1.42415   	9.500000	1.42415   	9.500000	1.43745   	9.500000	0.000630485	
10.000000	1.33719   	10.000000	1.36194   	10.000000	1.36603   	10.000000	1.36603   	10.000000	1.36134   	10.000000	0.000602054	
11.000000	1.24016   	11.000000	1.26545   	11.000000	1.26239   	11.000000	1.26325   	11.000000	1.26489   	11.000000	0.000552548	
12.000000	1.15727   	12.000000	1.18238   	12.000000	1.17422   	12.000000	1.17566   	12.000000	1.18187   	12.000000	0.000510875	
13.000000	1.0856    	13.000000	1.11013   	13.000000	1.09836   	13.000000	1.10016   	13.000000	1.10965   	13.000000	0.000475291	
14.000000	1.02299   	14.000000	1.04671   	14.000000	1.0324    	14.000000	1.03444   	14.000000	1.04626   	14.000000	0.000444534	
15.000000	0.967789  	15.000000	0.990597  	15.000000	0.974563  	15.000000	0.976759  	15.000000	0.990179  	15.000000	0.000417672	
16.000000	0.918748  	16.000000	0.940596  	16.000000	0.923485  	16.000000	0.92575   	16.000000	0.940202  	16.000000	0.000394001	
17.000000	0.874874  	17.000000	0.895756  	17.000000	0.878076  	17.000000	0.880345  	17.000000	0.895383  	17.000000	0.000372975	
18.000000	0.835377  	18.000000	0.855313  	18.000000	0.837431  	18.000000	0.839692  	18.000000	0.854959  	18.000000	0.000354169	
19.000000	0.799626  	19.000000	0.818647  	19.000000	0.800861  	19.000000	0.803103  	19.000000	0.81831   	19.000000	0.000337245	
20.000000	0.767103  	20.000000	0.78525   	20.000000	0.76783   	20.000000	0.770018  	20.000000	0.784928  	20.000000	0.00032193	
21.000000	0.737382  	21.000000	0.7547    	21.000000	0.737868  	21.000000	0.739974  	21.000000	0.754392  	21.000000	0.000308001	
22.000000	0.710112  	22.000000	0.726645  	22.000000	0.710567  	22.000000	0.712587  	22.000000	0.72635   	22.000000	0.000295276	
23.000000	0.684997  	23.000000	0.700789  	23.000000	0.685595  	23.000000	0.687535  	23.000000	0.700506  	23.000000	0.000283604	
24.000000	0.661786  	24.000000	0.676882  	24.000000	0.662682  	24.000000	0.664546  	24.000000	0.676609  	24.000000	0.000272857	
25.000000	0.640267  	25.000000	0.654708  	25.000000	0.641598  	25.000000	0.64339   	25.000000	0.654445  	25.000000	0.000262927	
27.000000	0.601606  	27.000000	0.614851  	27.000000	0.604184  	27.000000	0.605809  	27.000000	0.614606  	27.000000	0.00024517	
29.000000	0.567839  	29.000000	0.580027  	29.000000	0.572095  	29.000000	0.573514  	29.000000	0.579798  	29.000000	0.000229748	
31.000000	0.538078  	31.000000	0.54933   	31.000000	0.543211  	31.000000	0.544373  	31.000000	0.549114  	31.000000	0.000216223	
33.000000	0.511639  	33.000000	0.52206   	33.000000	0.516573  	33.000000	0.5175    	33.000000	0.521856  	33.000000	0.000204261	
35.000000	0.487986  	35.000000	0.497668  	35.000000	0.492738  	35.000000	0.493457  	35.000000	0.497474  	35.000000	0.000193603	
38.000000	0.456822  	38.000000	0.465541  	38.000000	0.461325  	38.000000	0.461781  	38.000000	0.465361  	38.000000	0.000179624	
41.000000	0.429883  	41.000000	0.437783  	41.000000	0.434169  	41.000000	0.434399  	41.000000	0.437616  	41.000000	0.000167599	
44.000000	0.406349  	44.000000	0.413551  	44.000000	0.410383  	44.000000	0.41048   	44.000000	0.413394  	44.000000	0.00015714	
47.000000	0.385603  	47.000000	0.392206  	47.000000	0.389443  	47.000000	0.389396  	47.000000	0.392058  	47.000000	0.000147956	
50.000000	0.367168  	50.000000	0.373255  	50.000000	0.370825  	50.000000	0.370664  	50.000000	0.373115  	50.000000	0.000139825	
55.000000	0.340603  	55.000000	0.345977  	55.000000	0.343953  	55.000000	0.343678  	55.000000	0.345849  	55.000000	0.000128159	
60.000000	0.318163  	60.000000	0.322973  	60.000000	0.321256  	60.000000	0.320895  	60.000000	0.322855  	60.000000	0.000118353	
65.000000	0.298941  	65.000000	0.303301  	65.000000	0.301792  	65.000000	0.30139   	65.000000	0.303191  	65.000000	0.000109992	
70.000000	0.282278  	70.000000	0.286278  	70.000000	0.284973  	70.000000	0.284496  	70.000000	0.286175  	70.000000	0.000102774	
75.000000	0.267685  	75.000000	0.271398  	75.000000	0.270208  	75.000000	0.269715  	75.000000	0.271301  	75.000000	9.64772e-05	
80.000000	0.254792  	80.000000	0.258275  	80.000000	0.257206  	80.000000	0.256668  	80.000000	0.258184  	80.000000	9.09339e-05	
85.000000	0.243313  	85.000000	0.246613  	85.000000	0.245609  	85.000000	0.245065  	85.000000	0.246527  	85.000000	8.6015e-05	
90.000000	0.233021  	90.000000	0.236178  	90.000000	0.235255  	90.000000	0.234676  	90.000000	0.236097  	90.000000	8.16194e-05	
95.000000	0.223739  	95.000000	0.226785  	95.000000	0.225897  	95.000000	0.225317  	95.000000	0.226707  	95.000000	7.76669e-05	
100.000000	0.21532   	100.000000	0.218283  	100.000000	0.217423  	100.000000	0.216842  	100.000000	0.218209  	100.000000	7.4093e-05	
105.000000	0.207647  	105.000000	0.21055   	105.000000	0.209709  	105.000000	0.209129  	105.000000	0.210479  	105.000000	7.0845e-05	
110.000000	0.200624  	110.000000	0.203485  	110.000000	0.20268   	110.000000	0.20208   	110.000000	0.203417  	110.000000	6.78798e-05	
115.000000	0.194168  	115.000000	0.197005  	115.000000	0.196218  	115.000000	0.195611  	115.000000	0.196939  	115.000000	6.51617e-05	
120.000000	0.188213  	120.000000	0.191039  	120.000000	0.190256  	120.000000	0.189654  	120.000000	0.190976  	120.000000	6.26605e-05	
125.000000	0.1827    	125.000000	0.185528  	125.000000	0.18475   	125.000000	0.184148  	125.000000	0.185467  	125.000000	6.0351e-05	
130.000000	0.177582  	130.000000	0.180421  	130.000000	0.179645  	130.000000	0.179046  	130.000000	0.180363  	130.000000	5.82118e-05	
135.000000	0.172815  	135.000000	0.175675  	135.000000	0.1749    	135.000000	0.174303  	135.000000	0.175619  	135.000000	5.62244e-05	
140.000000	0.168365  	140.000000	0.171254  	140.000000	0.170478  	140.000000	0.169883  	140.000000	0.171199  	140.000000	5.43731e-05	
145.000000	0.164199  	145.000000	0.167124  	145.000000	0.166346  	145.000000	0.165753  	145.000000	0.167071  	145.000000	5.26441e-05	
150.000000	0.160291  	150.000000	0.163257  	150.000000	0.162477  	150.000000	0.161887  	150.000000	0.163206  	150.000000	5.10256e-05	
155.000000	0.154789  	155.000000	0.15963   	155.000000	0.158847  	155.000000	0.158259  	155.000000	0.15958   	155.000000	4.95072e-05	
160.000000	0.151563  	160.000000	0.156219  	160.000000	0.155434  	160.000000	0.154848  	160.000000	0.156171  	160.000000	4.80798e-05	
165.000000	0.148522  	165.000000	0.153008  	165.000000	0.152219  	165.000000	0.151636  	165.000000	0.152961  	165.000000	4.67353e-05	
170.000000	0.145649  	170.000000	0.149977  	170.000000	0.149185  	170.000000	0.148604  	170.000000	0.149932  	170.000000	4.54667e-05	
175.000000	0.14293   	175.000000	0.147113  	175.000000	0.146318  	175.000000	0.14574   	175.000000	0.147069  	175.000000	4.42675e-05	
180.000000	0.140354  	180.000000	0.144402  	180.000000	0.143604  	180.000000	0.143028  	180.000000	0.144359  	180.000000	4.31323e-05	
185.000000	0.137908  	185.000000	0.141832  	185.000000	0.141031  	185.000000	0.140457  	185.000000	0.14179   	185.000000	4.20559e-05	
190.000000	0.135585  	190.000000	0.139393  	190.000000	0.138589  	190.000000	0.138017  	190.000000	0.139352  	190.000000	4.10338e-05	
195.000000	0.133373  	195.000000	0.137074  	195.000000	0.136268  	195.000000	0.135698  	195.000000	0.137034  	195.000000	4.0062e-05	
200.000000	0.131266  	200.000000	0.134867  	200.000000	0.134058  	200.000000	0.133491  	200.000000	0.134828  	200.000000	3.91368e-05	
210.000000	0.127336  	210.000000	0.130758  	210.000000	0.129945  	210.000000	0.129382  	210.000000	0.13072   	210.000000	3.74132e-05	
220.000000	0.123744  	220.000000	0.12701   	220.000000	0.126195  	220.000000	0.125636  	220.000000	0.126975  	220.000000	3.58402e-05	
230.000000	0.120448  	230.000000	0.123579  	230.000000	0.122762  	230.000000	0.122207  	230.000000	0.123545  	230.000000	3.43985e-05	
240.000000	0.117413  	240.000000	0.120426  	240.000000	0.119607  	240.000000	0.119056  	240.000000	0.120393  	240.000000	3.30722e-05	
250.000000	0.114608  	250.000000	0.117518  	250.000000	0.116701  	250.000000	0.116152  	250.000000	0.117487  	250.000000	3.18478e-05	
260.000000	0.112009  	260.000000	0.114829  	260.000000	0.114007  	260.000000	0.113468  	260.000000	0.114798  	260.000000	3.07138e-05	
270.000000	0.109593  	270.000000	0.112335  	270.000000	0.111505  	270.000000	0.110978  	270.000000	0.112305  	270.000000	2.96606e-05	
280.000000	0.107342  	280.000000	0.110014  	280.000000	0.109188  	280.000000	0.108664  	280.000000	0.109986  	280.000000	2.86796e-05	
290.000000	0.10524   	290.000000	0.107851  	290.000000	0.107029  	290.000000	0.106508  	290.000000	0.107824  	290.000000	2.77636e-05	
300.000000	0.103271  	300.000000	0.10583   	300.000000	0.105012  	300.000000	0.104493  	300.000000	0.105803  	300.000000	2.69063e-05	
310.000000	0.101425  	310.000000	0.103938  	310.000000	0.103124  	310.000000	0.102608  	310.000000	0.103912  	310.000000	2.61022e-05	
320.000000	0.0996896 	320.000000	0.102162  	320.000000	0.101354  	320.000000	0.10084   	320.000000	0.102137  	320.000000	2.53463e-05	
330.000000	0.0980555 	330.000000	0.100493  	330.000000	0.09969   	330.000000	0.0991795 	330.000000	0.100468  	330.000000	2.46345e-05	
340.000000	0.0965143 	340.000000	0.098921  	340.000000	0.0981248 	340.000000	0.0976163 	340.000000	0.098897  	340.000000	2.39629e-05	
350.000000	0.0950584 	350.000000	0.0974386 	350.000000	0.0966498 	350.000000	0.0961427 	350.000000	0.0974152 	350.000000	2.33282e-05	
360.000000	0.0936809 	360.000000	0.0960383 	360.000000	0.0952526 	360.000000	0.0947515 	360.000000	0.0960156 	360.000000	2.27274e-05	
370.000000	0.0923759 	370.000000	0.0947137 	370.000000	0.0939283 	370.000000	0.093436  	370.000000	0.0946915 	370.000000	2.21578e-05	
380.000000	0.0911379 	380.000000	0.093459  	380.000000	0.0926785 	380.000000	0.0921906 	380.000000	0.0934373 	380.000000	2.1617e-05	
390.000000	0.089962  	390.000000	0.0922689 	390.000000	0.0914969 	390.000000	0.0910099 	390.000000	0.0922478 	390.000000	2.11029e-05	
400.000000	0.0888437 	400.000000	0.0911388 	400.000000	0.0903748 	400.000000	0.0898892 	400.000000	0.0911182 	400.000000	2.06135e-05	
410.000000	0.087779  	410.000000	0.0900644 	410.000000	0.0893077 	410.000000	0.0888243 	410.000000	0.0900442 	410.000000	2.01471e-05	
420.000000	0.0867644 	420.000000	0.0890418 	420.000000	0.0882925 	420.000000	0.0878111 	420.000000	0.0890221 	420.000000	1.9702e-05	
430.000000	0.0857964 	430.000000	0.0880675 	430.000000	0.0873261 	430.000000	0.0868463 	430.000000	0.0880483 	430.000000	1.92768e-05	
440.000000	0.084872  	440.000000	0.0871384 	440.000000	0.0863994 	440.000000	0.0859203 	440.000000	0.0871195 	440.000000	1.88702e-05	
450.000000	0.0839886 	450.000000	0.0862515 	450.000000	0.0855103 	450.000000	0.0850329 	450.000000	0.086233  	450.000000	1.8481e-05	
460.000000	0.0831435 	460.000000	0.0854041 	460.000000	0.0846581 	460.000000	0.0841854 	460.000000	0.085386  	460.000000	1.81081e-05	
470.000000	0.0823344 	470.000000	0.0845938 	470.000000	0.083842  	470.000000	0.0833753 	470.000000	0.0845761 	470.000000	1.77504e-05	
480.000000	0.0815592 	480.000000	0.0838183 	480.000000	0.0830628 	480.000000	0.0826003 	480.000000	0.0838009 	480.000000	1.7407e-05	
490.000000	0.0808159 	490.000000	0.0830756 	490.000000	0.0823192 	490.000000	0.0818582 	490.000000	0.0830585 	490.000000	1.70772e-05	
500.000000	0.0801027 	500.000000	0.0823637 	500.000000	0.0816077 	500.000000	0.0811473 	500.000000	0.082347  	500.000000	1.676e-05 	
520.000000	0.0787599 	520.000000	0.0810256 	520.000000	0.0802696 	520.000000	0.0798115 	520.000000	0.0810095 	520.000000	1.61609e-05	
540.000000	0.077519  	540.000000	0.0797914 	540.000000	0.0790357 	540.000000	0.07858   	540.000000	0.0797758 	540.000000	1.56045e-05	
560.000000	0.0763694 	560.000000	0.0786502 	560.000000	0.0778952 	560.000000	0.0774418 	560.000000	0.0786351 	560.000000	1.50863e-05	
580.000000	0.0753022 	580.000000	0.0775927 	580.000000	0.076837  	580.000000	0.0763874 	580.000000	0.0775781 	580.000000	1.46026e-05	
600.000000	0.0743097 	600.000000	0.0766107 	600.000000	0.0758528 	600.000000	0.0754086 	600.000000	0.0765966 	600.000000	1.41499e-05	
620.000000	0.0733848 	620.000000	0.0756972 	620.000000	0.0749375 	620.000000	0.0744979 	620.000000	0.0756834 	620.000000	1.37254e-05	
640.000000	0.0725217 	640.000000	0.0748458 	640.000000	0.0740866 	640.000000	0.0736492 	640.000000	0.0748324 	640.000000	1.33264e-05	
660.000000	0.071715  	660.000000	0.0740511 	660.000000	0.073293  	660.000000	0.0728568 	660.000000	0.0740381 	660.000000	1.29507e-05	
680.000000	0.07096   	680.000000	0.0733081 	680.000000	0.0725502 	680.000000	0.0721157 	680.000000	0.0732955 	680.000000	1.25962e-05	
700.000000	0.0702524 	700.000000	0.0726126 	700.000000	0.0718549 	700.000000	0.0714216 	700.000000	0.0726004 	700.000000	1.22613e-05	
720.000000	0.0695886 	720.000000	0.0719608 	720.000000	0.0712031 	720.000000	0.0707706 	720.000000	0.0719488 	720.000000	1.19443e-05	
740.000000	0.0689652 	740.000000	0.0713491 	740.000000	0.0705893 	740.000000	0.0701591 	740.000000	0.0713374 	740.000000	1.16438e-05	
760.000000	0.0683791 	760.000000	0.0707745 	760.000000	0.0700096 	760.000000	0.069584  	760.000000	0.0707631 	760.000000	1.13586e-05	
780.000000	0.0678277 	780.000000	0.0702341 	780.000000	0.0694636 	780.000000	0.0690425 	780.000000	0.070223  	780.000000	1.10874e-05	
800.000000	0.0673084 	800.000000	0.0697255 	800.000000	0.0689508 	800.000000	0.068532  	800.000000	0.0697147 	800.000000	1.08293e-05	
820.000000	0.0668192 	820.000000	0.0692465 	820.000000	0.0684683 	820.000000	0.0680504 	820.000000	0.0692359 	820.000000	1.05834e-05	
840.000000	0.0663578 	840.000000	0.0687948 	840.000000	0.0680127 	840.000000	0.0675954 	840.000000	0.0687845 	840.000000	1.03487e-05	
860.000000	0.0659226 	860.000000	0.0683688 	860.000000	0.0675815 	860.000000	0.0671651 	860.000000	0.0683587 	860.000000	1.01245e-05	
880.000000	0.0655118 	880.000000	0.0679666 	880.000000	0.0671733 	880.000000	0.066758  	880.000000	0.0679567 	880.000000	9.91017e-06	
900.000000	0.0651239 	900.000000	0.0675868 	900.000000	0.066787  	900.000000	0.0663724 	900.000000	0.0675771 	900.000000	9.70501e-06	
920.000000	0.0647574 	920.000000	0.0672278 	920.000000	0.066421  	920.000000	0.0660068 	920.000000	0.0672183 	920.000000	9.50844e-06	
940.000000	0.0644112 	940.000000	0.0668885 	940.000000	0.0660735 	940.000000	0.06566   	940.000000	0.0668792 	940.000000	9.31993e-06	
960.000000	0.0640839 	960.000000	0.0665675 	960.000000	0.0657426 	960.000000	0.0653308 	960.000000	0.0665584 	960.000000	9.13899e-06	
980.000000	0.0637746 	980.000000	0.0662639 	980.000000	0.0654272 	980.000000	0.065018  	980.000000	0.0662549 	980.000000	8.96517e-06	
1000.000000	0.0634821 	1000.000000	0.0659765 	1000.000000	0.065127  	1000.000000	0.0647207 	1000.000000	0.0659677 	1000.000000	8.79805e-06	
1020.000000	0.0632057 	1020.000000	0.0657044 	1020.000000	0.0648416 	1020.000000	0.0644379 	1020.000000	0.0656958 	1020.000000	8.63725e-06	
1040.000000	0.0629443 	1040.000000	0.0654468 	1040.000000	0.0645706 	1040.000000	0.0641687 	1040.000000	0.0654384 	1040.000000	8.48241e-06	
1060.000000	0.0626972 	1060.000000	0.0652029 	1060.000000	0.0643134 	1060.000000	0.0639123 	1060.000000	0.0651946 	1060.000000	8.3332e-06	
1080.000000	0.0624636 	1080.000000	0.064972  	1080.000000	0.0640687 	1080.000000	0.0636681 	1080.000000	0.0649638 	1080.000000	8.18932e-06	
1100.000000	0.0622429 	1100.000000	0.0647532 	1100.000000	0.0638356 	1100.000000	0.0634352 	1100.000000	0.0647452 	1100.000000	8.05049e-06	
1120.000000	0.0620344 	1120.000000	0.0645461 	1120.000000	0.0636131 	1120.000000	0.0632131 	1120.000000	0.0645382 	1120.000000	7.91643e-06	
1140.000000	0.0618375 	1140.000000	0.0643499 	1140.000000	0.0634007 	1140.000000	0.0630012 	1140.000000	0.0643422 	1140.000000	7.78691e-06	
1160.000000	0.0616517 	1160.000000	0.0641642 	1160.000000	0.0631978 	1160.000000	0.0627989 	1160.000000	0.0641566 	1160.000000	7.6617e-06	
1180.000000	0.0614764 	1180.000000	0.0639884 	1180.000000	0.063004  	1180.000000	0.0626058 	1180.000000	0.0639809 	1180.000000	7.54058e-06	
1200.000000	0.0613111 	1200.000000	0.0638221 	1200.000000	0.062819  	1200.000000	0.0624212 	1200.000000	0.0638147 	1200.000000	7.42335e-06	
1220.000000	0.0611554 	1220.000000	0.0636647 	1220.000000	0.0626423 	1220.000000	0.0622449 	1220.000000	0.0636574 	1220.000000	7.30982e-06	
1240.000000	0.0610088 	1240.000000	0.0635159 	1240.000000	0.0624735 	1240.000000	0.0620763 	1240.000000	0.0635087 	1240.000000	7.19983e-06	
1260.000000	0.0608709 	1260.000000	0.0633752 	1260.000000	0.062312  	1260.000000	0.061915  	1260.000000	0.0633681 	1260.000000	7.09321e-06	
1280.000000	0.0607414 	1280.000000	0.0632423 	1280.000000	0.0621573 	1280.000000	0.0617608 	1280.000000	0.0632353 	1280.000000	6.9898e-06	
1300.000000	0.0606199 	1300.000000	0.0631168 	1300.000000	0.0620091 	1300.000000	0.0616132 	1300.000000	0.0631099 	1300.000000	6.88946e-06	
1320.000000	0.060506  	1320.000000	0.0629984 	1320.000000	0.0618669 	1320.000000	0.061472  	1320.000000	0.0629916 	1320.000000	6.79205e-06	
1340.000000	0.0603995 	1340.000000	0.0628867 	1340.000000	0.0617304 	1340.000000	0.0613368 	1340.000000	0.06288   	1340.000000	6.69744e-06	
1360.000000	0.0603    	1360.000000	0.0627816 	1360.000000	0.0615994 	1360.000000	0.0612073 	1360.000000	0.062775  	1360.000000	6.60552e-06	
1380.000000	0.0602072 	1380.000000	0.0626827 	1380.000000	0.0614739 	1380.000000	0.0610833 	1380.000000	0.0626762 	1380.000000	6.51617e-06	
1400.000000	0.060121  	1400.000000	0.0625897 	1400.000000	0.0613537 	1400.000000	0.0609645 	1400.000000	0.0625832 	1400.000000	6.42928e-06	
1420.000000	0.0600409 	1420.000000	0.0625024 	1420.000000	0.0612386 	1420.000000	0.0608507 	1420.000000	0.062496  	1420.000000	6.34475e-06	
1440.000000	0.0599669 	1440.000000	0.0624205 	1440.000000	0.0611285 	1440.000000	0.0607417 	1440.000000	0.0624143 	1440.000000	6.26249e-06	
1460.000000	0.0598986 	1460.000000	0.062344  	1460.000000	0.0610232 	1460.000000	0.0606371 	1460.000000	0.0623378 	1460.000000	6.1824e-06	
1480.000000	0.0598358 	1480.000000	0.0622724 	1480.000000	0.0609224 	1480.000000	0.060537  	1480.000000	0.0622663 	1480.000000	6.1044e-06	
1500.000000	0.0597784 	1500.000000	0.0622057 	1500.000000	0.060826  	1500.000000	0.060441  	1500.000000	0.0621996 	1500.000000	6.0284e-06	
1520.000000	0.0597261 	1520.000000	0.0621436 	1520.000000	0.0607337 	1520.000000	0.0603489 	1520.000000	0.0621376 	1520.000000	5.95434e-06	
1540.000000	0.0596788 	1540.000000	0.062086  	1540.000000	0.0606453 	1540.000000	0.0602607 	1540.000000	0.0620801 	1540.000000	5.88213e-06	
1560.000000	0.0596363 	1560.000000	0.0620327 	1560.000000	0.0605605 	1560.000000	0.060176  	1560.000000	0.0620269 	1560.000000	5.8117e-06	
1580.000000	0.0595984 	1580.000000	0.0619835 	1580.000000	0.0604793 	1580.000000	0.0600949 	1580.000000	0.0619777 	1580.000000	5.743e-06 	
1600.000000	0.0595649 	1600.000000	0.0619383 	1600.000000	0.0604014 	1600.000000	0.0600171 	1600.000000	0.0619326 	1600.000000	5.67595e-06	
1620.000000	0.0595358 	1620.000000	0.0618969 	1620.000000	0.0603267 	1620.000000	0.0599425 	1620.000000	0.0618913 	1620.000000	5.61051e-06	
1640.000000	0.0595108 	1640.000000	0.0618593 	1640.000000	0.060255  	1640.000000	0.059871  	1640.000000	0.0618537 	1640.000000	5.5466e-06	
1660.000000	0.0594898 	1660.000000	0.0618252 	1660.000000	0.0601862 	1660.000000	0.0598025 	1660.000000	0.0618197 	1660.000000	5.48417e-06	
1680.000000	0.0594728 	1680.000000	0.0617945 	1680.000000	0.0601202 	1680.000000	0.0597367 	1680.000000	0.0617891 	1680.000000	5.42319e-06	
1700.000000	0.0594595 	1700.000000	0.0617672 	1700.000000	0.060057  	1700.000000	0.0596737 	1700.000000	0.0617618 	1700.000000	5.36358e-06	
1750.000000	0.059442  	1750.000000	0.0617126 	1750.000000	0.0599099 	1750.000000	0.0595273 	1750.000000	0.0617074 	1750.000000	5.22033e-06	
1800.000000	0.0594455 	1800.000000	0.0616764 	1800.000000	0.0597776 	1800.000000	0.0593957 	1800.000000	0.0616714 	1800.000000	5.08476e-06	
1850.000000	0.0594686 	1850.000000	0.0616572 	1850.000000	0.0596587 	1850.000000	0.0592776 	1850.000000	0.0616522 	1850.000000	4.95626e-06	
1900.000000	0.0595099 	1900.000000	0.0616535 	1900.000000	0.0595519 	1900.000000	0.0591716 	1900.000000	0.0616487 	1900.000000	4.8343e-06	
1950.000000	0.059568  	1950.000000	0.0616642 	1950.000000	0.0594561 	1950.000000	0.0590767 	1950.000000	0.0616595 	1950.000000	4.71838e-06	
2000.000000	0.0596419 	2000.000000	0.0616883 	2000.000000	0.0593705 	2000.000000	0.058992  	2000.000000	0.0616836 	2000.000000	4.60806e-06	
2100.000000	0.0598329 	2100.000000	0.0617725 	2100.000000	0.059226  	2100.000000	0.0588495 	2100.000000	0.0617681 	2100.000000	4.40264e-06	
2200.000000	0.0600757 	2200.000000	0.0618995 	2200.000000	0.0591127 	2200.000000	0.0587382 	2200.000000	0.0618952 	2200.000000	4.21527e-06	
2300.000000	0.0603643 	2300.000000	0.0620636 	2300.000000	0.059026  	2300.000000	0.0586532 	2300.000000	0.0620596 	2300.000000	4.04365e-06	
2400.000000	0.0606937 	2400.000000	0.0622602 	2400.000000	0.0589621 	2400.000000	0.0585905 	2400.000000	0.0622564 	2400.000000	3.88586e-06	
2500.000000	0.0610597 	2500.000000	0.0624855 	2500.000000	0.0589176 	2500.000000	0.0585467 	2500.000000	0.0624818 	2500.000000	3.74028e-06	
2600.000000	0.0614587 	2600.000000	0.062736  	2600.000000	0.0588896 	2600.000000	0.0585191 	2600.000000	0.0627324 	2600.000000	3.60552e-06	
2700.000000	0.0618876 	2700.000000	0.063009  	2700.000000	0.0588755 	2700.000000	0.0585054 	2700.000000	0.0630055 	2700.000000	3.48041e-06	
2800.000000	0.0623437 	2800.000000	0.0633019 	2800.000000	0.0588734 	2800.000000	0.0585035 	2800.000000	0.0632985 	2800.000000	3.36395e-06	
2900.000000	0.0628247 	2900.000000	0.0636127 	2900.000000	0.0588815 	2900.000000	0.058512  	2900.000000	0.0636095 	2900.000000	3.25525e-06	
3000.000000	0.0633286 	3000.000000	0.0639396 	3000.000000	0.0588983 	3000.000000	0.0585293 	3000.000000	0.0639365 	3000.000000	3.15355e-06	
3200.000000	0.0643983 	3200.000000	0.0646355 	3200.000000	0.0589538 	3200.000000	0.0585857 	3200.000000	0.0646326 	3200.000000	2.96862e-06	
3400.000000	0.0655409 	3400.000000	0.065379  	3400.000000	0.0590322 	3400.000000	0.0586652 	3400.000000	0.0653762 	3400.000000	2.80475e-06	
3600.000000	0.0667473 	3600.000000	0.066162  	3600.000000	0.059128  	3600.000000	0.0587619 	3600.000000	0.0661593 	3600.000000	2.65851e-06	
3800.000000	0.0680102 	3800.000000	0.0669779 	3800.000000	0.0592367 	3800.000000	0.0588715 	3800.000000	0.0669754 	3800.000000	2.52717e-06	
4000.000000	0.0693235 	4000.000000	0.0678216 	4000.000000	0.0593551 	4000.000000	0.0589907 	4000.000000	0.0678192 	4000.000000	2.40854e-06	
4200.000000	0.0706825 	4200.000000	0.0686889 	4200.000000	0.0594806 	4200.000000	0.0591169 	4200.000000	0.0686866 	4200.000000	2.30086e-06	
4400.000000	0.0720832 	4400.000000	0.0695764 	4400.000000	0.0596113 	4400.000000	0.0592482 	4400.000000	0.0695742 	4400.000000	2.20265e-06	
4600.000000	0.0735222 	4600.000000	0.0704812 	4600.000000	0.0597454 	4600.000000	0.0593829 	4600.000000	0.0704791 	4600.000000	2.11271e-06	
4800.000000	0.0749969 	4800.000000	0.0714011 	4800.000000	0.0598819 	4800.000000	0.05952   	4800.000000	0.071399  	4800.000000	2.03003e-06	
5000.000000	0.0765048 	5000.000000	0.0723339 	5000.000000	0.0600198 	5000.000000	0.0596584 	5000.000000	0.072332  	5000.000000	1.95375e-06	
5250.000000	0.0784334 	5250.000000	0.0735159 	5250.000000	0.0601931 	5250.000000	0.0598322 	5250.000000	0.073514  	5250.000000	1.86632e-06	
5500.000000	0.0804076 	5500.000000	0.0747129 	5500.000000	0.0603662 	5500.000000	0.0600059 	5500.000000	0.0747111 	5500.000000	1.78659e-06	
6000.000000	0.0844822 	6000.000000	0.0771436 	6000.000000	0.060709  	6000.000000	0.0603497 	6000.000000	0.077142  	6000.000000	1.64645e-06	
6500.000000	0.0887116 	6500.000000	0.0796124 	6500.000000	0.0610439 	6500.000000	0.0606855 	6500.000000	0.0796109 	6500.000000	1.52723e-06	
7000.000000	0.0930835 	7000.000000	0.0821095 	7000.000000	0.0613686 	7000.000000	0.061011  	7000.000000	0.0821081 	7000.000000	1.42453e-06	
7500.000000	0.0975888 	7500.000000	0.084628  	7500.000000	0.0616805 	7500.000000	0.0613251 	7500.000000	0.0846267 	7500.000000	1.33511e-06	
8000.000000	0.102221  	8000.000000	0.0871627 	8000.000000	0.0619819 	8000.000000	0.0616275 	8000.000000	0.0871614 	8000.000000	1.25653e-06	
8500.000000	0.106974  	8500.000000	0.0897096 	8500.000000	0.0622727 	8500.000000	0.0619182 	8500.000000	0.0897084 	8500.000000	1.18692e-06	
9000.000000	0.111844  	9000.000000	0.0922658 	9000.000000	0.0625522 	9000.000000	0.0621975 	9000.000000	0.0922647 	9000.000000	1.12481e-06	
9500.000000	0.116829  	9500.000000	0.094829  	9500.000000	0.0628196 	9500.000000	0.0624659 	9500.000000	0.094828  	9500.000000	1.06904e-06	
10000.000000	0.121925  	10000.000000	0.0973974 	10000.000000	0.0630753 	10000.000000	0.0627238 	10000.000000	0.0973964 	10000.000000	1.01868e-06	
11000.000000	0.132443  	11000.000000	0.102544  	11000.000000	0.0635585 	11000.000000	0.0632105 	11000.000000	0.102543  	11000.000000	9.31299e-07	
12000.000000	0.143387  	12000.000000	0.107698  	12000.000000	0.0640095 	12000.000000	0.0636616 	12000.000000	0.107698  	12000.000000	8.58064e-07	
13000.000000	0.154748  	13000.000000	0.112854  	13000.000000	0.0644285 	13000.000000	0.0640813 	13000.000000	0.112853  	13000.000000	7.95773e-07	
14000.000000	0.16652   	14000.000000	0.118008  	14000.000000	0.0648175 	14000.000000	0.0644728 	14000.000000	0.118007  	14000.000000	7.42125e-07	
15000.000000	0.178701  	15000.000000	0.123158  	15000.000000	0.06518   	15000.000000	0.0648394 	15000.000000	0.123157  	15000.000000	6.95424e-07	
16000.000000	0.191288  	16000.000000	0.128302  	16000.000000	0.0655202 	16000.000000	0.0651836 	16000.000000	0.128301  	16000.000000	6.54393e-07	
17000.000000	0.204279  	17000.000000	0.133439  	17000.000000	0.065841  	17000.000000	0.0655078 	17000.000000	0.133439  	17000.000000	6.1805e-07	
18000.000000	0.217674  	18000.000000	0.138569  	18000.000000	0.0661445 	18000.000000	0.065814  	18000.000000	0.138569  	18000.000000	5.85629e-07	
19000.000000	0.231473  	19000.000000	0.143691  	19000.000000	0.0664324 	19000.000000	0.0661038 	19000.000000	0.14369   	19000.000000	5.56523e-07	
20000.000000	0.245675  	20000.000000	0.148805  	20000.000000	0.0667062 	20000.000000	0.0663789 	20000.000000	0.148804  	20000.000000	5.30243e-07	
21000.000000	0.260282  	21000.000000	0.15391   	21000.000000	0.066966  	21000.000000	0.0666405 	21000.000000	0.153909  	21000.000000	5.06395e-07	
22000.000000	0.275293  	22000.000000	0.159007  	22000.000000	0.0672115 	22000.000000	0.0668898 	22000.000000	0.159006  	22000.000000	4.84652e-07	
23000.000000	0.290711  	23000.000000	0.164095  	23000.000000	0.0674459 	23000.000000	0.0671278 	23000.000000	0.164095  	23000.000000	4.64746e-07	
24000.000000	0.306537  	24000.000000	0.169175  	24000.000000	0.0676705 	24000.000000	0.0673555 	24000.000000	0.169175  	24000.000000	4.46451e-07	
25000.000000	0.322772  	25000.000000	0.174247  	25000.000000	0.0678851 	25000.000000	0.0675736 	25000.000000	0.174247  	25000.000000	4.29578e-07	
26000.000000	0.339416  	26000.000000	0.179311  	26000.000000	0.0680908 	26000.000000	0.0677829 	26000.000000	0.17931   	26000.000000	4.13966e-07	
27000.000000	0.356473  	27000.000000	0.184367  	27000.000000	0.0682886 	27000.000000	0.067984  	27000.000000	0.184366  	27000.000000	3.99477e-07	
28000.000000	0.373944  	28000.000000	0.189415  	28000.000000	0.0684786 	28000.000000	0.0681775 	28000.000000	0.189414  	28000.000000	3.85993e-07	
29000.000000	0.39183   	29000.000000	0.194455  	29000.000000	0.0686613 	29000.000000	0.068364  	29000.000000	0.194455  	29000.000000	3.73413e-07	
30000.000000	0.410133  	30000.000000	0.199488  	30000.000000	0.0688372 	30000.000000	0.0685438 	30000.000000	0.199487  	30000.000000	3.61647e-07	
32000.000000	0.447999  	32000.000000	0.209532  	32000.000000	0.0691706 	32000.000000	0.0688854 	32000.000000	0.209531  	32000.000000	3.40261e-07	
34000.000000	0.487558  	34000.000000	0.219547  	34000.000000	0.0694819 	34000.000000	0.0692053 	34000.000000	0.219547  	34000.000000	3.21321e-07	
36000.000000	0.528826  	36000.000000	0.229536  	36000.000000	0.0697728 	36000.000000	0.0695059 	36000.000000	0.229536  	36000.000000	3.04427e-07	
38000.000000	0.571821  	38000.000000	0.239499  	38000.000000	0.070045  	38000.000000	0.0697893 	38000.000000	0.239499  	38000.000000	2.89263e-07	
40000.000000	0.616559  	40000.000000	0.249437  	40000.000000	0.070301  	40000.000000	0.0700575 	40000.000000	0.249437  	40000.000000	2.75573e-07	
42000.000000	0.66306   	42000.000000	0.259352  	42000.000000	0.0705432 	42000.000000	0.0703118 	42000.000000	0.259352  	42000.000000	2.63151e-07	
44000.000000	0.71134   	44000.000000	0.269244  	44000.000000	0.0707733 	44000.000000	0.0705535 	44000.000000	0.269244  	44000.000000	2.51827e-07	
46000.000000	0.76142   	46000.000000	0.279115  	46000.000000	0.0709927 	46000.000000	0.070784  	46000.000000	0.279114  	46000.000000	2.41461e-07	
48000.000000	0.813316  	48000.000000	0.288964  	48000.000000	0.0712021 	48000.000000	0.071004  	48000.000000	0.288964  	48000.000000	2.31935e-07	
50000.000000	0.86705   	50000.000000	0.298794  	50000.000000	0.0714012 	50000.000000	0.0712145 	50000.000000	0.298794  	50000.000000	2.2315e-07	
