0.001000	11.0136   	0.001000	11.0127   	0.001000	9.31265   	0.001000	9.31265   	0.001000	3.01969   	0.001000	7.99301   	
0.002000	11.3192   	0.002000	11.3711   	0.002000	9.32125   	0.002000	9.32125   	0.002000	3.91605   	0.002000	7.45508   	
0.005000	11.3259   	0.005000	11.3981   	0.005000	8.82687   	0.005000	8.82687   	0.005000	5.52174   	0.005000	5.87633   	
0.008000	11.4159   	0.008000	11.4659   	0.008000	8.61197   	0.008000	8.61197   	0.008000	6.58599   	0.008000	4.87986   	
0.010000	11.535    	0.010000	11.5673   	0.010000	8.57908   	0.010000	8.57908   	0.010000	7.16082   	0.010000	4.40648   	
0.015000	11.9324   	0.015000	11.923    	0.015000	8.69655   	0.015000	8.69655   	0.015000	8.33675   	0.015000	3.58622   	
0.020000	12.3851   	0.020000	12.3403   	0.020000	8.9548    	0.020000	8.9548    	0.020000	9.28643   	0.020000	3.05392   	
0.025000	12.8477   	0.025000	12.7731   	0.025000	9.27351   	0.025000	9.27351   	0.025000	10.0969   	0.025000	2.67614   	
0.030000	13.3035   	0.030000	13.2033   	0.030000	9.61894   	0.030000	9.61894   	0.030000	10.8114   	0.030000	2.3919    	
0.035000	13.7465   	0.035000	13.6239   	0.035000	9.97513   	0.035000	9.97513   	0.035000	11.4548   	0.035000	2.16905   	
0.040000	14.1744   	0.040000	14.0319   	0.040000	10.3339   	0.040000	10.3339   	0.040000	12.043    	0.040000	1.9889    	
0.045000	14.5871   	0.045000	14.4266   	0.045000	10.691    	0.045000	10.691    	0.045000	12.5869   	0.045000	1.83979   	
0.050000	15.0309   	0.050000	14.991    	0.050000	11.2793   	0.050000	11.2793   	0.050000	13.277    	0.050000	1.71403   	
0.055000	15.8665   	0.055000	15.8454   	0.055000	12.2699   	0.055000	12.2699   	0.055000	14.2391   	0.055000	1.60632   	
0.060000	16.6414   	0.060000	16.6843   	0.060000	13.2702   	0.060000	13.2702   	0.060000	15.1715   	0.060000	1.51288   	
0.070000	17.9908   	0.070000	18.2999   	0.070000	15.2655   	0.070000	15.2655   	0.070000	16.9415   	0.070000	1.35841   	
0.080000	19.4807   	0.080000	19.804    	0.080000	17.1997   	0.080000	17.1997   	0.080000	18.5798   	0.080000	1.22415   	
0.090000	20.8049   	0.090000	21.2098   	0.090000	19.0623   	0.090000	19.0623   	0.090000	20.0848   	0.090000	1.12499   	
0.100000	21.9939   	0.100000	22.5016   	0.100000	20.8192   	0.100000	20.8192   	0.100000	21.4595   	0.100000	1.04216   	
0.120000	23.5378   	0.120000	24.7563   	0.120000	23.9813   	0.120000	23.9813   	0.120000	23.845    	0.120000	0.911258  	
0.140000	24.8416   	0.140000	26.62     	0.140000	26.676    	0.140000	26.676    	0.140000	25.8079   	0.140000	0.812088  	
0.160000	26.0808   	0.160000	28.1655   	0.160000	28.9505   	0.160000	28.9505   	0.160000	27.4314   	0.160000	0.734081  	
0.180000	27.9004   	0.180000	30.1298   	0.180000	30.8719   	0.180000	30.8719   	0.180000	29.4588   	0.180000	0.670945  	
0.200000	29.6651   	0.200000	31.8099   	0.200000	32.508    	0.200000	32.508    	0.200000	31.1912   	0.200000	0.618686  	
0.250000	32.8909   	0.250000	35.1178   	0.250000	35.7135   	0.250000	35.7135   	0.250000	34.5977   	0.250000	0.520086  	
0.300000	35.8034   	0.300000	37.6159   	0.300000	38.1272   	0.300000	38.1272   	0.300000	37.1654   	0.300000	0.450521  	
0.350000	38.4189   	0.350000	39.6449   	0.350000	40.0886   	0.350000	40.0886   	0.350000	39.2463   	0.350000	0.398565  	
0.400000	41.269    	0.400000	41.8989   	0.400000	41.7641   	0.400000	41.7641   	0.400000	41.5407   	0.400000	0.358146  	
0.450000	43.9327   	0.450000	44.0177   	0.450000	43.2365   	0.450000	43.2365   	0.450000	43.692    	0.450000	0.325723  	
0.500000	46.2591   	0.500000	45.8649   	0.500000	44.5499   	0.500000	44.5499   	0.500000	45.5658   	0.500000	0.299085  	
0.600000	48.3959   	0.600000	48.928    	0.600000	47.0045   	0.600000	47.0045   	0.600000	48.6702   	0.600000	0.257795  	
0.700000	49.4199   	0.700000	51.3409   	0.700000	49.6294   	0.700000	49.6294   	0.700000	51.1138   	0.700000	0.227169  	
0.800000	51.6314   	0.800000	53.2565   	0.800000	51.7157   	0.800000	51.7157   	0.800000	53.053    	0.800000	0.203474  	
0.900000	53.3573   	0.900000	54.7807   	0.900000	53.3796   	0.900000	53.3796   	0.900000	54.5961   	0.900000	0.184551  	
1.000000	54.7042   	1.000000	55.9924   	1.000000	54.7071   	1.000000	54.7071   	1.000000	55.8233   	1.000000	0.169064  	
1.250000	56.754    	1.250000	58.0173   	1.250000	56.948    	1.250000	56.948    	1.250000	57.877    	1.250000	0.140278  	
1.500000	57.3279   	1.500000	58.6904   	1.500000	58.1443   	1.500000	58.1443   	1.500000	58.5701   	1.500000	0.120322  	
1.750000	57.3585   	1.750000	58.8762   	1.750000	58.6838   	1.750000	58.6838   	1.750000	58.7706   	1.750000	0.105614  	
2.000000	57.0566   	2.000000	58.7512   	2.000000	58.7971   	2.000000	58.7971   	2.000000	58.6569   	2.000000	0.0942922 	
2.250000	56.515    	2.250000	58.2952   	2.250000	58.6274   	2.250000	58.6274   	2.250000	58.2099   	2.250000	0.0852896 	
2.500000	77.5972   	2.500000	57.5981   	2.500000	58.2671   	2.500000	58.2671   	2.500000	57.5202   	2.500000	0.0779475 	
3.000000	74.6312   	3.000000	56.1616   	3.000000	57.2006   	3.000000	57.2006   	3.000000	56.095    	3.000000	0.0666678 	
3.500000	71.5759   	3.500000	54.7146   	3.500000	55.892    	3.500000	55.892    	3.500000	54.6563   	3.500000	0.0583842 	
4.000000	68.6145   	4.000000	53.3008   	4.000000	54.2912   	4.000000	54.2912   	4.000000	53.2487   	4.000000	0.0520264 	
4.500000	65.8175   	4.500000	51.923    	4.500000	52.6953   	4.500000	52.6953   	4.500000	51.876    	4.500000	0.0469828 	
5.000000	63.2065   	5.000000	50.5971   	5.000000	51.1809   	5.000000	51.1809   	5.000000	50.5542   	5.000000	0.042878  	
5.500000	60.7816   	5.500000	49.3214   	5.500000	49.7466   	5.500000	49.7466   	5.500000	49.282    	5.500000	0.039468  	
6.000000	58.5332   	6.000000	48.0937   	6.000000	48.3891   	6.000000	48.3891   	6.000000	48.0571   	6.000000	0.0365874 	
6.500000	56.4486   	6.500000	46.8965   	6.500000	47.104    	6.500000	47.104    	6.500000	46.8624   	6.500000	0.0341198 	
7.000000	54.5136   	7.000000	45.7533   	7.000000	45.8867   	7.000000	45.8867   	7.000000	45.7213   	7.000000	0.0319808 	
7.500000	52.7147   	7.500000	44.6703   	7.500000	44.7325   	7.500000	44.7325   	7.500000	44.6402   	7.500000	0.0301078 	
8.000000	51.0393   	8.000000	43.6414   	8.000000	43.6371   	8.000000	43.6371   	8.000000	43.6129   	8.000000	0.0284533 	
8.500000	49.4757   	8.500000	42.6631   	8.500000	42.5963   	8.500000	42.5963   	8.500000	42.6361   	8.500000	0.0269804 	
9.000000	48.0136   	9.000000	41.7265   	9.000000	41.6061   	9.000000	41.6061   	9.000000	41.7009   	9.000000	0.0256604 	
9.500000	46.6436   	9.500000	40.828    	9.500000	40.663    	9.500000	40.663    	9.500000	40.8035   	9.500000	0.0244701 	
10.000000	45.3575   	10.000000	39.4456   	10.000000	39.7638   	10.000000	39.7638   	10.000000	39.4222   	10.000000	0.0233911 	
11.000000	43.0077   	11.000000	37.9928   	11.000000	37.7953   	11.000000	38.2017   	11.000000	37.9713   	11.000000	0.0215086 	
12.000000	40.9141   	12.000000	36.6364   	12.000000	36.029    	12.000000	36.7706   	12.000000	36.6165   	12.000000	0.0199205 	
13.000000	39.0365   	13.000000	35.371    	13.000000	34.4373   	13.000000	35.4563   	13.000000	35.3524   	13.000000	0.0185615 	
14.000000	37.3427   	14.000000	34.1902   	14.000000	32.996    	14.000000	34.2461   	14.000000	34.1728   	14.000000	0.0173848 	
15.000000	35.8065   	15.000000	33.0873   	15.000000	31.6847   	15.000000	33.1287   	15.000000	33.0709   	15.000000	0.0163553 	
16.000000	34.4064   	16.000000	32.0558   	16.000000	30.4886   	16.000000	32.0945   	16.000000	32.0403   	16.000000	0.0154467 	
17.000000	33.1247   	17.000000	31.0896   	17.000000	29.3945   	17.000000	31.1349   	17.000000	31.0749   	17.000000	0.0146385 	
18.000000	31.9467   	18.000000	30.1831   	18.000000	28.389    	18.000000	30.2427   	18.000000	30.1692   	18.000000	0.0139147 	
19.000000	30.8599   	19.000000	29.3312   	19.000000	27.4627   	19.000000	29.4113   	19.000000	29.3179   	19.000000	0.0132625 	
20.000000	29.8539   	20.000000	28.5293   	20.000000	26.6082   	20.000000	28.635    	20.000000	28.5166   	20.000000	0.0126716 	
21.000000	28.9199   	21.000000	27.7732   	21.000000	25.8181   	21.000000	27.9091   	21.000000	27.7611   	21.000000	0.0121336 	
22.000000	28.05     	22.000000	27.0593   	22.000000	25.0853   	22.000000	27.2289   	22.000000	27.0476   	22.000000	0.0116416 	
23.000000	27.2378   	23.000000	26.384    	23.000000	24.4041   	23.000000	26.5908   	23.000000	26.3728   	23.000000	0.0111899 	
24.000000	26.4776   	24.000000	25.7444   	24.000000	23.7706   	24.000000	25.9911   	24.000000	25.7337   	24.000000	0.0107736 	
25.000000	25.7644   	25.000000	25.1378   	25.000000	23.1804   	25.000000	25.427    	25.000000	25.1274   	25.000000	0.0103886 	
27.000000	24.462    	27.000000	24.0137   	27.000000	22.1153   	27.000000	24.3942   	27.000000	24.004    	27.000000	0.00969939	
29.000000	23.302    	29.000000	22.9947   	29.000000	21.1831   	29.000000	23.4736   	29.000000	22.9856   	29.000000	0.00909986	
31.000000	22.2615   	31.000000	22.0665   	31.000000	20.3908   	31.000000	22.5682   	31.000000	22.058    	31.000000	0.00857336	
33.000000	21.3226   	33.000000	21.2176   	33.000000	19.6935   	33.000000	21.6676   	33.000000	21.2095   	33.000000	0.00810712	
35.000000	20.4706   	35.000000	20.4382   	35.000000	19.0467   	35.000000	20.8431   	35.000000	20.4305   	35.000000	0.0076912 	
38.000000	19.3305   	38.000000	19.3816   	38.000000	18.1626   	38.000000	19.7288   	38.000000	19.3744   	38.000000	0.00714495	
41.000000	18.3283   	41.000000	18.4403   	41.000000	17.3655   	41.000000	18.7392   	41.000000	18.4336   	41.000000	0.00667434	
44.000000	17.4399   	44.000000	17.5963   	44.000000	16.6445   	44.000000	17.8545   	44.000000	17.59     	44.000000	0.00626447	
47.000000	16.6464   	47.000000	16.8351   	47.000000	15.9877   	47.000000	17.0585   	47.000000	16.8292   	47.000000	0.00590414	
50.000000	15.933    	50.000000	16.1452   	50.000000	15.3878   	50.000000	16.3386   	50.000000	16.1396   	50.000000	0.00558474	
55.000000	14.8911   	55.000000	15.1282   	55.000000	14.4939   	55.000000	15.2802   	55.000000	15.1231   	55.000000	0.00512584	
60.000000	13.9978   	60.000000	14.2481   	60.000000	13.7148   	60.000000	14.3669   	60.000000	14.2434   	60.000000	0.00473953	
65.000000	13.2229   	65.000000	13.479    	65.000000	13.0259   	65.000000	13.5707   	65.000000	13.4746   	65.000000	0.00440963	
70.000000	12.5437   	70.000000	12.801    	70.000000	12.4146   	70.000000	12.8705   	70.000000	12.7969   	70.000000	0.00412447	
75.000000	11.9432   	75.000000	12.1988   	75.000000	11.8677   	75.000000	12.2499   	75.000000	12.1949   	75.000000	0.00387541	
80.000000	11.408    	80.000000	11.6604   	80.000000	11.3775   	80.000000	11.696    	80.000000	11.6568   	80.000000	0.00365592	
85.000000	10.928    	85.000000	11.1762   	85.000000	10.9325   	85.000000	11.1987   	85.000000	11.1727   	85.000000	0.00346095	
90.000000	10.4947   	90.000000	10.7383   	90.000000	10.5294   	90.000000	10.7497   	90.000000	10.735    	90.000000	0.00328656	
95.000000	10.1015   	95.000000	10.3404   	95.000000	10.1599   	95.000000	10.3424   	95.000000	10.3372   	95.000000	0.00312961	
100.000000	9.74288   	100.000000	9.97724   	100.000000	9.82239   	100.000000	9.9711    	100.000000	9.97426   	100.000000	0.00298758	
105.000000	9.41447   	105.000000	9.64453   	105.000000	9.51289   	105.000000	9.63135   	105.000000	9.64167   	105.000000	0.0028584 	
110.000000	9.11245   	110.000000	9.33856   	110.000000	9.22608   	110.000000	9.31928   	110.000000	9.33582   	110.000000	0.00274038	
115.000000	8.83371   	115.000000	9.05625   	115.000000	8.9607    	115.000000	9.03165   	115.000000	9.05362   	115.000000	0.00263212	
120.000000	8.57558   	120.000000	8.79496   	120.000000	8.71532   	120.000000	8.76572   	120.000000	8.79243   	120.000000	0.00253244	
125.000000	8.3358    	125.000000	8.55243   	125.000000	8.48673   	125.000000	8.51912   	125.000000	8.54999   	125.000000	0.00244034	
130.000000	8.11243   	130.000000	8.32671   	130.000000	8.27253   	130.000000	8.28984   	130.000000	8.32436   	130.000000	0.00235498	
135.000000	7.9038    	135.000000	8.11613   	135.000000	8.07262   	135.000000	8.07611   	135.000000	8.11386   	135.000000	0.00227563	
140.000000	7.70845   	140.000000	7.91922   	140.000000	7.88578   	140.000000	7.87642   	140.000000	7.91702   	140.000000	0.00220167	
145.000000	7.52514   	145.000000	7.73468   	145.000000	7.71032   	145.000000	7.68943   	145.000000	7.73255   	145.000000	0.00213257	
150.000000	7.35275   	150.000000	7.56141   	150.000000	7.54497   	150.000000	7.51398   	150.000000	7.55934   	150.000000	0.00206785	
155.000000	7.10635   	155.000000	7.39839   	155.000000	7.38942   	155.000000	7.34904   	155.000000	7.39638   	155.000000	0.0020071 	
160.000000	6.96377   	160.000000	7.24476   	160.000000	7.2426    	160.000000	7.1937    	160.000000	7.24281   	160.000000	0.00194997	
165.000000	6.82904   	165.000000	7.09972   	165.000000	7.10351   	165.000000	7.04715   	165.000000	7.09782   	165.000000	0.00189613	
170.000000	6.70153   	170.000000	6.96258   	170.000000	6.97198   	170.000000	6.90867   	170.000000	6.96074   	170.000000	0.00184531	
175.000000	6.58066   	175.000000	6.83272   	175.000000	6.84736   	175.000000	6.77762   	175.000000	6.83093   	175.000000	0.00179725	
180.000000	6.46593   	180.000000	6.70958   	180.000000	6.72879   	180.000000	6.65342   	180.000000	6.70783   	180.000000	0.00175173	
185.000000	6.35687   	185.000000	6.59264   	185.000000	6.61602   	185.000000	6.53555   	185.000000	6.59094   	185.000000	0.00170856	
190.000000	6.25306   	190.000000	6.48147   	190.000000	6.50884   	190.000000	6.42355   	190.000000	6.4798    	190.000000	0.00166755	
195.000000	6.15414   	195.000000	6.37564   	195.000000	6.40687   	195.000000	6.31698   	195.000000	6.37401   	195.000000	0.00162854	
200.000000	6.05975   	200.000000	6.27478   	200.000000	6.30964   	200.000000	6.21548   	200.000000	6.27319   	200.000000	0.00159139	
210.000000	5.8834    	210.000000	6.08665   	210.000000	6.12756   	210.000000	6.0263    	210.000000	6.08513   	210.000000	0.00152216	
220.000000	5.72185   	220.000000	5.91472   	220.000000	5.96105   	220.000000	5.85357   	220.000000	5.91326   	220.000000	0.00145892	
230.000000	5.57331   	230.000000	5.75699   	230.000000	5.80773   	230.000000	5.69525   	230.000000	5.75559   	230.000000	0.00140093	
240.000000	5.43625   	240.000000	5.61181   	240.000000	5.66642   	240.000000	5.54965   	240.000000	5.61046   	240.000000	0.00134756	
250.000000	5.30939   	250.000000	5.47773   	250.000000	5.53596   	250.000000	5.41532   	250.000000	5.47643   	250.000000	0.00129825	
260.000000	5.19163   	260.000000	5.35357   	260.000000	5.41518   	260.000000	5.29101   	260.000000	5.35231   	260.000000	0.00125257	
270.000000	5.08202   	270.000000	5.23826   	270.000000	5.30288   	270.000000	5.17567   	270.000000	5.23705   	270.000000	0.00121011	
280.000000	4.97975   	280.000000	5.13091   	280.000000	5.19793   	280.000000	5.06837   	280.000000	5.12974   	280.000000	0.00117055	
290.000000	4.8841    	290.000000	5.03075   	290.000000	5.10001   	290.000000	4.96832   	290.000000	5.02961   	290.000000	0.0011336 	
300.000000	4.79446   	300.000000	4.93708   	300.000000	5.00856   	300.000000	4.87483   	300.000000	4.93598   	300.000000	0.00109899	
310.000000	4.71029   	310.000000	4.8493    	310.000000	4.92269   	310.000000	4.78729   	310.000000	4.84823   	310.000000	0.00106652	
320.000000	4.63109   	320.000000	4.76689   	320.000000	4.84178   	320.000000	4.70516   	320.000000	4.76586   	320.000000	0.00103599	
330.000000	4.55645   	330.000000	4.68939   	330.000000	4.76595   	330.000000	4.62797   	330.000000	4.68838   	330.000000	0.00100722	
340.000000	4.48599   	340.000000	4.61637   	340.000000	4.69466   	340.000000	4.55529   	340.000000	4.61539   	340.000000	0.000980067	
350.000000	4.41938   	350.000000	4.54747   	350.000000	4.62714   	350.000000	4.48676   	350.000000	4.54652   	350.000000	0.000954398	
360.000000	4.35631   	360.000000	4.48237   	360.000000	4.56305   	360.000000	4.42204   	360.000000	4.48143   	360.000000	0.000930091	
370.000000	4.29651   	370.000000	4.42075   	370.000000	4.50232   	370.000000	4.36084   	370.000000	4.41985   	370.000000	0.000907039	
380.000000	4.23975   	380.000000	4.36237   	380.000000	4.445     	380.000000	4.30287   	380.000000	4.36149   	380.000000	0.000885146	
390.000000	4.1858    	390.000000	4.30699   	390.000000	4.39073   	390.000000	4.24791   	390.000000	4.30612   	390.000000	0.000864325	
400.000000	4.13446   	400.000000	4.25438   	400.000000	4.33909   	400.000000	4.19573   	400.000000	4.25353   	400.000000	0.0008445 	
410.000000	4.08556   	410.000000	4.20435   	410.000000	4.28991   	410.000000	4.14614   	410.000000	4.20352   	410.000000	0.000825598	
420.000000	4.03892   	420.000000	4.15672   	420.000000	4.24314   	420.000000	4.09895   	420.000000	4.15591   	420.000000	0.000807557	
430.000000	3.99442   	430.000000	4.11133   	430.000000	4.19856   	430.000000	4.054     	430.000000	4.11054   	430.000000	0.000790318	
440.000000	3.9519    	440.000000	4.06804   	440.000000	4.15568   	440.000000	4.01086   	440.000000	4.06727   	440.000000	0.000773828	
450.000000	3.91124   	450.000000	4.02671   	450.000000	4.11453   	450.000000	3.96951   	450.000000	4.02595   	450.000000	0.000758038	
460.000000	3.87233   	460.000000	3.98721   	460.000000	4.07525   	460.000000	3.93002   	460.000000	3.98647   	460.000000	0.000742904	
470.000000	3.83506   	470.000000	3.94944   	470.000000	4.03769   	470.000000	3.89226   	470.000000	3.94871   	470.000000	0.000728387	
480.000000	3.79934   	480.000000	3.91329   	480.000000	4.00163   	480.000000	3.85613   	480.000000	3.91257   	480.000000	0.000714447	
490.000000	3.76508   	490.000000	3.87866   	490.000000	3.96699   	490.000000	3.82154   	490.000000	3.87796   	490.000000	0.000701052	
500.000000	3.73219   	500.000000	3.84546   	500.000000	3.93381   	500.000000	3.7884    	500.000000	3.84477   	500.000000	0.000688168	
520.000000	3.67025   	520.000000	3.78306   	520.000000	3.87175   	520.000000	3.72611   	520.000000	3.78239   	520.000000	0.000663825	
540.000000	3.61296   	540.000000	3.72548   	540.000000	3.81433   	540.000000	3.66869   	540.000000	3.72484   	540.000000	0.000641207	
560.000000	3.55987   	560.000000	3.67225   	560.000000	3.76113   	560.000000	3.6156    	560.000000	3.67163   	560.000000	0.000620136	
580.000000	3.51056   	580.000000	3.62291   	580.000000	3.71209   	580.000000	3.56642   	580.000000	3.62231   	580.000000	0.000600455	
600.000000	3.46467   	600.000000	3.57708   	600.000000	3.66641   	600.000000	3.52076   	600.000000	3.5765    	600.000000	0.000582032	
620.000000	3.4219    	620.000000	3.53445   	620.000000	3.62372   	620.000000	3.47828   	620.000000	3.53389   	620.000000	0.000564746	
640.000000	3.38196   	640.000000	3.49472   	640.000000	3.58394   	640.000000	3.43868   	640.000000	3.49417   	640.000000	0.000548495	
660.000000	3.34462   	660.000000	3.45763   	660.000000	3.54683   	660.000000	3.40171   	660.000000	3.45709   	660.000000	0.000533187	
680.000000	3.30967   	680.000000	3.42295   	680.000000	3.51212   	680.000000	3.36713   	680.000000	3.42243   	680.000000	0.000518741	
700.000000	3.2769    	700.000000	3.39049   	700.000000	3.4795    	700.000000	3.33474   	700.000000	3.38998   	700.000000	0.000505086	
720.000000	3.24614   	720.000000	3.36006   	720.000000	3.44876   	720.000000	3.30435   	720.000000	3.35957   	720.000000	0.000492158	
740.000000	3.21725   	740.000000	3.33151   	740.000000	3.41993   	740.000000	3.27582   	740.000000	3.33103   	740.000000	0.000479899	
760.000000	3.19009   	760.000000	3.30468   	760.000000	3.39294   	760.000000	3.24898   	760.000000	3.30421   	760.000000	0.000468258	
780.000000	3.16453   	780.000000	3.27946   	780.000000	3.36752   	780.000000	3.2237    	780.000000	3.279     	780.000000	0.00045719	
800.000000	3.14045   	800.000000	3.25572   	800.000000	3.34345   	800.000000	3.19988   	800.000000	3.25527   	800.000000	0.000446651	
820.000000	3.11776   	820.000000	3.23335   	820.000000	3.32066   	820.000000	3.1774    	820.000000	3.23291   	820.000000	0.000436605	
840.000000	3.09636   	840.000000	3.21227   	840.000000	3.29917   	840.000000	3.15616   	840.000000	3.21184   	840.000000	0.000427018	
860.000000	3.07616   	860.000000	3.19238   	860.000000	3.27895   	860.000000	3.13608   	860.000000	3.19196   	860.000000	0.000417858	
880.000000	3.0571    	880.000000	3.1736    	880.000000	3.25982   	880.000000	3.11707   	880.000000	3.17319   	880.000000	0.000409097	
900.000000	3.0391    	900.000000	3.15587   	900.000000	3.24166   	900.000000	3.09907   	900.000000	3.15547   	900.000000	0.000400709	
920.000000	3.02209   	920.000000	3.13911   	920.000000	3.22438   	920.000000	3.082     	920.000000	3.13872   	920.000000	0.000392671	
940.000000	3.00602   	940.000000	3.12326   	940.000000	3.20795   	940.000000	3.06582   	940.000000	3.12288   	940.000000	0.00038496	
960.000000	2.99083   	960.000000	3.10828   	960.000000	3.19233   	960.000000	3.05045   	960.000000	3.1079    	960.000000	0.000377558	
980.000000	2.97646   	980.000000	3.0941    	980.000000	3.17751   	980.000000	3.03585   	980.000000	3.09373   	980.000000	0.000370445	
1000.000000	2.96288   	1000.000000	3.08068   	1000.000000	3.16343   	1000.000000	3.02196   	1000.000000	3.08032   	1000.000000	0.000363605	
1020.000000	2.95004   	1020.000000	3.06798   	1020.000000	3.15003   	1020.000000	3.00876   	1020.000000	3.06762   	1020.000000	0.000357022	
1040.000000	2.93791   	1040.000000	3.05596   	1040.000000	3.13727   	1040.000000	2.99619   	1040.000000	3.05561   	1040.000000	0.000350682	
1060.000000	2.92643   	1060.000000	3.04457   	1060.000000	3.12512   	1060.000000	2.98422   	1060.000000	3.04422   	1060.000000	0.000344572	
1080.000000	2.91558   	1080.000000	3.03378   	1080.000000	3.11353   	1080.000000	2.97282   	1080.000000	3.03345   	1080.000000	0.000338678	
1100.000000	2.90533   	1100.000000	3.02357   	1100.000000	3.10248   	1100.000000	2.96195   	1100.000000	3.02324   	1100.000000	0.00033299	
1120.000000	2.89564   	1120.000000	3.0139    	1120.000000	3.09194   	1120.000000	2.95158   	1120.000000	3.01357   	1120.000000	0.000327497	
1140.000000	2.8865    	1140.000000	3.00474   	1140.000000	3.08188   	1140.000000	2.94169   	1140.000000	3.00442   	1140.000000	0.000322189	
1160.000000	2.87787   	1160.000000	2.99607   	1160.000000	3.07227   	1160.000000	2.93224   	1160.000000	2.99575   	1160.000000	0.000317056	
1180.000000	2.86972   	1180.000000	2.98786   	1180.000000	3.0631    	1180.000000	2.92322   	1180.000000	2.98755   	1180.000000	0.00031209	
1200.000000	2.86204   	1200.000000	2.9801    	1200.000000	3.05434   	1200.000000	2.91461   	1200.000000	2.97979   	1200.000000	0.000307283	
1220.000000	2.85481   	1220.000000	2.97275   	1220.000000	3.04597   	1220.000000	2.90637   	1220.000000	2.97245   	1220.000000	0.000302627	
1240.000000	2.848     	1240.000000	2.9658    	1240.000000	3.03797   	1240.000000	2.8985    	1240.000000	2.9655    	1240.000000	0.000298116	
1260.000000	2.84159   	1260.000000	2.95923   	1260.000000	3.03031   	1260.000000	2.89097   	1260.000000	2.95894   	1260.000000	0.000293741	
1280.000000	2.83558   	1280.000000	2.95302   	1280.000000	3.02298   	1280.000000	2.88377   	1280.000000	2.95274   	1280.000000	0.000289498	
1300.000000	2.82993   	1300.000000	2.94717   	1300.000000	3.01594   	1300.000000	2.87688   	1300.000000	2.94688   	1300.000000	0.00028538	
1320.000000	2.82464   	1320.000000	2.94164   	1320.000000	3.00919   	1320.000000	2.87029   	1320.000000	2.94136   	1320.000000	0.000281382	
1340.000000	2.8197    	1340.000000	2.93643   	1340.000000	3.00271   	1340.000000	2.86397   	1340.000000	2.93615   	1340.000000	0.000277498	
1360.000000	2.81508   	1360.000000	2.93152   	1360.000000	2.9965    	1360.000000	2.85793   	1360.000000	2.93124   	1360.000000	0.000273724	
1380.000000	2.81077   	1380.000000	2.9269    	1380.000000	2.99054   	1380.000000	2.85214   	1380.000000	2.92663   	1380.000000	0.000270055	
1400.000000	2.80676   	1400.000000	2.92256   	1400.000000	2.98483   	1400.000000	2.84659   	1400.000000	2.92229   	1400.000000	0.000266487	
1420.000000	2.80305   	1420.000000	2.91848   	1420.000000	2.97936   	1420.000000	2.84128   	1420.000000	2.91822   	1420.000000	0.000263015	
1440.000000	2.79961   	1440.000000	2.91466   	1440.000000	2.97414   	1440.000000	2.83619   	1440.000000	2.9144    	1440.000000	0.000259635	
1460.000000	2.79644   	1460.000000	2.91108   	1460.000000	2.96914   	1460.000000	2.83131   	1460.000000	2.91083   	1460.000000	0.000256345	
1480.000000	2.79353   	1480.000000	2.90774   	1480.000000	2.96436   	1480.000000	2.82663   	1480.000000	2.90749   	1480.000000	0.000253139	
1500.000000	2.79086   	1500.000000	2.90463   	1500.000000	2.95978   	1500.000000	2.82215   	1500.000000	2.90438   	1500.000000	0.000250016	
1520.000000	2.78844   	1520.000000	2.90173   	1520.000000	2.95539   	1520.000000	2.81785   	1520.000000	2.90148   	1520.000000	0.000246972	
1540.000000	2.78624   	1540.000000	2.89904   	1540.000000	2.95119   	1540.000000	2.81373   	1540.000000	2.8988    	1540.000000	0.000244004	
1560.000000	2.78427   	1560.000000	2.89655   	1560.000000	2.94715   	1560.000000	2.80978   	1560.000000	2.89631   	1560.000000	0.000241108	
1580.000000	2.78252   	1580.000000	2.89425   	1580.000000	2.94327   	1580.000000	2.80599   	1580.000000	2.89402   	1580.000000	0.000238283	
1600.000000	2.78097   	1600.000000	2.89214   	1600.000000	2.93955   	1600.000000	2.80236   	1600.000000	2.89191   	1600.000000	0.000235526	
1620.000000	2.77962   	1620.000000	2.89021   	1620.000000	2.93596   	1620.000000	2.79888   	1620.000000	2.88998   	1620.000000	0.000232834	
1640.000000	2.77847   	1640.000000	2.88846   	1640.000000	2.93252   	1640.000000	2.79554   	1640.000000	2.88822   	1640.000000	0.000230206	
1660.000000	2.7775    	1660.000000	2.88686   	1660.000000	2.92921   	1660.000000	2.79233   	1660.000000	2.88664   	1660.000000	0.000227638	
1680.000000	2.77672   	1680.000000	2.88543   	1680.000000	2.92603   	1680.000000	2.78927   	1680.000000	2.88521   	1680.000000	0.000225129	
1700.000000	2.77611   	1700.000000	2.88416   	1700.000000	2.92298   	1700.000000	2.78632   	1700.000000	2.88393   	1700.000000	0.000222676	
1750.000000	2.77531   	1750.000000	2.88161   	1750.000000	2.91589   	1750.000000	2.77949   	1750.000000	2.88139   	1750.000000	0.00021678	
1800.000000	2.7755    	1800.000000	2.87992   	1800.000000	2.9095    	1800.000000	2.77334   	1800.000000	2.87971   	1800.000000	0.000211199	
1850.000000	2.7766    	1850.000000	2.87902   	1850.000000	2.90377   	1850.000000	2.76782   	1850.000000	2.87882   	1850.000000	0.000205908	
1900.000000	2.77855   	1900.000000	2.87885   	1900.000000	2.89864   	1900.000000	2.76288   	1900.000000	2.87865   	1900.000000	0.000200885	
1950.000000	2.78128   	1950.000000	2.87935   	1950.000000	2.89404   	1950.000000	2.75845   	1950.000000	2.87916   	1950.000000	0.000196109	
2000.000000	2.78474   	2000.000000	2.88048   	2000.000000	2.88993   	2000.000000	2.75449   	2000.000000	2.88028   	2000.000000	0.000191563	
2100.000000	2.79369   	2100.000000	2.88441   	2100.000000	2.88301   	2100.000000	2.74784   	2100.000000	2.88423   	2100.000000	0.000183095	
2200.000000	2.80505   	2200.000000	2.89034   	2200.000000	2.87755   	2200.000000	2.74264   	2200.000000	2.89016   	2200.000000	0.000175368	
2300.000000	2.81854   	2300.000000	2.898     	2300.000000	2.87334   	2300.000000	2.73867   	2300.000000	2.89784   	2300.000000	0.000168288	
2400.000000	2.83394   	2400.000000	2.90719   	2400.000000	2.87017   	2400.000000	2.73574   	2400.000000	2.90703   	2400.000000	0.000161775	
2500.000000	2.85104   	2500.000000	2.91771   	2500.000000	2.86788   	2500.000000	2.7337    	2500.000000	2.91755   	2500.000000	0.000155764	
2600.000000	2.86969   	2600.000000	2.9294    	2600.000000	2.86637   	2600.000000	2.73241   	2600.000000	2.92925   	2600.000000	0.000150198	
2700.000000	2.88972   	2700.000000	2.94215   	2700.000000	2.8655    	2700.000000	2.73177   	2700.000000	2.94201   	2700.000000	0.000145029	
2800.000000	2.91103   	2800.000000	2.95583   	2800.000000	2.86521   	2800.000000	2.73168   	2800.000000	2.95569   	2800.000000	0.000140215	
2900.000000	2.9335    	2900.000000	2.97035   	2900.000000	2.86541   	2900.000000	2.73208   	2900.000000	2.97021   	2900.000000	0.000135721	
3000.000000	2.95703   	3000.000000	2.98561   	3000.000000	2.86603   	3000.000000	2.73288   	3000.000000	2.98548   	3000.000000	0.000131515	
3200.000000	3.00699   	3200.000000	3.01811   	3200.000000	2.86833   	3200.000000	2.73552   	3200.000000	3.01798   	3200.000000	0.000123863	
3400.000000	3.06036   	3400.000000	3.05282   	3400.000000	2.87176   	3400.000000	2.73923   	3400.000000	3.05271   	3400.000000	0.000117079	
3600.000000	3.11669   	3600.000000	3.08938   	3600.000000	2.87603   	3600.000000	2.74375   	3600.000000	3.08927   	3600.000000	0.000111022	
3800.000000	3.17567   	3800.000000	3.12748   	3800.000000	2.88093   	3800.000000	2.74887   	3800.000000	3.12738   	3800.000000	0.00010558	
4000.000000	3.237     	4000.000000	3.16688   	4000.000000	2.88631   	4000.000000	2.75443   	4000.000000	3.16678   	4000.000000	0.000100662	
4200.000000	3.30046   	4200.000000	3.20738   	4200.000000	2.89202   	4200.000000	2.76032   	4200.000000	3.20728   	4200.000000	9.61955e-05	
4400.000000	3.36586   	4400.000000	3.24882   	4400.000000	2.89797   	4400.000000	2.76645   	4400.000000	3.24873   	4400.000000	9.21208e-05	
4600.000000	3.43306   	4600.000000	3.29107   	4600.000000	2.90409   	4600.000000	2.77274   	4600.000000	3.29098   	4600.000000	8.83877e-05	
4800.000000	3.50192   	4800.000000	3.33402   	4800.000000	2.91032   	4800.000000	2.77914   	4800.000000	3.33394   	4800.000000	8.49545e-05	
5000.000000	3.57234   	5000.000000	3.37758   	5000.000000	2.91661   	5000.000000	2.78561   	5000.000000	3.3775    	5000.000000	8.17863e-05	
5250.000000	3.66239   	5250.000000	3.43277   	5250.000000	2.92451   	5250.000000	2.79372   	5250.000000	3.4327    	5250.000000	7.81534e-05	
5500.000000	3.75458   	5500.000000	3.48867   	5500.000000	2.93241   	5500.000000	2.80183   	5500.000000	3.48859   	5500.000000	7.48392e-05	
6000.000000	3.94484   	6000.000000	3.60217   	6000.000000	2.94807   	6000.000000	2.81789   	6000.000000	3.6021    	6000.000000	6.9011e-05	
6500.000000	4.14233   	6500.000000	3.71745   	6500.000000	2.96343   	6500.000000	2.83357   	6500.000000	3.71738   	6500.000000	6.40493e-05	
7000.000000	4.34648   	7000.000000	3.83405   	7000.000000	2.97813   	7000.000000	2.84876   	7000.000000	3.83399   	7000.000000	5.97725e-05	
7500.000000	4.55685   	7500.000000	3.95165   	7500.000000	2.99239   	7500.000000	2.86343   	7500.000000	3.9516    	7500.000000	5.60467e-05	
8000.000000	4.77314   	8000.000000	4.07001   	8000.000000	3.00621   	8000.000000	2.87755   	8000.000000	4.06996   	8000.000000	5.2771e-05	
8500.000000	4.99509   	8500.000000	4.18894   	8500.000000	3.01945   	8500.000000	2.89113   	8500.000000	4.18889   	8500.000000	4.98677e-05	
9000.000000	5.22251   	9000.000000	4.3083    	9000.000000	3.03209   	9000.000000	2.90417   	9000.000000	4.30825   	9000.000000	4.72761e-05	
9500.000000	5.45526   	9500.000000	4.42798   	9500.000000	3.04424   	9500.000000	2.9167    	9500.000000	4.42794   	9500.000000	4.49482e-05	
10000.000000	5.69321   	10000.000000	4.54791   	10000.000000	3.05594   	10000.000000	2.92874   	10000.000000	4.54787   	10000.000000	4.28452e-05	
11000.000000	6.18435   	11000.000000	4.78825   	11000.000000	3.07789   	11000.000000	2.95147   	11000.000000	4.78821   	11000.000000	3.91942e-05	
12000.000000	6.69536   	12000.000000	5.02891   	12000.000000	3.09799   	12000.000000	2.97253   	12000.000000	5.02888   	12000.000000	3.61323e-05	
13000.000000	7.22585   	13000.000000	5.26966   	13000.000000	3.11662   	13000.000000	2.99213   	13000.000000	5.26963   	13000.000000	3.35263e-05	
14000.000000	7.77558   	14000.000000	5.51032   	14000.000000	3.13406   	14000.000000	3.01041   	14000.000000	5.51029   	14000.000000	3.12806e-05	
15000.000000	8.34436   	15000.000000	5.75079   	15000.000000	3.15037   	15000.000000	3.02753   	15000.000000	5.75076   	15000.000000	2.93248e-05	
16000.000000	8.93209   	16000.000000	5.99099   	16000.000000	3.16553   	16000.000000	3.0436    	16000.000000	5.99097   	16000.000000	2.76056e-05	
17000.000000	9.53871   	17000.000000	6.23088   	17000.000000	3.17959   	17000.000000	3.05874   	17000.000000	6.23085   	17000.000000	2.60821e-05	
18000.000000	10.1642   	18000.000000	6.47041   	18000.000000	3.1927    	18000.000000	3.07303   	18000.000000	6.47038   	18000.000000	2.47226e-05	
19000.000000	10.8085   	19000.000000	6.70957   	19000.000000	3.20496   	19000.000000	3.08657   	19000.000000	6.70955   	19000.000000	2.35015e-05	
20000.000000	11.4717   	20000.000000	6.94835   	20000.000000	3.2165    	20000.000000	3.09941   	20000.000000	6.94832   	20000.000000	2.23987e-05	
21000.000000	12.1537   	21000.000000	7.18673   	21000.000000	3.22742   	21000.000000	3.11163   	21000.000000	7.18671   	21000.000000	2.13975e-05	
22000.000000	12.8547   	22000.000000	7.42473   	22000.000000	3.2378    	22000.000000	3.12327   	22000.000000	7.42471   	22000.000000	2.04844e-05	
23000.000000	13.5746   	23000.000000	7.66233   	23000.000000	3.2476    	23000.000000	3.13438   	23000.000000	7.66231   	23000.000000	1.96482e-05	
24000.000000	14.3136   	24000.000000	7.89954   	24000.000000	3.25686   	24000.000000	3.14501   	24000.000000	7.89952   	24000.000000	1.88795e-05	
25000.000000	15.0716   	25000.000000	8.13637   	25000.000000	3.26568   	25000.000000	3.1552    	25000.000000	8.13635   	25000.000000	1.81703e-05	
26000.000000	15.8489   	26000.000000	8.37282   	26000.000000	3.27404   	26000.000000	3.16497   	26000.000000	8.3728    	26000.000000	1.75139e-05	
27000.000000	16.6453   	27000.000000	8.6089    	27000.000000	3.28197   	27000.000000	3.17436   	27000.000000	8.60888   	27000.000000	1.69046e-05	
28000.000000	17.4611   	28000.000000	8.84461   	28000.000000	3.28949   	28000.000000	3.1834    	28000.000000	8.8446    	28000.000000	1.63375e-05	
29000.000000	18.2963   	29000.000000	9.07997   	29000.000000	3.29665   	29000.000000	3.1921    	29000.000000	9.07995   	29000.000000	1.58082e-05	
30000.000000	19.1509   	30000.000000	9.31497   	30000.000000	3.30348   	30000.000000	3.2005    	30000.000000	9.31496   	30000.000000	1.53131e-05	
32000.000000	20.9191   	32000.000000	9.78396   	32000.000000	3.31623   	32000.000000	3.21645   	32000.000000	9.78395   	32000.000000	1.44128e-05	
34000.000000	22.7663   	34000.000000	10.2516   	34000.000000	3.32791   	34000.000000	3.23138   	34000.000000	10.2516   	34000.000000	1.36152e-05	
36000.000000	24.6933   	36000.000000	10.718    	36000.000000	3.33853   	36000.000000	3.24542   	36000.000000	10.718    	36000.000000	1.29035e-05	
38000.000000	26.7009   	38000.000000	11.1833   	38000.000000	3.34819   	38000.000000	3.25866   	38000.000000	11.1833   	38000.000000	1.22645e-05	
40000.000000	28.7899   	40000.000000	11.6473   	40000.000000	3.35702   	40000.000000	3.27118   	40000.000000	11.6473   	40000.000000	1.16874e-05	
42000.000000	30.9612   	42000.000000	12.1103   	42000.000000	3.36516   	42000.000000	3.28305   	42000.000000	12.1103   	42000.000000	1.11635e-05	
44000.000000	33.2156   	44000.000000	12.5722   	44000.000000	3.37274   	44000.000000	3.29434   	44000.000000	12.5722   	44000.000000	1.06859e-05	
46000.000000	35.5541   	46000.000000	13.0331   	46000.000000	3.37984   	46000.000000	3.3051    	46000.000000	13.0331   	46000.000000	1.02485e-05	
48000.000000	37.9774   	48000.000000	13.493    	48000.000000	3.3865    	48000.000000	3.31537   	48000.000000	13.493    	48000.000000	9.84644e-06	
50000.000000	40.4864   	50000.000000	13.952    	50000.000000	3.39262   	50000.000000	3.3252    	50000.000000	13.952    	50000.000000	9.47557e-06	
