Energy (MeV/u)1	0 - [He-base] F.Hubert et al, AD&ND Tables 46(1990)1	Energy (MeV/u)2	1 - [H -base] J.F.Ziegler et al, Pergamon Press, NY (low energy)	Energy (MeV/u)3	2 - ATIMA 1.2  LS-theory (recommended for high energy)	Energy (MeV/u)4	3 - ATIMA 1.2  without LS-correction	Energy (MeV/u)5	4 - electrical component of [1] - J.F.Ziegler et al	Energy (MeV/u)6	5 - nuclear component of [1] - J.F.Ziegler et al	
0.001000	0.575296  	0.001000	0.316348  	0.001000	0.369406  	0.001000	0.369406  	0.001000	0.166271  	0.001000	0.150077  	
0.002000	0.667958  	0.002000	0.35878   	0.002000	0.42552   	0.002000	0.42552   	0.002000	0.243435  	0.002000	0.115344  	
0.005000	0.935789  	0.005000	0.474832  	0.005000	0.562312  	0.005000	0.562312  	0.005000	0.402949  	0.005000	0.0718831 	
0.008000	1.16157   	0.008000	0.575783  	0.008000	0.674317  	0.008000	0.674317  	0.008000	0.521815  	0.008000	0.0539688 	
0.010000	1.29601   	0.010000	0.636657  	0.010000	0.740275  	0.010000	0.740275  	0.010000	0.589952  	0.010000	0.0467051 	
0.015000	1.52158   	0.015000	0.772826  	0.015000	0.884934  	0.015000	0.884934  	0.015000	0.737338  	0.015000	0.0354879 	
0.020000	1.69851   	0.020000	0.887133  	0.020000	1.0251    	0.020000	1.0251    	0.020000	0.858436  	0.020000	0.0286979 	
0.025000	1.89101   	0.025000	1.0004    	0.025000	1.16217   	0.025000	1.16217   	0.025000	0.975985  	0.025000	0.0244189 	
0.030000	2.0471    	0.030000	1.10392   	0.030000	1.2531    	0.030000	1.2531    	0.030000	1.08258   	0.030000	0.0213435 	
0.035000	2.17195   	0.035000	1.19433   	0.035000	1.33364   	0.035000	1.33364   	0.035000	1.17531   	0.035000	0.0190152 	
0.040000	2.26773   	0.040000	1.27648   	0.040000	1.40485   	0.040000	1.40485   	0.040000	1.2593    	0.040000	0.0171845 	
0.045000	2.33598   	0.045000	1.3511    	0.045000	1.46762   	0.045000	1.46762   	0.045000	1.33539   	0.045000	0.0157034 	
0.050000	2.37864   	0.050000	1.41892   	0.050000	1.52277   	0.050000	1.52277   	0.050000	1.40445   	0.050000	0.0144779 	
0.055000	2.47328   	0.055000	1.47421   	0.055000	1.57108   	0.055000	1.57108   	0.055000	1.46077   	0.055000	0.0134453 	
0.060000	2.55197   	0.060000	1.52385   	0.060000	1.61326   	0.060000	1.61326   	0.060000	1.51128   	0.060000	0.0125622 	
0.070000	2.6666    	0.070000	1.60914   	0.070000	1.68192   	0.070000	1.68192   	0.070000	1.59801   	0.070000	0.0111279 	
0.080000	2.78949   	0.080000	1.67719   	0.080000	1.73363   	0.080000	1.73363   	0.080000	1.66718   	0.080000	0.0100101 	
0.090000	2.87806   	0.090000	1.73478   	0.090000	1.7724    	0.090000	1.7724    	0.090000	1.72566   	0.090000	0.00911199	
0.100000	2.94344   	0.100000	1.78485   	0.100000	1.80141   	0.100000	1.80141   	0.100000	1.77648   	0.100000	0.0083732 	
0.120000	2.98496   	0.120000	1.84711   	0.120000	1.83933   	0.120000	1.83933   	0.120000	1.83988   	0.120000	0.00722629	
0.140000	2.99218   	0.140000	1.89341   	0.140000	1.86036   	0.140000	1.86036   	0.140000	1.88703   	0.140000	0.00637414	
0.160000	2.99243   	0.160000	1.93319   	0.160000	1.87147   	0.160000	1.87147   	0.160000	1.92748   	0.160000	0.00571394	
0.180000	2.98877   	0.180000	1.96028   	0.180000	1.87637   	0.180000	1.87637   	0.180000	1.95509   	0.180000	0.00518613	
0.200000	2.99668   	0.200000	1.98829   	0.200000	1.87705   	0.200000	1.87705   	0.200000	1.98354   	0.200000	0.00475372	
0.250000	2.93535   	0.250000	2.00344   	0.250000	1.8668    	0.250000	1.8668    	0.250000	1.99949   	0.250000	0.00394904	
0.300000	2.92577   	0.300000	2.03205   	0.300000	1.85763   	0.300000	1.85763   	0.300000	2.02866   	0.300000	0.00339031	
0.350000	2.89175   	0.350000	2.02275   	0.350000	1.84165   	0.350000	1.84165   	0.350000	2.01977   	0.350000	0.00297805	
0.400000	2.84294   	0.400000	1.99264   	0.400000	1.81574   	0.400000	1.81574   	0.400000	1.98998   	0.400000	0.00266042	
0.450000	2.77868   	0.450000	1.94421   	0.450000	1.78178   	0.450000	1.78178   	0.450000	1.9418    	0.450000	0.00240765	
0.500000	2.71622   	0.500000	1.89354   	0.500000	1.74592   	0.500000	1.74592   	0.500000	1.89133   	0.500000	0.00220137	
0.600000	2.49274   	0.600000	1.80844   	0.600000	1.67283   	0.600000	1.67283   	0.600000	1.80656   	0.600000	0.0018842 	
0.700000	2.26901   	0.700000	1.70974   	0.700000	1.60157   	0.700000	1.60157   	0.700000	1.70809   	0.700000	0.00165106	
0.800000	2.17014   	0.800000	1.66345   	0.800000	1.534     	0.800000	1.534     	0.800000	1.66198   	0.800000	0.00147199	
0.900000	2.0648    	0.900000	1.60744   	0.900000	1.47067   	0.900000	1.47067   	0.900000	1.60611   	0.900000	0.00132985	
1.000000	1.96025   	1.000000	1.54727   	1.000000	1.40791   	1.000000	1.40791   	1.000000	1.54606   	1.000000	0.00121411	
1.250000	1.72046   	1.250000	1.3799    	1.250000	1.27341   	1.250000	1.27341   	1.250000	1.3789    	1.250000	0.0010005 	
1.500000	1.49374   	1.500000	1.2062    	1.500000	1.163     	1.500000	1.163     	1.500000	1.20534   	1.500000	0.000853638	
1.750000	1.32758   	1.750000	1.08376   	1.750000	1.06967   	1.750000	1.06967   	1.750000	1.08302   	1.750000	0.000746104	
2.000000	1.19909   	2.000000	0.991827  	2.000000	0.989627  	2.000000	0.989627  	2.000000	0.991164  	2.000000	0.000663766	
2.250000	1.09766   	2.250000	0.912574  	2.250000	0.920051  	2.250000	0.920051  	2.250000	0.911975  	2.250000	0.00059858	
2.500000	0.979644  	2.500000	0.847584  	2.500000	0.859225  	2.500000	0.859225  	2.500000	0.847038  	2.500000	0.000545619	
3.000000	0.860778  	3.000000	0.745813  	3.000000	0.758499  	3.000000	0.758499  	3.000000	0.745349  	3.000000	0.000464627	
3.500000	0.769179  	3.500000	0.668514  	3.500000	0.679035  	3.500000	0.679035  	3.500000	0.668109  	3.500000	0.000405459	
4.000000	0.696309  	4.000000	0.607171  	4.000000	0.6151    	4.000000	0.6151    	4.000000	0.606811  	4.000000	0.000360239	
4.500000	0.636875  	4.500000	0.557083  	4.500000	0.562721  	4.500000	0.562721  	4.500000	0.556759  	4.500000	0.000324496	
5.000000	0.587421  	5.000000	0.515332  	5.000000	0.519106  	5.000000	0.519106  	5.000000	0.515036  	5.000000	0.000295494	
5.500000	0.545589  	5.500000	0.479958  	5.500000	0.482258  	5.500000	0.482258  	5.500000	0.479687  	5.500000	0.000271467	
6.000000	0.509716  	6.000000	0.449582  	6.000000	0.450722  	6.000000	0.450722  	6.000000	0.449331  	6.000000	0.000251218	
6.500000	0.478593  	6.500000	0.423196  	6.500000	0.423424  	6.500000	0.423424  	6.500000	0.422962  	6.500000	0.000233908	
7.000000	0.45132   	7.000000	0.400048  	7.000000	0.399555  	7.000000	0.399555  	7.000000	0.399829  	7.000000	0.000218933	
7.500000	0.427213  	7.500000	0.379563  	7.500000	0.378497  	7.500000	0.378497  	7.500000	0.379357  	7.500000	0.000205843	
8.000000	0.405742  	8.000000	0.361295  	8.000000	0.35977   	8.000000	0.35977   	8.000000	0.361101  	8.000000	0.000194298	
8.500000	0.386489  	8.500000	0.344894  	8.500000	0.342998  	8.500000	0.342998  	8.500000	0.34471   	8.500000	0.000184035	
9.000000	0.369122  	9.000000	0.330079  	9.000000	0.327883  	9.000000	0.327883  	9.000000	0.329904  	9.000000	0.00017485	
9.500000	0.353373  	9.500000	0.316623  	9.500000	0.314182  	9.500000	0.314182  	9.500000	0.316456  	9.500000	0.000166579	
10.000000	0.339021  	10.000000	0.305798  	10.000000	0.3017    	10.000000	0.3017    	10.000000	0.305639  	10.000000	0.00015909	
11.000000	0.313814  	11.000000	0.284881  	11.000000	0.279852  	11.000000	0.279905  	11.000000	0.284735  	11.000000	0.000146045	
12.000000	0.29238   	12.000000	0.266814  	12.000000	0.261304  	12.000000	0.26139   	12.000000	0.266679  	12.000000	0.000135061	
13.000000	0.273919  	13.000000	0.251053  	13.000000	0.245342  	13.000000	0.245447  	13.000000	0.250927  	13.000000	0.000125679	
14.000000	0.257842  	14.000000	0.23718   	14.000000	0.231449  	14.000000	0.231563  	14.000000	0.237063  	14.000000	0.000117568	
15.000000	0.243709  	15.000000	0.224875  	15.000000	0.219239  	15.000000	0.219352  	15.000000	0.224764  	15.000000	0.000110483	
16.000000	0.231182  	16.000000	0.213883  	16.000000	0.208412  	16.000000	0.208524  	16.000000	0.213778  	16.000000	0.000104238	
17.000000	0.219996  	17.000000	0.204002  	17.000000	0.198741  	17.000000	0.19885   	17.000000	0.203904  	17.000000	9.86897e-05	
18.000000	0.209945  	18.000000	0.195072  	18.000000	0.19005   	18.000000	0.190152  	18.000000	0.194978  	18.000000	9.37266e-05	
19.000000	0.20086   	19.000000	0.186958  	19.000000	0.182194  	19.000000	0.182287  	19.000000	0.186869  	19.000000	8.92593e-05	
20.000000	0.192607  	20.000000	0.179554  	20.000000	0.175051  	20.000000	0.175141  	20.000000	0.179469  	20.000000	8.5216e-05	
21.000000	0.185075  	21.000000	0.172768  	21.000000	0.16853   	21.000000	0.168616  	21.000000	0.172687  	21.000000	8.15382e-05	
22.000000	0.17817   	22.000000	0.166526  	22.000000	0.162561  	22.000000	0.162637  	22.000000	0.166448  	22.000000	7.8178e-05	
23.000000	0.171818  	23.000000	0.160764  	23.000000	0.157076  	23.000000	0.157136  	23.000000	0.160689  	23.000000	7.50952e-05	
24.000000	0.165952  	24.000000	0.155427  	24.000000	0.15201   	24.000000	0.152059  	24.000000	0.155355  	24.000000	7.22564e-05	
25.000000	0.160518  	25.000000	0.15047   	25.000000	0.147316  	25.000000	0.147359  	25.000000	0.1504    	25.000000	6.96334e-05	
27.000000	0.150764  	27.000000	0.141542  	27.000000	0.138905  	27.000000	0.138935  	27.000000	0.141477  	27.000000	6.49418e-05	
29.000000	0.142255  	29.000000	0.133721  	29.000000	0.131593  	29.000000	0.131606  	29.000000	0.13366   	29.000000	6.08662e-05	
31.000000	0.134763  	31.000000	0.126811  	31.000000	0.125017  	31.000000	0.125013  	31.000000	0.126754  	31.000000	5.72914e-05	
33.000000	0.128112  	33.000000	0.12066   	33.000000	0.119021  	33.000000	0.119002  	33.000000	0.120606  	33.000000	5.41292e-05	
35.000000	0.122166  	35.000000	0.115147  	35.000000	0.113646  	35.000000	0.113614  	35.000000	0.115096  	35.000000	5.13112e-05	
38.000000	0.114338  	38.000000	0.107872  	38.000000	0.106548  	38.000000	0.106501  	38.000000	0.107824  	38.000000	4.76145e-05	
41.000000	0.107576  	41.000000	0.101571  	41.000000	0.100399  	41.000000	0.100338  	41.000000	0.101527  	41.000000	4.44338e-05	
44.000000	0.101671  	44.000000	0.0960599 	44.000000	0.0950143 	44.000000	0.0949438 	44.000000	0.0960183 	44.000000	4.16668e-05	
47.000000	0.0964691 	47.000000	0.0911968 	47.000000	0.0902612 	47.000000	0.0901799 	47.000000	0.0911575 	47.000000	3.92369e-05	
50.000000	0.0918481 	50.000000	0.0868723 	50.000000	0.0860207 	50.000000	0.0859402 	50.000000	0.0868352 	50.000000	3.70852e-05	
55.000000	0.0851919 	55.000000	0.0806367 	55.000000	0.0799048 	55.000000	0.0798201 	55.000000	0.0806027 	55.000000	3.39974e-05	
60.000000	0.0795716 	60.000000	0.0753678 	60.000000	0.0747325 	60.000000	0.0746414 	60.000000	0.0753364 	60.000000	3.14015e-05	
65.000000	0.0747588 	65.000000	0.0708544 	65.000000	0.070288  	65.000000	0.0701994 	65.000000	0.0708253 	65.000000	2.91875e-05	
70.000000	0.0705878 	70.000000	0.0669434 	70.000000	0.0664424 	70.000000	0.0663451 	70.000000	0.0669161 	70.000000	2.7276e-05	
75.000000	0.0669357 	75.000000	0.0635204 	75.000000	0.06306   	75.000000	0.0629676 	75.000000	0.0634948 	75.000000	2.56081e-05	
80.000000	0.0637096 	80.000000	0.0604985 	80.000000	0.0600788 	80.000000	0.0599825 	80.000000	0.0604744 	80.000000	2.41396e-05	
85.000000	0.0608375 	85.000000	0.0578104 	85.000000	0.0574158 	85.000000	0.0573242 	85.000000	0.0577876 	85.000000	2.28363e-05	
90.000000	0.0582629 	90.000000	0.0554032 	90.000000	0.0550363 	90.000000	0.0549413 	90.000000	0.0553815 	90.000000	2.16716e-05	
95.000000	0.0559408 	95.000000	0.0532345 	95.000000	0.0528832 	95.000000	0.0527926 	95.000000	0.0532139 	95.000000	2.06241e-05	
100.000000	0.0538351 	100.000000	0.0512704 	100.000000	0.0509384 	100.000000	0.0508448 	100.000000	0.0512507 	100.000000	1.96768e-05	
105.000000	0.0519162 	105.000000	0.0494828 	105.000000	0.0491604 	105.000000	0.0490707 	105.000000	0.0494639 	105.000000	1.88159e-05	
110.000000	0.0501596 	110.000000	0.0478487 	110.000000	0.0475396 	110.000000	0.0474479 	110.000000	0.0478307 	110.000000	1.80298e-05	
115.000000	0.0485451 	115.000000	0.0463492 	115.000000	0.0460474 	115.000000	0.0459577 	115.000000	0.0463319 	115.000000	1.73092e-05	
120.000000	0.0470558 	120.000000	0.044968  	120.000000	0.0446729 	120.000000	0.0445842 	120.000000	0.0449513 	120.000000	1.6646e-05	
125.000000	0.0456773 	125.000000	0.0436915 	125.000000	0.0434046 	125.000000	0.0433143 	125.000000	0.0436755 	125.000000	1.60336e-05	
130.000000	0.0443973 	130.000000	0.0425083 	130.000000	0.0422234 	130.000000	0.0421365 	130.000000	0.0424928 	130.000000	1.54663e-05	
135.000000	0.0432054 	135.000000	0.0414084 	135.000000	0.0411246 	135.000000	0.0410411 	135.000000	0.0413934 	135.000000	1.49392e-05	
140.000000	0.0420926 	140.000000	0.0403831 	140.000000	0.0401039 	140.000000	0.0400198 	140.000000	0.0403687 	140.000000	1.44482e-05	
145.000000	0.041051  	145.000000	0.0394253 	145.000000	0.0391501 	145.000000	0.0390651 	145.000000	0.0394113 	145.000000	1.39895e-05	
150.000000	0.0400739 	150.000000	0.0385282 	150.000000	0.0382532 	150.000000	0.0381709 	150.000000	0.0385147 	150.000000	1.35602e-05	
155.000000	0.0386981 	155.000000	0.0376864 	155.000000	0.0374143 	155.000000	0.0373315 	155.000000	0.0376733 	155.000000	1.31574e-05	
160.000000	0.0378917 	160.000000	0.0368948 	160.000000	0.0366255 	160.000000	0.036542  	160.000000	0.0368821 	160.000000	1.27787e-05	
165.000000	0.0371312 	165.000000	0.0361491 	165.000000	0.0358792 	165.000000	0.0357981 	165.000000	0.0361367 	165.000000	1.2422e-05	
170.000000	0.0364128 	170.000000	0.0354454 	170.000000	0.0351768 	170.000000	0.0350959 	170.000000	0.0354333 	170.000000	1.20854e-05	
175.000000	0.0357331 	175.000000	0.0347801 	175.000000	0.0345143 	175.000000	0.0344321 	175.000000	0.0347684 	175.000000	1.17672e-05	
180.000000	0.0350889 	180.000000	0.0341503 	180.000000	0.0338846 	180.000000	0.0338035 	180.000000	0.0341389 	180.000000	1.14659e-05	
185.000000	0.0344776 	185.000000	0.0335532 	185.000000	0.0332862 	185.000000	0.0332076 	185.000000	0.033542  	185.000000	1.11803e-05	
190.000000	0.0338966 	190.000000	0.0329863 	190.000000	0.0327184 	190.000000	0.0326417 	190.000000	0.0329753 	190.000000	1.0909e-05	
195.000000	0.0333436 	195.000000	0.0324473 	195.000000	0.0321804 	195.000000	0.0321037 	195.000000	0.0324366 	195.000000	1.06511e-05	
200.000000	0.0328168 	200.000000	0.0319342 	200.000000	0.0316694 	200.000000	0.0315916 	200.000000	0.0319238 	200.000000	1.04055e-05	
210.000000	0.0318343 	210.000000	0.0309788 	210.000000	0.0307135 	210.000000	0.0306379 	210.000000	0.0309688 	210.000000	9.94805e-06	
220.000000	0.0309363 	220.000000	0.0301072 	220.000000	0.0298445 	220.000000	0.0297682 	220.000000	0.0300977 	220.000000	9.53047e-06	
230.000000	0.0301123 	230.000000	0.029309  	230.000000	0.0290467 	230.000000	0.0289717 	230.000000	0.0292999 	230.000000	9.14773e-06	
240.000000	0.0293534 	240.000000	0.0285753 	240.000000	0.0283118 	240.000000	0.0282399 	240.000000	0.0285665 	240.000000	8.79559e-06	
250.000000	0.0286523 	250.000000	0.0278987 	250.000000	0.0276374 	250.000000	0.0275651 	250.000000	0.0278902 	250.000000	8.47048e-06	
260.000000	0.0280024 	260.000000	0.0272727 	260.000000	0.0270131 	260.000000	0.0269411 	260.000000	0.0272645 	260.000000	8.16938e-06	
270.000000	0.0273984 	270.000000	0.026692  	270.000000	0.0264329 	270.000000	0.0263625 	270.000000	0.0266841 	270.000000	7.88968e-06	
280.000000	0.0268357 	280.000000	0.0261518 	280.000000	0.025896  	280.000000	0.0258245 	280.000000	0.0261442 	280.000000	7.62916e-06	
290.000000	0.02631   	290.000000	0.0256481 	290.000000	0.0253935 	290.000000	0.0253231 	290.000000	0.0256407 	290.000000	7.38589e-06	
300.000000	0.0258179 	300.000000	0.0251774 	300.000000	0.024923  	300.000000	0.0248549 	300.000000	0.0251703 	300.000000	7.15819e-06	
310.000000	0.0253563 	310.000000	0.0247366 	310.000000	0.0244839 	310.000000	0.0244166 	310.000000	0.0247297 	310.000000	6.94458e-06	
320.000000	0.0249224 	320.000000	0.024323  	320.000000	0.0240737 	320.000000	0.0240056 	320.000000	0.0243163 	320.000000	6.7438e-06	
330.000000	0.0245139 	330.000000	0.0239342 	330.000000	0.0236872 	330.000000	0.0236194 	330.000000	0.0239276 	330.000000	6.5547e-06	
340.000000	0.0241286 	340.000000	0.023568  	340.000000	0.0233221 	340.000000	0.0232561 	340.000000	0.0235616 	340.000000	6.37629e-06	
350.000000	0.0237646 	350.000000	0.0232227 	350.000000	0.0229781 	350.000000	0.0229136 	350.000000	0.0232164 	350.000000	6.20766e-06	
360.000000	0.0234203 	360.000000	0.0228964 	360.000000	0.0226548 	360.000000	0.0225902 	360.000000	0.0228904 	360.000000	6.04803e-06	
370.000000	0.023094  	370.000000	0.0225878 	370.000000	0.0223498 	370.000000	0.0222846 	370.000000	0.0225819 	370.000000	5.89669e-06	
380.000000	0.0227845 	380.000000	0.0222954 	380.000000	0.0220598 	380.000000	0.0219953 	380.000000	0.0222897 	380.000000	5.75299e-06	
390.000000	0.0224905 	390.000000	0.0220181 	390.000000	0.0217845 	390.000000	0.021721  	390.000000	0.0220125 	390.000000	5.61638e-06	
400.000000	0.0222109 	400.000000	0.0217548 	400.000000	0.0215245 	400.000000	0.0214608 	400.000000	0.0217493 	400.000000	5.48633e-06	
410.000000	0.0219448 	410.000000	0.0215044 	410.000000	0.0212778 	410.000000	0.0212136 	410.000000	0.0214991 	410.000000	5.36237e-06	
420.000000	0.0216911 	420.000000	0.0212662 	420.000000	0.0210422 	420.000000	0.0209784 	420.000000	0.0212609 	420.000000	5.24408e-06	
430.000000	0.0214491 	430.000000	0.0210391 	430.000000	0.0208172 	430.000000	0.0207546 	430.000000	0.021034  	430.000000	5.13108e-06	
440.000000	0.021218  	440.000000	0.0208226 	440.000000	0.0206027 	440.000000	0.0205412 	440.000000	0.0208176 	440.000000	5.02302e-06	
450.000000	0.0209972 	450.000000	0.020616  	450.000000	0.0203986 	450.000000	0.0203377 	450.000000	0.020611  	450.000000	4.91957e-06	
460.000000	0.0207859 	460.000000	0.0204185 	460.000000	0.0202044 	460.000000	0.0201435 	460.000000	0.0204137 	460.000000	4.82044e-06	
470.000000	0.0205836 	470.000000	0.0202297 	470.000000	0.0200192 	470.000000	0.0199578 	470.000000	0.020225  	470.000000	4.72536e-06	
480.000000	0.0203898 	480.000000	0.020049  	480.000000	0.0198418 	480.000000	0.0197803 	480.000000	0.0200443 	480.000000	4.63409e-06	
490.000000	0.020204  	490.000000	0.0198759 	490.000000	0.0196713 	490.000000	0.0196103 	490.000000	0.0198714 	490.000000	4.54641e-06	
500.000000	0.0200257 	500.000000	0.01971   	500.000000	0.0195077 	500.000000	0.0194476 	500.000000	0.0197056 	500.000000	4.46209e-06	
520.000000	0.01969   	520.000000	0.0193983 	520.000000	0.0192006 	520.000000	0.019142  	520.000000	0.019394  	520.000000	4.30281e-06	
540.000000	0.0193797 	540.000000	0.0191107 	540.000000	0.0189192 	540.000000	0.0188605 	540.000000	0.0191066 	540.000000	4.15489e-06	
560.000000	0.0190924 	560.000000	0.0188449 	560.000000	0.0186596 	560.000000	0.0186006 	560.000000	0.0188409 	560.000000	4.01713e-06	
580.000000	0.0188256 	580.000000	0.0185985 	580.000000	0.0184179 	580.000000	0.01836   	580.000000	0.0185947 	580.000000	3.8885e-06	
600.000000	0.0185774 	600.000000	0.0183698 	600.000000	0.0181946 	600.000000	0.0181368 	600.000000	0.0183661 	600.000000	3.76813e-06	
620.000000	0.0183462 	620.000000	0.0181571 	620.000000	0.0179877 	620.000000	0.0179295 	620.000000	0.0181534 	620.000000	3.65523e-06	
640.000000	0.0181304 	640.000000	0.0179588 	640.000000	0.0177941 	640.000000	0.0177364 	640.000000	0.0179553 	640.000000	3.54913e-06	
660.000000	0.0179288 	660.000000	0.0177738 	660.000000	0.0176129 	660.000000	0.0175563 	660.000000	0.0177704 	660.000000	3.44921e-06	
680.000000	0.01774   	680.000000	0.0176009 	680.000000	0.0174438 	680.000000	0.017388  	680.000000	0.0175975 	680.000000	3.35494e-06	
700.000000	0.0175631 	700.000000	0.0174391 	700.000000	0.0172861 	700.000000	0.0172306 	700.000000	0.0174358 	700.000000	3.26586e-06	
720.000000	0.0173972 	720.000000	0.0172874 	720.000000	0.017139  	720.000000	0.0170832 	720.000000	0.0172842 	720.000000	3.18155e-06	
740.000000	0.0172413 	740.000000	0.0171451 	740.000000	0.017002  	740.000000	0.0169459 	740.000000	0.017142  	740.000000	3.10162e-06	
760.000000	0.0170948 	760.000000	0.0170114 	760.000000	0.0168752 	760.000000	0.0168196 	760.000000	0.0170084 	760.000000	3.02574e-06	
780.000000	0.0169569 	780.000000	0.0168858 	780.000000	0.0167557 	780.000000	0.0167007 	780.000000	0.0168829 	780.000000	2.95361e-06	
800.000000	0.0168271 	800.000000	0.0167676 	800.000000	0.016643  	800.000000	0.0165888 	800.000000	0.0167647 	800.000000	2.88494e-06	
820.000000	0.0167048 	820.000000	0.0166563 	820.000000	0.016537  	820.000000	0.0164833 	820.000000	0.0166534 	820.000000	2.81951e-06	
840.000000	0.0165895 	840.000000	0.0165513 	840.000000	0.0164373 	840.000000	0.0163839 	840.000000	0.0165486 	840.000000	2.75707e-06	
860.000000	0.0164807 	860.000000	0.0164524 	860.000000	0.0163436 	860.000000	0.0162899 	860.000000	0.0164497 	860.000000	2.69743e-06	
880.000000	0.016378  	880.000000	0.016359  	880.000000	0.0162551 	880.000000	0.0162011 	880.000000	0.0163564 	880.000000	2.6404e-06	
900.000000	0.016281  	900.000000	0.0162709 	900.000000	0.0161712 	900.000000	0.0161172 	900.000000	0.0162683 	900.000000	2.58581e-06	
920.000000	0.0161894 	920.000000	0.0161876 	920.000000	0.0160915 	920.000000	0.0160377 	920.000000	0.0161851 	920.000000	2.53351e-06	
940.000000	0.0161028 	940.000000	0.0161089 	940.000000	0.0160158 	940.000000	0.0159625 	940.000000	0.0161064 	940.000000	2.48335e-06	
960.000000	0.016021  	960.000000	0.0160345 	960.000000	0.0159439 	960.000000	0.0158912 	960.000000	0.0160321 	960.000000	2.4352e-06	
980.000000	0.0159436 	980.000000	0.0159641 	980.000000	0.0158758 	980.000000	0.0158236 	980.000000	0.0159617 	980.000000	2.38894e-06	
1000.000000	0.0158705 	1000.000000	0.0158976 	1000.000000	0.0158113 	1000.000000	0.0157594 	1000.000000	0.0158952 	1000.000000	2.34447e-06	
1020.000000	0.0158014 	1020.000000	0.0158346 	1020.000000	0.0157501 	1020.000000	0.0156985 	1020.000000	0.0158323 	1020.000000	2.30168e-06	
1040.000000	0.0157361 	1040.000000	0.015775  	1040.000000	0.0156923 	1040.000000	0.0156407 	1040.000000	0.0157727 	1040.000000	2.26047e-06	
1060.000000	0.0156743 	1060.000000	0.0157186 	1060.000000	0.0156376 	1060.000000	0.0155857 	1060.000000	0.0157164 	1060.000000	2.22076e-06	
1080.000000	0.0156159 	1080.000000	0.0156652 	1080.000000	0.0155855 	1080.000000	0.0155335 	1080.000000	0.015663  	1080.000000	2.18247e-06	
1100.000000	0.0155607 	1100.000000	0.0156147 	1100.000000	0.0155359 	1100.000000	0.0154838 	1100.000000	0.0156125 	1100.000000	2.14551e-06	
1120.000000	0.0155086 	1120.000000	0.0155669 	1120.000000	0.0154886 	1120.000000	0.0154365 	1120.000000	0.0155648 	1120.000000	2.10983e-06	
1140.000000	0.0154594 	1140.000000	0.0155216 	1140.000000	0.0154433 	1140.000000	0.0153915 	1140.000000	0.0155196 	1140.000000	2.07536e-06	
1160.000000	0.0154129 	1160.000000	0.0154788 	1160.000000	0.0154002 	1160.000000	0.0153487 	1160.000000	0.0154768 	1160.000000	2.04203e-06	
1180.000000	0.0153691 	1180.000000	0.0154383 	1180.000000	0.0153591 	1180.000000	0.0153079 	1180.000000	0.0154363 	1180.000000	2.00979e-06	
1200.000000	0.0153278 	1200.000000	0.0154001 	1200.000000	0.0153201 	1200.000000	0.0152691 	1200.000000	0.0153981 	1200.000000	1.97859e-06	
1220.000000	0.0152888 	1220.000000	0.0153639 	1220.000000	0.015283  	1220.000000	0.015232  	1220.000000	0.0153619 	1220.000000	1.94837e-06	
1240.000000	0.0152522 	1240.000000	0.0153297 	1240.000000	0.0152478 	1240.000000	0.0151968 	1240.000000	0.0153278 	1240.000000	1.91909e-06	
1260.000000	0.0152177 	1260.000000	0.0152974 	1260.000000	0.0152143 	1260.000000	0.0151631 	1260.000000	0.0152955 	1260.000000	1.8907e-06	
1280.000000	0.0151854 	1280.000000	0.0152669 	1280.000000	0.0151824 	1280.000000	0.0151311 	1280.000000	0.0152651 	1280.000000	1.86318e-06	
1300.000000	0.015155  	1300.000000	0.0152382 	1300.000000	0.0151519 	1300.000000	0.0151005 	1300.000000	0.0152364 	1300.000000	1.83646e-06	
1320.000000	0.0151265 	1320.000000	0.0152111 	1320.000000	0.0151228 	1320.000000	0.0150713 	1320.000000	0.0152093 	1320.000000	1.81053e-06	
1340.000000	0.0150999 	1340.000000	0.0151856 	1340.000000	0.0150949 	1340.000000	0.0150435 	1340.000000	0.0151838 	1340.000000	1.78534e-06	
1360.000000	0.015075  	1360.000000	0.0151617 	1360.000000	0.0150683 	1360.000000	0.015017  	1360.000000	0.0151599 	1360.000000	1.76087e-06	
1380.000000	0.0150518 	1380.000000	0.0151391 	1380.000000	0.0150428 	1380.000000	0.0149917 	1380.000000	0.0151374 	1380.000000	1.73708e-06	
1400.000000	0.0150302 	1400.000000	0.015118  	1400.000000	0.0150184 	1400.000000	0.0149676 	1400.000000	0.0151163 	1400.000000	1.71395e-06	
1420.000000	0.0150102 	1420.000000	0.0150982 	1420.000000	0.0149952 	1420.000000	0.0149445 	1420.000000	0.0150965 	1420.000000	1.69144e-06	
1440.000000	0.0149917 	1440.000000	0.0150797 	1440.000000	0.014973  	1440.000000	0.0149226 	1440.000000	0.015078  	1440.000000	1.66954e-06	
1460.000000	0.0149746 	1460.000000	0.0150623 	1460.000000	0.0149518 	1460.000000	0.0149016 	1460.000000	0.0150607 	1460.000000	1.64822e-06	
1480.000000	0.014959  	1480.000000	0.0150462 	1480.000000	0.0149316 	1480.000000	0.0148816 	1480.000000	0.0150446 	1480.000000	1.62745e-06	
1500.000000	0.0149446 	1500.000000	0.0150312 	1500.000000	0.0149123 	1500.000000	0.0148626 	1500.000000	0.0150296 	1500.000000	1.60721e-06	
1520.000000	0.0149315 	1520.000000	0.0150173 	1520.000000	0.014894  	1520.000000	0.0148444 	1520.000000	0.0150157 	1520.000000	1.58749e-06	
1540.000000	0.0149197 	1540.000000	0.0150044 	1540.000000	0.0148765 	1540.000000	0.0148271 	1540.000000	0.0150029 	1540.000000	1.56826e-06	
1560.000000	0.0149091 	1560.000000	0.0149926 	1560.000000	0.0148599 	1560.000000	0.0148106 	1560.000000	0.014991  	1560.000000	1.54951e-06	
1580.000000	0.0148996 	1580.000000	0.0149817 	1580.000000	0.0148441 	1580.000000	0.0147948 	1580.000000	0.0149801 	1580.000000	1.53122e-06	
1600.000000	0.0148912 	1600.000000	0.0149717 	1600.000000	0.0148291 	1600.000000	0.0147798 	1600.000000	0.0149702 	1600.000000	1.51336e-06	
1620.000000	0.0148839 	1620.000000	0.0149626 	1620.000000	0.0148148 	1620.000000	0.0147655 	1620.000000	0.0149611 	1620.000000	1.49593e-06	
1640.000000	0.0148777 	1640.000000	0.0149544 	1640.000000	0.0148012 	1640.000000	0.0147519 	1640.000000	0.0149529 	1640.000000	1.47891e-06	
1660.000000	0.0148725 	1660.000000	0.0149471 	1660.000000	0.0147883 	1660.000000	0.014739  	1660.000000	0.0149456 	1660.000000	1.46229e-06	
1680.000000	0.0148682 	1680.000000	0.0149405 	1680.000000	0.0147761 	1680.000000	0.0147266 	1680.000000	0.014939  	1680.000000	1.44605e-06	
1700.000000	0.0148649 	1700.000000	0.0149347 	1700.000000	0.0147644 	1700.000000	0.0147149 	1700.000000	0.0149333 	1700.000000	1.43018e-06	
1750.000000	0.0148605 	1750.000000	0.0149234 	1750.000000	0.0147377 	1750.000000	0.0146881 	1750.000000	0.014922  	1750.000000	1.39202e-06	
1800.000000	0.0148614 	1800.000000	0.0149165 	1800.000000	0.0147142 	1800.000000	0.0146645 	1800.000000	0.0149151 	1800.000000	1.35592e-06	
1850.000000	0.0148672 	1850.000000	0.0149135 	1850.000000	0.0146935 	1850.000000	0.0146439 	1850.000000	0.0149121 	1850.000000	1.3217e-06	
1900.000000	0.0148775 	1900.000000	0.0149141 	1900.000000	0.0146754 	1900.000000	0.0146259 	1900.000000	0.0149128 	1900.000000	1.28921e-06	
1950.000000	0.014892  	1950.000000	0.0149181 	1950.000000	0.0146596 	1950.000000	0.0146104 	1950.000000	0.0149168 	1950.000000	1.25833e-06	
2000.000000	0.0149105 	2000.000000	0.0149252 	2000.000000	0.0146461 	2000.000000	0.0145971 	2000.000000	0.014924  	2000.000000	1.22895e-06	
2100.000000	0.0149582 	2100.000000	0.0149479 	2100.000000	0.0146249 	2100.000000	0.0145764 	2100.000000	0.0149467 	2100.000000	1.17423e-06	
2200.000000	0.0150189 	2200.000000	0.0149805 	2200.000000	0.0146106 	2200.000000	0.0145625 	2200.000000	0.0149794 	2200.000000	1.12431e-06	
2300.000000	0.0150911 	2300.000000	0.0150219 	2300.000000	0.014602  	2300.000000	0.0145543 	2300.000000	0.0150208 	2300.000000	1.07859e-06	
2400.000000	0.0151734 	2400.000000	0.0150708 	2400.000000	0.0145985 	2400.000000	0.0145508 	2400.000000	0.0150698 	2400.000000	1.03655e-06	
2500.000000	0.0152649 	2500.000000	0.0151264 	2500.000000	0.0145991 	2500.000000	0.0145513 	2500.000000	0.0151254 	2500.000000	9.97763e-07	
2600.000000	0.0153647 	2600.000000	0.015188  	2600.000000	0.0146032 	2600.000000	0.0145553 	2600.000000	0.015187  	2600.000000	9.61856e-07	
2700.000000	0.0154719 	2700.000000	0.0152547 	2700.000000	0.0146102 	2700.000000	0.0145621 	2700.000000	0.0152538 	2700.000000	9.28519e-07	
2800.000000	0.0155859 	2800.000000	0.0153262 	2800.000000	0.0146195 	2800.000000	0.0145714 	2800.000000	0.0153253 	2800.000000	8.97483e-07	
2900.000000	0.0157062 	2900.000000	0.0154018 	2900.000000	0.014631  	2900.000000	0.0145828 	2900.000000	0.0154009 	2900.000000	8.68516e-07	
3000.000000	0.0158322 	3000.000000	0.0154812 	3000.000000	0.0146441 	3000.000000	0.014596  	3000.000000	0.0154804 	3000.000000	8.41414e-07	
3200.000000	0.0160996 	3200.000000	0.0156498 	3200.000000	0.0146745 	3200.000000	0.0146267 	3200.000000	0.015649  	3200.000000	7.92126e-07	
3400.000000	0.0163852 	3400.000000	0.0158295 	3400.000000	0.0147093 	3400.000000	0.0146618 	3400.000000	0.0158287 	3400.000000	7.48448e-07	
3600.000000	0.0166868 	3600.000000	0.0160184 	3600.000000	0.0147473 	3600.000000	0.0147    	3600.000000	0.0160177 	3600.000000	7.09466e-07	
3800.000000	0.0170025 	3800.000000	0.016215  	3800.000000	0.0147876 	3800.000000	0.0147405 	3800.000000	0.0162144 	3800.000000	6.74454e-07	
4000.000000	0.0173309 	4000.000000	0.0164181 	4000.000000	0.0148294 	4000.000000	0.0147825 	4000.000000	0.0164175 	4000.000000	6.4283e-07	
4200.000000	0.0176706 	4200.000000	0.0166267 	4200.000000	0.0148723 	4200.000000	0.0148255 	4200.000000	0.0166261 	4200.000000	6.1412e-07	
4400.000000	0.0180208 	4400.000000	0.01684   	4400.000000	0.0149157 	4400.000000	0.0148691 	4400.000000	0.0168395 	4400.000000	5.87935e-07	
4600.000000	0.0183806 	4600.000000	0.0170574 	4600.000000	0.0149595 	4600.000000	0.0149129 	4600.000000	0.0170568 	4600.000000	5.63954e-07	
4800.000000	0.0187492 	4800.000000	0.0172783 	4800.000000	0.0150033 	4800.000000	0.0149568 	4800.000000	0.0172777 	4800.000000	5.41907e-07	
5000.000000	0.0191262 	5000.000000	0.0175022 	5000.000000	0.0150469 	5000.000000	0.0150005 	5000.000000	0.0175016 	5000.000000	5.21567e-07	
5250.000000	0.0196083 	5250.000000	0.0177857 	5250.000000	0.0151011 	5250.000000	0.0150547 	5250.000000	0.0177852 	5250.000000	4.98251e-07	
5500.000000	0.0201019 	5500.000000	0.0180728 	5500.000000	0.0151545 	5500.000000	0.0151083 	5500.000000	0.0180723 	5500.000000	4.76987e-07	
6000.000000	0.0211206 	6000.000000	0.0186555 	6000.000000	0.0152591 	6000.000000	0.0152129 	6000.000000	0.018655  	6000.000000	4.39611e-07	
6500.000000	0.0221779 	6500.000000	0.019247  	6500.000000	0.0153598 	6500.000000	0.0153138 	6500.000000	0.0192466 	6500.000000	4.0781e-07	
7000.000000	0.0232709 	7000.000000	0.0198451 	7000.000000	0.0154564 	7000.000000	0.0154105 	7000.000000	0.0198447 	7000.000000	3.80413e-07	
7500.000000	0.0243972 	7500.000000	0.0204481 	7500.000000	0.0155489 	7500.000000	0.0155031 	7500.000000	0.0204478 	7500.000000	3.56558e-07	
8000.000000	0.0255552 	8000.000000	0.0210549 	8000.000000	0.0156375 	8000.000000	0.0155917 	8000.000000	0.0210546 	8000.000000	3.35593e-07	
8500.000000	0.0267435 	8500.000000	0.0216645 	8500.000000	0.0157221 	8500.000000	0.0156764 	8500.000000	0.0216642 	8500.000000	3.17019e-07	
9000.000000	0.0279611 	9000.000000	0.0222762 	9000.000000	0.0158026 	9000.000000	0.0157575 	9000.000000	0.0222759 	9000.000000	3.00446e-07	
9500.000000	0.0292072 	9500.000000	0.0228895 	9500.000000	0.0158799 	9500.000000	0.0158351 	9500.000000	0.0228892 	9500.000000	2.85565e-07	
10000.000000	0.0304812 	10000.000000	0.023504  	10000.000000	0.0159543 	10000.000000	0.0159095 	10000.000000	0.0235037 	10000.000000	2.72126e-07	
11000.000000	0.0331107 	11000.000000	0.0247353 	11000.000000	0.0160941 	11000.000000	0.0160493 	11000.000000	0.024735  	11000.000000	2.48805e-07	
12000.000000	0.0358466 	12000.000000	0.025968  	12000.000000	0.0162227 	12000.000000	0.0161785 	12000.000000	0.0259678 	12000.000000	2.29258e-07	
13000.000000	0.0386869 	13000.000000	0.0272011 	13000.000000	0.0163419 	13000.000000	0.0162982 	13000.000000	0.0272009 	13000.000000	2.1263e-07	
14000.000000	0.0416301 	14000.000000	0.0284336 	14000.000000	0.0164529 	14000.000000	0.0164097 	14000.000000	0.0284334 	14000.000000	1.98308e-07	
15000.000000	0.0446753 	15000.000000	0.0296651 	15000.000000	0.0165568 	15000.000000	0.0165139 	15000.000000	0.0296649 	15000.000000	1.8584e-07	
16000.000000	0.047822  	16000.000000	0.0308951 	16000.000000	0.0166542 	16000.000000	0.0166116 	16000.000000	0.0308949 	16000.000000	1.74885e-07	
17000.000000	0.0510698 	17000.000000	0.0321234 	17000.000000	0.0167457 	17000.000000	0.0167035 	17000.000000	0.0321232 	17000.000000	1.65182e-07	
18000.000000	0.0544185 	18000.000000	0.0333499 	18000.000000	0.016832  	18000.000000	0.0167902 	18000.000000	0.0333497 	18000.000000	1.56524e-07	
19000.000000	0.0578682 	19000.000000	0.0345744 	19000.000000	0.0169137 	19000.000000	0.0168722 	19000.000000	0.0345743 	19000.000000	1.48752e-07	
20000.000000	0.0614187 	20000.000000	0.0357969 	20000.000000	0.016991  	20000.000000	0.01695   	20000.000000	0.0357968 	20000.000000	1.41734e-07	
21000.000000	0.0650704 	21000.000000	0.0370175 	21000.000000	0.0170645 	21000.000000	0.0170239 	21000.000000	0.0370173 	21000.000000	1.35365e-07	
22000.000000	0.0688233 	22000.000000	0.0382359 	22000.000000	0.0171343 	22000.000000	0.0170944 	22000.000000	0.0382358 	22000.000000	1.29558e-07	
23000.000000	0.0726779 	23000.000000	0.0394524 	23000.000000	0.017201  	23000.000000	0.0171616 	23000.000000	0.0394523 	23000.000000	1.24241e-07	
24000.000000	0.0766343 	24000.000000	0.0406668 	24000.000000	0.0172648 	24000.000000	0.0172259 	24000.000000	0.0406667 	24000.000000	1.19355e-07	
25000.000000	0.0806929 	25000.000000	0.0418793 	25000.000000	0.0173258 	25000.000000	0.0172875 	25000.000000	0.0418792 	25000.000000	1.14848e-07	
26000.000000	0.0848541 	26000.000000	0.0430898 	26000.000000	0.0173841 	26000.000000	0.0173465 	26000.000000	0.0430897 	26000.000000	1.10677e-07	
27000.000000	0.0891183 	27000.000000	0.0442984 	27000.000000	0.01744   	27000.000000	0.0174033 	27000.000000	0.0442983 	27000.000000	1.06807e-07	
28000.000000	0.0934859 	28000.000000	0.0455051 	28000.000000	0.0174938 	28000.000000	0.0174579 	28000.000000	0.045505  	28000.000000	1.03205e-07	
29000.000000	0.0979574 	29000.000000	0.0467099 	29000.000000	0.0175456 	29000.000000	0.0175105 	29000.000000	0.0467098 	29000.000000	9.98442e-08	
30000.000000	0.102533  	30000.000000	0.047913  	30000.000000	0.0175955 	30000.000000	0.0175612 	30000.000000	0.0479129 	30000.000000	9.6701e-08	
32000.000000	0.112     	32000.000000	0.0503138 	32000.000000	0.0176904 	32000.000000	0.0176576 	32000.000000	0.0503138 	32000.000000	9.09872e-08	
34000.000000	0.12189   	34000.000000	0.0527079 	34000.000000	0.017779  	34000.000000	0.0177478 	34000.000000	0.0527079 	34000.000000	8.59268e-08	
36000.000000	0.132207  	36000.000000	0.0550956 	36000.000000	0.0178621 	36000.000000	0.0178326 	36000.000000	0.0550955 	36000.000000	8.14129e-08	
38000.000000	0.142955  	38000.000000	0.0574771 	38000.000000	0.0179402 	38000.000000	0.0179125 	38000.000000	0.057477  	38000.000000	7.73608e-08	
40000.000000	0.15414   	40000.000000	0.0598526 	40000.000000	0.0180139 	40000.000000	0.0179882 	40000.000000	0.0598525 	40000.000000	7.37026e-08	
42000.000000	0.165765  	42000.000000	0.0622225 	42000.000000	0.0180837 	42000.000000	0.0180599 	42000.000000	0.0622225 	42000.000000	7.03831e-08	
44000.000000	0.177835  	44000.000000	0.064587  	44000.000000	0.0181499 	44000.000000	0.0181281 	44000.000000	0.064587  	44000.000000	6.73569e-08	
46000.000000	0.190355  	46000.000000	0.0669464 	46000.000000	0.0182129 	46000.000000	0.018193  	46000.000000	0.0669463 	46000.000000	6.45864e-08	
48000.000000	0.203329  	48000.000000	0.0693007 	48000.000000	0.0182729 	48000.000000	0.0182551 	48000.000000	0.0693006 	48000.000000	6.20404e-08	
50000.000000	0.216762  	50000.000000	0.0716502 	50000.000000	0.0183301 	50000.000000	0.0183144 	50000.000000	0.0716502 	50000.000000	5.96924e-08	
