Energy (MeV/u)1	0 - [He-base] F.Hubert et al, AD&ND Tables 46(1990)1	Energy (MeV/u)2	1 - [H -base] J.F.Ziegler et al, Pergamon Press, NY (low energy)	Energy (MeV/u)3	2 - ATIMA 1.2  LS-theory (recommended for high energy)	Energy (MeV/u)4	3 - ATIMA 1.2  without LS-correction	Energy (MeV/u)5	4 - electrical component of [1] - J.F.Ziegler et al	Energy (MeV/u)6	5 - nuclear component of [1] - J.F.Ziegler et al	
0.001000	6.79307   	0.001000	4.87845   	0.001000	4.77292   	0.001000	4.77292   	0.001000	0.996503  	0.001000	3.88194   	
0.002000	6.87213   	0.002000	4.89707   	0.002000	4.77679   	0.002000	4.77679   	0.002000	1.38027   	0.002000	3.5168    	
0.005000	7.0273    	0.005000	4.78922   	0.005000	4.65816   	0.005000	4.65816   	0.005000	2.12322   	0.005000	2.66601   	
0.008000	7.30716   	0.008000	4.82291   	0.008000	4.6947    	0.008000	4.6947    	0.008000	2.64808   	0.008000	2.17483   	
0.010000	7.51613   	0.010000	4.88977   	0.010000	4.76617   	0.010000	4.76617   	0.010000	2.94089   	0.010000	1.94888   	
0.015000	8.04541   	0.015000	5.12471   	0.015000	5.01686   	0.015000	5.01686   	0.015000	3.55829   	0.015000	1.56642   	
0.020000	8.74121   	0.020000	5.53519   	0.020000	5.47705   	0.020000	5.47705   	0.020000	4.21159   	0.020000	1.32359   	
0.025000	9.64067   	0.025000	6.19137   	0.025000	6.19202   	0.025000	6.19202   	0.025000	5.03779   	0.025000	1.15357   	
0.030000	10.4667   	0.030000	6.88049   	0.030000	6.83872   	0.030000	6.83872   	0.030000	5.85365   	0.030000	1.02685   	
0.035000	11.1992   	0.035000	7.57956   	0.035000	7.50298   	0.035000	7.50298   	0.035000	6.65138   	0.035000	0.928181  	
0.040000	11.8256   	0.040000	8.27306   	0.040000	8.1717    	0.040000	8.1717    	0.040000	7.42419   	0.040000	0.848862  	
0.045000	12.3335   	0.045000	8.95025   	0.045000	8.83596   	0.045000	8.83596   	0.045000	8.16675   	0.045000	0.7835    	
0.050000	12.735    	0.050000	9.60378   	0.050000	9.48951   	0.050000	9.48951   	0.050000	8.87521   	0.050000	0.728577  	
0.055000	13.4179   	0.055000	10.2262   	0.055000	10.1253   	0.055000	10.1253   	0.055000	9.54713   	0.055000	0.679029  	
0.060000	14.0353   	0.060000	10.82     	0.060000	10.7456   	0.060000	10.7456   	0.060000	10.1813   	0.060000	0.638668  	
0.070000	15.0805   	0.070000	11.9058   	0.070000	11.9208   	0.070000	11.9208   	0.070000	11.3368   	0.070000	0.569009  	
0.080000	16.4216   	0.080000	13.0033   	0.080000	13.01     	0.080000	13.01     	0.080000	12.4867   	0.080000	0.516632  	
0.090000	17.6301   	0.090000	14.0385   	0.090000	14.0088   	0.090000	14.0088   	0.090000	13.5645   	0.090000	0.473929  	
0.100000	18.6924   	0.100000	14.954    	0.100000	14.9208   	0.100000	14.9208   	0.100000	14.5157   	0.100000	0.438371  	
0.120000	20.0205   	0.120000	16.4824   	0.120000	16.5084   	0.120000	16.5084   	0.120000	16.1      	0.120000	0.382376  	
0.140000	21.0697   	0.140000	17.6977   	0.140000	17.8277   	0.140000	17.8277   	0.140000	17.3576   	0.140000	0.340119  	
0.160000	21.9917   	0.160000	18.6889   	0.160000	18.9314   	0.160000	18.9314   	0.160000	18.3819   	0.160000	0.306979  	
0.180000	22.8861   	0.180000	19.5349   	0.180000	19.8634   	0.180000	19.8634   	0.180000	19.2546   	0.180000	0.28022   	
0.200000	23.7905   	0.200000	20.2872   	0.200000	20.6582   	0.200000	20.6582   	0.200000	20.0291   	0.200000	0.258116  	
0.250000	25.2046   	0.250000	21.8023   	0.250000	22.2055   	0.250000	22.2055   	0.250000	21.5858   	0.250000	0.216519  	
0.300000	26.5019   	0.300000	22.9767   	0.300000	23.3249   	0.300000	23.3249   	0.300000	22.7895   	0.300000	0.187259  	
0.350000	27.8597   	0.350000	24.0807   	0.350000	24.6977   	0.350000	24.6977   	0.350000	23.9152   	0.350000	0.165455  	
0.400000	29.6143   	0.400000	25.5156   	0.400000	25.7778   	0.400000	25.7778   	0.400000	25.3671   	0.400000	0.148523  	
0.450000	31.0868   	0.450000	26.6945   	0.450000	26.6296   	0.450000	26.6296   	0.450000	26.5595   	0.450000	0.13496   	
0.500000	32.3174   	0.500000	27.6685   	0.500000	27.3134   	0.500000	27.3134   	0.500000	27.5447   	0.500000	0.123831  	
0.600000	33.0501   	0.600000	29.1474   	0.600000	28.3279   	0.600000	28.3279   	0.600000	29.0408   	0.600000	0.106606  	
0.700000	33.1355   	0.700000	30.2109   	0.700000	29.0224   	0.700000	29.0224   	0.700000	30.117    	0.700000	0.0938504 	
0.800000	34.0576   	0.800000	30.9467   	0.800000	29.5024   	0.800000	29.5024   	0.800000	30.8628   	0.800000	0.083994  	
0.900000	34.6755   	0.900000	31.4418   	0.900000	29.8289   	0.900000	29.8289   	0.900000	31.3656   	0.900000	0.0761314 	
1.000000	35.0665   	1.000000	31.759    	1.000000	30.0407   	1.000000	30.0407   	1.000000	31.6893   	1.000000	0.0697017 	
1.250000	34.8158   	1.250000	31.5954   	1.250000	30.225    	1.250000	30.225    	1.250000	31.5376   	1.250000	0.0577666 	
1.500000	34.1206   	1.500000	31.0932   	1.500000	30.0954   	1.500000	30.0954   	1.500000	31.0437   	1.500000	0.0495042 	
1.750000	33.2844   	1.750000	30.4934   	1.750000	29.7842   	1.750000	29.7842   	1.750000	30.45     	1.750000	0.0434216 	
2.000000	32.0897   	2.000000	29.5713   	2.000000	29.1917   	2.000000	29.1917   	2.000000	29.5326   	2.000000	0.0387439 	
2.250000	31.0408   	2.250000	28.7338   	2.250000	28.5925   	2.250000	28.5925   	2.250000	28.6988   	2.250000	0.035027  	
2.500000	35.5741   	2.500000	27.9932   	2.500000	28.0045   	2.500000	28.0045   	2.500000	27.9612   	2.500000	0.0319977 	
3.000000	33.4659   	3.000000	26.6756   	3.000000	26.8736   	3.000000	26.8736   	3.000000	26.6482   	3.000000	0.0273474 	
3.500000	31.5282   	3.500000	25.3594   	3.500000	25.8112   	3.500000	25.8112   	3.500000	25.3355   	3.500000	0.0239354 	
4.000000	29.7774   	4.000000	24.2779   	4.000000	24.82     	4.000000	24.82     	4.000000	24.2566   	4.000000	0.0213184 	
4.500000	28.2031   	4.500000	23.372    	4.500000	23.8976   	4.500000	23.8976   	4.500000	23.3528   	4.500000	0.0192437 	
5.000000	26.787    	5.000000	22.543    	5.000000	23.0396   	5.000000	23.0396   	5.000000	22.5254   	5.000000	0.0175561 	
5.500000	25.5099   	5.500000	21.7784   	5.500000	22.241    	5.500000	22.241    	5.500000	21.7622   	5.500000	0.0161547 	
6.000000	24.3542   	6.000000	21.0703   	6.000000	21.4968   	6.000000	21.4968   	6.000000	21.0553   	6.000000	0.0149714 	
6.500000	23.3042   	6.500000	20.4076   	6.500000	20.802    	6.500000	20.802    	6.500000	20.3936   	6.500000	0.0139581 	
7.000000	22.3466   	7.000000	19.7865   	7.000000	20.1521   	7.000000	20.1521   	7.000000	19.7735   	7.000000	0.01308   	
7.500000	21.4699   	7.500000	19.2037   	7.500000	19.5432   	7.500000	19.5432   	7.500000	19.1914   	7.500000	0.0123113 	
8.000000	20.6645   	8.000000	18.6557   	8.000000	18.9715   	8.000000	18.9715   	8.000000	18.644    	8.000000	0.0116325 	
8.500000	19.922    	8.500000	18.1395   	8.500000	18.4338   	8.500000	18.4338   	8.500000	18.1284   	8.500000	0.0110283 	
9.000000	19.2353   	9.000000	17.6525   	9.000000	17.9271   	9.000000	17.9271   	9.000000	17.642    	9.000000	0.010487  	
9.500000	18.5983   	9.500000	17.1924   	9.500000	17.4489   	9.500000	17.4489   	9.500000	17.1824   	9.500000	0.00999897	
10.000000	18.0057   	10.000000	16.871    	10.000000	16.9968   	10.000000	16.9968   	10.000000	16.8615   	10.000000	0.00955663	
11.000000	16.9365   	11.000000	16.0692   	11.000000	16.093    	11.000000	16.2076   	11.000000	16.0604   	11.000000	0.00878518	
12.000000	15.9976   	12.000000	15.3382   	12.000000	15.2838   	12.000000	15.4871   	12.000000	15.3301   	12.000000	0.00813453	
13.000000	15.1665   	13.000000	14.6704   	13.000000	14.5554   	13.000000	14.8273   	13.000000	14.6629   	13.000000	0.00757796	
14.000000	14.4251   	14.000000	14.0589   	14.000000	13.896    	14.000000	14.2213   	14.000000	14.0518   	14.000000	0.00709614	
15.000000	13.7596   	15.000000	13.4974   	15.000000	13.2962   	15.000000	13.663    	15.000000	13.4907   	15.000000	0.00667473	
16.000000	13.1586   	16.000000	12.9803   	16.000000	12.7483   	16.000000	13.1473   	16.000000	12.974    	16.000000	0.00630286	
17.000000	12.613    	17.000000	12.5028   	17.000000	12.2458   	17.000000	12.6695   	17.000000	12.4968   	17.000000	0.00597217	
18.000000	12.1154   	18.000000	12.0607   	18.000000	11.7836   	18.000000	12.2257   	18.000000	12.055    	18.000000	0.00567605	
19.000000	11.6595   	19.000000	11.6502   	19.000000	11.357    	19.000000	11.8125   	19.000000	11.6448   	19.000000	0.00540927	
20.000000	11.2403   	20.000000	11.2682   	20.000000	10.9622   	20.000000	11.427    	20.000000	11.2631   	20.000000	0.00516762	
21.000000	10.8534   	21.000000	10.9119   	21.000000	10.5955   	21.000000	11.0665   	21.000000	10.907    	21.000000	0.00494764	
22.000000	10.4951   	22.000000	10.5788   	22.000000	10.2538   	22.000000	10.7287   	22.000000	10.574    	22.000000	0.0047465 	
23.000000	10.1623   	23.000000	10.2667   	23.000000	9.93485   	23.000000	10.4118   	23.000000	10.2621   	23.000000	0.00456184	
24.000000	9.85238   	24.000000	9.97372   	24.000000	9.63717   	24.000000	10.1137   	24.000000	9.96932   	24.000000	0.00439168	
25.000000	9.56294   	25.000000	9.69817   	25.000000	9.35886   	25.000000	9.8331    	25.000000	9.69394   	25.000000	0.00423436	
27.000000	9.0378    	27.000000	9.19355   	27.000000	8.85213   	27.000000	9.31851   	27.000000	9.18959   	27.000000	0.00395272	
29.000000	8.57369   	29.000000	8.74267   	29.000000	8.40205   	29.000000	8.85842   	29.000000	8.73897   	29.000000	0.0037078 	
31.000000	8.16036   	31.000000	8.33744   	31.000000	8.01665   	31.000000	8.43967   	31.000000	8.33395   	31.000000	0.00349275	
33.000000	7.78976   	33.000000	7.97127   	33.000000	7.6839    	33.000000	8.05739   	33.000000	7.96797   	33.000000	0.00330235	
35.000000	7.45547   	35.000000	7.6388    	35.000000	7.3803    	35.000000	7.71155   	35.000000	7.63566   	35.000000	0.00313253	
38.000000	7.01104   	38.000000	7.19376   	38.000000	6.97134   	38.000000	7.25041   	38.000000	7.19085   	38.000000	0.00290953	
41.000000	6.62316   	41.000000	6.80273   	41.000000	6.61057   	41.000000	6.84686   	41.000000	6.80002   	41.000000	0.00271746	
44.000000	6.2815    	44.000000	6.45647   	44.000000	6.2892    	44.000000	6.4907    	44.000000	6.45391   	44.000000	0.0025502 	
47.000000	5.97811   	47.000000	6.14769   	47.000000	6.00136   	47.000000	6.174     	47.000000	6.14529   	47.000000	0.00240319	
50.000000	5.70679   	50.000000	5.87064   	50.000000	5.74235   	50.000000	5.89053   	50.000000	5.86837   	50.000000	0.0022729 	
55.000000	5.31293   	55.000000	5.46717   	55.000000	5.36346   	55.000000	5.47882   	55.000000	5.46509   	55.000000	0.00208574	
60.000000	4.97759   	60.000000	5.1227    	60.000000	5.03814   	60.000000	5.1283    	60.000000	5.12078   	60.000000	0.00192822	
65.000000	4.68841   	65.000000	4.82518   	65.000000	4.75573   	65.000000	4.82621   	65.000000	4.82339   	65.000000	0.00179372	
70.000000	4.43631   	70.000000	4.56562   	70.000000	4.50881   	70.000000	4.56315   	70.000000	4.56394   	70.000000	0.00167749	
75.000000	4.21445   	75.000000	4.33719   	75.000000	4.29002   	75.000000	4.33197   	75.000000	4.33562   	75.000000	0.00157599	
80.000000	4.0176    	80.000000	4.13461   	80.000000	4.0958    	80.000000	4.1272    	80.000000	4.13312   	80.000000	0.00148656	
85.000000	3.84167   	85.000000	3.95371   	85.000000	3.92224   	85.000000	3.94453   	85.000000	3.95231   	85.000000	0.00140712	
90.000000	3.68343   	90.000000	3.7912    	90.000000	3.76515   	90.000000	3.78056   	90.000000	3.78987   	90.000000	0.00133608	
95.000000	3.54028   	95.000000	3.64441   	95.000000	3.62366   	95.000000	3.63254   	95.000000	3.64314   	95.000000	0.00127216	
100.000000	3.41013   	100.000000	3.51115   	100.000000	3.49421   	100.000000	3.49826   	100.000000	3.50993   	100.000000	0.00121431	
105.000000	3.29123   	105.000000	3.38964   	105.000000	3.37652   	105.000000	3.37586   	105.000000	3.38847   	105.000000	0.0011617 	
110.000000	3.18216   	110.000000	3.27838   	110.000000	3.26845   	110.000000	3.26385   	110.000000	3.27727   	110.000000	0.00111365	
115.000000	3.08173   	115.000000	3.17613   	115.000000	3.16868   	115.000000	3.16095   	115.000000	3.17506   	115.000000	0.00106957	
120.000000	2.98891   	120.000000	3.08184   	120.000000	3.07652   	120.000000	3.06608   	120.000000	3.08081   	120.000000	0.00102899	
125.000000	2.90287   	125.000000	2.99462   	125.000000	2.99128   	125.000000	2.97834   	125.000000	2.99362   	125.000000	0.0009915 	
130.000000	2.82285   	130.000000	2.91368   	130.000000	2.91213   	130.000000	2.89695   	130.000000	2.91273   	130.000000	0.000956754	
135.000000	2.74825   	135.000000	2.83839   	135.000000	2.83818   	135.000000	2.82126   	135.000000	2.83746   	135.000000	0.000924459	
140.000000	2.67851   	140.000000	2.76816   	140.000000	2.76934   	140.000000	2.75067   	140.000000	2.76727   	140.000000	0.000894361	
145.000000	2.61316   	145.000000	2.70251   	145.000000	2.70508   	145.000000	2.68469   	145.000000	2.70164   	145.000000	0.000866239	
150.000000	2.55179   	150.000000	2.64099   	150.000000	2.64461   	150.000000	2.62288   	150.000000	2.64015   	150.000000	0.000839903	
155.000000	2.46492   	155.000000	2.58324   	155.000000	2.5876    	155.000000	2.56487   	155.000000	2.58242   	155.000000	0.000815186	
160.000000	2.41422   	160.000000	2.52891   	160.000000	2.53399   	160.000000	2.5103    	160.000000	2.52812   	160.000000	0.00079194	
165.000000	2.36636   	165.000000	2.47771   	165.000000	2.48364   	165.000000	2.45889   	165.000000	2.47694   	165.000000	0.000770037	
170.000000	2.32112   	170.000000	2.42938   	170.000000	2.43599   	170.000000	2.41037   	170.000000	2.42863   	170.000000	0.000749361	
175.000000	2.27829   	175.000000	2.38368   	175.000000	2.39079   	175.000000	2.3645    	175.000000	2.38295   	175.000000	0.000729812	
180.000000	2.23767   	180.000000	2.34041   	180.000000	2.348     	180.000000	2.32107   	180.000000	2.33969   	180.000000	0.000711297	
185.000000	2.19909   	185.000000	2.29937   	185.000000	2.30746   	185.000000	2.2799    	185.000000	2.29867   	185.000000	0.000693737	
190.000000	2.1624    	190.000000	2.2604    	190.000000	2.26895   	190.000000	2.24081   	190.000000	2.25972   	190.000000	0.000677057	
195.000000	2.12747   	195.000000	2.22334   	195.000000	2.23222   	195.000000	2.20364   	195.000000	2.22268   	195.000000	0.000661193	
200.000000	2.09417   	200.000000	2.18807   	200.000000	2.19717   	200.000000	2.16827   	200.000000	2.18742   	200.000000	0.000646085	
210.000000	2.03202   	210.000000	2.12236   	210.000000	2.13216   	210.000000	2.10242   	210.000000	2.12174   	210.000000	0.000617929	
220.000000	1.97517   	220.000000	2.06241   	220.000000	2.07269   	220.000000	2.04236   	220.000000	2.06182   	220.000000	0.000592216	
230.000000	1.92297   	230.000000	2.0075    	230.000000	2.01815   	230.000000	1.98739   	230.000000	2.00694   	230.000000	0.000568639	
240.000000	1.87486   	240.000000	1.95703   	240.000000	1.96803   	240.000000	1.93688   	240.000000	1.95648   	240.000000	0.000546937	
250.000000	1.83037   	250.000000	1.91047   	250.000000	1.92184   	250.000000	1.89032   	250.000000	1.90994   	250.000000	0.000526894	
260.000000	1.78912   	260.000000	1.8674    	260.000000	1.87899   	260.000000	1.84727   	260.000000	1.86689   	260.000000	0.000508323	
270.000000	1.75077   	270.000000	1.82743   	270.000000	1.83919   	270.000000	1.80736   	270.000000	1.82694   	270.000000	0.000491067	
280.000000	1.71501   	280.000000	1.79026   	280.000000	1.80234   	280.000000	1.77026   	280.000000	1.78979   	280.000000	0.000474988	
290.000000	1.68159   	290.000000	1.7556    	290.000000	1.76786   	290.000000	1.73569   	290.000000	1.75514   	290.000000	0.000459968	
300.000000	1.6503    	300.000000	1.72321   	300.000000	1.73557   	300.000000	1.70341   	300.000000	1.72276   	300.000000	0.000445905	
310.000000	1.62094   	310.000000	1.69287   	310.000000	1.70543   	310.000000	1.6732    	310.000000	1.69244   	310.000000	0.000432709	
320.000000	1.59333   	320.000000	1.66441   	320.000000	1.67727   	320.000000	1.64487   	320.000000	1.66399   	320.000000	0.000420301	
330.000000	1.56732   	330.000000	1.63765   	330.000000	1.65073   	330.000000	1.61827   	330.000000	1.63724   	330.000000	0.000408612	
340.000000	1.54279   	340.000000	1.61245   	340.000000	1.62568   	340.000000	1.59323   	340.000000	1.61205   	340.000000	0.000397581	
350.000000	1.51961   	350.000000	1.58868   	350.000000	1.60208   	350.000000	1.56964   	350.000000	1.58829   	350.000000	0.000387152	
360.000000	1.49767   	360.000000	1.56623   	360.000000	1.57981   	360.000000	1.54737   	360.000000	1.56585   	360.000000	0.000377276	
370.000000	1.47688   	370.000000	1.54499   	370.000000	1.55875   	370.000000	1.52633   	370.000000	1.54462   	370.000000	0.000367912	
380.000000	1.45716   	380.000000	1.52487   	380.000000	1.53883   	380.000000	1.5064    	380.000000	1.52451   	380.000000	0.000359018	
390.000000	1.43842   	390.000000	1.50578   	390.000000	1.51992   	390.000000	1.48753   	390.000000	1.50543   	390.000000	0.000350561	
400.000000	1.42059   	400.000000	1.48766   	400.000000	1.50191   	400.000000	1.46961   	400.000000	1.48732   	400.000000	0.000342508	
410.000000	1.40362   	410.000000	1.47043   	410.000000	1.48478   	410.000000	1.4526    	410.000000	1.47009   	410.000000	0.00033483	
420.000000	1.38744   	420.000000	1.45403   	420.000000	1.46855   	420.000000	1.43642   	420.000000	1.4537    	420.000000	0.000327503	
430.000000	1.37201   	430.000000	1.4384    	430.000000	1.45314   	430.000000	1.42101   	430.000000	1.43808   	430.000000	0.000320501	
440.000000	1.35727   	440.000000	1.4235    	440.000000	1.43847   	440.000000	1.40634   	440.000000	1.42318   	440.000000	0.000313804	
450.000000	1.34317   	450.000000	1.40927   	450.000000	1.42444   	450.000000	1.39234   	450.000000	1.40897   	450.000000	0.000307391	
460.000000	1.32969   	460.000000	1.39568   	460.000000	1.41099   	460.000000	1.37898   	460.000000	1.39538   	460.000000	0.000301246	
470.000000	1.31678   	470.000000	1.38268   	470.000000	1.39812   	470.000000	1.36621   	470.000000	1.38239   	470.000000	0.00029535	
480.000000	1.30441   	480.000000	1.37025   	480.000000	1.38584   	480.000000	1.354     	480.000000	1.36996   	480.000000	0.00028969	
490.000000	1.29255   	490.000000	1.35833   	490.000000	1.37413   	490.000000	1.34232   	490.000000	1.35805   	490.000000	0.00028425	
500.000000	1.28117   	500.000000	1.34692   	500.000000	1.36292   	500.000000	1.33113   	500.000000	1.34664   	500.000000	0.000279019	
520.000000	1.25974   	520.000000	1.32545   	520.000000	1.34177   	520.000000	1.31013   	520.000000	1.32518   	520.000000	0.000269135	
540.000000	1.23993   	540.000000	1.30566   	540.000000	1.32224   	540.000000	1.29079   	540.000000	1.3054    	540.000000	0.000259952	
560.000000	1.22157   	560.000000	1.28735   	560.000000	1.30426   	560.000000	1.27293   	560.000000	1.2871    	560.000000	0.000251397	
580.000000	1.20453   	580.000000	1.27039   	580.000000	1.28769   	580.000000	1.25641   	580.000000	1.27015   	580.000000	0.000243408	
600.000000	1.18868   	600.000000	1.25464   	600.000000	1.27227   	600.000000	1.24109   	600.000000	1.2544    	600.000000	0.000235929	
620.000000	1.17391   	620.000000	1.23999   	620.000000	1.25789   	620.000000	1.22686   	620.000000	1.23976   	620.000000	0.000228913	
640.000000	1.16012   	640.000000	1.22633   	640.000000	1.24451   	640.000000	1.21361   	640.000000	1.22611   	640.000000	0.000222316	
660.000000	1.14724   	660.000000	1.21359   	660.000000	1.23204   	660.000000	1.20126   	660.000000	1.21337   	660.000000	0.000216103	
680.000000	1.13517   	680.000000	1.20167   	680.000000	1.22039   	680.000000	1.18972   	680.000000	1.20146   	680.000000	0.00021024	
700.000000	1.12387   	700.000000	1.19052   	700.000000	1.20949   	700.000000	1.17893   	700.000000	1.19032   	700.000000	0.000204699	
720.000000	1.11326   	720.000000	1.18007   	720.000000	1.19928   	720.000000	1.16883   	720.000000	1.17987   	720.000000	0.000199452	
740.000000	1.1033    	740.000000	1.17026   	740.000000	1.18971   	740.000000	1.15935   	740.000000	1.17007   	740.000000	0.000194477	
760.000000	1.09393   	760.000000	1.16105   	760.000000	1.18072   	760.000000	1.15046   	760.000000	1.16086   	760.000000	0.000189754	
780.000000	1.08512   	780.000000	1.15239   	780.000000	1.17226   	780.000000	1.14209   	780.000000	1.1522    	780.000000	0.000185262	
800.000000	1.07682   	800.000000	1.14424   	800.000000	1.1643    	800.000000	1.13422   	800.000000	1.14405   	800.000000	0.000180986	
820.000000	1.069     	820.000000	1.13656   	820.000000	1.15682   	820.000000	1.12683   	820.000000	1.13638   	820.000000	0.00017691	
840.000000	1.06163   	840.000000	1.12932   	840.000000	1.14987   	840.000000	1.11996   	840.000000	1.12915   	840.000000	0.00017302	
860.000000	1.05467   	860.000000	1.12249   	860.000000	1.14331   	860.000000	1.11348   	860.000000	1.12232   	860.000000	0.000169304	
880.000000	1.04811   	880.000000	1.11605   	880.000000	1.13712   	880.000000	1.10735   	880.000000	1.11588   	880.000000	0.00016575	
900.000000	1.04191   	900.000000	1.10996   	900.000000	1.13126   	900.000000	1.10157   	900.000000	1.1098    	900.000000	0.000162347	
920.000000	1.03605   	920.000000	1.10421   	920.000000	1.12572   	920.000000	1.0961    	920.000000	1.10405   	920.000000	0.000159086	
940.000000	1.03051   	940.000000	1.09877   	940.000000	1.12047   	940.000000	1.09092   	940.000000	1.09862   	940.000000	0.000155958	
960.000000	1.02528   	960.000000	1.09363   	960.000000	1.11551   	960.000000	1.08601   	960.000000	1.09348   	960.000000	0.000152955	
980.000000	1.02034   	980.000000	1.08877   	980.000000	1.1108    	980.000000	1.08137   	980.000000	1.08862   	980.000000	0.00015007	
1000.000000	1.01566   	1000.000000	1.08417   	1000.000000	1.10633   	1000.000000	1.07696   	1000.000000	1.08402   	1000.000000	0.000147296	
1020.000000	1.01124   	1020.000000	1.07981   	1020.000000	1.1021    	1020.000000	1.07278   	1020.000000	1.07967   	1020.000000	0.000144626	
1040.000000	1.00706   	1040.000000	1.07569   	1040.000000	1.09808   	1040.000000	1.06881   	1040.000000	1.07555   	1040.000000	0.000142054	
1060.000000	1.00311   	1060.000000	1.07179   	1060.000000	1.09427   	1060.000000	1.06505   	1060.000000	1.07165   	1060.000000	0.000139576	
1080.000000	0.999376  	1080.000000	1.06809   	1080.000000	1.09064   	1080.000000	1.06147   	1080.000000	1.06795   	1080.000000	0.000137185	
1100.000000	0.995847  	1100.000000	1.06459   	1100.000000	1.08719   	1100.000000	1.05807   	1100.000000	1.06446   	1100.000000	0.000134878	
1120.000000	0.992513  	1120.000000	1.06128   	1120.000000	1.0839    	1120.000000	1.05484   	1120.000000	1.06115   	1120.000000	0.000132651	
1140.000000	0.989365  	1140.000000	1.05814   	1140.000000	1.08076   	1140.000000	1.05177   	1140.000000	1.05801   	1140.000000	0.000130498	
1160.000000	0.986394  	1160.000000	1.05517   	1160.000000	1.07776   	1160.000000	1.04885   	1160.000000	1.05505   	1160.000000	0.000128416	
1180.000000	0.983591  	1180.000000	1.05236   	1180.000000	1.07491   	1180.000000	1.04607   	1180.000000	1.05224   	1180.000000	0.000126402	
1200.000000	0.980948  	1200.000000	1.04971   	1200.000000	1.07221   	1200.000000	1.04343   	1200.000000	1.04958   	1200.000000	0.000124453	
1220.000000	0.978458  	1220.000000	1.04719   	1220.000000	1.06964   	1220.000000	1.04091   	1220.000000	1.04707   	1220.000000	0.000122565	
1240.000000	0.976114  	1240.000000	1.04482   	1240.000000	1.0672    	1240.000000	1.03851   	1240.000000	1.04469   	1240.000000	0.000120735	
1260.000000	0.97391   	1260.000000	1.04257   	1260.000000	1.06488   	1260.000000	1.03623   	1260.000000	1.04245   	1260.000000	0.000118962	
1280.000000	0.971839  	1280.000000	1.04045   	1280.000000	1.06267   	1280.000000	1.03406   	1280.000000	1.04033   	1280.000000	0.000117241	
1300.000000	0.969896  	1300.000000	1.03845   	1300.000000	1.06058   	1300.000000	1.03199   	1300.000000	1.03833   	1300.000000	0.000115571	
1320.000000	0.968075  	1320.000000	1.03656   	1320.000000	1.05858   	1320.000000	1.03002   	1320.000000	1.03644   	1320.000000	0.00011395	
1340.000000	0.966372  	1340.000000	1.03478   	1340.000000	1.05667   	1340.000000	1.02814   	1340.000000	1.03467   	1340.000000	0.000112375	
1360.000000	0.964781  	1360.000000	1.0331    	1360.000000	1.05486   	1360.000000	1.02636   	1360.000000	1.03299   	1360.000000	0.000110845	
1380.000000	0.963297  	1380.000000	1.03153   	1380.000000	1.05313   	1380.000000	1.02465   	1380.000000	1.03142   	1380.000000	0.000109358	
1400.000000	0.961918  	1400.000000	1.03005   	1400.000000	1.05147   	1400.000000	1.02303   	1400.000000	1.02994   	1400.000000	0.000107911	
1420.000000	0.960638  	1420.000000	1.02866   	1420.000000	1.0499    	1420.000000	1.02149   	1420.000000	1.02855   	1420.000000	0.000106503	
1440.000000	0.959454  	1440.000000	1.02736   	1440.000000	1.04839   	1440.000000	1.02002   	1440.000000	1.02725   	1440.000000	0.000105133	
1460.000000	0.958362  	1460.000000	1.02614   	1460.000000	1.04695   	1460.000000	1.01862   	1460.000000	1.02604   	1460.000000	0.000103799	
1480.000000	0.957358  	1480.000000	1.02501   	1480.000000	1.04558   	1480.000000	1.01729   	1480.000000	1.0249    	1480.000000	0.0001025 	
1500.000000	0.95644   	1500.000000	1.02395   	1500.000000	1.04427   	1500.000000	1.01602   	1500.000000	1.02385   	1500.000000	0.000101233	
1520.000000	0.955605  	1520.000000	1.02297   	1520.000000	1.04302   	1520.000000	1.01481   	1520.000000	1.02287   	1520.000000	9.99993e-05	
1540.000000	0.954848  	1540.000000	1.02205   	1540.000000	1.04183   	1540.000000	1.01366   	1540.000000	1.02196   	1540.000000	9.87959e-05	
1560.000000	0.954168  	1560.000000	1.02121   	1560.000000	1.0407    	1560.000000	1.01257   	1560.000000	1.02111   	1560.000000	9.76222e-05	
1580.000000	0.953562  	1580.000000	1.02043   	1580.000000	1.03963   	1580.000000	1.01153   	1580.000000	1.02034   	1580.000000	9.64771e-05	
1600.000000	0.953028  	1600.000000	1.01972   	1600.000000	1.03861   	1600.000000	1.01054   	1600.000000	1.01963   	1600.000000	9.53594e-05	
1620.000000	0.952562  	1620.000000	1.01907   	1620.000000	1.03764   	1620.000000	1.00961   	1620.000000	1.01898   	1620.000000	9.42683e-05	
1640.000000	0.952162  	1640.000000	1.01848   	1640.000000	1.03673   	1640.000000	1.00872   	1640.000000	1.01839   	1640.000000	9.32027e-05	
1660.000000	0.951828  	1660.000000	1.01795   	1660.000000	1.03586   	1660.000000	1.00787   	1660.000000	1.01785   	1660.000000	9.21618e-05	
1680.000000	0.951555  	1680.000000	1.01747   	1680.000000	1.03504   	1680.000000	1.00707   	1680.000000	1.01738   	1680.000000	9.11447e-05	
1700.000000	0.951343  	1700.000000	1.01704   	1700.000000	1.03426   	1700.000000	1.00631   	1700.000000	1.01695   	1700.000000	9.01506e-05	
1750.000000	0.951063  	1750.000000	1.0162    	1750.000000	1.03249   	1750.000000	1.00458   	1750.000000	1.01611   	1750.000000	8.77609e-05	
1800.000000	0.951121  	1800.000000	1.01565   	1800.000000	1.03095   	1800.000000	1.00308   	1800.000000	1.01557   	1800.000000	8.54989e-05	
1850.000000	0.951492  	1850.000000	1.01538   	1850.000000	1.02961   	1850.000000	1.00179   	1850.000000	1.01529   	1850.000000	8.33545e-05	
1900.000000	0.952152  	1900.000000	1.01535   	1900.000000	1.02845   	1900.000000	1.00068   	1900.000000	1.01527   	1900.000000	8.13186e-05	
1950.000000	0.953083  	1950.000000	1.01556   	1950.000000	1.02746   	1950.000000	0.999736  	1950.000000	1.01548   	1950.000000	7.93832e-05	
2000.000000	0.954265  	2000.000000	1.01598   	2000.000000	1.02663   	2000.000000	0.998949  	2000.000000	1.0159    	2000.000000	7.75408e-05	
2100.000000	0.957322  	2100.000000	1.0174    	2100.000000	1.02538   	2100.000000	0.997784  	2100.000000	1.01732   	2100.000000	7.41094e-05	
2200.000000	0.961207  	2200.000000	1.0195    	2200.000000	1.02461   	2200.000000	0.997087  	2200.000000	1.01943   	2200.000000	7.09783e-05	
2300.000000	0.965825  	2300.000000	1.02221   	2300.000000	1.02424   	2300.000000	0.996782  	2300.000000	1.02214   	2300.000000	6.81094e-05	
2400.000000	0.971097  	2400.000000	1.02543   	2400.000000	1.02419   	2400.000000	0.996808  	2400.000000	1.02537   	2400.000000	6.54707e-05	
2500.000000	0.976953  	2500.000000	1.02912   	2500.000000	1.02443   	2500.000000	0.997112  	2500.000000	1.02906   	2500.000000	6.30353e-05	
2600.000000	0.983338  	2600.000000	1.03321   	2600.000000	1.02491   	2600.000000	0.997651  	2600.000000	1.03315   	2600.000000	6.07803e-05	
2700.000000	0.9902    	2700.000000	1.03766   	2700.000000	1.02559   	2700.000000	0.99839   	2700.000000	1.0376    	2700.000000	5.86862e-05	
2800.000000	0.997498  	2800.000000	1.04243   	2800.000000	1.02645   	2800.000000	0.999298  	2800.000000	1.04238   	2800.000000	5.67361e-05	
2900.000000	1.00519   	2900.000000	1.04749   	2900.000000	1.02746   	2900.000000	1.00035   	2900.000000	1.04744   	2900.000000	5.49156e-05	
3000.000000	1.01326   	3000.000000	1.05281   	3000.000000	1.0286    	3000.000000	1.00152   	3000.000000	1.05276   	3000.000000	5.3212e-05	
3200.000000	1.03037   	3200.000000	1.06412   	3200.000000	1.03118   	3200.000000	1.00417   	3200.000000	1.06407   	3200.000000	5.01128e-05	
3400.000000	1.04865   	3400.000000	1.0762    	3400.000000	1.03408   	3400.000000	1.00712   	3400.000000	1.07615   	3400.000000	4.73653e-05	
3600.000000	1.06796   	3600.000000	1.08891   	3600.000000	1.0372    	3600.000000	1.01028   	3600.000000	1.08886   	3600.000000	4.49123e-05	
3800.000000	1.08816   	3800.000000	1.10215   	3800.000000	1.04047   	3800.000000	1.01358   	3800.000000	1.1021    	3800.000000	4.27083e-05	
4000.000000	1.10918   	4000.000000	1.11583   	4000.000000	1.04383   	4000.000000	1.01699   	4000.000000	1.11579   	4000.000000	4.07169e-05	
4200.000000	1.13092   	4200.000000	1.1299    	4200.000000	1.04727   	4200.000000	1.02046   	4200.000000	1.12986   	4200.000000	3.89085e-05	
4400.000000	1.15333   	4400.000000	1.14428   	4400.000000	1.05073   	4400.000000	1.02397   	4400.000000	1.14425   	4400.000000	3.72587e-05	
4600.000000	1.17636   	4600.000000	1.15895   	4600.000000	1.05421   	4600.000000	1.02749   	4600.000000	1.15891   	4600.000000	3.57473e-05	
4800.000000	1.19995   	4800.000000	1.17386   	4800.000000	1.05769   	4800.000000	1.03101   	4800.000000	1.17382   	4800.000000	3.43574e-05	
5000.000000	1.22408   	5000.000000	1.18897   	5000.000000	1.06115   	5000.000000	1.03451   	5000.000000	1.18894   	5000.000000	3.30748e-05	
5250.000000	1.25493   	5250.000000	1.20812   	5250.000000	1.06544   	5250.000000	1.03884   	5250.000000	1.20809   	5250.000000	3.16042e-05	
5500.000000	1.28652   	5500.000000	1.22751   	5500.000000	1.06968   	5500.000000	1.04312   	5500.000000	1.22748   	5500.000000	3.02627e-05	
6000.000000	1.35172   	6000.000000	1.26689   	6000.000000	1.07797   	6000.000000	1.05149   	6000.000000	1.26686   	6000.000000	2.79037e-05	
6500.000000	1.41939   	6500.000000	1.30687   	6500.000000	1.08597   	6500.000000	1.05955   	6500.000000	1.30684   	6500.000000	2.58956e-05	
7000.000000	1.48934   	7000.000000	1.3473    	7000.000000	1.09367   	7000.000000	1.0673    	7000.000000	1.34728   	7000.000000	2.41648e-05	
7500.000000	1.56142   	7500.000000	1.38808   	7500.000000	1.10106   	7500.000000	1.07473   	7500.000000	1.38806   	7500.000000	2.26572e-05	
8000.000000	1.63553   	8000.000000	1.42912   	8000.000000	1.1081    	8000.000000	1.08186   	8000.000000	1.4291    	8000.000000	2.13317e-05	
8500.000000	1.71158   	8500.000000	1.47035   	8500.000000	1.11485   	8500.000000	1.08869   	8500.000000	1.47033   	8500.000000	2.0157e-05	
9000.000000	1.78951   	9000.000000	1.51173   	9000.000000	1.12137   	9000.000000	1.09523   	9000.000000	1.51171   	9000.000000	1.91085e-05	
9500.000000	1.86926   	9500.000000	1.55322   	9500.000000	1.12761   	9500.000000	1.10152   	9500.000000	1.55321   	9500.000000	1.81667e-05	
10000.000000	1.9508    	10000.000000	1.5948    	10000.000000	1.13357   	10000.000000	1.10755   	10000.000000	1.59478   	10000.000000	1.7316e-05	
11000.000000	2.11909   	11000.000000	1.67811   	11000.000000	1.1448    	11000.000000	1.11893   	11000.000000	1.67809   	11000.000000	1.58392e-05	
12000.000000	2.29419   	12000.000000	1.76153   	12000.000000	1.15522   	12000.000000	1.12948   	12000.000000	1.76151   	12000.000000	1.46007e-05	
13000.000000	2.47596   	13000.000000	1.84498   	13000.000000	1.16492   	13000.000000	1.1393    	13000.000000	1.84496   	13000.000000	1.35467e-05	
14000.000000	2.66433   	14000.000000	1.92839   	14000.000000	1.17397   	14000.000000	1.14848   	14000.000000	1.92838   	14000.000000	1.26386e-05	
15000.000000	2.85922   	15000.000000	2.01174   	15000.000000	1.18243   	15000.000000	1.1571    	15000.000000	2.01173   	15000.000000	1.18476e-05	
16000.000000	3.06061   	16000.000000	2.09499   	16000.000000	1.19036   	16000.000000	1.1652    	16000.000000	2.09498   	16000.000000	1.11525e-05	
17000.000000	3.26847   	17000.000000	2.17813   	17000.000000	1.19783   	17000.000000	1.17285   	17000.000000	2.17812   	17000.000000	1.05365e-05	
18000.000000	3.48279   	18000.000000	2.26115   	18000.000000	1.20487   	18000.000000	1.18008   	18000.000000	2.26114   	18000.000000	9.98682e-06	
19000.000000	3.70356   	19000.000000	2.34403   	19000.000000	1.21154   	19000.000000	1.18695   	19000.000000	2.34402   	19000.000000	9.49316e-06	
20000.000000	3.9308    	20000.000000	2.42679   	20000.000000	1.21788   	20000.000000	1.19348   	20000.000000	2.42678   	20000.000000	9.04731e-06	
21000.000000	4.1645    	21000.000000	2.50941   	21000.000000	1.22391   	21000.000000	1.1997    	21000.000000	2.5094    	21000.000000	8.64258e-06	
22000.000000	4.40469   	22000.000000	2.59189   	22000.000000	1.22966   	22000.000000	1.20564   	22000.000000	2.59188   	22000.000000	8.27349e-06	
23000.000000	4.65138   	23000.000000	2.67423   	23000.000000	1.23512   	23000.000000	1.21133   	23000.000000	2.67423   	23000.000000	7.93548e-06	
24000.000000	4.90459   	24000.000000	2.75644   	24000.000000	1.24032   	24000.000000	1.21678   	24000.000000	2.75644   	24000.000000	7.62476e-06	
25000.000000	5.16434   	25000.000000	2.83852   	25000.000000	1.2453    	25000.000000	1.22201   	25000.000000	2.83851   	25000.000000	7.33811e-06	
26000.000000	5.43066   	26000.000000	2.92047   	26000.000000	1.2501    	26000.000000	1.22704   	26000.000000	2.92046   	26000.000000	7.07282e-06	
27000.000000	5.70357   	27000.000000	3.00228   	27000.000000	1.25471   	27000.000000	1.23188   	27000.000000	3.00227   	27000.000000	6.82656e-06	
28000.000000	5.9831    	28000.000000	3.08397   	28000.000000	1.25914   	28000.000000	1.23655   	28000.000000	3.08396   	28000.000000	6.59735e-06	
29000.000000	6.26928   	29000.000000	3.16554   	29000.000000	1.2634    	29000.000000	1.24105   	29000.000000	3.16553   	29000.000000	6.38345e-06	
30000.000000	6.56213   	30000.000000	3.24698   	30000.000000	1.26748   	30000.000000	1.24541   	30000.000000	3.24697   	30000.000000	6.18336e-06	
32000.000000	7.16799   	32000.000000	3.40951   	32000.000000	1.27521   	32000.000000	1.25369   	32000.000000	3.4095    	32000.000000	5.81955e-06	
34000.000000	7.80093   	34000.000000	3.57158   	34000.000000	1.2824    	34000.000000	1.26147   	34000.000000	3.57158   	34000.000000	5.49726e-06	
36000.000000	8.46122   	36000.000000	3.73322   	36000.000000	1.28911   	36000.000000	1.26881   	36000.000000	3.73322   	36000.000000	5.20969e-06	
38000.000000	9.14913   	38000.000000	3.89445   	38000.000000	1.29539   	38000.000000	1.27574   	38000.000000	3.89444   	38000.000000	4.95148e-06	
40000.000000	9.86495   	40000.000000	4.05527   	40000.000000	1.30129   	40000.000000	1.28232   	40000.000000	4.05526   	40000.000000	4.71831e-06	
42000.000000	10.609    	42000.000000	4.21571   	42000.000000	1.30685   	42000.000000	1.28857   	42000.000000	4.21571   	42000.000000	4.50667e-06	
44000.000000	11.3814   	44000.000000	4.37579   	44000.000000	1.31211   	44000.000000	1.29453   	44000.000000	4.37578   	44000.000000	4.3137e-06	
46000.000000	12.1827   	46000.000000	4.53551   	46000.000000	1.3171    	46000.000000	1.30022   	46000.000000	4.53551   	46000.000000	4.137e-06 	
48000.000000	13.0131   	48000.000000	4.6949    	48000.000000	1.32184   	48000.000000	1.30566   	48000.000000	4.6949    	48000.000000	3.97459e-06	
50000.000000	13.8728   	50000.000000	4.85397   	50000.000000	1.32633   	50000.000000	1.31088   	50000.000000	4.85396   	50000.000000	3.82478e-06	
