Energy (MeV/u)1	0 - [He-base] F.Hubert et al, AD&ND Tables 46(1990)1	Energy (MeV/u)2	1 - [H -base] J.F.Ziegler et al, Pergamon Press, NY (low energy)	Energy (MeV/u)3	2 - ATIMA 1.2  LS-theory (recommended for high energy)	Energy (MeV/u)4	3 - ATIMA 1.2  without LS-correction	Energy (MeV/u)5	4 - electrical component of [1] - J.F.Ziegler et al	Energy (MeV/u)6	5 - nuclear component of [1] - J.F.Ziegler et al	
0.001000	2.4249    	0.001000	1.4124    	0.001000	1.56965   	0.001000	1.56965   	0.001000	0.677474  	0.001000	0.734921  	
0.002000	2.57686   	0.002000	1.49061   	0.002000	1.67594   	0.002000	1.67594   	0.002000	0.878576  	0.002000	0.612038  	
0.005000	3.00971   	0.005000	1.65596   	0.005000	1.8833    	0.005000	1.8833    	0.005000	1.23882   	0.005000	0.417148  	
0.008000	3.37794   	0.008000	1.80236   	0.008000	2.05308   	0.008000	2.05308   	0.008000	1.47758   	0.008000	0.324778  	
0.010000	3.59383   	0.010000	1.89187   	0.010000	2.15402   	0.010000	2.15402   	0.010000	1.60655   	0.010000	0.285329  	
0.015000	4.23827   	0.015000	2.16022   	0.015000	2.4201    	0.015000	2.4201    	0.015000	1.93813   	0.015000	0.222087  	
0.020000	4.79926   	0.020000	2.66991   	0.020000	2.83497   	0.020000	2.83497   	0.020000	2.48595   	0.020000	0.183961  	
0.025000	5.42215   	0.025000	3.18046   	0.025000	3.25285   	0.025000	3.25285   	0.025000	3.02235   	0.025000	0.158113  	
0.030000	5.95747   	0.030000	3.67856   	0.030000	3.62121   	0.030000	3.62121   	0.030000	3.53928   	0.030000	0.139277  	
0.035000	6.26889   	0.035000	4.09106   	0.035000	3.96845   	0.035000	3.96845   	0.035000	3.96735   	0.035000	0.123704  	
0.040000	6.50542   	0.040000	4.42509   	0.040000	4.29568   	0.040000	4.29568   	0.040000	4.31269   	0.040000	0.112399  	
0.045000	6.67185   	0.045000	4.72652   	0.045000	4.60089   	0.045000	4.60089   	0.045000	4.62335   	0.045000	0.10317   	
0.050000	6.77355   	0.050000	4.99605   	0.050000	4.88389   	0.050000	4.88389   	0.050000	4.90057   	0.050000	0.0954777 	
0.055000	7.02903   	0.055000	5.23507   	0.055000	5.14491   	0.055000	5.14491   	0.055000	5.14612   	0.055000	0.0889563 	
0.060000	7.24559   	0.060000	5.44549   	0.060000	5.38449   	0.060000	5.38449   	0.060000	5.36214   	0.060000	0.0833496 	
0.070000	7.58602   	0.070000	5.78964   	0.070000	5.8026    	0.070000	5.8026    	0.070000	5.71545   	0.070000	0.0741854 	
0.080000	8.0429    	0.080000	6.11019   	0.080000	6.1464    	0.080000	6.1464    	0.080000	6.0432    	0.080000	0.0669912 	
0.090000	8.40647   	0.090000	6.36092   	0.090000	6.42542   	0.090000	6.42542   	0.090000	6.29974   	0.090000	0.0611777 	
0.100000	8.69888   	0.100000	6.5508    	0.100000	6.64941   	0.100000	6.64941   	0.100000	6.49443   	0.100000	0.0563723 	
0.120000	8.92689   	0.120000	6.80338   	0.120000	6.96817   	0.120000	6.96817   	0.120000	6.75451   	0.120000	0.0488693 	
0.140000	9.06032   	0.140000	6.95148   	0.140000	7.16418   	0.140000	7.16418   	0.140000	6.90822   	0.140000	0.0432594 	
0.160000	9.16491   	0.160000	7.04321   	0.160000	7.28171   	0.160000	7.28171   	0.160000	7.00432   	0.160000	0.0388914 	
0.180000	9.26941   	0.180000	7.10434   	0.180000	7.35032   	0.180000	7.35032   	0.180000	7.06896   	0.180000	0.0353852 	
0.200000	9.38371   	0.200000	7.14825   	0.200000	7.3889    	0.200000	7.3889    	0.200000	7.11574   	0.200000	0.0325028 	
0.250000	9.43197   	0.250000	7.23898   	0.250000	7.42019   	0.250000	7.42019   	0.250000	7.21187   	0.250000	0.027114  	
0.300000	9.53493   	0.300000	7.32256   	0.300000	7.41381   	0.300000	7.41381   	0.300000	7.29921   	0.300000	0.023352  	
0.350000	9.61013   	0.350000	7.36499   	0.350000	7.39396   	0.350000	7.39396   	0.350000	7.34442   	0.350000	0.0205645 	
0.400000	9.65397   	0.400000	7.37807   	0.400000	7.3666    	0.400000	7.3666    	0.400000	7.35966   	0.400000	0.0184098 	
0.450000	9.70457   	0.450000	7.39974   	0.450000	7.35947   	0.450000	7.35947   	0.450000	7.38305   	0.450000	0.0166902 	
0.500000	9.71619   	0.500000	7.3962    	0.500000	7.38074   	0.500000	7.38074   	0.500000	7.38092   	0.500000	0.0152837 	
0.600000	9.36734   	0.600000	7.36556   	0.600000	7.36506   	0.600000	7.36506   	0.600000	7.35245   	0.600000	0.0131149 	
0.700000	8.94347   	0.700000	7.29026   	0.700000	7.29461   	0.700000	7.29461   	0.700000	7.27875   	0.700000	0.0115156 	
0.800000	8.83356   	0.800000	7.19535   	0.800000	7.17039   	0.800000	7.17039   	0.800000	7.18506   	0.800000	0.0102841 	
0.900000	8.68544   	0.900000	7.07718   	0.900000	7.03532   	0.900000	7.03532   	0.900000	7.06788   	0.900000	0.00930438	
1.000000	8.51468   	1.000000	6.94581   	1.000000	6.89486   	1.000000	6.89486   	1.000000	6.93731   	1.000000	0.00850518	
1.250000	8.02751   	1.250000	6.59616   	1.250000	6.54039   	1.250000	6.54039   	1.250000	6.58913   	1.250000	0.00702649	
1.500000	7.5406    	1.500000	6.25024   	1.500000	6.16724   	1.500000	6.16724   	1.500000	6.24423   	1.500000	0.0060068 	
1.750000	7.08318   	1.750000	5.92548   	1.750000	5.83853   	1.750000	5.83853   	1.750000	5.92022   	1.750000	0.0052584 	
2.000000	6.64776   	2.000000	5.61288   	2.000000	5.5451    	2.000000	5.5451    	2.000000	5.6082    	2.000000	0.00468426	
2.250000	6.26801   	2.250000	5.3321    	2.250000	5.28099   	2.250000	5.28099   	2.250000	5.32787   	2.250000	0.00422899	
2.500000	6.03826   	2.500000	5.07959   	2.500000	5.04186   	2.500000	5.04186   	2.500000	5.07574   	2.500000	0.00385858	
3.000000	5.42973   	3.000000	4.62892   	3.000000	4.62557   	3.000000	4.62557   	3.000000	4.62563   	3.000000	0.00329118	
3.500000	4.93667   	3.500000	4.25906   	3.500000	4.27566   	3.500000	4.27566   	3.500000	4.25619   	3.500000	0.00287587	
4.000000	4.52947   	4.000000	3.95277   	4.000000	3.97759   	4.000000	3.97759   	4.000000	3.95022   	4.000000	0.00255796	
4.500000	4.18754   	4.500000	3.69318   	4.500000	3.7207    	4.500000	3.7207    	4.500000	3.69088   	4.500000	0.00230635	
5.000000	3.89631   	5.000000	3.46898   	5.000000	3.49701   	5.000000	3.49701   	5.000000	3.46688   	5.000000	0.00210196	
5.500000	3.6452    	5.500000	3.27334   	5.500000	3.30045   	5.500000	3.30045   	5.500000	3.27141   	5.500000	0.00193245	
6.000000	3.4264    	6.000000	3.10092   	6.000000	3.12632   	6.000000	3.12632   	6.000000	3.09913   	6.000000	0.00178948	
6.500000	3.23397   	6.500000	2.94756   	6.500000	2.97095   	6.500000	2.97095   	6.500000	2.94589   	6.500000	0.00166716	
7.000000	3.06338   	7.000000	2.81011   	7.000000	2.83143   	7.000000	2.83143   	7.000000	2.80855   	7.000000	0.00156127	
7.500000	2.91106   	7.500000	2.68611   	7.500000	2.70541   	7.500000	2.70541   	7.500000	2.68464   	7.500000	0.00146864	
8.000000	2.77418   	8.000000	2.57361   	8.000000	2.59099   	8.000000	2.59099   	8.000000	2.57222   	8.000000	0.0013869 	
8.500000	2.65049   	8.500000	2.47102   	8.500000	2.48661   	8.500000	2.48661   	8.500000	2.4697    	8.500000	0.0013142 	
9.000000	2.53814   	9.000000	2.37704   	9.000000	2.39099   	9.000000	2.39099   	9.000000	2.37579   	9.000000	0.0012491 	
9.500000	2.43561   	9.500000	2.29062   	9.500000	2.30304   	9.500000	2.30304   	9.500000	2.28943   	9.500000	0.00119045	
10.000000	2.34167   	10.000000	2.22079   	10.000000	2.22186   	10.000000	2.22186   	10.000000	2.21966   	10.000000	0.00113731	
11.000000	2.17547   	11.000000	2.07642   	11.000000	2.07333   	11.000000	2.07619   	11.000000	2.07537   	11.000000	0.00104471	
12.000000	2.03297   	12.000000	1.95019   	12.000000	1.94421   	12.000000	1.94903   	12.000000	1.94923   	12.000000	0.000966685	
13.000000	1.90938   	13.000000	1.83899   	13.000000	1.83087   	13.000000	1.83701   	13.000000	1.83809   	13.000000	0.000899993	
14.000000	1.80111   	14.000000	1.74035   	14.000000	1.73055   	14.000000	1.73755   	14.000000	1.7395    	14.000000	0.000842301	
15.000000	1.70545   	15.000000	1.65227   	15.000000	1.64107   	15.000000	1.64862   	15.000000	1.65148   	15.000000	0.000791877	
16.000000	1.62028   	16.000000	1.57318   	16.000000	1.56073   	16.000000	1.56861   	16.000000	1.57243   	16.000000	0.000747408	
17.000000	1.54395   	17.000000	1.50177   	17.000000	1.48817   	17.000000	1.49622   	17.000000	1.50106   	17.000000	0.000707885	
18.000000	1.47512   	18.000000	1.43699   	18.000000	1.42232   	18.000000	1.43039   	18.000000	1.43632   	18.000000	0.000672513	
19.000000	1.41274   	19.000000	1.37796   	19.000000	1.36226   	19.000000	1.37027   	19.000000	1.37732   	19.000000	0.000640662	
20.000000	1.35591   	20.000000	1.32394   	20.000000	1.30723   	20.000000	1.31512   	20.000000	1.32333   	20.000000	0.000611823	
21.000000	1.30393   	21.000000	1.27434   	21.000000	1.25659   	21.000000	1.26436   	21.000000	1.27375   	21.000000	0.000585583	
22.000000	1.25618   	22.000000	1.22862   	22.000000	1.20986   	22.000000	1.21746   	22.000000	1.22806   	22.000000	0.000561599	
23.000000	1.21216   	23.000000	1.18635   	23.000000	1.16661   	23.000000	1.17401   	23.000000	1.18581   	23.000000	0.000539589	
24.000000	1.17145   	24.000000	1.14715   	24.000000	1.12649   	24.000000	1.13364   	24.000000	1.14663   	24.000000	0.000519315	
25.000000	1.13367   	25.000000	1.11071   	25.000000	1.08916   	25.000000	1.09602   	25.000000	1.1102    	25.000000	0.000500576	
27.000000	1.06574   	27.000000	1.04497   	27.000000	1.02172   	27.000000	1.02799   	27.000000	1.0445    	27.000000	0.000467047	
29.000000	1.00633   	29.000000	0.987303  	29.000000	0.962417  	29.000000	0.968132  	29.000000	0.986866  	29.000000	0.000437906	
31.000000	0.953914  	31.000000	0.936305  	31.000000	0.911786  	31.000000	0.91674   	31.000000	0.935893  	31.000000	0.000412333	
33.000000	0.907308  	33.000000	0.890873  	33.000000	0.868417  	33.000000	0.87254   	33.000000	0.890483  	33.000000	0.000389703	
35.000000	0.865582  	35.000000	0.850137  	35.000000	0.829529  	35.000000	0.83293   	35.000000	0.849768  	35.000000	0.000369528	
38.000000	0.810561  	38.000000	0.796349  	38.000000	0.778182  	38.000000	0.780642  	38.000000	0.796006  	38.000000	0.00034305	
41.000000	0.762958  	41.000000	0.749759  	41.000000	0.733568  	41.000000	0.735351  	41.000000	0.749439  	41.000000	0.000320258	
44.000000	0.721345  	44.000000	0.709     	44.000000	0.694467  	44.000000	0.695718  	44.000000	0.7087    	44.000000	0.000300421	
47.000000	0.684638  	47.000000	0.673033  	47.000000	0.659951  	47.000000	0.660727  	47.000000	0.67275   	47.000000	0.000282993	
50.000000	0.652005  	50.000000	0.641052  	50.000000	0.629162  	50.000000	0.629595  	50.000000	0.640785  	50.000000	0.000267555	
55.000000	0.604953  	55.000000	0.594945  	55.000000	0.584649  	55.000000	0.58467   	55.000000	0.594699  	55.000000	0.00024539	
60.000000	0.565186  	60.000000	0.555993  	60.000000	0.546983  	60.000000	0.54667   	60.000000	0.555766  	60.000000	0.000226747	
65.000000	0.531105  	65.000000	0.522637  	65.000000	0.514681  	65.000000	0.514085  	65.000000	0.522426  	65.000000	0.000210839	
70.000000	0.50155   	70.000000	0.493739  	70.000000	0.486575  	70.000000	0.485819  	70.000000	0.493542  	70.000000	0.000197098	
75.000000	0.47566   	75.000000	0.468454  	75.000000	0.461989  	75.000000	0.461056  	75.000000	0.468268  	75.000000	0.000185103	
80.000000	0.45278   	80.000000	0.446136  	80.000000	0.440203  	80.000000	0.439174  	80.000000	0.445962  	80.000000	0.000174539	
85.000000	0.432404  	85.000000	0.426289  	85.000000	0.420796  	85.000000	0.419692  	85.000000	0.426124  	85.000000	0.000165161	
90.000000	0.414133  	90.000000	0.408519  	90.000000	0.403398  	90.000000	0.40223   	90.000000	0.408362  	90.000000	0.000156776	
95.000000	0.39765   	95.000000	0.392512  	95.000000	0.387709  	95.000000	0.386487  	95.000000	0.392363  	95.000000	0.000149234	
100.000000	0.3827    	100.000000	0.378018  	100.000000	0.373487  	100.000000	0.372217  	100.000000	0.377876  	100.000000	0.000142411	
105.000000	0.369073  	105.000000	0.364829  	105.000000	0.360531  	105.000000	0.359222  	105.000000	0.364692  	105.000000	0.000136208	
110.000000	0.356598  	110.000000	0.352774  	110.000000	0.34868   	110.000000	0.347336  	110.000000	0.352644  	110.000000	0.000130544	
115.000000	0.345131  	115.000000	0.341713  	115.000000	0.337795  	115.000000	0.336421  	115.000000	0.341588  	115.000000	0.000125349	
120.000000	0.334551  	120.000000	0.331526  	120.000000	0.327768  	120.000000	0.326363  	120.000000	0.331406  	120.000000	0.000120568	
125.000000	0.324757  	125.000000	0.322113  	125.000000	0.318481  	125.000000	0.317063  	125.000000	0.321997  	125.000000	0.000116152	
130.000000	0.315663  	130.000000	0.313389  	130.000000	0.309842  	130.000000	0.308439  	130.000000	0.313277  	130.000000	0.00011206	
135.000000	0.307193  	135.000000	0.305279  	135.000000	0.301836  	135.000000	0.300419  	135.000000	0.305171  	135.000000	0.000108258	
140.000000	0.299285  	140.000000	0.297721  	140.000000	0.294383  	140.000000	0.292941  	140.000000	0.297616  	140.000000	0.000104715	
145.000000	0.291883  	145.000000	0.290659  	145.000000	0.2874    	145.000000	0.285952  	145.000000	0.290558  	145.000000	0.000101406	
150.000000	0.284939  	150.000000	0.284047  	150.000000	0.280838  	150.000000	0.279405  	150.000000	0.283949  	150.000000	9.83073e-05	
155.000000	0.275159  	155.000000	0.277842  	155.000000	0.2747    	155.000000	0.27326   	155.000000	0.277747  	155.000000	9.53996e-05	
160.000000	0.269428  	160.000000	0.272008  	160.000000	0.268929  	160.000000	0.26748   	160.000000	0.271916  	160.000000	9.26655e-05	
165.000000	0.264022  	165.000000	0.266513  	165.000000	0.263468  	165.000000	0.262035  	165.000000	0.266423  	165.000000	9.00898e-05	
170.000000	0.258916  	170.000000	0.261327  	170.000000	0.258329  	170.000000	0.256895  	170.000000	0.261239  	170.000000	8.76588e-05	
175.000000	0.254085  	175.000000	0.256425  	175.000000	0.25348   	175.000000	0.252036  	175.000000	0.256339  	175.000000	8.53606e-05	
180.000000	0.249506  	180.000000	0.251784  	180.000000	0.248873  	180.000000	0.247435  	180.000000	0.251701  	180.000000	8.31844e-05	
185.000000	0.24516   	185.000000	0.247384  	185.000000	0.244494  	185.000000	0.243073  	185.000000	0.247303  	185.000000	8.11206e-05	
190.000000	0.241029  	190.000000	0.243207  	190.000000	0.240339  	190.000000	0.238931  	190.000000	0.243128  	190.000000	7.91607e-05	
195.000000	0.237099  	195.000000	0.239236  	195.000000	0.236401  	195.000000	0.234993  	195.000000	0.239158  	195.000000	7.72968e-05	
200.000000	0.233353  	200.000000	0.235456  	200.000000	0.232661  	200.000000	0.231245  	200.000000	0.23538   	200.000000	7.55221e-05	
210.000000	0.226368  	210.000000	0.228417  	210.000000	0.225669  	210.000000	0.224266  	210.000000	0.228345  	210.000000	7.22152e-05	
220.000000	0.219984  	220.000000	0.221997  	220.000000	0.21928   	220.000000	0.2179    	220.000000	0.221928  	220.000000	6.9196e-05	
230.000000	0.214125  	230.000000	0.216117  	230.000000	0.213458  	230.000000	0.212071  	230.000000	0.216051  	230.000000	6.64282e-05	
240.000000	0.20873   	240.000000	0.210713  	240.000000	0.208093  	240.000000	0.206715  	240.000000	0.210649  	240.000000	6.38813e-05	
250.000000	0.203745  	250.000000	0.205729  	250.000000	0.203137  	250.000000	0.201777  	250.000000	0.205668  	250.000000	6.15294e-05	
260.000000	0.199124  	260.000000	0.201119  	260.000000	0.198554  	260.000000	0.197211  	260.000000	0.20106   	260.000000	5.93508e-05	
270.000000	0.19483   	270.000000	0.196842  	270.000000	0.19431   	270.000000	0.192977  	270.000000	0.196785  	270.000000	5.73267e-05	
280.000000	0.190829  	280.000000	0.192864  	280.000000	0.190379  	280.000000	0.18904   	280.000000	0.192808  	280.000000	5.54411e-05	
290.000000	0.187091  	290.000000	0.189154  	290.000000	0.1867    	290.000000	0.185371  	290.000000	0.189101  	290.000000	5.368e-05 	
300.000000	0.183592  	300.000000	0.185688  	300.000000	0.183258  	300.000000	0.181945  	300.000000	0.185636  	300.000000	5.20315e-05	
310.000000	0.18031   	310.000000	0.182442  	310.000000	0.18004   	310.000000	0.178738  	310.000000	0.182391  	310.000000	5.04848e-05	
320.000000	0.177225  	320.000000	0.179396  	320.000000	0.177022  	320.000000	0.17573   	320.000000	0.179347  	320.000000	4.90307e-05	
330.000000	0.17432   	330.000000	0.176532  	330.000000	0.174183  	330.000000	0.172905  	330.000000	0.176485  	330.000000	4.76611e-05	
340.000000	0.17158   	340.000000	0.173836  	340.000000	0.171517  	340.000000	0.170246  	340.000000	0.17379   	340.000000	4.63686e-05	
350.000000	0.168992  	350.000000	0.171293  	350.000000	0.169015  	350.000000	0.16774   	350.000000	0.171247  	350.000000	4.5147e-05	
360.000000	0.166543  	360.000000	0.16889   	360.000000	0.166648  	360.000000	0.165374  	360.000000	0.168846  	360.000000	4.39903e-05	
370.000000	0.164223  	370.000000	0.166617  	370.000000	0.164401  	370.000000	0.163138  	370.000000	0.166574  	370.000000	4.28937e-05	
380.000000	0.162022  	380.000000	0.164464  	380.000000	0.162273  	380.000000	0.161021  	380.000000	0.164422  	380.000000	4.18523e-05	
390.000000	0.159932  	390.000000	0.162422  	390.000000	0.160259  	390.000000	0.159014  	390.000000	0.162381  	390.000000	4.08621e-05	
400.000000	0.157944  	400.000000	0.160483  	400.000000	0.158347  	400.000000	0.15711   	400.000000	0.160443  	400.000000	3.99194e-05	
410.000000	0.156051  	410.000000	0.158639  	410.000000	0.15653   	410.000000	0.155301  	410.000000	0.1586    	410.000000	3.90208e-05	
420.000000	0.154247  	420.000000	0.156884  	420.000000	0.154802  	420.000000	0.153581  	420.000000	0.156846  	420.000000	3.81632e-05	
430.000000	0.152526  	430.000000	0.155212  	430.000000	0.153157  	430.000000	0.151943  	430.000000	0.155175  	430.000000	3.73438e-05	
440.000000	0.150883  	440.000000	0.153618  	440.000000	0.15159   	440.000000	0.150382  	440.000000	0.153581  	440.000000	3.65602e-05	
450.000000	0.149313  	450.000000	0.152096  	450.000000	0.150095  	450.000000	0.148894  	450.000000	0.15206   	450.000000	3.58099e-05	
460.000000	0.14781   	460.000000	0.150641  	460.000000	0.148665  	460.000000	0.147472  	460.000000	0.150606  	460.000000	3.50909e-05	
470.000000	0.146372  	470.000000	0.149251  	470.000000	0.1473    	470.000000	0.146114  	470.000000	0.149216  	470.000000	3.44013e-05	
480.000000	0.144994  	480.000000	0.14792   	480.000000	0.145999  	480.000000	0.144815  	480.000000	0.147886  	480.000000	3.37393e-05	
490.000000	0.143672  	490.000000	0.146645  	490.000000	0.144758  	490.000000	0.143572  	490.000000	0.146612  	490.000000	3.31031e-05	
500.000000	0.142405  	500.000000	0.145423  	500.000000	0.143569  	500.000000	0.142381  	500.000000	0.145391  	500.000000	3.24914e-05	
520.000000	0.140017  	520.000000	0.143126  	520.000000	0.141324  	520.000000	0.140145  	520.000000	0.143095  	520.000000	3.13357e-05	
540.000000	0.137811  	540.000000	0.141008  	540.000000	0.139253  	540.000000	0.138086  	540.000000	0.140978  	540.000000	3.02621e-05	
560.000000	0.135768  	560.000000	0.139049  	560.000000	0.137343  	560.000000	0.136184  	560.000000	0.13902   	560.000000	2.92622e-05	
580.000000	0.133871  	580.000000	0.137235  	580.000000	0.135574  	580.000000	0.134424  	580.000000	0.137206  	580.000000	2.83285e-05	
600.000000	0.132106  	600.000000	0.135549  	600.000000	0.133933  	600.000000	0.132792  	600.000000	0.135522  	600.000000	2.74546e-05	
620.000000	0.130462  	620.000000	0.133981  	620.000000	0.132408  	620.000000	0.131275  	620.000000	0.133955  	620.000000	2.66349e-05	
640.000000	0.128927  	640.000000	0.13252   	640.000000	0.130988  	640.000000	0.129863  	640.000000	0.132495  	640.000000	2.58643e-05	
660.000000	0.127493  	660.000000	0.131157  	660.000000	0.129664  	660.000000	0.128545  	660.000000	0.131132  	660.000000	2.51386e-05	
680.000000	0.126151  	680.000000	0.129882  	680.000000	0.128427  	680.000000	0.127315  	680.000000	0.129857  	680.000000	2.44539e-05	
700.000000	0.124893  	700.000000	0.128689  	700.000000	0.127269  	700.000000	0.126163  	700.000000	0.128665  	700.000000	2.38068e-05	
720.000000	0.123713  	720.000000	0.12757   	720.000000	0.126185  	720.000000	0.125085  	720.000000	0.127547  	720.000000	2.31943e-05	
740.000000	0.122605  	740.000000	0.126521  	740.000000	0.125167  	740.000000	0.124073  	740.000000	0.126498  	740.000000	2.26135e-05	
760.000000	0.121563  	760.000000	0.125535  	760.000000	0.124211  	760.000000	0.123122  	760.000000	0.125513  	760.000000	2.20621e-05	
780.000000	0.120583  	780.000000	0.124608  	780.000000	0.123312  	780.000000	0.122228  	780.000000	0.124587  	780.000000	2.15379e-05	
800.000000	0.119659  	800.000000	0.123736  	800.000000	0.122466  	800.000000	0.121386  	800.000000	0.123715  	800.000000	2.10389e-05	
820.000000	0.11879   	820.000000	0.122915  	820.000000	0.121672  	820.000000	0.120597  	820.000000	0.122894  	820.000000	2.05632e-05	
840.000000	0.117969  	840.000000	0.12214   	840.000000	0.120942  	840.000000	0.119871  	840.000000	0.12212   	840.000000	2.01094e-05	
860.000000	0.117196  	860.000000	0.12141   	860.000000	0.120252  	860.000000	0.119186  	860.000000	0.12139   	860.000000	1.96758e-05	
880.000000	0.116465  	880.000000	0.120721  	880.000000	0.119601  	880.000000	0.118539  	880.000000	0.120701  	880.000000	1.92611e-05	
900.000000	0.115776  	900.000000	0.120069  	900.000000	0.118985  	900.000000	0.117927  	900.000000	0.120051  	900.000000	1.88642e-05	
920.000000	0.115124  	920.000000	0.119454  	920.000000	0.118402  	920.000000	0.117347  	920.000000	0.119436  	920.000000	1.84839e-05	
940.000000	0.114509  	940.000000	0.118873  	940.000000	0.11785   	940.000000	0.116799  	940.000000	0.118855  	940.000000	1.81191e-05	
960.000000	0.113927  	960.000000	0.118323  	960.000000	0.117328  	960.000000	0.11628   	960.000000	0.118305  	960.000000	1.77689e-05	
980.000000	0.113377  	980.000000	0.117803  	980.000000	0.116832  	980.000000	0.115787  	980.000000	0.117786  	980.000000	1.74325e-05	
1000.000000	0.112857  	1000.000000	0.117311  	1000.000000	0.116362  	1000.000000	0.11532   	1000.000000	0.117294  	1000.000000	1.7109e-05	
1020.000000	0.112366  	1020.000000	0.116845  	1020.000000	0.115916  	1020.000000	0.114877  	1020.000000	0.116828  	1020.000000	1.67977e-05	
1040.000000	0.111901  	1040.000000	0.116404  	1040.000000	0.115492  	1040.000000	0.114456  	1040.000000	0.116388  	1040.000000	1.6498e-05	
1060.000000	0.111462  	1060.000000	0.115987  	1060.000000	0.115089  	1060.000000	0.114056  	1060.000000	0.115971  	1060.000000	1.62091e-05	
1080.000000	0.111046  	1080.000000	0.115592  	1080.000000	0.114707  	1080.000000	0.113676  	1080.000000	0.115576  	1080.000000	1.59304e-05	
1100.000000	0.110654  	1100.000000	0.115217  	1100.000000	0.114343  	1100.000000	0.113315  	1100.000000	0.115202  	1100.000000	1.56616e-05	
1120.000000	0.110283  	1120.000000	0.114863  	1120.000000	0.113997  	1120.000000	0.112972  	1120.000000	0.114848  	1120.000000	1.54019e-05	
1140.000000	0.109933  	1140.000000	0.114528  	1140.000000	0.113668  	1140.000000	0.112645  	1140.000000	0.114513  	1140.000000	1.51511e-05	
1160.000000	0.109603  	1160.000000	0.11421   	1160.000000	0.113355  	1160.000000	0.112334  	1160.000000	0.114196  	1160.000000	1.49085e-05	
1180.000000	0.109291  	1180.000000	0.11391   	1180.000000	0.113056  	1180.000000	0.112038  	1180.000000	0.113895  	1180.000000	1.46739e-05	
1200.000000	0.108997  	1200.000000	0.113626  	1200.000000	0.112772  	1200.000000	0.111756  	1200.000000	0.113612  	1200.000000	1.44468e-05	
1220.000000	0.108721  	1220.000000	0.113357  	1220.000000	0.112502  	1220.000000	0.111487  	1220.000000	0.113343  	1220.000000	1.42268e-05	
1240.000000	0.10846   	1240.000000	0.113103  	1240.000000	0.112244  	1240.000000	0.111231  	1240.000000	0.113089  	1240.000000	1.40137e-05	
1260.000000	0.108215  	1260.000000	0.112863  	1260.000000	0.111998  	1260.000000	0.110988  	1260.000000	0.11285   	1260.000000	1.38071e-05	
1280.000000	0.107985  	1280.000000	0.112637  	1280.000000	0.111764  	1280.000000	0.110756  	1280.000000	0.112623  	1280.000000	1.36066e-05	
1300.000000	0.107769  	1300.000000	0.112423  	1300.000000	0.111541  	1300.000000	0.110534  	1300.000000	0.11241   	1300.000000	1.34122e-05	
1320.000000	0.107566  	1320.000000	0.112221  	1320.000000	0.111328  	1320.000000	0.110323  	1320.000000	0.112208  	1320.000000	1.32234e-05	
1340.000000	0.107377  	1340.000000	0.112031  	1340.000000	0.111126  	1340.000000	0.110122  	1340.000000	0.112018  	1340.000000	1.304e-05 	
1360.000000	0.1072    	1360.000000	0.111852  	1360.000000	0.110932  	1360.000000	0.10993   	1360.000000	0.11184   	1360.000000	1.28618e-05	
1380.000000	0.107035  	1380.000000	0.111684  	1380.000000	0.110748  	1380.000000	0.109748  	1380.000000	0.111672  	1380.000000	1.26885e-05	
1400.000000	0.106882  	1400.000000	0.111526  	1400.000000	0.110572  	1400.000000	0.109573  	1400.000000	0.111514  	1400.000000	1.25201e-05	
1420.000000	0.106739  	1420.000000	0.111378  	1420.000000	0.110405  	1420.000000	0.109407  	1420.000000	0.111366  	1420.000000	1.23562e-05	
1440.000000	0.106608  	1440.000000	0.111239  	1440.000000	0.110245  	1440.000000	0.109249  	1440.000000	0.111227  	1440.000000	1.21967e-05	
1460.000000	0.106486  	1460.000000	0.111109  	1460.000000	0.110092  	1460.000000	0.109098  	1460.000000	0.111097  	1460.000000	1.20414e-05	
1480.000000	0.106375  	1480.000000	0.110988  	1480.000000	0.109947  	1480.000000	0.108954  	1480.000000	0.110976  	1480.000000	1.18901e-05	
1500.000000	0.106273  	1500.000000	0.110876  	1500.000000	0.109809  	1500.000000	0.108817  	1500.000000	0.110864  	1500.000000	1.17427e-05	
1520.000000	0.10618   	1520.000000	0.110771  	1520.000000	0.109677  	1520.000000	0.108687  	1520.000000	0.110759  	1520.000000	1.1599e-05	
1540.000000	0.106096  	1540.000000	0.110674  	1540.000000	0.109551  	1540.000000	0.108562  	1540.000000	0.110662  	1540.000000	1.1459e-05	
1560.000000	0.10602   	1560.000000	0.110584  	1560.000000	0.109431  	1560.000000	0.108444  	1560.000000	0.110572  	1560.000000	1.13224e-05	
1580.000000	0.105953  	1580.000000	0.110501  	1580.000000	0.109317  	1580.000000	0.108331  	1580.000000	0.11049   	1580.000000	1.11891e-05	
1600.000000	0.105893  	1600.000000	0.110425  	1600.000000	0.109209  	1600.000000	0.108223  	1600.000000	0.110414  	1600.000000	1.1059e-05	
1620.000000	0.105841  	1620.000000	0.110356  	1620.000000	0.109105  	1620.000000	0.108121  	1620.000000	0.110345  	1620.000000	1.0932e-05	
1640.000000	0.105797  	1640.000000	0.110293  	1640.000000	0.109007  	1640.000000	0.108024  	1640.000000	0.110282  	1640.000000	1.0808e-05	
1660.000000	0.10576   	1660.000000	0.110237  	1660.000000	0.108914  	1660.000000	0.107931  	1660.000000	0.110226  	1660.000000	1.06869e-05	
1680.000000	0.105729  	1680.000000	0.110186  	1680.000000	0.108825  	1680.000000	0.107843  	1680.000000	0.110175  	1680.000000	1.05686e-05	
1700.000000	0.105706  	1700.000000	0.110141  	1700.000000	0.10874   	1700.000000	0.10776   	1700.000000	0.11013   	1700.000000	1.04529e-05	
1750.000000	0.105675  	1750.000000	0.110052  	1750.000000	0.108547  	1750.000000	0.107569  	1750.000000	0.110041  	1750.000000	1.01749e-05	
1800.000000	0.105681  	1800.000000	0.109994  	1800.000000	0.108378  	1800.000000	0.107402  	1800.000000	0.109984  	1800.000000	9.91174e-06	
1850.000000	0.105722  	1850.000000	0.109966  	1850.000000	0.10823   	1850.000000	0.107257  	1850.000000	0.109956  	1850.000000	9.6623e-06	
1900.000000	0.105795  	1900.000000	0.109964  	1900.000000	0.108103  	1900.000000	0.107131  	1900.000000	0.109955  	1900.000000	9.42552e-06	
1950.000000	0.105899  	1950.000000	0.109988  	1950.000000	0.107993  	1950.000000	0.107023  	1950.000000	0.109978  	1950.000000	9.20043e-06	
2000.000000	0.10603   	2000.000000	0.110034  	2000.000000	0.107899  	2000.000000	0.106931  	2000.000000	0.110025  	2000.000000	8.98618e-06	
2100.000000	0.10637   	2100.000000	0.110188  	2100.000000	0.107755  	2100.000000	0.106791  	2100.000000	0.11018   	2100.000000	8.58721e-06	
2200.000000	0.106801  	2200.000000	0.110416  	2200.000000	0.107661  	2200.000000	0.106699  	2200.000000	0.110408  	2200.000000	8.22322e-06	
2300.000000	0.107314  	2300.000000	0.110708  	2300.000000	0.107608  	2300.000000	0.106649  	2300.000000	0.1107    	2300.000000	7.88976e-06	
2400.000000	0.1079    	2400.000000	0.111056  	2400.000000	0.107591  	2400.000000	0.106634  	2400.000000	0.111048  	2400.000000	7.58311e-06	
2500.000000	0.108551  	2500.000000	0.111453  	2500.000000	0.107602  	2500.000000	0.106648  	2500.000000	0.111445  	2500.000000	7.30012e-06	
2600.000000	0.10926   	2600.000000	0.111893  	2600.000000	0.107639  	2600.000000	0.106687  	2600.000000	0.111886  	2600.000000	7.03814e-06	
2700.000000	0.110022  	2700.000000	0.112372  	2700.000000	0.107697  	2700.000000	0.106746  	2700.000000	0.112365  	2700.000000	6.79487e-06	
2800.000000	0.110833  	2800.000000	0.112885  	2800.000000	0.107773  	2800.000000	0.106824  	2800.000000	0.112879  	2800.000000	6.56838e-06	
2900.000000	0.111688  	2900.000000	0.113429  	2900.000000	0.107864  	2900.000000	0.106917  	2900.000000	0.113423  	2900.000000	6.35695e-06	
3000.000000	0.112584  	3000.000000	0.114001  	3000.000000	0.107968  	3000.000000	0.107022  	3000.000000	0.113995  	3000.000000	6.15913e-06	
3200.000000	0.114486  	3200.000000	0.115217  	3200.000000	0.108208  	3200.000000	0.107264  	3200.000000	0.115211  	3200.000000	5.7993e-06	
3400.000000	0.116517  	3400.000000	0.116514  	3400.000000	0.10848   	3400.000000	0.107538  	3400.000000	0.116509  	3400.000000	5.48038e-06	
3600.000000	0.118662  	3600.000000	0.11788   	3600.000000	0.108774  	3600.000000	0.107834  	3600.000000	0.117875  	3600.000000	5.19569e-06	
3800.000000	0.120907  	3800.000000	0.119302  	3800.000000	0.109084  	3800.000000	0.108146  	3800.000000	0.119297  	3800.000000	4.93995e-06	
4000.000000	0.123242  	4000.000000	0.120772  	4000.000000	0.109405  	4000.000000	0.108469  	4000.000000	0.120767  	4000.000000	4.70893e-06	
4200.000000	0.125658  	4200.000000	0.122282  	4200.000000	0.109733  	4200.000000	0.108799  	4200.000000	0.122278  	4200.000000	4.49916e-06	
4400.000000	0.128148  	4400.000000	0.123827  	4400.000000	0.110065  	4400.000000	0.109132  	4400.000000	0.123823  	4400.000000	4.30782e-06	
4600.000000	0.130706  	4600.000000	0.125402  	4600.000000	0.110398  	4600.000000	0.109467  	4600.000000	0.125398  	4600.000000	4.13256e-06	
4800.000000	0.133328  	4800.000000	0.127003  	4800.000000	0.110732  	4800.000000	0.109802  	4800.000000	0.126999  	4800.000000	3.97142e-06	
5000.000000	0.136008  	5000.000000	0.128626  	5000.000000	0.111063  	5000.000000	0.110135  	5000.000000	0.128622  	5000.000000	3.82273e-06	
5250.000000	0.139437  	5250.000000	0.130682  	5250.000000	0.111475  	5250.000000	0.110548  	5250.000000	0.130679  	5250.000000	3.65227e-06	
5500.000000	0.142947  	5500.000000	0.132764  	5500.000000	0.111881  	5500.000000	0.110955  	5500.000000	0.132761  	5500.000000	3.49679e-06	
6000.000000	0.150191  	6000.000000	0.136991  	6000.000000	0.112673  	6000.000000	0.11175   	6000.000000	0.136988  	6000.000000	3.22345e-06	
6500.000000	0.15771   	6500.000000	0.141283  	6500.000000	0.113436  	6500.000000	0.112515  	6500.000000	0.14128   	6500.000000	2.99083e-06	
7000.000000	0.165482  	7000.000000	0.145624  	7000.000000	0.114167  	7000.000000	0.113249  	7000.000000	0.145621  	7000.000000	2.79039e-06	
7500.000000	0.173491  	7500.000000	0.150002  	7500.000000	0.114868  	7500.000000	0.113951  	7500.000000	0.149999  	7500.000000	2.61582e-06	
8000.000000	0.181726  	8000.000000	0.154407  	8000.000000	0.115538  	8000.000000	0.114622  	8000.000000	0.154404  	8000.000000	2.46238e-06	
8500.000000	0.190176  	8500.000000	0.158833  	8500.000000	0.116178  	8500.000000	0.115263  	8500.000000	0.15883   	8500.000000	2.32642e-06	
9000.000000	0.198835  	9000.000000	0.163275  	9000.000000	0.116789  	9000.000000	0.115877  	9000.000000	0.163272  	9000.000000	2.20508e-06	
9500.000000	0.207696  	9500.000000	0.167728  	9500.000000	0.117373  	9500.000000	0.116465  	9500.000000	0.167726  	9500.000000	2.09611e-06	
10000.000000	0.216755  	10000.000000	0.172191  	10000.000000	0.117933  	10000.000000	0.117027  	10000.000000	0.172189  	10000.000000	1.9977e-06	
11000.000000	0.235454  	11000.000000	0.181133  	11000.000000	0.118987  	11000.000000	0.118085  	11000.000000	0.181131  	11000.000000	1.82688e-06	
12000.000000	0.254909  	12000.000000	0.190087  	12000.000000	0.119959  	12000.000000	0.119061  	12000.000000	0.190086  	12000.000000	1.68367e-06	
13000.000000	0.275107  	13000.000000	0.199044  	13000.000000	0.120858  	13000.000000	0.119966  	13000.000000	0.199042  	13000.000000	1.56183e-06	
14000.000000	0.296036  	14000.000000	0.207997  	14000.000000	0.121692  	14000.000000	0.120809  	14000.000000	0.207996  	14000.000000	1.45686e-06	
15000.000000	0.317691  	15000.000000	0.216943  	15000.000000	0.12247   	15000.000000	0.121596  	15000.000000	0.216942  	15000.000000	1.36547e-06	
16000.000000	0.340068  	16000.000000	0.225879  	16000.000000	0.1232    	16000.000000	0.122334  	16000.000000	0.225877  	16000.000000	1.28515e-06	
17000.000000	0.363163  	17000.000000	0.234802  	17000.000000	0.123887  	17000.000000	0.123027  	17000.000000	0.234801  	17000.000000	1.21399e-06	
18000.000000	0.386976  	18000.000000	0.243713  	18000.000000	0.124537  	18000.000000	0.123682  	18000.000000	0.243711  	18000.000000	1.1505e-06	
19000.000000	0.411507  	19000.000000	0.252609  	19000.000000	0.125152  	19000.000000	0.124301  	19000.000000	0.252608  	19000.000000	1.0935e-06	
20000.000000	0.436755  	20000.000000	0.261491  	20000.000000	0.125736  	20000.000000	0.124887  	20000.000000	0.26149   	20000.000000	1.04202e-06	
21000.000000	0.462723  	21000.000000	0.270358  	21000.000000	0.126289  	21000.000000	0.125445  	21000.000000	0.270357  	21000.000000	9.9529e-07	
22000.000000	0.48941   	22000.000000	0.279211  	22000.000000	0.126809  	22000.000000	0.125976  	22000.000000	0.27921   	22000.000000	9.52683e-07	
23000.000000	0.51682   	23000.000000	0.288049  	23000.000000	0.127307  	23000.000000	0.126483  	23000.000000	0.288048  	23000.000000	9.13669e-07	
24000.000000	0.544955  	24000.000000	0.296873  	24000.000000	0.127786  	24000.000000	0.126967  	24000.000000	0.296872  	24000.000000	8.77809e-07	
25000.000000	0.573816  	25000.000000	0.305682  	25000.000000	0.128241  	25000.000000	0.127431  	25000.000000	0.305681  	25000.000000	8.4473e-07	
26000.000000	0.603407  	26000.000000	0.314477  	26000.000000	0.128675  	26000.000000	0.127876  	26000.000000	0.314477  	26000.000000	8.14119e-07	
27000.000000	0.63373   	27000.000000	0.323259  	27000.000000	0.12909   	27000.000000	0.128303  	27000.000000	0.323258  	27000.000000	7.85708e-07	
28000.000000	0.664789  	28000.000000	0.332026  	28000.000000	0.12949   	28000.000000	0.128714  	28000.000000	0.332026  	28000.000000	7.59264e-07	
29000.000000	0.696586  	29000.000000	0.340781  	29000.000000	0.129875  	29000.000000	0.12911   	29000.000000	0.34078   	29000.000000	7.3459e-07	
30000.000000	0.729125  	30000.000000	0.349522  	30000.000000	0.130247  	30000.000000	0.129492  	30000.000000	0.349521  	30000.000000	7.11511e-07	
32000.000000	0.796443  	32000.000000	0.366966  	32000.000000	0.130952  	32000.000000	0.130216  	32000.000000	0.366965  	32000.000000	6.69554e-07	
34000.000000	0.86677   	34000.000000	0.384361  	34000.000000	0.131609  	34000.000000	0.130894  	34000.000000	0.384361  	34000.000000	6.32389e-07	
36000.000000	0.940136  	36000.000000	0.40171   	36000.000000	0.132222  	36000.000000	0.131531  	36000.000000	0.401709  	36000.000000	5.99234e-07	
38000.000000	1.01657   	38000.000000	0.419014  	38000.000000	0.132796  	38000.000000	0.132132  	38000.000000	0.419013  	38000.000000	5.69468e-07	
40000.000000	1.09611   	40000.000000	0.436275  	40000.000000	0.133336  	40000.000000	0.132699  	40000.000000	0.436274  	40000.000000	5.42591e-07	
42000.000000	1.17877   	42000.000000	0.453495  	42000.000000	0.133845  	42000.000000	0.133237  	42000.000000	0.453494  	42000.000000	5.18201e-07	
44000.000000	1.2646    	44000.000000	0.470675  	44000.000000	0.134327  	44000.000000	0.133749  	44000.000000	0.470675  	44000.000000	4.95963e-07	
46000.000000	1.35363   	46000.000000	0.487818  	46000.000000	0.134784  	46000.000000	0.134236  	46000.000000	0.487818  	46000.000000	4.75603e-07	
48000.000000	1.4459    	48000.000000	0.504925  	48000.000000	0.13522   	48000.000000	0.134701  	48000.000000	0.504925  	48000.000000	4.56891e-07	
50000.000000	1.54142   	50000.000000	0.521998  	50000.000000	0.135633  	50000.000000	0.135145  	50000.000000	0.521997  	50000.000000	4.39632e-07	
