0.001000	5.78661   	0.001000	1.39384   	0.001000	1.28496   	0.001000	1.28496   	0.001000	0.47925   	0.001000	0.914594  	
0.002000	5.81806   	0.002000	1.5732    	0.002000	1.43315   	0.002000	1.43315   	0.002000	0.663814  	0.002000	0.909384  	
0.005000	5.99811   	0.005000	1.80876   	0.005000	1.61577   	0.005000	1.61577   	0.005000	1.02112   	0.005000	0.787638  	
0.008000	6.29916   	0.008000	1.959     	0.008000	1.73296   	0.008000	1.73296   	0.008000	1.27355   	0.008000	0.685452  	
0.010000	6.5134    	0.010000	2.04637   	0.010000	1.80315   	0.010000	1.80315   	0.010000	1.41437   	0.010000	0.632     	
0.015000	7.35814   	0.015000	2.24391   	0.015000	1.96696   	0.015000	1.96696   	0.015000	1.7113    	0.015000	0.532609  	
0.020000	8.17035   	0.020000	2.42278   	0.020000	2.11996   	0.020000	2.11996   	0.020000	1.95905   	0.020000	0.46372   	
0.025000	9.13854   	0.025000	2.63107   	0.025000	2.30571   	0.025000	2.30571   	0.025000	2.21829   	0.025000	0.412786  	
0.030000	10.0285   	0.030000	2.89627   	0.030000	2.74041   	0.030000	2.74041   	0.030000	2.52292   	0.030000	0.37335   	
0.035000	10.8137   	0.035000	3.16216   	0.035000	3.06831   	0.035000	3.06831   	0.035000	2.82039   	0.035000	0.341762  	
0.040000	11.4932   	0.040000	3.42208   	0.040000	3.33243   	0.040000	3.33243   	0.040000	3.10628   	0.040000	0.315795  	
0.045000	12.0538   	0.045000	3.67275   	0.045000	3.56797   	0.045000	3.56797   	0.045000	3.37875   	0.045000	0.294008  	
0.050000	12.4943   	0.050000	3.91274   	0.050000	3.79033   	0.050000	3.79033   	0.050000	3.63732   	0.050000	0.275422  	
0.055000	13.2081   	0.055000	4.14156   	0.055000	4.00455   	0.055000	4.00455   	0.055000	3.88221   	0.055000	0.25935   	
0.060000	13.8512   	0.060000	4.35921   	0.060000	4.21174   	0.060000	4.21174   	0.060000	4.11392   	0.060000	0.245292  	
0.070000	14.9326   	0.070000	4.76216   	0.070000	4.60446   	0.070000	4.60446   	0.070000	4.54035   	0.070000	0.221812  	
0.080000	16.0826   	0.080000	5.12473   	0.080000	4.96663   	0.080000	4.96663   	0.080000	4.92181   	0.080000	0.202923  	
0.090000	17.0568   	0.090000	5.45061   	0.090000	5.29784   	0.090000	5.29784   	0.090000	5.26326   	0.090000	0.187349  	
0.100000	17.8913   	0.100000	5.74342   	0.100000	5.59924   	0.100000	5.59924   	0.100000	5.56916   	0.100000	0.174256  	
0.120000	18.8193   	0.120000	6.24356   	0.120000	6.12102   	0.120000	6.12102   	0.120000	6.09017   	0.120000	0.153394  	
0.140000	19.5444   	0.140000	6.64903   	0.140000	6.54974   	0.140000	6.54974   	0.140000	6.51284   	0.140000	0.136184  	
0.160000	20.2086   	0.160000	7.00363   	0.160000	6.90687   	0.160000	6.90687   	0.160000	6.87995   	0.160000	0.123679  	
0.180000	20.8425   	0.180000	7.30091   	0.180000	7.20719   	0.180000	7.20719   	0.180000	7.18743   	0.180000	0.11348   	
0.200000	21.4758   	0.200000	7.55277   	0.200000	7.46379   	0.200000	7.46379   	0.200000	7.44778   	0.200000	0.104984  	
0.250000	22.3618   	0.250000	8.04799   	0.250000	7.97452   	0.250000	7.97452   	0.250000	7.95917   	0.250000	0.0888192 	
0.300000	23.5114   	0.300000	8.51635   	0.300000	8.36954   	0.300000	8.36954   	0.300000	8.43905   	0.300000	0.0773062 	
0.350000	24.584    	0.350000	8.95237   	0.350000	8.69673   	0.350000	8.69673   	0.350000	8.88372   	0.350000	0.0686469 	
0.400000	25.4765   	0.400000	9.30808   	0.400000	9.01468   	0.400000	9.01468   	0.400000	9.2462    	0.400000	0.0618733 	
0.450000	26.209    	0.450000	9.60581   	0.450000	9.67529   	0.450000	9.67529   	0.450000	9.54939   	0.450000	0.0564155 	
0.500000	26.9919   	0.500000	9.90666   	0.500000	10.1734   	0.500000	10.1734   	0.500000	9.85474   	0.500000	0.0519148 	
0.600000	27.5028   	0.600000	10.5673   	0.600000	10.6502   	0.600000	10.6502   	0.600000	10.5224   	0.600000	0.0449074 	
0.700000	27.4363   	0.700000	11.0638   	0.700000	10.9999   	0.700000	10.9999   	0.700000	11.0241   	0.700000	0.0396843 	
0.800000	28.0693   	0.800000	11.4391   	0.800000	11.2572   	0.800000	11.2572   	0.800000	11.4035   	0.800000	0.0356274 	
0.900000	28.319    	0.900000	11.6646   	0.900000	11.4449   	0.900000	11.4449   	0.900000	11.6322   	0.900000	0.0323773 	
1.000000	28.3923   	1.000000	11.8103   	1.000000	11.5791   	1.000000	11.5791   	1.000000	11.7806   	1.000000	0.02971   	
1.250000	28.1009   	1.250000	11.9993   	1.250000	11.751    	1.250000	11.751    	1.250000	11.9746   	1.250000	0.0247344 	
1.500000	27.3459   	1.500000	11.9606   	1.500000	11.7183   	1.500000	11.7183   	1.500000	11.9393   	1.500000	0.0212701 	
1.750000	26.3874   	1.750000	11.7873   	1.750000	11.5677   	1.750000	11.5677   	1.750000	11.7686   	1.750000	0.0187084 	
2.000000	25.3487   	2.000000	11.5459   	2.000000	11.4004   	2.000000	11.4004   	2.000000	11.5292   	2.000000	0.0167313 	
2.250000	24.4213   	2.250000	11.3081   	2.250000	11.2232   	2.250000	11.2232   	2.250000	11.2929   	2.250000	0.0151556 	
2.500000	26.9801   	2.500000	11.0448   	2.500000	11.0409   	2.500000	11.0409   	2.500000	11.0309   	2.500000	0.0138682 	
3.000000	25.1836   	3.000000	10.5685   	3.000000	10.6732   	3.000000	10.6732   	3.000000	10.5567   	3.000000	0.0118859 	
3.500000	23.5776   	3.500000	10.2174   	3.500000	10.3133   	3.500000	10.3133   	3.500000	10.2069   	3.500000	0.0104263 	
4.000000	22.1535   	4.000000	9.90007   	4.000000	9.96822   	4.000000	9.96822   	4.000000	9.89077   	4.000000	0.00930378	
4.500000	20.8907   	4.500000	9.60066   	4.500000	9.64079   	4.500000	9.64079   	4.500000	9.59225   	4.500000	0.00841173	
5.000000	19.767    	5.000000	9.31639   	5.000000	9.33178   	5.000000	9.33178   	5.000000	9.30871   	5.000000	0.00768464	
5.500000	18.7625   	5.500000	9.04584   	5.500000	9.04087   	5.500000	9.04087   	5.500000	9.03876   	5.500000	0.00707985	
6.000000	17.8602   	6.000000	8.7891    	6.000000	8.76722   	6.000000	8.76722   	6.000000	8.78253   	6.000000	0.00656838	
6.500000	17.0456   	6.500000	8.54563   	6.500000	8.50979   	6.500000	8.50979   	6.500000	8.53951   	6.500000	0.00612978	
7.000000	16.3067   	7.000000	8.31482   	7.000000	8.26746   	7.000000	8.26746   	7.000000	8.30907   	7.000000	0.00574926	
7.500000	15.6336   	7.500000	8.09609   	7.500000	8.0391    	7.500000	8.0391    	7.500000	8.09067   	7.500000	0.00541578	
8.000000	15.0178   	8.000000	7.88879   	8.000000	7.82366   	8.000000	7.82366   	8.000000	7.88367   	8.000000	0.00512096	
8.500000	14.4524   	8.500000	7.69223   	8.500000	7.62015   	8.500000	7.62015   	8.500000	7.68737   	8.500000	0.00485834	
9.000000	13.9312   	9.000000	7.50571   	9.000000	7.42764   	9.000000	7.42764   	9.000000	7.50109   	9.000000	0.00462282	
9.500000	13.4493   	9.500000	7.32857   	9.500000	7.24531   	9.500000	7.24531   	9.500000	7.32416   	9.500000	0.00441032	
10.000000	13.0024   	10.000000	7.2076    	10.000000	7.07238   	10.000000	7.07238   	10.000000	7.20339   	10.000000	0.00421758	
11.000000	12.199    	11.000000	6.93678   	11.000000	6.77422   	11.000000	6.83061   	11.000000	6.9329    	11.000000	0.00388107	
12.000000	11.497    	12.000000	6.67598   	12.000000	6.50076   	12.000000	6.59975   	12.000000	6.67238   	12.000000	0.0035969 	
13.000000	10.878    	13.000000	6.42806   	13.000000	6.2499    	13.000000	6.38107   	13.000000	6.4247    	13.000000	0.00335355	
14.000000	10.3279   	14.000000	6.19407   	14.000000	6.01898   	14.000000	6.17443   	14.000000	6.19093   	14.000000	0.00314267	
15.000000	9.83564   	15.000000	5.9741    	15.000000	5.80563   	15.000000	5.97946   	15.000000	5.97114   	15.000000	0.00295806	
16.000000	9.39241   	16.000000	5.76771   	16.000000	5.608     	16.000000	5.7956    	16.000000	5.76491   	16.000000	0.00279502	
17.000000	8.9911    	17.000000	5.5742    	17.000000	5.42452   	17.000000	5.62222   	17.000000	5.57155   	17.000000	0.00264991	
18.000000	8.62594   	18.000000	5.39276   	18.000000	5.2538    	18.000000	5.45865   	18.000000	5.39024   	18.000000	0.00251989	
19.000000	8.29218   	19.000000	5.22255   	19.000000	5.09458   	19.000000	5.30423   	19.000000	5.22015   	19.000000	0.00240267	
20.000000	7.98585   	20.000000	5.06274   	20.000000	4.94571   	20.000000	5.15832   	20.000000	5.06044   	20.000000	0.00229642	
21.000000	7.70366   	21.000000	4.91253   	21.000000	4.80402   	21.000000	5.01814   	21.000000	4.91033   	21.000000	0.00219964	
22.000000	7.44281   	22.000000	4.77118   	22.000000	4.67083   	22.000000	4.88526   	22.000000	4.76907   	22.000000	0.00211111	
23.000000	7.20092   	23.000000	4.63801   	23.000000	4.54777   	23.000000	4.76165   	23.000000	4.63598   	23.000000	0.00202978	
24.000000	6.97596   	24.000000	4.51238   	24.000000	4.43175   	24.000000	4.64446   	24.000000	4.51042   	24.000000	0.00195481	
25.000000	6.76619   	25.000000	4.39371   	25.000000	4.32226   	25.000000	4.53325   	25.000000	4.39182   	25.000000	0.00188546	
27.000000	6.38633   	27.000000	4.17519   	27.000000	4.12161   	27.000000	4.32711   	27.000000	4.17343   	27.000000	0.00176123	
29.000000	6.05141   	29.000000	3.97875   	29.000000	3.94162   	29.000000	4.1403    	29.000000	3.97709   	29.000000	0.0016531 	
31.000000	5.75376   	31.000000	3.80132   	31.000000	3.77318   	31.000000	3.95575   	31.000000	3.79976   	31.000000	0.0015581 	
33.000000	5.48739   	33.000000	3.64035   	33.000000	3.61557   	33.000000	3.77574   	33.000000	3.63888   	33.000000	0.00147392	
35.000000	5.24754   	35.000000	3.49371   	35.000000	3.47255   	35.000000	3.61348   	35.000000	3.49231   	35.000000	0.0013988 	
38.000000	4.92928   	38.000000	3.29675   	38.000000	3.28119   	38.000000	3.39793   	38.000000	3.29545   	38.000000	0.00130009	
41.000000	4.65209   	41.000000	3.12312   	41.000000	3.11245   	41.000000	3.20995   	41.000000	3.1219    	41.000000	0.00121499	
44.000000	4.40837   	44.000000	2.96896   	44.000000	2.9621    	44.000000	3.0445    	44.000000	2.96781   	44.000000	0.00114084	
47.000000	4.19231   	47.000000	2.83119   	47.000000	2.82806   	47.000000	2.8977    	47.000000	2.83011   	47.000000	0.00107562	
50.000000	3.99937   	50.000000	2.70735   	50.000000	2.70773   	50.000000	2.76651   	50.000000	2.70633   	50.000000	0.00101778	
55.000000	3.71976   	55.000000	2.52665   	55.000000	2.53178   	55.000000	2.57627   	55.000000	2.52572   	55.000000	0.000934636	
60.000000	3.48215   	60.000000	2.37207   	60.000000	2.38082   	60.000000	2.41453   	60.000000	2.37121   	60.000000	0.000864601	
65.000000	3.27758   	65.000000	2.23835   	65.000000	2.24999   	65.000000	2.27524   	65.000000	2.23754   	65.000000	0.00080476	
70.000000	3.09949   	70.000000	2.12153   	70.000000	2.13556   	70.000000	2.15399   	70.000000	2.12077   	70.000000	0.000753009	
75.000000	2.94296   	75.000000	2.0186    	75.000000	2.03424   	75.000000	2.04745   	75.000000	2.01789   	75.000000	0.000707788	
80.000000	2.80422   	80.000000	1.92723   	80.000000	1.94428   	80.000000	1.95307   	80.000000	1.92656   	80.000000	0.000667919	
85.000000	2.68035   	85.000000	1.84557   	85.000000	1.86353   	85.000000	1.86885   	85.000000	1.84493   	85.000000	0.000632491	
90.000000	2.56904   	90.000000	1.77215   	90.000000	1.79092   	90.000000	1.79323   	90.000000	1.77155   	90.000000	0.000600791	
95.000000	2.46842   	95.000000	1.70578   	95.000000	1.72526   	95.000000	1.72493   	95.000000	1.7052    	95.000000	0.000572251	
100.000000	2.377     	100.000000	1.64549   	100.000000	1.66532   	100.000000	1.66294   	100.000000	1.64494   	100.000000	0.000546416	
105.000000	2.29354   	105.000000	1.59047   	105.000000	1.61062   	105.000000	1.60641   	105.000000	1.58995   	105.000000	0.000522912	
110.000000	2.21703   	110.000000	1.54008   	110.000000	1.56029   	110.000000	1.55464   	110.000000	1.53958   	110.000000	0.000501433	
115.000000	2.1466    	115.000000	1.49373   	115.000000	1.51393   	115.000000	1.50705   	115.000000	1.49325   	115.000000	0.000481724	
120.000000	2.08156   	120.000000	1.45098   	120.000000	1.47115   	120.000000	1.46316   	120.000000	1.45051   	120.000000	0.000463572	
125.000000	2.02129   	125.000000	1.4114    	125.000000	1.43155   	125.000000	1.42254   	125.000000	1.41095   	125.000000	0.000446797	
130.000000	1.96526   	130.000000	1.37466   	130.000000	1.39476   	130.000000	1.38484   	130.000000	1.37423   	130.000000	0.000431246	
135.000000	1.91305   	135.000000	1.34047   	135.000000	1.36033   	135.000000	1.34975   	135.000000	1.34005   	135.000000	0.000416787	
140.000000	1.86425   	140.000000	1.30856   	140.000000	1.32828   	140.000000	1.31702   	140.000000	1.30816   	140.000000	0.000403308	
145.000000	1.81854   	145.000000	1.27872   	145.000000	1.29836   	145.000000	1.2864    	145.000000	1.27833   	145.000000	0.000390712	
150.000000	1.77564   	150.000000	1.25075   	150.000000	1.27016   	150.000000	1.25771   	150.000000	1.25037   	150.000000	0.000378911	
155.000000	1.71501   	155.000000	1.22448   	155.000000	1.24354   	155.000000	1.23076   	155.000000	1.22411   	155.000000	0.000367834	
160.000000	1.67957   	160.000000	1.19976   	160.000000	1.2185    	160.000000	1.2054    	160.000000	1.1994    	160.000000	0.000357413	
165.000000	1.64613   	165.000000	1.17645   	165.000000	1.195     	165.000000	1.1815    	165.000000	1.1761    	165.000000	0.000347592	
170.000000	1.61452   	170.000000	1.15444   	170.000000	1.17271   	170.000000	1.15893   	170.000000	1.1541    	170.000000	0.00033832	
175.000000	1.5846    	175.000000	1.13363   	175.000000	1.15158   	175.000000	1.13758   	175.000000	1.1333    	175.000000	0.00032955	
180.000000	1.55623   	180.000000	1.11391   	180.000000	1.13166   	180.000000	1.11736   	180.000000	1.11359   	180.000000	0.000321243	
185.000000	1.5293    	185.000000	1.0952    	185.000000	1.11275   	185.000000	1.09819   	185.000000	1.09489   	185.000000	0.000313363	
190.000000	1.50369   	190.000000	1.07743   	190.000000	1.09471   	190.000000	1.07997   	190.000000	1.07713   	190.000000	0.000305876	
195.000000	1.47931   	195.000000	1.06053   	195.000000	1.07752   	195.000000	1.06265   	195.000000	1.06024   	195.000000	0.000298754	
200.000000	1.45607   	200.000000	1.04444   	200.000000	1.06118   	200.000000	1.04615   	200.000000	1.04415   	200.000000	0.000291971	
210.000000	1.41272   	210.000000	1.01445   	210.000000	1.03071   	210.000000	1.01543   	210.000000	1.01418   	210.000000	0.000279325	
220.000000	1.37307   	220.000000	0.987083  	220.000000	1.00291   	220.000000	0.987395  	220.000000	0.986816  	220.000000	0.000267773	
230.000000	1.33667   	230.000000	0.962001  	230.000000	0.977295  	230.000000	0.961715  	230.000000	0.961743  	230.000000	0.000257177	
240.000000	1.30313   	240.000000	0.938933  	240.000000	0.953828  	240.000000	0.938109  	240.000000	0.938685  	240.000000	0.000247422	
250.000000	1.27213   	250.000000	0.917648  	250.000000	0.932151  	250.000000	0.91634   	250.000000	0.917409  	250.000000	0.000238409	
260.000000	1.24339   	260.000000	0.897948  	260.000000	0.912008  	260.000000	0.896205  	260.000000	0.897718  	260.000000	0.000230056	
270.000000	1.21666   	270.000000	0.879665  	270.000000	0.89338   	270.000000	0.87753   	270.000000	0.879443  	270.000000	0.000222292	
280.000000	1.19176   	280.000000	0.862654  	280.000000	0.876117  	280.000000	0.860166  	280.000000	0.862438  	280.000000	0.000215056	
290.000000	1.16849   	290.000000	0.846786  	290.000000	0.859944  	290.000000	0.843982  	290.000000	0.846578  	290.000000	0.000208296	
300.000000	1.1467    	300.000000	0.831953  	300.000000	0.844811  	300.000000	0.828866  	300.000000	0.831751  	300.000000	0.000201964	
310.000000	1.12625   	310.000000	0.818059  	310.000000	0.830658  	310.000000	0.814718  	310.000000	0.817863  	310.000000	0.000196022	
320.000000	1.10703   	320.000000	0.805017  	320.000000	0.817379  	320.000000	0.801451  	320.000000	0.804827  	320.000000	0.000190433	
330.000000	1.08893   	330.000000	0.792755  	330.000000	0.804903  	330.000000	0.788988  	330.000000	0.79257   	330.000000	0.000185168	
340.000000	1.07185   	340.000000	0.781205  	340.000000	0.793159  	340.000000	0.777261  	340.000000	0.781025  	340.000000	0.000180197	
350.000000	1.05572   	350.000000	0.770309  	350.000000	0.782087  	350.000000	0.766209  	350.000000	0.770134  	350.000000	0.000175497	
360.000000	1.04046   	360.000000	0.760015  	360.000000	0.771647  	360.000000	0.755777  	360.000000	0.759844  	360.000000	0.000171045	
370.000000	1.02599   	370.000000	0.750274  	370.000000	0.76177   	370.000000	0.745918  	370.000000	0.750108  	370.000000	0.000166823	
380.000000	1.01227   	380.000000	0.741046  	380.000000	0.752374  	380.000000	0.736588  	380.000000	0.740883  	380.000000	0.000162813	
390.000000	0.999229  	390.000000	0.732292  	390.000000	0.743453  	390.000000	0.727746  	390.000000	0.732133  	390.000000	0.000158999	
400.000000	0.98683   	400.000000	0.723977  	400.000000	0.735028  	400.000000	0.719359  	400.000000	0.723822  	400.000000	0.000155367	
410.000000	0.975024  	410.000000	0.716071  	410.000000	0.727054  	410.000000	0.711393  	410.000000	0.715919  	410.000000	0.000151903	
420.000000	0.963771  	420.000000	0.708546  	420.000000	0.719474  	420.000000	0.70382   	420.000000	0.708397  	420.000000	0.000148597	
430.000000	0.953035  	430.000000	0.701375  	430.000000	0.712238  	430.000000	0.696613  	430.000000	0.701229  	430.000000	0.000145438	
440.000000	0.942783  	440.000000	0.694536  	440.000000	0.705308  	440.000000	0.689747  	440.000000	0.694393  	440.000000	0.000142415	
450.000000	0.932983  	450.000000	0.688006  	450.000000	0.698695  	450.000000	0.683201  	450.000000	0.687867  	450.000000	0.000139521	
460.000000	0.923607  	460.000000	0.681768  	460.000000	0.692416  	460.000000	0.676955  	460.000000	0.681631  	460.000000	0.000136747	
470.000000	0.914631  	470.000000	0.675802  	470.000000	0.686438  	470.000000	0.670989  	470.000000	0.675668  	470.000000	0.000134085	
480.000000	0.90603   	480.000000	0.670092  	480.000000	0.680718  	480.000000	0.665302  	480.000000	0.66996   	480.000000	0.000131529	
490.000000	0.897783  	490.000000	0.664623  	490.000000	0.675231  	490.000000	0.659874  	490.000000	0.664494  	490.000000	0.000129072	
500.000000	0.889869  	500.000000	0.659381  	500.000000	0.669978  	500.000000	0.654678  	500.000000	0.659254  	500.000000	0.00012671	
520.000000	0.874969  	520.000000	0.649527  	520.000000	0.660183  	520.000000	0.644925  	520.000000	0.649404  	520.000000	0.000122245	
540.000000	0.861196  	540.000000	0.640437  	540.000000	0.651146  	540.000000	0.635948  	540.000000	0.640319  	540.000000	0.000118095	
560.000000	0.848437  	560.000000	0.632034  	560.000000	0.642756  	560.000000	0.627666  	560.000000	0.631919  	560.000000	0.000114229	
580.000000	0.836592  	580.000000	0.624246  	580.000000	0.635004  	580.000000	0.620009  	580.000000	0.624136  	580.000000	0.000110618	
600.000000	0.825574  	600.000000	0.617016  	600.000000	0.627865  	600.000000	0.612914  	600.000000	0.616909  	600.000000	0.000107236	
620.000000	0.815307  	620.000000	0.61029   	620.000000	0.62125   	620.000000	0.606329  	620.000000	0.610186  	620.000000	0.000104064	
640.000000	0.805725  	640.000000	0.604022  	640.000000	0.615061  	640.000000	0.600207  	640.000000	0.603921  	640.000000	0.00010108	
660.000000	0.796768  	660.000000	0.598173  	660.000000	0.609279  	660.000000	0.594505  	660.000000	0.598074  	660.000000	9.82695e-05	
680.000000	0.788385  	680.000000	0.592706  	680.000000	0.603891  	680.000000	0.589186  	680.000000	0.59261   	680.000000	9.56169e-05	
700.000000	0.780529  	700.000000	0.587589  	700.000000	0.598862  	700.000000	0.584219  	700.000000	0.587496  	700.000000	9.31092e-05	
720.000000	0.773158  	720.000000	0.582794  	720.000000	0.594157  	720.000000	0.579574  	720.000000	0.582703  	720.000000	9.07346e-05	
740.000000	0.766235  	740.000000	0.578296  	740.000000	0.589747  	740.000000	0.575225  	740.000000	0.578207  	740.000000	8.84828e-05	
760.000000	0.759727  	760.000000	0.574071  	760.000000	0.58561   	760.000000	0.571148  	760.000000	0.573985  	760.000000	8.63443e-05	
780.000000	0.753604  	780.000000	0.5701    	780.000000	0.581736  	780.000000	0.567322  	780.000000	0.570016  	780.000000	8.43106e-05	
800.000000	0.747837  	800.000000	0.566364  	800.000000	0.578115  	800.000000	0.563729  	800.000000	0.566281  	800.000000	8.23742e-05	
820.000000	0.742404  	820.000000	0.562846  	820.000000	0.574718  	820.000000	0.560351  	820.000000	0.562765  	820.000000	8.05281e-05	
840.000000	0.73728   	840.000000	0.55953   	840.000000	0.571514  	840.000000	0.557173  	840.000000	0.559452  	840.000000	7.8766e-05	
860.000000	0.732447  	860.000000	0.556404  	860.000000	0.568481  	860.000000	0.554181  	860.000000	0.556327  	860.000000	7.70824e-05	
880.000000	0.727884  	880.000000	0.553455  	880.000000	0.565614  	880.000000	0.551361  	880.000000	0.553379  	880.000000	7.5472e-05	
900.000000	0.723576  	900.000000	0.55067   	900.000000	0.56291   	900.000000	0.548701  	900.000000	0.550596  	900.000000	7.393e-05 	
920.000000	0.719506  	920.000000	0.54804   	920.000000	0.56036   	920.000000	0.546193  	920.000000	0.547968  	920.000000	7.24522e-05	
940.000000	0.71566   	940.000000	0.545556  	940.000000	0.557954  	940.000000	0.543824  	940.000000	0.545485  	940.000000	7.10345e-05	
960.000000	0.712026  	960.000000	0.543207  	960.000000	0.555681  	960.000000	0.541587  	960.000000	0.543137  	960.000000	6.96733e-05	
980.000000	0.70859   	980.000000	0.540986  	980.000000	0.553532  	980.000000	0.539472  	980.000000	0.540918  	980.000000	6.83653e-05	
1000.000000	0.705341  	1000.000000	0.538886  	1000.000000	0.551499  	1000.000000	0.537473  	1000.000000	0.538818  	1000.000000	6.71074e-05	
1020.000000	0.70227   	1020.000000	0.536899  	1020.000000	0.549576  	1020.000000	0.535583  	1020.000000	0.536833  	1020.000000	6.58967e-05	
1040.000000	0.699367  	1040.000000	0.535019  	1040.000000	0.547755  	1040.000000	0.533794  	1040.000000	0.534954  	1040.000000	6.47305e-05	
1060.000000	0.696622  	1060.000000	0.533241  	1060.000000	0.546032  	1060.000000	0.5321    	1060.000000	0.533177  	1060.000000	6.36065e-05	
1080.000000	0.694028  	1080.000000	0.531558  	1080.000000	0.5444    	1080.000000	0.530497  	1080.000000	0.531496  	1080.000000	6.25223e-05	
1100.000000	0.691577  	1100.000000	0.529966  	1100.000000	0.542854  	1100.000000	0.528979  	1100.000000	0.529905  	1100.000000	6.14758e-05	
1120.000000	0.689261  	1120.000000	0.52846   	1120.000000	0.541389  	1120.000000	0.527541  	1120.000000	0.528399  	1120.000000	6.04651e-05	
1140.000000	0.687074  	1140.000000	0.527035  	1140.000000	0.540001  	1140.000000	0.526179  	1140.000000	0.526976  	1140.000000	5.94884e-05	
1160.000000	0.68501   	1160.000000	0.525688  	1160.000000	0.538685  	1160.000000	0.524889  	1160.000000	0.525629  	1160.000000	5.85439e-05	
1180.000000	0.683062  	1180.000000	0.524414  	1180.000000	0.537437  	1180.000000	0.523666  	1180.000000	0.524356  	1180.000000	5.76301e-05	
1200.000000	0.681226  	1200.000000	0.52321   	1200.000000	0.536255  	1200.000000	0.522507  	1200.000000	0.523153  	1200.000000	5.67454e-05	
1220.000000	0.679496  	1220.000000	0.522072  	1220.000000	0.535134  	1220.000000	0.521409  	1220.000000	0.522016  	1220.000000	5.58885e-05	
1240.000000	0.677868  	1240.000000	0.520998  	1240.000000	0.534072  	1240.000000	0.520368  	1240.000000	0.520943  	1240.000000	5.5058e-05	
1260.000000	0.676337  	1260.000000	0.519984  	1260.000000	0.533064  	1260.000000	0.519382  	1260.000000	0.51993   	1260.000000	5.42529e-05	
1280.000000	0.674898  	1280.000000	0.519028  	1280.000000	0.532109  	1280.000000	0.518447  	1280.000000	0.518974  	1280.000000	5.34718e-05	
1300.000000	0.673548  	1300.000000	0.518126  	1300.000000	0.531204  	1300.000000	0.517562  	1300.000000	0.518074  	1300.000000	5.27137e-05	
1320.000000	0.672283  	1320.000000	0.517278  	1320.000000	0.530345  	1320.000000	0.516724  	1320.000000	0.517226  	1320.000000	5.19776e-05	
1340.000000	0.6711    	1340.000000	0.516479  	1340.000000	0.529532  	1340.000000	0.51593   	1340.000000	0.516428  	1340.000000	5.12626e-05	
1360.000000	0.669995  	1360.000000	0.515729  	1360.000000	0.528761  	1360.000000	0.515178  	1360.000000	0.515678  	1360.000000	5.05677e-05	
1380.000000	0.668964  	1380.000000	0.515024  	1380.000000	0.528032  	1380.000000	0.514466  	1380.000000	0.514974  	1380.000000	4.98921e-05	
1400.000000	0.668006  	1400.000000	0.514364  	1400.000000	0.527341  	1400.000000	0.513793  	1400.000000	0.514315  	1400.000000	4.9235e-05	
1420.000000	0.667117  	1420.000000	0.513746  	1420.000000	0.526688  	1420.000000	0.513157  	1420.000000	0.513697  	1420.000000	4.85956e-05	
1440.000000	0.666294  	1440.000000	0.513168  	1440.000000	0.526071  	1440.000000	0.512555  	1440.000000	0.51312   	1440.000000	4.79733e-05	
1460.000000	0.665536  	1460.000000	0.512629  	1460.000000	0.525488  	1460.000000	0.511986  	1460.000000	0.512582  	1460.000000	4.73672e-05	
1480.000000	0.664838  	1480.000000	0.512128  	1480.000000	0.524938  	1480.000000	0.511449  	1480.000000	0.512081  	1480.000000	4.67769e-05	
1500.000000	0.664201  	1500.000000	0.511662  	1500.000000	0.524418  	1500.000000	0.510942  	1500.000000	0.511616  	1500.000000	4.62017e-05	
1520.000000	0.66362   	1520.000000	0.511231  	1520.000000	0.523927  	1520.000000	0.510465  	1520.000000	0.511186  	1520.000000	4.56409e-05	
1540.000000	0.663095  	1540.000000	0.510833  	1540.000000	0.523464  	1540.000000	0.510015  	1540.000000	0.510788  	1540.000000	4.50941e-05	
1560.000000	0.662622  	1560.000000	0.510467  	1560.000000	0.523026  	1560.000000	0.509591  	1560.000000	0.510422  	1560.000000	4.45608e-05	
1580.000000	0.662201  	1580.000000	0.510131  	1580.000000	0.522612  	1580.000000	0.509192  	1580.000000	0.510087  	1580.000000	4.40404e-05	
1600.000000	0.661829  	1600.000000	0.509825  	1600.000000	0.522221  	1600.000000	0.508818  	1600.000000	0.509782  	1600.000000	4.35324e-05	
1620.000000	0.661506  	1620.000000	0.509548  	1620.000000	0.521853  	1620.000000	0.508467  	1620.000000	0.509505  	1620.000000	4.30365e-05	
1640.000000	0.661228  	1640.000000	0.509298  	1640.000000	0.521505  	1640.000000	0.508138  	1640.000000	0.509255  	1640.000000	4.25522e-05	
1660.000000	0.660996  	1660.000000	0.509074  	1660.000000	0.521179  	1660.000000	0.50783   	1660.000000	0.509032  	1660.000000	4.2079e-05	
1680.000000	0.660806  	1680.000000	0.508876  	1680.000000	0.520873  	1680.000000	0.507542  	1680.000000	0.508834  	1680.000000	4.16167e-05	
1700.000000	0.660659  	1700.000000	0.508703  	1700.000000	0.520586  	1700.000000	0.507274  	1700.000000	0.508661  	1700.000000	4.11648e-05	
1750.000000	0.660464  	1750.000000	0.508371  	1750.000000	0.519953  	1750.000000	0.506684  	1750.000000	0.508331  	1750.000000	4.00783e-05	
1800.000000	0.660504  	1800.000000	0.508176  	1800.000000	0.519431  	1800.000000	0.506199  	1800.000000	0.508137  	1800.000000	3.90498e-05	
1850.000000	0.660761  	1850.000000	0.508106  	1850.000000	0.519012  	1850.000000	0.505809  	1850.000000	0.508068  	1850.000000	3.80745e-05	
1900.000000	0.66122   	1900.000000	0.508152  	1900.000000	0.518685  	1900.000000	0.505504  	1900.000000	0.508115  	1900.000000	3.71486e-05	
1950.000000	0.661866  	1950.000000	0.508305  	1950.000000	0.518438  	1950.000000	0.505278  	1950.000000	0.508268  	1950.000000	3.62682e-05	
2000.000000	0.662687  	2000.000000	0.508556  	2000.000000	0.518264  	2000.000000	0.505121  	2000.000000	0.508521  	2000.000000	3.543e-05 	
2100.000000	0.664809  	2100.000000	0.509327  	2100.000000	0.518102  	2100.000000	0.504994  	2100.000000	0.509294  	2100.000000	3.38686e-05	
2200.000000	0.667507  	2200.000000	0.510416  	2200.000000	0.518153  	2200.000000	0.505077  	2200.000000	0.510383  	2200.000000	3.24436e-05	
2300.000000	0.670713  	2300.000000	0.51178   	2300.000000	0.518381  	2300.000000	0.505336  	2300.000000	0.511749  	2300.000000	3.11377e-05	
2400.000000	0.674374  	2400.000000	0.513385  	2400.000000	0.518758  	2400.000000	0.50574   	2400.000000	0.513356  	2400.000000	2.99363e-05	
2500.000000	0.678441  	2500.000000	0.515203  	2500.000000	0.51927   	2500.000000	0.506273  	2500.000000	0.515174  	2500.000000	2.88272e-05	
2600.000000	0.682874  	2600.000000	0.517208  	2600.000000	0.519939  	2600.000000	0.506962  	2600.000000	0.51718   	2600.000000	2.78001e-05	
2700.000000	0.68764   	2700.000000	0.51938   	2700.000000	0.52069   	2700.000000	0.507734  	2700.000000	0.519353  	2700.000000	2.68462e-05	
2800.000000	0.692708  	2800.000000	0.521699  	2800.000000	0.52151   	2800.000000	0.508573  	2800.000000	0.521673  	2800.000000	2.59577e-05	
2900.000000	0.698052  	2900.000000	0.524152  	2900.000000	0.522386  	2900.000000	0.50947   	2900.000000	0.524127  	2900.000000	2.51281e-05	
3000.000000	0.703651  	3000.000000	0.526724  	3000.000000	0.523307  	3000.000000	0.510414  	3000.000000	0.526699  	3000.000000	2.43517e-05	
3200.000000	0.715536  	3200.000000	0.532179  	3200.000000	0.525262  	3200.000000	0.512412  	3200.000000	0.532156  	3200.000000	2.29389e-05	
3400.000000	0.728232  	3400.000000	0.537988  	3400.000000	0.527327  	3400.000000	0.514516  	3400.000000	0.537966  	3400.000000	2.16861e-05	
3600.000000	0.741637  	3600.000000	0.544089  	3600.000000	0.529465  	3600.000000	0.516686  	3600.000000	0.544068  	3600.000000	2.05673e-05	
3800.000000	0.755668  	3800.000000	0.550434  	3800.000000	0.531649  	3800.000000	0.518896  	3800.000000	0.550415  	3800.000000	1.95618e-05	
4000.000000	0.770261  	4000.000000	0.556986  	4000.000000	0.533857  	4000.000000	0.521123  	4000.000000	0.556967  	4000.000000	1.86531e-05	
4200.000000	0.785361  	4200.000000	0.563712  	4200.000000	0.53607   	4200.000000	0.523354  	4200.000000	0.563694  	4200.000000	1.78278e-05	
4400.000000	0.800924  	4400.000000	0.570587  	4400.000000	0.538277  	4400.000000	0.525577  	4400.000000	0.57057   	4400.000000	1.70747e-05	
4600.000000	0.816913  	4600.000000	0.577591  	4600.000000	0.540467  	4600.000000	0.527782  	4600.000000	0.577575  	4600.000000	1.63846e-05	
4800.000000	0.833299  	4800.000000	0.584706  	4800.000000	0.542634  	4800.000000	0.529964  	4800.000000	0.58469   	4800.000000	1.57499e-05	
5000.000000	0.850053  	5000.000000	0.591917  	5000.000000	0.544773  	5000.000000	0.532118  	5000.000000	0.591902  	5000.000000	1.51641e-05	
5250.000000	0.871482  	5250.000000	0.601048  	5250.000000	0.547403  	5250.000000	0.534766  	5250.000000	0.601033  	5250.000000	1.44923e-05	
5500.000000	0.893418  	5500.000000	0.61029   	5500.000000	0.54998   	5500.000000	0.537361  	5500.000000	0.610276  	5500.000000	1.38794e-05	
6000.000000	0.938691  	6000.000000	0.629045  	6000.000000	0.554966  	6000.000000	0.542382  	6000.000000	0.629033  	6000.000000	1.28013e-05	
6500.000000	0.985685  	6500.000000	0.648081  	6500.000000	0.55973   	6500.000000	0.547175  	6500.000000	0.648069  	6500.000000	1.18832e-05	
7000.000000	1.03426   	7000.000000	0.667324  	7000.000000	0.564268  	7000.000000	0.551742  	7000.000000	0.667313  	7000.000000	1.10917e-05	
7500.000000	1.08432   	7500.000000	0.686724  	7500.000000	0.568556  	7500.000000	0.556092  	7500.000000	0.686713  	7500.000000	1.04021e-05	
8000.000000	1.13579   	8000.000000	0.706241  	8000.000000	0.572683  	8000.000000	0.560238  	8000.000000	0.706232  	8000.000000	9.79564e-06	
8500.000000	1.1886    	8500.000000	0.725848  	8500.000000	0.576617  	8500.000000	0.564191  	8500.000000	0.725839  	8500.000000	9.25804e-06	
9000.000000	1.24272   	9000.000000	0.745522  	9000.000000	0.580352  	9000.000000	0.567965  	9000.000000	0.745513  	9000.000000	8.77809e-06	
9500.000000	1.2981    	9500.000000	0.765245  	9500.000000	0.583927  	9500.000000	0.571571  	9500.000000	0.765237  	9500.000000	8.3469e-06	
10000.000000	1.35472   	10000.000000	0.785005  	10000.000000	0.587362  	10000.000000	0.575022  	10000.000000	0.784997  	10000.000000	7.95732e-06	
11000.000000	1.47159   	11000.000000	0.824596  	11000.000000	0.593786  	11000.000000	0.581498  	11000.000000	0.824589  	11000.000000	7.28084e-06	
12000.000000	1.59318   	12000.000000	0.864234  	12000.000000	0.599657  	12000.000000	0.587469  	12000.000000	0.864227  	12000.000000	6.71335e-06	
13000.000000	1.71942   	13000.000000	0.903878  	13000.000000	0.605099  	13000.000000	0.593     	13000.000000	0.903872  	13000.000000	6.23028e-06	
14000.000000	1.85023   	14000.000000	0.943504  	14000.000000	0.610197  	14000.000000	0.598146  	14000.000000	0.943498  	14000.000000	5.81391e-06	
15000.000000	1.98557   	15000.000000	0.983093  	15000.000000	0.614975  	15000.000000	0.602951  	15000.000000	0.983088  	15000.000000	5.45122e-06	
16000.000000	2.12542   	16000.000000	1.02264   	16000.000000	0.619432  	16000.000000	0.607456  	16000.000000	1.02263   	16000.000000	5.13236e-06	
17000.000000	2.26977   	17000.000000	1.06212   	17000.000000	0.623588  	17000.000000	0.611691  	17000.000000	1.06212   	17000.000000	4.84976e-06	
18000.000000	2.4186    	18000.000000	1.10155   	18000.000000	0.627473  	18000.000000	0.615686  	18000.000000	1.10155   	18000.000000	4.59752e-06	
19000.000000	2.57192   	19000.000000	1.14091   	19000.000000	0.63112   	19000.000000	0.619464  	19000.000000	1.14091   	19000.000000	4.37095e-06	
20000.000000	2.72972   	20000.000000	1.18021   	20000.000000	0.634557  	20000.000000	0.623046  	20000.000000	1.18021   	20000.000000	4.16629e-06	
21000.000000	2.89202   	21000.000000	1.21945   	21000.000000	0.637829  	21000.000000	0.626451  	21000.000000	1.21944   	21000.000000	3.98047e-06	
22000.000000	3.05881   	22000.000000	1.25862   	22000.000000	0.640993  	22000.000000	0.629693  	22000.000000	1.25861   	22000.000000	3.81099e-06	
23000.000000	3.23013   	23000.000000	1.29772   	23000.000000	0.64398   	23000.000000	0.632787  	23000.000000	1.29772   	23000.000000	3.65576e-06	
24000.000000	3.40597   	24000.000000	1.33676   	24000.000000	0.646805  	24000.000000	0.635745  	24000.000000	1.33675   	24000.000000	3.51304e-06	
25000.000000	3.58635   	25000.000000	1.37573   	25000.000000	0.649512  	25000.000000	0.638577  	25000.000000	1.37573   	25000.000000	3.38135e-06	
26000.000000	3.77129   	26000.000000	1.41464   	26000.000000	0.652102  	26000.000000	0.641294  	26000.000000	1.41464   	26000.000000	3.25947e-06	
27000.000000	3.96081   	27000.000000	1.45349   	27000.000000	0.654576  	27000.000000	0.643903  	27000.000000	1.45349   	27000.000000	3.14631e-06	
28000.000000	4.15493   	28000.000000	1.49228   	28000.000000	0.656945  	28000.000000	0.646413  	28000.000000	1.49228   	28000.000000	3.04098e-06	
29000.000000	4.35366   	29000.000000	1.53101   	29000.000000	0.659219  	29000.000000	0.64883   	29000.000000	1.531     	29000.000000	2.94267e-06	
30000.000000	4.55703   	30000.000000	1.56968   	30000.000000	0.661404  	30000.000000	0.65116   	30000.000000	1.56968   	30000.000000	2.8507e-06	
32000.000000	4.97777   	32000.000000	1.64685   	32000.000000	0.665535  	32000.000000	0.655584  	32000.000000	1.64685   	32000.000000	2.68345e-06	
34000.000000	5.41731   	34000.000000	1.7238    	34000.000000	0.669376  	34000.000000	0.659723  	34000.000000	1.7238    	34000.000000	2.53525e-06	
36000.000000	5.87585   	36000.000000	1.80055   	36000.000000	0.672942  	36000.000000	0.663611  	36000.000000	1.80055   	36000.000000	2.403e-06 	
38000.000000	6.35357   	38000.000000	1.8771    	38000.000000	0.676261  	38000.000000	0.667274  	38000.000000	1.8771    	38000.000000	2.28423e-06	
40000.000000	6.85066   	40000.000000	1.95346   	40000.000000	0.679361  	40000.000000	0.670736  	40000.000000	1.95345   	40000.000000	2.17696e-06	
42000.000000	7.36733   	42000.000000	2.02963   	42000.000000	0.682271  	42000.000000	0.674016  	42000.000000	2.02963   	42000.000000	2.07958e-06	
44000.000000	7.90378   	44000.000000	2.10563   	44000.000000	0.685015  	44000.000000	0.677133  	44000.000000	2.10563   	44000.000000	1.99078e-06	
46000.000000	8.46022   	46000.000000	2.18147   	46000.000000	0.687615  	46000.000000	0.6801    	46000.000000	2.18147   	46000.000000	1.90946e-06	
48000.000000	9.03685   	48000.000000	2.25714   	48000.000000	0.690079  	48000.000000	0.682931  	48000.000000	2.25714   	48000.000000	1.8347e-06	
50000.000000	9.63389   	50000.000000	2.33266   	50000.000000	0.692399  	50000.000000	0.685638  	50000.000000	2.33266   	50000.000000	1.76573e-06	
