Energy (MeV/u)1	0 - [He-base] F.Hubert et al, AD&ND Tables 46(1990)1	Energy (MeV/u)2	1 - [H -base] J.F.Ziegler et al, Pergamon Press, NY (low energy)	Energy (MeV/u)3	2 - ATIMA 1.2  LS-theory (recommended for high energy)	Energy (MeV/u)4	3 - ATIMA 1.2  without LS-correction	Energy (MeV/u)5	4 - electrical component of [1] - J.F.Ziegler et al	Energy (MeV/u)6	5 - nuclear component of [1] - J.F.Ziegler et al	
0.001000	0.278419  	0.001000	1.17722   	0.001000	1.43449   	0.001000	1.43449   	0.001000	0.59018   	0.001000	0.587041  	
0.002000	0.35576   	0.002000	1.3447    	0.002000	1.66845   	0.002000	1.66845   	0.002000	0.952919  	0.002000	0.391782  	
0.005000	0.550406  	0.005000	1.91329   	0.005000	2.29216   	0.005000	2.29216   	0.005000	1.70326   	0.005000	0.210028  	
0.008000	0.696289  	0.008000	2.37521   	0.008000	2.74539   	0.008000	2.74539   	0.008000	2.22583   	0.008000	0.149383  	
0.010000	0.776767  	0.010000	2.63379   	0.010000	2.98627   	0.010000	2.98627   	0.010000	2.5074    	0.010000	0.126387  	
0.015000	0.99105   	0.015000	3.38533   	0.015000	3.46381   	0.015000	3.46381   	0.015000	3.29274   	0.015000	0.092593  	
0.020000	1.17032   	0.020000	4.02829   	0.020000	3.8371    	0.020000	3.8371    	0.020000	3.95441   	0.020000	0.07388   	
0.025000	1.32318   	0.025000	4.59364   	0.025000	4.15196   	0.025000	4.15196   	0.025000	4.53179   	0.025000	0.0618562 	
0.030000	1.45422   	0.030000	5.09868   	0.030000	4.55021   	0.030000	4.55021   	0.030000	5.04526   	0.030000	0.0534208 	
0.035000	1.56622   	0.035000	5.55353   	0.035000	4.9026    	0.035000	4.9026    	0.035000	5.50638   	0.035000	0.0471473 	
0.040000	1.6611    	0.040000	5.96437   	0.040000	5.21693   	0.040000	5.21693   	0.040000	5.92209   	0.040000	0.0422832 	
0.045000	1.7404    	0.045000	6.33516   	0.045000	5.4986    	0.045000	5.4986    	0.045000	6.29677   	0.045000	0.0383922 	
0.050000	1.80549   	0.050000	6.66856   	0.050000	5.75155   	0.050000	5.75155   	0.050000	6.63335   	0.050000	0.0352027 	
0.055000	1.85773   	0.055000	6.96654   	0.055000	5.97876   	0.055000	5.97876   	0.055000	6.934     	0.055000	0.0325368 	
0.060000	1.89842   	0.060000	7.23073   	0.060000	6.18261   	0.060000	6.18261   	0.060000	7.20046   	0.060000	0.0302726 	
0.070000	1.95048   	0.070000	7.66368   	0.070000	6.52774   	0.070000	6.52774   	0.070000	7.63705   	0.070000	0.0266269 	
0.080000	1.97176   	0.080000	7.97955   	0.080000	6.79964   	0.080000	6.79964   	0.080000	7.95573   	0.080000	0.0238132 	
0.090000	1.97124   	0.090000	8.19166   	0.090000	7.00845   	0.090000	7.00845   	0.090000	8.17009   	0.090000	0.0215709 	
0.100000	1.95625   	0.100000	8.3145    	0.100000	7.16287   	0.100000	7.16287   	0.100000	8.29476   	0.100000	0.0197386 	
0.120000	1.90365   	0.120000	8.35126   	0.120000	7.3383    	0.120000	7.3383    	0.120000	8.33434   	0.120000	0.0169174 	
0.140000	1.84152   	0.140000	8.19887   	0.140000	7.37763   	0.140000	7.37763   	0.140000	8.18403   	0.140000	0.0148401 	
0.160000	1.78162   	0.160000	7.94245   	0.160000	7.32144   	0.160000	7.32144   	0.160000	7.92921   	0.160000	0.0132424 	
0.180000	1.72764   	0.180000	7.6397    	0.180000	7.20069   	0.180000	7.20069   	0.180000	7.62773   	0.180000	0.0119728 	
0.200000	1.67985   	0.200000	7.32566   	0.200000	7.03832   	0.200000	7.03832   	0.200000	7.31473   	0.200000	0.010938  	
0.250000	1.5812    	0.250000	6.59405   	0.250000	6.5475    	0.250000	6.5475    	0.250000	6.58503   	0.250000	0.0090256 	
0.300000	1.50064   	0.300000	5.98938   	0.300000	6.03705   	0.300000	6.03705   	0.300000	5.98167   	0.300000	0.00770872	
0.350000	1.42961   	0.350000	5.49929   	0.350000	5.56301   	0.350000	5.56301   	0.350000	5.49255   	0.350000	0.00674328	
0.400000	1.36456   	0.400000	5.09569   	0.400000	5.1413    	0.400000	5.1413    	0.400000	5.08969   	0.400000	0.00600331	
0.450000	1.30415   	0.450000	4.75588   	0.450000	4.77214   	0.450000	4.77214   	0.450000	4.75046   	0.450000	0.00541698	
0.500000	1.24787   	0.500000	4.46406   	0.500000	4.45029   	0.500000	4.45029   	0.500000	4.45912   	0.500000	0.00494026	
0.600000	1.14673   	0.600000	3.98456   	0.600000	3.92278   	0.600000	3.92278   	0.600000	3.98035   	0.600000	0.00421058	
0.700000	1.05942   	0.700000	3.60367   	0.700000	3.51267   	0.700000	3.51267   	0.700000	3.59999   	0.700000	0.00367697	
0.800000	0.984032  	0.800000	3.29211   	0.800000	3.18628   	0.800000	3.18628   	0.800000	3.28885   	0.800000	0.00326882	
0.900000	0.918688  	0.900000	3.03186   	0.900000	2.9206    	0.900000	2.9206    	0.900000	3.02891   	0.900000	0.00294597	
1.000000	0.861689  	1.000000	2.81086   	1.000000	2.69998   	1.000000	2.69998   	1.000000	2.80817   	1.000000	0.00268386	
1.250000	0.746991  	1.250000	2.37993   	1.250000	2.28199   	1.250000	2.28199   	1.250000	2.37773   	1.250000	0.00220213	
1.500000	0.660384  	1.500000	2.0649    	1.500000	1.98507   	1.500000	1.98507   	1.500000	2.06303   	1.500000	0.00187259	
1.750000	0.592554  	1.750000	1.82377   	1.750000	1.76157   	1.750000	1.76157   	1.750000	1.82214   	1.750000	0.00163224	
2.000000	0.537886  	2.000000	1.63292   	2.000000	1.58633   	2.000000	1.58633   	2.000000	1.63148   	2.000000	0.00144879	
2.250000	0.492829  	2.250000	1.47798   	2.250000	1.44474   	2.250000	1.44474   	2.250000	1.47668   	2.250000	0.00130396	
2.500000	0.447396  	2.500000	1.34965   	2.500000	1.32772   	2.500000	1.32772   	2.500000	1.34847   	2.500000	0.00118656	
3.000000	0.390509  	3.000000	1.14945   	3.000000	1.14513   	3.000000	1.14513   	3.000000	1.14844   	3.000000	0.00100754	
3.500000	0.347387  	3.500000	1.00055   	3.500000	1.00889   	3.500000	1.00889   	3.500000	0.999673  	3.500000	0.000877184	
4.000000	0.313472  	4.000000	0.885579  	4.000000	0.903168  	4.000000	0.903168  	4.000000	0.884801  	4.000000	0.000777829	
4.500000	0.286041  	4.500000	0.794187  	4.500000	0.818631  	4.500000	0.818631  	4.500000	0.793487  	4.500000	0.000699474	
5.000000	0.263359  	5.000000	0.719828  	5.000000	0.749425  	5.000000	0.749425  	5.000000	0.719192  	5.000000	0.000636024	
5.500000	0.244266  	5.500000	0.658164  	5.500000	0.691673  	5.500000	0.691673  	5.500000	0.65758   	5.500000	0.000583547	
6.000000	0.227956  	6.000000	0.606205  	6.000000	0.642709  	6.000000	0.642709  	6.000000	0.605666  	6.000000	0.00053939	
6.500000	0.213849  	6.500000	0.561832  	6.500000	0.600636  	6.500000	0.600636  	6.500000	0.56133   	6.500000	0.000501696	
7.000000	0.201518  	7.000000	0.523494  	7.000000	0.564071  	7.000000	0.564071  	7.000000	0.523025  	7.000000	0.000469125	
7.500000	0.190642  	7.500000	0.49004   	7.500000	0.531978  	7.500000	0.531978  	7.500000	0.489599  	7.500000	0.000440686	
8.000000	0.180971  	8.000000	0.460589  	8.000000	0.503567  	8.000000	0.503567  	8.000000	0.460174  	8.000000	0.000415631	
8.500000	0.172313  	8.500000	0.434464  	8.500000	0.478227  	8.500000	0.478227  	8.500000	0.43407   	8.500000	0.000393381	
9.000000	0.164512  	9.000000	0.411129  	9.000000	0.455473  	9.000000	0.455473  	9.000000	0.410755  	9.000000	0.000373485	
9.500000	0.157445  	9.500000	0.390159  	9.500000	0.434921  	9.500000	0.434921  	9.500000	0.389804  	9.500000	0.000355583	
10.000000	0.151012  	10.000000	0.374844  	10.000000	0.416259  	10.000000	0.416259  	10.000000	0.374504  	10.000000	0.000339385	
11.000000	0.139725  	11.000000	0.349146  	11.000000	0.383111  	11.000000	0.383129  	11.000000	0.348835  	11.000000	0.000311204	
12.000000	0.13014   	12.000000	0.326944  	12.000000	0.355108  	12.000000	0.355138  	12.000000	0.326657  	12.000000	0.000287506	
13.000000	0.121893  	13.000000	0.307569  	13.000000	0.331131  	13.000000	0.331164  	13.000000	0.307302  	13.000000	0.000267288	
14.000000	0.114716  	14.000000	0.290511  	14.000000	0.310361  	14.000000	0.310393  	14.000000	0.290261  	14.000000	0.000249829	
15.000000	0.108411  	15.000000	0.275375  	15.000000	0.292188  	15.000000	0.292219  	15.000000	0.27514   	15.000000	0.000234592	
16.000000	0.102825  	16.000000	0.26185   	16.000000	0.276152  	16.000000	0.276182  	16.000000	0.261629  	16.000000	0.000221173	
17.000000	0.0978401 	17.000000	0.249691  	17.000000	0.261899  	17.000000	0.261925  	17.000000	0.249482  	17.000000	0.000209263	
18.000000	0.0933617 	18.000000	0.238698  	18.000000	0.249148  	18.000000	0.249168  	18.000000	0.238499  	18.000000	0.000198616	
19.000000	0.0893154 	19.000000	0.228709  	19.000000	0.237674  	19.000000	0.237688  	19.000000	0.22852   	19.000000	0.00018904	
20.000000	0.0856404 	20.000000	0.219591  	20.000000	0.227289  	20.000000	0.227304  	20.000000	0.219411  	20.000000	0.000180379	
21.000000	0.0822869 	21.000000	0.211234  	21.000000	0.217851  	21.000000	0.217867  	21.000000	0.211061  	21.000000	0.000172506	
22.000000	0.0792136 	22.000000	0.203545  	22.000000	0.209244  	22.000000	0.209256  	22.000000	0.203379  	22.000000	0.000165317	
23.000000	0.0763863 	23.000000	0.196446  	23.000000	0.201365  	23.000000	0.201369  	23.000000	0.196287  	23.000000	0.000158725	
24.000000	0.073776  	24.000000	0.18987   	24.000000	0.194125  	24.000000	0.19412   	24.000000	0.189718  	24.000000	0.000152658	
25.000000	0.0713582 	25.000000	0.183762  	25.000000	0.187451  	25.000000	0.187438  	25.000000	0.183615  	25.000000	0.000147055	
27.000000	0.0670193 	27.000000	0.172759  	27.000000	0.175566  	27.000000	0.175535  	27.000000	0.172621  	27.000000	0.000137041	
29.000000	0.0632345 	29.000000	0.163118  	29.000000	0.165299  	29.000000	0.165261  	29.000000	0.16299   	29.000000	0.00012835	
31.000000	0.0599024 	31.000000	0.1546    	31.000000	0.156344  	31.000000	0.156303  	31.000000	0.154479  	31.000000	0.000120733	
33.000000	0.0569449 	33.000000	0.147015  	33.000000	0.148425  	33.000000	0.148371  	33.000000	0.146901  	33.000000	0.000114  	
35.000000	0.0543011 	35.000000	0.140218  	35.000000	0.14134   	35.000000	0.141289  	35.000000	0.14011   	35.000000	0.000108004	
38.000000	0.0508205 	38.000000	0.131245  	38.000000	0.132039  	38.000000	0.131979  	38.000000	0.131144  	38.000000	0.000100145	
41.000000	0.047814  	41.000000	0.123473  	41.000000	0.124011  	41.000000	0.123951  	41.000000	0.12338   	41.000000	9.33884e-05	
44.000000	0.0451893 	44.000000	0.116675  	44.000000	0.117006  	44.000000	0.116953  	44.000000	0.116588  	44.000000	8.75159e-05	
47.000000	0.0428767 	47.000000	0.110676  	47.000000	0.110857  	47.000000	0.110796  	47.000000	0.110593  	47.000000	8.23625e-05	
50.000000	0.0408226 	50.000000	0.105341  	50.000000	0.105397  	50.000000	0.105336  	50.000000	0.105263  	50.000000	7.78023e-05	
55.000000	0.0378639 	55.000000	0.0976468 	55.000000	0.0975526 	55.000000	0.0974859 	55.000000	0.0975756 	55.000000	7.12637e-05	
60.000000	0.0353657 	60.000000	0.0911452 	60.000000	0.0909355 	60.000000	0.0908741 	60.000000	0.0910794 	60.000000	6.57722e-05	
65.000000	0.0332265 	65.000000	0.0855756 	65.000000	0.0852888 	65.000000	0.0852257 	65.000000	0.0855145 	65.000000	6.10925e-05	
70.000000	0.0313726 	70.000000	0.0807489 	70.000000	0.0804064 	70.000000	0.0803424 	70.000000	0.0806919 	70.000000	5.70552e-05	
75.000000	0.0297494 	75.000000	0.0765244 	75.000000	0.0761359 	75.000000	0.076077  	75.000000	0.0764709 	75.000000	5.35352e-05	
80.000000	0.0283156 	80.000000	0.0727948 	80.000000	0.0723822 	80.000000	0.0723181 	80.000000	0.0727443 	80.000000	5.0438e-05	
85.000000	0.027039  	85.000000	0.069477  	85.000000	0.0690405 	85.000000	0.0689798 	85.000000	0.0694293 	85.000000	4.7691e-05	
90.000000	0.0258947 	90.000000	0.0665058 	90.000000	0.0660526 	90.000000	0.0659945 	90.000000	0.0664606 	90.000000	4.52373e-05	
95.000000	0.0248627 	95.000000	0.063829  	95.000000	0.0633708 	95.000000	0.0633086 	95.000000	0.063786  	95.000000	4.30319e-05	
100.000000	0.0239268 	100.000000	0.0614046 	100.000000	0.0609385 	100.000000	0.060879  	100.000000	0.0613636 	100.000000	4.10384e-05	
105.000000	0.0230739 	105.000000	0.0591981 	105.000000	0.0587273 	105.000000	0.0586702 	105.000000	0.0591589 	105.000000	3.92275e-05	
110.000000	0.0222932 	110.000000	0.0571812 	110.000000	0.0567077 	110.000000	0.0566534 	110.000000	0.0571436 	110.000000	3.75748e-05	
115.000000	0.0215756 	115.000000	0.0553302 	115.000000	0.0548606 	115.000000	0.0548044 	115.000000	0.0552941 	115.000000	3.60603e-05	
120.000000	0.0209137 	120.000000	0.0536253 	120.000000	0.0531603 	120.000000	0.0531029 	120.000000	0.0535906 	120.000000	3.46672e-05	
125.000000	0.020301  	125.000000	0.0520497 	125.000000	0.0515864 	125.000000	0.051532  	125.000000	0.0520163 	125.000000	3.33812e-05	
130.000000	0.0197322 	130.000000	0.0505892 	130.000000	0.0501298 	130.000000	0.050077  	130.000000	0.050557  	130.000000	3.21903e-05	
135.000000	0.0192024 	135.000000	0.0492315 	135.000000	0.0487808 	135.000000	0.0487256 	135.000000	0.0492004 	135.000000	3.10843e-05	
140.000000	0.0187078 	140.000000	0.047966  	140.000000	0.0475224 	140.000000	0.047467  	140.000000	0.047936  	140.000000	3.00542e-05	
145.000000	0.0182449 	145.000000	0.0467837 	145.000000	0.0463453 	145.000000	0.046292  	145.000000	0.0467546 	145.000000	2.90925e-05	
150.000000	0.0178106 	150.000000	0.0456765 	150.000000	0.0452445 	150.000000	0.0451925 	150.000000	0.0456483 	150.000000	2.81925e-05	
155.000000	0.0171992 	155.000000	0.0446374 	155.000000	0.0442116 	155.000000	0.0441615 	155.000000	0.0446101 	155.000000	2.73483e-05	
160.000000	0.0168407 	160.000000	0.0436604 	160.000000	0.0432424 	160.000000	0.0431927 	160.000000	0.0436339 	160.000000	2.65548e-05	
165.000000	0.0165028 	165.000000	0.04274   	165.000000	0.0423323 	165.000000	0.0422806 	165.000000	0.0427142 	165.000000	2.58076e-05	
170.000000	0.0161835 	170.000000	0.0418714 	170.000000	0.0414723 	170.000000	0.0414205 	170.000000	0.0418463 	170.000000	2.51027e-05	
175.000000	0.0158814 	175.000000	0.0410504 	175.000000	0.0406583 	175.000000	0.0406081 	175.000000	0.0410259 	175.000000	2.44366e-05	
180.000000	0.0155951 	180.000000	0.0402731 	180.000000	0.0398886 	180.000000	0.0398394 	180.000000	0.0402493 	180.000000	2.3806e-05	
185.000000	0.0153234 	185.000000	0.0395361 	185.000000	0.0391592 	185.000000	0.0391112 	185.000000	0.0395129 	185.000000	2.32083e-05	
190.000000	0.0150651 	190.000000	0.0388364 	190.000000	0.0384669 	190.000000	0.0384201 	190.000000	0.0388138 	190.000000	2.26408e-05	
195.000000	0.0148194 	195.000000	0.0381712 	195.000000	0.0378106 	195.000000	0.0377636 	195.000000	0.0381491 	195.000000	2.21014e-05	
200.000000	0.0145852 	200.000000	0.0375381 	200.000000	0.0371875 	200.000000	0.0371391 	200.000000	0.0375165 	200.000000	2.15879e-05	
210.000000	0.0141486 	210.000000	0.036359  	210.000000	0.0360248 	210.000000	0.0359772 	210.000000	0.0363384 	210.000000	2.06315e-05	
220.000000	0.0137495 	220.000000	0.0352835 	220.000000	0.0349646 	220.000000	0.0349187 	220.000000	0.0352638 	220.000000	1.97589e-05	
230.000000	0.0133832 	230.000000	0.0342986 	230.000000	0.0339945 	230.000000	0.0339505 	230.000000	0.0342797 	230.000000	1.89594e-05	
240.000000	0.013046  	240.000000	0.0333934 	240.000000	0.0331068 	240.000000	0.0330616 	240.000000	0.0333752 	240.000000	1.82241e-05	
250.000000	0.0127343 	250.000000	0.0325586 	250.000000	0.0322881 	250.000000	0.0322428 	250.000000	0.032541  	250.000000	1.75455e-05	
260.000000	0.0124455 	260.000000	0.0317863 	260.000000	0.03153   	260.000000	0.0314862 	260.000000	0.0317694 	260.000000	1.69172e-05	
270.000000	0.0121771 	270.000000	0.03107   	270.000000	0.0308278 	270.000000	0.0307851 	270.000000	0.0310536 	270.000000	1.63337e-05	
280.000000	0.011927  	280.000000	0.0304037 	280.000000	0.0301754 	280.000000	0.0301338 	280.000000	0.0303879 	280.000000	1.57904e-05	
290.000000	0.0116933 	290.000000	0.0297825 	290.000000	0.02957   	290.000000	0.0295271 	290.000000	0.0297672 	290.000000	1.52833e-05	
300.000000	0.0114746 	300.000000	0.029202  	300.000000	0.0290039 	300.000000	0.0289608 	300.000000	0.0291872 	300.000000	1.48087e-05	
310.000000	0.0112695 	310.000000	0.0286584 	310.000000	0.0284729 	310.000000	0.0284311 	310.000000	0.028644  	310.000000	1.43636e-05	
320.000000	0.0110766 	320.000000	0.0281484 	320.000000	0.0279756 	320.000000	0.0279346 	320.000000	0.0281344 	320.000000	1.39453e-05	
330.000000	0.0108951 	330.000000	0.027669  	330.000000	0.0275083 	330.000000	0.0274684 	330.000000	0.0276554 	330.000000	1.35515e-05	
340.000000	0.0107238 	340.000000	0.0272176 	340.000000	0.0270694 	340.000000	0.0270298 	340.000000	0.0272044 	340.000000	1.318e-05 	
350.000000	0.0105621 	350.000000	0.0267919 	350.000000	0.0266571 	350.000000	0.0266166 	350.000000	0.026779  	350.000000	1.28289e-05	
360.000000	0.010409  	360.000000	0.0263897 	360.000000	0.0262675 	360.000000	0.0262266 	360.000000	0.0263772 	360.000000	1.24967e-05	
370.000000	0.010264  	370.000000	0.0260094 	370.000000	0.0258981 	370.000000	0.0258581 	370.000000	0.0259972 	370.000000	1.21818e-05	
380.000000	0.0101264 	380.000000	0.0256491 	380.000000	0.0255487 	380.000000	0.0255094 	380.000000	0.0256372 	380.000000	1.18829e-05	
390.000000	0.00999578	390.000000	0.0253074 	390.000000	0.0252177 	390.000000	0.0251789 	390.000000	0.0252958 	390.000000	1.15987e-05	
400.000000	0.00987153	400.000000	0.024983  	400.000000	0.0249034 	400.000000	0.0248654 	400.000000	0.0249717 	400.000000	1.13283e-05	
410.000000	0.00975323	410.000000	0.0246746 	410.000000	0.0246052 	410.000000	0.0245676 	410.000000	0.0246635 	410.000000	1.10705e-05	
420.000000	0.00964049	420.000000	0.0243811 	420.000000	0.0243227 	420.000000	0.0242845 	420.000000	0.0243703 	420.000000	1.08246e-05	
430.000000	0.00953294	430.000000	0.0241015 	430.000000	0.0240538 	430.000000	0.024015  	430.000000	0.0240909 	430.000000	1.05898e-05	
440.000000	0.00943023	440.000000	0.0238349 	440.000000	0.0237969 	440.000000	0.0237582 	440.000000	0.0238246 	440.000000	1.03652e-05	
450.000000	0.00933207	450.000000	0.0235805 	450.000000	0.0235513 	450.000000	0.0235132 	450.000000	0.0235703 	450.000000	1.01503e-05	
460.000000	0.00923817	460.000000	0.0233374 	460.000000	0.0233169 	460.000000	0.0232794 	460.000000	0.0233274 	460.000000	9.94434e-06	
470.000000	0.00914827	470.000000	0.023105  	470.000000	0.0230932 	470.000000	0.023056  	470.000000	0.0230952 	470.000000	9.74687e-06	
480.000000	0.00906213	480.000000	0.0228826 	480.000000	0.0228791 	480.000000	0.0228424 	480.000000	0.022873  	480.000000	9.55734e-06	
490.000000	0.00897954	490.000000	0.0226697 	490.000000	0.0226741 	490.000000	0.022638  	490.000000	0.0226603 	490.000000	9.37526e-06	
500.000000	0.0089003 	500.000000	0.0224656 	500.000000	0.0224781 	500.000000	0.0224422 	500.000000	0.0224564 	500.000000	9.20022e-06	
520.000000	0.00875111	520.000000	0.0220821 	520.000000	0.0221113 	520.000000	0.0220746 	520.000000	0.0220732 	520.000000	8.86962e-06	
540.000000	0.00861322	540.000000	0.0217285 	540.000000	0.0217728 	540.000000	0.021736  	540.000000	0.02172   	540.000000	8.56267e-06	
560.000000	0.00848549	560.000000	0.0214018 	560.000000	0.0214593 	560.000000	0.0214234 	560.000000	0.0213935 	560.000000	8.27688e-06	
580.000000	0.00836692	580.000000	0.0210991 	580.000000	0.0211694 	580.000000	0.021134  	580.000000	0.0210911 	580.000000	8.01013e-06	
600.000000	0.00825663	600.000000	0.0208182 	600.000000	0.0209003 	600.000000	0.0208656 	600.000000	0.0208104 	600.000000	7.76054e-06	
620.000000	0.00815387	620.000000	0.020557  	620.000000	0.0206504 	620.000000	0.0206162 	620.000000	0.0205495 	620.000000	7.52651e-06	
640.000000	0.00805797	640.000000	0.0203137 	640.000000	0.0204187 	640.000000	0.0203839 	640.000000	0.0203064 	640.000000	7.3066e-06	
660.000000	0.00796833	660.000000	0.0200868 	660.000000	0.0202025 	660.000000	0.0201672 	660.000000	0.0200797 	660.000000	7.09957e-06	
680.000000	0.00788444	680.000000	0.0198748 	680.000000	0.0199997 	680.000000	0.0199648 	680.000000	0.0198679 	680.000000	6.90429e-06	
700.000000	0.00780583	700.000000	0.0196764 	700.000000	0.0198097 	700.000000	0.0197754 	700.000000	0.0196697 	700.000000	6.7198e-06	
720.000000	0.00773207	720.000000	0.0194907 	720.000000	0.0196319 	720.000000	0.0195979 	720.000000	0.0194841 	720.000000	6.5452e-06	
740.000000	0.0076628 	740.000000	0.0193165 	740.000000	0.019465  	740.000000	0.0194314 	740.000000	0.0193101 	740.000000	6.37972e-06	
760.000000	0.00759768	760.000000	0.019153  	760.000000	0.019308  	760.000000	0.019275  	760.000000	0.0191467 	760.000000	6.22265e-06	
780.000000	0.00753641	780.000000	0.0189993 	780.000000	0.0191606 	780.000000	0.0191278 	780.000000	0.0189933 	780.000000	6.07337e-06	
800.000000	0.00747872	800.000000	0.0188549 	800.000000	0.0190223 	800.000000	0.0189893 	800.000000	0.0188489 	800.000000	5.93129e-06	
820.000000	0.00742435	820.000000	0.0187189 	820.000000	0.0188922 	820.000000	0.0188587 	820.000000	0.0187131 	820.000000	5.79591e-06	
840.000000	0.00737309	840.000000	0.0185909 	840.000000	0.0187692 	840.000000	0.0187355 	840.000000	0.0185852 	840.000000	5.66676e-06	
860.000000	0.00732473	860.000000	0.0184702 	860.000000	0.0186527 	860.000000	0.0186191 	860.000000	0.0184647 	860.000000	5.54341e-06	
880.000000	0.00727909	880.000000	0.0183564 	880.000000	0.0185424 	880.000000	0.0185092 	880.000000	0.018351  	880.000000	5.42548e-06	
900.000000	0.00723599	900.000000	0.0182491 	900.000000	0.018438  	900.000000	0.0184051 	900.000000	0.0182438 	900.000000	5.31261e-06	
920.000000	0.00719527	920.000000	0.0181478 	920.000000	0.0183392 	920.000000	0.0183067 	920.000000	0.0181426 	920.000000	5.20449e-06	
940.000000	0.0071568 	940.000000	0.0180521 	940.000000	0.0182457 	940.000000	0.0182134 	940.000000	0.018047  	940.000000	5.10081e-06	
960.000000	0.00712044	960.000000	0.0179617 	960.000000	0.0181571 	960.000000	0.0181249 	960.000000	0.0179567 	960.000000	5.0013e-06	
980.000000	0.00708607	980.000000	0.0178764 	980.000000	0.018073  	980.000000	0.018041  	980.000000	0.0178715 	980.000000	4.90572e-06	
1000.000000	0.00705357	1000.000000	0.0177957 	1000.000000	0.0179932 	1000.000000	0.0179614 	1000.000000	0.0177909 	1000.000000	4.81384e-06	
1020.000000	0.00702285	1020.000000	0.0177194 	1020.000000	0.0179174 	1020.000000	0.0178858 	1020.000000	0.0177147 	1020.000000	4.72544e-06	
1040.000000	0.00699381	1040.000000	0.0176473 	1040.000000	0.0178452 	1040.000000	0.0178139 	1040.000000	0.0176427 	1040.000000	4.64032e-06	
1060.000000	0.00696635	1060.000000	0.0175792 	1060.000000	0.0177766 	1060.000000	0.0177456 	1060.000000	0.0175746 	1060.000000	4.55831e-06	
1080.000000	0.0069404 	1080.000000	0.0175148 	1080.000000	0.0177115 	1080.000000	0.0176806 	1080.000000	0.0175103 	1080.000000	4.47923e-06	
1100.000000	0.00691588	1100.000000	0.0174539 	1100.000000	0.0176495 	1100.000000	0.0176188 	1100.000000	0.0174495 	1100.000000	4.40293e-06	
1120.000000	0.00689271	1120.000000	0.0173964 	1120.000000	0.0175907 	1120.000000	0.0175599 	1120.000000	0.017392  	1120.000000	4.32927e-06	
1140.000000	0.00687084	1140.000000	0.017342  	1140.000000	0.0175348 	1140.000000	0.0175038 	1140.000000	0.0173378 	1140.000000	4.25811e-06	
1160.000000	0.00685019	1160.000000	0.0172907 	1160.000000	0.0174817 	1160.000000	0.0174504 	1160.000000	0.0172865 	1160.000000	4.18931e-06	
1180.000000	0.00683071	1180.000000	0.0172422 	1180.000000	0.017431  	1180.000000	0.0173995 	1180.000000	0.017238  	1180.000000	4.12277e-06	
1200.000000	0.00681234	1200.000000	0.0171964 	1200.000000	0.0173826 	1200.000000	0.017351  	1200.000000	0.0171923 	1200.000000	4.05838e-06	
1220.000000	0.00679504	1220.000000	0.0171532 	1220.000000	0.0173363 	1220.000000	0.0173048 	1220.000000	0.0171492 	1220.000000	3.99603e-06	
1240.000000	0.00677875	1240.000000	0.0171125 	1240.000000	0.0172921 	1240.000000	0.0172606 	1240.000000	0.0171086 	1240.000000	3.93562e-06	
1260.000000	0.00676344	1260.000000	0.0170741 	1260.000000	0.0172499 	1260.000000	0.0172185 	1260.000000	0.0170703 	1260.000000	3.87706e-06	
1280.000000	0.00674905	1280.000000	0.017038  	1280.000000	0.0172096 	1280.000000	0.0171784 	1280.000000	0.0170342 	1280.000000	3.82028e-06	
1300.000000	0.00673554	1300.000000	0.017004  	1300.000000	0.0171711 	1300.000000	0.01714   	1300.000000	0.0170003 	1300.000000	3.76518e-06	
1320.000000	0.00672289	1320.000000	0.0169721 	1320.000000	0.0171343 	1320.000000	0.0171034 	1320.000000	0.0169684 	1320.000000	3.7117e-06	
1340.000000	0.00671106	1340.000000	0.0169421 	1340.000000	0.0170993 	1340.000000	0.0170685 	1340.000000	0.0169385 	1340.000000	3.65976e-06	
1360.000000	0.0067    	1360.000000	0.016914  	1360.000000	0.0170658 	1360.000000	0.0170352 	1360.000000	0.0169104 	1360.000000	3.6093e-06	
1380.000000	0.00668969	1380.000000	0.0168877 	1380.000000	0.0170339 	1380.000000	0.0170033 	1380.000000	0.0168841 	1380.000000	3.56025e-06	
1400.000000	0.00668011	1400.000000	0.0168631 	1400.000000	0.0170034 	1400.000000	0.0169729 	1400.000000	0.0168596 	1400.000000	3.51256e-06	
1420.000000	0.00667121	1420.000000	0.0168401 	1420.000000	0.0169742 	1420.000000	0.0169439 	1420.000000	0.0168366 	1420.000000	3.46617e-06	
1440.000000	0.00666299	1440.000000	0.0168187 	1440.000000	0.0169464 	1440.000000	0.0169161 	1440.000000	0.0168153 	1440.000000	3.42102e-06	
1460.000000	0.0066554 	1460.000000	0.0167988 	1460.000000	0.0169198 	1460.000000	0.0168897 	1460.000000	0.0167955 	1460.000000	3.37707e-06	
1480.000000	0.00664842	1480.000000	0.0167804 	1480.000000	0.0168944 	1480.000000	0.0168644 	1480.000000	0.0167771 	1480.000000	3.33427e-06	
1500.000000	0.00664204	1500.000000	0.0167634 	1500.000000	0.0168701 	1500.000000	0.0168402 	1500.000000	0.0167601 	1500.000000	3.29257e-06	
1520.000000	0.00663624	1520.000000	0.0167477 	1520.000000	0.0168469 	1520.000000	0.0168172 	1520.000000	0.0167444 	1520.000000	3.25194e-06	
1540.000000	0.00663098	1540.000000	0.0167333 	1540.000000	0.0168248 	1540.000000	0.0167951 	1540.000000	0.0167301 	1540.000000	3.21232e-06	
1560.000000	0.00662625	1560.000000	0.0167201 	1560.000000	0.0168037 	1560.000000	0.0167741 	1560.000000	0.0167169 	1560.000000	3.17369e-06	
1580.000000	0.00662204	1580.000000	0.0167081 	1580.000000	0.0167836 	1580.000000	0.0167541 	1580.000000	0.016705  	1580.000000	3.136e-06 	
1600.000000	0.00661832	1600.000000	0.0166973 	1600.000000	0.0167645 	1600.000000	0.0167349 	1600.000000	0.0166942 	1600.000000	3.09923e-06	
1620.000000	0.00661509	1620.000000	0.0166876 	1620.000000	0.0167463 	1620.000000	0.0167167 	1620.000000	0.0166845 	1620.000000	3.06333e-06	
1640.000000	0.00661231	1640.000000	0.016679  	1640.000000	0.0167289 	1640.000000	0.0166992 	1640.000000	0.0166759 	1640.000000	3.02828e-06	
1660.000000	0.00660998	1660.000000	0.0166713 	1660.000000	0.0167124 	1660.000000	0.0166826 	1660.000000	0.0166683 	1660.000000	2.99404e-06	
1680.000000	0.00660809	1680.000000	0.0166647 	1680.000000	0.0166967 	1680.000000	0.0166668 	1680.000000	0.0166617 	1680.000000	2.9606e-06	
1700.000000	0.00660661	1700.000000	0.016659  	1700.000000	0.0166817 	1700.000000	0.0166517 	1700.000000	0.0166561 	1700.000000	2.92791e-06	
1750.000000	0.00660466	1750.000000	0.0166488 	1750.000000	0.0166473 	1750.000000	0.016617  	1750.000000	0.016646  	1750.000000	2.84937e-06	
1800.000000	0.00660506	1800.000000	0.0166439 	1800.000000	0.0166168 	1800.000000	0.0165864 	1800.000000	0.0166411 	1800.000000	2.77504e-06	
1850.000000	0.00660763	1850.000000	0.0166439 	1850.000000	0.0165898 	1850.000000	0.0165595 	1850.000000	0.0166412 	1850.000000	2.70461e-06	
1900.000000	0.00661221	1900.000000	0.0166484 	1900.000000	0.0165661 	1900.000000	0.0165359 	1900.000000	0.0166457 	1900.000000	2.63776e-06	
1950.000000	0.00661867	1950.000000	0.016657  	1950.000000	0.0165454 	1950.000000	0.0165153 	1950.000000	0.0166544 	1950.000000	2.57424e-06	
2000.000000	0.00662688	2000.000000	0.0166694 	2000.000000	0.0165274 	2000.000000	0.0164975 	2000.000000	0.0166669 	2000.000000	2.51378e-06	
2100.000000	0.0066481 	2100.000000	0.0167048 	2100.000000	0.0164989 	2100.000000	0.0164693 	2100.000000	0.0167024 	2100.000000	2.40124e-06	
2200.000000	0.00667507	2200.000000	0.0167524 	2200.000000	0.016479  	2200.000000	0.0164496 	2200.000000	0.0167501 	2200.000000	2.29862e-06	
2300.000000	0.00670714	2300.000000	0.0168108 	2300.000000	0.0164663 	2300.000000	0.016437  	2300.000000	0.0168086 	2300.000000	2.20464e-06	
2400.000000	0.00674375	2400.000000	0.0168785 	2400.000000	0.0164596 	2400.000000	0.0164305 	2400.000000	0.0168764 	2400.000000	2.11824e-06	
2500.000000	0.00678441	2500.000000	0.0169544 	2500.000000	0.016458  	2500.000000	0.0164291 	2500.000000	0.0169524 	2500.000000	2.03855e-06	
2600.000000	0.00682875	2600.000000	0.0170377 	2600.000000	0.0164607 	2600.000000	0.016432  	2600.000000	0.0170357 	2600.000000	1.96479e-06	
2700.000000	0.0068764 	2700.000000	0.0171274 	2700.000000	0.0164673 	2700.000000	0.0164387 	2700.000000	0.0171255 	2700.000000	1.89633e-06	
2800.000000	0.00692708	2800.000000	0.0172228 	2800.000000	0.0164771 	2800.000000	0.0164485 	2800.000000	0.017221  	2800.000000	1.83261e-06	
2900.000000	0.00698053	2900.000000	0.0173234 	2900.000000	0.0164896 	2900.000000	0.0164611 	2900.000000	0.0173216 	2900.000000	1.77315e-06	
3000.000000	0.00703652	3000.000000	0.0174286 	3000.000000	0.0165046 	3000.000000	0.0164761 	3000.000000	0.0174269 	3000.000000	1.71753e-06	
3200.000000	0.00715537	3200.000000	0.0176511 	3200.000000	0.0165404 	3200.000000	0.0165117 	3200.000000	0.0176495 	3200.000000	1.6164e-06	
3400.000000	0.00728233	3400.000000	0.0178874 	3400.000000	0.0165822 	3400.000000	0.0165533 	3400.000000	0.0178858 	3400.000000	1.52682e-06	
3600.000000	0.00741637	3600.000000	0.0181349 	3600.000000	0.0166283 	3600.000000	0.0165994 	3600.000000	0.0181334 	3600.000000	1.44689e-06	
3800.000000	0.00755668	3800.000000	0.0183919 	3800.000000	0.0166775 	3800.000000	0.0166486 	3800.000000	0.0183905 	3800.000000	1.37513e-06	
4000.000000	0.00770261	4000.000000	0.0186568 	4000.000000	0.016729  	4000.000000	0.0167002 	4000.000000	0.0186555 	4000.000000	1.31032e-06	
4200.000000	0.00785361	4200.000000	0.0189286 	4200.000000	0.0167821 	4200.000000	0.0167533 	4200.000000	0.0189273 	4200.000000	1.25151e-06	
4400.000000	0.00800924	4400.000000	0.019206  	4400.000000	0.0168363 	4400.000000	0.0168076 	4400.000000	0.0192048 	4400.000000	1.19788e-06	
4600.000000	0.00816914	4600.000000	0.0194885 	4600.000000	0.0168911 	4600.000000	0.0168625 	4600.000000	0.0194874 	4600.000000	1.14878e-06	
4800.000000	0.00833299	4800.000000	0.0197752 	4800.000000	0.0169463 	4800.000000	0.0169177 	4800.000000	0.0197741 	4800.000000	1.10365e-06	
5000.000000	0.00850053	5000.000000	0.0200657 	5000.000000	0.0170016 	5000.000000	0.0169731 	5000.000000	0.0200646 	5000.000000	1.06202e-06	
5250.000000	0.00871482	5250.000000	0.0204333 	5250.000000	0.0170705 	5250.000000	0.0170421 	5250.000000	0.0204323 	5250.000000	1.01431e-06	
5500.000000	0.00893418	5500.000000	0.0208051 	5500.000000	0.017139  	5500.000000	0.0171107 	5500.000000	0.0208042 	5500.000000	9.70817e-07	
6000.000000	0.00938691	6000.000000	0.0215593 	6000.000000	0.0172739 	6000.000000	0.0172456 	6000.000000	0.0215584 	6000.000000	8.94387e-07	
6500.000000	0.00985685	6500.000000	0.0223241 	6500.000000	0.0174052 	6500.000000	0.0173769 	6500.000000	0.0223233 	6500.000000	8.29385e-07	
7000.000000	0.0103426 	7000.000000	0.023097  	7000.000000	0.0175322 	7000.000000	0.017504  	7000.000000	0.0230962 	7000.000000	7.73407e-07	
7500.000000	0.0108432 	7500.000000	0.0238758 	7500.000000	0.0176548 	7500.000000	0.0176267 	7500.000000	0.0238751 	7500.000000	7.24683e-07	
8000.000000	0.0113579 	8000.000000	0.0246591 	8000.000000	0.0177732 	8000.000000	0.017745  	8000.000000	0.0246584 	8000.000000	6.81878e-07	
8500.000000	0.011886  	8500.000000	0.0254458 	8500.000000	0.0178869 	8500.000000	0.0178589 	8500.000000	0.0254451 	8500.000000	6.43967e-07	
9000.000000	0.0124272 	9000.000000	0.0262349 	9000.000000	0.0179961 	9000.000000	0.0179686 	9000.000000	0.0262343 	9000.000000	6.10149e-07	
9500.000000	0.012981  	9500.000000	0.027026  	9500.000000	0.0181014 	9500.000000	0.0180744 	9500.000000	0.0270254 	9500.000000	5.79791e-07	
10000.000000	0.0135472 	10000.000000	0.0278183 	10000.000000	0.0182032 	10000.000000	0.0181763 	10000.000000	0.0278178 	10000.000000	5.52383e-07	
11000.000000	0.0147159 	11000.000000	0.0294056 	11000.000000	0.0183965 	11000.000000	0.0183696 	11000.000000	0.0294051 	11000.000000	5.04838e-07	
12000.000000	0.0159318 	12000.000000	0.0309944 	12000.000000	0.018577  	12000.000000	0.01855   	12000.000000	0.030994  	12000.000000	4.65004e-07	
13000.000000	0.0171942 	13000.000000	0.0325833 	13000.000000	0.0187458 	13000.000000	0.0187189 	13000.000000	0.0325828 	13000.000000	4.31133e-07	
14000.000000	0.0185023 	14000.000000	0.0341712 	14000.000000	0.0189042 	14000.000000	0.0188776 	14000.000000	0.0341708 	14000.000000	4.0197e-07	
15000.000000	0.0198557 	15000.000000	0.0357575 	15000.000000	0.0190534 	15000.000000	0.0190272 	15000.000000	0.0357571 	15000.000000	3.7659e-07	
16000.000000	0.0212542 	16000.000000	0.0373418 	16000.000000	0.0191943 	16000.000000	0.0191685 	16000.000000	0.0373414 	16000.000000	3.54297e-07	
17000.000000	0.0226977 	17000.000000	0.0389237 	17000.000000	0.0193279 	17000.000000	0.0193024 	17000.000000	0.0389234 	17000.000000	3.34556e-07	
18000.000000	0.024186  	18000.000000	0.0405032 	18000.000000	0.0194549 	18000.000000	0.0194296 	18000.000000	0.0405029 	18000.000000	3.16949e-07	
19000.000000	0.0257192 	19000.000000	0.0420801 	19000.000000	0.0195759 	19000.000000	0.0195507 	19000.000000	0.0420798 	19000.000000	3.01144e-07	
20000.000000	0.0272972 	20000.000000	0.0436543 	20000.000000	0.0196913 	20000.000000	0.0196662 	20000.000000	0.0436541 	20000.000000	2.86878e-07	
21000.000000	0.0289202 	21000.000000	0.0452259 	21000.000000	0.0198018 	21000.000000	0.0197766 	21000.000000	0.0452256 	21000.000000	2.73934e-07	
22000.000000	0.0305881 	22000.000000	0.0467947 	22000.000000	0.0199075 	22000.000000	0.0198824 	22000.000000	0.0467945 	22000.000000	2.62134e-07	
23000.000000	0.0323013 	23000.000000	0.0483609 	23000.000000	0.0200083 	23000.000000	0.0199839 	23000.000000	0.0483607 	23000.000000	2.51333e-07	
24000.000000	0.0340597 	24000.000000	0.0499245 	24000.000000	0.0201051 	24000.000000	0.0200814 	24000.000000	0.0499243 	24000.000000	2.41407e-07	
25000.000000	0.0358635 	25000.000000	0.0514855 	25000.000000	0.020199  	25000.000000	0.0201753 	25000.000000	0.0514852 	25000.000000	2.32255e-07	
26000.000000	0.0377129 	26000.000000	0.0530439 	26000.000000	0.0202893 	26000.000000	0.0202657 	26000.000000	0.0530437 	26000.000000	2.23787e-07	
27000.000000	0.0396081 	27000.000000	0.0545998 	27000.000000	0.0203761 	27000.000000	0.0203529 	27000.000000	0.0545996 	27000.000000	2.1593e-07	
28000.000000	0.0415493 	28000.000000	0.0561533 	28000.000000	0.0204597 	28000.000000	0.0204372 	28000.000000	0.0561531 	28000.000000	2.08618e-07	
29000.000000	0.0435366 	29000.000000	0.0577043 	29000.000000	0.0205406 	29000.000000	0.0205187 	29000.000000	0.0577041 	29000.000000	2.01798e-07	
30000.000000	0.0455703 	30000.000000	0.059253  	30000.000000	0.0206191 	30000.000000	0.0205976 	30000.000000	0.0592528 	30000.000000	1.95419e-07	
32000.000000	0.0497777 	32000.000000	0.0623436 	32000.000000	0.0207689 	32000.000000	0.0207482 	32000.000000	0.0623434 	32000.000000	1.83828e-07	
34000.000000	0.0541731 	34000.000000	0.0654254 	34000.000000	0.0209098 	34000.000000	0.0208901 	34000.000000	0.0654253 	34000.000000	1.73564e-07	
36000.000000	0.0587585 	36000.000000	0.0684989 	36000.000000	0.0210429 	36000.000000	0.0210243 	36000.000000	0.0684987 	36000.000000	1.64411e-07	
38000.000000	0.0635357 	38000.000000	0.0715644 	38000.000000	0.0211692 	38000.000000	0.0211516 	38000.000000	0.0715642 	38000.000000	1.56197e-07	
40000.000000	0.0685066 	40000.000000	0.0746222 	40000.000000	0.0212892 	40000.000000	0.0212726 	40000.000000	0.074622  	40000.000000	1.48782e-07	
42000.000000	0.0736733 	42000.000000	0.0776727 	42000.000000	0.0214036 	42000.000000	0.0213879 	42000.000000	0.0776726 	42000.000000	1.42056e-07	
44000.000000	0.0790378 	44000.000000	0.0807162 	44000.000000	0.0215126 	44000.000000	0.021498  	44000.000000	0.0807161 	44000.000000	1.35925e-07	
46000.000000	0.0846022 	46000.000000	0.083753  	46000.000000	0.0216168 	46000.000000	0.0216034 	46000.000000	0.0837529 	46000.000000	1.30313e-07	
48000.000000	0.0903685 	48000.000000	0.0867834 	48000.000000	0.0217166 	48000.000000	0.0217045 	48000.000000	0.0867833 	48000.000000	1.25156e-07	
50000.000000	0.0963389 	50000.000000	0.0898076 	50000.000000	0.0218123 	50000.000000	0.0218015 	50000.000000	0.0898074 	50000.000000	1.20402e-07	
