0.001000	2.6229    	0.001000	1.57598   	0.001000	1.79455   	0.001000	1.79455   	0.001000	0.589976  	0.001000	0.986002  	
0.002000	2.66371   	0.002000	1.60772   	0.002000	1.87315   	0.002000	1.87315   	0.002000	0.765104  	0.002000	0.842613  	
0.005000	2.90869   	0.005000	1.67116   	0.005000	2.01251   	0.005000	2.01251   	0.005000	1.07882   	0.005000	0.592345  	
0.008000	3.17204   	0.008000	1.75399   	0.008000	2.14134   	0.008000	2.14134   	0.008000	1.28675   	0.008000	0.467246  	
0.010000	3.33675   	0.010000	1.8118    	0.010000	2.22282   	0.010000	2.22282   	0.010000	1.39905   	0.010000	0.412745  	
0.015000	3.93118   	0.015000	2.01552   	0.015000	2.46329   	0.015000	2.46329   	0.015000	1.69142   	0.015000	0.324102  	
0.020000	4.50659   	0.020000	2.49841   	0.020000	2.90365   	0.020000	2.90365   	0.020000	2.22849   	0.020000	0.269923  	
0.025000	5.16475   	0.025000	3.00709   	0.025000	3.36304   	0.025000	3.36304   	0.025000	2.77421   	0.025000	0.232876  	
0.030000	5.76839   	0.030000	3.52209   	0.030000	3.78311   	0.030000	3.78311   	0.030000	3.31637   	0.030000	0.205717  	
0.035000	6.3049    	0.035000	4.02969   	0.035000	4.1898    	0.035000	4.1898    	0.035000	3.84486   	0.035000	0.184834  	
0.040000	6.76604   	0.040000	4.51828   	0.040000	4.57782   	0.040000	4.57782   	0.040000	4.35165   	0.040000	0.166632  	
0.045000	7.14323   	0.045000	4.98408   	0.045000	4.94806   	0.045000	4.94806   	0.045000	4.83087   	0.045000	0.153211  	
0.050000	7.37631   	0.050000	5.38937   	0.050000	5.2972    	0.050000	5.2972    	0.050000	5.24738   	0.050000	0.141991  	
0.055000	7.77116   	0.055000	5.74046   	0.055000	5.62446   	0.055000	5.62446   	0.055000	5.608     	0.055000	0.132455  	
0.060000	8.12056   	0.060000	6.05983   	0.060000	5.92959   	0.060000	5.92959   	0.060000	5.93559   	0.060000	0.124239  	
0.070000	8.69103   	0.070000	6.60774   	0.070000	6.47458   	0.070000	6.47458   	0.070000	6.49696   	0.070000	0.110777  	
0.080000	9.2952    	0.080000	7.04694   	0.080000	6.93726   	0.080000	6.93726   	0.080000	6.94676   	0.080000	0.100178  	
0.090000	9.79121   	0.090000	7.39546   	0.090000	7.32573   	0.090000	7.32573   	0.090000	7.30387   	0.090000	0.0915939 	
0.100000	10.178    	0.100000	7.6662    	0.100000	7.64939   	0.100000	7.64939   	0.100000	7.58172   	0.100000	0.084485  	
0.120000	10.44     	0.120000	7.95306   	0.120000	8.13959   	0.120000	8.13959   	0.120000	7.8797    	0.120000	0.073361  	
0.140000	10.6167   	0.140000	8.13922   	0.140000	8.47492   	0.140000	8.47492   	0.140000	8.07419   	0.140000	0.0650237 	
0.160000	10.776    	0.160000	8.27351   	0.160000	8.70649   	0.160000	8.70649   	0.160000	8.21499   	0.160000	0.05852   	
0.180000	10.9462   	0.180000	8.38106   	0.180000	8.86989   	0.180000	8.86989   	0.180000	8.32777   	0.180000	0.0532912 	
0.200000	11.2149   	0.200000	8.52934   	0.200000	8.98874   	0.200000	8.98874   	0.200000	8.48035   	0.200000	0.0489873 	
0.250000	11.5147   	0.250000	8.8311    	0.250000	9.17779   	0.250000	9.17779   	0.250000	8.79017   	0.250000	0.0409269 	
0.300000	11.7816   	0.300000	9.04232   	0.300000	9.29056   	0.300000	9.29056   	0.300000	9.00703   	0.300000	0.0352885 	
0.350000	12.07     	0.350000	9.24267   	0.350000	9.36585   	0.350000	9.36585   	0.350000	9.21156   	0.350000	0.0311045 	
0.400000	12.3128   	0.400000	9.40596   	0.400000	9.47983   	0.400000	9.47983   	0.400000	9.3781    	0.400000	0.0278661 	
0.450000	12.4816   	0.450000	9.51403   	0.450000	9.6331    	0.450000	9.6331    	0.450000	9.48875   	0.450000	0.0252792 	
0.500000	12.5893   	0.500000	9.58032   	0.500000	9.74036   	0.500000	9.74036   	0.500000	9.55715   	0.500000	0.0231614 	
0.600000	12.2943   	0.600000	9.66378   	0.600000	9.85344   	0.600000	9.85344   	0.600000	9.64389   	0.600000	0.0198925 	
0.700000	11.8799   	0.700000	9.68141   	0.700000	9.87192   	0.700000	9.87192   	0.700000	9.66393   	0.700000	0.0174793 	
0.800000	11.8312   	0.800000	9.63436   	0.800000	9.77483   	0.800000	9.77483   	0.800000	9.61874   	0.800000	0.0156193 	
0.900000	11.7186   	0.900000	9.54579   	0.900000	9.6474    	0.900000	9.6474    	0.900000	9.53165   	0.900000	0.0141385 	
1.000000	11.5846   	1.000000	9.44686   	1.000000	9.50497   	1.000000	9.50497   	1.000000	9.43393   	1.000000	0.0129297 	
1.250000	11.1232   	1.250000	9.13824   	1.250000	9.11539   	1.250000	9.11539   	1.250000	9.12755   	1.250000	0.0106912 	
1.500000	10.5396   	1.500000	8.73376   	1.500000	8.66022   	1.500000	8.66022   	1.500000	8.72461   	1.500000	0.00914584	
1.750000	9.97287   	1.750000	8.34022   	1.750000	8.25501   	1.750000	8.25501   	1.750000	8.33221   	1.750000	0.00801072	
2.000000	9.43389   	2.000000	7.9627    	2.000000	7.88936   	2.000000	7.88936   	2.000000	7.95556   	2.000000	0.00713932	
2.250000	8.95706   	2.250000	7.61736   	2.250000	7.55676   	2.250000	7.55676   	2.250000	7.61091   	2.250000	0.00644794	
2.500000	8.86159   	2.500000	7.29486   	2.500000	7.25257   	2.500000	7.25257   	2.500000	7.28897   	2.500000	0.00588516	
3.000000	8.03384   	3.000000	6.72425   	3.000000	6.71562   	3.000000	6.71562   	3.000000	6.71923   	3.000000	0.00502258	
3.500000	7.3506    	3.500000	6.24727   	3.500000	6.25653   	3.500000	6.25653   	3.500000	6.24288   	3.500000	0.00439078	
4.000000	6.77846   	4.000000	5.83517   	4.000000	5.85952   	4.000000	5.85952   	4.000000	5.83126   	4.000000	0.0039069 	
4.500000	6.29282   	4.500000	5.48102   	4.500000	5.51279   	4.500000	5.51279   	4.500000	5.4775    	4.500000	0.00352374	
5.000000	5.87556   	5.000000	5.17294   	5.000000	5.20732   	5.000000	5.20732   	5.000000	5.16973   	5.000000	0.00321238	
5.500000	5.51317   	5.500000	4.90164   	5.500000	4.93608   	5.500000	4.93608   	5.500000	4.89868   	5.500000	0.00295407	
6.000000	5.19544   	6.000000	4.6604    	6.000000	4.69357   	6.000000	4.69357   	6.000000	4.65766   	6.000000	0.00273612	
6.500000	4.91455   	6.500000	4.44401   	6.500000	4.47538   	6.500000	4.47538   	6.500000	4.44146   	6.500000	0.00254961	
7.000000	4.66439   	7.000000	4.24867   	7.000000	4.27799   	7.000000	4.27799   	7.000000	4.24629   	7.000000	0.0023881 	
7.500000	4.44011   	7.500000	4.07146   	7.500000	4.0985    	7.500000	4.0985    	7.500000	4.06921   	7.500000	0.0022468 	
8.000000	4.23786   	8.000000	3.90982   	8.000000	3.93454   	8.000000	3.93454   	8.000000	3.9077    	8.000000	0.00212207	
8.500000	4.0545    	8.500000	3.7617    	8.500000	3.78415   	8.500000	3.78415   	8.500000	3.75969   	8.500000	0.00201112	
9.000000	3.88747   	9.000000	3.62541   	9.000000	3.64568   	9.000000	3.64568   	9.000000	3.6235    	9.000000	0.00191176	
9.500000	3.73466   	9.500000	3.49954   	9.500000	3.51774   	9.500000	3.51774   	9.500000	3.49772   	9.500000	0.00182221	
10.000000	3.59429   	10.000000	3.39813   	10.000000	3.39915   	10.000000	3.39915   	10.000000	3.39638   	10.000000	0.00174108	
11.000000	3.34522   	11.000000	3.18583   	11.000000	3.1801    	11.000000	3.18673   	11.000000	3.18423   	11.000000	0.00159967	
12.000000	3.13086   	12.000000	2.999     	12.000000	2.98854   	12.000000	2.99975   	12.000000	2.99752   	12.000000	0.00148047	
13.000000	2.94436   	13.000000	2.83347   	13.000000	2.81954   	13.000000	2.83389   	13.000000	2.83209   	13.000000	0.00137857	
14.000000	2.78054   	14.000000	2.6859    	14.000000	2.66922   	14.000000	2.68572   	14.000000	2.68461   	14.000000	0.0012904 	
15.000000	2.63544   	15.000000	2.55359   	15.000000	2.53454   	15.000000	2.55252   	15.000000	2.55237   	15.000000	0.00121333	
16.000000	2.506     	16.000000	2.43432   	16.000000	2.41323   	16.000000	2.43213   	16.000000	2.43317   	16.000000	0.00114535	
17.000000	2.38976   	17.000000	2.32628   	17.000000	2.30341   	17.000000	2.32275   	17.000000	2.3252    	17.000000	0.00108491	
18.000000	2.28479   	18.000000	2.22799   	18.000000	2.20339   	18.000000	2.22293   	18.000000	2.22696   	18.000000	0.00103082	
19.000000	2.18949   	19.000000	2.13819   	19.000000	2.11187   	19.000000	2.13146   	19.000000	2.1372    	19.000000	0.000982105	
20.000000	2.10257   	20.000000	2.05583   	20.000000	2.02782   	20.000000	2.04733   	20.000000	2.05489   	20.000000	0.000937991	
21.000000	2.02296   	21.000000	1.98003   	21.000000	1.95039   	21.000000	1.96968   	21.000000	1.97913   	21.000000	0.000897846	
22.000000	1.94975   	22.000000	1.91005   	22.000000	1.87883   	22.000000	1.89778   	22.000000	1.90919   	22.000000	0.00086115	
23.000000	1.88219   	23.000000	1.84524   	23.000000	1.8125    	23.000000	1.83103   	23.000000	1.84441   	23.000000	0.00082747	
24.000000	1.81964   	24.000000	1.78504   	24.000000	1.75083   	24.000000	1.76889   	24.000000	1.78424   	24.000000	0.000796443	
25.000000	1.76156   	25.000000	1.72899   	25.000000	1.69336   	25.000000	1.71089   	25.000000	1.72822   	25.000000	0.000767763	
27.000000	1.65699   	27.000000	1.62772   	27.000000	1.58938   	27.000000	1.60578   	27.000000	1.627     	27.000000	0.000716439	
29.000000	1.56541   	29.000000	1.5387    	29.000000	1.49785   	29.000000	1.51308   	29.000000	1.53803   	29.000000	0.000671825	
31.000000	1.48452   	31.000000	1.45984   	31.000000	1.41976   	31.000000	1.43315   	31.000000	1.45921   	31.000000	0.000632668	
33.000000	1.41253   	33.000000	1.38949   	33.000000	1.35291   	33.000000	1.36416   	33.000000	1.38889   	33.000000	0.000598012	
35.000000	1.34801   	35.000000	1.32633   	35.000000	1.29278   	35.000000	1.3023    	35.000000	1.32576   	35.000000	0.000567112	
38.000000	1.26285   	38.000000	1.24283   	38.000000	1.21328   	38.000000	1.22061   	38.000000	1.2423    	38.000000	0.000526551	
41.000000	1.18909   	41.000000	1.17041   	41.000000	1.14415   	41.000000	1.14982   	41.000000	1.16992   	41.000000	0.00049163	
44.000000	1.12456   	44.000000	1.107     	44.000000	1.08355   	44.000000	1.08785   	44.000000	1.10654   	44.000000	0.000461233	
47.000000	1.0676    	47.000000	1.051     	47.000000	1.02988   	47.000000	1.03313   	47.000000	1.05057   	47.000000	0.000434524	
50.000000	1.01693   	50.000000	1.00118   	50.000000	0.982063  	50.000000	0.98443   	50.000000	1.00076   	50.000000	0.000410861	
55.000000	0.943812  	55.000000	0.929297  	55.000000	0.912834  	55.000000	0.914152  	55.000000	0.92892   	55.000000	0.000376882	
60.000000	0.881971  	60.000000	0.868537  	60.000000	0.854327  	60.000000	0.854702  	60.000000	0.868189  	60.000000	0.000348298	
65.000000	0.828939  	65.000000	0.816483  	65.000000	0.803988  	65.000000	0.803724  	65.000000	0.816159  	65.000000	0.000323902	
70.000000	0.782928  	70.000000	0.771373  	70.000000	0.7602    	70.000000	0.759504  	70.000000	0.77107   	70.000000	0.000302827	
75.000000	0.742605  	75.000000	0.731892  	75.000000	0.721888  	75.000000	0.720764  	75.000000	0.731608  	75.000000	0.000284429	
80.000000	0.706957  	80.000000	0.697041  	80.000000	0.687937  	80.000000	0.686533  	80.000000	0.696773  	80.000000	0.000268222	
85.000000	0.6752    	85.000000	0.666042  	85.000000	0.65769   	85.000000	0.656057  	85.000000	0.665788  	85.000000	0.000253832	
90.000000	0.646717  	90.000000	0.638285  	90.000000	0.630572  	90.000000	0.628743  	90.000000	0.638044  	90.000000	0.000240966	
95.000000	0.621016  	95.000000	0.613282  	95.000000	0.606117  	95.000000	0.604119  	95.000000	0.613052  	95.000000	0.000229392	
100.000000	0.5977    	100.000000	0.590638  	100.000000	0.583945  	100.000000	0.5818    	100.000000	0.59042   	100.000000	0.00021892	
105.000000	0.576445  	105.000000	0.570033  	105.000000	0.563755  	105.000000	0.561476  	105.000000	0.569824  	105.000000	0.0002094 	
110.000000	0.556983  	110.000000	0.551201  	110.000000	0.545213  	110.000000	0.542887  	110.000000	0.551     	110.000000	0.000200705	
115.000000	0.53909   	115.000000	0.533919  	115.000000	0.528229  	115.000000	0.525818  	115.000000	0.533727  	115.000000	0.000192731	
120.000000	0.522581  	120.000000	0.518004  	120.000000	0.512573  	120.000000	0.510089  	120.000000	0.517818  	120.000000	0.00018539	
125.000000	0.507296  	125.000000	0.503297  	125.000000	0.498043  	125.000000	0.495547  	125.000000	0.503118  	125.000000	0.00017861	
130.000000	0.493102  	130.000000	0.489665  	130.000000	0.484583  	130.000000	0.482061  	130.000000	0.489493  	130.000000	0.000172328	
135.000000	0.479882  	135.000000	0.476994  	135.000000	0.472111  	135.000000	0.469521  	135.000000	0.476828  	135.000000	0.000166489	
140.000000	0.467538  	140.000000	0.465185  	140.000000	0.460457  	140.000000	0.457828  	140.000000	0.465024  	140.000000	0.000161049	
145.000000	0.455982  	145.000000	0.454152  	145.000000	0.449534  	145.000000	0.4469    	145.000000	0.453996  	145.000000	0.000155966	
150.000000	0.44514   	150.000000	0.443821  	150.000000	0.439309  	150.000000	0.436664  	150.000000	0.443669  	150.000000	0.000151207	
155.000000	0.429868  	155.000000	0.434126  	155.000000	0.429711  	155.000000	0.427057  	155.000000	0.433979  	155.000000	0.000146741	
160.000000	0.420919  	160.000000	0.425011  	160.000000	0.420682  	160.000000	0.418021  	160.000000	0.424868  	160.000000	0.000142542	
165.000000	0.412479  	165.000000	0.416424  	165.000000	0.412175  	165.000000	0.409507  	165.000000	0.416285  	165.000000	0.000138585	
170.000000	0.404506  	170.000000	0.408321  	170.000000	0.404144  	170.000000	0.401471  	170.000000	0.408186  	170.000000	0.000134851	
175.000000	0.396961  	175.000000	0.400661  	175.000000	0.396552  	175.000000	0.393875  	175.000000	0.40053   	175.000000	0.000131321	
180.000000	0.38981   	180.000000	0.39341   	180.000000	0.389363  	180.000000	0.386682  	180.000000	0.393282  	180.000000	0.000127977	
185.000000	0.383024  	185.000000	0.386536  	185.000000	0.382545  	185.000000	0.379863  	185.000000	0.386411  	185.000000	0.000124807	
190.000000	0.376573  	190.000000	0.380009  	190.000000	0.37607   	190.000000	0.373388  	190.000000	0.379887  	190.000000	0.000121796	
195.000000	0.370434  	195.000000	0.373804  	195.000000	0.36992   	195.000000	0.367232  	195.000000	0.373685  	195.000000	0.000118932	
200.000000	0.364585  	200.000000	0.367898  	200.000000	0.364063  	200.000000	0.361373  	200.000000	0.367782  	200.000000	0.000116205	
210.000000	0.353675  	210.000000	0.3569    	210.000000	0.353109  	210.000000	0.350463  	210.000000	0.356789  	210.000000	0.000111124	
220.000000	0.343703  	220.000000	0.346869  	220.000000	0.343149  	220.000000	0.340512  	220.000000	0.346762  	220.000000	0.000106484	
230.000000	0.334552  	230.000000	0.337682  	230.000000	0.334037  	230.000000	0.331401  	230.000000	0.33758   	230.000000	0.00010223	
240.000000	0.326125  	240.000000	0.329238  	240.000000	0.325667  	240.000000	0.323029  	240.000000	0.32914   	240.000000	9.83159e-05	
250.000000	0.318337  	250.000000	0.321451  	250.000000	0.31792   	250.000000	0.315311  	250.000000	0.321356  	250.000000	9.4701e-05	
260.000000	0.31112   	260.000000	0.314247  	260.000000	0.310755  	260.000000	0.308173  	260.000000	0.314156  	260.000000	9.13522e-05	
270.000000	0.304411  	270.000000	0.307564  	270.000000	0.30414   	270.000000	0.301555  	270.000000	0.307476  	270.000000	8.82409e-05	
280.000000	0.29816   	280.000000	0.301348  	280.000000	0.297982  	280.000000	0.295402  	280.000000	0.301263  	280.000000	8.53422e-05	
290.000000	0.292321  	290.000000	0.295552  	290.000000	0.292214  	290.000000	0.289667  	290.000000	0.29547   	290.000000	8.26348e-05	
300.000000	0.286855  	300.000000	0.290136  	300.000000	0.286845  	300.000000	0.284312  	300.000000	0.290056  	300.000000	8.01003e-05	
310.000000	0.281727  	310.000000	0.285064  	310.000000	0.281826  	310.000000	0.279299  	310.000000	0.284986  	310.000000	7.77222e-05	
320.000000	0.276908  	320.000000	0.280305  	320.000000	0.277096  	320.000000	0.274599  	320.000000	0.280229  	320.000000	7.54865e-05	
330.000000	0.272369  	330.000000	0.275831  	330.000000	0.272665  	330.000000	0.270183  	330.000000	0.275757  	330.000000	7.33805e-05	
340.000000	0.268089  	340.000000	0.271618  	340.000000	0.26851   	340.000000	0.266027  	340.000000	0.271546  	340.000000	7.13931e-05	
350.000000	0.264045  	350.000000	0.267644  	350.000000	0.264593  	350.000000	0.262111  	350.000000	0.267574  	350.000000	6.95145e-05	
360.000000	0.26022   	360.000000	0.26389   	360.000000	0.260879  	360.000000	0.258413  	360.000000	0.263822  	360.000000	6.77358e-05	
370.000000	0.256595  	370.000000	0.260339  	370.000000	0.257359  	370.000000	0.254918  	370.000000	0.260273  	370.000000	6.60493e-05	
380.000000	0.253157  	380.000000	0.256975  	380.000000	0.254042  	380.000000	0.251609  	380.000000	0.25691   	380.000000	6.44477e-05	
390.000000	0.249891  	390.000000	0.253784  	390.000000	0.250904  	390.000000	0.248474  	390.000000	0.253721  	390.000000	6.29248e-05	
400.000000	0.246785  	400.000000	0.250754  	400.000000	0.247912  	400.000000	0.245498  	400.000000	0.250692  	400.000000	6.14749e-05	
410.000000	0.243828  	410.000000	0.247873  	410.000000	0.245064  	410.000000	0.242671  	410.000000	0.247813  	410.000000	6.00927e-05	
420.000000	0.241009  	420.000000	0.245131  	420.000000	0.242363  	420.000000	0.239982  	420.000000	0.245072  	420.000000	5.87736e-05	
430.000000	0.238321  	430.000000	0.242518  	430.000000	0.239797  	430.000000	0.237422  	430.000000	0.242461  	430.000000	5.75133e-05	
440.000000	0.235753  	440.000000	0.240027  	440.000000	0.237349  	440.000000	0.234983  	440.000000	0.239971  	440.000000	5.63078e-05	
450.000000	0.233299  	450.000000	0.237649  	450.000000	0.23501   	450.000000	0.232656  	450.000000	0.237593  	450.000000	5.51537e-05	
460.000000	0.230952  	460.000000	0.235376  	460.000000	0.232771  	460.000000	0.230435  	460.000000	0.235322  	460.000000	5.40477e-05	
470.000000	0.228705  	470.000000	0.233203  	470.000000	0.230632  	470.000000	0.228312  	470.000000	0.23315   	470.000000	5.29868e-05	
480.000000	0.226552  	480.000000	0.231124  	480.000000	0.228594  	480.000000	0.226282  	480.000000	0.231072  	480.000000	5.19683e-05	
490.000000	0.224487  	490.000000	0.229132  	490.000000	0.226649  	490.000000	0.22434   	490.000000	0.229081  	490.000000	5.09896e-05	
500.000000	0.222506  	500.000000	0.227223  	500.000000	0.224786  	500.000000	0.222479  	500.000000	0.227173  	500.000000	5.00484e-05	
520.000000	0.218776  	520.000000	0.223634  	520.000000	0.221266  	520.000000	0.218985  	520.000000	0.223586  	520.000000	4.82703e-05	
540.000000	0.215329  	540.000000	0.220324  	540.000000	0.218034  	540.000000	0.215767  	540.000000	0.220278  	540.000000	4.66185e-05	
560.000000	0.212136  	560.000000	0.217264  	560.000000	0.215057  	560.000000	0.212795  	560.000000	0.217219  	560.000000	4.508e-05 	
580.000000	0.209172  	580.000000	0.214428  	580.000000	0.212286  	580.000000	0.210044  	580.000000	0.214385  	580.000000	4.36432e-05	
600.000000	0.206415  	600.000000	0.211795  	600.000000	0.20971   	600.000000	0.207493  	600.000000	0.211753  	600.000000	4.22984e-05	
620.000000	0.203846  	620.000000	0.209345  	620.000000	0.207323  	620.000000	0.205123  	620.000000	0.209304  	620.000000	4.10369e-05	
640.000000	0.201449  	640.000000	0.207063  	640.000000	0.205113  	640.000000	0.202915  	640.000000	0.207023  	640.000000	3.9851e-05	
660.000000	0.199208  	660.000000	0.204932  	660.000000	0.203048  	660.000000	0.200857  	660.000000	0.204893  	660.000000	3.87341e-05	
680.000000	0.197111  	680.000000	0.20294   	680.000000	0.201108  	680.000000	0.198933  	680.000000	0.202902  	680.000000	3.76803e-05	
700.000000	0.195145  	700.000000	0.201075  	700.000000	0.199295  	700.000000	0.197134  	700.000000	0.201039  	700.000000	3.66844e-05	
720.000000	0.193301  	720.000000	0.199328  	720.000000	0.197607  	720.000000	0.195449  	720.000000	0.199292  	720.000000	3.57415e-05	
740.000000	0.19157   	740.000000	0.197688  	740.000000	0.196022  	740.000000	0.193867  	740.000000	0.197654  	740.000000	3.48476e-05	
760.000000	0.189942  	760.000000	0.196148  	760.000000	0.194526  	760.000000	0.192382  	760.000000	0.196114  	760.000000	3.39988e-05	
780.000000	0.18841   	780.000000	0.1947    	780.000000	0.193115  	780.000000	0.190985  	780.000000	0.194667  	780.000000	3.31919e-05	
800.000000	0.186968  	800.000000	0.193337  	800.000000	0.191785  	800.000000	0.189669  	800.000000	0.193305  	800.000000	3.24236e-05	
820.000000	0.185609  	820.000000	0.192054  	820.000000	0.19054   	820.000000	0.188436  	820.000000	0.192022  	820.000000	3.16914e-05	
840.000000	0.184327  	840.000000	0.190844  	840.000000	0.189399  	840.000000	0.187302  	840.000000	0.190813  	840.000000	3.09927e-05	
860.000000	0.183118  	860.000000	0.189703  	860.000000	0.188325  	860.000000	0.186231  	860.000000	0.189672  	860.000000	3.03252e-05	
880.000000	0.181977  	880.000000	0.188625  	880.000000	0.187312  	880.000000	0.185219  	880.000000	0.188596  	880.000000	2.96868e-05	
900.000000	0.1809    	900.000000	0.187608  	900.000000	0.186351  	900.000000	0.184263  	900.000000	0.187579  	900.000000	2.90757e-05	
920.000000	0.179882  	920.000000	0.186647  	920.000000	0.185439  	920.000000	0.183358  	920.000000	0.186619  	920.000000	2.84901e-05	
940.000000	0.17892   	940.000000	0.185739  	940.000000	0.184573  	940.000000	0.182501  	940.000000	0.185711  	940.000000	2.79285e-05	
960.000000	0.178011  	960.000000	0.184879  	960.000000	0.183751  	960.000000	0.181689  	960.000000	0.184852  	960.000000	2.73893e-05	
980.000000	0.177152  	980.000000	0.184067  	980.000000	0.182972  	980.000000	0.18092   	980.000000	0.18404   	980.000000	2.68713e-05	
1000.000000	0.176339  	1000.000000	0.183298  	1000.000000	0.182234  	1000.000000	0.18019   	1000.000000	0.183271  	1000.000000	2.63732e-05	
1020.000000	0.175571  	1020.000000	0.18257   	1020.000000	0.181535  	1020.000000	0.179497  	1020.000000	0.182544  	1020.000000	2.58939e-05	
1040.000000	0.174845  	1040.000000	0.181881  	1040.000000	0.180874  	1040.000000	0.178839  	1040.000000	0.181856  	1040.000000	2.54322e-05	
1060.000000	0.174159  	1060.000000	0.181229  	1060.000000	0.180248  	1060.000000	0.178215  	1060.000000	0.181204  	1060.000000	2.49873e-05	
1080.000000	0.17351   	1080.000000	0.180611  	1080.000000	0.179653  	1080.000000	0.177621  	1080.000000	0.180587  	1080.000000	2.45583e-05	
1100.000000	0.172897  	1100.000000	0.180027  	1100.000000	0.179087  	1100.000000	0.177056  	1100.000000	0.180003  	1100.000000	2.41443e-05	
1120.000000	0.172318  	1120.000000	0.179473  	1120.000000	0.178547  	1120.000000	0.17652   	1120.000000	0.17945   	1120.000000	2.37444e-05	
1140.000000	0.171771  	1140.000000	0.178949  	1140.000000	0.178032  	1140.000000	0.176009  	1140.000000	0.178926  	1140.000000	2.33581e-05	
1160.000000	0.171255  	1160.000000	0.178454  	1160.000000	0.17754   	1160.000000	0.175523  	1160.000000	0.178431  	1160.000000	2.29845e-05	
1180.000000	0.170768  	1180.000000	0.177984  	1180.000000	0.177071  	1180.000000	0.17506   	1180.000000	0.177962  	1180.000000	2.26231e-05	
1200.000000	0.170309  	1200.000000	0.17754   	1200.000000	0.176625  	1200.000000	0.17462   	1200.000000	0.177518  	1200.000000	2.22733e-05	
1220.000000	0.169876  	1220.000000	0.177121  	1220.000000	0.176199  	1220.000000	0.1742    	1220.000000	0.177099  	1220.000000	2.19346e-05	
1240.000000	0.169469  	1240.000000	0.176724  	1240.000000	0.175794  	1240.000000	0.173801  	1240.000000	0.176702  	1240.000000	2.16063e-05	
1260.000000	0.169086  	1260.000000	0.176349  	1260.000000	0.175408  	1260.000000	0.17342   	1260.000000	0.176328  	1260.000000	2.12881e-05	
1280.000000	0.168726  	1280.000000	0.175995  	1280.000000	0.175041  	1280.000000	0.173057  	1280.000000	0.175974  	1280.000000	2.09794e-05	
1300.000000	0.168389  	1300.000000	0.175661  	1300.000000	0.174691  	1300.000000	0.172711  	1300.000000	0.17564   	1300.000000	2.06798e-05	
1320.000000	0.168072  	1320.000000	0.175345  	1320.000000	0.174358  	1320.000000	0.172381  	1320.000000	0.175325  	1320.000000	2.0389e-05	
1340.000000	0.167776  	1340.000000	0.175049  	1340.000000	0.174041  	1340.000000	0.172067  	1340.000000	0.175028  	1340.000000	2.01065e-05	
1360.000000	0.1675    	1360.000000	0.174769  	1360.000000	0.17374   	1360.000000	0.171767  	1360.000000	0.174749  	1360.000000	1.98321e-05	
1380.000000	0.167242  	1380.000000	0.174506  	1380.000000	0.173452  	1380.000000	0.171482  	1380.000000	0.174487  	1380.000000	1.95652e-05	
1400.000000	0.167003  	1400.000000	0.174259  	1400.000000	0.173178  	1400.000000	0.17121   	1400.000000	0.17424   	1400.000000	1.93057e-05	
1420.000000	0.16678   	1420.000000	0.174028  	1420.000000	0.172917  	1420.000000	0.17095   	1420.000000	0.174009  	1420.000000	1.90533e-05	
1440.000000	0.166575  	1440.000000	0.173811  	1440.000000	0.172667  	1440.000000	0.170703  	1440.000000	0.173792  	1440.000000	1.88075e-05	
1460.000000	0.166385  	1460.000000	0.173608  	1460.000000	0.17243   	1460.000000	0.170467  	1460.000000	0.17359   	1460.000000	1.85683e-05	
1480.000000	0.166211  	1480.000000	0.173419  	1480.000000	0.172203  	1480.000000	0.170242  	1480.000000	0.173401  	1480.000000	1.83352e-05	
1500.000000	0.166051  	1500.000000	0.173243  	1500.000000	0.171986  	1500.000000	0.170028  	1500.000000	0.173225  	1500.000000	1.81082e-05	
1520.000000	0.165906  	1520.000000	0.173079  	1520.000000	0.17178   	1520.000000	0.169824  	1520.000000	0.173061  	1520.000000	1.78869e-05	
1540.000000	0.165774  	1540.000000	0.172927  	1540.000000	0.171583  	1540.000000	0.169629  	1540.000000	0.17291   	1540.000000	1.76711e-05	
1560.000000	0.165656  	1560.000000	0.172787  	1560.000000	0.171396  	1560.000000	0.169444  	1560.000000	0.172769  	1560.000000	1.74607e-05	
1580.000000	0.165551  	1580.000000	0.172658  	1580.000000	0.171217  	1580.000000	0.169267  	1580.000000	0.172641  	1580.000000	1.72553e-05	
1600.000000	0.165458  	1600.000000	0.172539  	1600.000000	0.171047  	1600.000000	0.1691    	1600.000000	0.172522  	1600.000000	1.70549e-05	
1620.000000	0.165377  	1620.000000	0.172431  	1620.000000	0.170884  	1620.000000	0.16894   	1620.000000	0.172414  	1620.000000	1.68593e-05	
1640.000000	0.165308  	1640.000000	0.172333  	1640.000000	0.17073   	1640.000000	0.168788  	1640.000000	0.172316  	1640.000000	1.66683e-05	
1660.000000	0.16525   	1660.000000	0.172244  	1660.000000	0.170583  	1660.000000	0.168643  	1660.000000	0.172228  	1660.000000	1.64816e-05	
1680.000000	0.165202  	1680.000000	0.172165  	1680.000000	0.170443  	1680.000000	0.168506  	1680.000000	0.172149  	1680.000000	1.62993e-05	
1700.000000	0.165165  	1700.000000	0.172095  	1700.000000	0.17031   	1700.000000	0.168375  	1700.000000	0.172078  	1700.000000	1.61211e-05	
1750.000000	0.165117  	1750.000000	0.171955  	1750.000000	0.170006  	1750.000000	0.168077  	1750.000000	0.17194   	1750.000000	1.56927e-05	
1800.000000	0.165126  	1800.000000	0.171866  	1800.000000	0.169739  	1800.000000	0.167816  	1800.000000	0.17185   	1800.000000	1.52873e-05	
1850.000000	0.165191  	1850.000000	0.171822  	1850.000000	0.169506  	1850.000000	0.167589  	1850.000000	0.171807  	1850.000000	1.49029e-05	
1900.000000	0.165305  	1900.000000	0.171819  	1900.000000	0.169305  	1900.000000	0.167393  	1900.000000	0.171805  	1900.000000	1.45381e-05	
1950.000000	0.165467  	1950.000000	0.171855  	1950.000000	0.169131  	1950.000000	0.167224  	1950.000000	0.171841  	1950.000000	1.41912e-05	
2000.000000	0.165672  	2000.000000	0.171927  	2000.000000	0.168984  	2000.000000	0.167081  	2000.000000	0.171914  	2000.000000	1.38611e-05	
2100.000000	0.166202  	2100.000000	0.172169  	2100.000000	0.168758  	2100.000000	0.166861  	2100.000000	0.172155  	2100.000000	1.32462e-05	
2200.000000	0.166877  	2200.000000	0.172525  	2200.000000	0.168611  	2200.000000	0.166718  	2200.000000	0.172512  	2200.000000	1.26853e-05	
2300.000000	0.167679  	2300.000000	0.172981  	2300.000000	0.16853   	2300.000000	0.16664   	2300.000000	0.172969  	2300.000000	1.21714e-05	
2400.000000	0.168594  	2400.000000	0.173524  	2400.000000	0.168503  	2400.000000	0.166616  	2400.000000	0.173513  	2400.000000	1.16987e-05	
2500.000000	0.16961   	2500.000000	0.174144  	2500.000000	0.168522  	2500.000000	0.166638  	2500.000000	0.174133  	2500.000000	1.12626e-05	
2600.000000	0.170719  	2600.000000	0.174832  	2600.000000	0.168579  	2600.000000	0.166698  	2600.000000	0.174822  	2600.000000	1.08588e-05	
2700.000000	0.17191   	2700.000000	0.175581  	2700.000000	0.168669  	2700.000000	0.166791  	2700.000000	0.17557   	2700.000000	1.04838e-05	
2800.000000	0.173177  	2800.000000	0.176383  	2800.000000	0.168787  	2800.000000	0.166913  	2800.000000	0.176373  	2800.000000	1.01346e-05	
2900.000000	0.174513  	2900.000000	0.177233  	2900.000000	0.168928  	2900.000000	0.167057  	2900.000000	0.177223  	2900.000000	9.80872e-06	
3000.000000	0.175913  	3000.000000	0.178126  	3000.000000	0.16909   	3000.000000	0.167222  	3000.000000	0.178117  	3000.000000	9.50375e-06	
3200.000000	0.178884  	3200.000000	0.180026  	3200.000000	0.169462  	3200.000000	0.1676    	3200.000000	0.180017  	3200.000000	8.94902e-06	
3400.000000	0.182058  	3400.000000	0.182054  	3400.000000	0.169885  	3400.000000	0.168028  	3400.000000	0.182045  	3400.000000	8.45731e-06	
3600.000000	0.185409  	3600.000000	0.184187  	3600.000000	0.170343  	3600.000000	0.168491  	3600.000000	0.184179  	3600.000000	8.01835e-06	
3800.000000	0.188917  	3800.000000	0.186409  	3800.000000	0.170827  	3800.000000	0.168979  	3800.000000	0.186402  	3800.000000	7.62403e-06	
4000.000000	0.192565  	4000.000000	0.188706  	4000.000000	0.171327  	4000.000000	0.169483  	4000.000000	0.188699  	4000.000000	7.26778e-06	
4200.000000	0.19634   	4200.000000	0.191066  	4200.000000	0.171839  	4200.000000	0.169998  	4200.000000	0.191059  	4200.000000	6.9443e-06	
4400.000000	0.200231  	4400.000000	0.19348   	4400.000000	0.172357  	4400.000000	0.170519  	4400.000000	0.193474  	4400.000000	6.64923e-06	
4600.000000	0.204228  	4600.000000	0.195941  	4600.000000	0.172877  	4600.000000	0.171042  	4600.000000	0.195935  	4600.000000	6.37894e-06	
4800.000000	0.208325  	4800.000000	0.198442  	4800.000000	0.173397  	4800.000000	0.171565  	4800.000000	0.198436  	4800.000000	6.13041e-06	
5000.000000	0.212513  	5000.000000	0.200978  	5000.000000	0.173915  	5000.000000	0.172086  	5000.000000	0.200972  	5000.000000	5.90108e-06	
5250.000000	0.217871  	5250.000000	0.204191  	5250.000000	0.174557  	5250.000000	0.172731  	5250.000000	0.204185  	5250.000000	5.63816e-06	
5500.000000	0.223354  	5500.000000	0.207444  	5500.000000	0.17519   	5500.000000	0.173367  	5500.000000	0.207439  	5500.000000	5.39834e-06	
6000.000000	0.234673  	6000.000000	0.214049  	6000.000000	0.176427  	6000.000000	0.174609  	6000.000000	0.214044  	6000.000000	4.9767e-06	
6500.000000	0.246421  	6500.000000	0.220755  	6500.000000	0.177618  	6500.000000	0.175805  	6500.000000	0.220751  	6500.000000	4.61785e-06	
7000.000000	0.258565  	7000.000000	0.227538  	7000.000000	0.178761  	7000.000000	0.176951  	7000.000000	0.227533  	7000.000000	4.3086e-06	
7500.000000	0.27108   	7500.000000	0.234377  	7500.000000	0.179855  	7500.000000	0.178048  	7500.000000	0.234373  	7500.000000	4.03927e-06	
8000.000000	0.283946  	8000.000000	0.24126   	8000.000000	0.180902  	8000.000000	0.179096  	8000.000000	0.241257  	8000.000000	3.80251e-06	
8500.000000	0.29715   	8500.000000	0.248176  	8500.000000	0.181901  	8500.000000	0.180099  	8500.000000	0.248172  	8500.000000	3.59271e-06	
9000.000000	0.310679  	9000.000000	0.255117  	9000.000000	0.182853  	9000.000000	0.181058  	9000.000000	0.255113  	9000.000000	3.40548e-06	
9500.000000	0.324525  	9500.000000	0.262076  	9500.000000	0.183766  	9500.000000	0.181976  	9500.000000	0.262072  	9500.000000	3.23732e-06	
10000.000000	0.33868   	10000.000000	0.269048  	10000.000000	0.184642  	10000.000000	0.182855  	10000.000000	0.269045  	10000.000000	3.08544e-06	
11000.000000	0.367897  	11000.000000	0.283021  	11000.000000	0.186289  	11000.000000	0.184508  	11000.000000	0.283018  	11000.000000	2.8218e-06	
12000.000000	0.398296  	12000.000000	0.297011  	12000.000000	0.187807  	12000.000000	0.186033  	12000.000000	0.297009  	12000.000000	2.60077e-06	
13000.000000	0.429854  	13000.000000	0.311006  	13000.000000	0.189211  	13000.000000	0.187448  	13000.000000	0.311004  	13000.000000	2.41269e-06	
14000.000000	0.462557  	14000.000000	0.324996  	14000.000000	0.190517  	14000.000000	0.188764  	14000.000000	0.324993  	14000.000000	2.25066e-06	
15000.000000	0.496393  	15000.000000	0.338973  	15000.000000	0.191736  	15000.000000	0.189993  	15000.000000	0.338971  	15000.000000	2.10956e-06	
16000.000000	0.531356  	16000.000000	0.352935  	16000.000000	0.192878  	16000.000000	0.191146  	16000.000000	0.352933  	16000.000000	1.98557e-06	
17000.000000	0.567442  	17000.000000	0.366878  	17000.000000	0.19395   	17000.000000	0.19223   	17000.000000	0.366876  	17000.000000	1.87571e-06	
18000.000000	0.604651  	18000.000000	0.380801  	18000.000000	0.19496   	18000.000000	0.193253  	18000.000000	0.380799  	18000.000000	1.77768e-06	
19000.000000	0.64298   	19000.000000	0.394701  	19000.000000	0.195915  	19000.000000	0.19422   	19000.000000	0.3947    	19000.000000	1.68966e-06	
20000.000000	0.68243   	20000.000000	0.40858   	20000.000000	0.19682   	20000.000000	0.195136  	20000.000000	0.408578  	20000.000000	1.61017e-06	
21000.000000	0.723004  	21000.000000	0.422435  	21000.000000	0.197681  	21000.000000	0.196008  	21000.000000	0.422434  	21000.000000	1.53801e-06	
22000.000000	0.764704  	22000.000000	0.436268  	22000.000000	0.1985    	22000.000000	0.196837  	22000.000000	0.436266  	22000.000000	1.47222e-06	
23000.000000	0.807532  	23000.000000	0.450077  	23000.000000	0.199274  	23000.000000	0.197629  	23000.000000	0.450076  	23000.000000	1.41197e-06	
24000.000000	0.851492  	24000.000000	0.463864  	24000.000000	0.200011  	24000.000000	0.198386  	24000.000000	0.463863  	24000.000000	1.35659e-06	
25000.000000	0.896588  	25000.000000	0.477629  	25000.000000	0.200722  	25000.000000	0.199111  	25000.000000	0.477627  	25000.000000	1.3055e-06	
26000.000000	0.942823  	26000.000000	0.491371  	26000.000000	0.201404  	26000.000000	0.199806  	26000.000000	0.49137   	26000.000000	1.25823e-06	
27000.000000	0.990203  	27000.000000	0.505092  	27000.000000	0.202054  	27000.000000	0.200473  	27000.000000	0.50509   	27000.000000	1.21435e-06	
28000.000000	1.03873   	28000.000000	0.518791  	28000.000000	0.202678  	28000.000000	0.201116  	28000.000000	0.51879   	28000.000000	1.17351e-06	
29000.000000	1.08842   	29000.000000	0.53247   	29000.000000	0.203278  	29000.000000	0.201734  	29000.000000	0.532468  	29000.000000	1.13539e-06	
30000.000000	1.13926   	30000.000000	0.546128  	30000.000000	0.203855  	30000.000000	0.202331  	30000.000000	0.546127  	30000.000000	1.09975e-06	
32000.000000	1.24444   	32000.000000	0.573384  	32000.000000	0.204951  	32000.000000	0.203463  	32000.000000	0.573383  	32000.000000	1.03494e-06	
34000.000000	1.35433   	34000.000000	0.600565  	34000.000000	0.205974  	34000.000000	0.204522  	34000.000000	0.600564  	34000.000000	9.7753e-07	
36000.000000	1.46896   	36000.000000	0.627672  	36000.000000	0.206928  	36000.000000	0.205518  	36000.000000	0.627671  	36000.000000	9.26313e-07	
38000.000000	1.58839   	38000.000000	0.654709  	38000.000000	0.207818  	38000.000000	0.206456  	38000.000000	0.654708  	38000.000000	8.80328e-07	
40000.000000	1.71266   	40000.000000	0.681679  	40000.000000	0.208653  	40000.000000	0.207343  	40000.000000	0.681678  	40000.000000	8.38807e-07	
42000.000000	1.84183   	42000.000000	0.708585  	42000.000000	0.209441  	42000.000000	0.208183  	42000.000000	0.708585  	42000.000000	8.01125e-07	
44000.000000	1.97595   	44000.000000	0.73543   	44000.000000	0.210188  	44000.000000	0.208982  	44000.000000	0.73543   	44000.000000	7.66768e-07	
46000.000000	2.11505   	46000.000000	0.762216  	46000.000000	0.2109    	46000.000000	0.209743  	46000.000000	0.762216  	46000.000000	7.35311e-07	
48000.000000	2.25921   	48000.000000	0.788946  	48000.000000	0.211578  	48000.000000	0.21047   	48000.000000	0.788945  	48000.000000	7.06398e-07	
50000.000000	2.40847   	50000.000000	0.815621  	50000.000000	0.212221  	50000.000000	0.211164  	50000.000000	0.81562   	50000.000000	6.79731e-07	
