Energy (MeV/u)1	0 - [He-base] F.Hubert et al, AD&ND Tables 46(1990)1	Energy (MeV/u)2	1 - [H -base] J.F.Ziegler et al, Pergamon Press, NY (low energy)	Energy (MeV/u)3	2 - ATIMA 1.2  LS-theory (recommended for high energy)	Energy (MeV/u)4	3 - ATIMA 1.2  without LS-correction	Energy (MeV/u)5	4 - electrical component of [1] - J.F.Ziegler et al	Energy (MeV/u)6	5 - nuclear component of [1] - J.F.Ziegler et al	
0.001000	8.4772    	0.001000	8.45406   	0.001000	7.9948    	0.001000	7.9948    	0.001000	2.06859   	0.001000	6.38547   	
0.002000	8.62548   	0.002000	8.55517   	0.002000	7.95439   	0.002000	7.95439   	0.002000	2.71259   	0.002000	5.84258   	
0.005000	8.73614   	0.005000	8.37317   	0.005000	7.523     	0.005000	7.523     	0.005000	3.88511   	0.005000	4.48806   	
0.008000	8.97598   	0.008000	8.35669   	0.008000	7.3446    	0.008000	7.3446    	0.008000	4.67331   	0.008000	3.68338   	
0.010000	9.17249   	0.010000	8.41151   	0.010000	7.31315   	0.010000	7.31315   	0.010000	5.1022    	0.010000	3.30931   	
0.015000	9.70043   	0.015000	8.65709   	0.015000	7.38481   	0.015000	7.38481   	0.015000	5.98587   	0.015000	2.67122   	
0.020000	10.2268   	0.020000	8.9683    	0.020000	7.5581    	0.020000	7.5581    	0.020000	6.70516   	0.020000	2.26315   	
0.025000	10.7307   	0.025000	9.29883   	0.025000	7.77269   	0.025000	7.77269   	0.025000	7.3227    	0.025000	1.97613   	
0.030000	11.46     	0.030000	9.7142    	0.030000	8.13524   	0.030000	8.13524   	0.030000	7.95269   	0.030000	1.76151   	
0.035000	12.2175   	0.035000	10.3602   	0.035000	8.89342   	0.035000	8.89342   	0.035000	8.76616   	0.035000	1.59403   	
0.040000	12.8717   	0.040000	11.0114   	0.040000	9.68819   	0.040000	9.68819   	0.040000	9.55224   	0.040000	1.45913   	
0.045000	13.4137   	0.045000	11.6581   	0.045000	10.5054   	0.045000	10.5054   	0.045000	10.3103   	0.045000	1.3478    	
0.050000	13.8313   	0.050000	12.2933   	0.050000	11.335    	0.050000	11.335    	0.050000	11.0392   	0.050000	1.25413   	
0.055000	14.5634   	0.055000	13.0101   	0.055000	12.1691   	0.055000	12.1691   	0.055000	11.8361   	0.055000	1.17407   	
0.060000	15.23     	0.060000	13.7181   	0.060000	13.0019   	0.060000	13.0019   	0.060000	12.6133   	0.060000	1.10475   	
0.070000	16.3703   	0.070000	15.0865   	0.070000	14.6378   	0.070000	14.6378   	0.070000	14.104    	0.070000	0.982555  	
0.080000	17.6157   	0.080000	16.3797   	0.080000	16.2323   	0.080000	16.2323   	0.080000	15.4869   	0.080000	0.892709  	
0.090000	18.6986   	0.090000	17.5909   	0.090000	17.7582   	0.090000	17.7582   	0.090000	16.7726   	0.090000	0.81834   	
0.100000	19.6532   	0.100000	18.7184   	0.100000	19.2075   	0.100000	19.2075   	0.100000	17.9611   	0.100000	0.757341  	
0.120000	21.376    	0.120000	21.2885   	0.120000	21.8545   	0.120000	21.8545   	0.120000	20.6273   	0.120000	0.661163  	
0.140000	22.8099   	0.140000	23.5733   	0.140000	24.1642   	0.140000	24.1642   	0.140000	22.9848   	0.140000	0.588486  	
0.160000	24.086    	0.160000	25.5249   	0.160000	26.1577   	0.160000	26.1577   	0.160000	24.9935   	0.160000	0.531429  	
0.180000	25.2917   	0.180000	27.1969   	0.180000	27.8693   	0.180000	27.8693   	0.180000	26.7116   	0.180000	0.485321  	
0.200000	26.4694   	0.200000	28.6418   	0.200000	29.337    	0.200000	29.337    	0.200000	28.1946   	0.200000	0.447207  	
0.250000	28.5359   	0.250000	31.4409   	0.250000	32.1735   	0.250000	32.1735   	0.250000	31.0655   	0.250000	0.375417  	
0.300000	30.5933   	0.300000	33.7621   	0.300000	34.179    	0.300000	34.179    	0.300000	33.4372   	0.300000	0.324866  	
0.350000	32.4064   	0.350000	35.6264   	0.350000	35.6655   	0.350000	35.6655   	0.350000	35.3393   	0.350000	0.287166  	
0.400000	33.9863   	0.400000	37.2043   	0.400000	37.1093   	0.400000	37.1093   	0.400000	36.9464   	0.400000	0.257872  	
0.450000	35.3519   	0.450000	38.5882   	0.450000	38.6172   	0.450000	38.6172   	0.450000	38.3538   	0.450000	0.234395  	
0.500000	37.1274   	0.500000	40.4653   	0.500000	39.8582   	0.500000	39.8582   	0.500000	40.2502   	0.500000	0.215123  	
0.600000	38.8729   	0.600000	42.9023   	0.600000	41.7829   	0.600000	41.7829   	0.600000	42.717    	0.600000	0.185278  	
0.700000	39.6431   	0.700000	44.6096   	0.700000	43.1963   	0.700000	43.1963   	0.700000	44.4465   	0.700000	0.163165  	
0.800000	41.315    	0.800000	45.8268   	0.800000	44.2565   	0.800000	44.2565   	0.800000	45.6807   	0.800000	0.14607   	
0.900000	42.3052   	0.900000	46.3631   	0.900000	45.0547   	0.900000	45.0547   	0.900000	46.2306   	0.900000	0.132428  	
1.000000	42.9405   	1.000000	46.5565   	1.000000	45.6503   	1.000000	45.6503   	1.000000	46.4352   	1.000000	0.121269  	
1.250000	43.6148   	1.250000	47.5188   	1.250000	46.5017   	1.250000	46.5017   	1.250000	47.4183   	1.250000	0.100545  	
1.500000	43.3286   	1.500000	47.5697   	1.500000	46.7438   	1.500000	46.7438   	1.500000	47.4836   	1.500000	0.0861913 	
1.750000	42.3923   	1.750000	46.9415   	1.750000	46.6097   	1.750000	46.6097   	1.750000	46.8659   	1.750000	0.0756202 	
2.000000	41.4242   	2.000000	46.2918   	2.000000	46.2391   	2.000000	46.2391   	2.000000	46.2243   	2.000000	0.067488  	
2.250000	40.5206   	2.250000	45.3507   	2.250000	45.7188   	2.250000	45.7188   	2.250000	45.2897   	2.250000	0.0610246 	
2.500000	49.5432   	2.500000	44.3977   	2.500000	45.0047   	2.500000	45.0047   	2.500000	44.3419   	2.500000	0.0557555 	
3.000000	47.0429   	3.000000	42.5435   	3.000000	43.3509   	3.000000	43.3509   	3.000000	42.4959   	3.000000	0.0476648 	
3.500000	44.6522   	3.500000	40.837    	3.500000	41.77     	3.500000	41.77     	3.500000	40.7953   	3.500000	0.0417265 	
4.000000	42.4361   	4.000000	39.2616   	4.000000	40.276    	4.000000	40.276    	4.000000	39.2244   	4.000000	0.0371708 	
4.500000	40.4063   	4.500000	37.7568   	4.500000	38.8719   	4.500000	38.8719   	4.500000	37.7232   	4.500000	0.0335583 	
5.000000	38.5543   	5.000000	36.3782   	5.000000	37.5553   	5.000000	37.5553   	5.000000	36.3476   	5.000000	0.0306192 	
5.500000	36.8649   	5.500000	35.1489   	5.500000	36.3215   	5.500000	36.3215   	5.500000	35.1207   	5.500000	0.0281783 	
6.000000	35.3214   	6.000000	34.019    	6.000000	35.1648   	6.000000	35.1648   	6.000000	33.9929   	6.000000	0.0261169 	
6.500000	33.9078   	6.500000	32.9623   	6.500000	34.0793   	6.500000	34.0793   	6.500000	32.938    	6.500000	0.0243515 	
7.000000	32.6095   	7.000000	31.9719   	7.000000	33.0594   	7.000000	33.0594   	7.000000	31.9491   	7.000000	0.0228214 	
7.500000	31.4137   	7.500000	31.041    	7.500000	32.0997   	7.500000	32.0997   	7.500000	31.0196   	7.500000	0.0214819 	
8.000000	30.309    	8.000000	30.1645   	8.000000	31.1953   	8.000000	31.1953   	8.000000	30.1442   	8.000000	0.0202988 	
8.500000	29.2856   	8.500000	29.3384   	8.500000	30.3417   	8.500000	30.3417   	8.500000	29.3192   	8.500000	0.0192458 	
9.000000	28.3349   	9.000000	28.5583   	9.000000	29.5349   	9.000000	29.5349   	9.000000	28.5399   	9.000000	0.0183022 	
9.500000	27.4495   	9.500000	27.8202   	9.500000	28.7711   	9.500000	28.7711   	9.500000	27.8027   	9.500000	0.0174515 	
10.000000	26.6228   	10.000000	27.9506   	10.000000	28.047    	10.000000	28.047    	10.000000	27.934    	10.000000	0.0166803 	
11.000000	25.1234   	11.000000	26.6756   	11.000000	26.5613   	11.000000	26.7776   	11.000000	26.6602   	11.000000	0.0153353 	
12.000000	23.7992   	12.000000	25.5134   	12.000000	25.233    	12.000000	25.6217   	12.000000	25.4992   	12.000000	0.0142007 	
13.000000	22.6207   	13.000000	24.4509   	13.000000	24.0392   	13.000000	24.5657   	13.000000	24.4377   	13.000000	0.0132301 	
14.000000	21.5648   	14.000000	23.4766   	14.000000	22.9611   	14.000000	23.5981   	14.000000	23.4643   	14.000000	0.0123898 	
15.000000	20.6129   	15.000000	22.5805   	15.000000	21.9831   	15.000000	22.7088   	15.000000	22.5688   	15.000000	0.0116548 	
16.000000	19.7501   	16.000000	21.7536   	16.000000	21.0922   	16.000000	21.8891   	16.000000	21.7426   	16.000000	0.0110061 	
17.000000	18.9642   	17.000000	20.9884   	17.000000	20.2775   	17.000000	21.1315   	17.000000	20.978    	17.000000	0.0104292 	
18.000000	18.2452   	18.000000	20.2785   	18.000000	19.5302   	18.000000	20.4296   	18.000000	20.2685   	18.000000	0.00991262	
19.000000	17.5847   	19.000000	19.6179   	19.000000	18.8428   	19.000000	19.7776   	19.000000	19.6085   	19.000000	0.00944718	
20.000000	16.9756   	20.000000	19.0019   	20.000000	18.2094   	20.000000	19.1708   	20.000000	18.9929   	20.000000	0.00902553	
21.000000	16.4121   	21.000000	18.426    	21.000000	17.6236   	21.000000	18.6048   	21.000000	18.4174   	21.000000	0.00864169	
22.000000	15.8892   	22.000000	17.8865   	22.000000	17.0799   	22.000000	18.0759   	22.000000	17.8782   	22.000000	0.0082907 	
23.000000	15.4024   	23.000000	17.38     	23.000000	16.5744   	23.000000	17.5808   	23.000000	17.372    	23.000000	0.00796846	
24.000000	14.9482   	24.000000	16.9035   	24.000000	16.104    	24.000000	17.1165   	24.000000	16.8959   	24.000000	0.00767151	
25.000000	14.5232   	25.000000	16.4546   	25.000000	15.6657   	25.000000	16.6806   	25.000000	16.4472   	25.000000	0.00739694	
27.000000	13.7502   	27.000000	15.63     	27.000000	14.8722   	27.000000	15.8846   	27.000000	15.6231   	27.000000	0.00690539	
29.000000	13.0648   	29.000000	14.8906   	29.000000	14.1752   	29.000000	15.1772   	29.000000	14.8842   	29.000000	0.00647788	
31.000000	12.4528   	31.000000	14.2238   	31.000000	13.5724   	31.000000	14.5108   	31.000000	14.2177   	31.000000	0.0061025 	
33.000000	11.9026   	33.000000	13.6194   	33.000000	13.0378   	33.000000	13.8764   	33.000000	13.6137   	33.000000	0.00577011	
35.000000	11.4052   	35.000000	13.069    	35.000000	12.5492   	35.000000	13.3001   	35.000000	13.0635   	35.000000	0.00547364	
38.000000	10.7422   	38.000000	12.3297   	38.000000	11.8861   	38.000000	12.5282   	38.000000	12.3246   	38.000000	0.00508431	
41.000000	10.1619   	41.000000	11.6776   	41.000000	11.2969   	41.000000	11.8493   	41.000000	11.6728   	41.000000	0.00474893	
44.000000	9.64947   	44.000000	11.0981   	44.000000	10.7695   	44.000000	11.2474   	44.000000	11.0937   	44.000000	0.00445688	
47.000000	9.19344   	47.000000	10.5798   	47.000000	10.2949   	47.000000	10.7103   	47.000000	10.5756   	47.000000	0.00420015	
50.000000	8.78478   	50.000000	10.1133   	50.000000	9.8662    	50.000000	10.2279   	50.000000	10.1094   	50.000000	0.00397262	
55.000000	8.19016   	55.000000	9.43173   	55.000000	9.23469   	55.000000	9.52448   	55.000000	9.42809   	55.000000	0.00364574	
60.000000	7.68255   	60.000000	8.84756   	60.000000	8.68952   	60.000000	8.92315   	60.000000	8.84419   	60.000000	0.0033706 	
65.000000	7.24381   	65.000000	8.34131   	65.000000	8.21506   	65.000000	8.40315   	65.000000	8.33818   	65.000000	0.00313568	
70.000000	6.86054   	70.000000	7.89836   	70.000000	7.79772   	70.000000	7.94901   	70.000000	7.89543   	70.000000	0.00293264	
75.000000	6.52266   	75.000000	7.50754   	75.000000	7.42698   	75.000000	7.54896   	75.000000	7.50479   	75.000000	0.00275532	
80.000000	6.22238   	80.000000	7.16015   	80.000000	7.09702   	80.000000	7.19386   	80.000000	7.15756   	80.000000	0.00259907	
85.000000	5.95364   	85.000000	6.84934   	85.000000	6.80053   	85.000000	6.87655   	85.000000	6.84688   	85.000000	0.00246028	
90.000000	5.71161   	90.000000	6.56962   	90.000000	6.53257   	90.000000	6.5913    	90.000000	6.56728   	90.000000	0.00233616	
95.000000	5.49241   	95.000000	6.31654   	95.000000	6.28917   	95.000000	6.33348   	95.000000	6.31432   	95.000000	0.00222446	
100.000000	5.29289   	100.000000	6.08648   	100.000000	6.06779   	100.000000	6.09931   	100.000000	6.08436   	100.000000	0.00212338	
105.000000	5.11045   	105.000000	5.87643   	105.000000	5.86487   	105.000000	5.88569   	105.000000	5.8744    	105.000000	0.00203146	
110.000000	4.94295   	110.000000	5.6839    	110.000000	5.67878   	110.000000	5.69002   	110.000000	5.68195   	110.000000	0.00194748	
115.000000	4.78857   	115.000000	5.50678   	115.000000	5.50704   	115.000000	5.51013   	115.000000	5.50491   	115.000000	0.00187045	
120.000000	4.6458    	120.000000	5.34329   	120.000000	5.34828   	120.000000	5.34419   	120.000000	5.34149   	120.000000	0.00179953	
125.000000	4.51335   	125.000000	5.19192   	125.000000	5.20111   	125.000000	5.19064   	125.000000	5.19019   	125.000000	0.00173401	
130.000000	4.3901    	130.000000	5.05138   	130.000000	5.064     	130.000000	5.04815   	130.000000	5.0497    	130.000000	0.00167328	
135.000000	4.27512   	135.000000	4.92053   	135.000000	4.93637   	135.000000	4.91555   	135.000000	4.91892   	135.000000	0.00161684	
140.000000	4.16757   	140.000000	4.79842   	140.000000	4.81696   	140.000000	4.79187   	140.000000	4.79686   	140.000000	0.00156423	
145.000000	4.06674   	145.000000	4.6842    	145.000000	4.70498   	145.000000	4.67622   	145.000000	4.68268   	145.000000	0.00151508	
150.000000	3.972     	150.000000	4.57713   	150.000000	4.60003   	150.000000	4.56786   	150.000000	4.57566   	150.000000	0.00146904	
155.000000	3.83748   	155.000000	4.47655   	155.000000	4.5015    	155.000000	4.46612   	155.000000	4.47513   	155.000000	0.00142584	
160.000000	3.75917   	160.000000	4.38191   	160.000000	4.40861   	160.000000	4.37041   	160.000000	4.38052   	160.000000	0.0013852 	
165.000000	3.68524   	165.000000	4.29268   	165.000000	4.32077   	165.000000	4.28022   	165.000000	4.29133   	165.000000	0.00134692	
170.000000	3.61532   	170.000000	4.20842   	170.000000	4.23776   	170.000000	4.19508   	170.000000	4.20711   	170.000000	0.00131077	
175.000000	3.54909   	175.000000	4.12873   	175.000000	4.1593    	175.000000	4.11458   	175.000000	4.12745   	175.000000	0.0012766 	
180.000000	3.48626   	180.000000	4.05324   	180.000000	4.08502   	180.000000	4.03835   	180.000000	4.052     	180.000000	0.00124423	
185.000000	3.42657   	185.000000	3.98163   	185.000000	4.01437   	185.000000	3.96608   	185.000000	3.98042   	185.000000	0.00121353	
190.000000	3.36979   	190.000000	3.91362   	190.000000	3.94707   	190.000000	3.89745   	190.000000	3.91244   	190.000000	0.00118437	
195.000000	3.31571   	195.000000	3.84894   	195.000000	3.88324   	195.000000	3.8322    	195.000000	3.84778   	195.000000	0.00115664	
200.000000	3.26414   	200.000000	3.78735   	200.000000	3.82261   	200.000000	3.77009   	200.000000	3.78622   	200.000000	0.00113023	
210.000000	3.16787   	210.000000	3.6726    	210.000000	3.70881   	210.000000	3.65444   	210.000000	3.67151   	210.000000	0.001081  	
220.000000	3.07975   	220.000000	3.56787   	220.000000	3.60511   	220.000000	3.54896   	220.000000	3.56684   	220.000000	0.00103605	
230.000000	2.9988    	230.000000	3.47192   	230.000000	3.51027   	230.000000	3.45239   	230.000000	3.47093   	230.000000	0.000994823	
240.000000	2.92417   	240.000000	3.3837    	240.000000	3.42274   	240.000000	3.36365   	240.000000	3.38274   	240.000000	0.000956878	
250.000000	2.85514   	250.000000	3.30231   	250.000000	3.34191   	250.000000	3.28185   	250.000000	3.30139   	250.000000	0.000921832	
260.000000	2.7911    	260.000000	3.22701   	260.000000	3.26714   	260.000000	3.2062    	260.000000	3.22612   	260.000000	0.00088936	
270.000000	2.73154   	270.000000	3.15713   	270.000000	3.1978    	270.000000	3.13606   	270.000000	3.15627   	270.000000	0.000859185	
280.000000	2.67599   	280.000000	3.09212   	280.000000	3.13329   	280.000000	3.07086   	280.000000	3.09129   	280.000000	0.000831069	
290.000000	2.62408   	290.000000	3.0315    	290.000000	3.07289   	290.000000	3.01009   	290.000000	3.0307    	290.000000	0.000804804	
300.000000	2.57545   	300.000000	2.97485   	300.000000	3.0166    	300.000000	2.95334   	300.000000	2.97407   	300.000000	0.000780212	
310.000000	2.5298    	310.000000	2.92178   	310.000000	2.96399   	310.000000	2.90023   	310.000000	2.92102   	310.000000	0.000757136	
320.000000	2.48687   	320.000000	2.87199   	320.000000	2.91442   	320.000000	2.85042   	320.000000	2.87125   	320.000000	0.000735437	
330.000000	2.44644   	330.000000	2.82517   	330.000000	2.86782   	330.000000	2.80363   	330.000000	2.82446   	330.000000	0.000714995	
340.000000	2.40828   	340.000000	2.78108   	340.000000	2.82398   	340.000000	2.7596    	340.000000	2.78039   	340.000000	0.000695702	
350.000000	2.37221   	350.000000	2.7395    	350.000000	2.78263   	350.000000	2.71809   	350.000000	2.73882   	350.000000	0.000677463	
360.000000	2.33808   	360.000000	2.70021   	360.000000	2.74363   	360.000000	2.67891   	360.000000	2.69955   	360.000000	0.000660192	
370.000000	2.30573   	370.000000	2.66305   	370.000000	2.70652   	370.000000	2.64168   	370.000000	2.6624    	370.000000	0.000643813	
380.000000	2.27503   	380.000000	2.62784   	380.000000	2.67124   	380.000000	2.60642   	380.000000	2.62721   	380.000000	0.000628259	
390.000000	2.24586   	390.000000	2.59444   	390.000000	2.63776   	390.000000	2.57301   	390.000000	2.59383   	390.000000	0.000613467	
400.000000	2.21811   	400.000000	2.56272   	400.000000	2.60612   	400.000000	2.54129   	400.000000	2.56212   	400.000000	0.000599382	
410.000000	2.19168   	410.000000	2.53257   	410.000000	2.57607   	410.000000	2.51116   	410.000000	2.53198   	410.000000	0.000585954	
420.000000	2.16649   	420.000000	2.50387   	420.000000	2.54735   	420.000000	2.4825    	420.000000	2.50329   	420.000000	0.000573137	
430.000000	2.14245   	430.000000	2.47652   	430.000000	2.51998   	430.000000	2.45521   	430.000000	2.47596   	430.000000	0.00056089	
440.000000	2.11949   	440.000000	2.45044   	440.000000	2.49399   	440.000000	2.4292    	440.000000	2.44989   	440.000000	0.000549176	
450.000000	2.09754   	450.000000	2.42554   	450.000000	2.46924   	450.000000	2.40439   	450.000000	2.425     	450.000000	0.00053796	
460.000000	2.07654   	460.000000	2.40175   	460.000000	2.44553   	460.000000	2.38069   	460.000000	2.40122   	460.000000	0.00052721	
470.000000	2.05643   	470.000000	2.379     	470.000000	2.4228    	470.000000	2.35805   	470.000000	2.37848   	470.000000	0.000516897	
480.000000	2.03716   	480.000000	2.35723   	480.000000	2.40104   	480.000000	2.33639   	480.000000	2.35672   	480.000000	0.000506996	
490.000000	2.01868   	490.000000	2.33637   	490.000000	2.38023   	490.000000	2.31566   	490.000000	2.33587   	490.000000	0.000497481	
500.000000	2.00094   	500.000000	2.31638   	500.000000	2.3603    	500.000000	2.2958    	500.000000	2.31589   	500.000000	0.000488331	
520.000000	1.96754   	520.000000	2.2788    	520.000000	2.32284   	520.000000	2.2585    	520.000000	2.27833   	520.000000	0.00047104	
540.000000	1.93666   	540.000000	2.24414   	540.000000	2.28831   	540.000000	2.22413   	540.000000	2.24369   	540.000000	0.000454977	
560.000000	1.90804   	560.000000	2.21209   	560.000000	2.25641   	560.000000	2.19237   	560.000000	2.21165   	560.000000	0.000440012	
580.000000	1.88148   	580.000000	2.18238   	580.000000	2.22688   	580.000000	2.16298   	580.000000	2.18196   	580.000000	0.000426035	
600.000000	1.85676   	600.000000	2.15479   	600.000000	2.19936   	600.000000	2.1357    	600.000000	2.15438   	600.000000	0.000412951	
620.000000	1.83373   	620.000000	2.12913   	620.000000	2.17371   	620.000000	2.11033   	620.000000	2.12873   	620.000000	0.000400676	
640.000000	1.81223   	640.000000	2.1052    	640.000000	2.14992   	640.000000	2.08671   	640.000000	2.10482   	640.000000	0.000389136	
660.000000	1.79213   	660.000000	2.08287   	660.000000	2.12778   	660.000000	2.06467   	660.000000	2.08249   	660.000000	0.000378266	
680.000000	1.77331   	680.000000	2.06199   	680.000000	2.10707   	680.000000	2.04406   	680.000000	2.06162   	680.000000	0.000368009	
700.000000	1.75568   	700.000000	2.04244   	700.000000	2.08762   	700.000000	2.02478   	700.000000	2.04208   	700.000000	0.000358313	
720.000000	1.73913   	720.000000	2.02412   	720.000000	2.06931   	720.000000	2.0067    	720.000000	2.02377   	720.000000	0.000349134	
740.000000	1.72359   	740.000000	2.00692   	740.000000	2.05215   	740.000000	1.98974   	740.000000	2.00658   	740.000000	0.00034043	
760.000000	1.70898   	760.000000	1.99076   	760.000000	2.03609   	760.000000	1.9738    	760.000000	1.99043   	760.000000	0.000332165	
780.000000	1.69523   	780.000000	1.97556   	780.000000	2.02099   	780.000000	1.9588    	780.000000	1.97524   	780.000000	0.000324307	
800.000000	1.68228   	800.000000	1.96126   	800.000000	2.00672   	800.000000	1.94467   	800.000000	1.96094   	800.000000	0.000316825	
820.000000	1.67008   	820.000000	1.94778   	820.000000	1.99321   	820.000000	1.93135   	820.000000	1.94747   	820.000000	0.000309693	
840.000000	1.65857   	840.000000	1.93507   	840.000000	1.98045   	840.000000	1.91877   	840.000000	1.93477   	840.000000	0.000302887	
860.000000	1.64772   	860.000000	1.92308   	860.000000	1.96839   	860.000000	1.9069    	860.000000	1.92278   	860.000000	0.000296384	
880.000000	1.63747   	880.000000	1.91176   	880.000000	1.957     	880.000000	1.89567   	880.000000	1.91147   	880.000000	0.000290164	
900.000000	1.62779   	900.000000	1.90107   	900.000000	1.94626   	900.000000	1.88504   	900.000000	1.90078   	900.000000	0.00028421	
920.000000	1.61865   	920.000000	1.89096   	920.000000	1.93612   	920.000000	1.87498   	920.000000	1.89068   	920.000000	0.000278504	
940.000000	1.61001   	940.000000	1.8814    	940.000000	1.92651   	940.000000	1.86544   	940.000000	1.88113   	940.000000	0.000273031	
960.000000	1.60185   	960.000000	1.87236   	960.000000	1.91737   	960.000000	1.85639   	960.000000	1.87209   	960.000000	0.000267776	
980.000000	1.59413   	980.000000	1.8638    	980.000000	1.90868   	980.000000	1.84781   	980.000000	1.86354   	980.000000	0.000262728	
1000.000000	1.58683   	1000.000000	1.8557    	1000.000000	1.9004    	1000.000000	1.83966   	1000.000000	1.85544   	1000.000000	0.000257873	
1020.000000	1.57993   	1020.000000	1.84803   	1020.000000	1.89252   	1020.000000	1.83192   	1020.000000	1.84778   	1020.000000	0.0002532 	
1040.000000	1.57341   	1040.000000	1.84077   	1040.000000	1.88503   	1040.000000	1.82456   	1040.000000	1.84052   	1040.000000	0.0002487 	
1060.000000	1.56724   	1060.000000	1.83388   	1060.000000	1.87792   	1060.000000	1.81756   	1060.000000	1.83364   	1060.000000	0.000244363	
1080.000000	1.56141   	1080.000000	1.82737   	1080.000000	1.87115   	1080.000000	1.81089   	1080.000000	1.82713   	1080.000000	0.00024018	
1100.000000	1.55591   	1100.000000	1.82119   	1100.000000	1.8647    	1100.000000	1.80455   	1100.000000	1.82096   	1100.000000	0.000236143	
1120.000000	1.5507    	1120.000000	1.81534   	1120.000000	1.85856   	1120.000000	1.79851   	1120.000000	1.81511   	1120.000000	0.000232244	
1140.000000	1.54579   	1140.000000	1.8098    	1140.000000	1.85271   	1140.000000	1.79276   	1140.000000	1.80957   	1140.000000	0.000228477	
1160.000000	1.54115   	1160.000000	1.80455   	1160.000000	1.84713   	1160.000000	1.78727   	1160.000000	1.80433   	1160.000000	0.000224834	
1180.000000	1.53678   	1180.000000	1.79958   	1180.000000	1.84181   	1180.000000	1.78204   	1180.000000	1.79936   	1180.000000	0.00022131	
1200.000000	1.53265   	1200.000000	1.79488   	1200.000000	1.83673   	1200.000000	1.77705   	1200.000000	1.79466   	1200.000000	0.000217898	
1220.000000	1.52876   	1220.000000	1.79043   	1220.000000	1.83188   	1220.000000	1.77229   	1220.000000	1.79021   	1220.000000	0.000214594	
1240.000000	1.5251    	1240.000000	1.78621   	1240.000000	1.82726   	1240.000000	1.76775   	1240.000000	1.786     	1240.000000	0.000211392	
1260.000000	1.52166   	1260.000000	1.78223   	1260.000000	1.82284   	1260.000000	1.76341   	1260.000000	1.78202   	1260.000000	0.000208288	
1280.000000	1.51843   	1280.000000	1.77846   	1280.000000	1.81862   	1280.000000	1.75927   	1280.000000	1.77826   	1280.000000	0.000205277	
1300.000000	1.5154    	1300.000000	1.7749    	1300.000000	1.81459   	1300.000000	1.75532   	1300.000000	1.7747    	1300.000000	0.000202355	
1320.000000	1.51256   	1320.000000	1.77154   	1320.000000	1.81074   	1320.000000	1.75154   	1320.000000	1.77134   	1320.000000	0.000199517	
1340.000000	1.5099    	1340.000000	1.76837   	1340.000000	1.80707   	1340.000000	1.74793   	1340.000000	1.76818   	1340.000000	0.000196761	
1360.000000	1.50741   	1360.000000	1.76538   	1360.000000	1.80355   	1360.000000	1.74449   	1360.000000	1.76519   	1360.000000	0.000194083	
1380.000000	1.5051    	1380.000000	1.76257   	1380.000000	1.80019   	1380.000000	1.74119   	1380.000000	1.76238   	1380.000000	0.00019148	
1400.000000	1.50295   	1400.000000	1.75992   	1400.000000	1.79697   	1400.000000	1.73804   	1400.000000	1.75973   	1400.000000	0.000188948	
1420.000000	1.50095   	1420.000000	1.75744   	1420.000000	1.7939    	1420.000000	1.73503   	1420.000000	1.75725   	1420.000000	0.000186484	
1440.000000	1.4991    	1440.000000	1.7551    	1440.000000	1.79096   	1440.000000	1.73216   	1440.000000	1.75492   	1440.000000	0.000184086	
1460.000000	1.49739   	1460.000000	1.75292   	1460.000000	1.78815   	1460.000000	1.72941   	1460.000000	1.75273   	1460.000000	0.000181751	
1480.000000	1.49583   	1480.000000	1.75087   	1480.000000	1.78547   	1480.000000	1.72678   	1480.000000	1.75069   	1480.000000	0.000179477	
1500.000000	1.4944    	1500.000000	1.74896   	1500.000000	1.7829    	1500.000000	1.72427   	1500.000000	1.74878   	1500.000000	0.000177261	
1520.000000	1.49309   	1520.000000	1.74718   	1520.000000	1.78044   	1520.000000	1.72187   	1520.000000	1.747     	1520.000000	0.000175101	
1540.000000	1.49191   	1540.000000	1.74553   	1540.000000	1.77809   	1540.000000	1.71957   	1540.000000	1.74535   	1540.000000	0.000172994	
1560.000000	1.49085   	1560.000000	1.74399   	1560.000000	1.77585   	1560.000000	1.71738   	1560.000000	1.74382   	1560.000000	0.00017094	
1580.000000	1.48991   	1580.000000	1.74257   	1580.000000	1.7737    	1580.000000	1.71528   	1580.000000	1.7424    	1580.000000	0.000168936	
1600.000000	1.48907   	1600.000000	1.74127   	1600.000000	1.77165   	1600.000000	1.71328   	1600.000000	1.7411    	1600.000000	0.00016698	
1620.000000	1.48834   	1620.000000	1.74007   	1620.000000	1.76969   	1620.000000	1.71137   	1620.000000	1.7399    	1620.000000	0.00016507	
1640.000000	1.48772   	1640.000000	1.73897   	1640.000000	1.76782   	1640.000000	1.70954   	1640.000000	1.73881   	1640.000000	0.000163205	
1660.000000	1.4872    	1660.000000	1.73798   	1660.000000	1.76603   	1660.000000	1.70779   	1660.000000	1.73782   	1660.000000	0.000161383	
1680.000000	1.48677   	1680.000000	1.73708   	1680.000000	1.76432   	1680.000000	1.70613   	1680.000000	1.73692   	1680.000000	0.000159602	
1700.000000	1.48644   	1700.000000	1.73627   	1700.000000	1.76268   	1700.000000	1.70453   	1700.000000	1.73612   	1700.000000	0.000157862	
1750.000000	1.48601   	1750.000000	1.73465   	1750.000000	1.75891   	1750.000000	1.70087   	1750.000000	1.73449   	1750.000000	0.00015368	
1800.000000	1.4861    	1800.000000	1.73354   	1800.000000	1.75555   	1800.000000	1.69761   	1800.000000	1.73339   	1800.000000	0.00014972	
1850.000000	1.48668   	1850.000000	1.7329    	1850.000000	1.75256   	1850.000000	1.69473   	1850.000000	1.73276   	1850.000000	0.000145967	
1900.000000	1.48772   	1900.000000	1.7327    	1900.000000	1.74991   	1900.000000	1.69219   	1900.000000	1.73256   	1900.000000	0.000142403	
1950.000000	1.48917   	1950.000000	1.73291   	1950.000000	1.74757   	1950.000000	1.68995   	1950.000000	1.73277   	1950.000000	0.000139015	
2000.000000	1.49102   	2000.000000	1.73349   	2000.000000	1.74552   	2000.000000	1.688     	2000.000000	1.73335   	2000.000000	0.00013579	
2100.000000	1.4958    	2100.000000	1.73566   	2100.000000	1.74219   	2100.000000	1.68484   	2100.000000	1.73553   	2100.000000	0.000129783	
2200.000000	1.50187   	2200.000000	1.73903   	2200.000000	1.73975   	2200.000000	1.68255   	2200.000000	1.7389    	2200.000000	0.000124302	
2300.000000	1.50909   	2300.000000	1.74344   	2300.000000	1.73805   	2300.000000	1.68098   	2300.000000	1.74332   	2300.000000	0.00011928	
2400.000000	1.51733   	2400.000000	1.74877   	2400.000000	1.73698   	2400.000000	1.68003   	2400.000000	1.74865   	2400.000000	0.000114661	
2500.000000	1.52648   	2500.000000	1.7549    	2500.000000	1.73643   	2500.000000	1.67959   	2500.000000	1.75479   	2500.000000	0.000110397	
2600.000000	1.53646   	2600.000000	1.76173   	2600.000000	1.73634   	2600.000000	1.6796    	2600.000000	1.76163   	2600.000000	0.000106449	
2700.000000	1.54718   	2700.000000	1.7692    	2700.000000	1.73663   	2700.000000	1.67999   	2700.000000	1.7691    	2700.000000	0.000102783	
2800.000000	1.55858   	2800.000000	1.77723   	2800.000000	1.73725   	2800.000000	1.6807    	2800.000000	1.77713   	2800.000000	9.93692e-05	
2900.000000	1.57061   	2900.000000	1.78576   	2900.000000	1.73815   	2900.000000	1.68169   	2900.000000	1.78566   	2900.000000	9.6182e-05	
3000.000000	1.58321   	3000.000000	1.79474   	3000.000000	1.73929   	3000.000000	1.68292   	3000.000000	1.79465   	3000.000000	9.31994e-05	
3200.000000	1.60995   	3200.000000	1.81388   	3200.000000	1.74218   	3200.000000	1.68596   	3200.000000	1.8138    	3200.000000	8.77733e-05	
3400.000000	1.63852   	3400.000000	1.83436   	3400.000000	1.7457    	3400.000000	1.6896    	3400.000000	1.83428   	3400.000000	8.29628e-05	
3600.000000	1.66868   	3600.000000	1.85595   	3600.000000	1.74968   	3600.000000	1.6937    	3600.000000	1.85587   	3600.000000	7.86677e-05	
3800.000000	1.70025   	3800.000000	1.87847   	3800.000000	1.75402   	3800.000000	1.69813   	3800.000000	1.87839   	3800.000000	7.48087e-05	
4000.000000	1.73308   	4000.000000	1.90176   	4000.000000	1.7586    	4000.000000	1.70279   	4000.000000	1.90169   	4000.000000	7.13218e-05	
4200.000000	1.76706   	4200.000000	1.92571   	4200.000000	1.76335   	4200.000000	1.70762   	4200.000000	1.92565   	4200.000000	6.81553e-05	
4400.000000	1.80208   	4400.000000	1.95024   	4400.000000	1.76822   	4400.000000	1.71256   	4400.000000	1.95017   	4400.000000	6.52664e-05	
4600.000000	1.83805   	4600.000000	1.97525   	4600.000000	1.77316   	4600.000000	1.71757   	4600.000000	1.97519   	4600.000000	6.26198e-05	
4800.000000	1.87492   	4800.000000	2.00068   	4800.000000	1.77814   	4800.000000	1.72262   	4800.000000	2.00062   	4800.000000	6.0186e-05	
5000.000000	1.91262   	5000.000000	2.02648   	5000.000000	1.78314   	5000.000000	1.72769   	5000.000000	2.02642   	5000.000000	5.794e-05 	
5250.000000	1.96083   	5250.000000	2.05917   	5250.000000	1.78937   	5250.000000	1.73401   	5250.000000	2.05912   	5250.000000	5.53647e-05	
5500.000000	2.01019   	5500.000000	2.09229   	5500.000000	1.79557   	5500.000000	1.74029   	5500.000000	2.09224   	5500.000000	5.30154e-05	
6000.000000	2.11205   	6000.000000	2.15956   	6000.000000	1.80777   	6000.000000	1.75264   	6000.000000	2.15951   	6000.000000	4.88843e-05	
6500.000000	2.21779   	6500.000000	2.2279    	6500.000000	1.81965   	6500.000000	1.76466   	6500.000000	2.22786   	6500.000000	4.53674e-05	
7000.000000	2.32709   	7000.000000	2.29704   	7000.000000	1.83115   	7000.000000	1.77627   	7000.000000	2.297     	7000.000000	4.23363e-05	
7500.000000	2.43972   	7500.000000	2.36678   	7500.000000	1.84212   	7500.000000	1.78746   	7500.000000	2.36674   	7500.000000	3.96958e-05	
8000.000000	2.55552   	8000.000000	2.43698   	8000.000000	1.85281   	8000.000000	1.79823   	8000.000000	2.43694   	8000.000000	3.73743e-05	
8500.000000	2.67435   	8500.000000	2.50753   	8500.000000	1.86309   	8500.000000	1.80858   	8500.000000	2.50749   	8500.000000	3.53169e-05	
9000.000000	2.79611   	9000.000000	2.57834   	9000.000000	1.8729    	9000.000000	1.81854   	9000.000000	2.5783    	9000.000000	3.34804e-05	
9500.000000	2.92072   	9500.000000	2.64934   	9500.000000	1.8823    	9500.000000	1.82812   	9500.000000	2.64931   	9500.000000	3.18308e-05	
10000.000000	3.04812   	10000.000000	2.7205    	10000.000000	1.89134   	10000.000000	1.83734   	10000.000000	2.72047   	10000.000000	3.03407e-05	
11000.000000	3.31107   	11000.000000	2.8631    	11000.000000	1.90844   	11000.000000	1.85476   	11000.000000	2.86307   	11000.000000	2.77538e-05	
12000.000000	3.58466   	12000.000000	3.00591   	12000.000000	1.92436   	12000.000000	1.87098   	12000.000000	3.00589   	12000.000000	2.55844e-05	
13000.000000	3.86869   	13000.000000	3.14878   	13000.000000	1.93918   	13000.000000	1.88611   	13000.000000	3.14876   	13000.000000	2.37381e-05	
14000.000000	4.16301   	14000.000000	3.29161   	14000.000000	1.95302   	14000.000000	1.90028   	14000.000000	3.29159   	14000.000000	2.21472e-05	
15000.000000	4.46753   	15000.000000	3.43433   	15000.000000	1.96598   	15000.000000	1.91359   	15000.000000	3.4343    	15000.000000	2.07617e-05	
16000.000000	4.7822    	16000.000000	3.57689   	16000.000000	1.97814   	16000.000000	1.92614   	16000.000000	3.57687   	16000.000000	1.95439e-05	
17000.000000	5.10698   	17000.000000	3.71926   	17000.000000	1.98958   	17000.000000	1.93799   	17000.000000	3.71924   	17000.000000	1.84647e-05	
18000.000000	5.44185   	18000.000000	3.86143   	18000.000000	2.00038   	18000.000000	1.94923   	18000.000000	3.86142   	18000.000000	1.75017e-05	
19000.000000	5.78682   	19000.000000	4.00339   	19000.000000	2.01062   	19000.000000	1.9599    	19000.000000	4.00337   	19000.000000	1.66369e-05	
20000.000000	6.14187   	20000.000000	4.14512   	20000.000000	2.02035   	20000.000000	1.97006   	20000.000000	4.1451    	20000.000000	1.58557e-05	
21000.000000	6.50704   	21000.000000	4.28661   	21000.000000	2.0296    	21000.000000	1.97975   	21000.000000	4.2866    	21000.000000	1.51466e-05	
22000.000000	6.88233   	22000.000000	4.42788   	22000.000000	2.03835   	22000.000000	1.98901   	22000.000000	4.42787   	22000.000000	1.45e-05  	
23000.000000	7.26779   	23000.000000	4.56892   	23000.000000	2.04672   	23000.000000	1.99788   	23000.000000	4.5689    	23000.000000	1.39078e-05	
24000.000000	7.66343   	24000.000000	4.70972   	24000.000000	2.05471   	24000.000000	2.00639   	24000.000000	4.70971   	24000.000000	1.33633e-05	
25000.000000	8.06929   	25000.000000	4.8503    	25000.000000	2.06234   	25000.000000	2.01456   	25000.000000	4.85029   	25000.000000	1.28611e-05	
26000.000000	8.48541   	26000.000000	4.99066   	26000.000000	2.06963   	26000.000000	2.02242   	26000.000000	4.99064   	26000.000000	1.23963e-05	
27000.000000	8.91183   	27000.000000	5.13079   	27000.000000	2.07663   	27000.000000	2.02999   	27000.000000	5.13078   	27000.000000	1.19648e-05	
28000.000000	9.34859   	28000.000000	5.27071   	28000.000000	2.08335   	28000.000000	2.03729   	28000.000000	5.2707    	28000.000000	1.15632e-05	
29000.000000	9.79574   	29000.000000	5.41042   	29000.000000	2.08983   	29000.000000	2.04435   	29000.000000	5.41041   	29000.000000	1.11884e-05	
30000.000000	10.2533   	30000.000000	5.54992   	30000.000000	2.09606   	30000.000000	2.05117   	30000.000000	5.54991   	30000.000000	1.08378e-05	
32000.000000	11.2      	32000.000000	5.82831   	32000.000000	2.10785   	32000.000000	2.06416   	32000.000000	5.8283    	32000.000000	1.02003e-05	
34000.000000	12.189    	34000.000000	6.10593   	34000.000000	2.1188    	34000.000000	2.07637   	34000.000000	6.10592   	34000.000000	9.63553e-06	
36000.000000	13.2207   	36000.000000	6.3828    	36000.000000	2.12895   	36000.000000	2.08789   	36000.000000	6.38279   	36000.000000	9.13162e-06	
38000.000000	14.2955   	38000.000000	6.65896   	38000.000000	2.13837   	38000.000000	2.09879   	38000.000000	6.65895   	38000.000000	8.67915e-06	
40000.000000	15.414    	40000.000000	6.93444   	40000.000000	2.14716   	40000.000000	2.10914   	40000.000000	6.93443   	40000.000000	8.27055e-06	
42000.000000	16.5765   	42000.000000	7.20927   	42000.000000	2.15544   	42000.000000	2.11898   	42000.000000	7.20926   	42000.000000	7.89968e-06	
44000.000000	17.7835   	44000.000000	7.48347   	44000.000000	2.16328   	44000.000000	2.12836   	44000.000000	7.48346   	44000.000000	7.56152e-06	
46000.000000	19.0355   	46000.000000	7.75707   	46000.000000	2.17073   	46000.000000	2.13733   	46000.000000	7.75707   	46000.000000	7.25186e-06	
48000.000000	20.3329   	48000.000000	8.0301    	48000.000000	2.17783   	48000.000000	2.14592   	48000.000000	8.03009   	48000.000000	6.96724e-06	
50000.000000	21.6762   	50000.000000	8.30257   	50000.000000	2.18451   	50000.000000	2.15415   	50000.000000	8.30256   	50000.000000	6.70469e-06	
