Energy (MeV/u)1	0 - [He-base] F.Hubert et al, AD&ND Tables 46(1990)1	Energy (MeV/u)2	1 - [H -base] J.F.Ziegler et al, Pergamon Press, NY (low energy)	Energy (MeV/u)3	2 - ATIMA 1.2  LS-theory (recommended for high energy)	Energy (MeV/u)4	3 - ATIMA 1.2  without LS-correction	Energy (MeV/u)5	4 - electrical component of [1] - J.F.Ziegler et al	Energy (MeV/u)6	5 - nuclear component of [1] - J.F.Ziegler et al	
0.001000	3.18811   	0.001000	3.18811   	0.001000	3.35647   	0.001000	3.35647   	0.001000	1.33259   	0.001000	1.85552   	
0.002000	3.19954   	0.002000	3.19954   	0.002000	3.45113   	0.002000	3.45113   	0.002000	1.72815   	0.002000	1.47139   	
0.005000	3.38525   	0.005000	3.38525   	0.005000	3.81393   	0.005000	3.81393   	0.005000	2.43674   	0.005000	0.948511  	
0.008000	3.6282    	0.008000	3.6282    	0.008000	4.19154   	0.008000	4.19154   	0.008000	2.9064    	0.008000	0.721809  	
0.010000	3.78822   	0.010000	3.78822   	0.010000	4.42945   	0.010000	4.42945   	0.010000	3.16006   	0.010000	0.62815   	
0.015000	4.24812   	0.015000	4.24812   	0.015000	4.97105   	0.015000	4.97105   	0.015000	3.76657   	0.015000	0.481554  	
0.020000	4.75607   	0.020000	4.75607   	0.020000	5.55054   	0.020000	5.55054   	0.020000	4.36089   	0.020000	0.395178  	
0.025000	5.35048   	0.025000	5.35048   	0.025000	6.13317   	0.025000	6.13317   	0.025000	5.01614   	0.025000	0.334342  	
0.030000	5.9394    	0.030000	5.9394    	0.030000	6.76578   	0.030000	6.76578   	0.030000	5.64625   	0.030000	0.293152  	
0.035000	6.51295   	0.035000	6.51295   	0.035000	7.38106   	0.035000	7.38106   	0.035000	6.25115   	0.035000	0.261806  	
0.040000	7.06167   	0.040000	7.06167   	0.040000	7.97596   	0.040000	7.97596   	0.040000	6.82461   	0.040000	0.237064  	
0.045000	7.57348   	0.045000	7.57348   	0.045000	8.54847   	0.045000	8.54847   	0.045000	7.3565    	0.045000	0.216983  	
0.050000	8.06181   	0.050000	8.06181   	0.050000	9.09725   	0.050000	9.09725   	0.050000	7.86149   	0.050000	0.200324  	
0.055000	8.59343   	0.055000	8.59343   	0.055000	9.62146   	0.055000	9.62146   	0.055000	8.40717   	0.055000	0.186257  	
0.060000	9.10668   	0.060000	9.10668   	0.060000	10.1206   	0.060000	10.1206   	0.060000	8.93248   	0.060000	0.174203  	
0.070000	10.0741   	0.070000	10.0741   	0.070000	11.0431   	0.070000	11.0431   	0.070000	9.91947   	0.070000	0.154584  	
0.080000	10.9472   	0.080000	10.9472   	0.080000	11.866    	0.080000	11.866    	0.080000	10.808    	0.080000	0.139252  	
0.090000	11.7508   	0.090000	11.7508   	0.090000	12.593    	0.090000	12.593    	0.090000	11.6239   	0.090000	0.12691   	
0.100000	12.4785   	0.100000	12.4785   	0.100000	13.2298   	0.100000	13.2298   	0.100000	12.3617   	0.100000	0.116738  	
0.120000	13.7111   	0.120000	13.7111   	0.120000	14.2602   	0.120000	14.2602   	0.120000	13.6102   	0.120000	0.100915  	
0.140000	14.6493   	0.140000	14.6493   	0.140000	15.0152   	0.140000	15.0152   	0.140000	14.5602   	0.140000	0.0891321 	
0.160000	15.3333   	0.160000	15.3333   	0.160000	15.5513   	0.160000	15.5513   	0.160000	15.2534   	0.160000	0.0799864 	
0.180000	15.776    	0.180000	15.776    	0.180000	15.9177   	0.180000	15.9177   	0.180000	15.7034   	0.180000	0.0726639 	
0.200000	16.0795   	0.200000	16.0795   	0.200000	16.1556   	0.200000	16.1556   	0.200000	16.0128   	0.200000	0.0666573 	
0.250000	16.348    	0.250000	16.348    	0.250000	16.3836   	0.250000	16.3836   	0.250000	16.2926   	0.250000	0.0554604 	
0.300000	16.4102   	0.300000	16.4102   	0.300000	16.3266   	0.300000	16.3266   	0.300000	16.3625   	0.300000	0.0476704 	
0.350000	16.3943   	0.350000	16.3943   	0.350000	16.1495   	0.350000	16.1495   	0.350000	16.3524   	0.350000	0.0419136 	
0.400000	16.2954   	0.400000	16.2954   	0.400000	15.9283   	0.400000	15.9283   	0.400000	16.2579   	0.400000	0.0374728 	
0.450000	16.1677   	0.450000	16.1677   	0.450000	15.8606   	0.450000	15.8606   	0.450000	16.1337   	0.450000	0.0339351 	
0.500000	16.0661   	0.500000	16.0661   	0.500000	15.7686   	0.500000	15.7686   	0.500000	16.0351   	0.500000	0.0310455 	
0.600000	15.4821   	0.600000	15.4821   	0.600000	15.507    	0.600000	15.507    	0.600000	15.4555   	0.600000	0.0265979 	
0.700000	15.0337   	0.700000	15.0337   	0.700000	15.1961   	0.700000	15.1961   	0.700000	15.0103   	0.700000	0.0233249 	
0.800000	14.6038   	0.800000	14.6038   	0.800000	14.7986   	0.800000	14.7986   	0.800000	14.583    	0.800000	0.0208084 	
0.900000	14.084    	0.900000	14.084    	0.900000	14.4134   	0.900000	14.4134   	0.900000	14.0652   	0.900000	0.0188094 	
1.000000	13.5829   	1.000000	13.5829   	1.000000	14.0433   	1.000000	14.0433   	1.000000	13.5657   	1.000000	0.0171804 	
1.250000	12.7585   	1.250000	12.7585   	1.250000	13.1815   	1.250000	13.1815   	1.250000	12.7444   	1.250000	0.0141712 	
1.500000	12.0307   	1.500000	12.0307   	1.500000	12.3277   	1.500000	12.3277   	1.500000	12.0186   	1.500000	0.0121    	
1.750000	11.3854   	1.750000	11.3854   	1.750000	11.5976   	1.750000	11.5976   	1.750000	11.3748   	1.750000	0.0105821 	
2.000000	10.8155   	2.000000	10.8155   	2.000000	10.9584   	2.000000	10.9584   	2.000000	10.806    	2.000000	0.00941901	
2.250000	10.24     	2.250000	10.24     	2.250000	10.3907   	2.250000	10.3907   	2.250000	10.2315   	2.250000	0.00849764	
2.500000	10.2874   	2.500000	9.72311   	2.500000	9.88148   	2.500000	9.88148   	2.500000	9.71536   	2.500000	0.00774867	
3.000000	9.2583    	3.000000	8.83117   	3.000000	9.00366   	3.000000	9.00366   	3.000000	8.82457   	3.000000	0.00660256	
3.500000	8.42281   	3.500000	8.08029   	3.500000	8.27252   	3.500000	8.27252   	3.500000	8.07453   	3.500000	0.00576466	
4.000000	7.73175   	4.000000	7.44931   	4.000000	7.65366   	4.000000	7.65366   	4.000000	7.44419   	4.000000	0.00512392	
4.500000	7.15079   	4.500000	6.91255   	4.500000	7.12293   	4.500000	7.12293   	4.500000	6.90794   	4.500000	0.00461719	
5.000000	6.65548   	5.000000	6.44967   	5.000000	6.66269   	5.000000	6.66269   	5.000000	6.44547   	5.000000	0.00420586	
5.500000	6.22809   	5.500000	6.05219   	5.500000	6.25972   	5.500000	6.25972   	5.500000	6.04833   	5.500000	0.00386495	
6.000000	5.85542   	6.000000	5.70064   	6.000000	5.90391   	6.000000	5.90391   	6.000000	5.69706   	6.000000	0.00357755	
6.500000	5.5275    	6.500000	5.38957   	6.500000	5.5874    	6.500000	5.5874    	6.500000	5.38624   	6.500000	0.00333181	
7.000000	5.23664   	7.000000	5.11206   	7.000000	5.30399   	7.000000	5.30399   	7.000000	5.10894   	7.000000	0.00311914	
7.500000	4.97683   	7.500000	4.86275   	7.500000	5.04872   	7.500000	5.04872   	7.500000	4.85982   	7.500000	0.00293319	
8.000000	4.74328   	8.000000	4.63744   	8.000000	4.81756   	8.000000	4.81756   	8.000000	4.63467   	8.000000	0.00276916	
8.500000	4.53216   	8.500000	4.43273   	8.500000	4.60724   	8.500000	4.60724   	8.500000	4.4301    	8.500000	0.00262333	
9.000000	4.34034   	9.000000	4.24587   	9.000000	4.41504   	9.000000	4.41504   	9.000000	4.24337   	9.000000	0.00249278	
9.500000	4.16526   	9.500000	4.07458   	9.500000	4.2387    	9.500000	4.2387    	9.500000	4.0722    	9.500000	0.00237519	
10.000000	4.00478   	10.000000	3.97173   	10.000000	4.07633   	10.000000	4.07633   	10.000000	3.96946   	10.000000	0.00226869	
11.000000	3.72082   	11.000000	3.70456   	11.000000	3.782     	11.000000	3.78726   	11.000000	3.70248   	11.000000	0.00208317	
12.000000	3.47727   	12.000000	3.47234   	12.000000	3.52868   	12.000000	3.53752   	12.000000	3.47042   	12.000000	0.00192691	
13.000000	3.26597   	13.000000	3.2687    	13.000000	3.30843   	13.000000	3.31972   	13.000000	3.26691   	13.000000	0.00179341	
14.000000	3.08083   	14.000000	3.0887    	14.000000	3.11524   	14.000000	3.1282    	14.000000	3.08703   	14.000000	0.00167797	
15.000000	2.91722   	15.000000	2.92848   	15.000000	2.94455   	15.000000	2.95856   	15.000000	2.9269    	15.000000	0.00157711	
16.000000	2.77153   	16.000000	2.78496   	16.000000	2.79265   	16.000000	2.80732   	16.000000	2.78347   	16.000000	0.00148818	
17.000000	2.64095   	17.000000	2.65566   	17.000000	2.65664   	17.000000	2.67173   	17.000000	2.65425   	17.000000	0.00140917	
18.000000	2.52319   	18.000000	2.53858   	18.000000	2.53428   	18.000000	2.54953   	18.000000	2.53724   	18.000000	0.00133848	
19.000000	2.41644   	19.000000	2.43206   	19.000000	2.4237    	19.000000	2.43889   	19.000000	2.43078   	19.000000	0.00127484	
20.000000	2.3192    	20.000000	2.33474   	20.000000	2.32332   	20.000000	2.33831   	20.000000	2.33352   	20.000000	0.00121723	
21.000000	2.23024   	21.000000	2.24547   	21.000000	2.23182   	21.000000	2.24651   	21.000000	2.24431   	21.000000	0.00116482	
22.000000	2.14852   	22.000000	2.1633    	22.000000	2.14809   	22.000000	2.16244   	22.000000	2.16218   	22.000000	0.00111693	
23.000000	2.07318   	23.000000	2.0874    	23.000000	2.0712    	23.000000	2.0852    	23.000000	2.08633   	23.000000	0.00107299	
24.000000	2.0035    	24.000000	2.01709   	24.000000	2.00043   	24.000000	2.01404   	24.000000	2.01606   	24.000000	0.00103252	
25.000000	1.93884   	25.000000	1.95177   	25.000000	1.93512   	25.000000	1.94831   	25.000000	1.95077   	25.000000	0.000995129	
27.000000	1.82255   	27.000000	1.8341    	27.000000	1.81863   	27.000000	1.83092   	27.000000	1.83317   	27.000000	0.000928232	
29.000000	1.72086   	29.000000	1.73103   	29.000000	1.71795   	29.000000	1.72938   	29.000000	1.73016   	29.000000	0.000870109	
31.000000	1.63114   	31.000000	1.63999   	31.000000	1.62912   	31.000000	1.63916   	31.000000	1.63917   	31.000000	0.000819118	
33.000000	1.55136   	33.000000	1.55898   	33.000000	1.54932   	33.000000	1.55763   	33.000000	1.55821   	33.000000	0.000774005	
35.000000	1.47994   	35.000000	1.48642   	35.000000	1.47775   	35.000000	1.48469   	35.000000	1.48568   	35.000000	0.000733797	
38.000000	1.38575   	38.000000	1.39072   	38.000000	1.3834    	38.000000	1.38862   	38.000000	1.39004   	38.000000	0.000681041	
41.000000	1.30427   	41.000000	1.30793   	41.000000	1.30167   	41.000000	1.30561   	41.000000	1.30729   	41.000000	0.000635641	
44.000000	1.23304   	44.000000	1.23558   	44.000000	1.23024   	44.000000	1.23312   	44.000000	1.23498   	44.000000	0.00059614	
47.000000	1.17022   	47.000000	1.1718    	47.000000	1.16717   	47.000000	1.16926   	47.000000	1.17123   	47.000000	0.000561444	
50.000000	1.11437   	50.000000	1.11513   	50.000000	1.11108   	50.000000	1.11254   	50.000000	1.1146    	50.000000	0.000530717	
55.000000	1.03385   	55.000000	1.03353   	55.000000	1.0303    	55.000000	1.03088   	55.000000	1.03304   	55.000000	0.000486614	
60.000000	0.965796  	60.000000	0.964668  	60.000000	0.962093  	60.000000	0.961994  	60.000000	0.964219  	60.000000	0.000449531	
65.000000	0.907481  	65.000000	0.905759  	65.000000	0.903647  	65.000000	0.90306   	65.000000	0.905341  	65.000000	0.000417897	
70.000000	0.856916  	70.000000	0.85477   	70.000000	0.85304   	70.000000	0.852046  	70.000000	0.854379  	70.000000	0.000390579	
75.000000	0.812626  	75.000000	0.810189  	75.000000	0.808724  	75.000000	0.807438  	75.000000	0.809822  	75.000000	0.00036674	
80.000000	0.773487  	80.000000	0.770869  	80.000000	0.769519  	80.000000	0.768088  	80.000000	0.770523  	80.000000	0.000345748	
85.000000	0.738634  	85.000000	0.735922  	85.000000	0.734752  	85.000000	0.733109  	85.000000	0.735595  	85.000000	0.000327116	
90.000000	0.707385  	90.000000	0.70465   	90.000000	0.703626  	90.000000	0.701803  	90.000000	0.70434   	90.000000	0.000310462	
95.000000	0.679197  	95.000000	0.676497  	95.000000	0.675514  	95.000000	0.673616  	95.000000	0.676202  	95.000000	0.000295482	
100.000000	0.653632  	100.000000	0.651014  	100.000000	0.650061  	100.000000	0.648099  	100.000000	0.650732  	100.000000	0.000281935	
105.000000	0.630332  	105.000000	0.627836  	105.000000	0.626976  	105.000000	0.624888  	105.000000	0.627566  	105.000000	0.000269621	
110.000000	0.609002  	110.000000	0.60666   	110.000000	0.605826  	110.000000	0.60368   	110.000000	0.606402  	110.000000	0.000258377	
115.000000	0.589397  	115.000000	0.587236  	115.000000	0.586405  	115.000000	0.584225  	115.000000	0.586988  	115.000000	0.000248067	
120.000000	0.57131   	120.000000	0.569353  	120.000000	0.568529  	120.000000	0.566313  	120.000000	0.569114  	120.000000	0.000238579	
125.000000	0.554568  	125.000000	0.552833  	125.000000	0.552012  	125.000000	0.549766  	125.000000	0.552603  	125.000000	0.000229817	
130.000000	0.539023  	130.000000	0.537525  	130.000000	0.536705  	130.000000	0.534433  	130.000000	0.537303  	130.000000	0.0002217 	
135.000000	0.524547  	135.000000	0.5233    	135.000000	0.52248   	135.000000	0.520185  	135.000000	0.523086  	135.000000	0.000214157	
140.000000	0.511031  	140.000000	0.510045  	140.000000	0.509222  	140.000000	0.50691   	140.000000	0.509838  	140.000000	0.00020713	
145.000000	0.498381  	145.000000	0.497665  	145.000000	0.496843  	145.000000	0.494511  	145.000000	0.497464  	145.000000	0.000200566	
150.000000	0.486513  	150.000000	0.486074  	150.000000	0.485254  	150.000000	0.482904  	150.000000	0.48588   	150.000000	0.000194421	
155.000000	0.473147  	155.000000	0.4752    	155.000000	0.474348  	155.000000	0.472015  	155.000000	0.475012  	155.000000	0.000188655	
160.000000	0.463269  	160.000000	0.464978  	160.000000	0.464093  	160.000000	0.46178   	160.000000	0.464794  	160.000000	0.000183234	
165.000000	0.453955  	165.000000	0.455349  	165.000000	0.454466  	165.000000	0.452142  	165.000000	0.455171  	165.000000	0.000178128	
170.000000	0.445156  	170.000000	0.446265  	170.000000	0.445387  	170.000000	0.443049  	170.000000	0.446092  	170.000000	0.000173309	
175.000000	0.43683   	175.000000	0.437679  	175.000000	0.436802  	175.000000	0.434457  	175.000000	0.437511  	175.000000	0.000168753	
180.000000	0.428939  	180.000000	0.429553  	180.000000	0.428674  	180.000000	0.426325  	180.000000	0.429388  	180.000000	0.00016444	
185.000000	0.421451  	185.000000	0.421849  	185.000000	0.42096   	185.000000	0.418618  	185.000000	0.421689  	185.000000	0.00016035	
190.000000	0.414334  	190.000000	0.414536  	190.000000	0.413628  	190.000000	0.411304  	190.000000	0.414379  	190.000000	0.000156466	
195.000000	0.407561  	195.000000	0.407584  	195.000000	0.406674  	195.000000	0.404352  	195.000000	0.407432  	195.000000	0.000152772	
200.000000	0.401107  	200.000000	0.400969  	200.000000	0.400068  	200.000000	0.397738  	200.000000	0.400819  	200.000000	0.000149256	
210.000000	0.389072  	210.000000	0.388651  	210.000000	0.387724  	210.000000	0.385427  	210.000000	0.388508  	210.000000	0.000142704	
220.000000	0.378072  	220.000000	0.377417  	220.000000	0.376505  	220.000000	0.374205  	220.000000	0.377281  	220.000000	0.000136723	
230.000000	0.367978  	230.000000	0.367132  	230.000000	0.366207  	230.000000	0.363936  	230.000000	0.367001  	230.000000	0.000131241	
240.000000	0.358682  	240.000000	0.35768   	240.000000	0.356772  	240.000000	0.354504  	240.000000	0.357554  	240.000000	0.000126196	
250.000000	0.350093  	250.000000	0.348964  	250.000000	0.348062  	250.000000	0.345812  	250.000000	0.348842  	250.000000	0.000121539	
260.000000	0.342132  	260.000000	0.340902  	260.000000	0.34001   	260.000000	0.337777  	260.000000	0.340785  	260.000000	0.000117225	
270.000000	0.334733  	270.000000	0.333424  	270.000000	0.33256   	270.000000	0.330328  	270.000000	0.333311  	270.000000	0.000113218	
280.000000	0.327839  	280.000000	0.32647   	280.000000	0.325608  	280.000000	0.323405  	280.000000	0.32636   	280.000000	0.000109485	
290.000000	0.321399  	290.000000	0.319986  	290.000000	0.319158  	290.000000	0.316955  	290.000000	0.31988   	290.000000	0.000105999	
300.000000	0.31537   	300.000000	0.313928  	300.000000	0.313126  	300.000000	0.310931  	300.000000	0.313825  	300.000000	0.000102736	
310.000000	0.309714  	310.000000	0.308254  	310.000000	0.307461  	310.000000	0.305294  	310.000000	0.308155  	310.000000	9.96749e-05	
320.000000	0.304398  	320.000000	0.302932  	320.000000	0.302152  	320.000000	0.300009  	320.000000	0.302835  	320.000000	9.67973e-05	
330.000000	0.299393  	330.000000	0.297928  	330.000000	0.297184  	330.000000	0.295044  	330.000000	0.297834  	330.000000	9.40871e-05	
340.000000	0.294672  	340.000000	0.293217  	340.000000	0.292511  	340.000000	0.290372  	340.000000	0.293126  	340.000000	9.15298e-05	
350.000000	0.290212  	350.000000	0.288774  	350.000000	0.288091  	350.000000	0.285969  	350.000000	0.288685  	350.000000	8.91127e-05	
360.000000	0.285992  	360.000000	0.284577  	360.000000	0.283911  	360.000000	0.281813  	360.000000	0.28449   	360.000000	8.68245e-05	
370.000000	0.281994  	370.000000	0.280607  	370.000000	0.279941  	370.000000	0.27786   	370.000000	0.280522  	370.000000	8.4655e-05	
380.000000	0.278201  	380.000000	0.276846  	380.000000	0.276196  	380.000000	0.274118  	380.000000	0.276763  	380.000000	8.2595e-05	
390.000000	0.274597  	390.000000	0.273279  	390.000000	0.272649  	390.000000	0.270571  	390.000000	0.273198  	390.000000	8.06365e-05	
400.000000	0.271171  	400.000000	0.269892  	400.000000	0.269272  	400.000000	0.267204  	400.000000	0.269813  	400.000000	7.8772e-05	
410.000000	0.267909  	410.000000	0.266672  	410.000000	0.266055  	410.000000	0.264005  	410.000000	0.266595  	410.000000	7.69947e-05	
420.000000	0.264799  	420.000000	0.263607  	420.000000	0.262995  	420.000000	0.260962  	420.000000	0.263532  	420.000000	7.52987e-05	
430.000000	0.261833  	430.000000	0.260687  	430.000000	0.260086  	430.000000	0.258065  	430.000000	0.260613  	430.000000	7.36784e-05	
440.000000	0.259     	440.000000	0.257903  	440.000000	0.257323  	440.000000	0.255304  	440.000000	0.25783   	440.000000	7.21289e-05	
450.000000	0.256292  	450.000000	0.255244  	450.000000	0.254689  	450.000000	0.252669  	450.000000	0.255174  	450.000000	7.06455e-05	
460.000000	0.253701  	460.000000	0.252705  	460.000000	0.252167  	460.000000	0.250153  	460.000000	0.252636  	460.000000	6.92239e-05	
470.000000	0.251221  	470.000000	0.250277  	470.000000	0.249749  	470.000000	0.247748  	470.000000	0.250209  	470.000000	6.78605e-05	
480.000000	0.248845  	480.000000	0.247953  	480.000000	0.247436  	480.000000	0.245448  	480.000000	0.247886  	480.000000	6.65517e-05	
490.000000	0.246566  	490.000000	0.245727  	490.000000	0.245223  	490.000000	0.243246  	490.000000	0.245662  	490.000000	6.52941e-05	
500.000000	0.244379  	500.000000	0.243594  	500.000000	0.243103  	500.000000	0.241136  	500.000000	0.24353   	500.000000	6.40848e-05	
520.000000	0.240262  	520.000000	0.239584  	520.000000	0.239118  	520.000000	0.237174  	520.000000	0.239522  	520.000000	6.18004e-05	
540.000000	0.236456  	540.000000	0.235886  	540.000000	0.235459  	540.000000	0.233521  	540.000000	0.235826  	540.000000	5.96786e-05	
560.000000	0.232929  	560.000000	0.232467  	560.000000	0.232082  	560.000000	0.230147  	560.000000	0.232409  	560.000000	5.77026e-05	
580.000000	0.229655  	580.000000	0.229298  	580.000000	0.22894   	580.000000	0.227021  	580.000000	0.229242  	580.000000	5.58575e-05	
600.000000	0.226609  	600.000000	0.226356  	600.000000	0.226022  	600.000000	0.22412   	600.000000	0.226302  	600.000000	5.41307e-05	
620.000000	0.223771  	620.000000	0.223619  	620.000000	0.22331   	620.000000	0.221422  	620.000000	0.223567  	620.000000	5.25111e-05	
640.000000	0.221121  	640.000000	0.221069  	640.000000	0.22078   	640.000000	0.218908  	640.000000	0.221018  	640.000000	5.09887e-05	
660.000000	0.218644  	660.000000	0.218688  	660.000000	0.218424  	660.000000	0.216562  	660.000000	0.218639  	660.000000	4.95551e-05	
680.000000	0.216324  	680.000000	0.216463  	680.000000	0.21623   	680.000000	0.214368  	680.000000	0.216415  	680.000000	4.82026e-05	
700.000000	0.214151  	700.000000	0.21438   	700.000000	0.214174  	700.000000	0.212314  	700.000000	0.214333  	700.000000	4.69244e-05	
720.000000	0.212111  	720.000000	0.212428  	720.000000	0.212237  	720.000000	0.210388  	720.000000	0.212382  	720.000000	4.57145e-05	
740.000000	0.210194  	740.000000	0.210596  	740.000000	0.210416  	740.000000	0.208579  	740.000000	0.210551  	740.000000	4.45675e-05	
760.000000	0.208392  	760.000000	0.208875  	760.000000	0.208704  	760.000000	0.206879  	760.000000	0.208832  	760.000000	4.34786e-05	
780.000000	0.206696  	780.000000	0.207257  	780.000000	0.207095  	780.000000	0.205278  	780.000000	0.207215  	780.000000	4.24434e-05	
800.000000	0.205098  	800.000000	0.205735  	800.000000	0.205578  	800.000000	0.20377   	800.000000	0.205693  	800.000000	4.1458e-05	
820.000000	0.203592  	820.000000	0.2043    	820.000000	0.204147  	820.000000	0.202347  	820.000000	0.20426   	820.000000	4.05189e-05	
840.000000	0.202171  	840.000000	0.202949  	840.000000	0.202794  	840.000000	0.201003  	840.000000	0.202909  	840.000000	3.96227e-05	
860.000000	0.200831  	860.000000	0.201673  	860.000000	0.201515  	860.000000	0.199733  	860.000000	0.201635  	860.000000	3.87667e-05	
880.000000	0.199565  	880.000000	0.20047   	880.000000	0.200306  	880.000000	0.198532  	880.000000	0.200432  	880.000000	3.79481e-05	
900.000000	0.198369  	900.000000	0.199333  	900.000000	0.199164  	900.000000	0.197395  	900.000000	0.199296  	900.000000	3.71645e-05	
920.000000	0.197238  	920.000000	0.198259  	920.000000	0.198086  	920.000000	0.196317  	920.000000	0.198223  	920.000000	3.64138e-05	
940.000000	0.19617   	940.000000	0.197244  	940.000000	0.197064  	940.000000	0.195295  	940.000000	0.197208  	940.000000	3.56937e-05	
960.000000	0.195159  	960.000000	0.196283  	960.000000	0.196093  	960.000000	0.194325  	960.000000	0.196248  	960.000000	3.50025e-05	
980.000000	0.194204  	980.000000	0.195375  	980.000000	0.195167  	980.000000	0.193404  	980.000000	0.195341  	980.000000	3.43385e-05	
1000.000000	0.1933    	1000.000000	0.194516  	1000.000000	0.194286  	1000.000000	0.192529  	1000.000000	0.194482  	1000.000000	3.37001e-05	
1020.000000	0.192445  	1020.000000	0.193702  	1020.000000	0.193447  	1020.000000	0.191696  	1020.000000	0.193669  	1020.000000	3.30857e-05	
1040.000000	0.191636  	1040.000000	0.192932  	1040.000000	0.192649  	1040.000000	0.190905  	1040.000000	0.192899  	1040.000000	3.24941e-05	
1060.000000	0.19087   	1060.000000	0.192203  	1060.000000	0.19189   	1060.000000	0.190151  	1060.000000	0.192171  	1060.000000	3.1924e-05	
1080.000000	0.190147  	1080.000000	0.191512  	1080.000000	0.191168  	1080.000000	0.189434  	1080.000000	0.191481  	1080.000000	3.13742e-05	
1100.000000	0.189462  	1100.000000	0.190859  	1100.000000	0.190479  	1100.000000	0.18875   	1100.000000	0.190828  	1100.000000	3.08436e-05	
1120.000000	0.188815  	1120.000000	0.19024   	1120.000000	0.189823  	1120.000000	0.188098  	1120.000000	0.190209  	1120.000000	3.03313e-05	
1140.000000	0.188203  	1140.000000	0.189654  	1140.000000	0.189197  	1140.000000	0.187477  	1140.000000	0.189624  	1140.000000	2.98363e-05	
1160.000000	0.187625  	1160.000000	0.189099  	1160.000000	0.1886    	1160.000000	0.186884  	1160.000000	0.18907   	1160.000000	2.93578e-05	
1180.000000	0.18708   	1180.000000	0.188574  	1180.000000	0.18803   	1180.000000	0.186318  	1180.000000	0.188545  	1180.000000	2.88948e-05	
1200.000000	0.186565  	1200.000000	0.188077  	1200.000000	0.187485  	1200.000000	0.185778  	1200.000000	0.188049  	1200.000000	2.84467e-05	
1220.000000	0.186079  	1220.000000	0.187608  	1220.000000	0.186965  	1220.000000	0.185262  	1220.000000	0.18758   	1220.000000	2.80128e-05	
1240.000000	0.185621  	1240.000000	0.187164  	1240.000000	0.186469  	1240.000000	0.184769  	1240.000000	0.187136  	1240.000000	2.75923e-05	
1260.000000	0.18519   	1260.000000	0.186744  	1260.000000	0.185994  	1260.000000	0.184298  	1260.000000	0.186717  	1260.000000	2.71847e-05	
1280.000000	0.184784  	1280.000000	0.186347  	1280.000000	0.18554   	1280.000000	0.183847  	1280.000000	0.186321  	1280.000000	2.67894e-05	
1300.000000	0.184403  	1300.000000	0.185973  	1300.000000	0.185106  	1300.000000	0.183417  	1300.000000	0.185947  	1300.000000	2.64058e-05	
1320.000000	0.184045  	1320.000000	0.18562   	1320.000000	0.184691  	1320.000000	0.183005  	1320.000000	0.185594  	1320.000000	2.60333e-05	
1340.000000	0.18371   	1340.000000	0.185288  	1340.000000	0.184294  	1340.000000	0.182611  	1340.000000	0.185262  	1340.000000	2.56716e-05	
1360.000000	0.183396  	1360.000000	0.184975  	1360.000000	0.183913  	1360.000000	0.182235  	1360.000000	0.184949  	1360.000000	2.53201e-05	
1380.000000	0.183103  	1380.000000	0.18468   	1380.000000	0.183549  	1380.000000	0.181874  	1380.000000	0.184655  	1380.000000	2.49785e-05	
1400.000000	0.18283   	1400.000000	0.184403  	1400.000000	0.183201  	1400.000000	0.181529  	1400.000000	0.184379  	1400.000000	2.46462e-05	
1420.000000	0.182575  	1420.000000	0.184144  	1420.000000	0.182868  	1420.000000	0.181199  	1420.000000	0.18412   	1420.000000	2.4323e-05	
1440.000000	0.182339  	1440.000000	0.183901  	1440.000000	0.18255   	1440.000000	0.180882  	1440.000000	0.183877  	1440.000000	2.40084e-05	
1460.000000	0.182121  	1460.000000	0.183673  	1460.000000	0.182246  	1460.000000	0.18058   	1460.000000	0.183649  	1460.000000	2.37021e-05	
1480.000000	0.181919  	1480.000000	0.183461  	1480.000000	0.181955  	1480.000000	0.18029   	1480.000000	0.183437  	1480.000000	2.34038e-05	
1500.000000	0.181734  	1500.000000	0.183263  	1500.000000	0.181677  	1500.000000	0.180012  	1500.000000	0.18324   	1500.000000	2.31131e-05	
1520.000000	0.181565  	1520.000000	0.183079  	1520.000000	0.18141   	1520.000000	0.179746  	1520.000000	0.183056  	1520.000000	2.28299e-05	
1540.000000	0.181411  	1540.000000	0.182908  	1540.000000	0.181155  	1540.000000	0.179492  	1540.000000	0.182885  	1540.000000	2.25537e-05	
1560.000000	0.181271  	1560.000000	0.18275   	1560.000000	0.180911  	1560.000000	0.179248  	1560.000000	0.182728  	1560.000000	2.22843e-05	
1580.000000	0.181146  	1580.000000	0.182605  	1580.000000	0.180677  	1580.000000	0.179015  	1580.000000	0.182583  	1580.000000	2.20215e-05	
1600.000000	0.181034  	1600.000000	0.182471  	1600.000000	0.180453  	1600.000000	0.178791  	1600.000000	0.18245   	1600.000000	2.1765e-05	
1620.000000	0.180935  	1620.000000	0.182349  	1620.000000	0.180238  	1620.000000	0.178577  	1620.000000	0.182328  	1620.000000	2.15147e-05	
1640.000000	0.180849  	1640.000000	0.182239  	1640.000000	0.180032  	1640.000000	0.178373  	1640.000000	0.182217  	1640.000000	2.12702e-05	
1660.000000	0.180775  	1660.000000	0.182139  	1660.000000	0.179834  	1660.000000	0.178176  	1660.000000	0.182117  	1660.000000	2.10314e-05	
1680.000000	0.180714  	1680.000000	0.182049  	1680.000000	0.179645  	1680.000000	0.177989  	1680.000000	0.182028  	1680.000000	2.07981e-05	
1700.000000	0.180663  	1700.000000	0.181969  	1700.000000	0.179464  	1700.000000	0.177809  	1700.000000	0.181948  	1700.000000	2.057e-05 	
1750.000000	0.180586  	1750.000000	0.18181   	1750.000000	0.179044  	1750.000000	0.177393  	1750.000000	0.18179   	1750.000000	2.00219e-05	
1800.000000	0.180573  	1800.000000	0.181707  	1800.000000	0.178667  	1800.000000	0.177021  	1800.000000	0.181688  	1800.000000	1.95032e-05	
1850.000000	0.180619  	1850.000000	0.181655  	1850.000000	0.178331  	1850.000000	0.176688  	1850.000000	0.181636  	1850.000000	1.90115e-05	
1900.000000	0.180721  	1900.000000	0.181649  	1900.000000	0.178031  	1900.000000	0.176392  	1900.000000	0.18163   	1900.000000	1.85448e-05	
1950.000000	0.180875  	1950.000000	0.181686  	1950.000000	0.177764  	1950.000000	0.176129  	1950.000000	0.181668  	1950.000000	1.81011e-05	
2000.000000	0.181077  	2000.000000	0.181763  	2000.000000	0.177527  	2000.000000	0.175895  	2000.000000	0.181746  	2000.000000	1.76788e-05	
2100.000000	0.181613  	2100.000000	0.182026  	2100.000000	0.177134  	2100.000000	0.175509  	2100.000000	0.182009  	2100.000000	1.68926e-05	
2200.000000	0.182307  	2200.000000	0.182417  	2200.000000	0.176834  	2200.000000	0.175214  	2200.000000	0.182401  	2200.000000	1.61753e-05	
2300.000000	0.18314   	2300.000000	0.182919  	2300.000000	0.176612  	2300.000000	0.174998  	2300.000000	0.182904  	2300.000000	1.55182e-05	
2400.000000	0.184099  	2400.000000	0.183519  	2400.000000	0.176457  	2400.000000	0.174847  	2400.000000	0.183504  	2400.000000	1.4914e-05	
2500.000000	0.185169  	2500.000000	0.184205  	2500.000000	0.176358  	2500.000000	0.174752  	2500.000000	0.18419   	2500.000000	1.43565e-05	
2600.000000	0.18634   	2600.000000	0.184966  	2600.000000	0.176307  	2600.000000	0.174705  	2600.000000	0.184952  	2600.000000	1.38404e-05	
2700.000000	0.187602  	2700.000000	0.185794  	2700.000000	0.176298  	2700.000000	0.174699  	2700.000000	0.185781  	2700.000000	1.33613e-05	
2800.000000	0.188947  	2800.000000	0.186683  	2800.000000	0.176324  	2800.000000	0.174728  	2800.000000	0.18667   	2800.000000	1.29151e-05	
2900.000000	0.190369  	2900.000000	0.187625  	2900.000000	0.17638   	2900.000000	0.174787  	2900.000000	0.187613  	2900.000000	1.24987e-05	
3000.000000	0.19186   	3000.000000	0.188615  	3000.000000	0.176463  	3000.000000	0.174873  	3000.000000	0.188603  	3000.000000	1.21091e-05	
3200.000000	0.19503   	3200.000000	0.190722  	3200.000000	0.176693  	3200.000000	0.175108  	3200.000000	0.19071   	3200.000000	1.14005e-05	
3400.000000	0.198422  	3400.000000	0.192971  	3400.000000	0.176991  	3400.000000	0.17541   	3400.000000	0.19296   	3400.000000	1.07726e-05	
3600.000000	0.202009  	3600.000000	0.195339  	3600.000000	0.17734   	3600.000000	0.175762  	3600.000000	0.195328  	3600.000000	1.0212e-05	
3800.000000	0.205767  	3800.000000	0.197805  	3800.000000	0.177727  	3800.000000	0.176152  	3800.000000	0.197795  	3800.000000	9.7086e-06	
4000.000000	0.209679  	4000.000000	0.200354  	4000.000000	0.178141  	4000.000000	0.176569  	4000.000000	0.200345  	4000.000000	9.25383e-06	
4200.000000	0.21373   	4200.000000	0.202974  	4200.000000	0.178576  	4200.000000	0.177006  	4200.000000	0.202965  	4200.000000	8.84096e-06	
4400.000000	0.217907  	4400.000000	0.205655  	4400.000000	0.179025  	4400.000000	0.177457  	4400.000000	0.205646  	4400.000000	8.46438e-06	
4600.000000	0.2222    	4600.000000	0.208388  	4600.000000	0.179483  	4600.000000	0.177918  	4600.000000	0.208379  	4600.000000	8.11947e-06	
4800.000000	0.226601  	4800.000000	0.211165  	4800.000000	0.179948  	4800.000000	0.178384  	4800.000000	0.211157  	4800.000000	7.80237e-06	
5000.000000	0.231103  	5000.000000	0.213982  	5000.000000	0.180416  	5000.000000	0.178854  	5000.000000	0.213974  	5000.000000	7.5098e-06	
5250.000000	0.236863  	5250.000000	0.21755   	5250.000000	0.181002  	5250.000000	0.179443  	5250.000000	0.217543  	5250.000000	7.17441e-06	
5500.000000	0.24276   	5500.000000	0.221163  	5500.000000	0.181587  	5500.000000	0.18003   	5500.000000	0.221156  	5500.000000	6.86853e-06	
6000.000000	0.254936  	6000.000000	0.2285    	6000.000000	0.182742  	6000.000000	0.18119   	6000.000000	0.228493  	6000.000000	6.33083e-06	
6500.000000	0.267578  	6500.000000	0.23595   	6500.000000	0.18387   	6500.000000	0.182322  	6500.000000	0.235944  	6500.000000	5.87329e-06	
7000.000000	0.28065   	7000.000000	0.243485  	7000.000000	0.184964  	7000.000000	0.183418  	7000.000000	0.24348   	7000.000000	5.47909e-06	
7500.000000	0.294122  	7500.000000	0.251084  	7500.000000	0.18602   	7500.000000	0.184478  	7500.000000	0.251079  	7500.000000	5.13582e-06	
8000.000000	0.307975  	8000.000000	0.258731  	8000.000000	0.18704   	8000.000000	0.185498  	8000.000000	0.258726  	8000.000000	4.83412e-06	
8500.000000	0.322192  	8500.000000	0.266415  	8500.000000	0.188019  	8500.000000	0.186481  	8500.000000	0.26641   	8500.000000	4.56682e-06	
9000.000000	0.336761  	9000.000000	0.274127  	9000.000000	0.188957  	9000.000000	0.187426  	9000.000000	0.274122  	9000.000000	4.32829e-06	
9500.000000	0.351671  	9500.000000	0.281859  	9500.000000	0.189861  	9500.000000	0.188336  	9500.000000	0.281855  	9500.000000	4.1141e-06	
10000.000000	0.366915  	10000.000000	0.289607  	10000.000000	0.190735  	10000.000000	0.189212  	10000.000000	0.289603  	10000.000000	3.92066e-06	
11000.000000	0.398381  	11000.000000	0.305132  	11000.000000	0.192388  	11000.000000	0.190868  	11000.000000	0.305128  	11000.000000	3.58496e-06	
12000.000000	0.431119  	12000.000000	0.320678  	12000.000000	0.19392   	12000.000000	0.19241   	12000.000000	0.320675  	12000.000000	3.30355e-06	
13000.000000	0.465106  	13000.000000	0.336229  	13000.000000	0.19535   	13000.000000	0.193848  	13000.000000	0.336226  	13000.000000	3.06416e-06	
14000.000000	0.500323  	14000.000000	0.351775  	14000.000000	0.196692  	14000.000000	0.195195  	14000.000000	0.351772  	14000.000000	2.85795e-06	
15000.000000	0.53676   	15000.000000	0.367307  	15000.000000	0.197953  	15000.000000	0.19646   	15000.000000	0.367305  	15000.000000	2.67842e-06	
16000.000000	0.574409  	16000.000000	0.382822  	16000.000000	0.199139  	16000.000000	0.197652  	16000.000000	0.38282   	16000.000000	2.52066e-06	
17000.000000	0.613266  	17000.000000	0.398316  	17000.000000	0.200256  	17000.000000	0.198779  	17000.000000	0.398314  	17000.000000	2.38092e-06	
18000.000000	0.653329  	18000.000000	0.413788  	18000.000000	0.201313  	18000.000000	0.199845  	18000.000000	0.413786  	18000.000000	2.25624e-06	
19000.000000	0.694597  	19000.000000	0.429235  	19000.000000	0.202313  	19000.000000	0.200858  	19000.000000	0.429233  	19000.000000	2.14429e-06	
20000.000000	0.737071  	20000.000000	0.444657  	20000.000000	0.203264  	20000.000000	0.201822  	20000.000000	0.444655  	20000.000000	2.04321e-06	
21000.000000	0.780752  	21000.000000	0.460054  	21000.000000	0.20417   	21000.000000	0.202741  	21000.000000	0.460053  	21000.000000	1.95147e-06	
22000.000000	0.825643  	22000.000000	0.475426  	22000.000000	0.205036  	22000.000000	0.203619  	22000.000000	0.475424  	22000.000000	1.86783e-06	
23000.000000	0.871746  	23000.000000	0.490772  	23000.000000	0.205867  	23000.000000	0.20446   	23000.000000	0.49077   	23000.000000	1.79124e-06	
24000.000000	0.919066  	24000.000000	0.506093  	24000.000000	0.20666   	24000.000000	0.205266  	24000.000000	0.506092  	24000.000000	1.72084e-06	
25000.000000	0.967607  	25000.000000	0.521389  	25000.000000	0.207417  	25000.000000	0.20604   	25000.000000	0.521388  	25000.000000	1.65592e-06	
26000.000000	1.01737   	26000.000000	0.536661  	26000.000000	0.208145  	26000.000000	0.206784  	26000.000000	0.53666   	26000.000000	1.59583e-06	
27000.000000	1.06837   	27000.000000	0.551909  	27000.000000	0.208849  	27000.000000	0.207501  	27000.000000	0.551907  	27000.000000	1.54007e-06	
28000.000000	1.1206    	28000.000000	0.567133  	28000.000000	0.209527  	28000.000000	0.208192  	28000.000000	0.567131  	28000.000000	1.48818e-06	
29000.000000	1.17407   	29000.000000	0.582333  	29000.000000	0.210182  	29000.000000	0.208859  	29000.000000	0.582332  	29000.000000	1.43975e-06	
30000.000000	1.22878   	30000.000000	0.597511  	30000.000000	0.210813  	30000.000000	0.209504  	30000.000000	0.59751   	30000.000000	1.39446e-06	
32000.000000	1.34198   	32000.000000	0.627802  	32000.000000	0.212009  	32000.000000	0.210732  	32000.000000	0.6278    	32000.000000	1.31213e-06	
34000.000000	1.46022   	34000.000000	0.658007  	34000.000000	0.213127  	34000.000000	0.211885  	34000.000000	0.658005  	34000.000000	1.23921e-06	
36000.000000	1.58357   	36000.000000	0.68813   	36000.000000	0.214177  	36000.000000	0.212973  	36000.000000	0.688129  	36000.000000	1.17416e-06	
38000.000000	1.71207   	38000.000000	0.718177  	38000.000000	0.215169  	38000.000000	0.214002  	38000.000000	0.718176  	38000.000000	1.11577e-06	
40000.000000	1.84578   	40000.000000	0.748149  	40000.000000	0.216107  	40000.000000	0.214978  	40000.000000	0.748148  	40000.000000	1.06305e-06	
42000.000000	1.98474   	42000.000000	0.778049  	42000.000000	0.216994  	42000.000000	0.215906  	42000.000000	0.778048  	42000.000000	1.0152e-06	
44000.000000	2.12902   	44000.000000	0.807882  	44000.000000	0.217834  	44000.000000	0.216791  	44000.000000	0.807881  	44000.000000	9.71587e-07	
46000.000000	2.27867   	46000.000000	0.837649  	46000.000000	0.218631  	46000.000000	0.217635  	46000.000000	0.837648  	46000.000000	9.31655e-07	
48000.000000	2.43375   	48000.000000	0.867354  	48000.000000	0.219389  	48000.000000	0.218444  	48000.000000	0.867353  	48000.000000	8.94957e-07	
50000.000000	2.59431   	50000.000000	0.896998  	50000.000000	0.220111  	50000.000000	0.219219  	50000.000000	0.896997  	50000.000000	8.61111e-07	
