0.001000	0.593611  	0.001000	0.363384  	0.001000	0.490385  	0.001000	0.490385  	0.001000	0.153699  	0.001000	0.209685  	
0.002000	0.678058  	0.002000	0.378004  	0.002000	0.527338  	0.002000	0.527338  	0.002000	0.225028  	0.002000	0.152976  	
0.005000	0.940088  	0.005000	0.462902  	0.005000	0.640449  	0.005000	0.640449  	0.005000	0.372481  	0.005000	0.090421  	
0.008000	1.16428   	0.008000	0.548868  	0.008000	0.737765  	0.008000	0.737765  	0.008000	0.482358  	0.008000	0.0665098 	
0.010000	1.29819   	0.010000	0.602116  	0.010000	0.794924  	0.010000	0.794924  	0.010000	0.545343  	0.010000	0.0567725 	
0.015000	1.52303   	0.015000	0.729551  	0.015000	0.92704   	0.015000	0.92704   	0.015000	0.686972  	0.015000	0.0425784 	
0.020000	1.6996    	0.020000	0.869623  	0.020000	1.07674   	0.020000	1.07674   	0.020000	0.835294  	0.020000	0.0343286 	
0.025000	1.89188   	0.025000	1.00448   	0.025000	1.22151   	0.025000	1.22151   	0.025000	0.975444  	0.025000	0.0290315 	
0.030000	2.04782   	0.030000	1.13193   	0.030000	1.32755   	0.030000	1.32755   	0.030000	1.10666   	0.030000	0.025261  	
0.035000	2.17257   	0.035000	1.24901   	0.035000	1.42603   	0.035000	1.42603   	0.035000	1.22659   	0.035000	0.0224263 	
0.040000	2.26827   	0.040000	1.3583    	0.040000	1.51739   	0.040000	1.51739   	0.040000	1.33809   	0.040000	0.0202096 	
0.045000	2.33646   	0.045000	1.45958   	0.045000	1.60198   	0.045000	1.60198   	0.045000	1.44115   	0.045000	0.0184241 	
0.050000	2.37907   	0.050000	1.55282   	0.050000	1.68013   	0.050000	1.68013   	0.050000	1.53587   	0.050000	0.016952  	
0.055000	2.47367   	0.055000	1.63818   	0.055000	1.75214   	0.055000	1.75214   	0.055000	1.62247   	0.055000	0.0157155 	
0.060000	2.55233   	0.060000	1.71595   	0.060000	1.81833   	0.060000	1.81833   	0.060000	1.70129   	0.060000	0.0146607 	
0.070000	2.66691   	0.070000	1.85029   	0.070000	1.93456   	0.070000	1.93456   	0.070000	1.83734   	0.070000	0.0129533 	
0.080000	2.78976   	0.080000	1.95951   	0.080000	2.03141   	0.080000	2.03141   	0.080000	1.94788   	0.080000	0.0116275 	
0.090000	2.8783    	0.090000	2.04749   	0.090000	2.11141   	0.090000	2.11141   	0.090000	2.03693   	0.090000	0.0105655 	
0.100000	2.94366   	0.100000	2.11788   	0.100000	2.17692   	0.100000	2.17692   	0.100000	2.10819   	0.100000	0.00969414	
0.120000	2.98514   	0.120000	2.24491   	0.120000	2.2727    	0.120000	2.2727    	0.120000	2.23656   	0.120000	0.00834546	
0.140000	2.99233   	0.140000	2.3299    	0.140000	2.33274   	0.140000	2.33274   	0.140000	2.32255   	0.140000	0.00734675	
0.160000	2.99256   	0.160000	2.39015   	0.160000	2.36723   	0.160000	2.36723   	0.160000	2.38357   	0.160000	0.00657507	
0.180000	2.98889   	0.180000	2.42417   	0.180000	2.38343   	0.180000	2.38343   	0.180000	2.41821   	0.180000	0.0059595 	
0.200000	2.99679   	0.200000	2.45212   	0.200000	2.38647   	0.200000	2.38647   	0.200000	2.44666   	0.200000	0.00545613	
0.250000	2.93544   	0.250000	2.47545   	0.250000	2.35804   	0.250000	2.35804   	0.250000	2.47093   	0.250000	0.00452177	
0.300000	2.92584   	0.300000	2.50489   	0.300000	2.31748   	0.300000	2.31748   	0.300000	2.50101   	0.300000	0.00387494	
0.350000	2.89182   	0.350000	2.48994   	0.350000	2.26514   	0.350000	2.26514   	0.350000	2.48654   	0.350000	0.00339878	
0.400000	2.84299   	0.400000	2.45325   	0.400000	2.2028    	0.400000	2.2028    	0.400000	2.45022   	0.400000	0.0030326 	
0.450000	2.77873   	0.450000	2.39856   	0.450000	2.13507   	0.450000	2.13507   	0.450000	2.39582   	0.450000	0.00274164	
0.500000	2.71626   	0.500000	2.34446   	0.500000	2.06966   	0.500000	2.06966   	0.500000	2.34196   	0.500000	0.00250451	
0.600000	2.49278   	0.600000	2.22724   	0.600000	1.94954   	0.600000	1.94954   	0.600000	2.2251    	0.600000	0.00214049	
0.700000	2.26904   	0.700000	2.10193   	0.700000	1.84424   	0.700000	1.84424   	0.700000	2.10006   	0.700000	0.00187341	
0.800000	2.17016   	0.800000	2.01152   	0.800000	1.75184   	0.800000	1.75184   	0.800000	2.00985   	0.800000	0.00166857	
0.900000	2.06482   	0.900000	1.91521   	0.900000	1.66997   	0.900000	1.66997   	0.900000	1.9137    	0.900000	0.00150617	
1.000000	1.96027   	1.000000	1.81894   	1.000000	1.59254   	1.000000	1.59254   	1.000000	1.81757   	1.000000	0.00137407	
1.250000	1.72048   	1.250000	1.60233   	1.250000	1.43329   	1.250000	1.43329   	1.250000	1.6012    	1.250000	0.00113063	
1.500000	1.49375   	1.500000	1.38971   	1.500000	1.30697   	1.500000	1.30697   	1.500000	1.38874   	1.500000	0.000963549	
1.750000	1.32759   	1.750000	1.2384    	1.750000	1.20193   	1.750000	1.20193   	1.750000	1.23755   	1.750000	0.000841379	
2.000000	1.19911   	2.000000	1.12375   	2.000000	1.11253   	2.000000	1.11253   	2.000000	1.123     	2.000000	0.00074794	
2.250000	1.09767   	2.250000	1.03282   	2.250000	1.03505   	2.250000	1.03505   	2.250000	1.03214   	2.250000	0.000674035	
2.500000	0.979644  	2.500000	0.958207  	2.500000	0.967381  	2.500000	0.967381  	2.500000	0.957593  	2.500000	0.000614038	
3.000000	0.860778  	3.000000	0.841449  	3.000000	0.855241  	3.000000	0.855241  	3.000000	0.840927  	3.000000	0.000522379	
3.500000	0.769179  	3.500000	0.752947  	3.500000	0.766585  	3.500000	0.766585  	3.500000	0.752491  	3.500000	0.000455493	
4.000000	0.696309  	4.000000	0.682867  	4.000000	0.695075  	4.000000	0.695075  	4.000000	0.682463  	4.000000	0.000404423	
4.500000	0.636875  	4.500000	0.625756  	4.500000	0.636351  	4.500000	0.636351  	4.500000	0.625392  	4.500000	0.000364087	
5.000000	0.587421  	5.000000	0.578226  	5.000000	0.58735   	5.000000	0.58735   	5.000000	0.577895  	5.000000	0.000331382	
5.500000	0.545589  	5.500000	0.538012  	5.500000	0.545873  	5.500000	0.545873  	5.500000	0.537708  	5.500000	0.000304302	
6.000000	0.509716  	6.000000	0.50352   	6.000000	0.510319  	6.000000	0.510319  	6.000000	0.503239  	6.000000	0.000281492	
6.500000	0.478593  	6.500000	0.47359   	6.500000	0.479499  	6.500000	0.479499  	6.500000	0.473328  	6.500000	0.000262002	
7.000000	0.45132   	7.000000	0.447357  	7.000000	0.452517  	7.000000	0.452517  	7.000000	0.447111  	7.000000	0.000245149	
7.500000	0.427213  	7.500000	0.424161  	7.500000	0.428687  	7.500000	0.428687  	7.500000	0.42393   	7.500000	0.000230422	
8.000000	0.405742  	8.000000	0.403492  	8.000000	0.407477  	8.000000	0.407477  	8.000000	0.403274  	8.000000	0.000217438	
8.500000	0.386489  	8.500000	0.384948  	8.500000	0.388466  	8.500000	0.388466  	8.500000	0.384742  	8.500000	0.000205901	
9.000000	0.369122  	9.000000	0.368208  	9.000000	0.37132   	9.000000	0.37132   	9.000000	0.368012  	9.000000	0.000195578	
9.500000	0.353373  	9.500000	0.353014  	9.500000	0.355769  	9.500000	0.355769  	9.500000	0.352827  	9.500000	0.000186285	
10.000000	0.339021  	10.000000	0.341529  	10.000000	0.341595  	10.000000	0.341595  	10.000000	0.341352  	10.000000	0.000177872	
11.000000	0.313814  	11.000000	0.317002  	11.000000	0.316303  	11.000000	0.316357  	11.000000	0.316838  	11.000000	0.000163225	
12.000000	0.29238   	12.000000	0.295996  	12.000000	0.294781  	12.000000	0.29487   	12.000000	0.295845  	12.000000	0.000150897	
13.000000	0.273919  	13.000000	0.277798  	13.000000	0.276226  	13.000000	0.276336  	13.000000	0.277658  	13.000000	0.000140371	
14.000000	0.257842  	14.000000	0.261874  	14.000000	0.260053  	14.000000	0.26017   	14.000000	0.261742  	14.000000	0.000131275	
15.000000	0.243709  	15.000000	0.247817  	15.000000	0.245819  	15.000000	0.245936  	15.000000	0.247694  	15.000000	0.000123332	
16.000000	0.231182  	16.000000	0.235313  	16.000000	0.233185  	16.000000	0.2333    	16.000000	0.235197  	16.000000	0.000116332	
17.000000	0.219996  	17.000000	0.224115  	17.000000	0.221889  	17.000000	0.222002  	17.000000	0.224005  	17.000000	0.000110116	
18.000000	0.209945  	18.000000	0.214026  	18.000000	0.211732  	18.000000	0.211837  	18.000000	0.213921  	18.000000	0.000104557	
19.000000	0.20086   	19.000000	0.204886  	19.000000	0.202544  	19.000000	0.202641  	19.000000	0.204786  	19.000000	9.95537e-05	
20.000000	0.192607  	20.000000	0.196565  	20.000000	0.194187  	20.000000	0.19428   	20.000000	0.19647   	20.000000	9.50267e-05	
21.000000	0.185075  	21.000000	0.188958  	21.000000	0.186555  	21.000000	0.186645  	21.000000	0.188867  	21.000000	9.09099e-05	
22.000000	0.17817   	22.000000	0.181973  	22.000000	0.179566  	22.000000	0.179644  	22.000000	0.181886  	22.000000	8.71493e-05	
23.000000	0.171818  	23.000000	0.175537  	23.000000	0.17314   	23.000000	0.173203  	23.000000	0.175454  	23.000000	8.36998e-05	
24.000000	0.165952  	24.000000	0.169587  	24.000000	0.167205  	24.000000	0.167256  	24.000000	0.169506  	24.000000	8.0524e-05	
25.000000	0.160518  	25.000000	0.164069  	25.000000	0.161706  	25.000000	0.16175   	25.000000	0.163991  	25.000000	7.759e-05 	
27.000000	0.150764  	27.000000	0.154149  	27.000000	0.15185   	27.000000	0.151881  	27.000000	0.154077  	27.000000	7.23435e-05	
29.000000	0.142255  	29.000000	0.145481  	29.000000	0.143279  	29.000000	0.143292  	29.000000	0.145414  	29.000000	6.77873e-05	
31.000000	0.134763  	31.000000	0.137839  	31.000000	0.135812  	31.000000	0.135808  	31.000000	0.137775  	31.000000	6.3792e-05	
33.000000	0.128112  	33.000000	0.131048  	33.000000	0.12923   	33.000000	0.12921   	33.000000	0.130988  	33.000000	6.02588e-05	
35.000000	0.122166  	35.000000	0.124971  	35.000000	0.123334  	35.000000	0.123302  	35.000000	0.124914  	35.000000	5.71109e-05	
38.000000	0.114338  	38.000000	0.116965  	38.000000	0.115557  	38.000000	0.115508  	38.000000	0.116912  	38.000000	5.29825e-05	
41.000000	0.107576  	41.000000	0.110045  	41.000000	0.108824  	41.000000	0.108762  	41.000000	0.109996  	41.000000	4.94314e-05	
44.000000	0.101671  	44.000000	0.104001  	44.000000	0.102935  	44.000000	0.102861  	44.000000	0.103955  	44.000000	4.63431e-05	
47.000000	0.0964691 	47.000000	0.0986745 	47.000000	0.0977392 	47.000000	0.0976549 	47.000000	0.0986309 	47.000000	4.36317e-05	
50.000000	0.0918481 	50.000000	0.0939437 	50.000000	0.0931079 	50.000000	0.0930245 	50.000000	0.0939025 	50.000000	4.12313e-05	
55.000000	0.0851919 	55.000000	0.0871312 	55.000000	0.0864336 	55.000000	0.0863458 	55.000000	0.0870935 	55.000000	3.77875e-05	
60.000000	0.0795716 	60.000000	0.081383  	60.000000	0.0807939 	60.000000	0.0806995 	60.000000	0.0813481 	60.000000	3.48934e-05	
65.000000	0.0747588 	65.000000	0.076465  	65.000000	0.0759521 	65.000000	0.0758602 	65.000000	0.0764326 	65.000000	3.24257e-05	
70.000000	0.0705878 	70.000000	0.0722076 	70.000000	0.071765  	70.000000	0.0716642 	70.000000	0.0721773 	70.000000	3.02956e-05	
75.000000	0.0669357 	75.000000	0.0684848 	75.000000	0.0680852 	75.000000	0.0679895 	75.000000	0.0684563 	75.000000	2.84376e-05	
80.000000	0.0637096 	80.000000	0.0652007 	80.000000	0.0648433 	80.000000	0.0647435 	80.000000	0.0651739 	80.000000	2.6802e-05	
85.000000	0.0608375 	85.000000	0.0622813 	85.000000	0.0619493 	85.000000	0.0618544 	85.000000	0.0622559 	85.000000	2.53508e-05	
90.000000	0.0582629 	90.000000	0.0596684 	90.000000	0.0593643 	90.000000	0.0592658 	90.000000	0.0596444 	90.000000	2.4054e-05	
95.000000	0.0559408 	95.000000	0.0573158 	95.000000	0.0570265 	95.000000	0.0569326 	95.000000	0.0572929 	95.000000	2.2888e-05	
100.000000	0.0538351 	100.000000	0.055186  	100.000000	0.0549154 	100.000000	0.0548184 	100.000000	0.0551642 	100.000000	2.18338e-05	
105.000000	0.0519162 	105.000000	0.0532485 	105.000000	0.0529864 	105.000000	0.0528935 	105.000000	0.0532277 	105.000000	2.08757e-05	
110.000000	0.0501596 	110.000000	0.0514782 	110.000000	0.0512282 	110.000000	0.0511332 	110.000000	0.0514582 	110.000000	2.00011e-05	
115.000000	0.0485451 	115.000000	0.0498541 	115.000000	0.0496103 	115.000000	0.0495173 	115.000000	0.0498349 	115.000000	1.91995e-05	
120.000000	0.0470558 	120.000000	0.0483586 	120.000000	0.0481204 	120.000000	0.0480284 	120.000000	0.0483402 	120.000000	1.84618e-05	
125.000000	0.0456773 	125.000000	0.046977  	125.000000	0.0467458 	125.000000	0.0466522 	125.000000	0.0469592 	125.000000	1.77807e-05	
130.000000	0.0443973 	130.000000	0.0456967 	130.000000	0.0454662 	130.000000	0.0453761 	130.000000	0.0456795 	130.000000	1.71499e-05	
135.000000	0.0432054 	135.000000	0.0445067 	135.000000	0.0442762 	135.000000	0.0441896 	135.000000	0.0444902 	135.000000	1.65638e-05	
140.000000	0.0420926 	140.000000	0.0433979 	140.000000	0.0431708 	140.000000	0.0430836 	140.000000	0.0433818 	140.000000	1.60179e-05	
145.000000	0.041051  	145.000000	0.0423621 	145.000000	0.0421381 	145.000000	0.04205   	145.000000	0.0423465 	145.000000	1.55081e-05	
150.000000	0.0400739 	150.000000	0.0413922 	150.000000	0.0411673 	150.000000	0.041082  	150.000000	0.0413772 	150.000000	1.50309e-05	
155.000000	0.0386981 	155.000000	0.0404823 	155.000000	0.0402593 	155.000000	0.0401736 	155.000000	0.0404677 	155.000000	1.45832e-05	
160.000000	0.0378917 	160.000000	0.0396268 	160.000000	0.0394058 	160.000000	0.0393193 	160.000000	0.0396126 	160.000000	1.41623e-05	
165.000000	0.0371312 	165.000000	0.038821  	165.000000	0.0385986 	165.000000	0.0385145 	165.000000	0.0388072 	165.000000	1.37659e-05	
170.000000	0.0364128 	170.000000	0.0380606 	170.000000	0.0378388 	170.000000	0.037755  	170.000000	0.0380473 	170.000000	1.33919e-05	
175.000000	0.0357331 	175.000000	0.037342  	175.000000	0.0371222 	175.000000	0.037037  	175.000000	0.037329  	175.000000	1.30384e-05	
180.000000	0.0350889 	180.000000	0.0366617 	180.000000	0.0364414 	180.000000	0.0363574 	180.000000	0.036649  	180.000000	1.27037e-05	
185.000000	0.0344776 	185.000000	0.0360168 	185.000000	0.0357945 	185.000000	0.035713  	185.000000	0.0360044 	185.000000	1.23864e-05	
190.000000	0.0338966 	190.000000	0.0354046 	190.000000	0.0351808 	190.000000	0.0351013 	190.000000	0.0353925 	190.000000	1.20851e-05	
195.000000	0.0333436 	195.000000	0.0348226 	195.000000	0.0345993 	195.000000	0.0345198 	195.000000	0.0348108 	195.000000	1.17987e-05	
200.000000	0.0328168 	200.000000	0.0342687 	200.000000	0.034047  	200.000000	0.0339663 	200.000000	0.0342572 	200.000000	1.15259e-05	
210.000000	0.0318343 	210.000000	0.0332373 	210.000000	0.0330142 	210.000000	0.0329359 	210.000000	0.0332263 	210.000000	1.10179e-05	
220.000000	0.0309363 	220.000000	0.0322966 	220.000000	0.0320754 	220.000000	0.0319963 	220.000000	0.032286  	220.000000	1.05543e-05	
230.000000	0.0301123 	230.000000	0.0314352 	230.000000	0.0312139 	230.000000	0.0311362 	230.000000	0.0314251 	230.000000	1.01293e-05	
240.000000	0.0293534 	240.000000	0.0306435 	240.000000	0.0304205 	240.000000	0.0303459 	240.000000	0.0306338 	240.000000	9.73846e-06	
250.000000	0.0286523 	250.000000	0.0299135 	250.000000	0.0296925 	250.000000	0.0296175 	250.000000	0.0299041 	250.000000	9.37761e-06	
260.000000	0.0280024 	260.000000	0.0292382 	260.000000	0.0290186 	260.000000	0.028944  	260.000000	0.0292292 	260.000000	9.04345e-06	
270.000000	0.0273984 	270.000000	0.0286118 	270.000000	0.0283926 	270.000000	0.0283196 	270.000000	0.028603  	270.000000	8.73307e-06	
280.000000	0.0268357 	280.000000	0.0280291 	280.000000	0.0278132 	280.000000	0.0277391 	280.000000	0.0280207 	280.000000	8.444e-06 	
290.000000	0.02631   	290.000000	0.0274859 	290.000000	0.0272712 	290.000000	0.0271983 	290.000000	0.0274777 	290.000000	8.17409e-06	
300.000000	0.0258179 	300.000000	0.0269783 	300.000000	0.0267638 	300.000000	0.0266932 	300.000000	0.0269704 	300.000000	7.92148e-06	
310.000000	0.0253563 	310.000000	0.0265029 	310.000000	0.0262903 	310.000000	0.0262205 	310.000000	0.0264952 	310.000000	7.68454e-06	
320.000000	0.0249224 	320.000000	0.0260569 	320.000000	0.025848  	320.000000	0.0257774 	320.000000	0.0260494 	320.000000	7.46183e-06	
330.000000	0.0245139 	330.000000	0.0256376 	330.000000	0.0254313 	330.000000	0.0253611 	330.000000	0.0256303 	330.000000	7.2521e-06	
340.000000	0.0241286 	340.000000	0.0252428 	340.000000	0.0250378 	340.000000	0.0249694 	340.000000	0.0252357 	340.000000	7.05424e-06	
350.000000	0.0237646 	350.000000	0.0248704 	350.000000	0.0246672 	350.000000	0.0246003 	350.000000	0.0248635 	350.000000	6.86724e-06	
360.000000	0.0234203 	360.000000	0.0245186 	360.000000	0.0243187 	360.000000	0.0242518 	360.000000	0.0245119 	360.000000	6.69024e-06	
370.000000	0.023094  	370.000000	0.0241858 	370.000000	0.0239901 	370.000000	0.0239225 	370.000000	0.0241793 	370.000000	6.52243e-06	
380.000000	0.0227845 	380.000000	0.0238706 	380.000000	0.0236777 	380.000000	0.0236108 	380.000000	0.0238642 	380.000000	6.36312e-06	
390.000000	0.0224905 	390.000000	0.0235716 	390.000000	0.0233812 	390.000000	0.0233154 	390.000000	0.0235654 	390.000000	6.21167e-06	
400.000000	0.0222109 	400.000000	0.0232877 	400.000000	0.0231011 	400.000000	0.0230351 	400.000000	0.0232816 	400.000000	6.0675e-06	
410.000000	0.0219448 	410.000000	0.0230177 	410.000000	0.0228355 	410.000000	0.0227689 	410.000000	0.0230118 	410.000000	5.9301e-06	
420.000000	0.0216911 	420.000000	0.0227608 	420.000000	0.0225818 	420.000000	0.0225157 	420.000000	0.022755  	420.000000	5.79899e-06	
430.000000	0.0214491 	430.000000	0.022516  	430.000000	0.0223397 	430.000000	0.0222747 	430.000000	0.0225103 	430.000000	5.67375e-06	
440.000000	0.021218  	440.000000	0.0222825 	440.000000	0.0221089 	440.000000	0.0220451 	440.000000	0.0222769 	440.000000	5.55398e-06	
450.000000	0.0209972 	450.000000	0.0220596 	450.000000	0.0218891 	450.000000	0.0218261 	450.000000	0.0220542 	450.000000	5.43933e-06	
460.000000	0.0207859 	460.000000	0.0218467 	460.000000	0.0216802 	460.000000	0.021617  	460.000000	0.0218414 	460.000000	5.32949e-06	
470.000000	0.0205836 	470.000000	0.0216431 	470.000000	0.0214809 	470.000000	0.0214173 	470.000000	0.0216378 	470.000000	5.22413e-06	
480.000000	0.0203898 	480.000000	0.0214482 	480.000000	0.02129   	480.000000	0.0212263 	480.000000	0.0214431 	480.000000	5.12301e-06	
490.000000	0.020204  	490.000000	0.0212615 	490.000000	0.0211067 	490.000000	0.0210435 	490.000000	0.0212565 	490.000000	5.02585e-06	
500.000000	0.0200257 	500.000000	0.0210826 	500.000000	0.0209308 	500.000000	0.0208685 	500.000000	0.0210777 	500.000000	4.93243e-06	
520.000000	0.01969   	520.000000	0.0207463 	520.000000	0.0206006 	520.000000	0.0205399 	520.000000	0.0207416 	520.000000	4.75598e-06	
540.000000	0.0193797 	540.000000	0.0204361 	540.000000	0.0202982 	540.000000	0.0202373 	540.000000	0.0204315 	540.000000	4.59211e-06	
560.000000	0.0190924 	560.000000	0.0201493 	560.000000	0.0200192 	560.000000	0.019958  	560.000000	0.0201448 	560.000000	4.43952e-06	
580.000000	0.0188256 	580.000000	0.0198835 	580.000000	0.0197596 	580.000000	0.0196996 	580.000000	0.0198792 	580.000000	4.29707e-06	
600.000000	0.0185774 	600.000000	0.0196366 	600.000000	0.0195198 	600.000000	0.01946   	600.000000	0.0196325 	600.000000	4.16376e-06	
620.000000	0.0183462 	620.000000	0.019407  	620.000000	0.0192978 	620.000000	0.0192374 	620.000000	0.0194029 	620.000000	4.03874e-06	
640.000000	0.0181304 	640.000000	0.019193  	640.000000	0.0190901 	640.000000	0.0190303 	640.000000	0.019189  	640.000000	3.92125e-06	
660.000000	0.0179288 	660.000000	0.0189932 	660.000000	0.0188958 	660.000000	0.0188371 	660.000000	0.0189894 	660.000000	3.81062e-06	
680.000000	0.01774   	680.000000	0.0188064 	680.000000	0.0187145 	680.000000	0.0186568 	680.000000	0.0188027 	680.000000	3.70626e-06	
700.000000	0.0175631 	700.000000	0.0186315 	700.000000	0.0185456 	700.000000	0.0184882 	700.000000	0.0186279 	700.000000	3.60764e-06	
720.000000	0.0173972 	720.000000	0.0184676 	720.000000	0.0183881 	720.000000	0.0183302 	720.000000	0.0184641 	720.000000	3.5143e-06	
740.000000	0.0172413 	740.000000	0.0183138 	740.000000	0.0182402 	740.000000	0.0181822 	740.000000	0.0183104 	740.000000	3.42583e-06	
760.000000	0.0170948 	760.000000	0.0181693 	760.000000	0.0181008 	760.000000	0.0180432 	760.000000	0.018166  	760.000000	3.34184e-06	
780.000000	0.0169569 	780.000000	0.0180335 	780.000000	0.0179694 	780.000000	0.0179125 	780.000000	0.0180302 	780.000000	3.26201e-06	
800.000000	0.0168271 	800.000000	0.0179056 	800.000000	0.0178457 	800.000000	0.0177896 	800.000000	0.0179024 	800.000000	3.18602e-06	
820.000000	0.0167048 	820.000000	0.0177851 	820.000000	0.0177297 	820.000000	0.0176741 	820.000000	0.017782  	820.000000	3.1136e-06	
840.000000	0.0165895 	840.000000	0.0176715 	840.000000	0.0176218 	840.000000	0.0175664 	840.000000	0.0176685 	840.000000	3.04451e-06	
860.000000	0.0164807 	860.000000	0.0175644 	860.000000	0.0175205 	860.000000	0.0174648 	860.000000	0.0175614 	860.000000	2.97852e-06	
880.000000	0.016378  	880.000000	0.0174632 	880.000000	0.0174248 	880.000000	0.0173689 	880.000000	0.0174603 	880.000000	2.91541e-06	
900.000000	0.016281  	900.000000	0.0173677 	900.000000	0.0173343 	900.000000	0.0172783 	900.000000	0.0173649 	900.000000	2.85502e-06	
920.000000	0.0161894 	920.000000	0.0172774 	920.000000	0.0172483 	920.000000	0.0171926 	920.000000	0.0172746 	920.000000	2.79715e-06	
940.000000	0.0161028 	940.000000	0.0171921 	940.000000	0.0171668 	940.000000	0.0171116 	940.000000	0.0171893 	940.000000	2.74165e-06	
960.000000	0.016021  	960.000000	0.0171113 	960.000000	0.0170894 	960.000000	0.0170348 	960.000000	0.0171086 	960.000000	2.68839e-06	
980.000000	0.0159436 	980.000000	0.0170349 	980.000000	0.0170162 	980.000000	0.0169621 	980.000000	0.0170323 	980.000000	2.63722e-06	
1000.000000	0.0158705 	1000.000000	0.0169626 	1000.000000	0.0169469 	1000.000000	0.0168932 	1000.000000	0.01696   	1000.000000	2.58803e-06	
1020.000000	0.0158014 	1020.000000	0.0168942 	1020.000000	0.0168813 	1020.000000	0.0168278 	1020.000000	0.0168916 	1020.000000	2.5407e-06	
1040.000000	0.0157361 	1040.000000	0.0168294 	1040.000000	0.0168193 	1040.000000	0.0167658 	1040.000000	0.0168269 	1040.000000	2.49512e-06	
1060.000000	0.0156743 	1060.000000	0.016768  	1060.000000	0.0167607 	1060.000000	0.016707  	1060.000000	0.0167656 	1060.000000	2.4512e-06	
1080.000000	0.0156159 	1080.000000	0.0167099 	1080.000000	0.016705  	1080.000000	0.0166511 	1080.000000	0.0167075 	1080.000000	2.40885e-06	
1100.000000	0.0155607 	1100.000000	0.0166548 	1100.000000	0.016652  	1100.000000	0.016598  	1100.000000	0.0166525 	1100.000000	2.36798e-06	
1120.000000	0.0155086 	1120.000000	0.0166027 	1120.000000	0.0166015 	1120.000000	0.0165475 	1120.000000	0.0166004 	1120.000000	2.32852e-06	
1140.000000	0.0154594 	1140.000000	0.0165533 	1140.000000	0.0165533 	1140.000000	0.0164996 	1140.000000	0.0165511 	1140.000000	2.2904e-06	
1160.000000	0.0154129 	1160.000000	0.0165066 	1160.000000	0.0165074 	1160.000000	0.016454  	1160.000000	0.0165043 	1160.000000	2.25355e-06	
1180.000000	0.0153691 	1180.000000	0.0164623 	1180.000000	0.0164637 	1180.000000	0.0164106 	1180.000000	0.0164601 	1180.000000	2.2179e-06	
1200.000000	0.0153278 	1200.000000	0.0164205 	1200.000000	0.0164222 	1200.000000	0.0163694 	1200.000000	0.0164183 	1200.000000	2.18339e-06	
1220.000000	0.0152888 	1220.000000	0.0163808 	1220.000000	0.016383  	1220.000000	0.0163302 	1220.000000	0.0163787 	1220.000000	2.14998e-06	
1240.000000	0.0152522 	1240.000000	0.0163434 	1240.000000	0.0163457 	1240.000000	0.0162928 	1240.000000	0.0163413 	1240.000000	2.11761e-06	
1260.000000	0.0152177 	1260.000000	0.0163079 	1260.000000	0.0163103 	1260.000000	0.0162573 	1260.000000	0.0163059 	1260.000000	2.08623e-06	
1280.000000	0.0151854 	1280.000000	0.0162745 	1280.000000	0.0162767 	1280.000000	0.0162235 	1280.000000	0.0162724 	1280.000000	2.05579e-06	
1300.000000	0.015155  	1300.000000	0.0162429 	1300.000000	0.0162446 	1300.000000	0.0161913 	1300.000000	0.0162408 	1300.000000	2.02626e-06	
1320.000000	0.0151265 	1320.000000	0.016213  	1320.000000	0.016214  	1320.000000	0.0161606 	1320.000000	0.016211  	1320.000000	1.99759e-06	
1340.000000	0.0150999 	1340.000000	0.0161849 	1340.000000	0.0161847 	1340.000000	0.0161315 	1340.000000	0.016183  	1340.000000	1.96975e-06	
1360.000000	0.015075  	1360.000000	0.0161584 	1360.000000	0.0161568 	1360.000000	0.0161037 	1360.000000	0.0161565 	1360.000000	1.9427e-06	
1380.000000	0.0150518 	1380.000000	0.0161335 	1380.000000	0.0161302 	1380.000000	0.0160773 	1380.000000	0.0161316 	1380.000000	1.9164e-06	
1400.000000	0.0150302 	1400.000000	0.0161101 	1400.000000	0.0161048 	1400.000000	0.0160521 	1400.000000	0.0161082 	1400.000000	1.89083e-06	
1420.000000	0.0150102 	1420.000000	0.0160881 	1420.000000	0.0160806 	1420.000000	0.0160282 	1420.000000	0.0160862 	1420.000000	1.86595e-06	
1440.000000	0.0149917 	1440.000000	0.0160674 	1440.000000	0.0160576 	1440.000000	0.0160054 	1440.000000	0.0160656 	1440.000000	1.84174e-06	
1460.000000	0.0149746 	1460.000000	0.0160481 	1460.000000	0.0160357 	1460.000000	0.0159837 	1460.000000	0.0160463 	1460.000000	1.81818e-06	
1480.000000	0.014959  	1480.000000	0.0160301 	1480.000000	0.0160148 	1480.000000	0.0159631 	1480.000000	0.0160283 	1480.000000	1.79522e-06	
1500.000000	0.0149446 	1500.000000	0.0160132 	1500.000000	0.015995  	1500.000000	0.0159434 	1500.000000	0.0160115 	1500.000000	1.77286e-06	
1520.000000	0.0149315 	1520.000000	0.0159976 	1520.000000	0.0159762 	1520.000000	0.0159248 	1520.000000	0.0159958 	1520.000000	1.75106e-06	
1540.000000	0.0149197 	1540.000000	0.015983  	1540.000000	0.0159583 	1540.000000	0.0159071 	1540.000000	0.0159813 	1540.000000	1.72981e-06	
1560.000000	0.0149091 	1560.000000	0.0159696 	1560.000000	0.0159414 	1560.000000	0.0158902 	1560.000000	0.0159679 	1560.000000	1.70909e-06	
1580.000000	0.0148996 	1580.000000	0.0159572 	1580.000000	0.0159253 	1580.000000	0.0158742 	1580.000000	0.0159555 	1580.000000	1.68887e-06	
1600.000000	0.0148912 	1600.000000	0.0159457 	1600.000000	0.0159101 	1600.000000	0.015859  	1600.000000	0.0159441 	1600.000000	1.66914e-06	
1620.000000	0.0148839 	1620.000000	0.0159353 	1620.000000	0.0158957 	1620.000000	0.0158446 	1620.000000	0.0159336 	1620.000000	1.64988e-06	
1640.000000	0.0148777 	1640.000000	0.0159258 	1640.000000	0.015882  	1640.000000	0.0158309 	1640.000000	0.0159241 	1640.000000	1.63108e-06	
1660.000000	0.0148725 	1660.000000	0.0159171 	1660.000000	0.0158691 	1660.000000	0.015818  	1660.000000	0.0159155 	1660.000000	1.61271e-06	
1680.000000	0.0148682 	1680.000000	0.0159094 	1680.000000	0.0158569 	1680.000000	0.0158057 	1680.000000	0.0159078 	1680.000000	1.59476e-06	
1700.000000	0.0148649 	1700.000000	0.0159024 	1700.000000	0.0158454 	1700.000000	0.0157941 	1700.000000	0.0159008 	1700.000000	1.57722e-06	
1750.000000	0.0148605 	1750.000000	0.0158886 	1750.000000	0.0158192 	1750.000000	0.0157677 	1750.000000	0.015887  	1750.000000	1.53507e-06	
1800.000000	0.0148614 	1800.000000	0.0158793 	1800.000000	0.0157964 	1800.000000	0.0157449 	1800.000000	0.0158778 	1800.000000	1.49518e-06	
1850.000000	0.0148672 	1850.000000	0.0158743 	1850.000000	0.0157768 	1850.000000	0.0157253 	1850.000000	0.0158729 	1850.000000	1.45737e-06	
1900.000000	0.0148775 	1900.000000	0.0158733 	1900.000000	0.0157599 	1900.000000	0.0157087 	1900.000000	0.0158719 	1900.000000	1.42149e-06	
1950.000000	0.014892  	1950.000000	0.0158758 	1950.000000	0.0157457 	1950.000000	0.0156947 	1950.000000	0.0158744 	1950.000000	1.38738e-06	
2000.000000	0.0149105 	2000.000000	0.0158817 	2000.000000	0.0157338 	2000.000000	0.0156831 	2000.000000	0.0158804 	2000.000000	1.35492e-06	
2100.000000	0.0149582 	2100.000000	0.0159026 	2100.000000	0.0157165 	2100.000000	0.0156663 	2100.000000	0.0159013 	2100.000000	1.29448e-06	
2200.000000	0.0150189 	2200.000000	0.0159343 	2200.000000	0.0157066 	2200.000000	0.0156569 	2200.000000	0.015933  	2200.000000	1.23936e-06	
2300.000000	0.0150911 	2300.000000	0.0159753 	2300.000000	0.0157031 	2300.000000	0.0156536 	2300.000000	0.0159741 	2300.000000	1.18887e-06	
2400.000000	0.0151734 	2400.000000	0.0160244 	2400.000000	0.0157049 	2400.000000	0.0156555 	2400.000000	0.0160233 	2400.000000	1.14245e-06	
2500.000000	0.0152649 	2500.000000	0.0160808 	2500.000000	0.0157113 	2500.000000	0.0156618 	2500.000000	0.0160797 	2500.000000	1.09962e-06	
2600.000000	0.0153647 	2600.000000	0.0161435 	2600.000000	0.0157214 	2600.000000	0.0156718 	2600.000000	0.0161424 	2600.000000	1.05998e-06	
2700.000000	0.0154719 	2700.000000	0.0162118 	2700.000000	0.0157346 	2700.000000	0.0156849 	2700.000000	0.0162108 	2700.000000	1.02318e-06	
2800.000000	0.0155859 	2800.000000	0.0162852 	2800.000000	0.0157505 	2800.000000	0.0157006 	2800.000000	0.0162842 	2800.000000	9.88919e-07	
2900.000000	0.0157062 	2900.000000	0.0163631 	2900.000000	0.0157685 	2900.000000	0.0157186 	2900.000000	0.0163621 	2900.000000	9.56945e-07	
3000.000000	0.0158322 	3000.000000	0.016445  	3000.000000	0.0157883 	3000.000000	0.0157385 	3000.000000	0.0164441 	3000.000000	9.27033e-07	
3200.000000	0.0160996 	3200.000000	0.0166194 	3200.000000	0.0158326 	3200.000000	0.015783  	3200.000000	0.0166185 	3200.000000	8.72638e-07	
3400.000000	0.0163852 	3400.000000	0.0168058 	3400.000000	0.0158814 	3400.000000	0.0158321 	3400.000000	0.016805  	3400.000000	8.2444e-07	
3600.000000	0.0166868 	3600.000000	0.0170021 	3600.000000	0.0159336 	3600.000000	0.0158846 	3600.000000	0.0170013 	3600.000000	7.81428e-07	
3800.000000	0.0170025 	3800.000000	0.0172067 	3800.000000	0.0159881 	3800.000000	0.0159393 	3800.000000	0.017206  	3800.000000	7.428e-07 	
4000.000000	0.0173309 	4000.000000	0.0174183 	4000.000000	0.0160442 	4000.000000	0.0159956 	4000.000000	0.0174176 	4000.000000	7.07914e-07	
4200.000000	0.0176706 	4200.000000	0.0176358 	4200.000000	0.0161013 	4200.000000	0.0160528 	4200.000000	0.0176351 	4200.000000	6.76245e-07	
4400.000000	0.0180208 	4400.000000	0.0178584 	4400.000000	0.0161589 	4400.000000	0.0161106 	4400.000000	0.0178578 	4400.000000	6.47365e-07	
4600.000000	0.0183806 	4600.000000	0.0180854 	4600.000000	0.0162167 	4600.000000	0.0161685 	4600.000000	0.0180848 	4600.000000	6.20917e-07	
4800.000000	0.0187492 	4800.000000	0.0183161 	4800.000000	0.0162744 	4800.000000	0.0162263 	4800.000000	0.0183155 	4800.000000	5.96603e-07	
5000.000000	0.0191262 	5000.000000	0.0185502 	5000.000000	0.0163319 	5000.000000	0.0162838 	5000.000000	0.0185496 	5000.000000	5.74174e-07	
5250.000000	0.0196083 	5250.000000	0.0188467 	5250.000000	0.016403  	5250.000000	0.016355  	5250.000000	0.0188461 	5250.000000	5.48466e-07	
5500.000000	0.0201019 	5500.000000	0.019147  	5500.000000	0.0164733 	5500.000000	0.0164254 	5500.000000	0.0191465 	5500.000000	5.25022e-07	
6000.000000	0.0211206 	6000.000000	0.0197568 	6000.000000	0.0166105 	6000.000000	0.0165627 	6000.000000	0.0197564 	6000.000000	4.83819e-07	
6500.000000	0.0221779 	6500.000000	0.0203763 	6500.000000	0.0167429 	6500.000000	0.0166952 	6500.000000	0.0203758 	6500.000000	4.48766e-07	
7000.000000	0.0232709 	7000.000000	0.0210028 	7000.000000	0.0168701 	7000.000000	0.0168225 	7000.000000	0.0210024 	7000.000000	4.18572e-07	
7500.000000	0.0243972 	7500.000000	0.0216348 	7500.000000	0.0169922 	7500.000000	0.0169447 	7500.000000	0.0216344 	7500.000000	3.92284e-07	
8000.000000	0.0255552 	8000.000000	0.0222708 	8000.000000	0.0171094 	8000.000000	0.0170618 	8000.000000	0.0222704 	8000.000000	3.69184e-07	
8500.000000	0.0267435 	8500.000000	0.0229099 	8500.000000	0.0172214 	8500.000000	0.0171742 	8500.000000	0.0229096 	8500.000000	3.4872e-07	
9000.000000	0.0279611 	9000.000000	0.0235513 	9000.000000	0.0173283 	9000.000000	0.017282  	9000.000000	0.023551  	9000.000000	3.30463e-07	
9500.000000	0.0292072 	9500.000000	0.0241946 	9500.000000	0.017431  	9500.000000	0.0173854 	9500.000000	0.0241942 	9500.000000	3.1407e-07	
10000.000000	0.0304812 	10000.000000	0.0248391 	10000.000000	0.0175302 	10000.000000	0.0174849 	10000.000000	0.0248388 	10000.000000	2.99268e-07	
11000.000000	0.0331107 	11000.000000	0.0261307 	11000.000000	0.017718  	11000.000000	0.0176725 	11000.000000	0.0261304 	11000.000000	2.73585e-07	
12000.000000	0.0358466 	12000.000000	0.0274241 	12000.000000	0.0178923 	12000.000000	0.0178467 	12000.000000	0.0274238 	12000.000000	2.5206e-07	
13000.000000	0.0386869 	13000.000000	0.0287179 	13000.000000	0.0180541 	13000.000000	0.0180091 	13000.000000	0.0287177 	13000.000000	2.33753e-07	
14000.000000	0.0416301 	14000.000000	0.0300113 	14000.000000	0.0182048 	14000.000000	0.0181611 	14000.000000	0.0300111 	14000.000000	2.17987e-07	
15000.000000	0.0446753 	15000.000000	0.0313037 	15000.000000	0.0183459 	15000.000000	0.0183037 	15000.000000	0.0313035 	15000.000000	2.04263e-07	
16000.000000	0.047822  	16000.000000	0.0325946 	16000.000000	0.018479  	16000.000000	0.018438  	16000.000000	0.0325945 	16000.000000	1.92205e-07	
17000.000000	0.0510698 	17000.000000	0.0338839 	17000.000000	0.0186052 	17000.000000	0.0185649 	17000.000000	0.0338837 	17000.000000	1.81526e-07	
18000.000000	0.0544185 	18000.000000	0.0351713 	18000.000000	0.0187252 	18000.000000	0.018685  	18000.000000	0.0351711 	18000.000000	1.71999e-07	
19000.000000	0.0578682 	19000.000000	0.0364566 	19000.000000	0.0188395 	19000.000000	0.0187991 	19000.000000	0.0364565 	19000.000000	1.63446e-07	
20000.000000	0.0614187 	20000.000000	0.0377399 	20000.000000	0.0189487 	20000.000000	0.0189077 	20000.000000	0.0377398 	20000.000000	1.55725e-07	
21000.000000	0.0650704 	21000.000000	0.0390212 	21000.000000	0.0190525 	21000.000000	0.0190113 	21000.000000	0.039021  	21000.000000	1.48718e-07	
22000.000000	0.0688233 	22000.000000	0.0403003 	22000.000000	0.0191503 	22000.000000	0.0191103 	22000.000000	0.0403001 	22000.000000	1.42329e-07	
23000.000000	0.0726779 	23000.000000	0.0415773 	23000.000000	0.0192437 	23000.000000	0.019205  	23000.000000	0.0415771 	23000.000000	1.36481e-07	
24000.000000	0.0766343 	24000.000000	0.0428522 	24000.000000	0.0193337 	24000.000000	0.0192959 	24000.000000	0.0428521 	24000.000000	1.31106e-07	
25000.000000	0.0806929 	25000.000000	0.044125  	25000.000000	0.0194204 	25000.000000	0.0193832 	25000.000000	0.0441249 	25000.000000	1.26148e-07	
26000.000000	0.0848541 	26000.000000	0.0453959 	26000.000000	0.0195036 	26000.000000	0.0194672 	26000.000000	0.0453957 	26000.000000	1.21562e-07	
27000.000000	0.0891183 	27000.000000	0.0466647 	27000.000000	0.0195832 	27000.000000	0.019548  	27000.000000	0.0466646 	27000.000000	1.17305e-07	
28000.000000	0.0934859 	28000.000000	0.0479316 	28000.000000	0.01966   	28000.000000	0.019626  	28000.000000	0.0479314 	28000.000000	1.13344e-07	
29000.000000	0.0979574 	29000.000000	0.0491965 	29000.000000	0.0197343 	29000.000000	0.0197014 	29000.000000	0.0491964 	29000.000000	1.09648e-07	
30000.000000	0.102533  	30000.000000	0.0504595 	30000.000000	0.0198064 	30000.000000	0.0197742 	30000.000000	0.0504594 	30000.000000	1.06192e-07	
32000.000000	0.112     	32000.000000	0.0529802 	32000.000000	0.0199435 	32000.000000	0.0199129 	32000.000000	0.0529801 	32000.000000	9.99092e-08	
34000.000000	0.12189   	34000.000000	0.0554937 	34000.000000	0.0200717 	34000.000000	0.0200433 	34000.000000	0.0554936 	34000.000000	9.43455e-08	
36000.000000	0.132207  	36000.000000	0.0580005 	36000.000000	0.0201922 	36000.000000	0.0201663 	36000.000000	0.0580005 	36000.000000	8.93832e-08	
38000.000000	0.142955  	38000.000000	0.0605009 	38000.000000	0.0203062 	38000.000000	0.0202827 	38000.000000	0.0605008 	38000.000000	8.49288e-08	
40000.000000	0.15414   	40000.000000	0.0629951 	40000.000000	0.0204143 	40000.000000	0.0203932 	40000.000000	0.062995  	40000.000000	8.09077e-08	
42000.000000	0.165765  	42000.000000	0.0654833 	42000.000000	0.020517  	42000.000000	0.0204982 	42000.000000	0.0654833 	42000.000000	7.72591e-08	
44000.000000	0.177835  	44000.000000	0.0679659 	44000.000000	0.0206147 	44000.000000	0.0205984 	44000.000000	0.0679659 	44000.000000	7.39332e-08	
46000.000000	0.190355  	46000.000000	0.0704431 	46000.000000	0.020708  	46000.000000	0.0206941 	46000.000000	0.070443  	46000.000000	7.08885e-08	
48000.000000	0.203329  	48000.000000	0.072915  	48000.000000	0.020797  	48000.000000	0.0207858 	48000.000000	0.072915  	48000.000000	6.80906e-08	
50000.000000	0.216762  	50000.000000	0.075382  	50000.000000	0.020882  	50000.000000	0.0208736 	50000.000000	0.0753819 	50000.000000	6.55105e-08	
