Energy (MeV/u)1	0 - [He-base] F.Hubert et al, AD&ND Tables 46(1990)1	Energy (MeV/u)2	1 - [H -base] J.F.Ziegler et al, Pergamon Press, NY (low energy)	Energy (MeV/u)3	2 - ATIMA 1.2  LS-theory (recommended for high energy)	Energy (MeV/u)4	3 - ATIMA 1.2  without LS-correction	Energy (MeV/u)5	4 - electrical component of [1] - J.F.Ziegler et al	Energy (MeV/u)6	5 - nuclear component of [1] - J.F.Ziegler et al	
0.001000	3.04995   	0.001000	3.04995   	0.001000	3.08107   	0.001000	3.08107   	0.001000	1.45417   	0.001000	1.59578   	
0.002000	3.13149   	0.002000	3.13149   	0.002000	3.20473   	0.002000	3.20473   	0.002000	1.88582   	0.002000	1.24567   	
0.005000	3.44839   	0.005000	3.44839   	0.005000	3.62475   	0.005000	3.62475   	0.005000	2.65906   	0.005000	0.789335  	
0.008000	3.76812   	0.008000	3.76812   	0.008000	4.02991   	0.008000	4.02991   	0.008000	3.17156   	0.008000	0.596554  	
0.010000	3.96605   	0.010000	3.96605   	0.010000	4.27911   	0.010000	4.27911   	0.010000	3.44837   	0.010000	0.517673  	
0.015000	4.49845   	0.015000	4.49845   	0.015000	4.82007   	0.015000	4.82007   	0.015000	4.10339   	0.015000	0.39506   	
0.020000	5.05449   	0.020000	5.05449   	0.020000	5.36304   	0.020000	5.36304   	0.020000	4.7312    	0.020000	0.323295  	
0.025000	5.69173   	0.025000	5.69173   	0.025000	5.90097   	0.025000	5.90097   	0.025000	5.41868   	0.025000	0.273047  	
0.030000	6.31176   	0.030000	6.31176   	0.030000	6.48079   	0.030000	6.48079   	0.030000	6.07274   	0.030000	0.239023  	
0.035000	6.77605   	0.035000	6.77605   	0.035000	7.03965   	0.035000	7.03965   	0.035000	6.56285   	0.035000	0.213199  	
0.040000	7.16974   	0.040000	7.16974   	0.040000	7.57591   	0.040000	7.57591   	0.040000	6.97689   	0.040000	0.192857  	
0.045000	7.54015   	0.045000	7.54015   	0.045000	8.08858   	0.045000	8.08858   	0.045000	7.36377   	0.045000	0.176374  	
0.050000	7.88802   	0.050000	7.88802   	0.050000	8.57706   	0.050000	8.57706   	0.050000	7.7253    	0.050000	0.162718  	
0.055000	8.27969   	0.055000	8.27969   	0.055000	9.04106   	0.055000	9.04106   	0.055000	8.12849   	0.055000	0.1512    	
0.060000	8.65472   	0.060000	8.65472   	0.060000	9.48054   	0.060000	9.48054   	0.060000	8.51338   	0.060000	0.14134   	
0.070000	9.35565   	0.070000	9.35565   	0.070000	10.2867   	0.070000	10.2867   	0.070000	9.23034   	0.070000	0.12531   	
0.080000	10.0881   	0.080000	10.0881   	0.080000	10.9986   	0.080000	10.9986   	0.080000	9.9753    	0.080000	0.1128    	
0.090000	10.7455   	0.090000	10.7455   	0.090000	11.6214   	0.090000	11.6214   	0.090000	10.6428   	0.090000	0.10274   	
0.100000	11.3266   	0.100000	11.3266   	0.100000	12.1611   	0.100000	12.1611   	0.100000	11.2322   	0.100000	0.0944565 	
0.120000	12.3002   	0.120000	12.3002   	0.120000	13.0198   	0.120000	13.0198   	0.120000	12.2186   	0.120000	0.0815846 	
0.140000	13.0266   	0.140000	13.0266   	0.140000	13.6317   	0.140000	13.6317   	0.140000	12.9546   	0.140000	0.0720102 	
0.160000	13.5503   	0.160000	13.5503   	0.160000	14.0499   	0.160000	14.0499   	0.160000	13.4857   	0.160000	0.0645859 	
0.180000	13.9143   	0.180000	13.9143   	0.180000	14.3202   	0.180000	14.3202   	0.180000	13.8557   	0.180000	0.0586461 	
0.200000	14.1565   	0.200000	14.1565   	0.200000	14.4799   	0.200000	14.4799   	0.200000	14.1027   	0.200000	0.053777  	
0.250000	14.3755   	0.250000	14.3755   	0.250000	14.57     	0.250000	14.57     	0.250000	14.3308   	0.250000	0.0447081 	
0.300000	14.381    	0.300000	14.381    	0.300000	14.4286   	0.300000	14.4286   	0.300000	14.3426   	0.300000	0.0384051 	
0.350000	14.2531   	0.350000	14.2531   	0.350000	14.1976   	0.350000	14.1976   	0.350000	14.2193   	0.350000	0.0337509 	
0.400000	14.081    	0.400000	14.081    	0.400000	13.9405   	0.400000	13.9405   	0.400000	14.0509   	0.400000	0.0301628 	
0.450000	13.9606   	0.450000	13.9606   	0.450000	13.7347   	0.450000	13.7347   	0.450000	13.9333   	0.450000	0.027306  	
0.500000	13.8317   	0.500000	13.8317   	0.500000	13.5979   	0.500000	13.5979   	0.500000	13.8067   	0.500000	0.0249735 	
0.600000	13.2854   	0.600000	13.2854   	0.600000	13.2789   	0.600000	13.2789   	0.600000	13.264    	0.600000	0.0213855 	
0.700000	12.7754   	0.700000	12.7754   	0.700000	12.933    	0.700000	12.933    	0.700000	12.7566   	0.700000	0.0187465 	
0.800000	12.3228   	0.800000	12.3228   	0.800000	12.5473   	0.800000	12.5473   	0.800000	12.3061   	0.800000	0.0167186 	
0.900000	11.8841   	0.900000	11.8841   	0.900000	12.1822   	0.900000	12.1822   	0.900000	11.869    	0.900000	0.0151083 	
1.000000	11.4611   	1.000000	11.4611   	1.000000	11.8358   	1.000000	11.8358   	1.000000	11.4473   	1.000000	0.0137965 	
1.250000	10.7682   	1.250000	10.7682   	1.250000	11.0428   	1.250000	11.0428   	1.250000	10.7568   	1.250000	0.0113745 	
1.500000	10.1428   	1.500000	10.1428   	1.500000	10.2857   	1.500000	10.2857   	1.500000	10.1331   	1.500000	0.00970844	
1.750000	9.5815    	1.750000	9.5815    	1.750000	9.64145   	1.750000	9.64145   	1.750000	9.57301   	1.750000	0.00848796	
2.000000	9.05655   	2.000000	9.05655   	2.000000	9.07995   	2.000000	9.07995   	2.000000	9.049     	2.000000	0.00755313	
2.250000	8.53446   	2.250000	8.53446   	2.250000	8.58354   	2.250000	8.58354   	2.250000	8.52764   	2.250000	0.0068128 	
2.500000	8.39692   	2.500000	8.07019   	2.500000	8.14036   	2.500000	8.14036   	2.500000	8.06398   	2.500000	0.00621116	
3.000000	7.5241    	3.000000	7.2562    	3.000000	7.38128   	3.000000	7.38128   	3.000000	7.25091   	3.000000	0.0052908 	
3.500000	6.82216   	3.500000	6.5965    	3.500000	6.75413   	3.500000	6.75413   	3.500000	6.59188   	3.500000	0.00461819	
4.000000	6.24568   	4.000000	6.05506   	4.000000	6.22712   	4.000000	6.22712   	4.000000	6.05096   	4.000000	0.004104  	
4.500000	5.76374   	4.500000	5.60013   	4.500000	5.77803   	4.500000	5.77803   	4.500000	5.59644   	4.500000	0.00369746	
5.000000	5.35472   	5.000000	5.21055   	5.000000	5.39078   	5.000000	5.39078   	5.000000	5.20719   	5.000000	0.00336753	
5.500000	5.0031    	5.500000	4.87852   	5.500000	5.05342   	5.500000	5.05342   	5.500000	4.87542   	5.500000	0.00309413	
6.000000	4.69749   	6.000000	4.58803   	6.000000	4.75687   	6.000000	4.75687   	6.000000	4.58517   	6.000000	0.00286369	
6.500000	4.42931   	6.500000	4.33147   	6.500000	4.49412   	6.500000	4.49412   	6.500000	4.3288    	6.500000	0.00266667	
7.000000	4.192     	7.000000	4.10304   	7.000000	4.25969   	7.000000	4.25969   	7.000000	4.10055   	7.000000	0.0024962 	
7.500000	3.98046   	7.500000	3.89826   	7.500000	4.04921   	7.500000	4.04921   	7.500000	3.89591   	7.500000	0.00234717	
8.000000	3.79066   	8.000000	3.71356   	8.000000	3.85917   	8.000000	3.85917   	8.000000	3.71135   	8.000000	0.00221572	
8.500000	3.61937   	8.500000	3.54609   	8.500000	3.68671   	8.500000	3.68671   	8.500000	3.54399   	8.500000	0.00209886	
9.000000	3.46397   	9.000000	3.39352   	9.000000	3.52949   	9.000000	3.52949   	9.000000	3.39153   	9.000000	0.00199425	
9.500000	3.32232   	9.500000	3.25392   	9.500000	3.38556   	9.500000	3.38556   	9.500000	3.25202   	9.500000	0.00190005	
10.000000	3.19264   	10.000000	3.16939   	10.000000	3.25329   	10.000000	3.25329   	10.000000	3.16757   	10.000000	0.00181474	
11.000000	2.96355   	11.000000	2.95227   	11.000000	3.01457   	11.000000	3.01793   	11.000000	2.95061   	11.000000	0.00166613	
12.000000	2.76743   	12.000000	2.76413   	12.000000	2.80965   	12.000000	2.8153    	12.000000	2.76259   	12.000000	0.00154099	
13.000000	2.59755   	13.000000	2.59958   	13.000000	2.63192   	13.000000	2.63912   	13.000000	2.59815   	13.000000	0.00143409	
14.000000	2.44891   	14.000000	2.45447   	14.000000	2.47639   	14.000000	2.4846    	14.000000	2.45312   	14.000000	0.00134165	
15.000000	2.31772   	15.000000	2.32555   	15.000000	2.33919   	15.000000	2.34805   	15.000000	2.32429   	15.000000	0.0012609 	
16.000000	2.20102   	16.000000	2.21028   	16.000000	2.21731   	16.000000	2.22656   	16.000000	2.20909   	16.000000	0.00118972	
17.000000	2.09651   	17.000000	2.1066    	17.000000	2.10837   	17.000000	2.11782   	17.000000	2.10547   	17.000000	0.00112647	
18.000000	2.00236   	18.000000	2.01284   	18.000000	2.0105    	18.000000	2.01998   	18.000000	2.01177   	18.000000	0.00106989	
19.000000	1.91707   	19.000000	1.92764   	19.000000	1.92212   	19.000000	1.93152   	19.000000	1.92662   	19.000000	0.00101896	
20.000000	1.83942   	20.000000	1.84989   	20.000000	1.84192   	20.000000	1.85119   	20.000000	1.84892   	20.000000	0.000972856	
21.000000	1.76843   	21.000000	1.77864   	21.000000	1.76885   	21.000000	1.77796   	21.000000	1.77771   	21.000000	0.000930919	
22.000000	1.70326   	22.000000	1.71311   	22.000000	1.70204   	22.000000	1.71096   	22.000000	1.71222   	22.000000	0.0008926 	
23.000000	1.6432    	23.000000	1.65264   	23.000000	1.64078   	23.000000	1.64947   	23.000000	1.65178   	23.000000	0.000857444	
24.000000	1.58768   	24.000000	1.59665   	24.000000	1.58447   	24.000000	1.59286   	24.000000	1.59583   	24.000000	0.000825067	
25.000000	1.53619   	25.000000	1.54467   	25.000000	1.53255   	25.000000	1.5406    	25.000000	1.54387   	25.000000	0.00079515	
27.000000	1.44363   	27.000000	1.45111   	27.000000	1.44      	27.000000	1.44736   	27.000000	1.45037   	27.000000	0.000741636	
29.000000	1.36274   	29.000000	1.36924   	29.000000	1.36008   	29.000000	1.36679   	29.000000	1.36854   	29.000000	0.000695145	
31.000000	1.29141   	31.000000	1.29698   	31.000000	1.28951   	31.000000	1.29532   	31.000000	1.29632   	31.000000	0.000654362	
33.000000	1.22802   	33.000000	1.23272   	33.000000	1.22598   	33.000000	1.23082   	33.000000	1.2321    	33.000000	0.000618283	
35.000000	1.1713    	35.000000	1.1752    	35.000000	1.16914   	35.000000	1.17313   	35.000000	1.17461   	35.000000	0.00058613	
38.000000	1.09653   	38.000000	1.09938   	38.000000	1.09428   	38.000000	1.09716   	38.000000	1.09883   	38.000000	0.000543946	
41.000000	1.03188   	41.000000	1.03381   	41.000000	1.02944   	41.000000	1.03154   	41.000000	1.03331   	41.000000	0.000507647	
44.000000	0.975391  	44.000000	0.976547  	44.000000	0.972777  	44.000000	0.974244  	44.000000	0.976071  	44.000000	0.000476067	
47.000000	0.925581  	47.000000	0.926079  	47.000000	0.922863  	47.000000	0.923774  	47.000000	0.925631  	47.000000	0.000448331	
50.000000	0.881315  	50.000000	0.881256  	50.000000	0.87845   	50.000000	0.878959  	50.000000	0.880832  	50.000000	0.00042377	
55.000000	0.817516  	55.000000	0.816719  	55.000000	0.814417  	55.000000	0.814441  	55.000000	0.81633   	55.000000	0.00038852	
60.000000	0.763619  	60.000000	0.762275  	60.000000	0.760383  	60.000000	0.760015  	60.000000	0.761916  	60.000000	0.000358883	
65.000000	0.717446  	65.000000	0.715707  	65.000000	0.714157  	65.000000	0.713457  	65.000000	0.715374  	65.000000	0.000333604	
70.000000	0.677419  	70.000000	0.675405  	70.000000	0.674042  	70.000000	0.673156  	70.000000	0.675093  	70.000000	0.000311775	
75.000000	0.642365  	75.000000	0.640171  	75.000000	0.639011  	75.000000	0.637917  	75.000000	0.639879  	75.000000	0.000292729	
80.000000	0.611395  	80.000000	0.609098  	80.000000	0.608039  	80.000000	0.606831  	80.000000	0.608822  	80.000000	0.000275957	
85.000000	0.58382   	85.000000	0.581481  	85.000000	0.580495  	85.000000	0.579199  	85.000000	0.58122   	85.000000	0.000261072	
90.000000	0.5591    	90.000000	0.556769  	90.000000	0.555839  	90.000000	0.554468  	90.000000	0.556522  	90.000000	0.000247768	
95.000000	0.536804  	95.000000	0.534523  	95.000000	0.533636  	95.000000	0.532201  	95.000000	0.534287  	95.000000	0.000235803	
100.000000	0.516584  	100.000000	0.514387  	100.000000	0.513533  	100.000000	0.512043  	100.000000	0.514162  	100.000000	0.000224982	
105.000000	0.498157  	105.000000	0.496072  	105.000000	0.495243  	105.000000	0.493707  	105.000000	0.495857  	105.000000	0.000215147	
110.000000	0.481289  	110.000000	0.47934   	110.000000	0.478531  	110.000000	0.476952  	110.000000	0.479134  	110.000000	0.000206167	
115.000000	0.465786  	115.000000	0.463992  	115.000000	0.463195  	115.000000	0.461583  	115.000000	0.463794  	115.000000	0.000197933	
120.000000	0.451486  	120.000000	0.449862  	120.000000	0.449081  	120.000000	0.447432  	120.000000	0.449671  	120.000000	0.000190356	
125.000000	0.438249  	125.000000	0.436809  	125.000000	0.436024  	125.000000	0.43436   	125.000000	0.436625  	125.000000	0.000183359	
130.000000	0.425958  	130.000000	0.424713  	130.000000	0.423894  	130.000000	0.422247  	130.000000	0.424536  	130.000000	0.000176877	
135.000000	0.414514  	135.000000	0.413473  	135.000000	0.412654  	135.000000	0.410991  	135.000000	0.413303  	135.000000	0.000170854	
140.000000	0.403829  	140.000000	0.403001  	140.000000	0.402196  	140.000000	0.400504  	140.000000	0.402835  	140.000000	0.000165243	
145.000000	0.393829  	145.000000	0.393218  	145.000000	0.392408  	145.000000	0.390708  	145.000000	0.393058  	145.000000	0.000160002	
150.000000	0.384448  	150.000000	0.38406   	150.000000	0.383219  	150.000000	0.381538  	150.000000	0.383905  	150.000000	0.000155096	
155.000000	0.373882  	155.000000	0.375468  	155.000000	0.374626  	155.000000	0.372936  	155.000000	0.375318  	155.000000	0.000150493	
160.000000	0.366075  	160.000000	0.367391  	160.000000	0.366549  	160.000000	0.36485   	160.000000	0.367245  	160.000000	0.000146165	
165.000000	0.358712  	165.000000	0.359784  	165.000000	0.358917  	165.000000	0.357235  	165.000000	0.359641  	165.000000	0.000142088	
170.000000	0.351757  	170.000000	0.352606  	170.000000	0.351734  	170.000000	0.350051  	170.000000	0.352467  	170.000000	0.000138241	
175.000000	0.345176  	175.000000	0.345822  	175.000000	0.344958  	175.000000	0.343263  	175.000000	0.345687  	175.000000	0.000134604	
180.000000	0.33894   	180.000000	0.339401  	180.000000	0.338526  	180.000000	0.336839  	180.000000	0.33927   	180.000000	0.00013116	
185.000000	0.333021  	185.000000	0.333314  	185.000000	0.332418  	185.000000	0.33075   	185.000000	0.333186  	185.000000	0.000127895	
190.000000	0.327396  	190.000000	0.327536  	190.000000	0.326623  	190.000000	0.324971  	190.000000	0.327411  	190.000000	0.000124795	
195.000000	0.322043  	195.000000	0.322043  	195.000000	0.321131  	195.000000	0.319479  	195.000000	0.321921  	195.000000	0.000121847	
200.000000	0.316942  	200.000000	0.316816  	200.000000	0.315915  	200.000000	0.314254  	200.000000	0.316697  	200.000000	0.00011904	
210.000000	0.30743   	210.000000	0.307083  	210.000000	0.306174  	210.000000	0.304527  	210.000000	0.306969  	210.000000	0.00011381	
220.000000	0.298737  	220.000000	0.298207  	220.000000	0.297281  	220.000000	0.295662  	220.000000	0.298098  	220.000000	0.000109037	
230.000000	0.29076   	230.000000	0.290081  	230.000000	0.289176  	230.000000	0.287548  	230.000000	0.289976  	230.000000	0.000104661	
240.000000	0.283413  	240.000000	0.282612  	240.000000	0.281713  	240.000000	0.280096  	240.000000	0.282511  	240.000000	0.000100635	
250.000000	0.276625  	250.000000	0.275725  	250.000000	0.274824  	250.000000	0.273229  	250.000000	0.275629  	250.000000	9.69185e-05	
260.000000	0.270334  	260.000000	0.269356  	260.000000	0.268456  	260.000000	0.266881  	260.000000	0.269262  	260.000000	9.34759e-05	
270.000000	0.264487  	270.000000	0.263447  	270.000000	0.26256   	270.000000	0.260996  	270.000000	0.263357  	270.000000	9.02779e-05	
280.000000	0.259039  	280.000000	0.257952  	280.000000	0.257098  	280.000000	0.255526  	280.000000	0.257865  	280.000000	8.72991e-05	
290.000000	0.25395   	290.000000	0.252829  	290.000000	0.251989  	290.000000	0.250429  	290.000000	0.252745  	290.000000	8.45175e-05	
300.000000	0.249186  	300.000000	0.248042  	300.000000	0.247212  	300.000000	0.24567   	300.000000	0.24796   	300.000000	8.19137e-05	
310.000000	0.244717  	310.000000	0.24356   	310.000000	0.242746  	310.000000	0.241217  	310.000000	0.24348   	310.000000	7.94712e-05	
320.000000	0.240516  	320.000000	0.239354  	320.000000	0.238557  	320.000000	0.237041  	320.000000	0.239277  	320.000000	7.71752e-05	
330.000000	0.236561  	330.000000	0.235401  	330.000000	0.234619  	330.000000	0.233119  	330.000000	0.235326  	330.000000	7.50128e-05	
340.000000	0.23283   	340.000000	0.231678  	340.000000	0.230919  	340.000000	0.229427  	340.000000	0.231605  	340.000000	7.29724e-05	
350.000000	0.229306  	350.000000	0.228168  	350.000000	0.227445  	350.000000	0.225948  	350.000000	0.228097  	350.000000	7.1044e-05	
360.000000	0.225972  	360.000000	0.224851  	360.000000	0.224159  	360.000000	0.222665  	360.000000	0.224782  	360.000000	6.92184e-05	
370.000000	0.222812  	370.000000	0.221714  	370.000000	0.221023  	370.000000	0.219541  	370.000000	0.221647  	370.000000	6.74876e-05	
380.000000	0.219815  	380.000000	0.218743  	380.000000	0.218055  	380.000000	0.216585  	380.000000	0.218677  	380.000000	6.58442e-05	
390.000000	0.216968  	390.000000	0.215925  	390.000000	0.215243  	390.000000	0.213782  	390.000000	0.21586   	390.000000	6.42817e-05	
400.000000	0.21426   	400.000000	0.213248  	400.000000	0.212574  	400.000000	0.211122  	400.000000	0.213186  	400.000000	6.27943e-05	
410.000000	0.211683  	410.000000	0.210704  	410.000000	0.210037  	410.000000	0.208595  	410.000000	0.210643  	410.000000	6.13765e-05	
420.000000	0.209226  	420.000000	0.208283  	420.000000	0.207624  	420.000000	0.206191  	420.000000	0.208223  	420.000000	6.00236e-05	
430.000000	0.206882  	430.000000	0.205975  	430.000000	0.205327  	430.000000	0.203902  	430.000000	0.205917  	430.000000	5.87311e-05	
440.000000	0.204643  	440.000000	0.203775  	440.000000	0.203137  	440.000000	0.20172   	440.000000	0.203718  	440.000000	5.7495e-05	
450.000000	0.202504  	450.000000	0.201675  	450.000000	0.201048  	450.000000	0.199638  	450.000000	0.201619  	450.000000	5.63117e-05	
460.000000	0.200457  	460.000000	0.199669  	460.000000	0.199051  	460.000000	0.19765   	460.000000	0.199613  	460.000000	5.51778e-05	
470.000000	0.198497  	470.000000	0.19775   	470.000000	0.197143  	470.000000	0.19575   	470.000000	0.197696  	470.000000	5.40903e-05	
480.000000	0.196619  	480.000000	0.195914  	480.000000	0.195323  	480.000000	0.193933  	480.000000	0.195861  	480.000000	5.30463e-05	
490.000000	0.194819  	490.000000	0.194155  	490.000000	0.193585  	490.000000	0.192193  	490.000000	0.194103  	490.000000	5.20432e-05	
500.000000	0.193091  	500.000000	0.19247   	500.000000	0.19192   	500.000000	0.190526  	500.000000	0.192419  	500.000000	5.10787e-05	
520.000000	0.189837  	520.000000	0.189301  	520.000000	0.188778  	520.000000	0.187395  	520.000000	0.189252  	520.000000	4.92567e-05	
540.000000	0.18683   	540.000000	0.186379  	540.000000	0.185879  	540.000000	0.18451   	540.000000	0.186332  	540.000000	4.75644e-05	
560.000000	0.184044  	560.000000	0.183678  	560.000000	0.183202  	560.000000	0.181843  	560.000000	0.183632  	560.000000	4.59884e-05	
580.000000	0.181457  	580.000000	0.181174  	580.000000	0.180722  	580.000000	0.179374  	580.000000	0.18113   	580.000000	4.45169e-05	
600.000000	0.17905   	600.000000	0.17885   	600.000000	0.178421  	600.000000	0.177082  	600.000000	0.178807  	600.000000	4.31398e-05	
620.000000	0.176807  	620.000000	0.176687  	620.000000	0.17628   	620.000000	0.17495   	620.000000	0.176645  	620.000000	4.18481e-05	
640.000000	0.174713  	640.000000	0.174672  	640.000000	0.174285  	640.000000	0.172964  	640.000000	0.174631  	640.000000	4.06341e-05	
660.000000	0.172756  	660.000000	0.172791  	660.000000	0.172423  	660.000000	0.17111   	660.000000	0.172752  	660.000000	3.94908e-05	
680.000000	0.170923  	680.000000	0.171033  	680.000000	0.170682  	680.000000	0.169377  	680.000000	0.170994  	680.000000	3.84123e-05	
700.000000	0.169206  	700.000000	0.169387  	700.000000	0.169052  	700.000000	0.167754  	700.000000	0.16935   	700.000000	3.73931e-05	
720.000000	0.167594  	720.000000	0.167844  	720.000000	0.167523  	720.000000	0.166232  	720.000000	0.167808  	720.000000	3.64283e-05	
740.000000	0.16608   	740.000000	0.166397  	740.000000	0.166087  	740.000000	0.164803  	740.000000	0.166362  	740.000000	3.55137e-05	
760.000000	0.164656  	760.000000	0.165037  	760.000000	0.164737  	760.000000	0.163459  	760.000000	0.165003  	760.000000	3.46454e-05	
780.000000	0.163315  	780.000000	0.163759  	780.000000	0.163467  	780.000000	0.162195  	780.000000	0.163725  	780.000000	3.382e-05 	
800.000000	0.162053  	800.000000	0.162556  	800.000000	0.16227   	800.000000	0.161003  	800.000000	0.162523  	800.000000	3.30343e-05	
820.000000	0.160863  	820.000000	0.161423  	820.000000	0.16114   	820.000000	0.159879  	820.000000	0.161391  	820.000000	3.22855e-05	
840.000000	0.15974   	840.000000	0.160355  	840.000000	0.160073  	840.000000	0.158817  	840.000000	0.160323  	840.000000	3.1571e-05	
860.000000	0.158681  	860.000000	0.159347  	860.000000	0.159065  	860.000000	0.157814  	860.000000	0.159316  	860.000000	3.08885e-05	
880.000000	0.157681  	880.000000	0.158396  	880.000000	0.158111  	880.000000	0.156865  	880.000000	0.158366  	880.000000	3.02358e-05	
900.000000	0.156736  	900.000000	0.157498  	900.000000	0.157208  	900.000000	0.155966  	900.000000	0.157468  	900.000000	2.96111e-05	
920.000000	0.155843  	920.000000	0.156649  	920.000000	0.156352  	920.000000	0.155114  	920.000000	0.15662   	920.000000	2.90125e-05	
940.000000	0.154998  	940.000000	0.155847  	940.000000	0.15554   	940.000000	0.154307  	940.000000	0.155819  	940.000000	2.84385e-05	
960.000000	0.1542    	960.000000	0.155088  	960.000000	0.15477   	960.000000	0.15354   	960.000000	0.15506   	960.000000	2.78875e-05	
980.000000	0.153445  	980.000000	0.154371  	980.000000	0.154039  	980.000000	0.152813  	980.000000	0.154343  	980.000000	2.73581e-05	
1000.000000	0.152731  	1000.000000	0.153692  	1000.000000	0.153344  	1000.000000	0.152121  	1000.000000	0.153665  	1000.000000	2.68491e-05	
1020.000000	0.152055  	1020.000000	0.153049  	1020.000000	0.152683  	1020.000000	0.151464  	1020.000000	0.153022  	1020.000000	2.63593e-05	
1040.000000	0.151416  	1040.000000	0.15244   	1040.000000	0.152054  	1040.000000	0.150838  	1040.000000	0.152414  	1040.000000	2.58877e-05	
1060.000000	0.150811  	1060.000000	0.151864  	1060.000000	0.151455  	1060.000000	0.150243  	1060.000000	0.151839  	1060.000000	2.54332e-05	
1080.000000	0.150239  	1080.000000	0.151319  	1080.000000	0.150885  	1080.000000	0.149676  	1080.000000	0.151294  	1080.000000	2.49949e-05	
1100.000000	0.149698  	1100.000000	0.150802  	1100.000000	0.150342  	1100.000000	0.149136  	1100.000000	0.150778  	1100.000000	2.4572e-05	
1120.000000	0.149187  	1120.000000	0.150313  	1120.000000	0.149824  	1120.000000	0.148621  	1120.000000	0.150289  	1120.000000	2.41636e-05	
1140.000000	0.148704  	1140.000000	0.14985   	1140.000000	0.14933   	1140.000000	0.14813   	1140.000000	0.149826  	1140.000000	2.3769e-05	
1160.000000	0.148247  	1160.000000	0.149412  	1160.000000	0.148859  	1160.000000	0.147661  	1160.000000	0.149388  	1160.000000	2.33875e-05	
1180.000000	0.147816  	1180.000000	0.148997  	1180.000000	0.148409  	1180.000000	0.147214  	1180.000000	0.148974  	1180.000000	2.30185e-05	
1200.000000	0.147409  	1200.000000	0.148605  	1200.000000	0.14798   	1200.000000	0.146787  	1200.000000	0.148582  	1200.000000	2.26613e-05	
1220.000000	0.147025  	1220.000000	0.148233  	1220.000000	0.14757   	1220.000000	0.14638   	1220.000000	0.148211  	1220.000000	2.23154e-05	
1240.000000	0.146664  	1240.000000	0.147883  	1240.000000	0.147178  	1240.000000	0.14599   	1240.000000	0.147861  	1240.000000	2.19803e-05	
1260.000000	0.146323  	1260.000000	0.147551  	1260.000000	0.146804  	1260.000000	0.145618  	1260.000000	0.147529  	1260.000000	2.16554e-05	
1280.000000	0.146003  	1280.000000	0.147238  	1280.000000	0.146446  	1280.000000	0.145262  	1280.000000	0.147216  	1280.000000	2.13403e-05	
1300.000000	0.145701  	1300.000000	0.146942  	1300.000000	0.146103  	1300.000000	0.144922  	1300.000000	0.146921  	1300.000000	2.10345e-05	
1320.000000	0.145419  	1320.000000	0.146663  	1320.000000	0.145776  	1320.000000	0.144597  	1320.000000	0.146642  	1320.000000	2.07376e-05	
1340.000000	0.145154  	1340.000000	0.1464    	1340.000000	0.145463  	1340.000000	0.144285  	1340.000000	0.14638   	1340.000000	2.04493e-05	
1360.000000	0.144906  	1360.000000	0.146153  	1360.000000	0.145163  	1360.000000	0.143988  	1360.000000	0.146133  	1360.000000	2.01692e-05	
1380.000000	0.144674  	1380.000000	0.14592   	1380.000000	0.144877  	1380.000000	0.143703  	1380.000000	0.1459    	1380.000000	1.98969e-05	
1400.000000	0.144458  	1400.000000	0.145702  	1400.000000	0.144602  	1400.000000	0.14343   	1400.000000	0.145682  	1400.000000	1.96321e-05	
1420.000000	0.144257  	1420.000000	0.145497  	1420.000000	0.144339  	1420.000000	0.143169  	1420.000000	0.145477  	1420.000000	1.93744e-05	
1440.000000	0.144071  	1440.000000	0.145304  	1440.000000	0.144088  	1440.000000	0.142919  	1440.000000	0.145285  	1440.000000	1.91237e-05	
1460.000000	0.143898  	1460.000000	0.145125  	1460.000000	0.143847  	1460.000000	0.14268   	1460.000000	0.145106  	1460.000000	1.88796e-05	
1480.000000	0.143739  	1480.000000	0.144957  	1480.000000	0.143616  	1480.000000	0.142451  	1480.000000	0.144938  	1480.000000	1.86418e-05	
1500.000000	0.143593  	1500.000000	0.1448    	1500.000000	0.143396  	1500.000000	0.142232  	1500.000000	0.144782  	1500.000000	1.84102e-05	
1520.000000	0.143459  	1520.000000	0.144655  	1520.000000	0.143184  	1520.000000	0.142022  	1520.000000	0.144637  	1520.000000	1.81844e-05	
1540.000000	0.143337  	1540.000000	0.14452   	1540.000000	0.142981  	1540.000000	0.141821  	1540.000000	0.144502  	1540.000000	1.79643e-05	
1560.000000	0.143227  	1560.000000	0.144395  	1560.000000	0.142788  	1560.000000	0.141628  	1560.000000	0.144378  	1560.000000	1.77496e-05	
1580.000000	0.143127  	1580.000000	0.144281  	1580.000000	0.142602  	1580.000000	0.141444  	1580.000000	0.144263  	1580.000000	1.75401e-05	
1600.000000	0.143039  	1600.000000	0.144175  	1600.000000	0.142424  	1600.000000	0.141267  	1600.000000	0.144158  	1600.000000	1.73357e-05	
1620.000000	0.142961  	1620.000000	0.144079  	1620.000000	0.142253  	1620.000000	0.141098  	1620.000000	0.144062  	1620.000000	1.71362e-05	
1640.000000	0.142893  	1640.000000	0.143991  	1640.000000	0.14209   	1640.000000	0.140936  	1640.000000	0.143974  	1640.000000	1.69414e-05	
1660.000000	0.142835  	1660.000000	0.143912  	1660.000000	0.141934  	1660.000000	0.140781  	1660.000000	0.143895  	1660.000000	1.67511e-05	
1680.000000	0.142786  	1680.000000	0.143841  	1680.000000	0.141785  	1680.000000	0.140633  	1680.000000	0.143824  	1680.000000	1.65651e-05	
1700.000000	0.142746  	1700.000000	0.143778  	1700.000000	0.141641  	1700.000000	0.140491  	1700.000000	0.143762  	1700.000000	1.63834e-05	
1750.000000	0.142685  	1750.000000	0.143653  	1750.000000	0.14131   	1750.000000	0.140162  	1750.000000	0.143637  	1750.000000	1.59466e-05	
1800.000000	0.142675  	1800.000000	0.143571  	1800.000000	0.141013  	1800.000000	0.139868  	1800.000000	0.143556  	1800.000000	1.55332e-05	
1850.000000	0.142712  	1850.000000	0.14353   	1850.000000	0.140748  	1850.000000	0.139606  	1850.000000	0.143515  	1850.000000	1.51414e-05	
1900.000000	0.142792  	1900.000000	0.143525  	1900.000000	0.140512  	1900.000000	0.139372  	1900.000000	0.14351   	1900.000000	1.47694e-05	
1950.000000	0.142914  	1950.000000	0.143554  	1950.000000	0.140301  	1950.000000	0.139163  	1950.000000	0.14354   	1950.000000	1.44159e-05	
2000.000000	0.143073  	2000.000000	0.143615  	2000.000000	0.140115  	2000.000000	0.138979  	2000.000000	0.143601  	2000.000000	1.40794e-05	
2100.000000	0.143496  	2100.000000	0.143823  	2100.000000	0.139805  	2100.000000	0.138674  	2100.000000	0.14381   	2100.000000	1.34529e-05	
2200.000000	0.144045  	2200.000000	0.144132  	2200.000000	0.139569  	2200.000000	0.138441  	2200.000000	0.144119  	2200.000000	1.28813e-05	
2300.000000	0.144704  	2300.000000	0.144529  	2300.000000	0.139395  	2300.000000	0.13827   	2300.000000	0.144517  	2300.000000	1.23578e-05	
2400.000000	0.145461  	2400.000000	0.145003  	2400.000000	0.139273  	2400.000000	0.138151  	2400.000000	0.144991  	2400.000000	1.18764e-05	
2500.000000	0.146307  	2500.000000	0.145545  	2500.000000	0.139196  	2500.000000	0.138076  	2500.000000	0.145533  	2500.000000	1.14322e-05	
2600.000000	0.147232  	2600.000000	0.146146  	2600.000000	0.139156  	2600.000000	0.138039  	2600.000000	0.146135  	2600.000000	1.1021e-05	
2700.000000	0.148229  	2700.000000	0.146801  	2700.000000	0.139149  	2700.000000	0.138034  	2700.000000	0.14679   	2700.000000	1.06392e-05	
2800.000000	0.149292  	2800.000000	0.147503  	2800.000000	0.13917   	2800.000000	0.138057  	2800.000000	0.147492  	2800.000000	1.02838e-05	
2900.000000	0.150415  	2900.000000	0.148247  	2900.000000	0.139216  	2900.000000	0.138104  	2900.000000	0.148237  	2900.000000	9.95204e-06	
3000.000000	0.151593  	3000.000000	0.149029  	3000.000000	0.139281  	3000.000000	0.138171  	3000.000000	0.14902   	3000.000000	9.64166e-06	
3200.000000	0.154098  	3200.000000	0.150694  	3200.000000	0.139464  	3200.000000	0.138357  	3200.000000	0.150685  	3200.000000	9.07717e-06	
3400.000000	0.156778  	3400.000000	0.152471  	3400.000000	0.1397    	3400.000000	0.138595  	3400.000000	0.152462  	3400.000000	8.57691e-06	
3600.000000	0.159612  	3600.000000	0.154342  	3600.000000	0.139976  	3600.000000	0.138874  	3600.000000	0.154333  	3600.000000	8.13041e-06	
3800.000000	0.162582  	3800.000000	0.15629   	3800.000000	0.140282  	3800.000000	0.139182  	3800.000000	0.156282  	3800.000000	7.72938e-06	
4000.000000	0.165673  	4000.000000	0.158305  	4000.000000	0.14061   	4000.000000	0.139511  	4000.000000	0.158297  	4000.000000	7.36714e-06	
4200.000000	0.168873  	4200.000000	0.160375  	4200.000000	0.140954  	4200.000000	0.139857  	4200.000000	0.160368  	4200.000000	7.03828e-06	
4400.000000	0.172173  	4400.000000	0.162493  	4400.000000	0.141309  	4400.000000	0.140213  	4400.000000	0.162486  	4400.000000	6.73833e-06	
4600.000000	0.175565  	4600.000000	0.164652  	4600.000000	0.141671  	4600.000000	0.140577  	4600.000000	0.164645  	4600.000000	6.46362e-06	
4800.000000	0.179043  	4800.000000	0.166847  	4800.000000	0.142039  	4800.000000	0.140946  	4800.000000	0.16684   	4800.000000	6.21106e-06	
5000.000000	0.1826    	5000.000000	0.169072  	5000.000000	0.142409  	5000.000000	0.141317  	5000.000000	0.169066  	5000.000000	5.97804e-06	
5250.000000	0.187151  	5250.000000	0.171891  	5250.000000	0.142872  	5250.000000	0.141782  	5250.000000	0.171886  	5250.000000	5.71093e-06	
5500.000000	0.19181   	5500.000000	0.174746  	5500.000000	0.143334  	5500.000000	0.142246  	5500.000000	0.174741  	5500.000000	5.46733e-06	
6000.000000	0.201431  	6000.000000	0.180543  	6000.000000	0.144247  	6000.000000	0.143162  	6000.000000	0.180538  	6000.000000	5.03912e-06	
6500.000000	0.21142   	6500.000000	0.18643   	6500.000000	0.145139  	6500.000000	0.144057  	6500.000000	0.186425  	6500.000000	4.67476e-06	
7000.000000	0.221748  	7000.000000	0.192383  	7000.000000	0.146003  	7000.000000	0.144923  	7000.000000	0.192379  	7000.000000	4.36086e-06	
7500.000000	0.232393  	7500.000000	0.198387  	7500.000000	0.146838  	7500.000000	0.14576   	7500.000000	0.198383  	7500.000000	4.08752e-06	
8000.000000	0.243338  	8000.000000	0.20443   	8000.000000	0.147644  	8000.000000	0.146567  	8000.000000	0.204426  	8000.000000	3.84729e-06	
8500.000000	0.254572  	8500.000000	0.210501  	8500.000000	0.148418  	8500.000000	0.147343  	8500.000000	0.210497  	8500.000000	3.63446e-06	
9000.000000	0.266083  	9000.000000	0.216594  	9000.000000	0.14916   	9000.000000	0.14809   	9000.000000	0.21659   	9000.000000	3.44454e-06	
9500.000000	0.277864  	9500.000000	0.222703  	9500.000000	0.149875  	9500.000000	0.148809  	9500.000000	0.2227    	9500.000000	3.274e-06 	
10000.000000	0.289908  	10000.000000	0.228825  	10000.000000	0.150564  	10000.000000	0.149501  	10000.000000	0.228822  	10000.000000	3.12e-06  	
11000.000000	0.31477   	11000.000000	0.241092  	11000.000000	0.15187   	11000.000000	0.15081   	11000.000000	0.241089  	11000.000000	2.85273e-06	
12000.000000	0.340637  	12000.000000	0.253376  	12000.000000	0.153084  	12000.000000	0.152027  	12000.000000	0.253373  	12000.000000	2.62871e-06	
13000.000000	0.367491  	13000.000000	0.265663  	13000.000000	0.154214  	13000.000000	0.153164  	13000.000000	0.26566   	13000.000000	2.43813e-06	
14000.000000	0.395317  	14000.000000	0.277946  	14000.000000	0.155269  	14000.000000	0.154228  	14000.000000	0.277943  	14000.000000	2.27398e-06	
15000.000000	0.424107  	15000.000000	0.290218  	15000.000000	0.156257  	15000.000000	0.155228  	15000.000000	0.290216  	15000.000000	2.13107e-06	
16000.000000	0.453854  	16000.000000	0.302477  	16000.000000	0.157189  	16000.000000	0.15617   	16000.000000	0.302475  	16000.000000	2.0055e-06	
17000.000000	0.484556  	17000.000000	0.314719  	17000.000000	0.158071  	17000.000000	0.15706   	17000.000000	0.314717  	17000.000000	1.89427e-06	
18000.000000	0.516211  	18000.000000	0.326943  	18000.000000	0.158909  	18000.000000	0.157902  	18000.000000	0.326942  	18000.000000	1.79503e-06	
19000.000000	0.548818  	19000.000000	0.339149  	19000.000000	0.159706  	19000.000000	0.158703  	19000.000000	0.339147  	19000.000000	1.70594e-06	
20000.000000	0.582377  	20000.000000	0.351334  	20000.000000	0.160466  	20000.000000	0.159464  	20000.000000	0.351333  	20000.000000	1.62548e-06	
21000.000000	0.61689   	21000.000000	0.3635    	21000.000000	0.161189  	21000.000000	0.16019   	21000.000000	0.363498  	21000.000000	1.55247e-06	
22000.000000	0.65236   	22000.000000	0.375645  	22000.000000	0.161871  	22000.000000	0.160884  	22000.000000	0.375644  	22000.000000	1.4859e-06	
23000.000000	0.688787  	23000.000000	0.387771  	23000.000000	0.162526  	23000.000000	0.161548  	23000.000000	0.387769  	23000.000000	1.42495e-06	
24000.000000	0.726176  	24000.000000	0.399876  	24000.000000	0.163156  	24000.000000	0.162185  	24000.000000	0.399875  	24000.000000	1.36893e-06	
25000.000000	0.764529  	25000.000000	0.411962  	25000.000000	0.163756  	25000.000000	0.162797  	25000.000000	0.411961  	25000.000000	1.31725e-06	
26000.000000	0.80385   	26000.000000	0.424029  	26000.000000	0.164332  	26000.000000	0.163385  	26000.000000	0.424027  	26000.000000	1.26944e-06	
27000.000000	0.844142  	27000.000000	0.436076  	27000.000000	0.164886  	27000.000000	0.163951  	27000.000000	0.436075  	27000.000000	1.22507e-06	
28000.000000	0.885411  	28000.000000	0.448105  	28000.000000	0.16542   	28000.000000	0.164497  	28000.000000	0.448104  	28000.000000	1.18377e-06	
29000.000000	0.927659  	29000.000000	0.460115  	29000.000000	0.165936  	29000.000000	0.165024  	29000.000000	0.460114  	29000.000000	1.14523e-06	
30000.000000	0.970892  	30000.000000	0.472108  	30000.000000	0.166434  	30000.000000	0.165534  	30000.000000	0.472107  	30000.000000	1.10919e-06	
32000.000000	1.06033   	32000.000000	0.496041  	32000.000000	0.167382  	32000.000000	0.166504  	32000.000000	0.49604   	32000.000000	1.04368e-06	
34000.000000	1.15376   	34000.000000	0.519906  	34000.000000	0.168272  	34000.000000	0.167416  	34000.000000	0.519905  	34000.000000	9.85657e-07	
36000.000000	1.25121   	36000.000000	0.543708  	36000.000000	0.169107  	36000.000000	0.168275  	36000.000000	0.543707  	36000.000000	9.33899e-07	
38000.000000	1.35275   	38000.000000	0.567448  	38000.000000	0.169892  	38000.000000	0.169088  	38000.000000	0.567447  	38000.000000	8.87435e-07	
40000.000000	1.45839   	40000.000000	0.59113   	40000.000000	0.170632  	40000.000000	0.169859  	40000.000000	0.591129  	40000.000000	8.45486e-07	
42000.000000	1.56819   	42000.000000	0.614755  	42000.000000	0.171334  	42000.000000	0.170592  	42000.000000	0.614754  	42000.000000	8.0742e-07	
44000.000000	1.68219   	44000.000000	0.638326  	44000.000000	0.172     	44000.000000	0.171291  	44000.000000	0.638326  	44000.000000	7.72717e-07	
46000.000000	1.80043   	46000.000000	0.661846  	46000.000000	0.172636  	46000.000000	0.171959  	46000.000000	0.661845  	46000.000000	7.40946e-07	
48000.000000	1.92296   	48000.000000	0.685316  	48000.000000	0.173242  	48000.000000	0.172598  	48000.000000	0.685316  	48000.000000	7.11749e-07	
50000.000000	2.04982   	50000.000000	0.708739  	50000.000000	0.173821  	50000.000000	0.17321   	50000.000000	0.708738  	50000.000000	6.84822e-07	
