Energy (MeV/u)1	0 - [He-base] F.Hubert et al, AD&ND Tables 46(1990)1	Energy (MeV/u)2	1 - [H -base] J.F.Ziegler et al, Pergamon Press, NY (low energy)	Energy (MeV/u)3	2 - ATIMA 1.2  LS-theory (recommended for high energy)	Energy (MeV/u)4	3 - ATIMA 1.2  without LS-correction	Energy (MeV/u)5	4 - electrical component of [1] - J.F.Ziegler et al	Energy (MeV/u)6	5 - nuclear component of [1] - J.F.Ziegler et al	
0.001000	0.210784  	0.001000	0.0399155 	0.001000	0.0412353 	0.001000	0.0412353 	0.001000	0.0346328 	0.001000	0.00528275	
0.002000	0.248273  	0.002000	0.0520345 	0.002000	0.0538373 	0.002000	0.0538373 	0.002000	0.0473098 	0.002000	0.00472475	
0.005000	0.323858  	0.005000	0.0749718 	0.005000	0.0776945 	0.005000	0.0776945 	0.005000	0.0714535 	0.005000	0.00351826	
0.008000	0.376425  	0.008000	0.0911292 	0.008000	0.0944931 	0.008000	0.0944931 	0.008000	0.0882831 	0.008000	0.00284605	
0.010000	0.405109  	0.010000	0.100149  	0.010000	0.103869  	0.010000	0.103869  	0.010000	0.0976084 	0.010000	0.00254106	
0.015000	0.488342  	0.015000	0.117825  	0.015000	0.12364   	0.015000	0.12364   	0.015000	0.115795  	0.015000	0.00203012	
0.020000	0.55659   	0.020000	0.132373  	0.020000	0.140127  	0.020000	0.140127  	0.020000	0.130664  	0.020000	0.00170892	
0.025000	0.613053  	0.025000	0.144651  	0.025000	0.154524  	0.025000	0.154524  	0.025000	0.143166  	0.025000	0.00148543	
0.030000	0.65945   	0.030000	0.155136  	0.030000	0.16332   	0.030000	0.16332   	0.030000	0.153816  	0.030000	0.00131958	
0.035000	0.696916  	0.035000	0.164134  	0.035000	0.170802  	0.035000	0.170802  	0.035000	0.162943  	0.035000	0.00119089	
0.040000	0.726348  	0.040000	0.171865  	0.040000	0.177191  	0.040000	0.177191  	0.040000	0.170777  	0.040000	0.0010877 	
0.045000	0.748553  	0.045000	0.178499  	0.045000	0.18265   	0.045000	0.18265   	0.045000	0.177496  	0.045000	0.00100285	
0.050000	0.764309  	0.050000	0.18417   	0.050000	0.187305  	0.050000	0.187305  	0.050000	0.183238  	0.050000	0.000931679	
0.055000	0.774383  	0.055000	0.188983  	0.055000	0.19125   	0.055000	0.19125   	0.055000	0.188121  	0.055000	0.000862808	
0.060000	0.779528  	0.060000	0.193053  	0.060000	0.194587  	0.060000	0.194587  	0.060000	0.192242  	0.060000	0.000811058	
0.070000	0.777911  	0.070000	0.199259  	0.070000	0.199686  	0.070000	0.199686  	0.070000	0.198534  	0.070000	0.000725792	
0.080000	0.764757  	0.080000	0.203341  	0.080000	0.203054  	0.080000	0.203054  	0.080000	0.202683  	0.080000	0.000658261	
0.090000	0.744427  	0.090000	0.205745  	0.090000	0.205049  	0.090000	0.205049  	0.090000	0.205142  	0.090000	0.000603306	
0.100000	0.720228  	0.100000	0.206829  	0.100000	0.205949  	0.100000	0.205949  	0.100000	0.206271  	0.100000	0.000557615	
0.120000	0.668724  	0.120000	0.206137  	0.120000	0.205326  	0.120000	0.205326  	0.120000	0.205651  	0.120000	0.000485791	
0.140000	0.620423  	0.140000	0.20297   	0.140000	0.202518  	0.140000	0.202518  	0.140000	0.202538  	0.140000	0.000431692	
0.160000	0.578492  	0.160000	0.198421  	0.160000	0.198402  	0.160000	0.198402  	0.160000	0.198032  	0.160000	0.000389327	
0.180000	0.543066  	0.180000	0.193181  	0.180000	0.19356   	0.180000	0.19356   	0.180000	0.192826  	0.180000	0.000355161	
0.200000	0.513258  	0.200000	0.187675  	0.200000	0.188372  	0.200000	0.188372  	0.200000	0.187348  	0.200000	0.000326965	
0.250000	0.456649  	0.250000	0.174171  	0.250000	0.175281  	0.250000	0.175281  	0.250000	0.173897  	0.250000	0.000273974	
0.300000	0.416286  	0.300000	0.162087  	0.300000	0.163218  	0.300000	0.163218  	0.300000	0.16185   	0.300000	0.000236757	
0.350000	0.385293  	0.350000	0.151658  	0.350000	0.152629  	0.350000	0.152629  	0.350000	0.151449  	0.350000	0.000209054	
0.400000	0.36016   	0.400000	0.142704  	0.400000	0.143461  	0.400000	0.143461  	0.400000	0.142517  	0.400000	0.000187561	
0.450000	0.339008  	0.450000	0.134972  	0.450000	0.135524  	0.450000	0.135524  	0.450000	0.134802  	0.450000	0.000170358	
0.500000	0.320752  	0.500000	0.128234  	0.500000	0.128614  	0.500000	0.128614  	0.500000	0.128078  	0.500000	0.00015625	
0.600000	0.290446  	0.600000	0.117042  	0.600000	0.117186  	0.600000	0.117186  	0.600000	0.116907  	0.600000	0.000134431	
0.700000	0.26602   	0.700000	0.108077  	0.700000	0.1081    	0.700000	0.1081    	0.700000	0.107959  	0.700000	0.000118286	
0.800000	0.24576   	0.800000	0.100693  	0.800000	0.100666  	0.800000	0.100666  	0.800000	0.100588  	0.800000	0.00010582	
0.900000	0.228618  	0.900000	0.0944771 	0.900000	0.09444   	0.900000	0.09444   	0.900000	0.0943812 	0.900000	9.58805e-05	
1.000000	0.213891  	1.000000	0.0891515 	1.000000	0.0891257 	1.000000	0.0891257 	1.000000	0.0890637 	1.000000	8.77564e-05	
1.250000	0.184702  	1.250000	0.0786009 	1.250000	0.0786356 	1.250000	0.0786356 	1.250000	0.0785282 	1.250000	7.26856e-05	
1.500000	0.162957  	1.500000	0.0707049 	1.500000	0.070802  	1.500000	0.070802  	1.500000	0.0706426 	1.500000	6.22603e-05	
1.750000	0.146076  	1.750000	0.064526  	1.750000	0.0646721 	1.750000	0.0646721 	1.750000	0.0644714 	1.750000	5.459e-05 	
2.000000	0.132563  	2.000000	0.0595321 	2.000000	0.0597136 	2.000000	0.0597136 	2.000000	0.0594834 	2.000000	4.86939e-05	
2.250000	0.121481  	2.250000	0.0553956 	2.250000	0.0556015 	2.250000	0.0556015 	2.250000	0.0553516 	2.250000	4.40109e-05	
2.500000	0.11173   	2.500000	0.0519023 	2.500000	0.0521244 	2.500000	0.0521244 	2.500000	0.0518621 	2.500000	4.01954e-05	
3.000000	0.0975606 	3.000000	0.046301  	3.000000	0.0465393 	3.000000	0.0465393 	3.000000	0.0462667 	3.000000	3.43406e-05	
3.500000	0.0868065 	3.500000	0.0419831 	3.500000	0.0422245 	3.500000	0.0422245 	3.500000	0.041953  	3.500000	3.00468e-05	
4.000000	0.0783425 	4.000000	0.0385347 	4.000000	0.0387726 	4.000000	0.0387726 	4.000000	0.038508  	4.000000	2.67548e-05	
4.500000	0.0714933 	4.500000	0.035706  	4.500000	0.0359368 	4.500000	0.0359368 	4.500000	0.0356819 	4.500000	2.41458e-05	
5.000000	0.0658281 	5.000000	0.0333363 	5.000000	0.0335584 	5.000000	0.0335584 	5.000000	0.0333143 	5.000000	2.2024e-05	
5.500000	0.0610583 	5.500000	0.0313171 	5.500000	0.0315297 	5.500000	0.0315297 	5.500000	0.0312968 	5.500000	2.02626e-05	
6.000000	0.056983  	6.000000	0.0295723 	6.000000	0.0297753 	6.000000	0.0297753 	6.000000	0.0295535 	6.000000	1.87756e-05	
6.500000	0.0534578 	6.500000	0.0280468 	6.500000	0.0282404 	6.500000	0.0282404 	6.500000	0.0280293 	6.500000	1.75024e-05	
7.000000	0.0503763 	7.000000	0.0266998 	7.000000	0.0268843 	7.000000	0.0268843 	7.000000	0.0266834 	7.000000	1.63993e-05	
7.500000	0.0476579 	7.500000	0.0255001 	7.500000	0.0256759 	7.500000	0.0256759 	7.500000	0.0254847 	7.500000	1.54339e-05	
8.000000	0.0452408 	8.000000	0.0244236 	8.000000	0.0245911 	8.000000	0.0245911 	8.000000	0.024409  	8.000000	1.45813e-05	
8.500000	0.0430766 	8.500000	0.0234512 	8.500000	0.0236109 	8.500000	0.0236109 	8.500000	0.0234374 	8.500000	1.38227e-05	
9.000000	0.0411268 	9.000000	0.0225678 	9.000000	0.0227201 	9.000000	0.0227201 	9.000000	0.0225547 	9.000000	1.3143e-05	
9.500000	0.0393604 	9.500000	0.0217611 	9.500000	0.0219064 	9.500000	0.0219064 	9.500000	0.0217485 	9.500000	1.25304e-05	
10.000000	0.0377522 	10.000000	0.0212167 	10.000000	0.0211597 	10.000000	0.0211597 	10.000000	0.0212047 	10.000000	1.19751e-05	
11.000000	0.0349308 	11.000000	0.020057  	11.000000	0.019887  	11.000000	0.0198873 	11.000000	0.020046  	11.000000	1.10069e-05	
12.000000	0.0325348 	12.000000	0.0190106 	12.000000	0.0187845 	12.000000	0.0187851 	12.000000	0.0190004 	12.000000	1.01904e-05	
13.000000	0.030473  	13.000000	0.0180662 	13.000000	0.0178184 	13.000000	0.0178188 	13.000000	0.0180567 	13.000000	9.49207e-06	
14.000000	0.0286789 	14.000000	0.0172121 	14.000000	0.0169631 	14.000000	0.0169631 	14.000000	0.0172032 	14.000000	8.88762e-06	
15.000000	0.0271027 	15.000000	0.0164373 	15.000000	0.0161989 	15.000000	0.0161989 	15.000000	0.0164289 	15.000000	8.35902e-06	
16.000000	0.0257062 	16.000000	0.0157321 	16.000000	0.0155116 	16.000000	0.0155113 	16.000000	0.0157242 	16.000000	7.89263e-06	
17.000000	0.0244599 	17.000000	0.0150882 	17.000000	0.0148896 	17.000000	0.0148885 	17.000000	0.0150807 	17.000000	7.47791e-06	
18.000000	0.0233404 	18.000000	0.0144982 	18.000000	0.0143227 	18.000000	0.0143212 	18.000000	0.0144911 	18.000000	7.1066e-06	
19.000000	0.0223288 	19.000000	0.0139559 	19.000000	0.0138032 	19.000000	0.0138017 	19.000000	0.0139491 	19.000000	6.77211e-06	
20.000000	0.0214101 	20.000000	0.0134558 	20.000000	0.0133247 	20.000000	0.0133231 	20.000000	0.0134493 	20.000000	6.46914e-06	
21.000000	0.0205717 	21.000000	0.0129932 	21.000000	0.0128833 	21.000000	0.0128816 	21.000000	0.012987  	21.000000	6.19337e-06	
22.000000	0.0198034 	22.000000	0.0125643 	22.000000	0.0124738 	22.000000	0.0124722 	22.000000	0.0125583 	22.000000	5.94123e-06	
23.000000	0.0190966 	23.000000	0.0121654 	23.000000	0.0120928 	23.000000	0.0120912 	23.000000	0.0121597 	23.000000	5.70977e-06	
24.000000	0.018444  	24.000000	0.0117936 	24.000000	0.0117378 	24.000000	0.0117355 	24.000000	0.0117881 	24.000000	5.49651e-06	
25.000000	0.0178395 	25.000000	0.0114461 	25.000000	0.0114058 	25.000000	0.0114025 	25.000000	0.0114408 	25.000000	5.29934e-06	
27.000000	0.0167548 	27.000000	0.0108154 	27.000000	0.0108    	27.000000	0.0107958 	27.000000	0.0108104 	27.000000	4.9464e-06	
29.000000	0.0158086 	29.000000	0.0102578 	29.000000	0.0102604 	29.000000	0.0102563 	29.000000	0.0102531 	29.000000	4.63951e-06	
31.000000	0.0149756 	31.000000	0.00976129	31.000000	0.00977257	31.000000	0.00976846	31.000000	0.00975692	31.000000	4.37008e-06	
33.000000	0.0142362 	33.000000	0.00931633	33.000000	0.00933113	33.000000	0.00932727	33.000000	0.0093122 	33.000000	4.13155e-06	
35.000000	0.0135753 	35.000000	0.00891521	35.000000	0.0089336 	35.000000	0.00893016	35.000000	0.00891129	35.000000	3.91882e-06	
38.000000	0.0127051 	38.000000	0.00838246	38.000000	0.00840792	38.000000	0.00840329	38.000000	0.00837882	38.000000	3.63951e-06	
41.000000	0.0119535 	41.000000	0.00791812	41.000000	0.0079491 	41.000000	0.00794431	41.000000	0.00791472	41.000000	3.39896e-06	
44.000000	0.0112973 	44.000000	0.0075097 	44.000000	0.00754493	44.000000	0.00754055	44.000000	0.00750651	44.000000	3.18951e-06	
47.000000	0.0107192 	47.000000	0.00714759	47.000000	0.00718653	47.000000	0.00718238	47.000000	0.00714458	47.000000	3.00543e-06	
50.000000	0.0102057 	50.000000	0.00682425	50.000000	0.0068662 	50.000000	0.0068623 	50.000000	0.00682141	50.000000	2.8423e-06	
55.000000	0.00946597	55.000000	0.00635584	55.000000	0.00640157	55.000000	0.00639798	55.000000	0.00635323	55.000000	2.60798e-06	
60.000000	0.00884144	60.000000	0.00595805	60.000000	0.00600645	60.000000	0.0060029 	60.000000	0.00595564	60.000000	2.4108e-06	
65.000000	0.00830663	65.000000	0.0056159 	65.000000	0.00566656	65.000000	0.00566236	65.000000	0.00561365	65.000000	2.24247e-06	
70.000000	0.00784316	70.000000	0.00531835	70.000000	0.00536942	70.000000	0.0053656 	70.000000	0.00531625	70.000000	2.097e-06 	
75.000000	0.00743736	75.000000	0.00505714	75.000000	0.00510815	75.000000	0.00510454	75.000000	0.00505517	75.000000	1.96998e-06	
80.000000	0.00707889	80.000000	0.00482593	80.000000	0.00487641	80.000000	0.00487301	80.000000	0.00482408	80.000000	1.85807e-06	
85.000000	0.00675975	85.000000	0.00461979	85.000000	0.0046694 	85.000000	0.00466618	85.000000	0.00461803	85.000000	1.75868e-06	
90.000000	0.00647368	90.000000	0.00443481	90.000000	0.00448334	90.000000	0.00448025	90.000000	0.00443314	90.000000	1.6698e-06	
95.000000	0.00621567	95.000000	0.00426786	95.000000	0.00431583	95.000000	0.00431216	95.000000	0.00426627	95.000000	1.58983e-06	
100.000000	0.0059817 	100.000000	0.0041164 	100.000000	0.00416293	100.000000	0.00415942	100.000000	0.00411489	100.000000	1.51746e-06	
105.000000	0.00576847	105.000000	0.00397836	105.000000	0.00402336	105.000000	0.00402001	105.000000	0.00397691	105.000000	1.45166e-06	
110.000000	0.0055733 	110.000000	0.00385201	110.000000	0.00389546	110.000000	0.00389222	110.000000	0.00385062	110.000000	1.39155e-06	
115.000000	0.00539391	115.000000	0.00373592	115.000000	0.00377777	115.000000	0.00377465	115.000000	0.00373458	115.000000	1.33642e-06	
120.000000	0.00522843	120.000000	0.00362887	120.000000	0.00366912	120.000000	0.00366612	120.000000	0.00362758	120.000000	1.28566e-06	
125.000000	0.00507526	125.000000	0.00352984	125.000000	0.00356851	125.000000	0.0035656 	125.000000	0.0035286 	125.000000	1.23877e-06	
130.000000	0.00493304	130.000000	0.00343796	130.000000	0.00347505	130.000000	0.00347223	130.000000	0.00343676	130.000000	1.19532e-06	
135.000000	0.00480061	135.000000	0.00335247	135.000000	0.00338795	135.000000	0.00338528	135.000000	0.00335131	135.000000	1.15494e-06	
140.000000	0.00467696	140.000000	0.00327272	140.000000	0.00330696	140.000000	0.0033041 	140.000000	0.00327161	140.000000	1.1173e-06	
145.000000	0.00456123	145.000000	0.00319816	145.000000	0.00323125	145.000000	0.00322813	145.000000	0.00319708	145.000000	1.08213e-06	
150.000000	0.00445266	150.000000	0.00312829	150.000000	0.00315991	150.000000	0.00315688	150.000000	0.00312724	150.000000	1.0492e-06	
155.000000	0.00429979	155.000000	0.00306267	155.000000	0.00309284	155.000000	0.00308993	155.000000	0.00306165	155.000000	1.0183e-06	
160.000000	0.00421019	160.000000	0.00300094	160.000000	0.00302975	160.000000	0.00302689	160.000000	0.00299995	160.000000	9.89231e-07	
165.000000	0.00412569	165.000000	0.00294274	165.000000	0.00297023	165.000000	0.00296744	165.000000	0.00294178	165.000000	9.61846e-07	
170.000000	0.00404587	170.000000	0.0028878 	170.000000	0.002914  	170.000000	0.00291128	170.000000	0.00288686	170.000000	9.35997e-07	
175.000000	0.00397035	175.000000	0.00283583	175.000000	0.0028608 	175.000000	0.00285813	175.000000	0.00283492	175.000000	9.11556e-07	
180.000000	0.00389877	180.000000	0.00278661	180.000000	0.00281038	180.000000	0.00280777	180.000000	0.00278573	180.000000	8.88409e-07	
185.000000	0.00383084	185.000000	0.00273993	185.000000	0.00276254	185.000000	0.00275999	185.000000	0.00273906	185.000000	8.66456e-07	
190.000000	0.00376628	190.000000	0.00269558	190.000000	0.00271709	190.000000	0.00271458	190.000000	0.00269474	190.000000	8.45605e-07	
195.000000	0.00370485	195.000000	0.0026534 	195.000000	0.00267382	195.000000	0.00267138	195.000000	0.00265258	195.000000	8.25774e-07	
200.000000	0.00364631	200.000000	0.00261324	200.000000	0.00263261	200.000000	0.00263024	200.000000	0.00261244	200.000000	8.06888e-07	
210.000000	0.00353714	210.000000	0.00253841	210.000000	0.00255619	210.000000	0.00255355	210.000000	0.00253764	210.000000	7.71693e-07	
220.000000	0.00343736	220.000000	0.00247011	220.000000	0.00248616	220.000000	0.00248352	220.000000	0.00246937	220.000000	7.39555e-07	
230.000000	0.00334581	230.000000	0.00240752	230.000000	0.00242187	230.000000	0.00241934	230.000000	0.00240681	230.000000	7.10086e-07	
240.000000	0.00326149	240.000000	0.00234996	240.000000	0.00236277	240.000000	0.00236031	240.000000	0.00234928	240.000000	6.82963e-07	
250.000000	0.00318358	250.000000	0.00229685	250.000000	0.00230823	250.000000	0.00230584	250.000000	0.00229619	250.000000	6.57913e-07	
260.000000	0.00311138	260.000000	0.0022477 	260.000000	0.00225776	260.000000	0.00225543	260.000000	0.00224706	260.000000	6.34705e-07	
270.000000	0.00304427	270.000000	0.00220208	270.000000	0.00221093	270.000000	0.00220866	270.000000	0.00220146	270.000000	6.1314e-07	
280.000000	0.00298174	280.000000	0.00215963	280.000000	0.00216737	280.000000	0.00216515	280.000000	0.00215904	280.000000	5.93046e-07	
290.000000	0.00292333	290.000000	0.00212004	290.000000	0.00212671	290.000000	0.00212458	290.000000	0.00211946	290.000000	5.74278e-07	
300.000000	0.00286866	300.000000	0.00208302	300.000000	0.0020889 	300.000000	0.00208667	300.000000	0.00208247	300.000000	5.56706e-07	
310.000000	0.00281737	310.000000	0.00204835	310.000000	0.00205356	310.000000	0.00205117	310.000000	0.00204781	310.000000	5.40217e-07	
320.000000	0.00276916	320.000000	0.00201581	320.000000	0.00202021	320.000000	0.00201787	320.000000	0.00201529	320.000000	5.24714e-07	
330.000000	0.00272377	330.000000	0.00198521	330.000000	0.00198885	330.000000	0.00198658	330.000000	0.0019847 	330.000000	5.10109e-07	
340.000000	0.00268096	340.000000	0.00195639	340.000000	0.00195936	340.000000	0.00195712	340.000000	0.0019559 	340.000000	4.96326e-07	
350.000000	0.00264051	350.000000	0.00192921	350.000000	0.00193155	350.000000	0.00192935	350.000000	0.00192872	350.000000	4.83296e-07	
360.000000	0.00260225	360.000000	0.00190352	360.000000	0.00190529	360.000000	0.00190313	360.000000	0.00190305	360.000000	4.70959e-07	
370.000000	0.002566  	370.000000	0.00187921	370.000000	0.00188047	370.000000	0.00187834	370.000000	0.00187875	370.000000	4.59259e-07	
380.000000	0.00253161	380.000000	0.00185619	380.000000	0.00185696	380.000000	0.00185488	380.000000	0.00185574	380.000000	4.48148e-07	
390.000000	0.00249895	390.000000	0.00183434	390.000000	0.00183469	390.000000	0.00183263	390.000000	0.0018339 	390.000000	4.37583e-07	
400.000000	0.00246788	400.000000	0.0018136 	400.000000	0.00181354	400.000000	0.00181152	400.000000	0.00181317	400.000000	4.27523e-07	
410.000000	0.00243831	410.000000	0.00179387	410.000000	0.00179346	410.000000	0.00179146	410.000000	0.00179345	410.000000	4.17932e-07	
420.000000	0.00241012	420.000000	0.00177509	420.000000	0.00177437	420.000000	0.00177239	420.000000	0.00177468	420.000000	4.08779e-07	
430.000000	0.00238323	430.000000	0.0017572 	430.000000	0.00175618	430.000000	0.00175423	430.000000	0.0017568 	430.000000	4.00033e-07	
440.000000	0.00235756	440.000000	0.00174014	440.000000	0.00173883	440.000000	0.00173693	440.000000	0.00173975	440.000000	3.91667e-07	
450.000000	0.00233302	450.000000	0.00172385	450.000000	0.00172231	450.000000	0.00172043	450.000000	0.00172346	450.000000	3.83657e-07	
460.000000	0.00230954	460.000000	0.00170828	460.000000	0.00170661	460.000000	0.00170468	460.000000	0.00170791	460.000000	3.75981e-07	
470.000000	0.00228707	470.000000	0.0016934 	470.000000	0.00169165	470.000000	0.00168962	470.000000	0.00169303	470.000000	3.68617e-07	
480.000000	0.00226553	480.000000	0.00167916	480.000000	0.00167731	480.000000	0.00167523	480.000000	0.00167879	480.000000	3.61547e-07	
490.000000	0.00224489	490.000000	0.00166551	490.000000	0.00166353	490.000000	0.00166147	490.000000	0.00166516	490.000000	3.54753e-07	
500.000000	0.00222507	500.000000	0.00165244	500.000000	0.0016503 	500.000000	0.00164828	500.000000	0.00165209	500.000000	3.48219e-07	
520.000000	0.00218778	520.000000	0.00162786	520.000000	0.00162551	520.000000	0.00162353	520.000000	0.00162752	520.000000	3.35874e-07	
540.000000	0.00215331	540.000000	0.00160519	540.000000	0.0016027 	540.000000	0.00160075	540.000000	0.00160486	540.000000	3.24406e-07	
560.000000	0.00212137	560.000000	0.00158423	560.000000	0.00158164	560.000000	0.00157973	560.000000	0.00158391	560.000000	3.13722e-07	
580.000000	0.00209173	580.000000	0.00156481	580.000000	0.00156217	580.000000	0.00156029	580.000000	0.0015645 	580.000000	3.03745e-07	
600.000000	0.00206416	600.000000	0.00154678	600.000000	0.00154412	600.000000	0.00154228	600.000000	0.00154649	600.000000	2.94405e-07	
620.000000	0.00203847	620.000000	0.00153001	620.000000	0.00152737	620.000000	0.00152555	620.000000	0.00152972	620.000000	2.85643e-07	
640.000000	0.00201449	640.000000	0.00151439	640.000000	0.0015118 	640.000000	0.00151   	640.000000	0.00151411	640.000000	2.77406e-07	
660.000000	0.00199208	660.000000	0.00149981	660.000000	0.00149727	660.000000	0.0014955 	660.000000	0.00149954	660.000000	2.69648e-07	
680.000000	0.00197111	680.000000	0.00148618	680.000000	0.00148371	680.000000	0.00148198	680.000000	0.00148592	680.000000	2.62327e-07	
700.000000	0.00195146	700.000000	0.00147343	700.000000	0.00147109	700.000000	0.00146935	700.000000	0.00147318	700.000000	2.55407e-07	
720.000000	0.00193302	720.000000	0.00146149	720.000000	0.00145935	720.000000	0.00145753	720.000000	0.00146124	720.000000	2.48856e-07	
740.000000	0.0019157 	740.000000	0.00145028	740.000000	0.00144834	740.000000	0.00144646	740.000000	0.00145004	740.000000	2.42645e-07	
760.000000	0.00189942	760.000000	0.00143976	760.000000	0.00143795	760.000000	0.00143608	760.000000	0.00143952	760.000000	2.36747e-07	
780.000000	0.0018841 	780.000000	0.00142987	780.000000	0.00142817	780.000000	0.00142633	780.000000	0.00142964	780.000000	2.31139e-07	
800.000000	0.00186968	800.000000	0.00142057	800.000000	0.00141899	800.000000	0.00141717	800.000000	0.00142034	800.000000	2.25801e-07	
820.000000	0.00185609	820.000000	0.00141181	820.000000	0.00141035	820.000000	0.00140855	820.000000	0.00141159	820.000000	2.20712e-07	
840.000000	0.00184327	840.000000	0.00140356	840.000000	0.00140223	840.000000	0.00140044	840.000000	0.00140335	840.000000	2.15855e-07	
860.000000	0.00183118	860.000000	0.00139579	860.000000	0.00139457	860.000000	0.00139279	860.000000	0.00139557	860.000000	2.11216e-07	
880.000000	0.00181977	880.000000	0.00138845	880.000000	0.00138734	880.000000	0.00138558	880.000000	0.00138824	880.000000	2.06778e-07	
900.000000	0.001809  	900.000000	0.00138152	900.000000	0.00138052	900.000000	0.00137878	900.000000	0.00138132	900.000000	2.0253e-07	
920.000000	0.00179882	920.000000	0.00137499	920.000000	0.00137409	920.000000	0.00137235	920.000000	0.00137479	920.000000	1.98459e-07	
940.000000	0.0017892 	940.000000	0.00136881	940.000000	0.001368  	940.000000	0.00136628	940.000000	0.00136862	940.000000	1.94555e-07	
960.000000	0.00178011	960.000000	0.00136298	960.000000	0.00136225	960.000000	0.00136054	960.000000	0.00136278	960.000000	1.90806e-07	
980.000000	0.00177152	980.000000	0.00135746	980.000000	0.0013568 	980.000000	0.00135511	980.000000	0.00135727	980.000000	1.87205e-07	
1000.000000	0.00176339	1000.000000	0.00135224	1000.000000	0.00135165	1000.000000	0.00134996	1000.000000	0.00135206	1000.000000	1.83741e-07	
1020.000000	0.00175571	1020.000000	0.00134731	1020.000000	0.00134677	1020.000000	0.00134509	1020.000000	0.00134713	1020.000000	1.80408e-07	
1040.000000	0.00174845	1040.000000	0.00134265	1040.000000	0.00134214	1040.000000	0.00134048	1040.000000	0.00134247	1040.000000	1.77198e-07	
1060.000000	0.00174159	1060.000000	0.00133824	1060.000000	0.00133776	1060.000000	0.00133611	1060.000000	0.00133806	1060.000000	1.74105e-07	
1080.000000	0.0017351 	1080.000000	0.00133407	1080.000000	0.0013336 	1080.000000	0.00133196	1080.000000	0.0013339 	1080.000000	1.71121e-07	
1100.000000	0.00172897	1100.000000	0.00133012	1100.000000	0.00132966	1100.000000	0.00132802	1100.000000	0.00132995	1100.000000	1.68241e-07	
1120.000000	0.00172318	1120.000000	0.00132639	1120.000000	0.00132598	1120.000000	0.00132435	1120.000000	0.00132623	1120.000000	1.65461e-07	
1140.000000	0.00171771	1140.000000	0.00132286	1140.000000	0.00132251	1140.000000	0.00132088	1140.000000	0.0013227 	1140.000000	1.62774e-07	
1160.000000	0.00171255	1160.000000	0.00131953	1160.000000	0.00131921	1160.000000	0.00131759	1160.000000	0.00131937	1160.000000	1.60175e-07	
1180.000000	0.00170768	1180.000000	0.00131638	1180.000000	0.00131608	1180.000000	0.00131447	1180.000000	0.00131622	1180.000000	1.57662e-07	
1200.000000	0.00170309	1200.000000	0.0013134 	1200.000000	0.00131311	1200.000000	0.00131151	1200.000000	0.00131325	1200.000000	1.55229e-07	
1220.000000	0.00169876	1220.000000	0.0013106 	1220.000000	0.00131029	1220.000000	0.0013087 	1220.000000	0.00131044	1220.000000	1.52872e-07	
1240.000000	0.00169469	1240.000000	0.00130794	1240.000000	0.00130761	1240.000000	0.00130603	1240.000000	0.00130779	1240.000000	1.50589e-07	
1260.000000	0.00169086	1260.000000	0.00130544	1260.000000	0.00130506	1260.000000	0.0013035 	1260.000000	0.00130529	1260.000000	1.48375e-07	
1280.000000	0.00168726	1280.000000	0.00130309	1280.000000	0.00130266	1280.000000	0.0013011 	1280.000000	0.00130294	1280.000000	1.46228e-07	
1300.000000	0.00168389	1300.000000	0.00130087	1300.000000	0.00130038	1300.000000	0.00129882	1300.000000	0.00130072	1300.000000	1.44144e-07	
1320.000000	0.00168072	1320.000000	0.00129878	1320.000000	0.00129823	1320.000000	0.00129666	1320.000000	0.00129864	1320.000000	1.4212e-07	
1340.000000	0.00167776	1340.000000	0.00129682	1340.000000	0.0012962 	1340.000000	0.00129462	1340.000000	0.00129668	1340.000000	1.40155e-07	
1360.000000	0.001675  	1360.000000	0.00129498	1360.000000	0.00129427	1360.000000	0.00129267	1360.000000	0.00129484	1360.000000	1.38245e-07	
1380.000000	0.00167242	1380.000000	0.00129325	1380.000000	0.00129245	1380.000000	0.00129083	1380.000000	0.00129311	1380.000000	1.36389e-07	
1400.000000	0.00167003	1400.000000	0.00129163	1400.000000	0.00129073	1400.000000	0.00128908	1400.000000	0.0012915 	1400.000000	1.34583e-07	
1420.000000	0.0016678 	1420.000000	0.00129012	1420.000000	0.00128909	1420.000000	0.00128743	1420.000000	0.00128999	1420.000000	1.32826e-07	
1440.000000	0.00166575	1440.000000	0.00128871	1440.000000	0.00128754	1440.000000	0.00128586	1440.000000	0.00128858	1440.000000	1.31117e-07	
1460.000000	0.00166385	1460.000000	0.00128739	1460.000000	0.00128606	1460.000000	0.00128438	1460.000000	0.00128727	1460.000000	1.29452e-07	
1480.000000	0.00166211	1480.000000	0.00128617	1480.000000	0.00128466	1480.000000	0.00128297	1480.000000	0.00128605	1480.000000	1.2783e-07	
1500.000000	0.00166051	1500.000000	0.00128504	1500.000000	0.00128333	1500.000000	0.00128164	1500.000000	0.00128492	1500.000000	1.2625e-07	
1520.000000	0.00165906	1520.000000	0.001284  	1520.000000	0.00128207	1520.000000	0.00128039	1520.000000	0.00128387	1520.000000	1.2471e-07	
1540.000000	0.00165774	1540.000000	0.00128304	1540.000000	0.00128087	1540.000000	0.0012792 	1540.000000	0.00128291	1540.000000	1.23208e-07	
1560.000000	0.00165656	1560.000000	0.00128216	1560.000000	0.00127974	1560.000000	0.00127808	1560.000000	0.00128203	1560.000000	1.21744e-07	
1580.000000	0.00165551	1580.000000	0.00128135	1580.000000	0.00127868	1580.000000	0.00127702	1580.000000	0.00128123	1580.000000	1.20315e-07	
1600.000000	0.00165458	1600.000000	0.00128062	1600.000000	0.00127767	1600.000000	0.00127603	1600.000000	0.0012805 	1600.000000	1.1892e-07	
1620.000000	0.00165377	1620.000000	0.00127996	1620.000000	0.00127673	1620.000000	0.00127509	1620.000000	0.00127984	1620.000000	1.17558e-07	
1640.000000	0.00165308	1640.000000	0.00127937	1640.000000	0.00127584	1640.000000	0.00127421	1640.000000	0.00127925	1640.000000	1.16229e-07	
1660.000000	0.0016525 	1660.000000	0.00127884	1660.000000	0.00127501	1660.000000	0.00127338	1660.000000	0.00127872	1660.000000	1.1493e-07	
1680.000000	0.00165202	1680.000000	0.00127838	1680.000000	0.00127423	1680.000000	0.0012726 	1680.000000	0.00127826	1680.000000	1.13661e-07	
1700.000000	0.00165165	1700.000000	0.00127798	1700.000000	0.0012735 	1700.000000	0.00127187	1700.000000	0.00127786	1700.000000	1.1242e-07	
1750.000000	0.00165117	1750.000000	0.00127723	1750.000000	0.00127187	1750.000000	0.00127025	1750.000000	0.00127712	1750.000000	1.09438e-07	
1800.000000	0.00165126	1800.000000	0.00127682	1800.000000	0.00127051	1800.000000	0.0012689 	1800.000000	0.00127672	1800.000000	1.06616e-07	
1850.000000	0.00165191	1850.000000	0.00127673	1850.000000	0.00126939	1850.000000	0.00126779	1850.000000	0.00127663	1850.000000	1.0394e-07	
1900.000000	0.00165305	1900.000000	0.00127693	1900.000000	0.00126849	1900.000000	0.00126689	1900.000000	0.00127683	1900.000000	1.014e-07 	
1950.000000	0.00165467	1950.000000	0.00127739	1950.000000	0.00126778	1950.000000	0.00126619	1950.000000	0.00127729	1950.000000	9.8985e-08	
2000.000000	0.00165672	2000.000000	0.0012781 	2000.000000	0.00126725	2000.000000	0.00126567	2000.000000	0.001278  	2000.000000	9.66863e-08	
2100.000000	0.00166202	2100.000000	0.00128019	2100.000000	0.00126667	2100.000000	0.0012651 	2100.000000	0.0012801 	2100.000000	9.2405e-08	
2200.000000	0.00166877	2200.000000	0.00128307	2200.000000	0.00126663	2200.000000	0.00126507	2200.000000	0.00128299	2200.000000	8.84986e-08	
2300.000000	0.00167679	2300.000000	0.00128665	2300.000000	0.00126704	2300.000000	0.00126549	2300.000000	0.00128656	2300.000000	8.49194e-08	
2400.000000	0.00168594	2400.000000	0.00129082	2400.000000	0.00126783	2400.000000	0.00126629	2400.000000	0.00129074	2400.000000	8.16275e-08	
2500.000000	0.0016961 	2500.000000	0.00129552	2500.000000	0.00126893	2500.000000	0.00126739	2500.000000	0.00129544	2500.000000	7.85893e-08	
2600.000000	0.00170719	2600.000000	0.0013007 	2600.000000	0.0012703 	2600.000000	0.00126877	2600.000000	0.00130062	2600.000000	7.57762e-08	
2700.000000	0.0017191 	2700.000000	0.00130628	2700.000000	0.00127188	2700.000000	0.00127036	2700.000000	0.00130621	2700.000000	7.31639e-08	
2800.000000	0.00173177	2800.000000	0.00131224	2800.000000	0.00127366	2800.000000	0.00127214	2800.000000	0.00131217	2800.000000	7.07314e-08	
2900.000000	0.00174513	2900.000000	0.00131853	2900.000000	0.00127559	2900.000000	0.00127407	2900.000000	0.00131846	2900.000000	6.84605e-08	
3000.000000	0.00175913	3000.000000	0.00132512	3000.000000	0.00127765	3000.000000	0.00127614	3000.000000	0.00132505	3000.000000	6.63355e-08	
3200.000000	0.00178884	3200.000000	0.00133908	3200.000000	0.00128207	3200.000000	0.00128057	3200.000000	0.00133901	3200.000000	6.24698e-08	
3400.000000	0.00182058	3400.000000	0.00135391	3400.000000	0.0012868 	3400.000000	0.00128531	3400.000000	0.00135385	3400.000000	5.90429e-08	
3600.000000	0.00185409	3600.000000	0.00136948	3600.000000	0.00129173	3600.000000	0.00129025	3600.000000	0.00136942	3600.000000	5.59833e-08	
3800.000000	0.00188917	3800.000000	0.00138565	3800.000000	0.00129679	3800.000000	0.00129531	3800.000000	0.0013856 	3800.000000	5.32345e-08	
4000.000000	0.00192565	4000.000000	0.00140234	4000.000000	0.00130192	4000.000000	0.00130045	4000.000000	0.00140229	4000.000000	5.0751e-08	
4200.000000	0.0019634 	4200.000000	0.00141947	4200.000000	0.00130708	4200.000000	0.00130561	4200.000000	0.00141942	4200.000000	4.84957e-08	
4400.000000	0.00200231	4400.000000	0.00143697	4400.000000	0.00131225	4400.000000	0.00131078	4400.000000	0.00143692	4400.000000	4.64383e-08	
4600.000000	0.00204228	4600.000000	0.00145479	4600.000000	0.00131738	4600.000000	0.00131592	4600.000000	0.00145474	4600.000000	4.45535e-08	
4800.000000	0.00208325	4800.000000	0.00147288	4800.000000	0.00132248	4800.000000	0.00132102	4800.000000	0.00147284	4800.000000	4.28203e-08	
5000.000000	0.00212513	5000.000000	0.00149122	5000.000000	0.00132752	5000.000000	0.00132606	5000.000000	0.00149118	5000.000000	4.12209e-08	
5250.000000	0.00217871	5250.000000	0.00151443	5250.000000	0.00133373	5250.000000	0.00133228	5250.000000	0.00151439	5250.000000	3.93872e-08	
5500.000000	0.00223354	5500.000000	0.00153792	5500.000000	0.00133983	5500.000000	0.00133838	5500.000000	0.00153788	5500.000000	3.77144e-08	
6000.000000	0.00234673	6000.000000	0.00158557	6000.000000	0.00135167	6000.000000	0.00135022	6000.000000	0.00158553	6000.000000	3.4773e-08	
6500.000000	0.00246421	6500.000000	0.00163391	6500.000000	0.00136299	6500.000000	0.00136154	6500.000000	0.00163388	6500.000000	3.22693e-08	
7000.000000	0.00258565	7000.000000	0.00168278	7000.000000	0.0013738 	7000.000000	0.00137235	7000.000000	0.00168275	7000.000000	3.01114e-08	
7500.000000	0.0027108 	7500.000000	0.00173203	7500.000000	0.00138411	7500.000000	0.00138267	7500.000000	0.001732  	7500.000000	2.82318e-08	
8000.000000	0.00283946	8000.000000	0.00178157	8000.000000	0.00139395	8000.000000	0.00139251	8000.000000	0.00178154	8000.000000	2.65794e-08	
8500.000000	0.0029715 	8500.000000	0.00183133	8500.000000	0.00140334	8500.000000	0.00140191	8500.000000	0.00183131	8500.000000	2.5115e-08	
9000.000000	0.00310679	9000.000000	0.00188126	9000.000000	0.00141231	9000.000000	0.00141088	9000.000000	0.00188124	9000.000000	2.3808e-08	
9500.000000	0.00324525	9500.000000	0.00193131	9500.000000	0.0014209 	9500.000000	0.00141947	9500.000000	0.00193129	9500.000000	2.2634e-08	
10000.000000	0.0033868 	10000.000000	0.00198145	10000.000000	0.00142912	10000.000000	0.00142768	10000.000000	0.00198143	10000.000000	2.15736e-08	
11000.000000	0.00367897	11000.000000	0.0020819 	11000.000000	0.00144455	11000.000000	0.00144312	11000.000000	0.00208188	11000.000000	1.97328e-08	
12000.000000	0.00398296	12000.000000	0.00218246	12000.000000	0.00145876	12000.000000	0.00145737	12000.000000	0.00218244	12000.000000	1.81891e-08	
13000.000000	0.00429854	13000.000000	0.00228303	13000.000000	0.00147193	13000.000000	0.00147057	13000.000000	0.00228301	13000.000000	1.68755e-08	
14000.000000	0.00462557	14000.000000	0.00238355	14000.000000	0.0014842 	14000.000000	0.00148287	14000.000000	0.00238353	14000.000000	1.57437e-08	
15000.000000	0.00496393	15000.000000	0.00248397	15000.000000	0.00149568	15000.000000	0.00149435	15000.000000	0.00248395	15000.000000	1.4758e-08	
16000.000000	0.00531356	16000.000000	0.00258426	16000.000000	0.00150644	16000.000000	0.00150512	16000.000000	0.00258425	16000.000000	1.38917e-08	
17000.000000	0.00567442	17000.000000	0.00268442	17000.000000	0.00151656	17000.000000	0.00151526	17000.000000	0.0026844 	17000.000000	1.31241e-08	
18000.000000	0.00604651	18000.000000	0.00278442	18000.000000	0.00152611	18000.000000	0.00152482	18000.000000	0.0027844 	18000.000000	1.24391e-08	
19000.000000	0.0064298 	19000.000000	0.00288425	19000.000000	0.00153514	19000.000000	0.00153387	19000.000000	0.00288424	19000.000000	1.18239e-08	
20000.000000	0.0068243 	20000.000000	0.00298393	20000.000000	0.0015437 	20000.000000	0.00154245	20000.000000	0.00298391	20000.000000	1.12684e-08	
21000.000000	0.00723004	21000.000000	0.00308343	21000.000000	0.00155181	21000.000000	0.0015506 	21000.000000	0.00308342	21000.000000	1.07641e-08	
22000.000000	0.00764704	22000.000000	0.00318276	22000.000000	0.00155951	22000.000000	0.00155837	22000.000000	0.00318275	22000.000000	1.03042e-08	
23000.000000	0.00807532	23000.000000	0.00328193	23000.000000	0.00156691	23000.000000	0.00156579	23000.000000	0.00328192	23000.000000	9.88302e-09	
24000.000000	0.00851492	24000.000000	0.00338093	24000.000000	0.001574  	24000.000000	0.00157288	24000.000000	0.00338092	24000.000000	9.49587e-09	
25000.000000	0.00896588	25000.000000	0.00347977	25000.000000	0.00158074	25000.000000	0.00157967	25000.000000	0.00347976	25000.000000	9.13872e-09	
26000.000000	0.00942823	26000.000000	0.00357845	26000.000000	0.00158722	26000.000000	0.00158619	26000.000000	0.00357844	26000.000000	8.8082e-09	
27000.000000	0.00990203	27000.000000	0.00367697	27000.000000	0.00159349	27000.000000	0.00159245	27000.000000	0.00367696	27000.000000	8.50139e-09	
28000.000000	0.0103873 	28000.000000	0.00377534	28000.000000	0.00159952	28000.000000	0.00159847	28000.000000	0.00377533	28000.000000	8.21582e-09	
29000.000000	0.0108842 	29000.000000	0.00387355	29000.000000	0.00160529	29000.000000	0.00160428	29000.000000	0.00387355	29000.000000	7.94933e-09	
30000.000000	0.0113926 	30000.000000	0.00397162	30000.000000	0.00161082	30000.000000	0.00160987	30000.000000	0.00397161	30000.000000	7.70005e-09	
32000.000000	0.0124444 	32000.000000	0.00416733	32000.000000	0.00162131	32000.000000	0.0016205 	32000.000000	0.00416732	32000.000000	7.24682e-09	
34000.000000	0.0135433 	34000.000000	0.00436248	34000.000000	0.00163116	34000.000000	0.00163044	34000.000000	0.00436247	34000.000000	6.84531e-09	
36000.000000	0.0146896 	36000.000000	0.0045571 	36000.000000	0.00164043	36000.000000	0.00163978	36000.000000	0.00455709	36000.000000	6.48708e-09	
38000.000000	0.0158839 	38000.000000	0.00475121	38000.000000	0.00164916	38000.000000	0.00164859	38000.000000	0.00475121	38000.000000	6.16543e-09	
40000.000000	0.0171266 	40000.000000	0.00494485	40000.000000	0.00165741	40000.000000	0.00165692	40000.000000	0.00494484	40000.000000	5.87497e-09	
42000.000000	0.0184183 	42000.000000	0.00513802	42000.000000	0.00166523	42000.000000	0.00166481	42000.000000	0.00513801	42000.000000	5.61135e-09	
44000.000000	0.0197595 	44000.000000	0.00533075	44000.000000	0.00167266	44000.000000	0.00167231	44000.000000	0.00533074	44000.000000	5.37098e-09	
46000.000000	0.0211505 	46000.000000	0.00552306	46000.000000	0.00167974	46000.000000	0.00167945	46000.000000	0.00552305	46000.000000	5.15089e-09	
48000.000000	0.0225921 	48000.000000	0.00571496	48000.000000	0.00168649	48000.000000	0.00168627	48000.000000	0.00571495	48000.000000	4.94859e-09	
50000.000000	0.0240847 	50000.000000	0.00590646	50000.000000	0.00169293	50000.000000	0.00169279	50000.000000	0.00590646	50000.000000	4.76199e-09	
