Energy (MeV/u)1	0 - [He-base] F.Hubert et al, AD&ND Tables 46(1990)1	Energy (MeV/u)2	1 - [H -base] J.F.Ziegler et al, Pergamon Press, NY (low energy)	Energy (MeV/u)3	2 - ATIMA 1.2  LS-theory (recommended for high energy)	Energy (MeV/u)4	3 - ATIMA 1.2  without LS-correction	Energy (MeV/u)5	4 - electrical component of [1] - J.F.Ziegler et al	Energy (MeV/u)6	5 - nuclear component of [1] - J.F.Ziegler et al	
0.001000	5.77745   	0.001000	7.4412    	0.001000	7.55654   	0.001000	7.55654   	0.001000	2.26541   	0.001000	5.17579   	
0.002000	5.81175   	0.002000	7.45772   	0.002000	7.65973   	0.002000	7.65973   	0.002000	2.93788   	0.002000	4.51984   	
0.005000	5.99486   	0.005000	7.41031   	0.005000	7.81181   	0.005000	7.81181   	0.005000	4.14249   	0.005000	3.26782   	
0.008000	6.29698   	0.008000	7.55111   	0.008000	8.11214   	0.008000	8.11214   	0.008000	4.9409    	0.008000	2.61021   	
0.010000	6.51161   	0.010000	7.69028   	0.010000	8.34565   	0.010000	8.34565   	0.010000	5.37214   	0.010000	2.31814   	
0.015000	7.3569    	0.015000	8.24752   	0.015000	8.99478   	0.015000	8.99478   	0.015000	6.41126   	0.015000	1.83626   	
0.020000	8.16941   	0.020000	8.98574   	0.020000	9.85823   	0.020000	9.85823   	0.020000	7.44809   	0.020000	1.53765   	
0.025000	9.13777   	0.025000	9.93168   	0.025000	10.7964   	0.025000	10.7964   	0.025000	8.6       	0.025000	1.33169   	
0.030000	10.0278   	0.030000	10.8997   	0.030000	11.8545   	0.030000	11.8545   	0.030000	9.71988   	0.030000	1.17977   	
0.035000	10.8131   	0.035000	11.8694   	0.035000	12.9174   	0.035000	12.9174   	0.035000	10.807    	0.035000	1.06243   	
0.040000	11.4927   	0.040000	12.828    	0.040000	13.9719   	0.040000	13.9719   	0.040000	11.8594   	0.040000	0.968673  	
0.045000	12.0534   	0.045000	13.762    	0.045000	15.0048   	0.045000	15.0048   	0.045000	12.8749   	0.045000	0.887135  	
0.050000	12.4939   	0.050000	14.6747   	0.050000	16.0195   	0.050000	16.0195   	0.050000	13.8515   	0.050000	0.82323   	
0.055000	13.2077   	0.055000	15.6767   	0.055000	17.0063   	0.055000	17.0063   	0.055000	14.9079   	0.055000	0.768826  	
0.060000	13.8509   	0.060000	16.6551   	0.060000	17.9593   	0.060000	17.9593   	0.060000	15.9361   	0.060000	0.718989  	
0.070000	14.9323   	0.070000	18.5426   	0.070000	19.7697   	0.070000	19.7697   	0.070000	17.9003   	0.070000	0.642283  	
0.080000	16.0824   	0.080000	20.2929   	0.080000	21.4367   	0.080000	21.4367   	0.080000	19.7112   	0.080000	0.58171   	
0.090000	17.0566   	0.090000	21.9118   	0.090000	22.9575   	0.090000	22.9575   	0.090000	21.3793   	0.090000	0.532531  	
0.100000	17.8911   	0.100000	23.3946   	0.100000	24.3348   	0.100000	24.3348   	0.100000	22.9029   	0.100000	0.49172   	
0.120000	18.8191   	0.120000	26.0073   	0.120000	26.6849   	0.120000	26.6849   	0.120000	25.5796   	0.120000	0.42771   	
0.140000	19.5443   	0.140000	28.1552   	0.140000	28.5562   	0.140000	28.5562   	0.140000	27.7756   	0.140000	0.379612  	
0.160000	20.2084   	0.160000	29.9236   	0.160000	30.0291   	0.160000	30.0291   	0.160000	29.5816   	0.160000	0.342017  	
0.180000	20.8424   	0.180000	31.3251   	0.180000	31.1803   	0.180000	31.1803   	0.180000	31.0134   	0.180000	0.311742  	
0.200000	21.4757   	0.200000	32.4323   	0.200000	32.0774   	0.200000	32.0774   	0.200000	32.1455   	0.200000	0.28679   	
0.250000	22.3618   	0.250000	34.1107   	0.250000	33.5504   	0.250000	33.5504   	0.250000	33.8707   	0.250000	0.239973  	
0.300000	23.5113   	0.300000	35.4688   	0.300000	34.3645   	0.300000	34.3645   	0.300000	35.2616   	0.300000	0.207154  	
0.350000	24.5839   	0.350000	36.471    	0.350000	34.8437   	0.350000	34.8437   	0.350000	36.2882   	0.350000	0.182762  	
0.400000	25.4764   	0.400000	37.1743   	0.400000	35.5491   	0.400000	35.5491   	0.400000	37.0104   	0.400000	0.163859  	
0.450000	26.2089   	0.450000	37.716    	0.450000	37.2046   	0.450000	37.2046   	0.450000	37.5672   	0.450000	0.148744  	
0.500000	26.9918   	0.500000	38.4242   	0.500000	38.12     	0.500000	38.12     	0.500000	38.2879   	0.500000	0.136358  	
0.600000	27.5028   	0.600000	39.0169   	0.600000	38.6068   	0.600000	38.6068   	0.600000	38.8997   	0.600000	0.11722   	
0.700000	27.4363   	0.700000	39.2086   	0.700000	38.8321   	0.700000	38.8321   	0.700000	39.1055   	0.700000	0.103075  	
0.800000	28.0692   	0.800000	39.1769   	0.800000	38.8868   	0.800000	38.8868   	0.800000	39.0847   	0.800000	0.0921621 	
0.900000	28.319    	0.900000	38.771    	0.900000	38.8202   	0.900000	38.8202   	0.900000	38.6875   	0.900000	0.0834674 	
1.000000	28.3922   	1.000000	38.2376   	1.000000	38.6639   	1.000000	38.6639   	1.000000	38.1612   	1.000000	0.0763649 	
1.250000	28.1009   	1.250000	37.7111   	1.250000	38.014    	1.250000	38.014    	1.250000	37.6479   	1.250000	0.0632001 	
1.500000	27.3459   	1.500000	36.7943   	1.500000	36.9824   	1.500000	36.9824   	1.500000	36.7402   	1.500000	0.0541022 	
1.750000	26.3874   	1.750000	35.6983   	1.750000	35.788    	1.750000	35.788    	1.750000	35.6509   	1.750000	0.0474136 	
2.000000	25.3487   	2.000000	34.5329   	2.000000	34.6665   	2.000000	34.6665   	2.000000	34.4907   	2.000000	0.0422754 	
2.250000	24.4212   	2.250000	33.2481   	2.250000	33.61     	2.250000	33.61     	2.250000	33.2099   	2.250000	0.0381963 	
2.500000	26.9801   	2.500000	31.9709   	2.500000	32.6133   	2.500000	32.6133   	2.500000	31.9361   	2.500000	0.0348744 	
3.000000	25.1836   	3.000000	29.7642   	3.000000	30.7828   	3.000000	30.7828   	3.000000	29.7344   	3.000000	0.0297797 	
3.500000	23.5776   	3.500000	28.0888   	3.500000	29.1452   	3.500000	29.1452   	3.500000	28.0628   	3.500000	0.0260456 	
4.000000	22.1535   	4.000000	26.6411   	4.000000	27.6742   	4.000000	27.6742   	4.000000	26.6179   	4.000000	0.0231842 	
4.500000	20.8907   	4.500000	25.3459   	4.500000	26.347    	4.500000	26.347    	4.500000	25.325    	4.500000	0.0209173 	
5.000000	19.767    	5.000000	24.1725   	5.000000	25.1442   	5.000000	25.1442   	5.000000	24.1534   	5.000000	0.0190744 	
5.500000	18.7625   	5.500000	23.1257   	5.500000	24.0493   	5.500000	24.0493   	5.500000	23.1082   	5.500000	0.017545  	
6.000000	17.8602   	6.000000	22.1663   	6.000000	23.0485   	6.000000	23.0485   	6.000000	22.15     	6.000000	0.0162542 	
6.500000	17.0456   	6.500000	21.2835   	6.500000	22.1301   	6.500000	22.1301   	6.500000	21.2683   	6.500000	0.0151493 	
7.000000	16.3067   	7.000000	20.4684   	7.000000	21.2844   	7.000000	21.2844   	7.000000	20.4542   	7.000000	0.0141922 	
7.500000	15.6336   	7.500000	19.714    	7.500000	20.5028   	7.500000	20.5028   	7.500000	19.7006   	7.500000	0.0133547 	
8.000000	15.0178   	8.000000	19.0138   	8.000000	19.7784   	8.000000	19.7784   	8.000000	19.0012   	8.000000	0.0126153 	
8.500000	14.4524   	8.500000	18.3623   	8.500000	19.1049   	8.500000	19.1049   	8.500000	18.3503   	8.500000	0.0119575 	
9.000000	13.9312   	9.000000	17.7546   	9.000000	18.4772   	9.000000	18.4772   	9.000000	17.7432   	9.000000	0.0113682 	
9.500000	13.4493   	9.500000	17.1865   	9.500000	17.8906   	9.500000	17.8906   	9.500000	17.1757   	9.500000	0.0108371 	
10.000000	13.0024   	10.000000	16.8872   	10.000000	17.3411   	10.000000	17.3411   	10.000000	16.8768   	10.000000	0.0103558 	
11.000000	12.199    	11.000000	15.9776   	11.000000	16.2829   	11.000000	16.3623   	11.000000	15.9681   	11.000000	0.00951667	
12.000000	11.497    	12.000000	15.1624   	12.000000	15.3518   	12.000000	15.4911   	12.000000	15.1535   	12.000000	0.00880925	
13.000000	10.878    	13.000000	14.4281   	13.000000	14.5266   	13.000000	14.7112   	13.000000	14.4199   	13.000000	0.00820433	
14.000000	10.3279   	14.000000	13.7638   	14.000000	13.7903   	14.000000	14.009    	14.000000	13.7561   	14.000000	0.00768082	
15.000000	9.83564   	15.000000	13.1601   	15.000000	13.1292   	15.000000	13.3738   	15.000000	13.1529   	15.000000	0.00722308	
16.000000	9.39241   	16.000000	12.6093   	16.000000	12.5327   	16.000000	12.7967   	16.000000	12.6025   	16.000000	0.00681928	
17.000000	8.9911    	17.000000	12.1047   	17.000000	11.9919   	17.000000	12.2701   	17.000000	12.0983   	17.000000	0.00646026	
18.000000	8.62594   	18.000000	11.641    	18.000000	11.4998   	18.000000	11.7881   	18.000000	11.6348   	18.000000	0.00613886	
19.000000	8.29218   	19.000000	11.2132   	19.000000	11.0502   	19.000000	11.3452   	19.000000	11.2074   	19.000000	0.00584936	
20.000000	7.98585   	20.000000	10.8175   	20.000000	10.638    	20.000000	10.9372   	20.000000	10.812    	20.000000	0.00558718	
21.000000	7.70366   	21.000000	10.4504   	21.000000	10.2589   	21.000000	10.5602   	21.000000	10.4451   	21.000000	0.00534857	
22.000000	7.44281   	22.000000	10.109    	22.000000	9.90923   	22.000000	10.211    	22.000000	10.1038   	22.000000	0.00513042	
23.000000	7.20092   	23.000000	9.7905    	23.000000	9.58581   	23.000000	9.88677   	23.000000	9.78557   	23.000000	0.00493018	
24.000000	6.97596   	24.000000	9.49283   	24.000000	9.2858    	24.000000	9.58513   	24.000000	9.48808   	24.000000	0.0047457 	
25.000000	6.76619   	25.000000	9.21398   	25.000000	9.00701   	25.000000	9.30392   	25.000000	9.20941   	25.000000	0.00457516	
27.000000	6.38633   	27.000000	8.70605   	27.000000	8.50637   	27.000000	8.79555   	27.000000	8.70178   	27.000000	0.00426992	
29.000000	6.05141   	29.000000	8.25517   	29.000000	8.06963   	29.000000	8.34922   	29.000000	8.25117   	29.000000	0.00400454	
31.000000	5.75376   	31.000000	7.85226   	31.000000	7.68529   	31.000000	7.9422    	31.000000	7.84849   	31.000000	0.00377159	
33.000000	5.48739   	33.000000	7.49006   	33.000000	7.34068   	33.000000	7.56608   	33.000000	7.48649   	33.000000	0.00356538	
35.000000	5.24754   	35.000000	7.16269   	35.000000	7.02882   	35.000000	7.22714   	35.000000	7.15931   	35.000000	0.0033815 	
38.000000	4.92928   	38.000000	6.72671   	38.000000	6.61292   	38.000000	6.7772    	38.000000	6.72357   	38.000000	0.0031401 	
41.000000	4.65209   	41.000000	6.3457    	41.000000	6.24811   	41.000000	6.3853    	41.000000	6.34277   	41.000000	0.00293222	
44.000000	4.40837   	44.000000	6.0099    	44.000000	5.92492   	44.000000	6.04088   	44.000000	6.00714   	44.000000	0.00275125	
47.000000	4.19231   	47.000000	5.71169   	47.000000	5.63777   	47.000000	5.73576   	47.000000	5.7091    	47.000000	0.00259221	
50.000000	3.99937   	50.000000	5.4451    	50.000000	5.38086   	50.000000	5.46358   	50.000000	5.44265   	50.000000	0.0024513 	
55.000000	3.71976   	55.000000	5.0585    	55.000000	5.00716   	55.000000	5.06978   	55.000000	5.05625   	55.000000	0.00224892	
60.000000	3.48215   	60.000000	4.72993   	60.000000	4.68848   	60.000000	4.73591   	60.000000	4.72785   	60.000000	0.00207863	
65.000000	3.27758   	65.000000	4.44723   	65.000000	4.41368   	65.000000	4.44922   	65.000000	4.4453    	65.000000	0.00193328	
70.000000	3.09949   	70.000000	4.2014    	70.000000	4.17439   	70.000000	4.20032   	70.000000	4.19959   	70.000000	0.00180769	
75.000000	2.94296   	75.000000	3.98566   	75.000000	3.96359   	75.000000	3.98218   	75.000000	3.98396   	75.000000	0.00169804	
80.000000	2.80422   	80.000000	3.79479   	80.000000	3.77702   	80.000000	3.7894    	80.000000	3.79319   	80.000000	0.00160144	
85.000000	2.68035   	85.000000	3.62472   	85.000000	3.61029   	85.000000	3.61777   	85.000000	3.6232    	85.000000	0.00151566	
90.000000	2.56904   	90.000000	3.47221   	90.000000	3.46075   	90.000000	3.46399   	90.000000	3.47077   	90.000000	0.00143896	
95.000000	2.46842   	95.000000	3.33466   	95.000000	3.32585   	95.000000	3.32539   	95.000000	3.33329   	95.000000	0.00136995	
100.000000	2.377     	100.000000	3.20998   	100.000000	3.20318   	100.000000	3.19983   	100.000000	3.20867   	100.000000	0.00130751	
105.000000	2.29354   	105.000000	3.09643   	105.000000	3.09146   	105.000000	3.08553   	105.000000	3.09518   	105.000000	0.00125073	
110.000000	2.21703   	110.000000	2.99258   	110.000000	2.98899   	110.000000	2.98104   	110.000000	2.99138   	110.000000	0.00119888	
115.000000	2.1466    	115.000000	2.89724   	115.000000	2.89483   	115.000000	2.88514   	115.000000	2.89608   	115.000000	0.00115132	
120.000000	2.08156   	120.000000	2.80939   	120.000000	2.80808   	120.000000	2.79682   	120.000000	2.80828   	120.000000	0.00110753	
125.000000	2.02129   	125.000000	2.72818   	125.000000	2.72789   	125.000000	2.71521   	125.000000	2.72712   	125.000000	0.00106709	
130.000000	1.96526   	130.000000	2.65289   	130.000000	2.65352   	130.000000	2.63956   	130.000000	2.65186   	130.000000	0.00102961	
135.000000	1.91305   	135.000000	2.58289   	135.000000	2.58413   	135.000000	2.56925   	135.000000	2.5819    	135.000000	0.000994777	
140.000000	1.86425   	140.000000	2.51764   	140.000000	2.51957   	140.000000	2.50373   	140.000000	2.51668   	140.000000	0.000962317	
145.000000	1.81854   	145.000000	2.45667   	145.000000	2.45934   	145.000000	2.44252   	145.000000	2.45574   	145.000000	0.000931991	
150.000000	1.77564   	150.000000	2.39957   	150.000000	2.40274   	150.000000	2.38521   	150.000000	2.39867   	150.000000	0.000903594	
155.000000	1.71501   	155.000000	2.34599   	155.000000	2.34943   	155.000000	2.33145   	155.000000	2.34511   	155.000000	0.000876944	
160.000000	1.67957   	160.000000	2.2956    	160.000000	2.29934   	160.000000	2.28091   	160.000000	2.29475   	160.000000	0.000851883	
165.000000	1.64613   	165.000000	2.24814   	165.000000	2.2523    	165.000000	2.2333    	165.000000	2.24731   	165.000000	0.000828271	
170.000000	1.61452   	170.000000	2.20334   	170.000000	2.20779   	170.000000	2.1884    	170.000000	2.20254   	170.000000	0.000805984	
175.000000	1.5846    	175.000000	2.161     	175.000000	2.16565   	175.000000	2.14596   	175.000000	2.16022   	175.000000	0.000784912	
180.000000	1.55623   	180.000000	2.12092   	180.000000	2.12591   	180.000000	2.10579   	180.000000	2.12015   	180.000000	0.000764957	
185.000000	1.5293    	185.000000	2.08292   	185.000000	2.08822   	185.000000	2.06772   	185.000000	2.08217   	185.000000	0.000746032	
190.000000	1.50369   	190.000000	2.04684   	190.000000	2.05233   	190.000000	2.03159   	190.000000	2.04611   	190.000000	0.000728057	
195.000000	1.47931   	195.000000	2.01254   	195.000000	2.01818   	195.000000	1.99725   	195.000000	2.01183   	195.000000	0.000710962	
200.000000	1.45607   	200.000000	1.97989   	200.000000	1.98571   	200.000000	1.96457   	200.000000	1.9792    	200.000000	0.000694683	
210.000000	1.41272   	210.000000	1.91911   	210.000000	1.92525   	210.000000	1.90375   	210.000000	1.91844   	210.000000	0.000664346	
220.000000	1.37307   	220.000000	1.86366   	220.000000	1.87015   	220.000000	1.84831   	220.000000	1.86303   	220.000000	0.000636646	
230.000000	1.33667   	230.000000	1.81289   	230.000000	1.8195    	230.000000	1.79758   	230.000000	1.81228   	230.000000	0.000611248	
240.000000	1.30313   	240.000000	1.76623   	240.000000	1.7731    	240.000000	1.75098   	240.000000	1.76564   	240.000000	0.000587874	
250.000000	1.27213   	250.000000	1.7232    	250.000000	1.73028   	250.000000	1.70803   	250.000000	1.72264   	250.000000	0.000566287	
260.000000	1.24339   	260.000000	1.6834    	260.000000	1.69057   	260.000000	1.66833   	260.000000	1.68286   	260.000000	0.000546288	
270.000000	1.21666   	270.000000	1.64649   	270.000000	1.65384   	270.000000	1.63153   	270.000000	1.64596   	270.000000	0.000527706	
280.000000	1.19176   	280.000000	1.61215   	280.000000	1.61977   	280.000000	1.59732   	280.000000	1.61164   	280.000000	0.000510394	
290.000000	1.16849   	290.000000	1.58013   	290.000000	1.58791   	290.000000	1.56545   	290.000000	1.57964   	290.000000	0.000494223	
300.000000	1.1467    	300.000000	1.55022   	300.000000	1.55813   	300.000000	1.53569   	300.000000	1.54974   	300.000000	0.000479083	
310.000000	1.12625   	310.000000	1.52221   	310.000000	1.53028   	310.000000	1.50785   	310.000000	1.52174   	310.000000	0.000464878	
320.000000	1.10703   	320.000000	1.49593   	320.000000	1.50415   	320.000000	1.48173   	320.000000	1.49547   	320.000000	0.000451522	
330.000000	1.08893   	330.000000	1.47122   	330.000000	1.4796    	330.000000	1.4572    	330.000000	1.47078   	330.000000	0.000438941	
340.000000	1.07185   	340.000000	1.44796   	340.000000	1.45649   	340.000000	1.43412   	340.000000	1.44753   	340.000000	0.000427068	
350.000000	1.05572   	350.000000	1.42602   	350.000000	1.43471   	350.000000	1.41237   	350.000000	1.4256    	350.000000	0.000415844	
360.000000	1.04046   	360.000000	1.40529   	360.000000	1.41417   	360.000000	1.39183   	360.000000	1.40489   	360.000000	0.000405217	
370.000000	1.02599   	370.000000	1.38569   	370.000000	1.39461   	370.000000	1.37231   	370.000000	1.38529   	370.000000	0.00039514	
380.000000	1.01227   	380.000000	1.36712   	380.000000	1.37603   	380.000000	1.35382   	380.000000	1.36673   	380.000000	0.00038557	
390.000000	0.999229  	390.000000	1.3495    	390.000000	1.3584    	390.000000	1.33629   	390.000000	1.34913   	390.000000	0.00037647	
400.000000	0.98683   	400.000000	1.33278   	400.000000	1.34171   	400.000000	1.31966   	400.000000	1.33241   	400.000000	0.000367806	
410.000000	0.975024  	410.000000	1.31688   	410.000000	1.3259    	410.000000	1.30386   	410.000000	1.31652   	410.000000	0.000359546	
420.000000	0.963771  	420.000000	1.30174   	420.000000	1.31085   	420.000000	1.28883   	420.000000	1.30139   	420.000000	0.000351663	
430.000000	0.953035  	430.000000	1.28732   	430.000000	1.2965    	430.000000	1.27451   	430.000000	1.28698   	430.000000	0.000344131	
440.000000	0.942783  	440.000000	1.27357   	440.000000	1.28277   	440.000000	1.26087   	440.000000	1.27324   	440.000000	0.000336927	
450.000000	0.932983  	450.000000	1.26045   	450.000000	1.26966   	450.000000	1.24785   	450.000000	1.26012   	450.000000	0.00033003	
460.000000	0.923607  	460.000000	1.24791   	460.000000	1.25718   	460.000000	1.23542   	460.000000	1.24758   	460.000000	0.00032342	
470.000000	0.914631  	470.000000	1.23592   	470.000000	1.24529   	470.000000	1.22355   	470.000000	1.2356    	470.000000	0.000317079	
480.000000	0.90603   	480.000000	1.22444   	480.000000	1.23388   	480.000000	1.21218   	480.000000	1.22413   	480.000000	0.000310991	
490.000000	0.897783  	490.000000	1.21345   	490.000000	1.22291   	490.000000	1.20131   	490.000000	1.21314   	490.000000	0.000305141	
500.000000	0.889869  	500.000000	1.20292   	500.000000	1.21241   	500.000000	1.19088   	500.000000	1.20262   	500.000000	0.000299515	
520.000000	0.874969  	520.000000	1.18312   	520.000000	1.19278   	520.000000	1.17131   	520.000000	1.18283   	520.000000	0.000288886	
540.000000	0.861196  	540.000000	1.16485   	540.000000	1.17465   	540.000000	1.15327   	540.000000	1.16457   	540.000000	0.000279012	
560.000000	0.848437  	560.000000	1.14797   	560.000000	1.15783   	560.000000	1.13659   	560.000000	1.1477    	560.000000	0.000269814	
580.000000	0.836592  	580.000000	1.13232   	580.000000	1.14226   	580.000000	1.12116   	580.000000	1.13206   	580.000000	0.000261225	
600.000000	0.825574  	600.000000	1.11779   	600.000000	1.12786   	600.000000	1.10683   	600.000000	1.11754   	600.000000	0.000253185	
620.000000	0.815307  	620.000000	1.10428   	620.000000	1.1145    	620.000000	1.0935    	620.000000	1.10403   	620.000000	0.000245642	
640.000000	0.805725  	640.000000	1.09168   	640.000000	1.10198   	640.000000	1.08108   	640.000000	1.09145   	640.000000	0.000238552	
660.000000	0.796768  	660.000000	1.07993   	660.000000	1.09028   	660.000000	1.06949   	660.000000	1.0797    	660.000000	0.000231873	
680.000000	0.788385  	680.000000	1.06894   	680.000000	1.07935   	680.000000	1.05865   	680.000000	1.06872   	680.000000	0.000225572	
700.000000	0.780529  	700.000000	1.05865   	700.000000	1.06911   	700.000000	1.04851   	700.000000	1.05843   	700.000000	0.000219616	
720.000000	0.773158  	720.000000	1.04901   	720.000000	1.05951   	720.000000	1.03899   	720.000000	1.0488    	720.000000	0.000213978	
740.000000	0.766235  	740.000000	1.03997   	740.000000	1.05049   	740.000000	1.03006   	740.000000	1.03976   	740.000000	0.000208632	
760.000000	0.759727  	760.000000	1.03147   	760.000000	1.04201   	760.000000	1.02166   	760.000000	1.03127   	760.000000	0.000203556	
780.000000	0.753604  	780.000000	1.02348   	780.000000	1.03404   	780.000000	1.01375   	780.000000	1.02328   	780.000000	0.00019873	
800.000000	0.747837  	800.000000	1.01596   	800.000000	1.02655   	800.000000	1.0063    	800.000000	1.01577   	800.000000	0.000194135	
820.000000	0.742404  	820.000000	1.00888   	820.000000	1.01949   	820.000000	0.999274  	820.000000	1.00869   	820.000000	0.000189756	
840.000000	0.73728   	840.000000	1.0022    	840.000000	1.01282   	840.000000	0.992638  	840.000000	1.00202   	840.000000	0.000185577	
860.000000	0.732447  	860.000000	0.995908  	860.000000	1.00649   	860.000000	0.986365  	860.000000	0.995726  	860.000000	0.000181584	
880.000000	0.727884  	880.000000	0.989964  	880.000000	1.00049   	880.000000	0.980432  	880.000000	0.989786  	880.000000	0.000177766	
900.000000	0.723576  	900.000000	0.984351  	900.000000	0.994807  	900.000000	0.974813  	900.000000	0.984177  	900.000000	0.00017411	
920.000000	0.719506  	920.000000	0.979047  	920.000000	0.989426  	920.000000	0.969489  	920.000000	0.978877  	920.000000	0.000170607	
940.000000	0.71566   	940.000000	0.974033  	940.000000	0.984325  	940.000000	0.964441  	940.000000	0.973866  	940.000000	0.000167248	
960.000000	0.712026  	960.000000	0.969292  	960.000000	0.979484  	960.000000	0.95965   	960.000000	0.969128  	960.000000	0.000164022	
980.000000	0.70859   	980.000000	0.964807  	980.000000	0.974886  	980.000000	0.955101  	980.000000	0.964646  	980.000000	0.000160923	
1000.000000	0.705341  	1000.000000	0.960562  	1000.000000	0.970516  	1000.000000	0.950778  	1000.000000	0.960404  	1000.000000	0.000157944	
1020.000000	0.70227   	1020.000000	0.956545  	1020.000000	0.966359  	1020.000000	0.946668  	1020.000000	0.95639   	1020.000000	0.000155076	
1040.000000	0.699367  	1040.000000	0.952742  	1040.000000	0.962405  	1040.000000	0.942758  	1040.000000	0.95259   	1040.000000	0.000152314	
1060.000000	0.696622  	1060.000000	0.949141  	1060.000000	0.958641  	1060.000000	0.939036  	1060.000000	0.948992  	1060.000000	0.000149653	
1080.000000	0.694028  	1080.000000	0.945732  	1080.000000	0.955056  	1080.000000	0.935492  	1080.000000	0.945585  	1080.000000	0.000147086	
1100.000000	0.691577  	1100.000000	0.942504  	1100.000000	0.951639  	1100.000000	0.932115  	1100.000000	0.94236   	1100.000000	0.000144608	
1120.000000	0.689261  	1120.000000	0.939448  	1120.000000	0.948382  	1120.000000	0.928896  	1120.000000	0.939306  	1120.000000	0.000142216	
1140.000000	0.687074  	1140.000000	0.936554  	1140.000000	0.945276  	1140.000000	0.925826  	1140.000000	0.936414  	1140.000000	0.000139904	
1160.000000	0.68501   	1160.000000	0.933815  	1160.000000	0.942311  	1160.000000	0.922898  	1160.000000	0.933678  	1160.000000	0.000137669	
1180.000000	0.683062  	1180.000000	0.931223  	1180.000000	0.939482  	1180.000000	0.920103  	1180.000000	0.931088  	1180.000000	0.000135507	
1200.000000	0.681226  	1200.000000	0.92877   	1200.000000	0.93678   	1200.000000	0.917434  	1200.000000	0.928637  	1200.000000	0.000133414	
1220.000000	0.679496  	1220.000000	0.926451  	1220.000000	0.9342    	1220.000000	0.914885  	1220.000000	0.926319  	1220.000000	0.000131387	
1240.000000	0.677868  	1240.000000	0.924258  	1240.000000	0.931734  	1240.000000	0.912451  	1240.000000	0.924128  	1240.000000	0.000129423	
1260.000000	0.676337  	1260.000000	0.922185  	1260.000000	0.929378  	1260.000000	0.910124  	1260.000000	0.922058  	1260.000000	0.000127518	
1280.000000	0.674898  	1280.000000	0.920228  	1280.000000	0.927125  	1280.000000	0.9079    	1280.000000	0.920102  	1280.000000	0.000125671	
1300.000000	0.673548  	1300.000000	0.91838   	1300.000000	0.92497   	1300.000000	0.905773  	1300.000000	0.918256  	1300.000000	0.000123878	
1320.000000	0.672283  	1320.000000	0.916638  	1320.000000	0.922908  	1320.000000	0.90374   	1320.000000	0.916516  	1320.000000	0.000122138	
1340.000000	0.6711    	1340.000000	0.914996  	1340.000000	0.920935  	1340.000000	0.901794  	1340.000000	0.914875  	1340.000000	0.000120448	
1360.000000	0.669995  	1360.000000	0.913449  	1360.000000	0.919048  	1360.000000	0.899933  	1360.000000	0.91333   	1360.000000	0.000118805	
1380.000000	0.668964  	1380.000000	0.911995  	1380.000000	0.917241  	1380.000000	0.898152  	1380.000000	0.911878  	1380.000000	0.000117208	
1400.000000	0.668006  	1400.000000	0.910629  	1400.000000	0.915513  	1400.000000	0.896448  	1400.000000	0.910513  	1400.000000	0.000115655	
1420.000000	0.667117  	1420.000000	0.909346  	1420.000000	0.913858  	1420.000000	0.894816  	1420.000000	0.909232  	1420.000000	0.000114144	
1440.000000	0.666294  	1440.000000	0.908145  	1440.000000	0.912275  	1440.000000	0.893254  	1440.000000	0.908033  	1440.000000	0.000112674	
1460.000000	0.665536  	1460.000000	0.907022  	1460.000000	0.91076   	1460.000000	0.891759  	1460.000000	0.90691   	1460.000000	0.000111242	
1480.000000	0.664838  	1480.000000	0.905973  	1480.000000	0.909309  	1480.000000	0.890328  	1480.000000	0.905863  	1480.000000	0.000109847	
1500.000000	0.664201  	1500.000000	0.904995  	1500.000000	0.90792   	1500.000000	0.888957  	1500.000000	0.904887  	1500.000000	0.000108488	
1520.000000	0.66362   	1520.000000	0.904086  	1520.000000	0.906589  	1520.000000	0.887644  	1520.000000	0.903979  	1520.000000	0.000107163	
1540.000000	0.663095  	1540.000000	0.903244  	1540.000000	0.905312  	1540.000000	0.886387  	1540.000000	0.903138  	1540.000000	0.000105872	
1560.000000	0.662622  	1560.000000	0.902465  	1560.000000	0.904089  	1560.000000	0.885183  	1560.000000	0.90236   	1560.000000	0.000104612	
1580.000000	0.662201  	1580.000000	0.901747  	1580.000000	0.902915  	1580.000000	0.884031  	1580.000000	0.901644  	1580.000000	0.000103383	
1600.000000	0.661829  	1600.000000	0.901088  	1600.000000	0.901788  	1600.000000	0.882927  	1600.000000	0.900986  	1600.000000	0.000102184	
1620.000000	0.661506  	1620.000000	0.900486  	1620.000000	0.900707  	1620.000000	0.88187   	1620.000000	0.900385  	1620.000000	0.000101013	
1640.000000	0.661228  	1640.000000	0.899939  	1640.000000	0.899669  	1640.000000	0.880858  	1640.000000	0.899839  	1640.000000	9.98694e-05	
1660.000000	0.660996  	1660.000000	0.899444  	1660.000000	0.898674  	1660.000000	0.87989   	1660.000000	0.899346  	1660.000000	9.87524e-05	
1680.000000	0.660806  	1680.000000	0.899001  	1680.000000	0.89772   	1680.000000	0.878962  	1680.000000	0.898903  	1680.000000	9.76609e-05	
1700.000000	0.660659  	1700.000000	0.898606  	1700.000000	0.896807  	1700.000000	0.878075  	1700.000000	0.89851   	1700.000000	9.65942e-05	
1750.000000	0.660464  	1750.000000	0.897824  	1750.000000	0.894692  	1750.000000	0.87602   	1750.000000	0.89773   	1750.000000	9.403e-05 	
1800.000000	0.660504  	1800.000000	0.897314  	1800.000000	0.892802  	1800.000000	0.874182  	1800.000000	0.897223  	1800.000000	9.16029e-05	
1850.000000	0.660761  	1850.000000	0.897055  	1850.000000	0.891119  	1850.000000	0.87254   	1850.000000	0.896966  	1850.000000	8.9302e-05	
1900.000000	0.66122   	1900.000000	0.897026  	1900.000000	0.889623  	1900.000000	0.871076  	1900.000000	0.896939  	1900.000000	8.71177e-05	
1950.000000	0.661866  	1950.000000	0.89721   	1950.000000	0.888295  	1950.000000	0.869775  	1950.000000	0.897125  	1950.000000	8.50412e-05	
2000.000000	0.662687  	2000.000000	0.897592  	2000.000000	0.887117  	2000.000000	0.868623  	2000.000000	0.897509  	2000.000000	8.30647e-05	
2100.000000	0.664809  	2100.000000	0.89889   	2100.000000	0.885159  	2100.000000	0.866713  	2100.000000	0.898811  	2100.000000	7.93836e-05	
2200.000000	0.667507  	2200.000000	0.900821  	2200.000000	0.883658  	2200.000000	0.865258  	2200.000000	0.900745  	2200.000000	7.6025e-05	
2300.000000	0.670713  	2300.000000	0.903302  	2300.000000	0.882545  	2300.000000	0.864188  	2300.000000	0.903229  	2300.000000	7.29478e-05	
2400.000000	0.674374  	2400.000000	0.906264  	2400.000000	0.881763  	2400.000000	0.863443  	2400.000000	0.906194  	2400.000000	7.01177e-05	
2500.000000	0.678441  	2500.000000	0.90965   	2500.000000	0.881263  	2500.000000	0.862975  	2500.000000	0.909582  	2500.000000	6.75059e-05	
2600.000000	0.682874  	2600.000000	0.913409  	2600.000000	0.881003  	2600.000000	0.862743  	2600.000000	0.913344  	2600.000000	6.50876e-05	
2700.000000	0.68764   	2700.000000	0.917501  	2700.000000	0.880945  	2700.000000	0.862713  	2700.000000	0.917438  	2700.000000	6.28421e-05	
2800.000000	0.692708  	2800.000000	0.921888  	2800.000000	0.88106   	2800.000000	0.862856  	2800.000000	0.921827  	2800.000000	6.07511e-05	
2900.000000	0.698052  	2900.000000	0.92654   	2900.000000	0.881323  	2900.000000	0.863149  	2900.000000	0.926482  	2900.000000	5.87991e-05	
3000.000000	0.703651  	3000.000000	0.931431  	3000.000000	0.881713  	3000.000000	0.86357   	3000.000000	0.931374  	3000.000000	5.69726e-05	
3200.000000	0.715536  	3200.000000	0.941834  	3200.000000	0.882811  	3200.000000	0.864729  	3200.000000	0.94178   	3200.000000	5.365e-05 	
3400.000000	0.728232  	3400.000000	0.952941  	3400.000000	0.884249  	3400.000000	0.866221  	3400.000000	0.95289   	3400.000000	5.07047e-05	
3600.000000	0.741637  	3600.000000	0.964632  	3600.000000	0.885943  	3600.000000	0.867961  	3600.000000	0.964584  	3600.000000	4.80753e-05	
3800.000000	0.755668  	3800.000000	0.976811  	3800.000000	0.887832  	3800.000000	0.869885  	3800.000000	0.976765  	3800.000000	4.5713e-05	
4000.000000	0.770261  	4000.000000	0.989401  	4000.000000	0.889863  	4000.000000	0.871944  	4000.000000	0.989358  	4000.000000	4.35788e-05	
4200.000000	0.785361  	4200.000000	1.00234   	4200.000000	0.891997  	4200.000000	0.874103  	4200.000000	1.0023    	4200.000000	4.16408e-05	
4400.000000	0.800924  	4400.000000	1.01558   	4400.000000	0.894203  	4400.000000	0.876331  	4400.000000	1.01554   	4400.000000	3.98729e-05	
4600.000000	0.816913  	4600.000000	1.02907   	4600.000000	0.896457  	4600.000000	0.878606  	4600.000000	1.02903   	4600.000000	3.82534e-05	
4800.000000	0.833299  	4800.000000	1.04279   	4800.000000	0.89874   	4800.000000	0.880911  	4800.000000	1.04275   	4800.000000	3.67643e-05	
5000.000000	0.850053  	5000.000000	1.0567    	5000.000000	0.90104   	5000.000000	0.883231  	5000.000000	1.05666   	5000.000000	3.53901e-05	
5250.000000	0.871482  	5250.000000	1.07432   	5250.000000	0.903921  	5250.000000	0.886138  	5250.000000	1.07428   	5250.000000	3.38146e-05	
5500.000000	0.893418  	5500.000000	1.09216   	5500.000000	0.906794  	5500.000000	0.889036  	5500.000000	1.09213   	5500.000000	3.23775e-05	
6000.000000	0.938691  	6000.000000	1.12839   	6000.000000	0.912472  	6000.000000	0.894764  	6000.000000	1.12836   	6000.000000	2.98506e-05	
6500.000000	0.985685  	6500.000000	1.16518   	6500.000000	0.91802   	6500.000000	0.900353  	6500.000000	1.16516   	6500.000000	2.76998e-05	
7000.000000	1.03426   	7000.000000	1.20239   	7000.000000	0.923396  	7000.000000	0.905769  	7000.000000	1.20237   	7000.000000	2.58463e-05	
7500.000000	1.08432   	7500.000000	1.23992   	7500.000000	0.928544  	7500.000000	0.911     	7500.000000	1.2399    	7500.000000	2.42319e-05	
8000.000000	1.13579   	8000.000000	1.27768   	8000.000000	0.933557  	8000.000000	0.91604   	8000.000000	1.27766   	8000.000000	2.28126e-05	
8500.000000	1.1886    	8500.000000	1.31563   	8500.000000	0.938383  	8500.000000	0.920892  	8500.000000	1.31561   	8500.000000	2.1555e-05	
9000.000000	1.24272   	9000.000000	1.35371   	9000.000000	0.942997  	9000.000000	0.92556   	9000.000000	1.35369   	9000.000000	2.04325e-05	
9500.000000	1.2981    	9500.000000	1.39189   	9500.000000	0.947445  	9500.000000	0.930053  	9500.000000	1.39188   	9500.000000	1.94243e-05	
10000.000000	1.35472   	10000.000000	1.43015   	10000.000000	0.951745  	10000.000000	0.934378  	10000.000000	1.43014   	10000.000000	1.85136e-05	
11000.000000	1.47159   	11000.000000	1.50682   	11000.000000	0.959856  	11000.000000	0.942559  	11000.000000	1.50681   	11000.000000	1.69329e-05	
12000.000000	1.59318   	12000.000000	1.5836    	12000.000000	0.967333  	12000.000000	0.95017   	12000.000000	1.58358   	12000.000000	1.56075e-05	
13000.000000	1.71942   	13000.000000	1.66039   	13000.000000	0.974316  	13000.000000	0.957274  	13000.000000	1.66038   	13000.000000	1.44796e-05	
14000.000000	1.85023   	14000.000000	1.73716   	14000.000000	0.980896  	14000.000000	0.963926  	14000.000000	1.73715   	14000.000000	1.35079e-05	
15000.000000	1.98557   	15000.000000	1.81386   	15000.000000	0.987098  	15000.000000	0.970174  	15000.000000	1.81385   	15000.000000	1.26617e-05	
16000.000000	2.12542   	16000.000000	1.89048   	16000.000000	0.992912  	16000.000000	0.976061  	16000.000000	1.89047   	16000.000000	1.19179e-05	
17000.000000	2.26977   	17000.000000	1.96699   	17000.000000	0.99836   	17000.000000	0.981622  	17000.000000	1.96698   	17000.000000	1.1259e-05	
18000.000000	2.4186    	18000.000000	2.0434    	18000.000000	1.00348   	18000.000000	0.986889  	18000.000000	2.04339   	18000.000000	1.0671e-05	
19000.000000	2.57192   	19000.000000	2.11968   	19000.000000	1.0083    	19000.000000	0.991891  	19000.000000	2.11967   	19000.000000	1.0143e-05	
20000.000000	2.72972   	20000.000000	2.19584   	20000.000000	1.01287   	20000.000000	0.99665   	20000.000000	2.19583   	20000.000000	9.66612e-06	
21000.000000	2.89202   	21000.000000	2.27187   	21000.000000	1.01723   	21000.000000	1.00119   	21000.000000	2.27186   	21000.000000	9.23326e-06	
22000.000000	3.05881   	22000.000000	2.34778   	22000.000000	1.02145   	22000.000000	1.00553   	22000.000000	2.34777   	22000.000000	8.83854e-06	
23000.000000	3.23013   	23000.000000	2.42357   	23000.000000	1.02545   	23000.000000	1.00968   	23000.000000	2.42356   	23000.000000	8.47708e-06	
24000.000000	3.40597   	24000.000000	2.49923   	24000.000000	1.02925   	24000.000000	1.01366   	24000.000000	2.49922   	24000.000000	8.14481e-06	
25000.000000	3.58635   	25000.000000	2.57476   	25000.000000	1.0329    	25000.000000	1.01748   	25000.000000	2.57475   	25000.000000	7.8383e-06	
26000.000000	3.77129   	26000.000000	2.65018   	26000.000000	1.0364    	26000.000000	1.02115   	26000.000000	2.65017   	26000.000000	7.55464e-06	
27000.000000	3.96081   	27000.000000	2.72547   	27000.000000	1.03975   	27000.000000	1.02469   	27000.000000	2.72547   	27000.000000	7.29135e-06	
28000.000000	4.15493   	28000.000000	2.80065   	28000.000000	1.04297   	28000.000000	1.02811   	28000.000000	2.80065   	28000.000000	7.04628e-06	
29000.000000	4.35366   	29000.000000	2.87572   	29000.000000	1.04606   	29000.000000	1.0314    	29000.000000	2.87571   	29000.000000	6.8176e-06	
30000.000000	4.55703   	30000.000000	2.95067   	30000.000000	1.04904   	30000.000000	1.03459   	30000.000000	2.95067   	30000.000000	6.60369e-06	
32000.000000	4.97777   	32000.000000	3.10025   	32000.000000	1.0547    	32000.000000	1.04065   	32000.000000	3.10025   	32000.000000	6.21478e-06	
34000.000000	5.41731   	34000.000000	3.24942   	34000.000000	1.05999   	34000.000000	1.04635   	34000.000000	3.24941   	34000.000000	5.87026e-06	
36000.000000	5.87585   	36000.000000	3.39818   	36000.000000	1.06491   	36000.000000	1.05172   	36000.000000	3.39817   	36000.000000	5.56289e-06	
38000.000000	6.35357   	38000.000000	3.54655   	38000.000000	1.06952   	38000.000000	1.0568    	38000.000000	3.54655   	38000.000000	5.28691e-06	
40000.000000	6.85066   	40000.000000	3.69456   	40000.000000	1.07383   	40000.000000	1.06162   	40000.000000	3.69456   	40000.000000	5.0377e-06	
42000.000000	7.36733   	42000.000000	3.84222   	42000.000000	1.0779    	42000.000000	1.0662    	42000.000000	3.84221   	42000.000000	4.81153e-06	
44000.000000	7.90378   	44000.000000	3.98954   	44000.000000	1.08175   	44000.000000	1.07057   	44000.000000	3.98954   	44000.000000	4.60531e-06	
46000.000000	8.46022   	46000.000000	4.13654   	46000.000000	1.08541   	46000.000000	1.07474   	46000.000000	4.13653   	46000.000000	4.41649e-06	
48000.000000	9.03685   	48000.000000	4.28323   	48000.000000	1.0889    	48000.000000	1.07873   	48000.000000	4.28322   	48000.000000	4.24294e-06	
50000.000000	9.63389   	50000.000000	4.42962   	50000.000000	1.09219   	50000.000000	1.08256   	50000.000000	4.42961   	50000.000000	4.08287e-06	
