Energy (MeV/u)1	0 - [He-base] F.Hubert et al, AD&ND Tables 46(1990)1	Energy (MeV/u)2	1 - [H -base] J.F.Ziegler et al, Pergamon Press, NY (low energy)	Energy (MeV/u)3	2 - ATIMA 1.2  LS-theory (recommended for high energy)	Energy (MeV/u)4	3 - ATIMA 1.2  without LS-correction	Energy (MeV/u)5	4 - electrical component of [1] - J.F.Ziegler et al	Energy (MeV/u)6	5 - nuclear component of [1] - J.F.Ziegler et al	
0.001000	10.2504   	0.001000	13.1201   	0.001000	12.2422   	0.001000	12.2422   	0.001000	3.3439    	0.001000	9.77619   	
0.002000	10.4906   	0.002000	13.6165   	0.002000	12.5251   	0.002000	12.5251   	0.002000	4.3365    	0.002000	9.27999   	
0.005000	10.5312   	0.005000	13.6294   	0.005000	12.1967   	0.005000	12.1967   	0.005000	6.11459   	0.005000	7.51483   	
0.008000	10.6851   	0.008000	13.6207   	0.008000	11.9873   	0.008000	11.9873   	0.008000	7.2931    	0.008000	6.32764   	
0.010000	10.8405   	0.010000	13.6794   	0.010000	11.9451   	0.010000	11.9451   	0.010000	7.92964   	0.010000	5.74972   	
0.015000	11.3061   	0.015000	13.9612   	0.015000	12.0364   	0.015000	12.0364   	0.015000	9.23183   	0.015000	4.72933   	
0.020000	11.8051   	0.020000	14.3384   	0.020000	12.2741   	0.020000	12.2741   	0.020000	10.2835   	0.020000	4.05497   	
0.025000	12.3003   	0.025000	14.7518   	0.025000	12.5778   	0.025000	12.5778   	0.025000	11.181    	0.025000	3.57075   	
0.030000	12.7802   	0.030000	15.1756   	0.030000	12.9119   	0.030000	12.9119   	0.030000	11.9722   	0.030000	3.20336   	
0.035000	13.2411   	0.035000	15.5982   	0.035000	13.259    	0.035000	13.259    	0.035000	12.6847   	0.035000	2.91351   	
0.040000	13.6987   	0.040000	16.014    	0.040000	13.6102   	0.040000	13.6102   	0.040000	13.336    	0.040000	2.67802   	
0.045000	14.286    	0.045000	16.8657   	0.045000	14.643    	0.045000	14.643    	0.045000	14.3834   	0.045000	2.48231   	
0.050000	14.7592   	0.050000	17.8316   	0.050000	15.9215   	0.050000	15.9215   	0.050000	15.5149   	0.050000	2.31668   	
0.055000	15.5537   	0.055000	18.9221   	0.055000	17.2213   	0.055000	17.2213   	0.055000	16.7477   	0.055000	2.1744    	
0.060000	16.2848   	0.060000	20.0114   	0.060000	18.5299   	0.060000	18.5299   	0.060000	17.9608   	0.060000	2.05066   	
0.070000	17.545    	0.070000	22.1625   	0.070000	21.1354   	0.070000	21.1354   	0.070000	20.317    	0.070000	1.84547   	
0.080000	18.9364   	0.080000	24.2148   	0.080000	23.6698   	0.080000	23.6698   	0.080000	22.5421   	0.080000	1.67273   	
0.090000	20.1625   	0.090000	26.1819   	0.090000	26.1134   	0.090000	26.1134   	0.090000	24.6425   	0.090000	1.53949   	
0.100000	21.2558   	0.100000	28.0388   	0.100000	28.4324   	0.100000	28.4324   	0.100000	26.6108   	0.100000	1.42799   	
0.120000	22.6363   	0.120000	31.4501   	0.120000	32.6462   	0.120000	32.6462   	0.120000	30.2037   	0.120000	1.24639   	
0.140000	23.8871   	0.140000	34.4654   	0.140000	36.2945   	0.140000	36.2945   	0.140000	33.3525   	0.140000	1.11284   	
0.160000	25.6132   	0.160000	37.9667   	0.160000	39.4075   	0.160000	39.4075   	0.160000	36.9592   	0.160000	1.00747   	
0.180000	27.2411   	0.180000	40.9767   	0.180000	42.0489   	0.180000	42.0489   	0.180000	40.0548   	0.180000	0.921974  	
0.200000	28.8197   	0.200000	43.5576   	0.200000	44.289    	0.200000	44.289    	0.200000	42.7065   	0.200000	0.851069  	
0.250000	31.6358   	0.250000	48.2913   	0.250000	48.558    	0.250000	48.558    	0.250000	47.5743   	0.250000	0.716932  	
0.300000	34.1788   	0.300000	51.6124   	0.300000	51.5489   	0.300000	51.5489   	0.300000	50.9904   	0.300000	0.622007  	
0.350000	36.5738   	0.350000	54.2941   	0.350000	53.7786   	0.350000	53.7786   	0.350000	53.7432   	0.350000	0.550951  	
0.400000	38.7311   	0.400000	56.5463   	0.400000	55.5433   	0.400000	55.5433   	0.400000	56.0508   	0.400000	0.495575  	
0.450000	40.6202   	0.450000	58.4818   	0.450000	57.0081   	0.450000	57.0081   	0.450000	58.0307   	0.450000	0.45109   	
0.500000	42.2692   	0.500000	60.2133   	0.500000	58.2658   	0.500000	58.2658   	0.500000	59.7988   	0.500000	0.414498  	
0.600000	43.4606   	0.600000	61.6669   	0.600000	61.5767   	0.600000	61.5767   	0.600000	61.3092   	0.600000	0.357697  	
0.700000	44.3128   	0.700000	63.3108   	0.700000	64.1383   	0.700000	64.1383   	0.700000	62.9953   	0.700000	0.315498  	
0.800000	46.2843   	0.800000	64.5766   	0.800000	66.1263   	0.800000	66.1263   	0.800000	64.2938   	0.800000	0.282808  	
0.900000	47.808    	0.900000	65.4228   	0.900000	67.6787   	0.900000	67.6787   	0.900000	65.1662   	0.900000	0.256674  	
1.000000	48.9837   	1.000000	65.9396   	1.000000	68.889    	1.000000	68.889    	1.000000	65.7043   	1.000000	0.235265  	
1.250000	50.3853   	1.250000	67.5844   	1.250000	70.8254   	1.250000	70.8254   	1.250000	67.389    	1.250000	0.195428  	
1.500000	50.7625   	1.500000	68.2667   	1.500000	71.7074   	1.500000	71.7074   	1.500000	68.0989   	1.500000	0.167769  	
1.750000	50.6826   	1.750000	68.5392   	1.750000	71.9276   	1.750000	71.9276   	1.750000	68.3919   	1.750000	0.147362  	
2.000000	50.2758   	2.000000	68.4732   	2.000000	71.7212   	2.000000	71.7212   	2.000000	68.3416   	2.000000	0.131641  	
2.250000	49.758    	2.250000	67.7315   	2.250000	71.2355   	2.250000	71.2355   	2.250000	67.6124   	2.250000	0.11913   	
2.500000	67.1166   	2.500000	66.9      	2.500000	70.5659   	2.500000	70.5659   	2.500000	66.7911   	2.500000	0.10892   	
3.000000	64.2779   	3.000000	65.0887   	3.000000	68.9075   	3.000000	68.9075   	3.000000	64.9955   	3.000000	0.0932233 	
3.500000	61.4355   	3.500000	63.2286   	3.500000	66.7835   	3.500000	66.7835   	3.500000	63.1469   	3.500000	0.0816858 	
4.000000	58.7252   	4.000000	61.368    	4.000000	64.626    	4.000000	64.626    	4.000000	61.2952   	4.000000	0.0728244 	
4.500000	56.1934   	4.500000	59.5265   	4.500000	62.5892   	4.500000	62.5892   	4.500000	59.4607   	4.500000	0.0657907 	
5.000000	53.8491   	5.000000	57.7492   	5.000000	60.6703   	5.000000	60.6703   	5.000000	57.6892   	5.000000	0.0600634 	
5.500000	51.6855   	5.500000	56.1015   	5.500000	58.8637   	5.500000	58.8637   	5.500000	56.0462   	5.500000	0.0553035 	
6.000000	49.6897   	6.000000	54.5145   	6.000000	57.162    	6.000000	57.162    	6.000000	54.4632   	6.000000	0.051281  	
6.500000	47.8471   	6.500000	53.0174   	6.500000	55.5579   	6.500000	55.5579   	6.500000	52.9695   	6.500000	0.047834  	
7.000000	46.143    	7.000000	51.6023   	7.000000	54.044    	7.000000	54.044    	7.000000	51.5575   	7.000000	0.0448452 	
7.500000	44.5638   	7.500000	50.2649   	7.500000	52.6133   	7.500000	52.6133   	7.500000	50.2227   	7.500000	0.0422274 	
8.000000	43.0971   	8.000000	48.9955   	8.000000	51.2595   	8.000000	51.2595   	8.000000	48.9556   	8.000000	0.0399142 	
8.500000	41.7317   	8.500000	47.7884   	8.500000	49.9766   	8.500000	49.9766   	8.500000	47.7506   	8.500000	0.0378546 	
9.000000	40.4578   	9.000000	46.6395   	9.000000	48.7593   	9.000000	48.7593   	9.000000	46.6035   	9.000000	0.0360083 	
9.500000	39.2666   	9.500000	45.5448   	9.500000	47.6026   	9.500000	47.6026   	9.500000	45.5105   	9.500000	0.0343431 	
10.000000	38.1504   	10.000000	45.1228   	10.000000	46.5021   	10.000000	46.5021   	10.000000	45.09     	10.000000	0.0328333 	
11.000000	36.1161   	11.000000	43.3441   	11.000000	44.1479   	11.000000	44.5538   	11.000000	43.3139   	11.000000	0.0301987 	
12.000000	34.309    	12.000000	41.6945   	12.000000	42.0338   	12.000000	42.7712   	12.000000	41.6665   	12.000000	0.0279752 	
13.000000	32.6926   	13.000000	40.1644   	13.000000	40.1263   	13.000000	41.1353   	13.000000	40.1384   	13.000000	0.0260721 	
14.000000	31.2378   	14.000000	38.7438   	14.000000	38.3972   	14.000000	39.6297   	14.000000	38.7194   	14.000000	0.0244238 	
15.000000	29.921    	15.000000	37.4227   	15.000000	36.8229   	15.000000	38.2401   	15.000000	37.3998   	15.000000	0.0229814 	
16.000000	28.7231   	16.000000	36.1921   	16.000000	35.3844   	16.000000	36.9541   	16.000000	36.1704   	16.000000	0.0217081 	
17.000000	27.6283   	17.000000	35.0435   	17.000000	34.0658   	17.000000	35.7609   	17.000000	35.0229   	17.000000	0.0205753 	
18.000000	26.6237   	18.000000	33.9693   	18.000000	32.853    	18.000000	34.6513   	18.000000	33.9498   	18.000000	0.0195606 	
19.000000	25.6982   	19.000000	32.9629   	19.000000	31.7344   	19.000000	33.6172   	19.000000	32.9442   	19.000000	0.0186461 	
20.000000	24.8427   	20.000000	32.0181   	20.000000	30.6999   	20.000000	32.6513   	20.000000	32.0003   	20.000000	0.0178175 	
21.000000	24.0492   	21.000000	31.1297   	21.000000	29.7408   	21.000000	31.7476   	21.000000	31.1126   	21.000000	0.0170629 	
22.000000	23.3112   	22.000000	30.2927   	22.000000	28.8493   	22.000000	30.9006   	22.000000	30.2763   	22.000000	0.0163728 	
23.000000	22.6228   	23.000000	29.5028   	23.000000	28.0194   	23.000000	30.1053   	23.000000	29.4871   	23.000000	0.015739  	
24.000000	21.9791   	24.000000	28.7563   	24.000000	27.2459   	24.000000	29.3576   	24.000000	28.7412   	24.000000	0.0151549 	
25.000000	21.3758   	25.000000	28.0496   	25.000000	26.5236   	25.000000	28.6535   	25.000000	28.035    	25.000000	0.0146147 	
27.000000	20.2756   	27.000000	26.7438   	27.000000	25.2126   	27.000000	27.363    	27.000000	26.7301   	27.000000	0.0136474 	
29.000000	19.2971   	29.000000	25.5639   	29.000000	24.0592   	29.000000	26.2105   	29.000000	25.5511   	29.000000	0.0128058 	
31.000000	18.4208   	31.000000	24.4926   	31.000000	23.0857   	31.000000	25.1194   	31.000000	24.4805   	31.000000	0.0120665 	
33.000000	17.6311   	33.000000	23.5155   	33.000000	22.2411   	33.000000	24.0753   	33.000000	23.5041   	33.000000	0.0114118 	
35.000000	16.9154   	35.000000	22.6207   	35.000000	21.4621   	35.000000	23.1224   	35.000000	22.6099   	35.000000	0.0108277 	
38.000000	15.9589   	38.000000	21.4112   	38.000000	20.4005   	38.000000	21.839    	38.000000	21.4011   	38.000000	0.0100603 	
41.000000	15.1194   	41.000000	20.3371   	41.000000	19.4487   	41.000000	20.7038   	41.000000	20.3277   	41.000000	0.0093991 	
44.000000	14.3762   	44.000000	19.3769   	44.000000	18.5923   	44.000000	19.6923   	44.000000	19.3681   	44.000000	0.00882313	
47.000000	13.7132   	47.000000	18.5132   	47.000000	17.8186   	47.000000	18.7853   	47.000000	18.5049   	47.000000	0.00831667	
50.000000	13.1178   	50.000000	17.7322   	50.000000	17.1138   	50.000000	17.9673   	50.000000	17.7243   	50.000000	0.00786769	
55.000000	12.2493   	55.000000	16.5841   	55.000000	16.0709   	55.000000	16.7688   	55.000000	16.5769   	55.000000	0.00722249	
60.000000	11.5059   	60.000000	15.5939   	60.000000	15.1631   	60.000000	15.7387   	60.000000	15.5872   	60.000000	0.00667923	
65.000000	10.8617   	65.000000	14.7309   	65.000000	14.3684   	65.000000	14.8437   	65.000000	14.7246   	65.000000	0.00621521	
70.000000	10.2978   	70.000000	13.972    	70.000000	13.6659   	70.000000	14.059    	70.000000	13.9662   	70.000000	0.00581406	
75.000000	9.79971   	75.000000	13.2996   	75.000000	13.0394   	75.000000	13.3653   	75.000000	13.2941   	75.000000	0.00546364	
80.000000	9.35629   	80.000000	12.6995   	80.000000	12.479    	80.000000	12.7477   	80.000000	12.6944   	80.000000	0.00515477	
85.000000	8.95881   	85.000000	12.1608   	85.000000	11.9739   	85.000000	12.1943   	85.000000	12.1559   	85.000000	0.00488037	
90.000000	8.60033   	90.000000	11.6745   	90.000000	11.516    	90.000000	11.6957   	90.000000	11.6698   	90.000000	0.00463491	
95.000000	8.27524   	95.000000	11.2332   	95.000000	11.099    	95.000000	11.2441   	95.000000	11.2288   	95.000000	0.00441397	
100.000000	7.979     	100.000000	10.8311   	100.000000	10.7175   	100.000000	10.8331   	100.000000	10.8269   	100.000000	0.00421401	
105.000000	7.70782   	105.000000	10.4631   	105.000000	10.3683   	105.000000	10.4576   	105.000000	10.4591   	105.000000	0.00403212	
110.000000	7.45858   	110.000000	10.1251   	110.000000	10.0465   	110.000000	10.1132   	110.000000	10.1213   	110.000000	0.00386594	
115.000000	7.22867   	115.000000	9.81357   	115.000000	9.74961   	115.000000	9.79606   	115.000000	9.80986   	115.000000	0.00371347	
120.000000	7.01586   	120.000000	9.5255    	120.000000	9.47469   	120.000000	9.5032    	120.000000	9.52193   	120.000000	0.00357308	
125.000000	6.81826   	125.000000	9.25837   	125.000000	9.21874   	125.000000	9.23191   	125.000000	9.25492   	125.000000	0.00344336	
130.000000	6.63427   	130.000000	9.00996   	130.000000	8.98015   	130.000000	8.97991   	130.000000	9.00664   	130.000000	0.00332312	
135.000000	6.46249   	135.000000	8.7784    	135.000000	8.75781   	135.000000	8.74521   	135.000000	8.77518   	135.000000	0.00321134	
140.000000	6.3017    	140.000000	8.56202   	140.000000	8.54953   	140.000000	8.52611   	140.000000	8.55891   	140.000000	0.00310715	
145.000000	6.15087   	145.000000	8.35938   	145.000000	8.35405   	145.000000	8.3211    	145.000000	8.35637   	145.000000	0.00300978	
150.000000	6.00907   	150.000000	8.16923   	150.000000	8.17068   	150.000000	8.12887   	150.000000	8.16631   	150.000000	0.00291859	
155.000000	5.8069    	155.000000	7.99044   	155.000000	7.99833   	155.000000	7.94828   	155.000000	7.98761   	155.000000	0.002833  	
160.000000	5.68965   	160.000000	7.82203   	160.000000	7.8358    	160.000000	7.7783    	160.000000	7.81928   	160.000000	0.00275248	
165.000000	5.57888   	165.000000	7.66314   	165.000000	7.68202   	165.000000	7.61804   	165.000000	7.66046   	165.000000	0.00267661	
170.000000	5.47408   	170.000000	7.51297   	170.000000	7.53618   	170.000000	7.46668   	170.000000	7.51036   	170.000000	0.00260499	
175.000000	5.37477   	175.000000	7.37083   	175.000000	7.39806   	175.000000	7.32351   	175.000000	7.3683    	175.000000	0.00253725	
180.000000	5.28052   	180.000000	7.23611   	180.000000	7.26759   	180.000000	7.18789   	180.000000	7.23363   	180.000000	0.0024731 	
185.000000	5.19094   	185.000000	7.10823   	185.000000	7.14376   	185.000000	7.05925   	185.000000	7.10582   	185.000000	0.00241225	
190.000000	5.1057    	190.000000	6.98669   	190.000000	7.02569   	190.000000	6.93706   	190.000000	6.98434   	190.000000	0.00235444	
195.000000	5.02449   	195.000000	6.87104   	195.000000	6.91303   	195.000000	6.82085   	195.000000	6.86874   	195.000000	0.00229945	
200.000000	4.94701   	200.000000	6.76087   	200.000000	6.80553   	200.000000	6.7102    	200.000000	6.75862   	200.000000	0.00224708	
210.000000	4.8023    	210.000000	6.55545   	210.000000	6.60513   	210.000000	6.50408   	210.000000	6.5533    	210.000000	0.00214947	
220.000000	4.66978   	220.000000	6.36782   	220.000000	6.42212   	220.000000	6.316     	220.000000	6.36576   	220.000000	0.00206031	
230.000000	4.54797   	230.000000	6.19579   	230.000000	6.25441   	230.000000	6.14373   	230.000000	6.19381   	230.000000	0.00197855	
240.000000	4.43561   	240.000000	6.0375    	240.000000	6.09962   	240.000000	5.98538   	240.000000	6.0356    	240.000000	0.00190327	
250.000000	4.33163   	250.000000	5.8914    	250.000000	5.95657   	250.000000	5.83935   	250.000000	5.88957   	250.000000	0.00183374	
260.000000	4.23514   	260.000000	5.75614   	260.000000	5.82422   	260.000000	5.70428   	260.000000	5.75437   	260.000000	0.00176931	
270.000000	4.14535   	270.000000	5.63058   	270.000000	5.70139   	270.000000	5.579     	270.000000	5.62887   	270.000000	0.00170943	
280.000000	4.06159   	280.000000	5.51372   	280.000000	5.5871    	280.000000	5.46251   	280.000000	5.51206   	280.000000	0.00165363	
290.000000	3.98328   	290.000000	5.4047    	290.000000	5.48011   	290.000000	5.35393   	290.000000	5.4031    	290.000000	0.0016015 	
300.000000	3.90989   	300.000000	5.30279   	300.000000	5.38001   	300.000000	5.2525    	300.000000	5.30123   	300.000000	0.00155268	
310.000000	3.84099   	310.000000	5.20731   	310.000000	5.28636   	310.000000	5.15755   	310.000000	5.2058    	310.000000	0.00150687	
320.000000	3.77617   	320.000000	5.11768   	320.000000	5.19848   	320.000000	5.0685    	320.000000	5.11622   	320.000000	0.00146379	
330.000000	3.7151    	330.000000	5.03341   	330.000000	5.11554   	330.000000	4.98483   	330.000000	5.03199   	330.000000	0.0014232 	
340.000000	3.65745   	340.000000	4.95403   	340.000000	5.03742   	340.000000	4.90607   	340.000000	4.95265   	340.000000	0.00138489	
350.000000	3.60296   	350.000000	4.87914   	350.000000	4.96405   	350.000000	4.83182   	350.000000	4.87779   	350.000000	0.00134867	
360.000000	3.55137   	360.000000	4.80839   	360.000000	4.89466   	360.000000	4.76174   	360.000000	4.80707   	360.000000	0.00131437	
370.000000	3.50247   	370.000000	4.74144   	370.000000	4.82838   	370.000000	4.69506   	370.000000	4.74016   	370.000000	0.00128184	
380.000000	3.45605   	380.000000	4.67801   	380.000000	4.76561   	380.000000	4.63193   	380.000000	4.67676   	380.000000	0.00125095	
390.000000	3.41194   	390.000000	4.61784   	390.000000	4.70612   	390.000000	4.57208   	390.000000	4.61662   	390.000000	0.00122156	
400.000000	3.36997   	400.000000	4.56069   	400.000000	4.64964   	400.000000	4.51527   	400.000000	4.5595    	400.000000	0.00119358	
410.000000	3.32999   	410.000000	4.50636   	410.000000	4.59593   	410.000000	4.46129   	410.000000	4.50519   	410.000000	0.0011669 	
420.000000	3.29188   	420.000000	4.45463   	420.000000	4.54482   	420.000000	4.40994   	420.000000	4.45349   	420.000000	0.00114144	
430.000000	3.2555    	430.000000	4.40535   	430.000000	4.49615   	430.000000	4.36103   	430.000000	4.40423   	430.000000	0.00111711	
440.000000	3.22075   	440.000000	4.35834   	440.000000	4.44978   	440.000000	4.31441   	440.000000	4.35725   	440.000000	0.00109383	
450.000000	3.18753   	450.000000	4.31347   	450.000000	4.40548   	450.000000	4.26993   	450.000000	4.3124    	450.000000	0.00107154	
460.000000	3.15574   	460.000000	4.27059   	460.000000	4.36301   	460.000000	4.22745   	460.000000	4.26954   	460.000000	0.00105018	
470.000000	3.12529   	470.000000	4.22959   	470.000000	4.32234   	470.000000	4.18685   	470.000000	4.22856   	470.000000	0.00102968	
480.000000	3.0961    	480.000000	4.19035   	480.000000	4.28352   	480.000000	4.14801   	480.000000	4.18934   	480.000000	0.00101   	
490.000000	3.06812   	490.000000	4.15276   	490.000000	4.24647   	490.000000	4.11083   	490.000000	4.15177   	490.000000	0.000991093	
500.000000	3.04125   	500.000000	4.11673   	500.000000	4.21097   	500.000000	4.0752    	500.000000	4.11576   	500.000000	0.000972904	
520.000000	2.99066   	520.000000	4.04901   	520.000000	4.14396   	520.000000	4.00828   	520.000000	4.04807   	520.000000	0.000938533	
540.000000	2.94387   	540.000000	3.98654   	540.000000	4.08208   	540.000000	3.94659   	540.000000	3.98563   	540.000000	0.000906598	
560.000000	2.90052   	560.000000	3.92878   	560.000000	4.02493   	560.000000	3.88958   	560.000000	3.9279    	560.000000	0.000876844	
580.000000	2.86025   	580.000000	3.87525   	580.000000	3.97196   	580.000000	3.83678   	580.000000	3.8744    	580.000000	0.000849053	
600.000000	2.82279   	600.000000	3.82554   	600.000000	3.92283   	600.000000	3.78777   	600.000000	3.82472   	600.000000	0.000823035	
620.000000	2.78787   	620.000000	3.7793    	620.000000	3.87705   	620.000000	3.74219   	620.000000	3.7785    	620.000000	0.000798624	
640.000000	2.75527   	640.000000	3.73621   	640.000000	3.83418   	640.000000	3.69972   	640.000000	3.73543   	640.000000	0.000775672	
660.000000	2.72479   	660.000000	3.69598   	660.000000	3.7942    	660.000000	3.66007   	660.000000	3.69523   	660.000000	0.000754051	
680.000000	2.69626   	680.000000	3.65838   	680.000000	3.75698   	680.000000	3.62301   	680.000000	3.65765   	680.000000	0.000733647	
700.000000	2.66952   	700.000000	3.62319   	700.000000	3.72207   	700.000000	3.5883    	700.000000	3.62247   	700.000000	0.00071436	
720.000000	2.64442   	720.000000	3.5902    	720.000000	3.68917   	720.000000	3.55575   	720.000000	3.5895    	720.000000	0.000696098	
740.000000	2.62084   	740.000000	3.55924   	740.000000	3.6583    	740.000000	3.52519   	740.000000	3.55856   	740.000000	0.000678781	
760.000000	2.59868   	760.000000	3.53016   	760.000000	3.6294    	760.000000	3.49645   	760.000000	3.5295    	760.000000	0.000662337	
780.000000	2.57782   	780.000000	3.50282   	780.000000	3.60222   	780.000000	3.4694    	780.000000	3.50218   	780.000000	0.0006467 	
800.000000	2.55817   	800.000000	3.47709   	800.000000	3.57651   	800.000000	3.44391   	800.000000	3.47646   	800.000000	0.000631811	
820.000000	2.53966   	820.000000	3.45286   	820.000000	3.55217   	820.000000	3.41987   	820.000000	3.45224   	820.000000	0.000617618	
840.000000	2.5222    	840.000000	3.43001   	840.000000	3.52916   	840.000000	3.39716   	840.000000	3.42941   	840.000000	0.000604073	
860.000000	2.50572   	860.000000	3.40846   	860.000000	3.50743   	860.000000	3.3757    	860.000000	3.40787   	860.000000	0.00059113	
880.000000	2.49017   	880.000000	3.38812   	880.000000	3.48689   	880.000000	3.3554    	880.000000	3.38754   	880.000000	0.000578752	
900.000000	2.47549   	900.000000	3.36891   	900.000000	3.46743   	900.000000	3.33618   	900.000000	3.36834   	900.000000	0.0005669 	
920.000000	2.46161   	920.000000	3.35076   	920.000000	3.44898   	920.000000	3.31796   	920.000000	3.3502    	920.000000	0.000555541	
940.000000	2.4485    	940.000000	3.3336    	940.000000	3.43148   	940.000000	3.30069   	940.000000	3.33305   	940.000000	0.000544646	
960.000000	2.43611   	960.000000	3.31737   	960.000000	3.41486   	960.000000	3.28429   	960.000000	3.31684   	960.000000	0.000534186	
980.000000	2.42439   	980.000000	3.30202   	980.000000	3.39909   	980.000000	3.26873   	980.000000	3.3015    	980.000000	0.000524134	
1000.000000	2.41331   	1000.000000	3.2875    	1000.000000	3.38409   	1000.000000	3.25394   	1000.000000	3.28698   	1000.000000	0.000514468	
1020.000000	2.40284   	1020.000000	3.27375   	1020.000000	3.36983   	1020.000000	3.23987   	1020.000000	3.27324   	1020.000000	0.000505165	
1040.000000	2.39294   	1040.000000	3.26073   	1040.000000	3.35626   	1040.000000	3.22649   	1040.000000	3.26024   	1040.000000	0.000496205	
1060.000000	2.38358   	1060.000000	3.24841   	1060.000000	3.34334   	1060.000000	3.21376   	1060.000000	3.24792   	1060.000000	0.000487569	
1080.000000	2.37473   	1080.000000	3.23674   	1080.000000	3.33103   	1080.000000	3.20163   	1080.000000	3.23626   	1080.000000	0.00047924	
1100.000000	2.36637   	1100.000000	3.2257    	1100.000000	3.3193    	1100.000000	3.19007   	1100.000000	3.22523   	1100.000000	0.0004712 	
1120.000000	2.35847   	1120.000000	3.21524   	1120.000000	3.30813   	1120.000000	3.17906   	1120.000000	3.21477   	1120.000000	0.000463436	
1140.000000	2.35101   	1140.000000	3.20533   	1140.000000	3.29749   	1140.000000	3.16855   	1140.000000	3.20488   	1140.000000	0.000455934	
1160.000000	2.34397   	1160.000000	3.19596   	1160.000000	3.28732   	1160.000000	3.15853   	1160.000000	3.19551   	1160.000000	0.000448679	
1180.000000	2.33733   	1180.000000	3.18709   	1180.000000	3.2776    	1180.000000	3.14897   	1180.000000	3.18665   	1180.000000	0.000441659	
1200.000000	2.33106   	1200.000000	3.1787    	1200.000000	3.2683    	1200.000000	3.13984   	1200.000000	3.17826   	1200.000000	0.000434865	
1220.000000	2.32516   	1220.000000	3.17076   	1220.000000	3.25938   	1220.000000	3.13112   	1220.000000	3.17033   	1220.000000	0.000428283	
1240.000000	2.31961   	1240.000000	3.16325   	1240.000000	3.25084   	1240.000000	3.12278   	1240.000000	3.16283   	1240.000000	0.000421905	
1260.000000	2.31438   	1260.000000	3.15616   	1260.000000	3.24267   	1260.000000	3.11482   	1260.000000	3.15574   	1260.000000	0.000415722	
1280.000000	2.30948   	1280.000000	3.14946   	1280.000000	3.23485   	1280.000000	3.10721   	1280.000000	3.14905   	1280.000000	0.000409723	
1300.000000	2.30487   	1300.000000	3.14314   	1300.000000	3.22739   	1300.000000	3.09993   	1300.000000	3.14273   	1300.000000	0.000403902	
1320.000000	2.30056   	1320.000000	3.13717   	1320.000000	3.22027   	1320.000000	3.09297   	1320.000000	3.13677   	1320.000000	0.00039825	
1340.000000	2.29652   	1340.000000	3.13155   	1340.000000	3.21348   	1340.000000	3.08632   	1340.000000	3.13116   	1340.000000	0.000392759	
1360.000000	2.29275   	1360.000000	3.12626   	1360.000000	3.20699   	1360.000000	3.07995   	1360.000000	3.12587   	1360.000000	0.000387424	
1380.000000	2.28924   	1380.000000	3.12128   	1380.000000	3.2008    	1380.000000	3.07385   	1380.000000	3.1209    	1380.000000	0.000382237	
1400.000000	2.28597   	1400.000000	3.11661   	1400.000000	3.19488   	1400.000000	3.06802   	1400.000000	3.11623   	1400.000000	0.000377191	
1420.000000	2.28294   	1420.000000	3.11222   	1420.000000	3.18921   	1420.000000	3.06244   	1420.000000	3.11185   	1420.000000	0.000372283	
1440.000000	2.28013   	1440.000000	3.10811   	1440.000000	3.18378   	1440.000000	3.05709   	1440.000000	3.10774   	1440.000000	0.000367505	
1460.000000	2.27755   	1460.000000	3.10426   	1460.000000	3.17858   	1460.000000	3.05198   	1460.000000	3.1039    	1460.000000	0.000362852	
1480.000000	2.27517   	1480.000000	3.10067   	1480.000000	3.1736    	1480.000000	3.04708   	1480.000000	3.10032   	1480.000000	0.00035832	
1500.000000	2.273     	1500.000000	3.09733   	1500.000000	3.16882   	1500.000000	3.04239   	1500.000000	3.09697   	1500.000000	0.000353904	
1520.000000	2.27102   	1520.000000	3.09422   	1520.000000	3.16424   	1520.000000	3.03789   	1520.000000	3.09387   	1520.000000	0.0003496 	
1540.000000	2.26923   	1540.000000	3.09133   	1540.000000	3.15985   	1540.000000	3.03359   	1540.000000	3.09099   	1540.000000	0.000345403	
1560.000000	2.26762   	1560.000000	3.08867   	1560.000000	3.15563   	1560.000000	3.02947   	1560.000000	3.08833   	1560.000000	0.000341309	
1580.000000	2.26618   	1580.000000	3.08621   	1580.000000	3.15159   	1580.000000	3.02553   	1580.000000	3.08588   	1580.000000	0.000337314	
1600.000000	2.26492   	1600.000000	3.08396   	1600.000000	3.14771   	1600.000000	3.02175   	1600.000000	3.08362   	1600.000000	0.000333416	
1620.000000	2.26382   	1620.000000	3.0819    	1620.000000	3.14399   	1620.000000	3.01813   	1620.000000	3.08157   	1620.000000	0.000329609	
1640.000000	2.26287   	1640.000000	3.08002   	1640.000000	3.14043   	1640.000000	3.01467   	1640.000000	3.0797    	1640.000000	0.000325892	
1660.000000	2.26208   	1660.000000	3.07833   	1660.000000	3.13701   	1660.000000	3.01136   	1660.000000	3.07801   	1660.000000	0.000322261	
1680.000000	2.26144   	1680.000000	3.07681   	1680.000000	3.13373   	1680.000000	3.00818   	1680.000000	3.0765    	1680.000000	0.000318713	
1700.000000	2.26094   	1700.000000	3.07546   	1700.000000	3.13059   	1700.000000	3.00515   	1700.000000	3.07515   	1700.000000	0.000315244	
1750.000000	2.26029   	1750.000000	3.07279   	1750.000000	3.1233    	1750.000000	2.99811   	1750.000000	3.07248   	1750.000000	0.000306907	
1800.000000	2.26044   	1800.000000	3.07104   	1800.000000	3.11677   	1800.000000	2.99182   	1800.000000	3.07075   	1800.000000	0.000299014	
1850.000000	2.26133   	1850.000000	3.07016   	1850.000000	3.11093   	1850.000000	2.9862    	1850.000000	3.06986   	1850.000000	0.000291531	
1900.000000	2.26291   	1900.000000	3.07006   	1900.000000	3.10572   	1900.000000	2.9812    	1900.000000	3.06977   	1900.000000	0.000284427	
1950.000000	2.26513   	1950.000000	3.07069   	1950.000000	3.10108   	1950.000000	2.97674   	1950.000000	3.07041   	1950.000000	0.000277672	
2000.000000	2.26794   	2000.000000	3.07199   	2000.000000	3.09695   	2000.000000	2.9728    	2000.000000	3.07172   	2000.000000	0.000271242	
2100.000000	2.27522   	2100.000000	3.07644   	2100.000000	3.09007   	2100.000000	2.96626   	2100.000000	3.07618   	2100.000000	0.000259265	
2200.000000	2.28447   	2200.000000	3.08305   	2200.000000	3.08477   	2200.000000	2.96129   	2200.000000	3.0828    	2200.000000	0.000248335	
2300.000000	2.29545   	2300.000000	3.09154   	2300.000000	3.08082   	2300.000000	2.95762   	2300.000000	3.0913    	2300.000000	0.000238319	
2400.000000	2.30799   	2400.000000	3.10168   	2400.000000	3.07802   	2400.000000	2.95507   	2400.000000	3.10145   	2400.000000	0.000229106	
2500.000000	2.32191   	2500.000000	3.11327   	2500.000000	3.07619   	2500.000000	2.95347   	2500.000000	3.11304   	2500.000000	0.000220601	
2600.000000	2.33709   	2600.000000	3.12613   	2600.000000	3.0752    	2600.000000	2.95268   	2600.000000	3.12592   	2600.000000	0.000212726	
2700.000000	2.35341   	2700.000000	3.14014   	2700.000000	3.07493   	2700.000000	2.95258   	2700.000000	3.13993   	2700.000000	0.000205413	
2800.000000	2.37076   	2800.000000	3.15515   	2800.000000	3.07526   	2800.000000	2.95307   	2800.000000	3.15495   	2800.000000	0.000198601	
2900.000000	2.38905   	2900.000000	3.17108   	2900.000000	3.07612   	2900.000000	2.95407   	2900.000000	3.17088   	2900.000000	0.000192242	
3000.000000	2.40822   	3000.000000	3.18781   	3000.000000	3.07743   	3000.000000	2.95551   	3000.000000	3.18763   	3000.000000	0.000186291	
3200.000000	2.4489    	3200.000000	3.22342   	3200.000000	3.08116   	3200.000000	2.95948   	3200.000000	3.22324   	3200.000000	0.000175463	
3400.000000	2.49236   	3400.000000	3.26143   	3400.000000	3.08605   	3400.000000	2.96458   	3400.000000	3.26127   	3400.000000	0.000165862	
3600.000000	2.53824   	3600.000000	3.30145   	3600.000000	3.09179   	3600.000000	2.97054   	3600.000000	3.30129   	3600.000000	0.000157289	
3800.000000	2.58626   	3800.000000	3.34313   	3800.000000	3.09818   	3800.000000	2.97712   	3800.000000	3.34298   	3800.000000	0.000149586	
4000.000000	2.63621   	4000.000000	3.38622   	4000.000000	3.10504   	4000.000000	2.98417   	4000.000000	3.38608   	4000.000000	0.000142625	
4200.000000	2.68789   	4200.000000	3.4305    	4200.000000	3.11224   	4200.000000	2.99156   	4200.000000	3.43037   	4200.000000	0.000136303	
4400.000000	2.74115   	4400.000000	3.47581   	4400.000000	3.11968   	4400.000000	2.99919   	4400.000000	3.47568   	4400.000000	0.000130535	
4600.000000	2.79588   	4600.000000	3.522     	4600.000000	3.12728   	4600.000000	3.00697   	4600.000000	3.52187   	4600.000000	0.00012525	
4800.000000	2.85196   	4800.000000	3.56894   	4800.000000	3.13498   	4800.000000	3.01486   	4800.000000	3.56882   	4800.000000	0.00012039	
5000.000000	2.9093    	5000.000000	3.61654   	5000.000000	3.14275   	5000.000000	3.0228    	5000.000000	3.61643   	5000.000000	0.000115904	
5250.000000	2.98264   	5250.000000	3.67685   	5250.000000	3.15248   	5250.000000	3.03275   	5250.000000	3.67674   	5250.000000	0.00011076	
5500.000000	3.05772   	5500.000000	3.73792   	5500.000000	3.16219   	5500.000000	3.04267   	5500.000000	3.73781   	5500.000000	0.000106068	
6000.000000	3.21267   	6000.000000	3.86192   	6000.000000	3.18143   	6000.000000	3.06228   	6000.000000	3.86182   	6000.000000	9.78148e-05	
6500.000000	3.3735    	6500.000000	3.98784   	6500.000000	3.20025   	6500.000000	3.0814    	6500.000000	3.98774   	6500.000000	9.07883e-05	
7000.000000	3.53976   	7000.000000	4.11519   	7000.000000	3.21833   	7000.000000	3.09994   	7000.000000	4.1151    	7000.000000	8.47314e-05	
7500.000000	3.71109   	7500.000000	4.24362   	7500.000000	3.23607   	7500.000000	3.11784   	7500.000000	4.24354   	7500.000000	7.94544e-05	
8000.000000	3.88723   	8000.000000	4.37287   	8000.000000	3.25287   	8000.000000	3.13509   	8000.000000	4.37279   	8000.000000	7.48146e-05	
8500.000000	4.06798   	8500.000000	4.50274   	8500.000000	3.26901   	8500.000000	3.1517    	8500.000000	4.50267   	8500.000000	7.0702e-05	
9000.000000	4.25319   	9000.000000	4.63307   	9000.000000	3.28465   	9000.000000	3.16767   	9000.000000	4.633     	9000.000000	6.70308e-05	
9500.000000	4.44274   	9500.000000	4.76376   	9500.000000	3.29971   	9500.000000	3.18305   	9500.000000	4.76369   	9500.000000	6.37329e-05	
10000.000000	4.63653   	10000.000000	4.8947    	10000.000000	3.31415   	10000.000000	3.19785   	10000.000000	4.89464   	10000.000000	6.07536e-05	
11000.000000	5.03651   	11000.000000	5.1571    	11000.000000	3.34133   	11000.000000	3.22585   	11000.000000	5.15705   	11000.000000	5.55807e-05	
12000.000000	5.45267   	12000.000000	5.41986   	12000.000000	3.36653   	12000.000000	3.2519    	12000.000000	5.4198    	12000.000000	5.12421e-05	
13000.000000	5.88471   	13000.000000	5.68269   	13000.000000	3.39      	13000.000000	3.27621   	13000.000000	5.68264   	13000.000000	4.75493e-05	
14000.000000	6.3324    	14000.000000	5.94542   	14000.000000	3.41197   	14000.000000	3.29898   	14000.000000	5.94538   	14000.000000	4.43668e-05	
15000.000000	6.79561   	15000.000000	6.20794   	15000.000000	3.43256   	15000.000000	3.32037   	15000.000000	6.2079    	15000.000000	4.15949e-05	
16000.000000	7.27426   	16000.000000	6.47017   	16000.000000	3.45182   	16000.000000	3.34051   	16000.000000	6.47013   	16000.000000	3.91583e-05	
17000.000000	7.76829   	17000.000000	6.73204   	17000.000000	3.46987   	17000.000000	3.35954   	17000.000000	6.732     	17000.000000	3.6999e-05	
18000.000000	8.27767   	18000.000000	6.99352   	18000.000000	3.48685   	18000.000000	3.37757   	18000.000000	6.99349   	18000.000000	3.50719e-05	
19000.000000	8.80239   	19000.000000	7.2546    	19000.000000	3.50288   	19000.000000	3.39469   	19000.000000	7.25457   	19000.000000	3.3341e-05	
20000.000000	9.34247   	20000.000000	7.51526   	20000.000000	3.51808   	20000.000000	3.41098   	20000.000000	7.51523   	20000.000000	3.17776e-05	
21000.000000	9.89793   	21000.000000	7.77549   	21000.000000	3.53246   	21000.000000	3.42651   	21000.000000	7.77546   	21000.000000	3.03583e-05	
22000.000000	10.4688   	22000.000000	8.03529   	22000.000000	3.54596   	22000.000000	3.44136   	22000.000000	8.03526   	22000.000000	2.90638e-05	
23000.000000	11.0551   	23000.000000	8.29466   	23000.000000	3.55884   	23000.000000	3.45556   	23000.000000	8.29463   	23000.000000	2.78783e-05	
24000.000000	11.6569   	24000.000000	8.5536    	24000.000000	3.57123   	24000.000000	3.46918   	24000.000000	8.55357   	24000.000000	2.67884e-05	
25000.000000	12.2743   	25000.000000	8.81212   	25000.000000	3.58309   	25000.000000	3.48226   	25000.000000	8.8121    	25000.000000	2.57828e-05	
26000.000000	12.9073   	26000.000000	9.07023   	26000.000000	3.59434   	26000.000000	3.49484   	26000.000000	9.07021   	26000.000000	2.48522e-05	
27000.000000	13.5559   	27000.000000	9.32794   	27000.000000	3.60499   	27000.000000	3.50696   	27000.000000	9.32791   	27000.000000	2.39882e-05	
28000.000000	14.2203   	28000.000000	9.58524   	28000.000000	3.61516   	28000.000000	3.51864   	28000.000000	9.58522   	28000.000000	2.3184e-05	
29000.000000	14.9004   	29000.000000	9.84215   	29000.000000	3.62499   	29000.000000	3.52991   	29000.000000	9.84213   	29000.000000	2.24335e-05	
30000.000000	15.5964   	30000.000000	10.0987   	30000.000000	3.63448   	30000.000000	3.54081   	30000.000000	10.0987   	30000.000000	2.17313e-05	
32000.000000	17.0364   	32000.000000	10.6106   	32000.000000	3.65234   	32000.000000	3.56156   	32000.000000	10.6106   	32000.000000	2.04547e-05	
34000.000000	18.5408   	34000.000000	11.1211   	34000.000000	3.66872   	34000.000000	3.58106   	34000.000000	11.1211   	34000.000000	1.93235e-05	
36000.000000	20.1101   	36000.000000	11.6303   	36000.000000	3.68378   	36000.000000	3.59945   	36000.000000	11.6302   	36000.000000	1.83142e-05	
38000.000000	21.7451   	38000.000000	12.1381   	38000.000000	3.69773   	38000.000000	3.61684   	38000.000000	12.1381   	38000.000000	1.74078e-05	
40000.000000	23.4464   	40000.000000	12.6446   	40000.000000	3.71072   	40000.000000	3.63333   	40000.000000	12.6446   	40000.000000	1.65892e-05	
42000.000000	25.2147   	42000.000000	13.15     	42000.000000	3.72286   	42000.000000	3.64902   	42000.000000	13.15     	42000.000000	1.58462e-05	
44000.000000	27.0507   	44000.000000	13.6542   	44000.000000	3.73428   	44000.000000	3.66397   	44000.000000	13.6542   	44000.000000	1.51686e-05	
46000.000000	28.9551   	46000.000000	14.1573   	46000.000000	3.74508   	46000.000000	3.67824   	46000.000000	14.1573   	46000.000000	1.45482e-05	
48000.000000	30.9286   	48000.000000	14.6593   	48000.000000	3.7553    	48000.000000	3.69191   	48000.000000	14.6593   	48000.000000	1.39779e-05	
50000.000000	32.972    	50000.000000	15.1604   	50000.000000	3.76482   	50000.000000	3.70501   	50000.000000	15.1604   	50000.000000	1.34517e-05	
