Energy (MeV/u)1	0 - [He-base] F.Hubert et al, AD&ND Tables 46(1990)1	Energy (MeV/u)2	1 - [H -base] J.F.Ziegler et al, Pergamon Press, NY (low energy)	Energy (MeV/u)3	2 - ATIMA 1.2  LS-theory (recommended for high energy)	Energy (MeV/u)4	3 - ATIMA 1.2  without LS-correction	Energy (MeV/u)5	4 - electrical component of [1] - J.F.Ziegler et al	Energy (MeV/u)6	5 - nuclear component of [1] - J.F.Ziegler et al	
0.001000	5.23938   	0.001000	7.30016   	0.001000	6.72699   	0.001000	6.72699   	0.001000	2.81837   	0.001000	4.48179   	
0.002000	5.29957   	0.002000	7.26513   	0.002000	6.78529   	0.002000	6.78529   	0.002000	3.65497   	0.002000	3.61016   	
0.005000	5.55648   	0.005000	7.52181   	0.005000	7.38845   	0.005000	7.38845   	0.005000	5.15361   	0.005000	2.3682    	
0.008000	5.89654   	0.008000	7.96186   	0.008000	8.16508   	0.008000	8.16508   	0.008000	6.1469    	0.008000	1.81495   	
0.010000	6.12622   	0.010000	8.26748   	0.010000	8.68373   	0.010000	8.68373   	0.010000	6.6834    	0.010000	1.58408   	
0.015000	6.98159   	0.015000	9.59219   	0.015000	9.78077   	0.015000	9.78077   	0.015000	8.37211   	0.015000	1.22008   	
0.020000	7.79016   	0.020000	11.4189   	0.020000	10.8606   	0.020000	10.8606   	0.020000	10.4147   	0.020000	1.00411   	
0.025000	8.74088   	0.025000	13.2922   	0.025000	11.9789   	0.025000	11.9789   	0.025000	12.4331   	0.025000	0.859147  	
0.030000	9.60434   	0.030000	15.1739   	0.030000	13.4516   	0.030000	13.4516   	0.030000	14.4265   	0.030000	0.747389  	
0.035000	10.3737   	0.035000	17.053    	0.035000	14.9079   	0.035000	14.9079   	0.035000	16.3847   	0.035000	0.66834   	
0.040000	11.0309   	0.040000	18.9013   	0.040000	16.3292   	0.040000	16.3292   	0.040000	18.2954   	0.040000	0.605808  	
0.045000	11.5674   	0.045000	20.7017   	0.045000	17.708    	0.045000	17.708    	0.045000	20.1467   	0.045000	0.554969  	
0.050000	11.9325   	0.050000	22.3482   	0.050000	19.0385   	0.050000	19.0385   	0.050000	21.8355   	0.050000	0.512735  	
0.055000	12.5603   	0.055000	23.9007   	0.055000	20.317    	0.055000	20.317    	0.055000	23.4237   	0.055000	0.477029  	
0.060000	13.1201   	0.060000	25.37     	0.060000	21.5404   	0.060000	21.5404   	0.060000	24.9236   	0.060000	0.446404  	
0.070000	14.0464   	0.070000	28.038    	0.070000	23.816    	0.070000	23.816    	0.070000	27.6415   	0.070000	0.396492  	
0.080000	15.0402   	0.080000	30.3269   	0.080000	25.8602   	0.080000	25.8602   	0.080000	29.9694   	0.080000	0.357436  	
0.090000	15.872    	0.090000	32.2373   	0.090000	27.6775   	0.090000	27.6775   	0.090000	31.9113   	0.090000	0.325958  	
0.100000	16.5776   	0.100000	33.7896   	0.100000	29.2788   	0.100000	29.2788   	0.100000	33.4896   	0.100000	0.299993  	
0.120000	17.3171   	0.120000	35.9634   	0.120000	31.8952   	0.120000	31.8952   	0.120000	35.7038   	0.120000	0.259557  	
0.140000	17.868    	0.140000	37.1801   	0.140000	33.8473   	0.140000	33.8473   	0.140000	36.9507   	0.140000	0.229407  	
0.160000	18.3544   	0.160000	37.7614   	0.160000	35.273    	0.160000	35.273    	0.160000	37.5554   	0.160000	0.205984  	
0.180000	18.8337   	0.180000	37.9585   	0.180000	36.2938   	0.180000	36.2938   	0.180000	37.7713   	0.180000	0.187215  	
0.200000	19.3277   	0.200000	37.9446   	0.200000	37.0089   	0.200000	37.0089   	0.200000	37.7728   	0.200000	0.171809  	
0.250000	20.2669   	0.250000	38.1143   	0.250000	37.9277   	0.250000	37.9277   	0.250000	37.9712   	0.250000	0.143065  	
0.300000	21.3921   	0.300000	38.5955   	0.300000	38.1646   	0.300000	38.1646   	0.300000	38.4724   	0.300000	0.123046  	
0.350000	22.3301   	0.350000	38.9111   	0.350000	38.1002   	0.350000	38.1002   	0.350000	38.8029   	0.350000	0.10824   	
0.400000	23.0997   	0.400000	39.152    	0.400000	38.1729   	0.400000	38.1729   	0.400000	39.0552   	0.400000	0.0968112 	
0.450000	23.9496   	0.450000	39.7076   	0.450000	39.1581   	0.450000	39.1581   	0.450000	39.6199   	0.450000	0.0877017 	
0.500000	24.6916   	0.500000	40.2353   	0.500000	39.8831   	0.500000	39.8831   	0.500000	40.155    	0.500000	0.0802578 	
0.600000	24.8951   	0.600000	40.9095   	0.600000	40.1134   	0.600000	40.1134   	0.600000	40.8407   	0.600000	0.068794  	
0.700000	24.6289   	0.700000	41.1872   	0.700000	39.6231   	0.700000	39.6231   	0.700000	41.1269   	0.700000	0.0603523 	
0.800000	24.5815   	0.800000	40.4416   	0.800000	39.0735   	0.800000	39.0735   	0.800000	40.3877   	0.800000	0.0538588 	
0.900000	24.4293   	0.900000	39.6477   	0.900000	38.4945   	0.900000	38.4945   	0.900000	39.599    	0.900000	0.0486982 	
1.000000	24.2341   	1.000000	38.8773   	1.000000	37.9014   	1.000000	37.9014   	1.000000	38.8328   	1.000000	0.0444915 	
1.250000	23.5598   	1.250000	37.0094   	1.250000	36.3181   	1.250000	36.3181   	1.250000	36.9727   	1.250000	0.0367167 	
1.500000	22.7827   	1.500000	35.2124   	1.500000	34.5643   	1.500000	34.5643   	1.500000	35.1811   	1.500000	0.0313623 	
1.750000	22.0708   	1.750000	33.6626   	1.750000	33.0377   	1.750000	33.0377   	1.750000	33.6351   	1.750000	0.0274364 	
2.000000	21.3659   	2.000000	32.2241   	2.000000	31.6772   	2.000000	31.6772   	2.000000	32.1997   	2.000000	0.024427  	
2.250000	20.6869   	2.250000	30.8482   	2.250000	30.4473   	2.250000	30.4473   	2.250000	30.8261   	2.250000	0.0220424 	
2.500000	22.9346   	2.500000	29.5668   	2.500000	29.3248   	2.500000	29.3248   	2.500000	29.5467   	2.500000	0.0201034 	
3.000000	21.3099   	3.000000	27.208    	3.000000	27.3404   	3.000000	27.3404   	3.000000	27.1909   	3.000000	0.0171353 	
3.500000	19.8785   	3.500000	25.2104   	3.500000	25.6328   	3.500000	25.6328   	3.500000	25.1954   	3.500000	0.0149646 	
4.000000	18.622    	4.000000	23.5243   	4.000000	24.1426   	4.000000	24.1426   	4.000000	23.511    	4.000000	0.0133042 	
4.500000	17.5162   	4.500000	22.0435   	4.500000	22.828    	4.500000	22.828    	4.500000	22.0315   	4.500000	0.0119907 	
5.000000	16.5381   	5.000000	20.7296   	5.000000	21.658    	5.000000	21.658    	5.000000	20.7186   	5.000000	0.0109242 	
5.500000	15.6681   	5.500000	19.5575   	5.500000	20.6089   	5.500000	20.6089   	5.500000	19.5474   	5.500000	0.0100402 	
6.000000	14.8897   	6.000000	18.5062   	6.000000	19.662    	6.000000	19.662    	6.000000	18.4969   	6.000000	0.00929476	
6.500000	14.1895   	6.500000	17.5585   	6.500000	18.8026   	6.500000	18.8026   	6.500000	17.5498   	6.500000	0.00865728	
7.000000	13.5564   	7.000000	16.7001   	7.000000	18.0185   	7.000000	18.0185   	7.000000	16.692    	7.000000	0.00810554	
7.500000	12.9812   	7.500000	15.919    	7.500000	17.3001   	7.500000	17.3001   	7.500000	15.9114   	7.500000	0.00762307	
8.000000	12.4562   	8.000000	15.2056   	8.000000	16.6391   	8.000000	16.6391   	8.000000	15.1984   	8.000000	0.0071974 	
8.500000	11.9751   	8.500000	14.5513   	8.500000	16.0287   	8.500000	16.0287   	8.500000	14.5445   	8.500000	0.00681891	
9.000000	11.5327   	9.000000	13.9492   	9.000000	15.4632   	9.000000	15.4632   	9.000000	13.9427   	9.000000	0.00648006	
9.500000	11.1243   	9.500000	13.3933   	9.500000	14.9376   	9.500000	14.9376   	9.500000	13.3872   	9.500000	0.00617482	
10.000000	10.7462   	10.000000	13.0047   	10.000000	14.4478   	10.000000	14.4478   	10.000000	12.9988   	10.000000	0.00589836	
11.000000	10.0679   	11.000000	12.3388   	11.000000	13.5157   	11.000000	13.5647   	11.000000	12.3334   	11.000000	0.00541668	
12.000000	9.47681   	12.000000	11.7344   	12.000000	12.7002   	12.000000	12.7858   	12.000000	11.7294   	12.000000	0.00501093	
13.000000	8.95679   	13.000000	11.185    	13.000000	11.9808   	13.000000	12.0936   	13.000000	11.1803   	13.000000	0.00466422	
14.000000	8.49559   	14.000000	10.6842   	14.000000	11.3415   	14.000000	11.4744   	14.000000	10.6799   	14.000000	0.00436438	
15.000000	8.08362   	15.000000	10.2265   	15.000000	10.7696   	15.000000	10.9172   	15.000000	10.2224   	15.000000	0.00410237	
16.000000	7.71328   	16.000000	9.80686   	16.000000	10.2548   	16.000000	10.4134   	16.000000	9.80298   	16.000000	0.00387136	
17.000000	7.37846   	17.000000	9.42101   	17.000000	9.78912   	17.000000	9.95564   	17.000000	9.41734   	17.000000	0.00366608	
18.000000	7.0742    	18.000000	9.0652    	18.000000	9.366     	18.000000	9.53801   	18.000000	9.06172   	18.000000	0.00348239	
19.000000	6.79643   	19.000000	8.73618   	19.000000	8.98013   	19.000000	9.15559   	19.000000	8.73286   	19.000000	0.00331702	
20.000000	6.54179   	20.000000	8.43112   	20.000000	8.62706   	20.000000	8.80421   	20.000000	8.42795   	20.000000	0.00316731	
21.000000	6.30745   	21.000000	8.14755   	21.000000	8.30276   	21.000000	8.48036   	21.000000	8.14452   	21.000000	0.00303111	
22.000000	6.09103   	22.000000	7.88334   	22.000000	8.0037    	22.000000	8.18105   	22.000000	7.88044   	22.000000	0.00290664	
23.000000	5.89053   	23.000000	7.63661   	23.000000	7.72714   	23.000000	7.9037    	23.000000	7.63381   	23.000000	0.00279243	
24.000000	5.70421   	24.000000	7.40569   	24.000000	7.47092   	24.000000	7.64609   	24.000000	7.40301   	24.000000	0.00268724	
25.000000	5.53061   	25.000000	7.18915   	25.000000	7.23312   	25.000000	7.40629   	25.000000	7.18656   	25.000000	0.00259003	
27.000000	5.21657   	27.000000	6.79418   	27.000000	6.8061    	27.000000	6.97361   	27.000000	6.79177   	27.000000	0.00241611	
29.000000	4.94003   	29.000000	6.44307   	29.000000	6.43351   	29.000000	6.59449   	29.000000	6.4408    	29.000000	0.00226499	
31.000000	4.69456   	31.000000	6.12894   	31.000000	6.10941   	31.000000	6.25667   	31.000000	6.12681   	31.000000	0.0021324 	
33.000000	4.4751    	33.000000	5.84629   	33.000000	5.82335   	33.000000	5.95201   	33.000000	5.84428   	33.000000	0.00201509	
35.000000	4.27768   	35.000000	5.59064   	35.000000	5.56599   	35.000000	5.67815   	35.000000	5.58873   	35.000000	0.00191052	
38.000000	4.01597   	38.000000	5.24991   	38.000000	5.22289   	38.000000	5.3156    	38.000000	5.24813   	38.000000	0.00177331	
41.000000	3.78829   	41.000000	4.95193   	41.000000	4.92388   	41.000000	5.00077   	41.000000	4.95027   	41.000000	0.00165522	
44.000000	3.5883    	44.000000	4.68915   	44.000000	4.66054   	44.000000	4.72478   	44.000000	4.6876    	44.000000	0.00155247	
47.000000	3.41115   	47.000000	4.45569   	47.000000	4.42712   	47.000000	4.48087   	47.000000	4.45422   	47.000000	0.00146221	
50.000000	3.25309   	50.000000	4.2469    	50.000000	4.219     	50.000000	4.26373   	50.000000	4.24552   	50.000000	0.00138226	
55.000000	3.02422   	55.000000	3.94399   	55.000000	3.91668   	55.000000	3.95031   	55.000000	3.94272   	55.000000	0.00126751	
60.000000	2.82992   	60.000000	3.68644   	60.000000	3.66078   	60.000000	3.68529   	60.000000	3.68527   	60.000000	0.00117101	
65.000000	2.66277   	65.000000	3.46476   	65.000000	3.44031   	65.000000	3.45822   	65.000000	3.46368   	65.000000	0.00108868	
70.000000	2.51736   	70.000000	3.27194   	70.000000	3.24886   	70.000000	3.26146   	70.000000	3.27092   	70.000000	0.00101758	
75.000000	2.38964   	75.000000	3.10266   	75.000000	3.08099   	75.000000	3.0893    	75.000000	3.10171   	75.000000	0.000955535	
80.000000	2.27649   	80.000000	2.95286   	80.000000	2.93276   	80.000000	2.93738   	80.000000	2.95196   	80.000000	0.000900892	
85.000000	2.17553   	85.000000	2.81934   	85.000000	2.80052   	85.000000	2.80231   	85.000000	2.81849   	85.000000	0.000852387	
90.000000	2.08483   	90.000000	2.69959   	90.000000	2.6818    	90.000000	2.68142   	90.000000	2.69878   	90.000000	0.00080903	
95.000000	2.00288   	95.000000	2.59155   	95.000000	2.57485   	95.000000	2.57258   	95.000000	2.59078   	95.000000	0.000770031	
100.000000	1.92845   	100.000000	2.4936    	100.000000	2.478     	100.000000	2.47407   	100.000000	2.49287   	100.000000	0.000734758	
105.000000	1.86052   	105.000000	2.40438   	105.000000	2.38989   	105.000000	2.38447   	105.000000	2.40367   	105.000000	0.000702694	
110.000000	1.79827   	110.000000	2.32276   	110.000000	2.30917   	110.000000	2.30263   	110.000000	2.32208   	110.000000	0.000673415	
115.000000	1.74098   	115.000000	2.2478    	115.000000	2.23508   	115.000000	2.22758   	115.000000	2.24716   	115.000000	0.000646569	
120.000000	1.68808   	120.000000	2.17873   	120.000000	2.16686   	120.000000	2.1585    	120.000000	2.17811   	120.000000	0.000621861	
125.000000	1.63907   	125.000000	2.11487   	125.000000	2.10386   	125.000000	2.0947    	125.000000	2.11427   	125.000000	0.000599042	
130.000000	1.59353   	130.000000	2.05565   	130.000000	2.04546   	130.000000	2.03561   	130.000000	2.05508   	130.000000	0.000577901	
135.000000	1.55109   	135.000000	2.00059   	135.000000	1.99104   	135.000000	1.98071   	135.000000	2.00003   	135.000000	0.000558256	
140.000000	1.51144   	140.000000	1.94925   	140.000000	1.94042   	140.000000	1.92958   	140.000000	1.94871   	140.000000	0.000539954	
145.000000	1.4743    	145.000000	1.90127   	145.000000	1.89321   	145.000000	1.88183   	145.000000	1.90074   	145.000000	0.000522858	
150.000000	1.43944   	150.000000	1.85633   	150.000000	1.84888   	150.000000	1.83715   	150.000000	1.85582   	150.000000	0.000506852	
155.000000	1.39023   	155.000000	1.81415   	155.000000	1.80728   	155.000000	1.79525   	155.000000	1.81365   	155.000000	0.000491833	
160.000000	1.36144   	160.000000	1.77448   	160.000000	1.76822   	160.000000	1.75588   	160.000000	1.774     	160.000000	0.000477712	
165.000000	1.33429   	165.000000	1.7371    	165.000000	1.73143   	165.000000	1.71881   	165.000000	1.73664   	165.000000	0.00046441	
170.000000	1.30862   	170.000000	1.70183   	170.000000	1.69664   	170.000000	1.68386   	170.000000	1.70138   	170.000000	0.000451856	
175.000000	1.28433   	175.000000	1.66848   	175.000000	1.66374   	175.000000	1.65083   	175.000000	1.66804   	175.000000	0.000439988	
180.000000	1.26129   	180.000000	1.63691   	180.000000	1.6327    	180.000000	1.61959   	180.000000	1.63648   	180.000000	0.000428751	
185.000000	1.23943   	185.000000	1.60697   	185.000000	1.60329   	185.000000	1.58999   	185.000000	1.60656   	185.000000	0.000418096	
190.000000	1.21864   	190.000000	1.57855   	190.000000	1.57529   	190.000000	1.5619    	190.000000	1.57814   	190.000000	0.000407976	
195.000000	1.19885   	195.000000	1.55153   	195.000000	1.54866   	195.000000	1.53521   	195.000000	1.55113   	195.000000	0.000398354	
200.000000	1.17999   	200.000000	1.5258    	200.000000	1.52335   	200.000000	1.50982   	200.000000	1.52541   	200.000000	0.000389192	
210.000000	1.14481   	210.000000	1.4779    	210.000000	1.47639   	210.000000	1.46259   	210.000000	1.47753   	210.000000	0.000372121	
220.000000	1.11263   	220.000000	1.4342    	220.000000	1.43349   	220.000000	1.41956   	220.000000	1.43384   	220.000000	0.000356537	
230.000000	1.0831    	230.000000	1.39418   	230.000000	1.39422   	230.000000	1.3802    	230.000000	1.39384   	230.000000	0.000342252	
240.000000	1.05589   	240.000000	1.35739   	240.000000	1.35809   	240.000000	1.34406   	240.000000	1.35706   	240.000000	0.000329108	
250.000000	1.03075   	250.000000	1.32347   	250.000000	1.3248    	250.000000	1.31077   	250.000000	1.32315   	250.000000	0.000316971	
260.000000	1.00743   	260.000000	1.29208   	260.000000	1.29408   	260.000000	1.28002   	260.000000	1.29178   	260.000000	0.000305729	
270.000000	0.985759  	270.000000	1.26297   	270.000000	1.26564   	270.000000	1.25152   	270.000000	1.26268   	270.000000	0.000295286	
280.000000	0.96556   	280.000000	1.23589   	280.000000	1.23919   	280.000000	1.22504   	280.000000	1.23561   	280.000000	0.000285557	
290.000000	0.946689  	290.000000	1.21065   	290.000000	1.21447   	290.000000	1.20037   	290.000000	1.21037   	290.000000	0.000276472	
300.000000	0.92902   	300.000000	1.18705   	300.000000	1.19144   	300.000000	1.17735   	300.000000	1.18679   	300.000000	0.000267968	
310.000000	0.912443  	310.000000	1.16496   	310.000000	1.16992   	310.000000	1.15582   	310.000000	1.1647    	310.000000	0.000259989	
320.000000	0.896859  	320.000000	1.14423   	320.000000	1.14967   	320.000000	1.13564   	320.000000	1.14398   	320.000000	0.000252489	
330.000000	0.882184  	330.000000	1.12475   	330.000000	1.1307    	330.000000	1.11668   	330.000000	1.12451   	330.000000	0.000245425	
340.000000	0.868341  	340.000000	1.1064    	340.000000	1.11289   	340.000000	1.09885   	340.000000	1.10617   	340.000000	0.000238759	
350.000000	0.855263  	350.000000	1.0891    	350.000000	1.09604   	350.000000	1.08205   	350.000000	1.08887   	350.000000	0.000232459	
360.000000	0.842888  	360.000000	1.07276   	360.000000	1.08012   	360.000000	1.0662    	360.000000	1.07253   	360.000000	0.000226494	
370.000000	0.831163  	370.000000	1.0573    	370.000000	1.06509   	370.000000	1.05122   	370.000000	1.05708   	370.000000	0.000220839	
380.000000	0.820038  	380.000000	1.04266   	380.000000	1.05085   	380.000000	1.03704   	380.000000	1.04244   	380.000000	0.000215469	
390.000000	0.809471  	390.000000	1.02877   	390.000000	1.03737   	390.000000	1.02361   	390.000000	1.02856   	390.000000	0.000210363	
400.000000	0.799421  	400.000000	1.01559   	400.000000	1.02463   	400.000000	1.01087   	400.000000	1.01538   	400.000000	0.000205502	
410.000000	0.789852  	410.000000	1.00305   	410.000000	1.01253   	410.000000	0.998762  	410.000000	1.00285   	410.000000	0.000200869	
420.000000	0.780732  	420.000000	0.991125  	420.000000	1.00098   	420.000000	0.987252  	420.000000	0.990929  	420.000000	0.000196448	
430.000000	0.772031  	430.000000	0.979762  	430.000000	0.989971  	430.000000	0.976296  	430.000000	0.97957   	430.000000	0.000192224	
440.000000	0.763721  	440.000000	0.968927  	440.000000	0.979483  	440.000000	0.965856  	440.000000	0.968739  	440.000000	0.000188184	
450.000000	0.755779  	450.000000	0.958585  	450.000000	0.969486  	450.000000	0.9559    	450.000000	0.958401  	450.000000	0.000184316	
460.000000	0.748181  	460.000000	0.948706  	460.000000	0.959941  	460.000000	0.946396  	460.000000	0.948525  	460.000000	0.00018061	
470.000000	0.740907  	470.000000	0.939261  	470.000000	0.950819  	470.000000	0.937315  	470.000000	0.939084  	470.000000	0.000177055	
480.000000	0.733937  	480.000000	0.930223  	480.000000	0.942096  	480.000000	0.928632  	480.000000	0.930049  	480.000000	0.000173643	
490.000000	0.727253  	490.000000	0.921568  	490.000000	0.933748  	490.000000	0.920322  	490.000000	0.921398  	490.000000	0.000170364	
500.000000	0.72084   	500.000000	0.913274  	500.000000	0.925752  	500.000000	0.912364  	500.000000	0.913107  	500.000000	0.000167211	
520.000000	0.708766  	520.000000	0.897689  	520.000000	0.910738  	520.000000	0.897421  	520.000000	0.897528  	520.000000	0.000161254	
540.000000	0.697606  	540.000000	0.883319  	540.000000	0.896906  	540.000000	0.883658  	540.000000	0.883164  	540.000000	0.000155722	
560.000000	0.687267  	560.000000	0.870039  	560.000000	0.884134  	560.000000	0.87095   	560.000000	0.869888  	560.000000	0.000150569	
580.000000	0.677669  	580.000000	0.857738  	580.000000	0.872311  	580.000000	0.859187  	580.000000	0.857593  	580.000000	0.000145758	
600.000000	0.668741  	600.000000	0.846322  	600.000000	0.86134   	600.000000	0.848278  	600.000000	0.846181  	600.000000	0.000141255	
620.000000	0.660423  	620.000000	0.835707  	620.000000	0.851147  	620.000000	0.838138  	620.000000	0.83557   	620.000000	0.000137031	
640.000000	0.652659  	640.000000	0.82582   	640.000000	0.841661  	640.000000	0.828697  	640.000000	0.825687  	640.000000	0.000133061	
660.000000	0.645402  	660.000000	0.816597  	660.000000	0.832792  	660.000000	0.819891  	660.000000	0.816467  	660.000000	0.000129322	
680.000000	0.63861   	680.000000	0.80798   	680.000000	0.824475  	680.000000	0.811663  	680.000000	0.807854  	680.000000	0.000125795	
700.000000	0.632245  	700.000000	0.79992   	700.000000	0.8167    	700.000000	0.803965  	700.000000	0.799797  	700.000000	0.000122462	
720.000000	0.626273  	720.000000	0.79237   	720.000000	0.809442  	720.000000	0.796751  	720.000000	0.79225   	720.000000	0.000119306	
740.000000	0.620664  	740.000000	0.785291  	740.000000	0.802639  	740.000000	0.789983  	740.000000	0.785174  	740.000000	0.000116315	
760.000000	0.615392  	760.000000	0.778646  	760.000000	0.796241  	760.000000	0.783624  	760.000000	0.778532  	760.000000	0.000113475	
780.000000	0.610431  	780.000000	0.772402  	780.000000	0.790223  	780.000000	0.777644  	780.000000	0.772292  	780.000000	0.000110775	
800.000000	0.605759  	800.000000	0.766532  	800.000000	0.78456   	800.000000	0.772013  	800.000000	0.766423  	800.000000	0.000108204	
820.000000	0.601357  	820.000000	0.761006  	820.000000	0.779221  	820.000000	0.766706  	820.000000	0.760901  	820.000000	0.000105755	
840.000000	0.597206  	840.000000	0.755803  	840.000000	0.774171  	840.000000	0.761698  	840.000000	0.7557    	840.000000	0.000103417	
860.000000	0.59329   	860.000000	0.750899  	860.000000	0.769387  	860.000000	0.756969  	860.000000	0.750798  	860.000000	0.000101185	
880.000000	0.589594  	880.000000	0.746276  	880.000000	0.76486   	880.000000	0.7525    	880.000000	0.746177  	880.000000	9.90493e-05	
900.000000	0.586104  	900.000000	0.741913  	900.000000	0.760586  	900.000000	0.748272  	900.000000	0.741816  	900.000000	9.70054e-05	
920.000000	0.582807  	920.000000	0.737796  	920.000000	0.756552  	920.000000	0.74427   	920.000000	0.737701  	920.000000	9.50469e-05	
940.000000	0.579691  	940.000000	0.733908  	940.000000	0.752737  	940.000000	0.740478  	940.000000	0.733815  	940.000000	9.31686e-05	
960.000000	0.576747  	960.000000	0.730236  	960.000000	0.749123  	960.000000	0.736884  	960.000000	0.730145  	960.000000	9.13656e-05	
980.000000	0.573963  	980.000000	0.726767  	980.000000	0.745694  	980.000000	0.733474  	980.000000	0.726677  	980.000000	8.96335e-05	
1000.000000	0.571332  	1000.000000	0.723489  	1000.000000	0.742436  	1000.000000	0.730238  	1000.000000	0.723401  	1000.000000	8.79679e-05	
1020.000000	0.568844  	1020.000000	0.72039   	1020.000000	0.739336  	1020.000000	0.727164  	1020.000000	0.720303  	1020.000000	8.63653e-05	
1040.000000	0.566492  	1040.000000	0.717461  	1040.000000	0.736382  	1040.000000	0.724244  	1040.000000	0.717376  	1040.000000	8.48219e-05	
1060.000000	0.564268  	1060.000000	0.714692  	1060.000000	0.733568  	1060.000000	0.721467  	1060.000000	0.714609  	1060.000000	8.33346e-05	
1080.000000	0.562167  	1080.000000	0.712075  	1080.000000	0.730889  	1080.000000	0.718826  	1080.000000	0.711993  	1080.000000	8.19003e-05	
1100.000000	0.560181  	1100.000000	0.709601  	1100.000000	0.728341  	1100.000000	0.716313  	1100.000000	0.709521  	1100.000000	8.05162e-05	
1120.000000	0.558305  	1120.000000	0.707263  	1120.000000	0.72592   	1120.000000	0.713921  	1120.000000	0.707184  	1120.000000	7.91797e-05	
1140.000000	0.556533  	1140.000000	0.705055  	1140.000000	0.723619  	1140.000000	0.711643  	1140.000000	0.704977  	1140.000000	7.78883e-05	
1160.000000	0.554861  	1160.000000	0.702968  	1160.000000	0.721431  	1160.000000	0.709472  	1160.000000	0.702891  	1160.000000	7.66397e-05	
1180.000000	0.553283  	1180.000000	0.700998  	1180.000000	0.719348  	1180.000000	0.707404  	1180.000000	0.700922  	1180.000000	7.54319e-05	
1200.000000	0.551796  	1200.000000	0.699138  	1200.000000	0.717364  	1200.000000	0.705433  	1200.000000	0.699064  	1200.000000	7.42629e-05	
1220.000000	0.550395  	1220.000000	0.697384  	1220.000000	0.715472  	1220.000000	0.703553  	1220.000000	0.697311  	1220.000000	7.31307e-05	
1240.000000	0.549076  	1240.000000	0.69573   	1240.000000	0.713667  	1240.000000	0.70176   	1240.000000	0.695658  	1240.000000	7.20337e-05	
1260.000000	0.547835  	1260.000000	0.694171  	1260.000000	0.711943  	1260.000000	0.700049  	1260.000000	0.6941    	1260.000000	7.09703e-05	
1280.000000	0.54667   	1280.000000	0.692703  	1280.000000	0.710296  	1280.000000	0.698417  	1280.000000	0.692633  	1280.000000	6.99388e-05	
1300.000000	0.545576  	1300.000000	0.691323  	1300.000000	0.708721  	1300.000000	0.696859  	1300.000000	0.691254  	1300.000000	6.89379e-05	
1320.000000	0.544552  	1320.000000	0.690025  	1320.000000	0.707214  	1320.000000	0.695372  	1320.000000	0.689957  	1320.000000	6.79662e-05	
1340.000000	0.543593  	1340.000000	0.688807  	1340.000000	0.705772  	1340.000000	0.693953  	1340.000000	0.68874   	1340.000000	6.70224e-05	
1360.000000	0.542698  	1360.000000	0.687665  	1360.000000	0.704393  	1360.000000	0.692598  	1360.000000	0.687599  	1360.000000	6.61053e-05	
1380.000000	0.541863  	1380.000000	0.686596  	1380.000000	0.703076  	1380.000000	0.691304  	1380.000000	0.686531  	1380.000000	6.52138e-05	
1400.000000	0.541087  	1400.000000	0.685597  	1400.000000	0.701818  	1400.000000	0.690069  	1400.000000	0.685532  	1400.000000	6.43469e-05	
1420.000000	0.540366  	1420.000000	0.684664  	1420.000000	0.700618  	1420.000000	0.688889  	1420.000000	0.684601  	1420.000000	6.35035e-05	
1440.000000	0.5397    	1440.000000	0.683795  	1440.000000	0.699474  	1440.000000	0.687762  	1440.000000	0.683733  	1440.000000	6.26826e-05	
1460.000000	0.539085  	1460.000000	0.682988  	1460.000000	0.698384  	1460.000000	0.686686  	1460.000000	0.682926  	1460.000000	6.18834e-05	
1480.000000	0.538521  	1480.000000	0.68224   	1480.000000	0.697345  	1480.000000	0.685658  	1480.000000	0.682179  	1480.000000	6.1105e-05	
1500.000000	0.538004  	1500.000000	0.681548  	1500.000000	0.696355  	1500.000000	0.684677  	1500.000000	0.681488  	1500.000000	6.03466e-05	
1520.000000	0.537534  	1520.000000	0.680911  	1520.000000	0.69541   	1520.000000	0.683741  	1520.000000	0.680851  	1520.000000	5.96074e-05	
1540.000000	0.537108  	1540.000000	0.680326  	1540.000000	0.694507  	1540.000000	0.682846  	1540.000000	0.680267  	1540.000000	5.88867e-05	
1560.000000	0.536725  	1560.000000	0.679792  	1560.000000	0.693644  	1560.000000	0.681992  	1560.000000	0.679734  	1560.000000	5.81838e-05	
1580.000000	0.536384  	1580.000000	0.679306  	1580.000000	0.69282   	1580.000000	0.681178  	1580.000000	0.679248  	1580.000000	5.7498e-05	
1600.000000	0.536083  	1600.000000	0.678867  	1600.000000	0.692031  	1600.000000	0.6804    	1600.000000	0.67881   	1600.000000	5.68288e-05	
1620.000000	0.535821  	1620.000000	0.678472  	1620.000000	0.691276  	1620.000000	0.679658  	1620.000000	0.678416  	1620.000000	5.61755e-05	
1640.000000	0.535596  	1640.000000	0.678121  	1640.000000	0.690554  	1640.000000	0.67895   	1640.000000	0.678066  	1640.000000	5.55375e-05	
1660.000000	0.535407  	1660.000000	0.677812  	1660.000000	0.689865  	1660.000000	0.678276  	1660.000000	0.677757  	1660.000000	5.49143e-05	
1680.000000	0.535254  	1680.000000	0.677543  	1680.000000	0.689206  	1680.000000	0.677632  	1680.000000	0.677489  	1680.000000	5.43055e-05	
1700.000000	0.535134  	1700.000000	0.677314  	1700.000000	0.688578  	1700.000000	0.677019  	1700.000000	0.67726   	1700.000000	5.37104e-05	
1750.000000	0.534977  	1750.000000	0.6769    	1750.000000	0.687135  	1750.000000	0.675612  	1750.000000	0.676848  	1750.000000	5.22801e-05	
1800.000000	0.535009  	1800.000000	0.676703  	1800.000000	0.685863  	1800.000000	0.674369  	1800.000000	0.676652  	1800.000000	5.09263e-05	
1850.000000	0.535217  	1850.000000	0.676703  	1850.000000	0.68475   	1850.000000	0.673275  	1850.000000	0.676653  	1850.000000	4.96432e-05	
1900.000000	0.535588  	1900.000000	0.676886  	1900.000000	0.683777  	1900.000000	0.672316  	1900.000000	0.676838  	1900.000000	4.84251e-05	
1950.000000	0.536112  	1950.000000	0.677238  	1950.000000	0.682929  	1950.000000	0.671482  	1950.000000	0.67719   	1950.000000	4.72673e-05	
2000.000000	0.536777  	2000.000000	0.677745  	2000.000000	0.682194  	2000.000000	0.670759  	2000.000000	0.677699  	2000.000000	4.61653e-05	
2100.000000	0.538496  	2100.000000	0.679184  	2100.000000	0.681017  	2100.000000	0.669614  	2100.000000	0.67914   	2100.000000	4.41131e-05	
2200.000000	0.540681  	2200.000000	0.681124  	2200.000000	0.680178  	2200.000000	0.668814  	2200.000000	0.681082  	2200.000000	4.22411e-05	
2300.000000	0.543278  	2300.000000	0.683499  	2300.000000	0.679629  	2300.000000	0.668304  	2300.000000	0.683458  	2300.000000	4.05262e-05	
2400.000000	0.546243  	2400.000000	0.686255  	2400.000000	0.679329  	2400.000000	0.66804   	2400.000000	0.686216  	2400.000000	3.89492e-05	
2500.000000	0.549537  	2500.000000	0.689345  	2500.000000	0.679243  	2500.000000	0.667984  	2500.000000	0.689307  	2500.000000	3.7494e-05	
2600.000000	0.553128  	2600.000000	0.692731  	2600.000000	0.679339  	2600.000000	0.668106  	2600.000000	0.692695  	2600.000000	3.61468e-05	
2700.000000	0.556988  	2700.000000	0.696379  	2700.000000	0.67959   	2700.000000	0.668379  	2700.000000	0.696344  	2700.000000	3.48961e-05	
2800.000000	0.561093  	2800.000000	0.700262  	2800.000000	0.679975  	2800.000000	0.668781  	2800.000000	0.700228  	2800.000000	3.37315e-05	
2900.000000	0.565422  	2900.000000	0.704353  	2900.000000	0.680473  	2900.000000	0.669294  	2900.000000	0.704321  	2900.000000	3.26445e-05	
3000.000000	0.569958  	3000.000000	0.708633  	3000.000000	0.681068  	3000.000000	0.669903  	3000.000000	0.708601  	3000.000000	3.16275e-05	
3200.000000	0.579585  	3200.000000	0.717683  	3200.000000	0.682498  	3200.000000	0.671354  	3200.000000	0.717654  	3200.000000	2.97777e-05	
3400.000000	0.589868  	3400.000000	0.72729   	3400.000000	0.684173  	3400.000000	0.673048  	3400.000000	0.727262  	3400.000000	2.81383e-05	
3600.000000	0.600726  	3600.000000	0.737357  	3600.000000	0.686027  	3600.000000	0.674921  	3600.000000	0.73733   	3600.000000	2.6675e-05	
3800.000000	0.612091  	3800.000000	0.747808  	3800.000000	0.688012  	3800.000000	0.676925  	3800.000000	0.747783  	3800.000000	2.53606e-05	
4000.000000	0.623911  	4000.000000	0.758583  	4000.000000	0.690091  	4000.000000	0.679022  	4000.000000	0.758559  	4000.000000	2.41733e-05	
4200.000000	0.636142  	4200.000000	0.769633  	4200.000000	0.692236  	4200.000000	0.681185  	4200.000000	0.76961   	4200.000000	2.30953e-05	
4400.000000	0.648748  	4400.000000	0.780917  	4400.000000	0.694425  	4400.000000	0.683392  	4400.000000	0.780895  	4400.000000	2.2112e-05	
4600.000000	0.6617    	4600.000000	0.792403  	4600.000000	0.696642  	4600.000000	0.685626  	4600.000000	0.792382  	4600.000000	2.12115e-05	
4800.000000	0.674972  	4800.000000	0.804063  	4800.000000	0.698873  	4800.000000	0.687874  	4800.000000	0.804043  	4800.000000	2.03835e-05	
5000.000000	0.688543  	5000.000000	0.815875  	5000.000000	0.701108  	5000.000000	0.690125  	5000.000000	0.815855  	5000.000000	1.96195e-05	
5250.000000	0.705901  	5250.000000	0.830822  	5250.000000	0.703896  	5250.000000	0.692933  	5250.000000	0.830803  	5250.000000	1.87437e-05	
5500.000000	0.723668  	5500.000000	0.845943  	5500.000000	0.706667  	5500.000000	0.695722  	5500.000000	0.845925  	5500.000000	1.7945e-05	
6000.000000	0.76034   	6000.000000	0.876609  	6000.000000	0.712125  	6000.000000	0.701212  	6000.000000	0.876592  	6000.000000	1.65408e-05	
6500.000000	0.798404  	6500.000000	0.907712  	6500.000000	0.717439  	6500.000000	0.706552  	6500.000000	0.907696  	6500.000000	1.5346e-05	
7000.000000	0.837752  	7000.000000	0.939138  	7000.000000	0.722588  	7000.000000	0.711721  	7000.000000	0.939124  	7000.000000	1.43165e-05	
7500.000000	0.878299  	7500.000000	0.970807  	7500.000000	0.727562  	7500.000000	0.71671   	7500.000000	0.970794  	7500.000000	1.34199e-05	
8000.000000	0.919987  	8000.000000	1.00266   	8000.000000	0.732324  	8000.000000	0.721519  	8000.000000	1.00265   	8000.000000	1.2632e-05	
8500.000000	0.962766  	8500.000000	1.03465   	8500.000000	0.736923  	8500.000000	0.726152  	8500.000000	1.03463   	8500.000000	1.19338e-05	
9000.000000	1.0066    	9000.000000	1.06673   	9000.000000	0.741379  	9000.000000	0.730615  	9000.000000	1.06672   	9000.000000	1.13108e-05	
9500.000000	1.05146   	9500.000000	1.0989    	9500.000000	0.745667  	9500.000000	0.734915  	9500.000000	1.09889   	9500.000000	1.07513e-05	
10000.000000	1.09732   	10000.000000	1.13112   	10000.000000	0.749784  	10000.000000	0.739061  	10000.000000	1.13111   	10000.000000	1.0246e-05	
11000.000000	1.19199   	11000.000000	1.19566   	11000.000000	0.757572  	11000.000000	0.746921  	11000.000000	1.19565   	11000.000000	9.36909e-06	
12000.000000	1.29048   	12000.000000	1.26027   	12000.000000	0.764852  	12000.000000	0.754257  	12000.000000	1.26026   	12000.000000	8.63397e-06	
13000.000000	1.39273   	13000.000000	1.32487   	13000.000000	0.771665  	13000.000000	0.761127  	13000.000000	1.32486   	13000.000000	8.00857e-06	
14000.000000	1.49868   	14000.000000	1.38944   	14000.000000	0.778056  	14000.000000	0.76758   	14000.000000	1.38943   	14000.000000	7.46984e-06	
15000.000000	1.60831   	15000.000000	1.45394   	15000.000000	0.784068  	15000.000000	0.773661  	15000.000000	1.45393   	15000.000000	7.0008e-06	
16000.000000	1.72159   	16000.000000	1.51836   	16000.000000	0.789742  	16000.000000	0.779408  	16000.000000	1.51835   	16000.000000	6.58864e-06	
17000.000000	1.83851   	17000.000000	1.58268   	17000.000000	0.795112  	17000.000000	0.784853  	17000.000000	1.58268   	17000.000000	6.22352e-06	
18000.000000	1.95907   	18000.000000	1.64691   	18000.000000	0.80021   	18000.000000	0.790025  	18000.000000	1.6469    	18000.000000	5.89775e-06	
19000.000000	2.08325   	19000.000000	1.71103   	19000.000000	0.805061  	19000.000000	0.79495   	19000.000000	1.71102   	19000.000000	5.60525e-06	
20000.000000	2.21107   	20000.000000	1.77504   	20000.000000	0.80969   	20000.000000	0.799648  	20000.000000	1.77503   	20000.000000	5.34113e-06	
21000.000000	2.34253   	21000.000000	1.83894   	21000.000000	0.814103  	21000.000000	0.804139  	21000.000000	1.83893   	21000.000000	5.10142e-06	
22000.000000	2.47764   	22000.000000	1.90273   	22000.000000	0.818301  	22000.000000	0.808441  	22000.000000	1.90273   	22000.000000	4.88284e-06	
23000.000000	2.6164    	23000.000000	1.96642   	23000.000000	0.822337  	23000.000000	0.812568  	23000.000000	1.96641   	23000.000000	4.68271e-06	
24000.000000	2.75883   	24000.000000	2.02999   	24000.000000	0.826217  	24000.000000	0.816533  	24000.000000	2.02999   	24000.000000	4.49876e-06	
25000.000000	2.90494   	25000.000000	2.09346   	25000.000000	0.829935  	25000.000000	0.820348  	25000.000000	2.09346   	25000.000000	4.32908e-06	
26000.000000	3.05475   	26000.000000	2.15683   	26000.000000	0.833508  	26000.000000	0.824025  	26000.000000	2.15683   	26000.000000	4.17208e-06	
27000.000000	3.20826   	27000.000000	2.2201    	27000.000000	0.836953  	27000.000000	0.827572  	27000.000000	2.22009   	27000.000000	4.02635e-06	
28000.000000	3.36549   	28000.000000	2.28326   	28000.000000	0.840273  	28000.000000	0.830999  	28000.000000	2.28326   	28000.000000	3.89073e-06	
29000.000000	3.52647   	29000.000000	2.34633   	29000.000000	0.843474  	29000.000000	0.834313  	29000.000000	2.34633   	29000.000000	3.76418e-06	
30000.000000	3.6912    	30000.000000	2.4093    	30000.000000	0.846563  	30000.000000	0.837521  	30000.000000	2.4093    	30000.000000	3.64582e-06	
32000.000000	4.03199   	32000.000000	2.53497   	32000.000000	0.852441  	32000.000000	0.843645  	32000.000000	2.53497   	32000.000000	3.43065e-06	
34000.000000	4.38802   	34000.000000	2.66028   	34000.000000	0.857962  	34000.000000	0.849416  	34000.000000	2.66028   	34000.000000	3.24007e-06	
36000.000000	4.75944   	36000.000000	2.78525   	36000.000000	0.86315   	36000.000000	0.854873  	36000.000000	2.78525   	36000.000000	3.07006e-06	
38000.000000	5.14639   	38000.000000	2.9099    	38000.000000	0.868034  	38000.000000	0.860048  	38000.000000	2.9099    	38000.000000	2.91743e-06	
40000.000000	5.54903   	40000.000000	3.03424   	40000.000000	0.87265   	40000.000000	0.864968  	40000.000000	3.03423   	40000.000000	2.77963e-06	
42000.000000	5.96754   	42000.000000	3.15827   	42000.000000	0.877031  	42000.000000	0.869657  	42000.000000	3.15827   	42000.000000	2.65458e-06	
44000.000000	6.40206   	44000.000000	3.28203   	44000.000000	0.881205  	44000.000000	0.874135  	44000.000000	3.28202   	44000.000000	2.54057e-06	
46000.000000	6.85278   	46000.000000	3.40551   	46000.000000	0.885196  	46000.000000	0.878421  	46000.000000	3.40551   	46000.000000	2.43619e-06	
48000.000000	7.31985   	48000.000000	3.52873   	48000.000000	0.889013  	48000.000000	0.88253   	48000.000000	3.52872   	48000.000000	2.34027e-06	
50000.000000	7.80345   	50000.000000	3.65169   	50000.000000	0.892649  	50000.000000	0.886476  	50000.000000	3.65169   	50000.000000	2.25179e-06	
