Energy (MeV/u)1	0 - [He-base] F.Hubert et al, AD&ND Tables 46(1990)1	Energy (MeV/u)2	1 - [H -base] J.F.Ziegler et al, Pergamon Press, NY (low energy)	Energy (MeV/u)3	2 - ATIMA 1.2  LS-theory (recommended for high energy)	Energy (MeV/u)4	3 - ATIMA 1.2  without LS-correction	Energy (MeV/u)5	4 - electrical component of [1] - J.F.Ziegler et al	Energy (MeV/u)6	5 - nuclear component of [1] - J.F.Ziegler et al	
0.001000	12.8097   	0.001000	4.67867   	0.001000	4.47806   	0.001000	4.47806   	0.001000	0.524974  	0.001000	4.15369   	
0.002000	13.2353   	0.002000	5.0367    	0.002000	4.76823   	0.002000	4.76823   	0.002000	0.727147  	0.002000	4.30955   	
0.005000	13.1245   	0.005000	5.11114   	0.005000	4.71777   	0.005000	4.71777   	0.005000	1.11855   	0.005000	3.99259   	
0.008000	13.04     	0.008000	4.99846   	0.008000	4.52066   	0.008000	4.52066   	0.008000	1.39505   	0.008000	3.60341   	
0.010000	13.0596   	0.010000	4.92823   	0.010000	4.40442   	0.010000	4.40442   	0.010000	1.54931   	0.010000	3.37892   	
0.015000	13.2645   	0.015000	4.80612   	0.015000	4.1875    	0.015000	4.1875    	0.015000	1.87457   	0.015000	2.93155   	
0.020000	13.5812   	0.020000	4.7473    	0.020000	4.05157   	0.020000	4.05157   	0.020000	2.14596   	0.020000	2.60134   	
0.025000	13.9431   	0.025000	4.73072   	0.025000	3.96886   	0.025000	3.96886   	0.025000	2.38325   	0.025000	2.34747   	
0.030000	14.3215   	0.030000	4.74196   	0.030000	3.92161   	0.030000	3.92161   	0.030000	2.59648   	0.030000	2.14548   	
0.035000	14.703    	0.035000	4.77193   	0.035000	3.89879   	0.035000	3.89879   	0.035000	2.79158   	0.035000	1.98035   	
0.040000	15.0811   	0.040000	4.81481   	0.040000	3.89332   	0.040000	3.89332   	0.040000	2.97239   	0.040000	1.84242   	
0.045000	15.4526   	0.045000	4.86676   	0.045000	3.90048   	0.045000	3.90048   	0.045000	3.14158   	0.045000	1.72518   	
0.050000	15.8158   	0.050000	4.92516   	0.050000	3.91705   	0.050000	3.91705   	0.050000	3.30106   	0.050000	1.62409   	
0.055000	16.17     	0.055000	4.98817   	0.055000	3.94074   	0.055000	3.94074   	0.055000	3.4523    	0.055000	1.53587   	
0.060000	16.5152   	0.060000	5.0545    	0.060000	3.96989   	0.060000	3.96989   	0.060000	3.59641   	0.060000	1.45809   	
0.070000	17.6818   	0.070000	5.53824   	0.070000	4.36017   	0.070000	4.36017   	0.070000	4.21133   	0.070000	1.32691   	
0.080000	19.7129   	0.080000	6.0299    	0.080000	4.82815   	0.080000	4.82815   	0.080000	4.80968   	0.080000	1.22022   	
0.090000	21.5805   	0.090000	6.51282   	0.090000	5.32245   	0.090000	5.32245   	0.090000	5.38136   	0.090000	1.13146   	
0.100000	23.3241   	0.100000	6.97785   	0.100000	5.83295   	0.100000	5.83295   	0.100000	5.92155   	0.100000	1.0563    	
0.120000	25.8776   	0.120000	8.05079   	0.120000	6.87403   	0.120000	6.87403   	0.120000	7.11532   	0.120000	0.935471  	
0.140000	28.0671   	0.140000	9.07285   	0.140000	7.90977   	0.140000	7.90977   	0.140000	8.23066   	0.140000	0.842189  	
0.160000	30.0664   	0.160000	10.0294   	0.160000	8.916     	0.160000	8.916     	0.160000	9.26172   	0.160000	0.76769   	
0.180000	31.9774   	0.180000	10.9161   	0.180000	9.87918   	0.180000	9.87918   	0.180000	10.2095   	0.180000	0.70663   	
0.200000	33.8521   	0.200000	11.7282   	0.200000	10.7865   	0.200000	10.7865   	0.200000	11.0786   	0.200000	0.649514  	
0.250000	37.4101   	0.250000	13.6367   	0.250000	12.8426   	0.250000	12.8426   	0.250000	13.0839   	0.250000	0.552791  	
0.300000	40.7162   	0.300000	15.2507   	0.300000	14.5935   	0.300000	14.5935   	0.300000	14.7674   	0.300000	0.483251  	
0.350000	43.7286   	0.350000	16.6378   	0.350000	16.0883   	0.350000	16.0883   	0.350000	16.2072   	0.350000	0.430587  	
0.400000	46.447    	0.400000	17.8556   	0.400000	17.3778   	0.400000	17.3778   	0.400000	17.4664   	0.400000	0.389174  	
0.450000	48.8849   	0.450000	18.9445   	0.450000	18.5053   	0.450000	18.5053   	0.450000	18.5889   	0.450000	0.355662  	
0.500000	51.5198   	0.500000	20.1316   	0.500000	19.5043   	0.500000	19.5043   	0.500000	19.8037   	0.500000	0.327929  	
0.600000	54.9359   	0.600000	22.526    	0.600000	21.213    	0.600000	21.213    	0.600000	22.2414   	0.600000	0.28457   	
0.700000	56.9226   	0.700000	24.564    	0.700000	22.6405   	0.700000	22.6405   	0.700000	24.3119   	0.700000	0.252103  	
0.800000	60.1664   	0.800000	26.2862   	0.800000	24.0162   	0.800000	24.0162   	0.800000	26.0594   	0.800000	0.226795  	
0.900000	62.779    	0.900000	27.7853   	0.900000	25.3536   	0.900000	25.3536   	0.900000	27.5789   	0.900000	0.206461  	
1.000000	64.6135   	1.000000	28.9763   	1.000000	26.5155   	1.000000	26.5155   	1.000000	28.7865   	1.000000	0.189731  	
1.250000	67.487    	1.250000	30.8893   	1.250000	28.8378   	1.250000	28.8378   	1.250000	30.7309   	1.250000	0.158421  	
1.500000	69.0474   	1.500000	32.1984   	1.500000	30.5527   	1.500000	30.5527   	1.500000	32.0619   	1.500000	0.136536  	
1.750000	69.4968   	1.750000	32.9486   	1.750000	31.8402   	1.750000	31.8402   	1.750000	32.8283   	1.750000	0.120305  	
2.000000	69.2177   	2.000000	33.306    	2.000000	32.8149   	2.000000	32.8149   	2.000000	33.1983   	2.000000	0.107749  	
2.250000	68.863    	2.250000	33.6234   	2.250000	33.5544   	2.250000	33.5544   	2.250000	33.5256   	2.250000	0.0977228 	
2.500000	101.77    	2.500000	33.8259   	2.500000	34.1136   	2.500000	34.1136   	2.500000	33.7364   	2.500000	0.0895172 	
3.000000	98.7303   	3.000000	33.9865   	3.000000	34.8395   	3.000000	34.8395   	3.000000	33.9096   	3.000000	0.0768569 	
3.500000	95.3501   	3.500000	33.9151   	3.500000	35.205    	3.500000	35.205    	3.500000	33.8476   	3.500000	0.0675145 	
4.000000	91.937    	4.000000	33.6787   	4.000000	35.3345   	4.000000	35.3345   	4.000000	33.6184   	4.000000	0.0603162 	
4.500000	88.6274   	4.500000	33.3307   	4.500000	35.3051   	4.500000	35.3051   	4.500000	33.2761   	4.500000	0.0545874 	
5.000000	85.4795   	5.000000	32.9063   	5.000000	35.0993   	5.000000	35.0993   	5.000000	32.8564   	5.000000	0.049912  	
5.500000	82.5137   	5.500000	32.9682   	5.500000	34.7955   	5.500000	34.7955   	5.500000	32.9222   	5.500000	0.0460187 	
6.000000	79.7324   	6.000000	32.9869   	6.000000	34.4637   	6.000000	34.4637   	6.000000	32.9442   	6.000000	0.0427229 	
6.500000	77.1292   	6.500000	32.9688   	6.500000	34.1131   	6.500000	34.1131   	6.500000	32.9289   	6.500000	0.0398943 	
7.000000	74.6937   	7.000000	32.9262   	7.000000	33.7505   	7.000000	33.7505   	7.000000	32.8888   	7.000000	0.0374382 	
7.500000	72.4139   	7.500000	32.6742   	7.500000	33.381    	7.500000	33.381    	7.500000	32.6389   	7.500000	0.0352843 	
8.000000	70.2777   	8.000000	32.4124   	8.000000	33.0082   	8.000000	33.0082   	8.000000	32.379    	8.000000	0.0333789 	
8.500000	68.2736   	8.500000	32.1355   	8.500000	32.6347   	8.500000	32.6347   	8.500000	32.1039   	8.500000	0.0316806 	
9.000000	66.3905   	9.000000	31.8587   	9.000000	32.2627   	9.000000	32.2627   	9.000000	31.8285   	9.000000	0.0301567 	
9.500000	64.6184   	9.500000	31.5832   	9.500000	31.8935   	9.500000	31.8935   	9.500000	31.5544   	9.500000	0.028781  	
10.000000	62.9482   	10.000000	31.5212   	10.000000	31.5284   	10.000000	31.5284   	10.000000	31.4937   	10.000000	0.0275327 	
11.000000	59.8807   	11.000000	30.9993   	11.000000	30.7614   	11.000000	31.3504   	11.000000	30.9739   	11.000000	0.0253518 	
12.000000	57.1306   	12.000000	30.4253   	12.000000	29.9994   	12.000000	31.0836   	12.000000	30.4018   	12.000000	0.0235087 	
13.000000	54.6509   	13.000000	29.824    	13.000000	29.2509   	13.000000	30.7537   	13.000000	29.8021   	13.000000	0.0219292 	
14.000000	52.4033   	14.000000	29.2128   	14.000000	28.521    	14.000000	30.3792   	14.000000	29.1923   	14.000000	0.0205596 	
15.000000	50.3561   	15.000000	28.6029   	15.000000	27.8121   	15.000000	29.9739   	15.000000	28.5836   	15.000000	0.0193599 	
16.000000	48.4831   	16.000000	28.0016   	16.000000	27.126    	16.000000	29.5478   	16.000000	27.9833   	16.000000	0.0182999 	
17.000000	46.7625   	17.000000	27.4133   	17.000000	26.4643   	17.000000	29.1084   	17.000000	27.3959   	17.000000	0.017356  	
18.000000	45.1761   	18.000000	26.8409   	18.000000	25.8276   	18.000000	28.6612   	18.000000	26.8244   	18.000000	0.0165098 	
19.000000	43.7082   	19.000000	26.2861   	19.000000	25.1711   	19.000000	28.1668   	19.000000	26.2703   	19.000000	0.0157467 	
20.000000	42.3458   	20.000000	25.7496   	20.000000	24.5809   	20.000000	27.7168   	20.000000	25.7345   	20.000000	0.0150547 	
21.000000	41.0775   	21.000000	25.2317   	21.000000	24.0138   	21.000000	27.2702   	21.000000	25.2173   	21.000000	0.0144241 	
22.000000	39.8937   	22.000000	24.7324   	22.000000	23.4711   	22.000000	26.8286   	22.000000	24.7186   	22.000000	0.0138471 	
23.000000	38.7859   	23.000000	24.2514   	23.000000	22.9514   	23.000000	26.3934   	23.000000	24.2381   	23.000000	0.0133169 	
24.000000	37.7469   	24.000000	23.7882   	24.000000	22.4518   	24.000000	25.9652   	24.000000	23.7753   	24.000000	0.0128279 	
25.000000	36.7702   	25.000000	23.3421   	25.000000	21.9711   	25.000000	25.5449   	25.000000	23.3298   	25.000000	0.0123755 	
27.000000	34.9819   	27.000000	22.4991   	27.000000	21.067    	27.000000	24.729    	27.000000	22.4875   	27.000000	0.0115648 	
29.000000	33.3838   	29.000000	21.7169   	29.000000	20.2328   	29.000000	23.9477   	29.000000	21.706    	29.000000	0.0108588 	
31.000000	31.946    	31.000000	20.9903   	31.000000	19.5375   	31.000000	23.1009   	31.000000	20.9801   	31.000000	0.0102382 	
33.000000	30.6451   	33.000000	20.3143   	33.000000	18.9666   	33.000000	22.2255   	33.000000	20.3046   	33.000000	0.00968815	
35.000000	29.4617   	35.000000	19.6841   	35.000000	18.4341   	35.000000	21.4244   	35.000000	19.6749   	35.000000	0.00919703	
38.000000	27.8736   	38.000000	18.8159   	38.000000	17.7012   	38.000000	20.3416   	38.000000	18.8073   	38.000000	0.0085514 	
41.000000	26.4732   	41.000000	18.0291   	41.000000	17.038    	41.000000	19.3791   	41.000000	18.0211   	41.000000	0.00799458	
44.000000	25.2283   	44.000000	17.3132   	44.000000	16.4307   	44.000000	18.5173   	44.000000	17.3057   	44.000000	0.00750916	
47.000000	24.1137   	47.000000	16.6593   	47.000000	15.8742   	47.000000	17.7404   	47.000000	16.6522   	47.000000	0.00708202	
50.000000	23.1094   	50.000000	16.0598   	50.000000	15.3601   	50.000000	17.0362   	50.000000	16.0531   	50.000000	0.0067031 	
55.000000	21.6385   	55.000000	15.1646   	55.000000	14.59     	55.000000	15.9977   	55.000000	15.1584   	55.000000	0.00615815	
60.000000	20.3736   	60.000000	14.3788   	60.000000	13.9068   	60.000000	15.0978   	60.000000	14.3731   	60.000000	0.00569888	
65.000000	19.2732   	65.000000	13.6838   	65.000000	13.2996   	65.000000	14.3102   	65.000000	13.6785   	65.000000	0.00530628	
70.000000	18.3065   	70.000000	13.0647   	70.000000	12.7545   	70.000000	13.6147   	70.000000	13.0598   	70.000000	0.00496661	
75.000000	17.4498   	75.000000	12.5098   	75.000000	12.2607   	75.000000	12.9959   	75.000000	12.5052   	75.000000	0.0046697 	
80.000000	16.685    	80.000000	12.0097   	80.000000	11.8151   	80.000000	12.4415   	80.000000	12.0053   	80.000000	0.00440783	
85.000000	15.9976   	85.000000	11.5566   	85.000000	11.4064   	85.000000	11.9421   	85.000000	11.5524   	85.000000	0.00417506	
90.000000	15.3762   	90.000000	11.1442   	90.000000	11.0339   	90.000000	11.4897   	90.000000	11.1402   	90.000000	0.00396672	
95.000000	14.8114   	95.000000	10.7673   	95.000000	10.6912   	95.000000	11.0779   	95.000000	10.7635   	95.000000	0.00377911	
100.000000	14.2957   	100.000000	10.4215   	100.000000	10.3747   	100.000000	10.7015   	100.000000	10.4178   	100.000000	0.00360922	
105.000000	13.8227   	105.000000	10.1031   	105.000000	10.0831   	105.000000	10.3561   	105.000000	10.0996   	105.000000	0.00345462	
110.000000	13.3872   	110.000000	9.80899   	110.000000	9.81219   	110.000000	10.0381   	110.000000	9.80568   	110.000000	0.00331332	
115.000000	12.9849   	115.000000	9.53654   	115.000000	9.55977   	115.000000	9.74419   	115.000000	9.53336   	115.000000	0.00318363	
120.000000	12.6119   	120.000000	9.28342   	120.000000	9.32382   	120.000000	9.47187   	120.000000	9.28036   	120.000000	0.00306416	
125.000000	12.2651   	125.000000	9.04767   	125.000000	9.10331   	125.000000	9.21879   	125.000000	9.04471   	125.000000	0.00295373	
130.000000	11.9417   	130.000000	8.82755   	130.000000	8.8973    	130.000000	8.98301   	130.000000	8.8247    	130.000000	0.00285134	
135.000000	11.6394   	135.000000	8.62157   	135.000000	8.70338   	135.000000	8.7628    	135.000000	8.61882   	135.000000	0.00275613	
140.000000	11.3561   	140.000000	8.42843   	140.000000	8.52135   	140.000000	8.55668   	140.000000	8.42576   	140.000000	0.00266735	
145.000000	11.0901   	145.000000	8.24696   	145.000000	8.34999   	145.000000	8.36335   	145.000000	8.24437   	145.000000	0.00258437	
150.000000	10.8398   	150.000000	8.07614   	150.000000	8.18781   	150.000000	8.18166   	150.000000	8.07363   	150.000000	0.00250663	
155.000000	10.4799   	155.000000	7.91507   	155.000000	8.03483   	155.000000	8.01058   	155.000000	7.91264   	155.000000	0.00243363	
160.000000	10.2727   	160.000000	7.76294   	160.000000	7.89013   	160.000000	7.84924   	160.000000	7.76058   	160.000000	0.00236496	
165.000000	10.0769   	165.000000	7.61904   	165.000000	7.75256   	165.000000	7.69681   	165.000000	7.61674   	165.000000	0.00230023	
170.000000	9.89139   	170.000000	7.48272   	170.000000	7.62162   	170.000000	7.5526    	170.000000	7.48048   	170.000000	0.0022391 	
175.000000	9.71548   	175.000000	7.3534    	175.000000	7.49706   	175.000000	7.41595   	175.000000	7.35122   	175.000000	0.00218128	
180.000000	9.54841   	180.000000	7.23056   	180.000000	7.37872   	180.000000	7.2863    	180.000000	7.22843   	180.000000	0.00212651	
185.000000	9.38952   	185.000000	7.11373   	185.000000	7.26621   	185.000000	7.16313   	185.000000	7.11166   	185.000000	0.00207454	
190.000000	9.23822   	190.000000	7.00248   	190.000000	7.15902   	190.000000	7.04596   	190.000000	7.00046   	190.000000	0.00202517	
195.000000	9.09396   	195.000000	6.89644   	195.000000	7.05656   	195.000000	6.93438   	195.000000	6.89446   	195.000000	0.00197819	
200.000000	8.95626   	200.000000	6.79524   	200.000000	6.95838   	200.000000	6.82799   	200.000000	6.7933    	200.000000	0.00193344	
210.000000	8.69883   	210.000000	6.60611   	210.000000	6.774     	210.000000	6.62946   	210.000000	6.60426   	210.000000	0.00185001	
220.000000	8.46282   	220.000000	6.43287   	220.000000	6.60551   	220.000000	6.4479    	220.000000	6.43109   	220.000000	0.00177378	
230.000000	8.24566   	230.000000	6.2736    	230.000000	6.45015   	230.000000	6.28126   	230.000000	6.2719    	230.000000	0.00170384	
240.000000	8.04515   	240.000000	6.12672   	240.000000	6.30589   	240.000000	6.1278    	240.000000	6.12508   	240.000000	0.00163944	
250.000000	7.85945   	250.000000	5.99084   	250.000000	6.17219   	250.000000	5.98605   	250.000000	5.98926   	250.000000	0.00157993	
260.000000	7.68697   	260.000000	5.8648    	260.000000	6.0482    	260.000000	5.85475   	260.000000	5.86328   	260.000000	0.00152478	
270.000000	7.52634   	270.000000	5.74759   	270.000000	5.93288   	270.000000	5.7328    	270.000000	5.74612   	270.000000	0.0014735 	
280.000000	7.3764    	280.000000	5.63833   	280.000000	5.82534   	280.000000	5.61926   	280.000000	5.63691   	280.000000	0.0014257 	
290.000000	7.2361    	290.000000	5.53625   	290.000000	5.72442   	290.000000	5.51332   	290.000000	5.53487   	290.000000	0.00138104	
300.000000	7.10455   	300.000000	5.44068   	300.000000	5.62931   	300.000000	5.41425   	300.000000	5.43934   	300.000000	0.0013392 	
310.000000	6.98097   	310.000000	5.35104   	310.000000	5.54009   	310.000000	5.32143   	310.000000	5.34974   	310.000000	0.00129994	
320.000000	6.86466   	320.000000	5.2668    	320.000000	5.45673   	320.000000	5.23431   	320.000000	5.26554   	320.000000	0.001263  	
330.000000	6.755     	330.000000	5.1875    	330.000000	5.37796   	330.000000	5.15238   	330.000000	5.18627   	330.000000	0.00122819	
340.000000	6.65144   	340.000000	5.11273   	340.000000	5.3034    	340.000000	5.07522   	340.000000	5.11154   	340.000000	0.00119533	
350.000000	6.5535    	350.000000	5.04213   	350.000000	5.23306   	350.000000	5.00244   	350.000000	5.04097   	350.000000	0.00116426	
360.000000	6.46075   	360.000000	4.97537   	360.000000	5.16665   	360.000000	4.93368   	360.000000	4.97424   	360.000000	0.00113483	
370.000000	6.37278   	370.000000	4.91215   	370.000000	5.10372   	370.000000	4.86864   	370.000000	4.91105   	370.000000	0.00110691	
380.000000	6.28925   	380.000000	4.85222   	380.000000	5.04381   	380.000000	4.80703   	380.000000	4.85114   	380.000000	0.00108039	
390.000000	6.20984   	390.000000	4.79532   	390.000000	4.98678   	390.000000	4.74861   	390.000000	4.79427   	390.000000	0.00105516	
400.000000	6.13426   	400.000000	4.74125   	400.000000	4.93263   	400.000000	4.69314   	400.000000	4.74022   	400.000000	0.00103114	
410.000000	6.06224   	410.000000	4.68981   	410.000000	4.88115   	410.000000	4.64041   	410.000000	4.6888    	410.000000	0.00100823	
420.000000	5.99356   	420.000000	4.64082   	420.000000	4.83211   	420.000000	4.59024   	420.000000	4.63983   	420.000000	0.000986355	
430.000000	5.92798   	430.000000	4.59411   	430.000000	4.7854    	430.000000	4.54246   	430.000000	4.59315   	430.000000	0.00096545	
440.000000	5.86532   	440.000000	4.54955   	440.000000	4.74087   	440.000000	4.4969    	440.000000	4.5486    	440.000000	0.000945451	
450.000000	5.8054    	450.000000	4.50698   	450.000000	4.6983    	450.000000	4.45342   	450.000000	4.50606   	450.000000	0.000926297	
460.000000	5.74804   	460.000000	4.4663    	460.000000	4.65747   	460.000000	4.4119    	460.000000	4.46539   	460.000000	0.000907936	
470.000000	5.69309   	470.000000	4.42738   	470.000000	4.6183    	470.000000	4.37221   	470.000000	4.42649   	470.000000	0.00089032	
480.000000	5.64041   	480.000000	4.39011   	480.000000	4.58079   	480.000000	4.33424   	480.000000	4.38924   	480.000000	0.000873402	
490.000000	5.58988   	490.000000	4.35441   	490.000000	4.5449    	490.000000	4.29789   	490.000000	4.35356   	490.000000	0.000857141	
500.000000	5.54137   	500.000000	4.32018   	500.000000	4.51074   	500.000000	4.2633    	500.000000	4.31934   	500.000000	0.000841501	
520.000000	5.44997   	520.000000	4.25581   	520.000000	4.44716   	520.000000	4.19897   	520.000000	4.255     	520.000000	0.000811939	
540.000000	5.36542   	540.000000	4.19641   	540.000000	4.38861   	540.000000	4.13971   	540.000000	4.19563   	540.000000	0.000784465	
560.000000	5.28704   	560.000000	4.14146   	560.000000	4.33435   	560.000000	4.085     	560.000000	4.1407    	560.000000	0.000758863	
580.000000	5.21422   	580.000000	4.09053   	580.000000	4.28379   	580.000000	4.03436   	580.000000	4.08979   	580.000000	0.000734944	
600.000000	5.14644   	600.000000	4.04322   	600.000000	4.23713   	600.000000	3.98741   	600.000000	4.04251   	600.000000	0.000712546	
620.000000	5.08325   	620.000000	3.9992    	620.000000	4.19389   	620.000000	3.94379   	620.000000	3.9985    	620.000000	0.000691527	
640.000000	5.02425   	640.000000	3.95816   	640.000000	4.15338   	640.000000	3.90321   	640.000000	3.95749   	640.000000	0.000671761	
660.000000	4.96907   	660.000000	3.91986   	660.000000	4.11546   	660.000000	3.86537   	660.000000	3.9192    	660.000000	0.000653138	
680.000000	4.9174    	680.000000	3.88405   	680.000000	4.08009   	680.000000	3.83005   	680.000000	3.88341   	680.000000	0.00063556	
700.000000	4.86895   	700.000000	3.85052   	700.000000	4.04706   	700.000000	3.79704   	700.000000	3.8499    	700.000000	0.00061894	
720.000000	4.82348   	720.000000	3.8191    	720.000000	4.01614   	720.000000	3.76613   	720.000000	3.8185    	720.000000	0.000603202	
740.000000	4.78077   	740.000000	3.78962   	740.000000	3.98703   	740.000000	3.73717   	740.000000	3.78903   	740.000000	0.000588276	
760.000000	4.74059   	760.000000	3.76193   	760.000000	3.95954   	760.000000	3.70999   	760.000000	3.76135   	760.000000	0.000574099	
780.000000	4.70278   	780.000000	3.73589   	780.000000	3.93371   	780.000000	3.68447   	780.000000	3.73533   	780.000000	0.000560616	
800.000000	4.66717   	800.000000	3.71139   	800.000000	3.90956   	800.000000	3.66047   	800.000000	3.71084   	800.000000	0.000547778	
820.000000	4.6336    	820.000000	3.68831   	820.000000	3.8869    	820.000000	3.63788   	820.000000	3.68778   	820.000000	0.000535536	
840.000000	4.60194   	840.000000	3.66657   	840.000000	3.86551   	840.000000	3.61661   	840.000000	3.66604   	840.000000	0.000523852	
860.000000	4.57206   	860.000000	3.64606   	860.000000	3.84521   	860.000000	3.59655   	860.000000	3.64554   	860.000000	0.000512687	
880.000000	4.54385   	880.000000	3.6267    	880.000000	3.826     	880.000000	3.57763   	880.000000	3.6262    	880.000000	0.000502006	
900.000000	4.51721   	900.000000	3.60842   	900.000000	3.80784   	900.000000	3.55977   	900.000000	3.60793   	900.000000	0.000491778	
920.000000	4.49204   	920.000000	3.59116   	920.000000	3.79071   	920.000000	3.5429    	920.000000	3.59068   	920.000000	0.000481975	
940.000000	4.46825   	940.000000	3.57485   	940.000000	3.77451   	940.000000	3.52694   	940.000000	3.57437   	940.000000	0.000472571	
960.000000	4.44577   	960.000000	3.55942   	960.000000	3.75919   	960.000000	3.51186   	960.000000	3.55896   	960.000000	0.000463541	
980.000000	4.42451   	980.000000	3.54484   	980.000000	3.74467   	980.000000	3.49758   	980.000000	3.54438   	980.000000	0.000454863	
1000.000000	4.40441   	1000.000000	3.53104   	1000.000000	3.73091   	1000.000000	3.48406   	1000.000000	3.53059   	1000.000000	0.000446517	
1020.000000	4.3854    	1020.000000	3.51798   	1020.000000	3.71788   	1020.000000	3.47125   	1020.000000	3.51755   	1020.000000	0.000438484	
1040.000000	4.36743   	1040.000000	3.50563   	1040.000000	3.70554   	1040.000000	3.45912   	1040.000000	3.5052    	1040.000000	0.000430745	
1060.000000	4.35044   	1060.000000	3.49394   	1060.000000	3.69384   	1060.000000	3.44762   	1060.000000	3.49352   	1060.000000	0.000423286	
1080.000000	4.33438   	1080.000000	3.48288   	1080.000000	3.68273   	1080.000000	3.43671   	1080.000000	3.48246   	1080.000000	0.000416091	
1100.000000	4.31921   	1100.000000	3.47241   	1100.000000	3.67216   	1100.000000	3.42636   	1100.000000	3.472     	1100.000000	0.000409146	
1120.000000	4.30487   	1120.000000	3.4625    	1120.000000	3.6621    	1120.000000	3.41654   	1120.000000	3.4621    	1120.000000	0.000402437	
1140.000000	4.29133   	1140.000000	3.45313   	1140.000000	3.6525    	1140.000000	3.40721   	1140.000000	3.45273   	1140.000000	0.000395954	
1160.000000	4.27855   	1160.000000	3.44426   	1160.000000	3.64338   	1160.000000	3.39836   	1160.000000	3.44387   	1160.000000	0.000389685	
1180.000000	4.26649   	1180.000000	3.43588   	1180.000000	3.63471   	1180.000000	3.38996   	1180.000000	3.43549   	1180.000000	0.000383618	
1200.000000	4.25513   	1200.000000	3.42795   	1200.000000	3.62649   	1200.000000	3.38198   	1200.000000	3.42757   	1200.000000	0.000377745	
1220.000000	4.24442   	1220.000000	3.42046   	1220.000000	3.6187    	1220.000000	3.3744    	1220.000000	3.42008   	1220.000000	0.000372057	
1240.000000	4.23434   	1240.000000	3.41338   	1240.000000	3.61132   	1240.000000	3.36721   	1240.000000	3.41301   	1240.000000	0.000366543	
1260.000000	4.22486   	1260.000000	3.4067    	1260.000000	3.60431   	1260.000000	3.36037   	1260.000000	3.40633   	1260.000000	0.000361197	
1280.000000	4.21595   	1280.000000	3.40039   	1280.000000	3.59765   	1280.000000	3.35387   	1280.000000	3.40003   	1280.000000	0.000356011	
1300.000000	4.2076    	1300.000000	3.39445   	1300.000000	3.59132   	1300.000000	3.3477    	1300.000000	3.39409   	1300.000000	0.000350977	
1320.000000	4.19977   	1320.000000	3.38884   	1320.000000	3.58528   	1320.000000	3.34184   	1320.000000	3.3885    	1320.000000	0.000346089	
1340.000000	4.19245   	1340.000000	3.38357   	1340.000000	3.57953   	1340.000000	3.33627   	1340.000000	3.38323   	1340.000000	0.000341341	
1360.000000	4.18561   	1360.000000	3.37862   	1360.000000	3.57406   	1360.000000	3.33099   	1360.000000	3.37828   	1360.000000	0.000336726	
1380.000000	4.17924   	1380.000000	3.37396   	1380.000000	3.56884   	1380.000000	3.32597   	1380.000000	3.37363   	1380.000000	0.000332239	
1400.000000	4.17332   	1400.000000	3.36959   	1400.000000	3.56388   	1400.000000	3.3212    	1400.000000	3.36927   	1400.000000	0.000327875	
1420.000000	4.16782   	1420.000000	3.3655    	1420.000000	3.55916   	1420.000000	3.31668   	1420.000000	3.36518   	1420.000000	0.000323628	
1440.000000	4.16274   	1440.000000	3.36168   	1440.000000	3.55468   	1440.000000	3.31238   	1440.000000	3.36136   	1440.000000	0.000319495	
1460.000000	4.15805   	1460.000000	3.35811   	1460.000000	3.55042   	1460.000000	3.30831   	1460.000000	3.35779   	1460.000000	0.000315469	
1480.000000	4.15375   	1480.000000	3.35478   	1480.000000	3.54638   	1480.000000	3.30445   	1480.000000	3.35447   	1480.000000	0.000311548	
1500.000000	4.14981   	1500.000000	3.35169   	1500.000000	3.54255   	1500.000000	3.30079   	1500.000000	3.35138   	1500.000000	0.000307726	
1520.000000	4.14623   	1520.000000	3.34883   	1520.000000	3.53891   	1520.000000	3.29732   	1520.000000	3.34852   	1520.000000	0.000304001	
1540.000000	4.14299   	1540.000000	3.34618   	1540.000000	3.53546   	1540.000000	3.29403   	1540.000000	3.34588   	1540.000000	0.000300369	
1560.000000	4.14008   	1560.000000	3.34374   	1560.000000	3.53219   	1560.000000	3.29092   	1560.000000	3.34344   	1560.000000	0.000296825	
1580.000000	4.13749   	1580.000000	3.3415    	1580.000000	3.52909   	1580.000000	3.28798   	1580.000000	3.3412    	1580.000000	0.000293368	
1600.000000	4.13521   	1600.000000	3.33945   	1600.000000	3.52616   	1600.000000	3.2852    	1600.000000	3.33916   	1600.000000	0.000289993	
1620.000000	4.13322   	1620.000000	3.33759   	1620.000000	3.52339   	1620.000000	3.28258   	1620.000000	3.33731   	1620.000000	0.000286698	
1640.000000	4.13153   	1640.000000	3.33591   	1640.000000	3.52076   	1640.000000	3.2801    	1640.000000	3.33563   	1640.000000	0.00028348	
1660.000000	4.13011   	1660.000000	3.33441   	1660.000000	3.51829   	1660.000000	3.27776   	1660.000000	3.33413   	1660.000000	0.000280336	
1680.000000	4.12896   	1680.000000	3.33307   	1680.000000	3.51595   	1680.000000	3.27556   	1680.000000	3.33279   	1680.000000	0.000277263	
1700.000000	4.12807   	1700.000000	3.33189   	1700.000000	3.51374   	1700.000000	3.27349   	1700.000000	3.33162   	1700.000000	0.00027426	
1750.000000	4.12693   	1750.000000	3.32962   	1750.000000	3.50878   	1750.000000	3.26885   	1750.000000	3.32935   	1750.000000	0.00026704	
1800.000000	4.12725   	1800.000000	3.32824   	1800.000000	3.50453   	1800.000000	3.26491   	1800.000000	3.32798   	1800.000000	0.000260204	
1850.000000	4.12891   	1850.000000	3.32768   	1850.000000	3.50094   	1850.000000	3.26161   	1850.000000	3.32742   	1850.000000	0.000253722	
1900.000000	4.13184   	1900.000000	3.32788   	1900.000000	3.49794   	1900.000000	3.25889   	1900.000000	3.32763   	1900.000000	0.000247567	
1950.000000	4.13593   	1950.000000	3.32878   	1950.000000	3.49547   	1950.000000	3.25669   	1950.000000	3.32853   	1950.000000	0.000241714	
2000.000000	4.14111   	2000.000000	3.33032   	2000.000000	3.49349   	2000.000000	3.25496   	2000.000000	3.33008   	2000.000000	0.000236142	
2100.000000	4.15445   	2100.000000	3.33517   	2100.000000	3.49078   	2100.000000	3.25277   	2100.000000	3.33494   	2100.000000	0.000225761	
2200.000000	4.17138   	2200.000000	3.3421    	2200.000000	3.48954   	2200.000000	3.25202   	2200.000000	3.34188   	2200.000000	0.000216285	
2300.000000	4.19149   	2300.000000	3.35083   	2300.000000	3.48953   	2300.000000	3.25247   	2300.000000	3.35062   	2300.000000	0.0002076 	
2400.000000	4.21441   	2400.000000	3.36114   	2400.000000	3.49056   	2400.000000	3.25392   	2400.000000	3.36094   	2400.000000	0.000199609	
2500.000000	4.23988   	2500.000000	3.37285   	2500.000000	3.49247   	2500.000000	3.25622   	2500.000000	3.37266   	2500.000000	0.000192232	
2600.000000	4.26762   	2600.000000	3.38578   	2600.000000	3.49513   	2600.000000	3.25923   	2600.000000	3.3856    	2600.000000	0.000185399	
2700.000000	4.29744   	2700.000000	3.3998    	2700.000000	3.49841   	2700.000000	3.26283   	2700.000000	3.39962   	2700.000000	0.000179052	
2800.000000	4.32914   	2800.000000	3.4148    	2800.000000	3.50222   	2800.000000	3.26694   	2800.000000	3.41463   	2800.000000	0.00017314	
2900.000000	4.36257   	2900.000000	3.43066   	2900.000000	3.50647   	2900.000000	3.27147   	2900.000000	3.4305    	2900.000000	0.000167619	
3000.000000	4.39759   	3000.000000	3.44731   	3000.000000	3.5111    	3000.000000	3.27635   	3000.000000	3.44715   	3000.000000	0.000162452	
3200.000000	4.47191   	3200.000000	3.48265   	3200.000000	3.52124   	3200.000000	3.28697   	3200.000000	3.48249   	3200.000000	0.000153049	
3400.000000	4.55129   	3400.000000	3.5203    	3400.000000	3.53224   	3400.000000	3.29843   	3400.000000	3.52015   	3400.000000	0.000144709	
3600.000000	4.63509   	3600.000000	3.55986   	3600.000000	3.54382   	3600.000000	3.31046   	3600.000000	3.55973   	3600.000000	0.000137259	
3800.000000	4.72281   	3800.000000	3.60103   	3800.000000	3.55577   	3800.000000	3.32287   	3800.000000	3.6009    	3800.000000	0.000130564	
4000.000000	4.81403   	4000.000000	3.64355   	4000.000000	3.56797   	4000.000000	3.3355    	4000.000000	3.64343   	4000.000000	0.000124513	
4200.000000	4.90842   	4200.000000	3.68722   	4200.000000	3.58029   	4200.000000	3.34825   	4200.000000	3.6871    	4200.000000	0.000119015	
4400.000000	5.0057    	4400.000000	3.73186   	4400.000000	3.59268   	4400.000000	3.36103   	4400.000000	3.73174   	4400.000000	0.000113999	
4600.000000	5.10564   	4600.000000	3.77734   	4600.000000	3.60506   	4600.000000	3.37377   	4600.000000	3.77724   	4600.000000	0.000109401	
4800.000000	5.20805   	4800.000000	3.82356   	4800.000000	3.61739   	4800.000000	3.38644   	4800.000000	3.82345   	4800.000000	0.000105173	
5000.000000	5.31278   	5000.000000	3.8704    	5000.000000	3.62963   	5000.000000	3.39899   	5000.000000	3.8703    	5000.000000	0.000101269	
5250.000000	5.44672   	5250.000000	3.92973   	5250.000000	3.64476   	5250.000000	3.41448   	5250.000000	3.92963   	5250.000000	9.67922e-05	
5500.000000	5.58382   	5500.000000	3.98978   	5500.000000	3.65967   	5500.000000	3.42971   	5500.000000	3.98969   	5500.000000	9.2707e-05	
6000.000000	5.86679   	6000.000000	4.11167   	6000.000000	3.68864   	6000.000000	3.4593    	6000.000000	4.11158   	6000.000000	8.55205e-05	
6500.000000	6.1605    	6500.000000	4.23539   	6500.000000	3.71607   	6500.000000	3.48766   	6500.000000	4.23531   	6500.000000	7.93998e-05	
7000.000000	6.46411   	7000.000000	4.36048   	7000.000000	3.74248   	7000.000000	3.51478   	7000.000000	4.36041   	7000.000000	7.41219e-05	
7500.000000	6.77699   	7500.000000	4.4866    	7500.000000	3.76772   	7500.000000	3.54069   	7500.000000	4.48653   	7500.000000	6.95224e-05	
8000.000000	7.09865   	8000.000000	4.61349   	8000.000000	3.79161   	8000.000000	3.56543   	8000.000000	4.61343   	8000.000000	6.54772e-05	
8500.000000	7.42874   	8500.000000	4.74098   	8500.000000	3.81438   	8500.000000	3.58906   	8500.000000	4.74091   	8500.000000	6.18907e-05	
9000.000000	7.76696   	9000.000000	4.8689    	9000.000000	3.83619   	9000.000000	3.61167   	9000.000000	4.86884   	9000.000000	5.86884e-05	
9500.000000	8.11311   	9500.000000	4.99715   	9500.000000	3.85703   	9500.000000	3.63329   	9500.000000	4.99709   	9500.000000	5.58111e-05	
10000.000000	8.46699   	10000.000000	5.12565   	10000.000000	3.87694   	10000.000000	3.65401   	10000.000000	5.12559   	10000.000000	5.32112e-05	
11000.000000	9.19742   	11000.000000	5.38311   	11000.000000	3.91414   	11000.000000	3.69296   	11000.000000	5.38306   	11000.000000	4.86959e-05	
12000.000000	9.9574    	12000.000000	5.64088   	12000.000000	3.94826   	12000.000000	3.72893   	12000.000000	5.64083   	12000.000000	4.49075e-05	
13000.000000	10.7464   	13000.000000	5.89871   	13000.000000	3.97963   	13000.000000	3.7623    	13000.000000	5.89866   	13000.000000	4.16819e-05	
14000.000000	11.5639   	14000.000000	6.15642   	14000.000000	4.0086    	14000.000000	3.79338   	14000.000000	6.15638   	14000.000000	3.89014e-05	
15000.000000	12.4098   	15000.000000	6.4139    	15000.000000	4.03548   	15000.000000	3.82244   	15000.000000	6.41387   	15000.000000	3.6479e-05	
16000.000000	13.2839   	16000.000000	6.67109   	16000.000000	4.06044   	16000.000000	3.8497    	16000.000000	6.67105   	16000.000000	3.4349e-05	
17000.000000	14.1861   	17000.000000	6.92791   	17000.000000	4.08372   	17000.000000	3.87536   	17000.000000	6.92788   	17000.000000	3.2461e-05	
18000.000000	15.1163   	18000.000000	7.18435   	18000.000000	4.10553   	18000.000000	3.89958   	18000.000000	7.18432   	18000.000000	3.07757e-05	
19000.000000	16.0745   	19000.000000	7.44039   	19000.000000	4.12607   	19000.000000	3.9225    	19000.000000	7.44036   	19000.000000	2.92617e-05	
20000.000000	17.0608   	20000.000000	7.696     	20000.000000	4.1455    	20000.000000	3.94425   	20000.000000	7.69597   	20000.000000	2.7894e-05	
21000.000000	18.0751   	21000.000000	7.95119   	21000.000000	4.16381   	21000.000000	3.96493   	21000.000000	7.95116   	21000.000000	2.6652e-05	
22000.000000	19.1176   	22000.000000	8.20595   	22000.000000	4.1808    	22000.000000	3.98463   	22000.000000	8.20593   	22000.000000	2.55192e-05	
23000.000000	20.1883   	23000.000000	8.46029   	23000.000000	4.19677   	23000.000000	4.00344   	23000.000000	8.46027   	23000.000000	2.44815e-05	
24000.000000	21.2873   	24000.000000	8.71421   	24000.000000	4.21193   	24000.000000	4.02144   	24000.000000	8.71419   	24000.000000	2.35274e-05	
25000.000000	22.4147   	25000.000000	8.96771   	25000.000000	4.22638   	25000.000000	4.03867   	25000.000000	8.96769   	25000.000000	2.2647e-05	
26000.000000	23.5706   	26000.000000	9.22081   	26000.000000	4.24008   	26000.000000	4.05521   	26000.000000	9.22079   	26000.000000	2.1832e-05	
27000.000000	24.7551   	27000.000000	9.4735    	27000.000000	4.25305   	27000.000000	4.07111   	27000.000000	9.47348   	27000.000000	2.10754e-05	
28000.000000	25.9683   	28000.000000	9.7258    	28000.000000	4.26536   	28000.000000	4.0864    	28000.000000	9.72578   	28000.000000	2.0371e-05	
29000.000000	27.2104   	29000.000000	9.97771   	29000.000000	4.27704   	29000.000000	4.10114   	29000.000000	9.97769   	29000.000000	1.97135e-05	
30000.000000	28.4815   	30000.000000	10.2292   	30000.000000	4.28816   	30000.000000	4.11535   	30000.000000	10.2292   	30000.000000	1.90984e-05	
32000.000000	31.1111   	32000.000000	10.7312   	32000.000000	4.30885   	32000.000000	4.14234   	32000.000000	10.7312   	32000.000000	1.79797e-05	
34000.000000	33.8582   	34000.000000	11.2318   	34000.000000	4.3277    	34000.000000	4.16761   	34000.000000	11.2318   	34000.000000	1.69884e-05	
36000.000000	36.724    	36000.000000	11.731    	36000.000000	4.34482   	36000.000000	4.19136   	36000.000000	11.731    	36000.000000	1.61036e-05	
38000.000000	39.7098   	38000.000000	12.2289   	38000.000000	4.36042   	38000.000000	4.21375   	38000.000000	12.2289   	38000.000000	1.53089e-05	
40000.000000	42.8166   	40000.000000	12.7256   	40000.000000	4.3747    	40000.000000	4.23492   	40000.000000	12.7256   	40000.000000	1.45911e-05	
42000.000000	46.0458   	42000.000000	13.2211   	42000.000000	4.38786   	42000.000000	4.25499   	42000.000000	13.2211   	42000.000000	1.39395e-05	
44000.000000	49.3986   	44000.000000	13.7154   	44000.000000	4.40007   	44000.000000	4.27407   	44000.000000	13.7154   	44000.000000	1.33452e-05	
46000.000000	52.8764   	46000.000000	14.2087   	46000.000000	4.41151   	46000.000000	4.29224   	46000.000000	14.2087   	46000.000000	1.28009e-05	
48000.000000	56.4803   	48000.000000	14.701    	48000.000000	4.42219   	48000.000000	4.30959   	48000.000000	14.7009   	48000.000000	1.23005e-05	
50000.000000	60.2118   	50000.000000	15.1922   	50000.000000	4.432     	50000.000000	4.32618   	50000.000000	15.1922   	50000.000000	1.18388e-05	
