Energy (MeV/u)1	0 - [He-base] F.Hubert et al, AD&ND Tables 46(1990)1	Energy (MeV/u)2	1 - [H -base] J.F.Ziegler et al, Pergamon Press, NY (low energy)	Energy (MeV/u)3	2 - ATIMA 1.2  LS-theory (recommended for high energy)	Energy (MeV/u)4	3 - ATIMA 1.2  without LS-correction	Energy (MeV/u)5	4 - electrical component of [1] - J.F.Ziegler et al	Energy (MeV/u)6	5 - nuclear component of [1] - J.F.Ziegler et al	
0.001000	0.150479  	0.001000	0.150479  	0.001000	0.173465  	0.001000	0.173465  	0.001000	0.0864503 	0.001000	0.064029  	
0.002000	0.199573  	0.002000	0.199573  	0.002000	0.239348  	0.002000	0.239348  	0.002000	0.149603  	0.002000	0.0499696 	
0.005000	0.324836  	0.005000	0.324836  	0.005000	0.402751  	0.005000	0.402751  	0.005000	0.293062  	0.005000	0.0317739 	
0.008000	0.425475  	0.008000	0.425475  	0.008000	0.532194  	0.008000	0.532194  	0.008000	0.401405  	0.008000	0.0240699 	
0.010000	0.483298  	0.010000	0.483298  	0.010000	0.606231  	0.010000	0.606231  	0.010000	0.462388  	0.010000	0.0209103 	
0.015000	0.628063  	0.015000	0.628063  	0.015000	0.764178  	0.015000	0.764178  	0.015000	0.612143  	0.015000	0.0159206 	
0.020000	0.757303  	0.020000	0.757303  	0.020000	0.89778   	0.020000	0.89778   	0.020000	0.744255  	0.020000	0.0130479 	
0.025000	0.873514  	0.025000	0.873514  	0.025000	1.0166    	0.025000	1.0166    	0.025000	0.862383  	0.025000	0.0111304 	
0.030000	0.978087  	0.030000	0.978087  	0.030000	1.09908   	0.030000	1.09908   	0.030000	0.968389  	0.030000	0.00969812	
0.035000	1.07207   	0.035000	1.07207   	0.035000	1.17095   	0.035000	1.17095   	0.035000	1.06341   	0.035000	0.00865623	
0.040000	1.15611   	0.040000	1.15611   	0.040000	1.23415   	0.040000	1.23415   	0.040000	1.14827   	0.040000	0.00783461	
0.045000	1.23086   	0.045000	1.23086   	0.045000	1.29003   	0.045000	1.29003   	0.045000	1.22369   	0.045000	0.00716827	
0.050000	1.29695   	0.050000	1.29695   	0.050000	1.33961   	0.050000	1.33961   	0.050000	1.29034   	0.050000	0.00661582	
0.055000	1.35502   	0.055000	1.35502   	0.055000	1.38365   	0.055000	1.38365   	0.055000	1.34887   	0.055000	0.00614956	
0.060000	1.40572   	0.060000	1.40572   	0.060000	1.42277   	0.060000	1.42277   	0.060000	1.39997   	0.060000	0.00575022	
0.070000	1.48755   	0.070000	1.48755   	0.070000	1.48821   	0.070000	1.48821   	0.070000	1.48245   	0.070000	0.00510054	
0.080000	1.54739   	0.080000	1.54739   	0.080000	1.53923   	0.080000	1.53923   	0.080000	1.5428    	0.080000	0.00459318	
0.090000	1.58971   	0.090000	1.58971   	0.090000	1.57839   	0.090000	1.57839   	0.090000	1.58552   	0.090000	0.00418491	
0.100000	1.61828   	0.100000	1.61828   	0.100000	1.60774   	0.100000	1.60774   	0.100000	1.61443   	0.100000	0.00384861	
0.120000	1.64597   	0.120000	1.64597   	0.120000	1.64352   	0.120000	1.64352   	0.120000	1.64265   	0.120000	0.00332569	
0.140000	1.64824   	0.140000	1.64824   	0.140000	1.65682   	0.140000	1.65682   	0.140000	1.64531   	0.140000	0.00293648	
0.160000	1.6358    	0.160000	1.6358    	0.160000	1.65466   	0.160000	1.65466   	0.160000	1.63316   	0.160000	0.00263452	
0.180000	1.61489   	0.180000	1.61489   	0.180000	1.64186   	0.180000	1.64186   	0.180000	1.61249   	0.180000	0.00239284	
0.200000	1.58917   	0.200000	1.58917   	0.200000	1.62173   	0.200000	1.62173   	0.200000	1.58698   	0.200000	0.00219465	
0.250000	1.51595   	0.250000	1.51595   	0.250000	1.55318   	0.250000	1.55318   	0.250000	1.51413   	0.250000	0.00182535	
0.300000	1.4402    	0.300000	1.4402    	0.300000	1.47386   	0.300000	1.47386   	0.300000	1.43863   	0.300000	0.00156853	
0.350000	1.36702   	0.350000	1.36702   	0.350000	1.39384   	0.350000	1.39384   	0.350000	1.36564   	0.350000	0.00137881	
0.400000	1.29821   	0.400000	1.29821   	0.400000	1.3177    	0.400000	1.3177    	0.400000	1.29697   	0.400000	0.0012325 	
0.450000	1.23436   	0.450000	1.23436   	0.450000	1.24729   	0.450000	1.24729   	0.450000	1.23325   	0.450000	0.00111597	
0.500000	1.17555   	0.500000	1.17555   	0.500000	1.18311   	0.500000	1.18311   	0.500000	1.17453   	0.500000	0.00102081	
0.600000	1.07212   	0.600000	1.07212   	0.600000	1.07244   	0.600000	1.07244   	0.600000	1.07125   	0.600000	0.000874381	
0.700000	0.985246  	0.700000	0.985246  	0.700000	0.981889  	0.700000	0.981889  	0.700000	0.984479  	0.700000	0.000766647	
0.800000	0.911915  	0.800000	0.911915  	0.800000	0.907082  	0.800000	0.907082  	0.800000	0.911231  	0.800000	0.000683837	
0.900000	0.849481  	0.900000	0.849481  	0.900000	0.844418  	0.900000	0.844418  	0.900000	0.848863  	0.900000	0.000618064	
1.000000	0.795789  	1.000000	0.795789  	1.000000	0.791154  	1.000000	0.791154  	1.000000	0.795225  	1.000000	0.000564476	
1.250000	0.689615  	1.250000	0.689615  	1.250000	0.687034  	1.250000	0.687034  	1.250000	0.68915   	1.250000	0.000465506	
1.500000	0.610808  	1.500000	0.610808  	1.500000	0.610288  	1.500000	0.610288  	1.500000	0.61041   	1.500000	0.000397403	
1.750000	0.549713  	1.750000	0.549713  	1.750000	0.550803  	1.750000	0.550803  	1.750000	0.549365  	1.750000	0.000347502	
2.000000	0.500772  	2.000000	0.500772  	2.000000	0.503022  	2.000000	0.503022  	2.000000	0.500463  	2.000000	0.000309273	
2.250000	0.460576  	2.250000	0.460576  	2.250000	0.46363   	2.250000	0.46363   	2.250000	0.460298  	2.250000	0.000278993	
2.500000	0.421193  	2.500000	0.42691   	2.500000	0.430504  	2.500000	0.430504  	2.500000	0.426656  	2.500000	0.000254381	
3.000000	0.370005  	3.000000	0.37357   	3.000000	0.377723  	3.000000	0.377723  	3.000000	0.373353  	3.000000	0.000216725	
3.500000	0.330858  	3.500000	0.33311   	3.500000	0.337417  	3.500000	0.337417  	3.500000	0.332921  	3.500000	0.0001892 	
4.000000	0.299848  	4.000000	0.301299  	4.000000	0.305554  	4.000000	0.305554  	4.000000	0.301131  	4.000000	0.000168154	
4.500000	0.274617  	4.500000	0.275589  	4.500000	0.279689  	4.500000	0.279689  	4.500000	0.275438  	4.500000	0.000151512	
5.000000	0.253648  	5.000000	0.254347  	5.000000	0.258243  	5.000000	0.258243  	5.000000	0.254209  	5.000000	0.000138004	
5.500000	0.235919  	5.500000	0.236478  	5.500000	0.24015   	5.500000	0.24015   	5.500000	0.236351  	5.500000	0.00012681	
6.000000	0.220715  	6.000000	0.221219  	6.000000	0.224662  	6.000000	0.224662  	6.000000	0.221101  	6.000000	0.000117374	
6.500000	0.20752   	6.500000	0.208021  	6.500000	0.211242  	6.500000	0.211242  	6.500000	0.207912  	6.500000	0.000109306	
7.000000	0.195951  	7.000000	0.196482  	7.000000	0.199489  	7.000000	0.199489  	7.000000	0.19638   	7.000000	0.000102324	
7.500000	0.185718  	7.500000	0.186298  	7.500000	0.189102  	7.500000	0.189102  	7.500000	0.186202  	7.500000	9.622e-05 	
8.000000	0.176596  	8.000000	0.177236  	8.000000	0.17985   	8.000000	0.17985   	8.000000	0.177145  	8.000000	9.08356e-05	
8.500000	0.16841   	8.500000	0.169113  	8.500000	0.171549  	8.500000	0.171549  	8.500000	0.169027  	8.500000	8.60487e-05	
9.000000	0.161019  	9.000000	0.161787  	9.000000	0.164056  	9.000000	0.164056  	9.000000	0.161705  	9.000000	8.17636e-05	
9.500000	0.15431   	9.500000	0.155141  	9.500000	0.157255  	9.500000	0.157255  	9.500000	0.155063  	9.500000	7.79042e-05	
10.000000	0.148191  	10.000000	0.150095  	10.000000	0.15105   	10.000000	0.15105   	10.000000	0.15002   	10.000000	7.44091e-05	
11.000000	0.13743   	11.000000	0.139432  	11.000000	0.139958  	11.000000	0.139967  	11.000000	0.139364  	11.000000	6.83205e-05	
12.000000	0.128263  	12.000000	0.130286  	12.000000	0.1305    	12.000000	0.130515  	12.000000	0.130223  	12.000000	6.31928e-05	
13.000000	0.120354  	13.000000	0.122351  	13.000000	0.122334  	13.000000	0.12235   	13.000000	0.122292  	13.000000	5.88121e-05	
14.000000	0.113455  	14.000000	0.115399  	14.000000	0.115204  	14.000000	0.11522   	14.000000	0.115344  	14.000000	5.50242e-05	
15.000000	0.107381  	15.000000	0.109255  	15.000000	0.108919  	15.000000	0.108935  	15.000000	0.109204  	15.000000	5.17147e-05	
16.000000	0.101989  	16.000000	0.103785  	16.000000	0.103335  	16.000000	0.10335   	16.000000	0.103736  	16.000000	4.87971e-05	
17.000000	0.0971676 	17.000000	0.0988821 	17.000000	0.098339  	17.000000	0.0983521 	17.000000	0.0988359 	17.000000	4.62049e-05	
18.000000	0.0928294 	18.000000	0.094461  	18.000000	0.0938417 	18.000000	0.0938517 	18.000000	0.0944172 	18.000000	4.38857e-05	
19.000000	0.0889037 	19.000000	0.0904533 	19.000000	0.0897695 	19.000000	0.0897768 	19.000000	0.0904115 	19.000000	4.17979e-05	
20.000000	0.0853331 	20.000000	0.0868026 	20.000000	0.0860619 	20.000000	0.0860692 	20.000000	0.0867627 	20.000000	3.9908e-05	
21.000000	0.0820704 	21.000000	0.0834626 	21.000000	0.0826728 	21.000000	0.0826808 	21.000000	0.0834244 	21.000000	3.81889e-05	
22.000000	0.0790766 	22.000000	0.0803948 	22.000000	0.0795658 	22.000000	0.0795718 	22.000000	0.0803582 	22.000000	3.6618e-05	
23.000000	0.0763192 	23.000000	0.0775667 	23.000000	0.0767073 	23.000000	0.076709  	23.000000	0.0775315 	23.000000	3.51767e-05	
24.000000	0.0737706 	24.000000	0.0749509 	24.000000	0.0740667 	24.000000	0.0740643 	24.000000	0.074917  	24.000000	3.38493e-05	
25.000000	0.0714075 	25.000000	0.0725239 	25.000000	0.0716199 	25.000000	0.0716137 	25.000000	0.0724913 	25.000000	3.26227e-05	
27.000000	0.0671605 	27.000000	0.0681593 	27.000000	0.0672315 	27.000000	0.0672158 	27.000000	0.0681288 	27.000000	3.04285e-05	
29.000000	0.0634494 	29.000000	0.0643429 	29.000000	0.0634028 	29.000000	0.0633832 	29.000000	0.0643144 	29.000000	2.85222e-05	
31.000000	0.0601767 	31.000000	0.0609762 	31.000000	0.0600796 	31.000000	0.060059  	31.000000	0.0609494 	31.000000	2.68499e-05	
33.000000	0.0572677 	33.000000	0.0579833 	33.000000	0.0571737 	33.000000	0.0571468 	33.000000	0.0579579 	33.000000	2.53704e-05	
35.000000	0.0546637 	35.000000	0.0553042 	35.000000	0.0545638 	35.000000	0.0545382 	35.000000	0.0552801 	35.000000	2.40518e-05	
38.000000	0.0512303 	38.000000	0.0517727 	38.000000	0.0511262 	38.000000	0.0510965 	38.000000	0.0517504 	38.000000	2.23218e-05	
41.000000	0.0482596 	41.000000	0.0487188 	41.000000	0.0481471 	41.000000	0.0481167 	41.000000	0.048698  	41.000000	2.08331e-05	
44.000000	0.0456622 	44.000000	0.0460505 	44.000000	0.045537  	44.000000	0.0455101 	44.000000	0.046031  	44.000000	1.95378e-05	
47.000000	0.0433704 	47.000000	0.0436983 	47.000000	0.0432402 	47.000000	0.0432096 	47.000000	0.0436799 	47.000000	1.84002e-05	
50.000000	0.0413323 	50.000000	0.0416084 	50.000000	0.0411943 	50.000000	0.0411634 	50.000000	0.041591  	50.000000	1.73927e-05	
55.000000	0.0383923 	55.000000	0.038598  	55.000000	0.0382452 	55.000000	0.0382116 	55.000000	0.038582  	55.000000	1.59468e-05	
60.000000	0.0359057 	60.000000	0.0360569 	60.000000	0.0357466 	60.000000	0.0357157 	60.000000	0.0360422 	60.000000	1.4731e-05	
65.000000	0.0337733 	65.000000	0.0338822 	65.000000	0.0336078 	65.000000	0.0335761 	65.000000	0.0338685 	65.000000	1.36939e-05	
70.000000	0.0319228 	70.000000	0.0319991 	70.000000	0.0317529 	70.000000	0.0317207 	70.000000	0.0319863 	70.000000	1.27983e-05	
75.000000	0.0303006 	75.000000	0.0303521 	75.000000	0.0301253 	75.000000	0.0300957 	75.000000	0.03034   	75.000000	1.20169e-05	
80.000000	0.0288661 	80.000000	0.0288988 	80.000000	0.0286923 	80.000000	0.0286601 	80.000000	0.0288875 	80.000000	1.13288e-05	
85.000000	0.0275877 	85.000000	0.0276068 	85.000000	0.0274128 	85.000000	0.0273822 	85.000000	0.0275961 	85.000000	1.0718e-05	
90.000000	0.0264406 	90.000000	0.0264503 	90.000000	0.0262664 	90.000000	0.0262372 	90.000000	0.0264401 	90.000000	1.01721e-05	
95.000000	0.0254053 	95.000000	0.0254088 	95.000000	0.0252363 	95.000000	0.025205  	95.000000	0.0253991 	95.000000	9.68111e-06	
100.000000	0.0244657 	100.000000	0.0244658 	100.000000	0.0242996 	100.000000	0.0242697 	100.000000	0.0244566 	100.000000	9.23707e-06	
105.000000	0.0236088 	105.000000	0.0236079 	105.000000	0.0234467 	105.000000	0.023418  	105.000000	0.023599  	105.000000	8.83345e-06	
110.000000	0.0228238 	110.000000	0.0228239 	110.000000	0.0226665 	110.000000	0.0226392 	110.000000	0.0228154 	110.000000	8.46492e-06	
115.000000	0.022102  	115.000000	0.0221046 	115.000000	0.0219525 	115.000000	0.0219242 	115.000000	0.0220965 	115.000000	8.12703e-06	
120.000000	0.0214357 	120.000000	0.0214422 	120.000000	0.0212942 	120.000000	0.0212654 	120.000000	0.0214344 	120.000000	7.81607e-06	
125.000000	0.0208186 	125.000000	0.0208303 	125.000000	0.0206837 	125.000000	0.0206564 	125.000000	0.0208227 	125.000000	7.52891e-06	
130.000000	0.0202453 	130.000000	0.0202631 	130.000000	0.0201182 	130.000000	0.0200917 	130.000000	0.0202558 	130.000000	7.26287e-06	
135.000000	0.0197112 	135.000000	0.0197359 	135.000000	0.0195943 	135.000000	0.0195666 	135.000000	0.0197289 	135.000000	7.01568e-06	
140.000000	0.0192123 	140.000000	0.0192447 	140.000000	0.019105  	140.000000	0.0190771 	140.000000	0.0192379 	140.000000	6.78538e-06	
145.000000	0.0187452 	145.000000	0.0187857 	145.000000	0.0186465 	145.000000	0.0186197 	145.000000	0.0187792 	145.000000	6.57028e-06	
150.000000	0.0183067 	150.000000	0.018356  	150.000000	0.0182174 	150.000000	0.0181913 	150.000000	0.0183497 	150.000000	6.3689e-06	
155.000000	0.0177442 	155.000000	0.0179528 	155.000000	0.0178144 	155.000000	0.0177892 	155.000000	0.0179467 	155.000000	6.17996e-06	
160.000000	0.0173802 	160.000000	0.0175738 	160.000000	0.0174361 	160.000000	0.017411  	160.000000	0.0175678 	160.000000	6.00231e-06	
165.000000	0.0170368 	165.000000	0.0172167 	165.000000	0.0170808 	165.000000	0.0170548 	165.000000	0.0172108 	165.000000	5.83497e-06	
170.000000	0.0167123 	170.000000	0.0168797 	170.000000	0.0167447 	170.000000	0.0167186 	170.000000	0.016874  	170.000000	5.67705e-06	
175.000000	0.0164051 	175.000000	0.0165613 	175.000000	0.0164261 	175.000000	0.0164008 	175.000000	0.0165557 	175.000000	5.52777e-06	
180.000000	0.0161139 	180.000000	0.0162598 	180.000000	0.0161247 	180.000000	0.0161    	180.000000	0.0162544 	180.000000	5.38643e-06	
185.000000	0.0158375 	185.000000	0.015974  	185.000000	0.0158389 	185.000000	0.0158147 	185.000000	0.0159687 	185.000000	5.2524e-06	
190.000000	0.0155747 	190.000000	0.0157026 	190.000000	0.0155675 	190.000000	0.0155439 	190.000000	0.0156975 	190.000000	5.12513e-06	
195.000000	0.0153246 	195.000000	0.0154447 	195.000000	0.0153102 	195.000000	0.0152865 	195.000000	0.0154397 	195.000000	5.00411e-06	
200.000000	0.0150862 	200.000000	0.0151991 	200.000000	0.0150659 	200.000000	0.0150415 	200.000000	0.0151943 	200.000000	4.88888e-06	
210.000000	0.0146413 	210.000000	0.014742  	210.000000	0.0146092 	210.000000	0.0145853 	210.000000	0.0147373 	210.000000	4.6742e-06	
220.000000	0.0142346 	220.000000	0.014325  	220.000000	0.0141924 	220.000000	0.0141693 	220.000000	0.0143205 	220.000000	4.47823e-06	
230.000000	0.0138612 	230.000000	0.0139432 	230.000000	0.0138107 	230.000000	0.0137885 	230.000000	0.0139389 	230.000000	4.2986e-06	
240.000000	0.0135172 	240.000000	0.0135922 	240.000000	0.0134614 	240.000000	0.0134386 	240.000000	0.0135881 	240.000000	4.13333e-06	
250.000000	0.0131993 	250.000000	0.0132686 	250.000000	0.0131389 	250.000000	0.0131161 	250.000000	0.0132646 	250.000000	3.98073e-06	
260.000000	0.0129044 	260.000000	0.0129693 	260.000000	0.0128399 	260.000000	0.0128179 	260.000000	0.0129654 	260.000000	3.83939e-06	
270.000000	0.0126303 	270.000000	0.0126916 	270.000000	0.0125628 	270.000000	0.0125414 	270.000000	0.0126878 	270.000000	3.7081e-06	
280.000000	0.0123749 	280.000000	0.0124333 	280.000000	0.0123053 	280.000000	0.0122843 	280.000000	0.0124297 	280.000000	3.5858e-06	
290.000000	0.0121362 	290.000000	0.0121924 	290.000000	0.0120664 	290.000000	0.0120448 	290.000000	0.012189  	290.000000	3.47159e-06	
300.000000	0.0119126 	300.000000	0.0119674 	300.000000	0.0118428 	300.000000	0.0118211 	300.000000	0.011964  	300.000000	3.36468e-06	
310.000000	0.0117029 	310.000000	0.0117566 	310.000000	0.0116328 	310.000000	0.0116118 	310.000000	0.0117534 	310.000000	3.2644e-06	
320.000000	0.0115057 	320.000000	0.0115589 	320.000000	0.0114362 	320.000000	0.0114155 	320.000000	0.0115557 	320.000000	3.17012e-06	
330.000000	0.01132   	330.000000	0.011373  	330.000000	0.0112513 	330.000000	0.0112312 	330.000000	0.0113699 	330.000000	3.08133e-06	
340.000000	0.0111448 	340.000000	0.011198  	340.000000	0.0110776 	340.000000	0.0110577 	340.000000	0.011195  	340.000000	2.99755e-06	
350.000000	0.0109793 	350.000000	0.0110329 	350.000000	0.0109146 	350.000000	0.0108942 	350.000000	0.01103   	350.000000	2.91837e-06	
360.000000	0.0108226 	360.000000	0.0108769 	360.000000	0.0107604 	360.000000	0.0107399 	360.000000	0.0108741 	360.000000	2.84341e-06	
370.000000	0.0106742 	370.000000	0.0107294 	370.000000	0.0106141 	370.000000	0.010594  	370.000000	0.0107266 	370.000000	2.77234e-06	
380.000000	0.0105334 	380.000000	0.0105896 	380.000000	0.0104757 	380.000000	0.0104559 	380.000000	0.0105869 	380.000000	2.70485e-06	
390.000000	0.0103996 	390.000000	0.0104571 	390.000000	0.0103446 	390.000000	0.0103251 	390.000000	0.0104544 	390.000000	2.64069e-06	
400.000000	0.0102723 	400.000000	0.0103312 	400.000000	0.01022   	400.000000	0.0102009 	400.000000	0.0103286 	400.000000	2.57961e-06	
410.000000	0.0101512 	410.000000	0.0102115 	410.000000	0.0101019 	410.000000	0.010083  	410.000000	0.010209  	410.000000	2.5214e-06	
420.000000	0.0100357 	420.000000	0.0100976 	420.000000	0.00998999	420.000000	0.00997079	420.000000	0.0100952 	420.000000	2.46584e-06	
430.000000	0.00992546	430.000000	0.00998911	430.000000	0.00988355	430.000000	0.00986401	430.000000	0.0099867 	430.000000	2.41276e-06	
440.000000	0.00982022	440.000000	0.00988562	440.000000	0.00978173	440.000000	0.00976227	440.000000	0.00988325	440.000000	2.362e-06 	
450.000000	0.00971962	450.000000	0.00978682	450.000000	0.00968436	450.000000	0.00966523	450.000000	0.00978451	450.000000	2.31341e-06	
460.000000	0.00962338	460.000000	0.00969243	460.000000	0.00959146	460.000000	0.00957259	460.000000	0.00969016	460.000000	2.26684e-06	
470.000000	0.00953123	470.000000	0.00960217	470.000000	0.00950275	470.000000	0.00948408	470.000000	0.00959994	470.000000	2.22218e-06	
480.000000	0.00944293	480.000000	0.00951578	480.000000	0.00941787	480.000000	0.00939944	480.000000	0.0095136 	480.000000	2.17931e-06	
490.000000	0.00935826	490.000000	0.00943305	490.000000	0.0093366 	490.000000	0.00931844	490.000000	0.00943091	490.000000	2.13812e-06	
500.000000	0.00927701	500.000000	0.00935375	500.000000	0.0092589 	500.000000	0.00924087	500.000000	0.00935165	500.000000	2.0985e-06	
520.000000	0.00912403	520.000000	0.00920469	520.000000	0.00911371	520.000000	0.00909524	520.000000	0.00920267	520.000000	2.02368e-06	
540.000000	0.00898262	540.000000	0.0090672 	540.000000	0.00897963	540.000000	0.00896112	540.000000	0.00906525	540.000000	1.95418e-06	
560.000000	0.00885162	560.000000	0.00894009	560.000000	0.00885538	560.000000	0.0088373 	560.000000	0.0089382 	560.000000	1.88945e-06	
580.000000	0.00873   	580.000000	0.00882229	580.000000	0.00874053	580.000000	0.00872273	580.000000	0.00882046	580.000000	1.82902e-06	
600.000000	0.00861687	600.000000	0.00871291	600.000000	0.00863393	600.000000	0.00861649	600.000000	0.00871114	600.000000	1.77246e-06	
620.000000	0.00851147	620.000000	0.00861116	620.000000	0.00853502	620.000000	0.00851778	620.000000	0.00860944	620.000000	1.71941e-06	
640.000000	0.00841309	640.000000	0.00851633	640.000000	0.00844343	640.000000	0.0084259 	640.000000	0.00851466	640.000000	1.66955e-06	
660.000000	0.00832115	660.000000	0.00842782	660.000000	0.00835799	660.000000	0.00834023	660.000000	0.0084262 	660.000000	1.62259e-06	
680.000000	0.00823509	680.000000	0.00834508	680.000000	0.00827779	680.000000	0.00826023	680.000000	0.0083435 	680.000000	1.57829e-06	
700.000000	0.00815446	700.000000	0.00826763	700.000000	0.00820267	700.000000	0.0081854 	700.000000	0.0082661 	700.000000	1.53643e-06	
720.000000	0.00807881	720.000000	0.00819505	720.000000	0.0081324 	720.000000	0.00811532	720.000000	0.00819355	720.000000	1.4968e-06	
740.000000	0.00800778	740.000000	0.00812693	740.000000	0.00806648	740.000000	0.00804959	740.000000	0.00812547	740.000000	1.45924e-06	
760.000000	0.00794101	760.000000	0.00806295	760.000000	0.00800451	760.000000	0.00798788	760.000000	0.00806153	760.000000	1.42357e-06	
780.000000	0.00787819	780.000000	0.00800279	780.000000	0.00794636	780.000000	0.00792987	780.000000	0.0080014 	780.000000	1.38967e-06	
800.000000	0.00781905	800.000000	0.00794618	800.000000	0.00789189	800.000000	0.00787527	800.000000	0.00794482	800.000000	1.35739e-06	
820.000000	0.00776333	820.000000	0.00789285	820.000000	0.00784084	820.000000	0.007824  	820.000000	0.00789152	820.000000	1.32664e-06	
840.000000	0.00771081	840.000000	0.00784258	840.000000	0.00779331	840.000000	0.00777634	840.000000	0.00784129	840.000000	1.29729e-06	
860.000000	0.00766127	860.000000	0.00779517	860.000000	0.00774826	860.000000	0.00773137	860.000000	0.0077939 	860.000000	1.26925e-06	
880.000000	0.00761452	880.000000	0.00775041	880.000000	0.00770561	880.000000	0.0076889 	880.000000	0.00774917	880.000000	1.24244e-06	
900.000000	0.00757039	900.000000	0.00770815	900.000000	0.00766529	900.000000	0.00764877	900.000000	0.00770693	900.000000	1.21678e-06	
920.000000	0.00752872	920.000000	0.00766821	920.000000	0.00762719	920.000000	0.00761081	920.000000	0.00766702	920.000000	1.19219e-06	
940.000000	0.00748936	940.000000	0.00763046	940.000000	0.00759116	940.000000	0.00757489	940.000000	0.00762929	940.000000	1.16861e-06	
960.000000	0.00745217	960.000000	0.00759476	960.000000	0.00755705	960.000000	0.00754087	960.000000	0.00759362	960.000000	1.14598e-06	
980.000000	0.00741703	980.000000	0.00756099	980.000000	0.00752473	980.000000	0.00750863	980.000000	0.00755987	980.000000	1.12423e-06	
1000.000000	0.00738382	1000.000000	0.00752903	1000.000000	0.00749407	1000.000000	0.00747807	1000.000000	0.00752793	1000.000000	1.10332e-06	
1020.000000	0.00735244	1020.000000	0.00749879	1020.000000	0.00746497	1020.000000	0.00744908	1020.000000	0.0074977 	1020.000000	1.0832e-06	
1040.000000	0.00732279	1040.000000	0.00747015	1040.000000	0.00743733	1040.000000	0.00742157	1040.000000	0.00746909	1040.000000	1.06383e-06	
1060.000000	0.00729478	1060.000000	0.00744305	1060.000000	0.00741107	1060.000000	0.00739545	1060.000000	0.007442  	1060.000000	1.04516e-06	
1080.000000	0.00726832	1080.000000	0.00741738	1080.000000	0.00738616	1080.000000	0.00737064	1080.000000	0.00741635	1080.000000	1.02715e-06	
1100.000000	0.00724333	1100.000000	0.00739308	1100.000000	0.00736253	1100.000000	0.00734706	1100.000000	0.00739207	1100.000000	1.00978e-06	
1120.000000	0.00721974	1120.000000	0.00737007	1120.000000	0.00734015	1120.000000	0.00732465	1120.000000	0.00736908	1120.000000	9.93002e-07	
1140.000000	0.00719748	1140.000000	0.00734829	1140.000000	0.00731894	1140.000000	0.00730335	1140.000000	0.00734731	1140.000000	9.76792e-07	
1160.000000	0.00717649	1160.000000	0.00732767	1160.000000	0.00729879	1160.000000	0.00728308	1160.000000	0.00732671	1160.000000	9.6112e-07	
1180.000000	0.0071567 	1180.000000	0.00730816	1180.000000	0.00727961	1180.000000	0.0072638 	1180.000000	0.00730721	1180.000000	9.4596e-07	
1200.000000	0.00713807	1200.000000	0.0072897 	1200.000000	0.00726133	1200.000000	0.00724545	1200.000000	0.00728876	1200.000000	9.31287e-07	
1220.000000	0.00712053	1220.000000	0.00727224	1220.000000	0.00724388	1220.000000	0.00722799	1220.000000	0.00727132	1220.000000	9.17077e-07	
1240.000000	0.00710404	1240.000000	0.00725573	1240.000000	0.00722722	1240.000000	0.00721137	1240.000000	0.00725483	1240.000000	9.03308e-07	
1260.000000	0.00708856	1260.000000	0.00724013	1260.000000	0.00721132	1260.000000	0.00719554	1260.000000	0.00723924	1260.000000	8.8996e-07	
1280.000000	0.00707403	1280.000000	0.0072254 	1280.000000	0.00719616	1280.000000	0.00718047	1280.000000	0.00722452	1280.000000	8.77015e-07	
1300.000000	0.00706042	1300.000000	0.0072115 	1300.000000	0.00718172	1300.000000	0.00716612	1300.000000	0.00721063	1300.000000	8.64452e-07	
1320.000000	0.00704769	1320.000000	0.00719839	1320.000000	0.00716798	1320.000000	0.00715245	1320.000000	0.00719753	1320.000000	8.52257e-07	
1340.000000	0.0070358 	1340.000000	0.00718603	1340.000000	0.0071549 	1340.000000	0.00713943	1340.000000	0.00718519	1340.000000	8.40412e-07	
1360.000000	0.00702471	1360.000000	0.0071744 	1360.000000	0.00714245	1360.000000	0.00712703	1360.000000	0.00717357	1360.000000	8.28903e-07	
1380.000000	0.00701441	1380.000000	0.00716345	1380.000000	0.00713059	1380.000000	0.00711522	1380.000000	0.00716264	1380.000000	8.17715e-07	
1400.000000	0.00700485	1400.000000	0.00715318	1400.000000	0.0071193 	1400.000000	0.00710397	1400.000000	0.00715237	1400.000000	8.06835e-07	
1420.000000	0.006996  	1420.000000	0.00714353	1420.000000	0.00710854	1420.000000	0.00709326	1420.000000	0.00714274	1420.000000	7.9625e-07	
1440.000000	0.00698784	1440.000000	0.0071345 	1440.000000	0.00709829	1440.000000	0.00708306	1440.000000	0.00713371	1440.000000	7.85949e-07	
1460.000000	0.00698035	1460.000000	0.00712605	1460.000000	0.00708851	1460.000000	0.00707335	1460.000000	0.00712527	1460.000000	7.75919e-07	
1480.000000	0.00697349	1480.000000	0.00711816	1480.000000	0.0070792 	1480.000000	0.00706411	1480.000000	0.00711739	1480.000000	7.66151e-07	
1500.000000	0.00696725	1500.000000	0.00711081	1500.000000	0.00707034	1500.000000	0.00705531	1500.000000	0.00711006	1500.000000	7.56634e-07	
1520.000000	0.0069616 	1520.000000	0.00710398	1520.000000	0.00706191	1520.000000	0.00704693	1520.000000	0.00710323	1520.000000	7.47358e-07	
1540.000000	0.00695652	1540.000000	0.00709765	1540.000000	0.0070539 	1540.000000	0.00703897	1540.000000	0.00709691	1540.000000	7.38314e-07	
1560.000000	0.00695199	1560.000000	0.00709179	1560.000000	0.00704629	1560.000000	0.00703139	1560.000000	0.00709107	1560.000000	7.29494e-07	
1580.000000	0.00694799	1580.000000	0.0070864 	1580.000000	0.00703907	1580.000000	0.00702419	1580.000000	0.00708568	1580.000000	7.20889e-07	
1600.000000	0.00694451	1600.000000	0.00708145	1600.000000	0.00703222	1600.000000	0.00701734	1600.000000	0.00708074	1600.000000	7.12491e-07	
1620.000000	0.00694152	1620.000000	0.00707693	1620.000000	0.00702574	1620.000000	0.00701084	1620.000000	0.00707623	1620.000000	7.04293e-07	
1640.000000	0.00693901	1640.000000	0.00707283	1640.000000	0.0070196 	1640.000000	0.00700467	1640.000000	0.00707213	1640.000000	6.96287e-07	
1660.000000	0.00693697	1660.000000	0.00706912	1660.000000	0.00701379	1660.000000	0.00699881	1660.000000	0.00706843	1660.000000	6.88468e-07	
1680.000000	0.00693537	1680.000000	0.00706579	1680.000000	0.00700828	1680.000000	0.00699325	1680.000000	0.00706511	1680.000000	6.80828e-07	
1700.000000	0.00693421	1700.000000	0.00706284	1700.000000	0.00700307	1700.000000	0.00698798	1700.000000	0.00706216	1700.000000	6.73361e-07	
1750.000000	0.00693312	1750.000000	0.00705698	1750.000000	0.0069912 	1750.000000	0.006976  	1750.000000	0.00705633	1750.000000	6.55415e-07	
1800.000000	0.00693446	1800.000000	0.00705318	1800.000000	0.00698086	1800.000000	0.0069656 	1800.000000	0.00705254	1800.000000	6.38429e-07	
1850.000000	0.00693806	1850.000000	0.00705127	1850.000000	0.00697186	1850.000000	0.00695661	1850.000000	0.00705064	1850.000000	6.2233e-07	
1900.000000	0.00694376	1900.000000	0.00705109	1900.000000	0.00696411	1900.000000	0.00694892	1900.000000	0.00705048	1900.000000	6.07048e-07	
1950.000000	0.00695141	1950.000000	0.00705252	1950.000000	0.00695751	1950.000000	0.0069424 	1950.000000	0.00705193	1950.000000	5.92521e-07	
2000.000000	0.00696087	2000.000000	0.00705543	2000.000000	0.00695197	2000.000000	0.00693695	2000.000000	0.00705485	2000.000000	5.78696e-07	
2100.000000	0.00698481	2100.000000	0.00706529	2100.000000	0.00694375	2100.000000	0.00692887	2100.000000	0.00706474	2100.000000	5.52951e-07	
2200.000000	0.00701475	2200.000000	0.00707992	2200.000000	0.00693884	2200.000000	0.00692405	2200.000000	0.00707939	2200.000000	5.29467e-07	
2300.000000	0.00705   	2300.000000	0.0070987 	2300.000000	0.00693666	2300.000000	0.00692195	2300.000000	0.00709819	2300.000000	5.07954e-07	
2400.000000	0.00709   	2400.000000	0.0071211 	2400.000000	0.00693677	2400.000000	0.00692214	2400.000000	0.00712061	2400.000000	4.88172e-07	
2500.000000	0.00713425	2500.000000	0.00714669	2500.000000	0.00693879	2500.000000	0.00692426	2500.000000	0.00714622	2500.000000	4.69919e-07	
2600.000000	0.00718234	2600.000000	0.0071751 	2600.000000	0.00694245	2600.000000	0.00692802	2600.000000	0.00717465	2600.000000	4.53022e-07	
2700.000000	0.00723392	2700.000000	0.00720601	2700.000000	0.00694752	2700.000000	0.00693316	2700.000000	0.00720557	2700.000000	4.37334e-07	
2800.000000	0.00728868	2800.000000	0.00723915	2800.000000	0.0069538 	2800.000000	0.00693947	2800.000000	0.00723873	2800.000000	4.22728e-07	
2900.000000	0.00734635	2900.000000	0.00727429	2900.000000	0.00696112	2900.000000	0.00694679	2900.000000	0.00727388	2900.000000	4.09095e-07	
3000.000000	0.00740671	3000.000000	0.00731122	3000.000000	0.00696931	3000.000000	0.00695495	3000.000000	0.00731082	3000.000000	3.9634e-07	
3200.000000	0.00753468	3200.000000	0.00738977	3200.000000	0.0069878 	3200.000000	0.00697333	3200.000000	0.00738939	3200.000000	3.73142e-07	
3400.000000	0.00767124	3400.000000	0.00747363	3400.000000	0.00700838	3400.000000	0.0069938 	3400.000000	0.00747328	3400.000000	3.52583e-07	
3600.000000	0.00781534	3600.000000	0.00756189	3600.000000	0.0070304 	3600.000000	0.00701575	3600.000000	0.00756155	3600.000000	3.34234e-07	
3800.000000	0.00796612	3800.000000	0.00765382	3800.000000	0.00705341	3800.000000	0.00703873	3800.000000	0.0076535 	3800.000000	3.17753e-07	
4000.000000	0.00812291	4000.000000	0.00774886	4000.000000	0.00707708	4000.000000	0.00706241	4000.000000	0.00774855	4000.000000	3.02865e-07	
4200.000000	0.00828514	4200.000000	0.00784652	4200.000000	0.00710116	4200.000000	0.00708653	4200.000000	0.00784623	4200.000000	2.89349e-07	
4400.000000	0.00845237	4400.000000	0.00794643	4400.000000	0.00712547	4400.000000	0.00711088	4400.000000	0.00794616	4400.000000	2.77022e-07	
4600.000000	0.00862421	4600.000000	0.00804828	4600.000000	0.00714987	4600.000000	0.00713532	4600.000000	0.00804802	4600.000000	2.65731e-07	
4800.000000	0.00880034	4800.000000	0.0081518 	4800.000000	0.00717425	4800.000000	0.00715974	4800.000000	0.00815155	4800.000000	2.55351e-07	
5000.000000	0.00898049	5000.000000	0.00825678	5000.000000	0.00719851	5000.000000	0.00718404	5000.000000	0.00825653	5000.000000	2.45774e-07	
5250.000000	0.00921098	5250.000000	0.00838976	5250.000000	0.00722859	5250.000000	0.00721416	5250.000000	0.00838953	5250.000000	2.34795e-07	
5500.000000	0.00944702	5500.000000	0.00852442	5500.000000	0.0072583 	5500.000000	0.0072439 	5500.000000	0.0085242 	5500.000000	2.24782e-07	
6000.000000	0.00993452	6000.000000	0.00879783	6000.000000	0.00731634	6000.000000	0.00730199	6000.000000	0.00879763	6000.000000	2.07182e-07	
6500.000000	0.010441  	6500.000000	0.00907548	6500.000000	0.00737232	6500.000000	0.007358  	6500.000000	0.00907529	6500.000000	1.92205e-07	
7000.000000	0.0109652 	7000.000000	0.00935629	7000.000000	0.0074261 	7000.000000	0.00741182	7000.000000	0.00935611	7000.000000	1.79302e-07	
7500.000000	0.0115059 	7500.000000	0.00963947	7500.000000	0.00747769	7500.000000	0.00746343	7500.000000	0.0096393 	7500.000000	1.68066e-07	
8000.000000	0.0120624 	8000.000000	0.00992444	8000.000000	0.00752722	8000.000000	0.0075129 	8000.000000	0.00992428	8000.000000	1.58191e-07	
8500.000000	0.012634  	8500.000000	0.0102108 	8500.000000	0.00757451	8500.000000	0.00756032	8500.000000	0.0102106 	8500.000000	1.49442e-07	
9000.000000	0.0132204 	9000.000000	0.0104981 	9000.000000	0.00761964	9000.000000	0.00760579	9000.000000	0.010498  	9000.000000	1.41635e-07	
9500.000000	0.0138212 	9500.000000	0.0107863 	9500.000000	0.00766301	9500.000000	0.00764942	9500.000000	0.0107861 	9500.000000	1.34625e-07	
10000.000000	0.014436  	10000.000000	0.011075  	10000.000000	0.00770482	10000.000000	0.00769131	10000.000000	0.0110749 	10000.000000	1.28294e-07	
11000.000000	0.0157069 	11000.000000	0.0116535 	11000.000000	0.00778388	11000.000000	0.00777032	11000.000000	0.0116534 	11000.000000	1.17307e-07	
12000.000000	0.0170319 	12000.000000	0.0122328 	12000.000000	0.00785722	12000.000000	0.0078436 	12000.000000	0.0122327 	12000.000000	1.08097e-07	
13000.000000	0.0184101 	13000.000000	0.0128123 	13000.000000	0.00792543	13000.000000	0.00791183	13000.000000	0.0128122 	13000.000000	1.00262e-07	
14000.000000	0.0198409 	14000.000000	0.0133916 	14000.000000	0.00798911	14000.000000	0.00797559	14000.000000	0.0133915 	14000.000000	9.35132e-08	
15000.000000	0.0213239 	15000.000000	0.0139704 	15000.000000	0.00804878	15000.000000	0.00803539	15000.000000	0.0139703 	15000.000000	8.76377e-08	
16000.000000	0.0228591 	16000.000000	0.0145485 	16000.000000	0.00810491	16000.000000	0.00809166	16000.000000	0.0145485 	16000.000000	8.2475e-08	
17000.000000	0.0244463 	17000.000000	0.0151259 	17000.000000	0.0081579 	17000.000000	0.00814476	17000.000000	0.0151258 	17000.000000	7.79017e-08	
18000.000000	0.0260854 	18000.000000	0.0157024 	18000.000000	0.00820805	18000.000000	0.00819502	18000.000000	0.0157023 	18000.000000	7.38216e-08	
19000.000000	0.0277767 	19000.000000	0.016278  	19000.000000	0.00825565	19000.000000	0.0082427 	19000.000000	0.0162779 	19000.000000	7.01582e-08	
20000.000000	0.0295201 	20000.000000	0.0168527 	20000.000000	0.00830093	20000.000000	0.00828804	20000.000000	0.0168526 	20000.000000	6.68503e-08	
21000.000000	0.0313159 	21000.000000	0.0174264 	21000.000000	0.00834415	21000.000000	0.00833126	21000.000000	0.0174264 	21000.000000	6.38482e-08	
22000.000000	0.0331643 	22000.000000	0.0179992 	22000.000000	0.00838548	22000.000000	0.00837253	22000.000000	0.0179992 	22000.000000	6.1111e-08	
23000.000000	0.0350653 	23000.000000	0.0185711 	23000.000000	0.00842464	23000.000000	0.00841202	23000.000000	0.018571  	23000.000000	5.86048e-08	
24000.000000	0.0370194 	24000.000000	0.019142  	24000.000000	0.00846213	24000.000000	0.00844986	24000.000000	0.0191419 	24000.000000	5.63012e-08	
25000.000000	0.0390266 	25000.000000	0.019712  	25000.000000	0.00849846	25000.000000	0.00848619	25000.000000	0.0197119 	25000.000000	5.41765e-08	
26000.000000	0.0410874 	26000.000000	0.020281  	26000.000000	0.00853338	26000.000000	0.00852112	26000.000000	0.020281  	26000.000000	5.22105e-08	
27000.000000	0.0432019 	27000.000000	0.0208492 	27000.000000	0.00856679	27000.000000	0.00855474	27000.000000	0.0208491 	27000.000000	5.03858e-08	
28000.000000	0.0453704 	28000.000000	0.0214165 	28000.000000	0.00859893	28000.000000	0.00858715	28000.000000	0.0214164 	28000.000000	4.86876e-08	
29000.000000	0.0475933 	29000.000000	0.0219829 	29000.000000	0.00862999	29000.000000	0.00861843	29000.000000	0.0219828 	29000.000000	4.71031e-08	
30000.000000	0.0498708 	30000.000000	0.0225485 	30000.000000	0.00866004	30000.000000	0.00864865	30000.000000	0.0225484 	30000.000000	4.56212e-08	
32000.000000	0.0545909 	32000.000000	0.0236771 	32000.000000	0.00871723	32000.000000	0.00870619	32000.000000	0.0236771 	32000.000000	4.29272e-08	
34000.000000	0.0595334 	34000.000000	0.0248027 	34000.000000	0.00877079	34000.000000	0.00876024	34000.000000	0.0248026 	34000.000000	4.05412e-08	
36000.000000	0.0647008 	36000.000000	0.0259252 	36000.000000	0.00882123	36000.000000	0.00881118	36000.000000	0.0259251 	36000.000000	3.84127e-08	
38000.000000	0.0700959 	38000.000000	0.0270448 	38000.000000	0.00886896	38000.000000	0.00885934	38000.000000	0.0270447 	38000.000000	3.6502e-08	
40000.000000	0.0757215 	40000.000000	0.0281616 	40000.000000	0.00891424	40000.000000	0.00890501	40000.000000	0.0281616 	40000.000000	3.47769e-08	
42000.000000	0.0815802 	42000.000000	0.0292758 	42000.000000	0.00895724	42000.000000	0.00894843	42000.000000	0.0292757 	42000.000000	3.32115e-08	
44000.000000	0.087675  	44000.000000	0.0303874 	44000.000000	0.00899815	44000.000000	0.00898979	44000.000000	0.0303874 	44000.000000	3.17843e-08	
46000.000000	0.0940088 	46000.000000	0.0314966 	46000.000000	0.00903716	46000.000000	0.00902929	46000.000000	0.0314966 	46000.000000	3.04778e-08	
48000.000000	0.100584  	48000.000000	0.0326035 	48000.000000	0.00907442	48000.000000	0.00906709	48000.000000	0.0326035 	48000.000000	2.92771e-08	
50000.000000	0.107405  	50000.000000	0.0337081 	50000.000000	0.00911006	50000.000000	0.00910331	50000.000000	0.0337081 	50000.000000	2.81697e-08	
