0.001000	2.693     	0.001000	1.7499    	0.001000	1.85538   	0.001000	1.85538   	0.001000	0.458917  	0.001000	1.29098   	
0.002000	2.68154   	0.002000	1.70067   	0.002000	1.8399    	0.002000	1.8399    	0.002000	0.613416  	0.002000	1.08726   	
0.005000	2.82828   	0.005000	1.65363   	0.005000	1.85759   	0.005000	1.85759   	0.005000	0.901708  	0.005000	0.751926  	
0.008000	3.03336   	0.008000	1.68877   	0.008000	1.93851   	0.008000	1.93851   	0.008000	1.09953   	0.008000	0.589247  	
0.010000	3.16899   	0.010000	1.72743   	0.010000	2.00281   	0.010000	2.00281   	0.010000	1.20831   	0.010000	0.519118  	
0.015000	3.64794   	0.015000	1.86773   	0.015000	2.19802   	0.015000	2.19802   	0.015000	1.46183   	0.015000	0.405899  	
0.020000	4.18956   	0.020000	2.18442   	0.020000	2.59377   	0.020000	2.59377   	0.020000	1.84725   	0.020000	0.337173  	
0.025000	4.83736   	0.025000	2.58726   	0.025000	3.02385   	0.025000	3.02385   	0.025000	2.29689   	0.025000	0.290377  	
0.030000	5.44842   	0.030000	3.00897   	0.030000	3.39406   	0.030000	3.39406   	0.030000	2.7528    	0.030000	0.25617   	
0.035000	6.00344   	0.035000	3.43677   	0.035000	3.76236   	0.035000	3.76236   	0.035000	3.20802   	0.035000	0.228751  	
0.040000	6.49122   	0.040000	3.86484   	0.040000	4.12687   	0.040000	4.12687   	0.040000	3.65682   	0.040000	0.208022  	
0.045000	6.90516   	0.045000	4.28498   	0.045000	4.48251   	0.045000	4.48251   	0.045000	4.09469   	0.045000	0.190294  	
0.050000	7.24243   	0.050000	4.69445   	0.050000	4.82891   	0.050000	4.82891   	0.050000	4.5182    	0.050000	0.176243  	
0.055000	7.70385   	0.055000	5.08881   	0.055000	5.16379   	0.055000	5.16379   	0.055000	4.92449   	0.055000	0.164315  	
0.060000	8.08856   	0.060000	5.4245    	0.060000	5.48624   	0.060000	5.48624   	0.060000	5.27045   	0.060000	0.154049  	
0.070000	8.73132   	0.070000	6.03912   	0.070000	6.09197   	0.070000	6.09197   	0.070000	5.90188   	0.070000	0.137245  	
0.080000	9.40835   	0.080000	6.58694   	0.080000	6.64478   	0.080000	6.64478   	0.080000	6.46291   	0.080000	0.124033  	
0.090000	9.97605   	0.090000	7.07302   	0.090000	7.14619   	0.090000	7.14619   	0.090000	6.95968   	0.090000	0.113344  	
0.100000	10.4566   	0.100000	7.50401   	0.100000	7.59927   	0.100000	7.59927   	0.100000	7.39951   	0.100000	0.104499  	
0.120000	10.9989   	0.120000	8.24263   	0.120000	8.37601   	0.120000	8.37601   	0.120000	8.15195   	0.120000	0.0906719 	
0.140000	11.4247   	0.140000	8.866     	0.140000	9.00687   	0.140000	9.00687   	0.140000	8.78568   	0.140000	0.0803203 	
0.160000	11.7773   	0.160000	9.3687    	0.160000	9.5205    	0.160000	9.5205    	0.160000	9.29645   	0.160000	0.0722521 	
0.180000	12.1013   	0.180000	9.77829   	0.180000	9.9403    	0.180000	9.9403    	0.180000	9.71252   	0.180000	0.0657701 	
0.200000	12.4165   	0.200000	10.1152   	0.200000	10.2846   	0.200000	10.2846   	0.200000	10.0547   	0.200000	0.0604378 	
0.250000	12.8569   	0.250000	10.7952   	0.250000	10.9021   	0.250000	10.9021   	0.250000	10.7448   	0.250000	0.0504591 	
0.300000	13.2383   	0.300000	11.2484   	0.300000	11.2832   	0.300000	11.2832   	0.300000	11.2049   	0.300000	0.0434852 	
0.350000	13.5435   	0.350000	11.5484   	0.350000	11.5499   	0.350000	11.5499   	0.350000	11.51     	0.350000	0.0383136 	
0.400000	13.9539   	0.400000	11.8933   	0.400000	11.8916   	0.400000	11.8916   	0.400000	11.859    	0.400000	0.0343132 	
0.450000	14.3097   	0.450000	12.1897   	0.450000	12.1225   	0.450000	12.1225   	0.450000	12.1586   	0.450000	0.031119  	
0.500000	14.5705   	0.500000	12.402    	0.500000	12.275    	0.500000	12.275    	0.500000	12.3735   	0.500000	0.028505  	
0.600000	14.3746   	0.600000	12.6471   	0.600000	12.4252   	0.600000	12.4252   	0.600000	12.6227   	0.600000	0.0244721 	
0.700000	13.8732   	0.700000	12.6527   	0.700000	12.4469   	0.700000	12.4469   	0.700000	12.6313   	0.700000	0.0214964 	
0.800000	13.7928   	0.800000	12.5616   	0.800000	12.3041   	0.800000	12.3041   	0.800000	12.5424   	0.800000	0.0192037 	
0.900000	13.6127   	0.900000	12.3917   	0.900000	12.1339   	0.900000	12.1339   	0.900000	12.3743   	0.900000	0.0173792 	
1.000000	13.3987   	1.000000	12.1989   	1.000000	11.9521   	1.000000	11.9521   	1.000000	12.183    	1.000000	0.0158902 	
1.250000	12.7173   	1.250000	11.633    	1.250000	11.4619   	1.250000	11.4619   	1.250000	11.6199   	1.250000	0.0131339 	
1.500000	12.021    	1.500000	11.063    	1.500000	10.902    	1.500000	10.902    	1.500000	11.0517   	1.500000	0.0112321 	
1.750000	11.3587   	1.750000	10.5228   	1.750000	10.4084   	1.750000	10.4084   	1.750000	10.513    	1.750000	0.00983566	
2.000000	10.754    	2.000000	10.0314   	2.000000	9.96345   	2.000000	9.96345   	2.000000	10.0227   	2.000000	0.00876395	
2.250000	10.2159   	2.250000	9.57945   	2.250000	9.5578    	2.250000	9.5578    	2.250000	9.57154   	2.250000	0.00791387	
2.500000	10.3983   	2.500000	9.17757   	2.500000	9.18535   	2.500000	9.18535   	2.500000	9.17035   	2.500000	0.00722205	
3.000000	9.46243   	3.000000	8.4902    	3.000000	8.5236    	3.000000	8.5236    	3.000000	8.48404   	3.000000	0.00616197	
3.500000	8.683     	3.500000	7.90976   	3.500000	7.95302   	3.500000	7.95302   	3.500000	7.90438   	3.500000	0.00538575	
4.000000	8.02602   	4.000000	7.40814   	4.000000	7.45599   	4.000000	7.45599   	4.000000	7.40335   	4.000000	0.0047914 	
4.500000	7.46549   	4.500000	6.96993   	4.500000	7.01925   	4.500000	7.01925   	4.500000	6.96561   	4.500000	0.00432087	
5.000000	6.98189   	5.000000	6.58359   	5.000000	6.63253   	5.000000	6.63253   	5.000000	6.57965   	5.000000	0.00393857	
5.500000	6.56045   	5.500000	6.24027   	5.500000	6.28772   	5.500000	6.28772   	5.500000	6.23665   	5.500000	0.00362146	
6.000000	6.18988   	6.000000	5.93304   	6.000000	5.97836   	6.000000	5.97836   	6.000000	5.92969   	6.000000	0.00335394	
6.500000	5.86145   	6.500000	5.6564    	6.500000	5.69922   	6.500000	5.69922   	6.500000	5.65328   	6.500000	0.00312504	
7.000000	5.56831   	7.000000	5.40593   	7.000000	5.44607   	7.000000	5.44607   	7.000000	5.40301   	7.000000	0.00292683	
7.500000	5.305     	7.500000	5.17807   	7.500000	5.21542   	7.500000	5.21542   	7.500000	5.17532   	7.500000	0.00275345	
8.000000	5.06715   	8.000000	4.96978   	8.000000	5.00437   	8.000000	5.00437   	8.000000	4.96718   	8.000000	0.00260042	
8.500000	4.85118   	8.500000	4.77861   	8.500000	4.8105    	8.500000	4.8105    	8.500000	4.77615   	8.500000	0.0024643 	
9.000000	4.65418   	9.000000	4.6025    	9.000000	4.63178   	9.000000	4.63178   	9.000000	4.60016   	9.000000	0.0023424 	
9.500000	4.47372   	9.500000	4.43971   	9.500000	4.46649   	9.500000	4.46649   	9.500000	4.43748   	9.500000	0.00223256	
10.000000	4.30777   	10.000000	4.3188    	10.000000	4.31314   	10.000000	4.31314   	10.000000	4.31667   	10.000000	0.00213305	
11.000000	4.01285   	11.000000	4.04596   	11.000000	4.03115   	11.000000	4.04054   	11.000000	4.044     	11.000000	0.00195961	
12.000000	3.75859   	12.000000	3.80635   	12.000000	3.78501   	12.000000	3.80095   	12.000000	3.80453   	12.000000	0.00181344	
13.000000	3.53703   	13.000000	3.59441   	13.000000	3.56831   	13.000000	3.58879   	13.000000	3.59272   	13.000000	0.0016885 	
14.000000	3.34215   	14.000000	3.4057    	14.000000	3.37602   	14.000000	3.39967   	14.000000	3.40412   	14.000000	0.0015804 	
15.000000	3.16935   	15.000000	3.23668   	15.000000	3.20422   	15.000000	3.23007   	15.000000	3.23519   	15.000000	0.0014859 	
16.000000	3.01502   	16.000000	3.08445   	16.000000	3.04987   	16.000000	3.07715   	16.000000	3.08304   	16.000000	0.00140256	
17.000000	2.87632   	17.000000	2.94665   	17.000000	2.91049   	17.000000	2.93859   	17.000000	2.94532   	17.000000	0.00132849	
18.000000	2.75095   	18.000000	2.82134   	18.000000	2.78404   	18.000000	2.81251   	18.000000	2.82008   	18.000000	0.00126218	
19.000000	2.63705   	19.000000	2.70691   	19.000000	2.66877   	19.000000	2.6973    	19.000000	2.70571   	19.000000	0.00120248	
20.000000	2.53309   	20.000000	2.60201   	20.000000	2.56321   	20.000000	2.59166   	20.000000	2.60086   	20.000000	0.00114841	
21.000000	2.43781   	21.000000	2.5055    	21.000000	2.46623   	21.000000	2.49446   	21.000000	2.5044    	21.000000	0.00109922	
22.000000	2.35014   	22.000000	2.41642   	22.000000	2.37691   	22.000000	2.40476   	22.000000	2.41536   	22.000000	0.00105425	
23.000000	2.2692    	23.000000	2.33394   	23.000000	2.29445   	23.000000	2.32174   	23.000000	2.33292   	23.000000	0.00101298	
24.000000	2.19424   	24.000000	2.25735   	24.000000	2.21809   	24.000000	2.24471   	24.000000	2.25638   	24.000000	0.00097496	
25.000000	2.12459   	25.000000	2.18606   	25.000000	2.14717   	25.000000	2.17307   	25.000000	2.18512   	25.000000	0.000939819	
27.000000	1.99911   	27.000000	2.05728   	27.000000	2.01939   	27.000000	2.04389   	27.000000	2.0564    	27.000000	0.000876938	
29.000000	1.88915   	29.000000	1.94412   	29.000000	1.90784   	29.000000	1.93077   	29.000000	1.9433    	29.000000	0.000822281	
31.000000	1.79197   	31.000000	1.8439    	31.000000	1.81074   	31.000000	1.83097   	31.000000	1.84313   	31.000000	0.000774314	
33.000000	1.70541   	33.000000	1.75451   	33.000000	1.72492   	33.000000	1.74214   	33.000000	1.75378   	33.000000	0.000731862	
35.000000	1.62781   	35.000000	1.67429   	35.000000	1.64798   	35.000000	1.66251   	35.000000	1.6736    	35.000000	0.000694013	
38.000000	1.52534   	38.000000	1.56827   	38.000000	1.54582   	38.000000	1.55738   	38.000000	1.56762   	38.000000	0.000644336	
41.000000	1.43654   	41.000000	1.47635   	41.000000	1.45732   	41.000000	1.46631   	41.000000	1.47575   	41.000000	0.000601568	
44.000000	1.35881   	44.000000	1.39588   	44.000000	1.37952   	44.000000	1.38663   	44.000000	1.39532   	44.000000	0.000564344	
47.000000	1.29017   	47.000000	1.32485   	47.000000	1.31085   	47.000000	1.3163    	47.000000	1.32431   	47.000000	0.000531638	
50.000000	1.22908   	50.000000	1.26166   	50.000000	1.24957   	50.000000	1.25375   	50.000000	1.26116   	50.000000	0.000502664	
55.000000	1.14091   	55.000000	1.17054   	55.000000	1.16105   	55.000000	1.16352   	55.000000	1.17008   	55.000000	0.000461061	
60.000000	1.0663    	60.000000	1.09355   	60.000000	1.08602   	60.000000	1.08724   	60.000000	1.09312   	60.000000	0.000426066	
65.000000	1.00229   	65.000000	1.02761   	65.000000	1.02161   	65.000000	1.02188   	65.000000	1.02722   	65.000000	0.000396201	
70.000000	0.946746  	70.000000	0.970498  	70.000000	0.965592  	70.000000	0.96521   	70.000000	0.970128  	70.000000	0.000370403	
75.000000	0.898054  	75.000000	0.920528  	75.000000	0.916693  	75.000000	0.915596  	75.000000	0.92018   	75.000000	0.000347882	
80.000000	0.854999  	80.000000	0.87643   	80.000000	0.873236  	80.000000	0.871779  	80.000000	0.876102  	80.000000	0.000328046	
85.000000	0.816637  	85.000000	0.837218  	85.000000	0.834656  	85.000000	0.832789  	85.000000	0.836908  	85.000000	0.000310434	
90.000000	0.782224  	90.000000	0.802117  	90.000000	0.800078  	90.000000	0.79786   	90.000000	0.801822  	90.000000	0.000294688	
95.000000	0.751168  	95.000000	0.770506  	95.000000	0.768805  	95.000000	0.766383  	95.000000	0.770226  	95.000000	0.000280523	
100.000000	0.722991  	100.000000	0.741886  	100.000000	0.740465  	100.000000	0.737865  	100.000000	0.741619  	100.000000	0.000267709	
105.000000	0.697301  	105.000000	0.715848  	105.000000	0.714661  	105.000000	0.711905  	105.000000	0.715592  	105.000000	0.000256059	
110.000000	0.673776  	110.000000	0.692054  	110.000000	0.691063  	110.000000	0.68817   	110.000000	0.691808  	110.000000	0.000245419	
115.000000	0.652147  	115.000000	0.670224  	115.000000	0.669393  	115.000000	0.666383  	115.000000	0.669988  	115.000000	0.000235662	
120.000000	0.632188  	120.000000	0.650123  	120.000000	0.649439  	120.000000	0.646313  	120.000000	0.649896  	120.000000	0.000226681	
125.000000	0.613709  	125.000000	0.631552  	125.000000	0.630961  	125.000000	0.627762  	125.000000	0.631333  	125.000000	0.000218385	
130.000000	0.596547  	130.000000	0.614341  	130.000000	0.613781  	130.000000	0.610564  	130.000000	0.61413   	130.000000	0.000210698	
135.000000	0.580563  	135.000000	0.598344  	135.000000	0.597871  	135.000000	0.594574  	135.000000	0.598141  	135.000000	0.000203555	
140.000000	0.565635  	140.000000	0.583438  	140.000000	0.583002  	140.000000	0.57967   	140.000000	0.583241  	140.000000	0.000196899	
145.000000	0.551662  	145.000000	0.569514  	145.000000	0.569092  	145.000000	0.565745  	145.000000	0.569323  	145.000000	0.000190681	
150.000000	0.53855   	150.000000	0.556476  	150.000000	0.556115  	150.000000	0.552703  	150.000000	0.556292  	150.000000	0.000184859	
155.000000	0.520078  	155.000000	0.544244  	155.000000	0.543893  	155.000000	0.540465  	155.000000	0.544064  	155.000000	0.000179396	
160.000000	0.509255  	160.000000	0.532743  	160.000000	0.532393  	160.000000	0.528957  	160.000000	0.532569  	160.000000	0.000174259	
165.000000	0.499048  	165.000000	0.52191   	165.000000	0.521602  	165.000000	0.518116  	165.000000	0.521741  	165.000000	0.000169419	
170.000000	0.489405  	170.000000	0.511688  	170.000000	0.511394  	170.000000	0.507887  	170.000000	0.511523  	170.000000	0.000164851	
175.000000	0.48028   	175.000000	0.502027  	175.000000	0.501717  	175.000000	0.498218  	175.000000	0.501867  	175.000000	0.000160532	
180.000000	0.471631  	180.000000	0.492882  	180.000000	0.49256   	180.000000	0.489064  	180.000000	0.492725  	180.000000	0.000156443	
185.000000	0.463423  	185.000000	0.484212  	185.000000	0.483883  	185.000000	0.480387  	185.000000	0.484059  	185.000000	0.000152564	
190.000000	0.45562   	190.000000	0.475981  	190.000000	0.475642  	190.000000	0.47215   	190.000000	0.475832  	190.000000	0.000148881	
195.000000	0.448195  	195.000000	0.468157  	195.000000	0.467808  	195.000000	0.46432   	195.000000	0.468012  	195.000000	0.000145378	
200.000000	0.441119  	200.000000	0.46071   	200.000000	0.460353  	200.000000	0.456868  	200.000000	0.460568  	200.000000	0.000142043	
210.000000	0.427923  	210.000000	0.446844  	210.000000	0.446471  	210.000000	0.442994  	210.000000	0.446708  	210.000000	0.000135828	
220.000000	0.41586   	220.000000	0.434198  	220.000000	0.433811  	220.000000	0.430345  	220.000000	0.434068  	220.000000	0.000130154	
230.000000	0.40479   	230.000000	0.422618  	230.000000	0.422222  	230.000000	0.418766  	230.000000	0.422493  	230.000000	0.000124951	
240.000000	0.394595  	240.000000	0.411975  	240.000000	0.411573  	240.000000	0.408128  	240.000000	0.411855  	240.000000	0.000120164	
250.000000	0.385175  	250.000000	0.40216   	250.000000	0.401756  	250.000000	0.398323  	250.000000	0.402044  	250.000000	0.000115743	
260.000000	0.376443  	260.000000	0.393082  	260.000000	0.392679  	260.000000	0.389258  	260.000000	0.39297   	260.000000	0.000111648	
270.000000	0.368327  	270.000000	0.38466   	270.000000	0.384263  	270.000000	0.380854  	270.000000	0.384552  	270.000000	0.000107843	
280.000000	0.360765  	280.000000	0.376827  	280.000000	0.37644   	280.000000	0.373042  	280.000000	0.376723  	280.000000	0.000104299	
290.000000	0.3537    	290.000000	0.369524  	290.000000	0.369148  	290.000000	0.365763  	290.000000	0.369423  	290.000000	0.000100988	
300.000000	0.347087  	300.000000	0.362699  	300.000000	0.362344  	300.000000	0.358966  	300.000000	0.362602  	300.000000	9.78887e-05	
310.000000	0.340883  	310.000000	0.356309  	310.000000	0.355965  	310.000000	0.352605  	310.000000	0.356214  	310.000000	9.49809e-05	
320.000000	0.335052  	320.000000	0.350312  	320.000000	0.349959  	320.000000	0.346642  	320.000000	0.35022   	320.000000	9.22472e-05	
330.000000	0.329562  	330.000000	0.344675  	330.000000	0.344335  	330.000000	0.34104   	330.000000	0.344586  	330.000000	8.96721e-05	
340.000000	0.324383  	340.000000	0.339367  	340.000000	0.339059  	340.000000	0.33577   	340.000000	0.33928   	340.000000	8.72421e-05	
350.000000	0.319491  	350.000000	0.334361  	350.000000	0.334081  	350.000000	0.330803  	350.000000	0.334276  	350.000000	8.49452e-05	
360.000000	0.314862  	360.000000	0.329632  	360.000000	0.329385  	360.000000	0.326115  	360.000000	0.329549  	360.000000	8.27705e-05	
370.000000	0.310477  	370.000000	0.325158  	370.000000	0.324945  	370.000000	0.321684  	370.000000	0.325077  	370.000000	8.07084e-05	
380.000000	0.306316  	380.000000	0.32092   	380.000000	0.320725  	380.000000	0.31749   	380.000000	0.320841  	380.000000	7.87503e-05	
390.000000	0.302365  	390.000000	0.3169    	390.000000	0.31672   	390.000000	0.313516  	390.000000	0.316824  	390.000000	7.68884e-05	
400.000000	0.298607  	400.000000	0.313083  	400.000000	0.312934  	400.000000	0.309745  	400.000000	0.313008  	400.000000	7.51158e-05	
410.000000	0.295029  	410.000000	0.309454  	410.000000	0.309348  	410.000000	0.306163  	410.000000	0.309381  	410.000000	7.3426e-05	
420.000000	0.291619  	420.000000	0.306     	420.000000	0.305939  	420.000000	0.302757  	420.000000	0.305928  	420.000000	7.18133e-05	
430.000000	0.288366  	430.000000	0.302709  	430.000000	0.302685  	430.000000	0.299515  	430.000000	0.302638  	430.000000	7.02725e-05	
440.000000	0.28526   	440.000000	0.29957   	440.000000	0.299573  	440.000000	0.296425  	440.000000	0.299501  	440.000000	6.87989e-05	
450.000000	0.282291  	450.000000	0.296574  	450.000000	0.296602  	450.000000	0.293479  	450.000000	0.296506  	450.000000	6.7388e-05	
460.000000	0.27945   	460.000000	0.293711  	460.000000	0.293775  	460.000000	0.290666  	460.000000	0.293645  	460.000000	6.60359e-05	
470.000000	0.276731  	470.000000	0.290973  	470.000000	0.291082  	470.000000	0.287979  	470.000000	0.290909  	470.000000	6.4739e-05	
480.000000	0.274126  	480.000000	0.288353  	480.000000	0.288509  	480.000000	0.28541   	480.000000	0.28829   	480.000000	6.34939e-05	
490.000000	0.271628  	490.000000	0.285844  	490.000000	0.286042  	490.000000	0.282951  	490.000000	0.285782  	490.000000	6.22976e-05	
500.000000	0.269231  	500.000000	0.283439  	500.000000	0.283676  	500.000000	0.280597  	500.000000	0.283378  	500.000000	6.11471e-05	
520.000000	0.264718  	520.000000	0.278918  	520.000000	0.279222  	520.000000	0.276177  	520.000000	0.278859  	520.000000	5.89735e-05	
540.000000	0.260548  	540.000000	0.274747  	540.000000	0.275136  	540.000000	0.272107  	540.000000	0.27469   	540.000000	5.69544e-05	
560.000000	0.256684  	560.000000	0.270891  	560.000000	0.271365  	560.000000	0.268349  	560.000000	0.270836  	560.000000	5.50738e-05	
580.000000	0.253098  	580.000000	0.267318  	580.000000	0.267856  	580.000000	0.264873  	580.000000	0.267264  	580.000000	5.33176e-05	
600.000000	0.249762  	600.000000	0.263999  	600.000000	0.264616  	600.000000	0.261651  	600.000000	0.263948  	600.000000	5.16739e-05	
620.000000	0.246653  	620.000000	0.260912  	620.000000	0.261614  	620.000000	0.258657  	620.000000	0.260862  	620.000000	5.01319e-05	
640.000000	0.243753  	640.000000	0.258035  	640.000000	0.258803  	640.000000	0.25587   	640.000000	0.257986  	640.000000	4.86825e-05	
660.000000	0.241041  	660.000000	0.255349  	660.000000	0.256183  	660.000000	0.253272  	660.000000	0.255301  	660.000000	4.73174e-05	
680.000000	0.238504  	680.000000	0.252838  	680.000000	0.253751  	680.000000	0.250847  	680.000000	0.252792  	680.000000	4.60295e-05	
700.000000	0.236125  	700.000000	0.250487  	700.000000	0.251472  	700.000000	0.248579  	700.000000	0.250442  	700.000000	4.48122e-05	
720.000000	0.233894  	720.000000	0.248284  	720.000000	0.249327  	720.000000	0.246455  	720.000000	0.24824   	720.000000	4.36598e-05	
740.000000	0.231799  	740.000000	0.246216  	740.000000	0.247317  	740.000000	0.244463  	740.000000	0.246173  	740.000000	4.25673e-05	
760.000000	0.229829  	760.000000	0.244273  	760.000000	0.245441  	760.000000	0.242593  	760.000000	0.244232  	760.000000	4.153e-05 	
780.000000	0.227976  	780.000000	0.242447  	780.000000	0.243678  	780.000000	0.240836  	780.000000	0.242406  	780.000000	4.05438e-05	
800.000000	0.226231  	800.000000	0.240727  	800.000000	0.242011  	800.000000	0.239183  	800.000000	0.240688  	800.000000	3.9605e-05	
820.000000	0.224586  	820.000000	0.239108  	820.000000	0.24044   	820.000000	0.23763   	820.000000	0.239069  	820.000000	3.87102e-05	
840.000000	0.223036  	840.000000	0.237581  	840.000000	0.238979  	840.000000	0.236181  	840.000000	0.237543  	840.000000	3.78563e-05	
860.000000	0.221573  	860.000000	0.23614   	860.000000	0.237608  	860.000000	0.234815  	860.000000	0.236103  	860.000000	3.70406e-05	
880.000000	0.220192  	880.000000	0.234781  	880.000000	0.236314  	880.000000	0.233525  	880.000000	0.234744  	880.000000	3.62605e-05	
900.000000	0.218888  	900.000000	0.233496  	900.000000	0.235088  	900.000000	0.232307  	900.000000	0.233461  	900.000000	3.55137e-05	
920.000000	0.217657  	920.000000	0.232283  	920.000000	0.233922  	920.000000	0.231154  	920.000000	0.232248  	920.000000	3.47981e-05	
940.000000	0.216493  	940.000000	0.231135  	940.000000	0.232818  	940.000000	0.230064  	940.000000	0.231101  	940.000000	3.41118e-05	
960.000000	0.215393  	960.000000	0.23005   	960.000000	0.231776  	960.000000	0.229032  	960.000000	0.230016  	960.000000	3.34529e-05	
980.000000	0.214353  	980.000000	0.229023  	980.000000	0.230793  	980.000000	0.228054  	980.000000	0.22899   	980.000000	3.28199e-05	
1000.000000	0.21337   	1000.000000	0.228051  	1000.000000	0.229864  	1000.000000	0.227127  	1000.000000	0.228018  	1000.000000	3.22112e-05	
1020.000000	0.212441  	1020.000000	0.22713   	1020.000000	0.228982  	1020.000000	0.226248  	1020.000000	0.227099  	1020.000000	3.16255e-05	
1040.000000	0.211563  	1040.000000	0.226259  	1040.000000	0.228141  	1040.000000	0.225414  	1040.000000	0.226228  	1040.000000	3.10615e-05	
1060.000000	0.210732  	1060.000000	0.225434  	1060.000000	0.227339  	1060.000000	0.224622  	1060.000000	0.225404  	1060.000000	3.05178e-05	
1080.000000	0.209947  	1080.000000	0.224653  	1080.000000	0.226577  	1080.000000	0.223871  	1080.000000	0.224623  	1080.000000	2.99936e-05	
1100.000000	0.209205  	1100.000000	0.223913  	1100.000000	0.225854  	1100.000000	0.223157  	1100.000000	0.223883  	1100.000000	2.94877e-05	
1120.000000	0.208504  	1120.000000	0.223212  	1120.000000	0.225169  	1120.000000	0.222478  	1120.000000	0.223183  	1120.000000	2.89991e-05	
1140.000000	0.207843  	1140.000000	0.222548  	1140.000000	0.224521  	1140.000000	0.221833  	1140.000000	0.22252   	1140.000000	2.8527e-05	
1160.000000	0.207218  	1160.000000	0.22192   	1160.000000	0.223906  	1160.000000	0.22122   	1160.000000	0.221892  	1160.000000	2.80706e-05	
1180.000000	0.206629  	1180.000000	0.221325  	1180.000000	0.223321  	1180.000000	0.220637  	1180.000000	0.221297  	1180.000000	2.76291e-05	
1200.000000	0.206073  	1200.000000	0.220762  	1200.000000	0.222763  	1200.000000	0.220082  	1200.000000	0.220735  	1200.000000	2.72017e-05	
1220.000000	0.20555   	1220.000000	0.220229  	1220.000000	0.22223   	1220.000000	0.219555  	1220.000000	0.220202  	1220.000000	2.67878e-05	
1240.000000	0.205057  	1240.000000	0.219725  	1240.000000	0.221721  	1240.000000	0.219053  	1240.000000	0.219699  	1240.000000	2.63867e-05	
1260.000000	0.204594  	1260.000000	0.219249  	1260.000000	0.221236  	1260.000000	0.218575  	1260.000000	0.219223  	1260.000000	2.59979e-05	
1280.000000	0.204159  	1280.000000	0.218799  	1280.000000	0.220773  	1280.000000	0.21812   	1280.000000	0.218774  	1280.000000	2.56207e-05	
1300.000000	0.20375   	1300.000000	0.218374  	1300.000000	0.220334  	1300.000000	0.217687  	1300.000000	0.218349  	1300.000000	2.52547e-05	
1320.000000	0.203367  	1320.000000	0.217973  	1320.000000	0.219917  	1320.000000	0.217275  	1320.000000	0.217949  	1320.000000	2.48994e-05	
1340.000000	0.203009  	1340.000000	0.217595  	1340.000000	0.219522  	1340.000000	0.216882  	1340.000000	0.217571  	1340.000000	2.45543e-05	
1360.000000	0.202675  	1360.000000	0.217239  	1360.000000	0.219147  	1360.000000	0.216509  	1360.000000	0.217215  	1360.000000	2.42189e-05	
1380.000000	0.202363  	1380.000000	0.216904  	1380.000000	0.21879   	1380.000000	0.216153  	1380.000000	0.21688   	1380.000000	2.38929e-05	
1400.000000	0.202073  	1400.000000	0.216589  	1400.000000	0.21845   	1400.000000	0.215815  	1400.000000	0.216566  	1400.000000	2.35759e-05	
1420.000000	0.201804  	1420.000000	0.216293  	1420.000000	0.218127  	1420.000000	0.215493  	1420.000000	0.21627   	1420.000000	2.32674e-05	
1440.000000	0.201555  	1440.000000	0.216016  	1440.000000	0.217817  	1440.000000	0.215186  	1440.000000	0.215993  	1440.000000	2.29672e-05	
1460.000000	0.201326  	1460.000000	0.215756  	1460.000000	0.217522  	1460.000000	0.214895  	1460.000000	0.215734  	1460.000000	2.26749e-05	
1480.000000	0.201115  	1480.000000	0.215514  	1480.000000	0.21724   	1480.000000	0.214617  	1480.000000	0.215491  	1480.000000	2.23902e-05	
1500.000000	0.200922  	1500.000000	0.215287  	1500.000000	0.216972  	1500.000000	0.214354  	1500.000000	0.215265  	1500.000000	2.21128e-05	
1520.000000	0.200746  	1520.000000	0.215077  	1520.000000	0.216716  	1520.000000	0.214103  	1520.000000	0.215055  	1520.000000	2.18425e-05	
1540.000000	0.200587  	1540.000000	0.214881  	1540.000000	0.216472  	1540.000000	0.213864  	1540.000000	0.21486   	1540.000000	2.15788e-05	
1560.000000	0.200444  	1560.000000	0.2147    	1560.000000	0.216241  	1560.000000	0.213638  	1560.000000	0.214679  	1560.000000	2.13217e-05	
1580.000000	0.200317  	1580.000000	0.214533  	1580.000000	0.216022  	1580.000000	0.213422  	1580.000000	0.214512  	1580.000000	2.10709e-05	
1600.000000	0.200204  	1600.000000	0.21438   	1600.000000	0.215814  	1600.000000	0.213218  	1600.000000	0.214359  	1600.000000	2.08261e-05	
1620.000000	0.200106  	1620.000000	0.214239  	1620.000000	0.215617  	1620.000000	0.213024  	1620.000000	0.214219  	1620.000000	2.05871e-05	
1640.000000	0.200022  	1640.000000	0.214111  	1640.000000	0.215432  	1640.000000	0.21284   	1640.000000	0.214091  	1640.000000	2.03537e-05	
1660.000000	0.199952  	1660.000000	0.213995  	1660.000000	0.215256  	1660.000000	0.212666  	1660.000000	0.213975  	1660.000000	2.01257e-05	
1680.000000	0.199895  	1680.000000	0.213891  	1680.000000	0.21509   	1680.000000	0.212501  	1680.000000	0.213871  	1680.000000	1.9903e-05	
1700.000000	0.19985   	1700.000000	0.213798  	1700.000000	0.214932  	1700.000000	0.212344  	1700.000000	0.213778  	1700.000000	1.96853e-05	
1750.000000	0.199791  	1750.000000	0.213611  	1750.000000	0.214576  	1750.000000	0.21199   	1750.000000	0.213592  	1750.000000	1.9162e-05	
1800.000000	0.199803  	1800.000000	0.213487  	1800.000000	0.214266  	1800.000000	0.211683  	1800.000000	0.213469  	1800.000000	1.86667e-05	
1850.000000	0.199881  	1850.000000	0.21342   	1850.000000	0.213997  	1850.000000	0.21142   	1850.000000	0.213402  	1850.000000	1.81972e-05	
1900.000000	0.200019  	1900.000000	0.213406  	1900.000000	0.213767  	1900.000000	0.211196  	1900.000000	0.213388  	1900.000000	1.77515e-05	
1950.000000	0.200215  	1950.000000	0.21344   	1950.000000	0.213571  	1950.000000	0.211007  	1950.000000	0.213423  	1950.000000	1.73278e-05	
2000.000000	0.200463  	2000.000000	0.21352   	2000.000000	0.213408  	2000.000000	0.210852  	2000.000000	0.213503  	2000.000000	1.69245e-05	
2100.000000	0.201105  	2100.000000	0.213801  	2100.000000	0.213168  	2100.000000	0.210626  	2100.000000	0.213785  	2100.000000	1.61734e-05	
2200.000000	0.201921  	2200.000000	0.214226  	2200.000000	0.21303   	2200.000000	0.210499  	2200.000000	0.214211  	2200.000000	1.54882e-05	
2300.000000	0.202891  	2300.000000	0.214777  	2300.000000	0.212977  	2300.000000	0.210455  	2300.000000	0.214762  	2300.000000	1.48605e-05	
2400.000000	0.203998  	2400.000000	0.215438  	2400.000000	0.212997  	2400.000000	0.210481  	2400.000000	0.215424  	2400.000000	1.42832e-05	
2500.000000	0.205229  	2500.000000	0.216196  	2500.000000	0.213078  	2500.000000	0.210565  	2500.000000	0.216182  	2500.000000	1.37505e-05	
2600.000000	0.20657   	2600.000000	0.217039  	2600.000000	0.21321   	2600.000000	0.210699  	2600.000000	0.217026  	2600.000000	1.32572e-05	
2700.000000	0.208011  	2700.000000	0.217958  	2700.000000	0.213384  	2700.000000	0.210875  	2700.000000	0.217945  	2700.000000	1.27993e-05	
2800.000000	0.209544  	2800.000000	0.218944  	2800.000000	0.213594  	2800.000000	0.211087  	2800.000000	0.218932  	2800.000000	1.23728e-05	
2900.000000	0.211161  	2900.000000	0.219991  	2900.000000	0.213833  	2900.000000	0.211329  	2900.000000	0.21998   	2900.000000	1.19748e-05	
3000.000000	0.212855  	3000.000000	0.221093  	3000.000000	0.214096  	3000.000000	0.211596  	3000.000000	0.221081  	3000.000000	1.16023e-05	
3200.000000	0.21645   	3200.000000	0.223438  	3200.000000	0.214685  	3200.000000	0.212194  	3200.000000	0.223427  	3200.000000	1.09248e-05	
3400.000000	0.22029   	3400.000000	0.225944  	3400.000000	0.215338  	3400.000000	0.212854  	3400.000000	0.225933  	3400.000000	1.03243e-05	
3600.000000	0.224345  	3600.000000	0.228583  	3600.000000	0.216036  	3600.000000	0.213559  	3600.000000	0.228573  	3600.000000	9.78826e-06	
3800.000000	0.22859   	3800.000000	0.231334  	3800.000000	0.216767  	3800.000000	0.214295  	3800.000000	0.231325  	3800.000000	9.3067e-06	
4000.000000	0.233004  	4000.000000	0.234179  	4000.000000	0.217519  	4000.000000	0.215052  	4000.000000	0.23417   	4000.000000	8.87167e-06	
4200.000000	0.237572  	4200.000000	0.237103  	4200.000000	0.218285  	4200.000000	0.215821  	4200.000000	0.237095  	4200.000000	8.47665e-06	
4400.000000	0.24228   	4400.000000	0.240096  	4400.000000	0.219058  	4400.000000	0.216597  	4400.000000	0.240088  	4400.000000	8.11633e-06	
4600.000000	0.247116  	4600.000000	0.243148  	4600.000000	0.219834  	4600.000000	0.217376  	4600.000000	0.24314   	4600.000000	7.78628e-06	
4800.000000	0.252073  	4800.000000	0.24625   	4800.000000	0.220608  	4800.000000	0.218153  	4800.000000	0.246242  	4800.000000	7.4828e-06	
5000.000000	0.257141  	5000.000000	0.249396  	5000.000000	0.221378  	5000.000000	0.218926  	5000.000000	0.249389  	5000.000000	7.20278e-06	
5250.000000	0.263623  	5250.000000	0.253383  	5250.000000	0.222332  	5250.000000	0.219884  	5250.000000	0.253376  	5250.000000	6.88175e-06	
5500.000000	0.270259  	5500.000000	0.25742   	5500.000000	0.223274  	5500.000000	0.22083   	5500.000000	0.257414  	5500.000000	6.58892e-06	
6000.000000	0.283954  	6000.000000	0.265619  	6000.000000	0.225114  	6000.000000	0.222677  	6000.000000	0.265613  	6000.000000	6.07411e-06	
6500.000000	0.29817   	6500.000000	0.273947  	6500.000000	0.226889  	6500.000000	0.224458  	6500.000000	0.273942  	6500.000000	5.63597e-06	
7000.000000	0.312864  	7000.000000	0.282371  	7000.000000	0.228592  	7000.000000	0.226169  	7000.000000	0.282366  	7000.000000	5.25841e-06	
7500.000000	0.328007  	7500.000000	0.290867  	7500.000000	0.230231  	7500.000000	0.227812  	7500.000000	0.290862  	7500.000000	4.92958e-06	
8000.000000	0.343575  	8000.000000	0.299418  	8000.000000	0.231802  	8000.000000	0.229387  	8000.000000	0.299414  	8000.000000	4.64055e-06	
8500.000000	0.359551  	8500.000000	0.308011  	8500.000000	0.23331   	8500.000000	0.230897  	8500.000000	0.308006  	8500.000000	4.38442e-06	
9000.000000	0.375922  	9000.000000	0.316634  	9000.000000	0.234758  	9000.000000	0.232346  	9000.000000	0.31663   	9000.000000	4.15585e-06	
9500.000000	0.392675  	9500.000000	0.325282  	9500.000000	0.236146  	9500.000000	0.233737  	9500.000000	0.325278  	9500.000000	3.95057e-06	
10000.000000	0.409803  	10000.000000	0.333947  	10000.000000	0.237476  	10000.000000	0.235074  	10000.000000	0.333943  	10000.000000	3.76516e-06	
11000.000000	0.445155  	11000.000000	0.351312  	11000.000000	0.239983  	11000.000000	0.237597  	11000.000000	0.351309  	11000.000000	3.44334e-06	
12000.000000	0.481938  	12000.000000	0.368701  	12000.000000	0.242314  	12000.000000	0.239939  	12000.000000	0.368698  	12000.000000	3.17353e-06	
13000.000000	0.520124  	13000.000000	0.386096  	13000.000000	0.244488  	13000.000000	0.242123  	13000.000000	0.386093  	13000.000000	2.94396e-06	
14000.000000	0.559693  	14000.000000	0.403485  	14000.000000	0.246521  	14000.000000	0.244165  	14000.000000	0.403483  	14000.000000	2.74618e-06	
15000.000000	0.600635  	15000.000000	0.420861  	15000.000000	0.248428  	15000.000000	0.246083  	15000.000000	0.420858  	15000.000000	2.57397e-06	
16000.000000	0.642941  	16000.000000	0.438217  	16000.000000	0.250222  	16000.000000	0.247888  	16000.000000	0.438214  	16000.000000	2.42263e-06	
17000.000000	0.686605  	17000.000000	0.45555   	17000.000000	0.251913  	17000.000000	0.249594  	17000.000000	0.455548  	17000.000000	2.28855e-06	
18000.000000	0.731627  	18000.000000	0.472858  	18000.000000	0.253513  	18000.000000	0.25121   	18000.000000	0.472856  	18000.000000	2.16891e-06	
19000.000000	0.778005  	19000.000000	0.490139  	19000.000000	0.25503   	19000.000000	0.252744  	19000.000000	0.490137  	19000.000000	2.06148e-06	
20000.000000	0.825741  	20000.000000	0.507392  	20000.000000	0.256472  	20000.000000	0.254204  	20000.000000	0.50739   	20000.000000	1.96447e-06	
21000.000000	0.874835  	21000.000000	0.524618  	21000.000000	0.257848  	21000.000000	0.255596  	21000.000000	0.524616  	21000.000000	1.87641e-06	
22000.000000	0.925292  	22000.000000	0.541815  	22000.000000	0.259162  	22000.000000	0.256927  	22000.000000	0.541813  	22000.000000	1.79611e-06	
23000.000000	0.977113  	23000.000000	0.558983  	23000.000000	0.260415  	23000.000000	0.258201  	23000.000000	0.558981  	23000.000000	1.72259e-06	
24000.000000	1.03031   	24000.000000	0.576124  	24000.000000	0.261613  	24000.000000	0.259423  	24000.000000	0.576122  	24000.000000	1.655e-06 	
25000.000000	1.08487   	25000.000000	0.593237  	25000.000000	0.262764  	25000.000000	0.260596  	25000.000000	0.593235  	25000.000000	1.59266e-06	
26000.000000	1.14082   	26000.000000	0.610322  	26000.000000	0.263874  	26000.000000	0.261725  	26000.000000	0.610321  	26000.000000	1.53497e-06	
27000.000000	1.19815   	27000.000000	0.627381  	27000.000000	0.264944  	27000.000000	0.262812  	27000.000000	0.627379  	27000.000000	1.48142e-06	
28000.000000	1.25687   	28000.000000	0.644413  	28000.000000	0.265975  	28000.000000	0.263861  	28000.000000	0.644412  	28000.000000	1.43158e-06	
29000.000000	1.31698   	29000.000000	0.661419  	29000.000000	0.266968  	29000.000000	0.264874  	29000.000000	0.661418  	29000.000000	1.38508e-06	
30000.000000	1.3785    	30000.000000	0.6784    	30000.000000	0.267924  	30000.000000	0.265853  	30000.000000	0.678399  	30000.000000	1.34158e-06	
32000.000000	1.50578   	32000.000000	0.712289  	32000.000000	0.269739  	32000.000000	0.267718  	32000.000000	0.712288  	32000.000000	1.26249e-06	
34000.000000	1.63874   	34000.000000	0.746082  	34000.000000	0.271439  	34000.000000	0.269471  	34000.000000	0.746081  	34000.000000	1.19244e-06	
36000.000000	1.77744   	36000.000000	0.779785  	36000.000000	0.273036  	36000.000000	0.271125  	36000.000000	0.779784  	36000.000000	1.12995e-06	
38000.000000	1.92195   	38000.000000	0.813401  	38000.000000	0.274542  	38000.000000	0.27269   	38000.000000	0.8134    	38000.000000	1.07384e-06	
40000.000000	2.07232   	40000.000000	0.846934  	40000.000000	0.275966  	40000.000000	0.274175  	40000.000000	0.846933  	40000.000000	1.02318e-06	
42000.000000	2.22862   	42000.000000	0.880387  	42000.000000	0.277316  	42000.000000	0.275587  	42000.000000	0.880386  	42000.000000	9.77197e-07	
44000.000000	2.39089   	44000.000000	0.913764  	44000.000000	0.278602  	44000.000000	0.276934  	44000.000000	0.913763  	44000.000000	9.35277e-07	
46000.000000	2.55922   	46000.000000	0.947068  	46000.000000	0.279828  	46000.000000	0.278221  	46000.000000	0.947067  	46000.000000	8.96896e-07	
48000.000000	2.73365   	48000.000000	0.980302  	48000.000000	0.280999  	48000.000000	0.279453  	48000.000000	0.980301  	48000.000000	8.6162e-07	
50000.000000	2.91425   	50000.000000	1.01347   	50000.000000	0.282115  	50000.000000	0.280634  	50000.000000	1.01347   	50000.000000	8.29085e-07	
