Energy (MeV/u)1	0 - [He-base] F.Hubert et al, AD&ND Tables 46(1990)1	Energy (MeV/u)2	1 - [H -base] J.F.Ziegler et al, Pergamon Press, NY (low energy)	Energy (MeV/u)3	2 - ATIMA 1.2  LS-theory (recommended for high energy)	Energy (MeV/u)4	3 - ATIMA 1.2  without LS-correction	Energy (MeV/u)5	4 - electrical component of [1] - J.F.Ziegler et al	Energy (MeV/u)6	5 - nuclear component of [1] - J.F.Ziegler et al	
0.001000	10.2441   	0.001000	7.62508   	0.001000	7.13757   	0.001000	7.13757   	0.001000	1.47315   	0.001000	6.15193   	
0.002000	10.4857   	0.002000	7.93535   	0.002000	7.28872   	0.002000	7.28872   	0.002000	2.04048   	0.002000	5.89487   	
0.005000	10.5283   	0.005000	7.96843   	0.005000	7.03339   	0.005000	7.03339   	0.005000	3.1388    	0.005000	4.82963   	
0.008000	10.6831   	0.008000	8.00093   	0.008000	6.87374   	0.008000	6.87374   	0.008000	3.91471   	0.008000	4.08622   	
0.010000	10.8388   	0.010000	8.06779   	0.010000	6.83673   	0.010000	6.83673   	0.010000	4.34758   	0.010000	3.72021   	
0.015000	11.3049   	0.015000	8.32942   	0.015000	6.88603   	0.015000	6.88603   	0.015000	5.2603    	0.015000	3.06912   	
0.020000	11.8041   	0.020000	8.65793   	0.020000	7.04342   	0.020000	7.04342   	0.020000	6.02187   	0.020000	2.63606   	
0.025000	12.2996   	0.025000	9.01171   	0.025000	7.25153   	0.025000	7.25153   	0.025000	6.68774   	0.025000	2.32397   	
0.030000	12.7795   	0.030000	9.37271   	0.030000	7.48449   	0.030000	7.48449   	0.030000	7.28609   	0.030000	2.08662   	
0.035000	13.2406   	0.035000	9.7326    	0.035000	7.72939   	0.035000	7.72939   	0.035000	7.83356   	0.035000	1.89904   	
0.040000	13.6982   	0.040000	10.0874   	0.040000	7.97935   	0.040000	7.97935   	0.040000	8.34095   	0.040000	1.74645   	
0.045000	14.2856   	0.045000	10.6594   	0.045000	8.50173   	0.045000	8.50173   	0.045000	9.03995   	0.045000	1.6195    	
0.050000	14.7588   	0.050000	11.3664   	0.050000	9.22541   	0.050000	9.22541   	0.050000	9.8544    	0.050000	1.51198   	
0.055000	15.5534   	0.055000	12.0376   	0.055000	9.95025   	0.055000	9.95025   	0.055000	10.6181   	0.055000	1.41955   	
0.060000	16.2845   	0.060000	12.6691   	0.060000	10.6679   	0.060000	10.6679   	0.060000	11.33     	0.060000	1.33912   	
0.070000	17.5447   	0.070000	13.8078   	0.070000	12.0586   	0.070000	12.0586   	0.070000	12.6021   	0.070000	1.20566   	
0.080000	18.9362   	0.080000	14.7873   	0.080000	13.3654   	0.080000	13.3654   	0.080000	13.6882   	0.080000	1.09906   	
0.090000	20.1623   	0.090000	15.6267   	0.090000	14.5737   	0.090000	14.5737   	0.090000	14.615    	0.090000	1.01168   	
0.100000	21.2556   	0.100000	16.3412   	0.100000	15.6717   	0.100000	15.6717   	0.100000	15.4113   	0.100000	0.929928  	
0.120000	22.6361   	0.120000	17.5303   	0.120000	17.5989   	0.120000	17.5989   	0.120000	16.7149   	0.120000	0.815419  	
0.140000	23.8869   	0.140000	18.5032   	0.140000	19.1978   	0.140000	19.1978   	0.140000	17.7749   	0.140000	0.728266  	
0.160000	25.6131   	0.160000	19.8484   	0.160000	20.5418   	0.160000	20.5418   	0.160000	19.1889   	0.160000	0.659468  	
0.180000	27.241    	0.180000	21.0341   	0.180000	21.6946   	0.180000	21.6946   	0.180000	20.4305   	0.180000	0.603628  	
0.200000	28.8196   	0.200000	22.1022   	0.200000	22.705    	0.200000	22.705    	0.200000	21.5449   	0.200000	0.557301  	
0.250000	31.6357   	0.250000	24.4118   	0.250000	24.8169   	0.250000	24.8169   	0.250000	23.9422   	0.250000	0.469621  	
0.300000	34.1788   	0.300000	26.3558   	0.300000	26.5587   	0.300000	26.5587   	0.300000	25.9482   	0.300000	0.407543  	
0.350000	36.5738   	0.350000	28.1149   	0.350000	28.0654   	0.350000	28.0654   	0.350000	27.7538   	0.350000	0.361057  	
0.400000	38.731    	0.400000	29.6782   	0.400000	29.3979   	0.400000	29.3979   	0.400000	29.3533   	0.400000	0.324819  	
0.450000	40.6202   	0.450000	31.0394   	0.450000	30.5885   	0.450000	30.5885   	0.450000	30.7437   	0.450000	0.295701  	
0.500000	42.2692   	0.500000	32.2317   	0.500000	31.6578   	0.500000	31.6578   	0.500000	31.96     	0.500000	0.271745  	
0.600000	43.4606   	0.600000	34.2085   	0.600000	34.1688   	0.600000	34.1688   	0.600000	33.974    	0.600000	0.23455   	
0.700000	44.3127   	0.700000	36.1358   	0.700000	36.1834   	0.700000	36.1834   	0.700000	35.9289   	0.700000	0.20691   	
0.800000	46.2843   	0.800000	37.7069   	0.800000	37.7919   	0.800000	37.7919   	0.800000	37.5215   	0.800000	0.185494  	
0.900000	47.808    	0.900000	38.9546   	0.900000	39.0843   	0.900000	39.0843   	0.900000	38.7862   	0.900000	0.16837   	
1.000000	48.9836   	1.000000	39.951    	1.000000	40.1269   	1.000000	40.1269   	1.000000	39.7966   	1.000000	0.15434   	
1.250000	50.3853   	1.250000	41.3818   	1.250000	41.9385   	1.250000	41.9385   	1.250000	41.2536   	1.250000	0.128228  	
1.500000	50.7625   	1.500000	42.0443   	1.500000	42.9831   	1.500000	42.9831   	1.500000	41.9342   	1.500000	0.110095  	
1.750000	50.6826   	1.750000	42.3604   	1.750000	43.5435   	1.750000	43.5435   	1.750000	42.2637   	1.750000	0.0967141 	
2.000000	50.2757   	2.000000	42.4108   	2.000000	43.7859   	2.000000	43.7859   	2.000000	42.3244   	2.000000	0.0864037 	
2.250000	49.7579   	2.250000	42.2914   	2.250000	43.8134   	2.250000	43.8134   	2.250000	42.2132   	2.250000	0.078198  	
2.500000	67.1166   	2.500000	42.0844   	2.500000	43.6924   	2.500000	43.6924   	2.500000	42.0129   	2.500000	0.071501  	
3.000000	64.2779   	3.000000	41.5019   	3.000000	43.1697   	3.000000	43.1697   	3.000000	41.4407   	3.000000	0.0612034 	
3.500000	61.4355   	3.500000	40.8081   	3.500000	42.2663   	3.500000	42.2663   	3.500000	40.7544   	3.500000	0.0536335 	
4.000000	58.7252   	4.000000	40.0486   	4.000000	41.2707   	4.000000	41.2707   	4.000000	40.0008   	4.000000	0.0478187 	
4.500000	56.1934   	4.500000	39.2462   	4.500000	40.2955   	4.500000	40.2955   	4.500000	39.203    	4.500000	0.0432028 	
5.000000	53.8491   	5.000000	38.4386   	5.000000	39.3501   	5.000000	39.3501   	5.000000	38.3992   	5.000000	0.039444  	
5.500000	51.6855   	5.500000	37.6356   	5.500000	38.4388   	5.500000	38.4388   	5.500000	37.5992   	5.500000	0.0363199 	
6.000000	49.6897   	6.000000	36.8391   	6.000000	37.5634   	6.000000	37.5634   	6.000000	36.8054   	6.000000	0.0336796 	
6.500000	47.8471   	6.500000	36.0736   	6.500000	36.724    	6.500000	36.724    	6.500000	36.0421   	6.500000	0.0314169 	
7.000000	46.143    	7.000000	35.3378   	7.000000	35.9199   	7.000000	35.9199   	7.000000	35.3083   	7.000000	0.0294549 	
7.500000	44.5638   	7.500000	34.632    	7.500000	35.1499   	7.500000	35.1499   	7.500000	34.6043   	7.500000	0.0277363 	
8.000000	43.0971   	8.000000	33.9526   	8.000000	34.4126   	8.000000	34.4126   	8.000000	33.9264   	8.000000	0.0262178 	
8.500000	41.7317   	8.500000	33.298    	8.500000	33.7063   	8.500000	33.7063   	8.500000	33.2731   	8.500000	0.0248656 	
9.000000	40.4578   	9.000000	32.6674   	9.000000	33.0295   	9.000000	33.0295   	9.000000	32.6438   	9.000000	0.0236534 	
9.500000	39.2666   	9.500000	32.06     	9.500000	32.3806   	9.500000	32.3806   	9.500000	32.0374   	9.500000	0.0225601 	
10.000000	38.1504   	10.000000	31.6163   	10.000000	31.7579   	10.000000	31.7579   	10.000000	31.5948   	10.000000	0.0215687 	
11.000000	36.1161   	11.000000	30.4843   	11.000000	30.3698   	11.000000	30.7157   	11.000000	30.4644   	11.000000	0.0198388 	
12.000000	34.309    	12.000000	29.4163   	12.000000	29.0965   	12.000000	29.7248   	12.000000	29.398    	12.000000	0.0183787 	
13.000000	32.6926   	13.000000	28.4127   	13.000000	27.9253   	13.000000	28.7851   	13.000000	28.3956   	13.000000	0.017129  	
14.000000	31.2378   	14.000000	27.4712   	14.000000	26.8448   	14.000000	27.895    	14.000000	27.4551   	14.000000	0.0160466 	
15.000000	29.921    	15.000000	26.5882   	15.000000	25.8444   	15.000000	27.0521   	15.000000	26.5731   	15.000000	0.0150993 	
16.000000	28.7231   	16.000000	25.7599   	16.000000	24.916    	16.000000	26.2536   	16.000000	25.7456   	16.000000	0.0142631 	
17.000000	27.6283   	17.000000	24.9821   	17.000000	24.0523   	17.000000	25.4968   	17.000000	24.9686   	17.000000	0.0135191 	
18.000000	26.6237   	18.000000	24.2512   	18.000000	23.2466   	18.000000	24.779    	18.000000	24.2383   	18.000000	0.0128526 	
19.000000	25.6982   	19.000000	23.5633   	19.000000	22.4931   	19.000000	24.0975   	19.000000	23.5511   	19.000000	0.012252  	
20.000000	24.8427   	20.000000	22.9152   	20.000000	21.7871   	20.000000	23.45     	20.000000	22.9035   	20.000000	0.0117077 	
21.000000	24.0492   	21.000000	22.3036   	21.000000	21.1239   	21.000000	22.8341   	21.000000	22.2924   	21.000000	0.0112121 	
22.000000	23.3112   	22.000000	21.7257   	22.000000	20.4997   	22.000000	22.2477   	22.000000	21.715    	22.000000	0.0107588 	
23.000000	22.6228   	23.000000	21.179    	23.000000	19.9114   	23.000000	21.689    	23.000000	21.1686   	23.000000	0.0103425 	
24.000000	21.9791   	24.000000	20.6609   	24.000000	19.3566   	24.000000	21.156    	24.000000	20.651    	24.000000	0.00995884	
25.000000	21.3758   	25.000000	20.1695   	25.000000	18.8323   	25.000000	20.6473   	25.000000	20.1599   	25.000000	0.00960399	
27.000000	20.2756   	27.000000	19.2589   	27.000000	17.8639   	27.000000	19.6964   	27.000000	19.2499   	27.000000	0.00896853	
29.000000	19.2971   	29.000000	18.4334   	29.000000	16.9924   	29.000000	18.8256   	29.000000	18.425    	29.000000	0.00841566	
31.000000	18.4208   	31.000000	17.6818   	31.000000	16.2889   	31.000000	18.022    	31.000000	17.6739   	31.000000	0.00793003	
33.000000	17.6311   	33.000000	16.9946   	33.000000	15.7224   	33.000000	17.2854   	33.000000	16.9871   	33.000000	0.0074999 	
35.000000	16.9154   	35.000000	16.364    	35.000000	15.1982   	35.000000	16.613    	35.000000	16.3569   	35.000000	0.00711612	
38.000000	15.9589   	38.000000	15.5098   	38.000000	14.4812   	38.000000	15.7071   	38.000000	15.5032   	38.000000	0.00661198	
41.000000	15.1194   	41.000000	14.7495   	41.000000	13.8358   	41.000000	14.9053   	41.000000	14.7433   	41.000000	0.00617756	
44.000000	14.3762   	44.000000	14.0684   	44.000000	13.2532   	44.000000	14.1906   	44.000000	14.0626   	44.000000	0.00579912	
47.000000	13.7132   	47.000000	13.4548   	47.000000	12.7254   	47.000000	13.5492   	47.000000	13.4494   	47.000000	0.00546635	
50.000000	13.1178   	50.000000	12.8992   	50.000000	12.2431   	50.000000	12.9704   	50.000000	12.894    	50.000000	0.00517134	
55.000000	12.2493   	55.000000	12.0811   	55.000000	11.5269   	55.000000	12.1216   	55.000000	12.0763   	55.000000	0.00474739	
60.000000	11.5059   	60.000000	11.3742   	60.000000	10.9008   	60.000000	11.3913   	60.000000	11.3698   	60.000000	0.00439041	
65.000000	10.8617   	65.000000	10.7572   	65.000000	10.3511   	65.000000	10.7562   	65.000000	10.7532   	65.000000	0.0040855 	
70.000000	10.2978   	70.000000	10.2141   	70.000000	9.86377   	70.000000	10.1987   	70.000000	10.2103   	70.000000	0.00382188	
75.000000	9.79971   	75.000000	9.73232   	75.000000	9.42775   	75.000000	9.70549   	75.000000	9.72873   	75.000000	0.0035916 	
80.000000	9.35629   	80.000000	9.30202   	80.000000	9.03699   	80.000000	9.26594   	80.000000	9.29863   	80.000000	0.00338862	
85.000000	8.95881   	85.000000	8.91538   	85.000000	8.68393   	85.000000	8.87177   	85.000000	8.91217   	85.000000	0.00320829	
90.000000	8.60033   	90.000000	8.56609   	90.000000	8.36319   	90.000000	8.5163    	90.000000	8.56304   	90.000000	0.00304697	
95.000000	8.27524   	95.000000	8.24899   	95.000000	8.07046   	95.000000	8.1941    	95.000000	8.24609   	95.000000	0.00290177	
100.000000	7.979     	100.000000	7.95983   	100.000000	7.80218   	100.000000	7.90071   	100.000000	7.95706   	100.000000	0.00277035	
105.000000	7.70782   	105.000000	7.69509   	105.000000	7.55634   	105.000000	7.63242   	105.000000	7.69244   	105.000000	0.0026508 	
110.000000	7.45858   	110.000000	7.45181   	110.000000	7.32936   	110.000000	7.38616   	110.000000	7.44927   	110.000000	0.00254158	
115.000000	7.22867   	115.000000	7.22748   	115.000000	7.11975   	115.000000	7.15933   	115.000000	7.22504   	115.000000	0.00244138	
120.000000	7.01586   	120.000000	7.01997   	120.000000	6.92542   	120.000000	6.94971   	120.000000	7.01762   	120.000000	0.0023491 	
125.000000	6.81826   	125.000000	6.82747   	125.000000	6.74421   	125.000000	6.75543   	125.000000	6.82521   	125.000000	0.00226384	
130.000000	6.63427   	130.000000	6.64842   	130.000000	6.57507   	130.000000	6.57486   	130.000000	6.64623   	130.000000	0.0021848 	
135.000000	6.46249   	135.000000	6.48145   	135.000000	6.41735   	135.000000	6.40661   	135.000000	6.47934   	135.000000	0.00211133	
140.000000	6.3017    	140.000000	6.32539   	140.000000	6.26943   	140.000000	6.24947   	140.000000	6.32334   	140.000000	0.00204285	
145.000000	6.15087   	145.000000	6.1792    	145.000000	6.13044   	145.000000	6.10237   	145.000000	6.17722   	145.000000	0.00197886	
150.000000	6.00907   	150.000000	6.04198   	150.000000	6         	150.000000	5.96438   	150.000000	6.04007   	150.000000	0.00191891	
155.000000	5.8069    	155.000000	5.91294   	155.000000	5.87734   	155.000000	5.83469   	155.000000	5.91108   	155.000000	0.00186265	
160.000000	5.68965   	160.000000	5.79137   	160.000000	5.76158   	160.000000	5.71258   	160.000000	5.78956   	160.000000	0.00180973	
165.000000	5.57888   	165.000000	5.67663   	165.000000	5.65193   	165.000000	5.59741   	165.000000	5.67487   	165.000000	0.00175986	
170.000000	5.47408   	170.000000	5.56818   	170.000000	5.54782   	170.000000	5.4886    	170.000000	5.56647   	170.000000	0.00171278	
175.000000	5.37477   	175.000000	5.46552   	175.000000	5.44917   	175.000000	5.38564   	175.000000	5.46385   	175.000000	0.00166825	
180.000000	5.28052   	180.000000	5.36818   	180.000000	5.356     	180.000000	5.28809   	180.000000	5.36656   	180.000000	0.00162608	
185.000000	5.19094   	185.000000	5.27579   	185.000000	5.26754   	185.000000	5.19552   	185.000000	5.2742    	185.000000	0.00158608	
190.000000	5.1057    	190.000000	5.18796   	190.000000	5.1831    	190.000000	5.10757   	190.000000	5.18641   	190.000000	0.00154808	
195.000000	5.02449   	195.000000	5.10437   	195.000000	5.10246   	195.000000	5.02391   	195.000000	5.10286   	195.000000	0.00151194	
200.000000	4.94701   	200.000000	5.02472   	200.000000	5.02546   	200.000000	4.94423   	200.000000	5.02325   	200.000000	0.00147751	
210.000000	4.8023    	210.000000	4.87621   	210.000000	4.88187   	210.000000	4.79575   	210.000000	4.8748    	210.000000	0.00141334	
220.000000	4.66978   	220.000000	4.74053   	220.000000	4.75064   	220.000000	4.66022   	220.000000	4.73917   	220.000000	0.00135473	
230.000000	4.54797   	230.000000	4.6161    	230.000000	4.63034   	230.000000	4.53603   	230.000000	4.6148    	230.000000	0.00130098	
240.000000	4.43561   	240.000000	4.50159   	240.000000	4.51919   	240.000000	4.42183   	240.000000	4.50033   	240.000000	0.0012515 	
250.000000	4.33163   	250.000000	4.39587   	250.000000	4.41639   	250.000000	4.3165    	250.000000	4.39466   	250.000000	0.00120579	
260.000000	4.23514   	260.000000	4.29799   	260.000000	4.32125   	260.000000	4.21905   	260.000000	4.29682   	260.000000	0.00116343	
270.000000	4.14535   	270.000000	4.2071    	270.000000	4.23294   	270.000000	4.12864   	270.000000	4.20598   	270.000000	0.00112406	
280.000000	4.06159   	280.000000	4.12251   	280.000000	4.15073   	280.000000	4.04456   	280.000000	4.12143   	280.000000	0.00108738	
290.000000	3.98328   	290.000000	4.04359   	290.000000	4.07371   	290.000000	3.96618   	290.000000	4.04254   	290.000000	0.00105311	
300.000000	3.90989   	300.000000	3.9698    	300.000000	4.00161   	300.000000	3.89296   	300.000000	3.96878   	300.000000	0.00102102	
310.000000	3.84099   	310.000000	3.90066   	310.000000	3.93417   	310.000000	3.82441   	310.000000	3.89967   	310.000000	0.000990897	
320.000000	3.77617   	320.000000	3.83575   	320.000000	3.87087   	320.000000	3.76011   	320.000000	3.83479   	320.000000	0.000962575	
330.000000	3.7151    	330.000000	3.77472   	330.000000	3.81109   	330.000000	3.6997    	330.000000	3.77378   	330.000000	0.000935891	
340.000000	3.65745   	340.000000	3.71722   	340.000000	3.75476   	340.000000	3.64284   	340.000000	3.71631   	340.000000	0.000910704	
350.000000	3.60296   	350.000000	3.66298   	350.000000	3.70191   	350.000000	3.58923   	350.000000	3.66209   	350.000000	0.00088689	
360.000000	3.55137   	360.000000	3.61172   	360.000000	3.6519    	360.000000	3.53862   	360.000000	3.61085   	360.000000	0.000864339	
370.000000	3.50247   	370.000000	3.56322   	370.000000	3.60439   	370.000000	3.49078   	370.000000	3.56237   	370.000000	0.000842952	
380.000000	3.45605   	380.000000	3.51726   	380.000000	3.55939   	380.000000	3.44548   	380.000000	3.51644   	380.000000	0.000822639	
390.000000	3.41194   	390.000000	3.47366   	390.000000	3.51677   	390.000000	3.40255   	390.000000	3.47286   	390.000000	0.00080332	
400.000000	3.36997   	400.000000	3.43225   	400.000000	3.4763    	400.000000	3.3618    	400.000000	3.43147   	400.000000	0.000784923	
410.000000	3.32999   	410.000000	3.39288   	410.000000	3.43782   	410.000000	3.32309   	410.000000	3.39211   	410.000000	0.000767383	
420.000000	3.29188   	420.000000	3.3554    	420.000000	3.4012    	420.000000	3.28627   	420.000000	3.35465   	420.000000	0.000750641	
430.000000	3.2555    	430.000000	3.31968   	430.000000	3.36635   	430.000000	3.25121   	430.000000	3.31895   	430.000000	0.000734642	
440.000000	3.22075   	440.000000	3.28561   	440.000000	3.33316   	440.000000	3.2178    	440.000000	3.28489   	440.000000	0.000719338	
450.000000	3.18753   	450.000000	3.25309   	450.000000	3.30144   	450.000000	3.18593   	450.000000	3.25239   	450.000000	0.000704683	
460.000000	3.15574   	460.000000	3.22201   	460.000000	3.27102   	460.000000	3.1555    	460.000000	3.22132   	460.000000	0.000690637	
470.000000	3.12529   	470.000000	3.19229   	470.000000	3.24188   	470.000000	3.12643   	470.000000	3.19162   	470.000000	0.000677161	
480.000000	3.0961    	480.000000	3.16385   	480.000000	3.21409   	480.000000	3.09862   	480.000000	3.16318   	480.000000	0.000664222	
490.000000	3.06812   	490.000000	3.1366    	490.000000	3.18759   	490.000000	3.07201   	490.000000	3.13595   	490.000000	0.000651788	
500.000000	3.04125   	500.000000	3.11049   	500.000000	3.16221   	500.000000	3.04651   	500.000000	3.10985   	500.000000	0.000639829	
520.000000	2.99066   	520.000000	3.06139   	520.000000	3.11427   	520.000000	2.99865   	520.000000	3.06078   	520.000000	0.00061723	
540.000000	2.94387   	540.000000	3.01611   	540.000000	3.07002   	540.000000	2.95455   	540.000000	3.01551   	540.000000	0.000596231	
560.000000	2.90052   	560.000000	2.97423   	560.000000	3.02917   	560.000000	2.91384   	560.000000	2.97365   	560.000000	0.000576667	
580.000000	2.86025   	580.000000	2.93542   	580.000000	2.99134   	580.000000	2.87615   	580.000000	2.93487   	580.000000	0.000558394	
600.000000	2.82279   	600.000000	2.89939   	600.000000	2.95628   	600.000000	2.8412    	600.000000	2.89885   	600.000000	0.000541287	
620.000000	2.78787   	620.000000	2.86586   	620.000000	2.92363   	620.000000	2.80871   	620.000000	2.86534   	620.000000	0.000525235	
640.000000	2.75527   	640.000000	2.83462   	640.000000	2.89305   	640.000000	2.77847   	640.000000	2.83411   	640.000000	0.000510143	
660.000000	2.72479   	660.000000	2.80546   	660.000000	2.86455   	660.000000	2.75026   	660.000000	2.80496   	660.000000	0.000495926	
680.000000	2.69626   	680.000000	2.77819   	680.000000	2.83807   	680.000000	2.72391   	680.000000	2.77771   	680.000000	0.00048251	
700.000000	2.66952   	700.000000	2.75267   	700.000000	2.81325   	700.000000	2.69925   	700.000000	2.7522    	700.000000	0.000469827	
720.000000	2.64442   	720.000000	2.72876   	720.000000	2.78985   	720.000000	2.67615   	720.000000	2.7283    	720.000000	0.000457819	
740.000000	2.62084   	740.000000	2.70631   	740.000000	2.76791   	740.000000	2.65448   	740.000000	2.70587   	740.000000	0.000446432	
760.000000	2.59868   	760.000000	2.68523   	760.000000	2.74742   	760.000000	2.63412   	760.000000	2.68479   	760.000000	0.000435618	
780.000000	2.57782   	780.000000	2.66541   	780.000000	2.72816   	780.000000	2.61498   	780.000000	2.66498   	780.000000	0.000425336	
800.000000	2.55817   	800.000000	2.64675   	800.000000	2.70995   	800.000000	2.59696   	800.000000	2.64634   	800.000000	0.000415546	
820.000000	2.53966   	820.000000	2.62918   	820.000000	2.6928    	820.000000	2.58006   	820.000000	2.62878   	820.000000	0.000406213	
840.000000	2.5222    	840.000000	2.61262   	840.000000	2.677     	840.000000	2.56451   	840.000000	2.61222   	840.000000	0.000397305	
860.000000	2.50572   	860.000000	2.597     	860.000000	2.66209   	860.000000	2.54984   	860.000000	2.59661   	860.000000	0.000388795	
880.000000	2.49017   	880.000000	2.58225   	880.000000	2.64802   	880.000000	2.53597   	880.000000	2.58187   	880.000000	0.000380654	
900.000000	2.47549   	900.000000	2.56833   	900.000000	2.63471   	900.000000	2.52287   	900.000000	2.56795   	900.000000	0.000372861	
920.000000	2.46161   	920.000000	2.55517   	920.000000	2.62211   	920.000000	2.51046   	920.000000	2.55481   	920.000000	0.000365392	
940.000000	2.4485    	940.000000	2.54273   	940.000000	2.61017   	940.000000	2.49872   	940.000000	2.54238   	940.000000	0.000358227	
960.000000	2.43611   	960.000000	2.53097   	960.000000	2.59886   	960.000000	2.4876    	960.000000	2.53062   	960.000000	0.000351348	
980.000000	2.42439   	980.000000	2.51985   	980.000000	2.58814   	980.000000	2.47705   	980.000000	2.5195    	980.000000	0.000344738	
1000.000000	2.41331   	1000.000000	2.50932   	1000.000000	2.57796   	1000.000000	2.46705   	1000.000000	2.50898   	1000.000000	0.000338382	
1020.000000	2.40284   	1020.000000	2.49936   	1020.000000	2.5683    	1020.000000	2.45756   	1020.000000	2.49903   	1020.000000	0.000332264	
1040.000000	2.39294   	1040.000000	2.48993   	1040.000000	2.55912   	1040.000000	2.44854   	1040.000000	2.4896    	1040.000000	0.000326372	
1060.000000	2.38358   	1060.000000	2.481     	1060.000000	2.5504    	1060.000000	2.43998   	1060.000000	2.48068   	1060.000000	0.000320693	
1080.000000	2.37473   	1080.000000	2.47255   	1080.000000	2.54211   	1080.000000	2.43184   	1080.000000	2.47223   	1080.000000	0.000315215	
1100.000000	2.36637   	1100.000000	2.46455   	1100.000000	2.53423   	1100.000000	2.42411   	1100.000000	2.46424   	1100.000000	0.000309928	
1120.000000	2.35847   	1120.000000	2.45697   	1120.000000	2.52674   	1120.000000	2.41675   	1120.000000	2.45667   	1120.000000	0.000304822	
1140.000000	2.35101   	1140.000000	2.4498    	1140.000000	2.51962   	1140.000000	2.40975   	1140.000000	2.4495    	1140.000000	0.000299888	
1160.000000	2.34397   	1160.000000	2.44301   	1160.000000	2.51284   	1160.000000	2.40309   	1160.000000	2.44271   	1160.000000	0.000295117	
1180.000000	2.33733   	1180.000000	2.43659   	1180.000000	2.50637   	1180.000000	2.39675   	1180.000000	2.4363    	1180.000000	0.000290501	
1200.000000	2.33106   	1200.000000	2.43051   	1200.000000	2.50018   	1200.000000	2.39072   	1200.000000	2.43022   	1200.000000	0.000286033	
1220.000000	2.32516   	1220.000000	2.42476   	1220.000000	2.49427   	1220.000000	2.38497   	1220.000000	2.42448   	1220.000000	0.000281705	
1240.000000	2.31961   	1240.000000	2.41933   	1240.000000	2.48862   	1240.000000	2.37949   	1240.000000	2.41905   	1240.000000	0.00027751	
1260.000000	2.31438   	1260.000000	2.4142    	1260.000000	2.48322   	1260.000000	2.37427   	1260.000000	2.41392   	1260.000000	0.000273444	
1280.000000	2.30948   	1280.000000	2.40935   	1280.000000	2.47808   	1280.000000	2.3693    	1280.000000	2.40908   	1280.000000	0.000269499	
1300.000000	2.30487   	1300.000000	2.40478   	1300.000000	2.47318   	1300.000000	2.36456   	1300.000000	2.40451   	1300.000000	0.000265671	
1320.000000	2.30056   	1320.000000	2.40046   	1320.000000	2.46853   	1320.000000	2.36004   	1320.000000	2.4002    	1320.000000	0.000261954	
1340.000000	2.29652   	1340.000000	2.3964    	1340.000000	2.46411   	1340.000000	2.35573   	1340.000000	2.39614   	1340.000000	0.000258343	
1360.000000	2.29275   	1360.000000	2.39257   	1360.000000	2.4599    	1360.000000	2.35162   	1360.000000	2.39232   	1360.000000	0.000254834	
1380.000000	2.28924   	1380.000000	2.38897   	1380.000000	2.4559    	1380.000000	2.34771   	1380.000000	2.38872   	1380.000000	0.000251422	
1400.000000	2.28597   	1400.000000	2.3856    	1400.000000	2.45208   	1400.000000	2.34398   	1400.000000	2.38535   	1400.000000	0.000248105	
1420.000000	2.28294   	1420.000000	2.38243   	1420.000000	2.44845   	1420.000000	2.34042   	1420.000000	2.38218   	1420.000000	0.000244876	
1440.000000	2.28013   	1440.000000	2.37946   	1440.000000	2.44499   	1440.000000	2.33703   	1440.000000	2.37922   	1440.000000	0.000241734	
1460.000000	2.27755   	1460.000000	2.37668   	1460.000000	2.44168   	1460.000000	2.3338    	1460.000000	2.37644   	1460.000000	0.000238674	
1480.000000	2.27517   	1480.000000	2.37409   	1480.000000	2.43853   	1480.000000	2.33072   	1480.000000	2.37386   	1480.000000	0.000235694	
1500.000000	2.273     	1500.000000	2.37168   	1500.000000	2.43552   	1500.000000	2.32778   	1500.000000	2.37145   	1500.000000	0.00023279	
1520.000000	2.27102   	1520.000000	2.36944   	1520.000000	2.43264   	1520.000000	2.32498   	1520.000000	2.36921   	1520.000000	0.000229959	
1540.000000	2.26923   	1540.000000	2.36736   	1540.000000	2.4299    	1540.000000	2.32232   	1540.000000	2.36713   	1540.000000	0.000227198	
1560.000000	2.26762   	1560.000000	2.36544   	1560.000000	2.42728   	1560.000000	2.31978   	1560.000000	2.36521   	1560.000000	0.000224506	
1580.000000	2.26618   	1580.000000	2.36367   	1580.000000	2.42478   	1580.000000	2.31736   	1580.000000	2.36345   	1580.000000	0.000221879	
1600.000000	2.26492   	1600.000000	2.36205   	1600.000000	2.4224    	1600.000000	2.31506   	1600.000000	2.36183   	1600.000000	0.000219315	
1620.000000	2.26382   	1620.000000	2.36057   	1620.000000	2.42012   	1620.000000	2.31287   	1620.000000	2.36035   	1620.000000	0.000216812	
1640.000000	2.26287   	1640.000000	2.35923   	1640.000000	2.41795   	1640.000000	2.31078   	1640.000000	2.35901   	1640.000000	0.000214367	
1660.000000	2.26208   	1660.000000	2.35801   	1660.000000	2.41587   	1660.000000	2.3088    	1660.000000	2.3578    	1660.000000	0.000211979	
1680.000000	2.26144   	1680.000000	2.35693   	1680.000000	2.4139    	1680.000000	2.30692   	1680.000000	2.35672   	1680.000000	0.000209645	
1700.000000	2.26094   	1700.000000	2.35596   	1700.000000	2.41202   	1700.000000	2.30513   	1700.000000	2.35575   	1700.000000	0.000207364	
1750.000000	2.26029   	1750.000000	2.35406   	1750.000000	2.40772   	1750.000000	2.30104   	1750.000000	2.35386   	1750.000000	0.000201881	
1800.000000	2.26044   	1800.000000	2.35283   	1800.000000	2.40394   	1800.000000	2.29747   	1800.000000	2.35263   	1800.000000	0.00019669	
1850.000000	2.26133   	1850.000000	2.35222   	1850.000000	2.40064   	1850.000000	2.29435   	1850.000000	2.35203   	1850.000000	0.000191769	
1900.000000	2.26291   	1900.000000	2.35219   	1900.000000	2.39777   	1900.000000	2.29166   	1900.000000	2.352     	1900.000000	0.000187096	
1950.000000	2.26513   	1950.000000	2.35269   	1950.000000	2.39529   	1950.000000	2.28934   	1950.000000	2.35251   	1950.000000	0.000182654	
2000.000000	2.26794   	2000.000000	2.35368   	2000.000000	2.39317   	2000.000000	2.28738   	2000.000000	2.3535    	2000.000000	0.000178425	
2100.000000	2.27522   	2100.000000	2.35698   	2100.000000	2.38986   	2100.000000	2.28436   	2100.000000	2.35681   	2100.000000	0.000170547	
2200.000000	2.28447   	2200.000000	2.36186   	2200.000000	2.38764   	2200.000000	2.2824    	2200.000000	2.36169   	2200.000000	0.000163358	
2300.000000	2.29545   	2300.000000	2.3681    	2300.000000	2.38632   	2300.000000	2.28132   	2300.000000	2.36794   	2300.000000	0.000156771	
2400.000000	2.30799   	2400.000000	2.37554   	2400.000000	2.38577   	2400.000000	2.28099   	2400.000000	2.37539   	2400.000000	0.000150711	
2500.000000	2.32191   	2500.000000	2.38403   	2500.000000	2.38587   	2500.000000	2.28128   	2500.000000	2.38388   	2500.000000	0.000145118	
2600.000000	2.33709   	2600.000000	2.39345   	2600.000000	2.38652   	2600.000000	2.28211   	2600.000000	2.39331   	2600.000000	0.000139938	
2700.000000	2.35341   	2700.000000	2.40369   	2700.000000	2.38764   	2700.000000	2.28338   	2700.000000	2.40356   	2700.000000	0.000135128	
2800.000000	2.37076   	2800.000000	2.41467   	2800.000000	2.38916   	2800.000000	2.28503   	2800.000000	2.41454   	2800.000000	0.000130648	
2900.000000	2.38905   	2900.000000	2.42631   	2900.000000	2.39102   	2900.000000	2.28701   	2900.000000	2.42619   	2900.000000	0.000126465	
3000.000000	2.40822   	3000.000000	2.43854   	3000.000000	2.39316   	3000.000000	2.28927   	3000.000000	2.43842   	3000.000000	0.000122551	
3200.000000	2.4489    	3200.000000	2.46455   	3200.000000	2.39813   	3200.000000	2.29444   	3200.000000	2.46443   	3200.000000	0.000115429	
3400.000000	2.49236   	3400.000000	2.49231   	3400.000000	2.40379   	3400.000000	2.30029   	3400.000000	2.4922    	3400.000000	0.000109114	
3600.000000	2.53824   	3600.000000	2.52152   	3600.000000	2.40996   	3600.000000	2.30663   	3600.000000	2.52141   	3600.000000	0.000103475	
3800.000000	2.58626   	3800.000000	2.55194   	3800.000000	2.41646   	3800.000000	2.3133    	3800.000000	2.55184   	3800.000000	9.84079e-05	
4000.000000	2.63621   	4000.000000	2.58338   	4000.000000	2.4232    	4000.000000	2.3202    	4000.000000	2.58328   	4000.000000	9.38291e-05	
4200.000000	2.68789   	4200.000000	2.61569   	4200.000000	2.43009   	4200.000000	2.32725   	4200.000000	2.6156    	4200.000000	8.96706e-05	
4400.000000	2.74115   	4400.000000	2.64874   	4400.000000	2.43706   	4400.000000	2.33438   	4400.000000	2.64865   	4400.000000	8.58763e-05	
4600.000000	2.79588   	4600.000000	2.68243   	4600.000000	2.44407   	4600.000000	2.34154   	4600.000000	2.68235   	4600.000000	8.24e-05  	
4800.000000	2.85196   	4800.000000	2.71667   	4800.000000	2.45107   	4800.000000	2.3487    	4800.000000	2.71659   	4800.000000	7.92029e-05	
5000.000000	2.9093    	5000.000000	2.75139   	5000.000000	2.45804   	5000.000000	2.35582   	5000.000000	2.75131   	5000.000000	7.62523e-05	
5250.000000	2.98264   	5250.000000	2.79537   	5250.000000	2.46669   	5250.000000	2.36465   	5250.000000	2.7953    	5250.000000	7.28689e-05	
5500.000000	3.05772   	5500.000000	2.8399    	5500.000000	2.47523   	5500.000000	2.37336   	5500.000000	2.83983   	5500.000000	6.9782e-05	
6000.000000	3.21267   	6000.000000	2.93032   	6000.000000	2.49192   	6000.000000	2.39037   	6000.000000	2.93026   	6000.000000	6.43532e-05	
6500.000000	3.3735    	6500.000000	3.02213   	6500.000000	2.50802   	6500.000000	2.40673   	6500.000000	3.02207   	6500.000000	5.9731e-05	
7000.000000	3.53976   	7000.000000	3.11499   	7000.000000	2.52332   	7000.000000	2.42242   	7000.000000	3.11493   	7000.000000	5.57466e-05	
7500.000000	3.71109   	7500.000000	3.20862   	7500.000000	2.53819   	7500.000000	2.43744   	7500.000000	3.20857   	7500.000000	5.22753e-05	
8000.000000	3.88723   	8000.000000	3.30285   	8000.000000	2.55218   	8000.000000	2.45179   	8000.000000	3.3028    	8000.000000	4.9223e-05	
8500.000000	4.06798   	8500.000000	3.39753   	8500.000000	2.56551   	8500.000000	2.46552   	8500.000000	3.39748   	8500.000000	4.65175e-05	
9000.000000	4.25319   	9000.000000	3.49254   	9000.000000	2.57835   	9000.000000	2.47864   	9000.000000	3.4925    	9000.000000	4.41024e-05	
9500.000000	4.44274   	9500.000000	3.58781   	9500.000000	2.59065   	9500.000000	2.49121   	9500.000000	3.58777   	9500.000000	4.19329e-05	
10000.000000	4.63653   	10000.000000	3.68327   	10000.000000	2.60238   	10000.000000	2.50325   	10000.000000	3.68323   	10000.000000	3.99729e-05	
11000.000000	5.03651   	11000.000000	3.87455   	11000.000000	2.62431   	11000.000000	2.52587   	11000.000000	3.87451   	11000.000000	3.65699e-05	
12000.000000	5.45267   	12000.000000	4.06608   	12000.000000	2.64448   	12000.000000	2.54675   	12000.000000	4.06605   	12000.000000	3.37155e-05	
13000.000000	5.88471   	13000.000000	4.25767   	13000.000000	2.66313   	13000.000000	2.56611   	13000.000000	4.25764   	13000.000000	3.12861e-05	
14000.000000	6.3324    	14000.000000	4.44919   	14000.000000	2.68047   	14000.000000	2.58413   	14000.000000	4.44916   	14000.000000	2.91924e-05	
15000.000000	6.79561   	15000.000000	4.64054   	15000.000000	2.69662   	15000.000000	2.60097   	15000.000000	4.64052   	15000.000000	2.73688e-05	
16000.000000	7.27426   	16000.000000	4.83168   	16000.000000	2.71164   	16000.000000	2.61675   	16000.000000	4.83166   	16000.000000	2.57657e-05	
17000.000000	7.76829   	17000.000000	5.02256   	17000.000000	2.72565   	17000.000000	2.63159   	17000.000000	5.02254   	17000.000000	2.43451e-05	
18000.000000	8.27767   	18000.000000	5.21316   	18000.000000	2.73875   	18000.000000	2.64558   	18000.000000	5.21314   	18000.000000	2.30772e-05	
19000.000000	8.80239   	19000.000000	5.40346   	19000.000000	2.75107   	19000.000000	2.65882   	19000.000000	5.40344   	19000.000000	2.19384e-05	
20000.000000	9.34247   	20000.000000	5.59346   	20000.000000	2.7627    	20000.000000	2.67137   	20000.000000	5.59343   	20000.000000	2.09098e-05	
21000.000000	9.89793   	21000.000000	5.78314   	21000.000000	2.77366   	21000.000000	2.6833    	21000.000000	5.78312   	21000.000000	1.9976e-05	
22000.000000	10.4688   	22000.000000	5.9725    	22000.000000	2.78388   	22000.000000	2.69466   	22000.000000	5.97248   	22000.000000	1.91244e-05	
23000.000000	11.0551   	23000.000000	6.16156   	23000.000000	2.79361   	23000.000000	2.7055    	23000.000000	6.16154   	23000.000000	1.83443e-05	
24000.000000	11.6569   	24000.000000	6.3503    	24000.000000	2.80292   	24000.000000	2.71586   	24000.000000	6.35028   	24000.000000	1.76272e-05	
25000.000000	12.2743   	25000.000000	6.53873   	25000.000000	2.81181   	25000.000000	2.72578   	25000.000000	6.53872   	25000.000000	1.69657e-05	
26000.000000	12.9073   	26000.000000	6.72687   	26000.000000	2.8202    	26000.000000	2.73529   	26000.000000	6.72685   	26000.000000	1.63533e-05	
27000.000000	13.5559   	27000.000000	6.9147    	27000.000000	2.8281    	27000.000000	2.74443   	27000.000000	6.91469   	27000.000000	1.57849e-05	
28000.000000	14.2203   	28000.000000	7.10225   	28000.000000	2.83562   	28000.000000	2.75323   	28000.000000	7.10223   	28000.000000	1.52557e-05	
29000.000000	14.9004   	29000.000000	7.28951   	29000.000000	2.84286   	29000.000000	2.76169   	29000.000000	7.28949   	29000.000000	1.47619e-05	
30000.000000	15.5964   	30000.000000	7.47649   	30000.000000	2.84983   	30000.000000	2.76986   	30000.000000	7.47647   	30000.000000	1.43e-05  	
32000.000000	17.0364   	32000.000000	7.84963   	32000.000000	2.86287   	32000.000000	2.78536   	32000.000000	7.84962   	32000.000000	1.346e-05 	
34000.000000	18.5408   	34000.000000	8.22173   	34000.000000	2.87474   	34000.000000	2.79986   	34000.000000	8.22172   	34000.000000	1.27157e-05	
36000.000000	20.1101   	36000.000000	8.59283   	36000.000000	2.88555   	36000.000000	2.81349   	36000.000000	8.59281   	36000.000000	1.20516e-05	
38000.000000	21.7451   	38000.000000	8.96297   	38000.000000	2.89548   	38000.000000	2.82633   	38000.000000	8.96295   	38000.000000	1.14552e-05	
40000.000000	23.4464   	40000.000000	9.33219   	40000.000000	2.90465   	40000.000000	2.83847   	40000.000000	9.33218   	40000.000000	1.09166e-05	
42000.000000	25.2147   	42000.000000	9.70053   	42000.000000	2.91315   	42000.000000	2.84998   	42000.000000	9.70052   	42000.000000	1.04277e-05	
44000.000000	27.0507   	44000.000000	10.068    	44000.000000	2.9211    	44000.000000	2.86092   	44000.000000	10.068    	44000.000000	9.98189e-06	
46000.000000	28.9551   	46000.000000	10.4347   	46000.000000	2.92857   	46000.000000	2.87134   	46000.000000	10.4347   	46000.000000	9.57364e-06	
48000.000000	30.9286   	48000.000000	10.8007   	48000.000000	2.93559   	48000.000000	2.88128   	48000.000000	10.8007   	48000.000000	9.19836e-06	
50000.000000	32.972    	50000.000000	11.1659   	50000.000000	2.94207   	50000.000000	2.89079   	50000.000000	11.1658   	50000.000000	8.85218e-06	
