0.001000	0.292351  	0.001000	0.176943  	0.001000	0.173352  	0.001000	0.173352  	0.001000	0.0999871 	0.001000	0.0769559 	
0.002000	0.363394  	0.002000	0.230579  	0.002000	0.224363  	0.002000	0.224363  	0.002000	0.173029  	0.002000	0.0575498 	
0.005000	0.553642  	0.005000	0.373804  	0.005000	0.361626  	0.005000	0.361626  	0.005000	0.338951  	0.005000	0.0348528 	
0.008000	0.698326  	0.008000	0.490133  	0.008000	0.473452  	0.008000	0.473452  	0.008000	0.464259  	0.008000	0.025874  	
0.010000	0.778396  	0.010000	0.557079  	0.010000	0.537864  	0.010000	0.537864  	0.010000	0.534791  	0.010000	0.022288  	
0.015000	0.992136  	0.015000	0.694712  	0.015000	0.675751  	0.015000	0.675751  	0.015000	0.678059  	0.015000	0.0166531 	
0.020000	1.17113   	0.020000	0.802466  	0.020000	0.792846  	0.020000	0.792846  	0.020000	0.78893   	0.020000	0.0135359 	
0.025000	1.32383   	0.025000	0.888719  	0.025000	0.897138  	0.025000	0.897138  	0.025000	0.877241  	0.025000	0.0114779 	
0.030000	1.45476   	0.030000	0.958517  	0.030000	0.96019   	0.030000	0.96019   	0.030000	0.94851   	0.030000	0.0100069 	
0.035000	1.56668   	0.035000	1.01522   	0.035000	1.01219   	0.035000	1.01219   	0.035000	1.00632   	0.035000	0.00889765	
0.040000	1.66151   	0.040000	1.0613    	0.040000	1.05537   	0.040000	1.05537   	0.040000	1.05327   	0.040000	0.00802822	
0.045000	1.74076   	0.045000	1.09868   	0.045000	1.09132   	0.045000	1.09132   	0.045000	1.09135   	0.045000	0.00732656	
0.050000	1.80582   	0.050000	1.12893   	0.050000	1.12128   	0.050000	1.12128   	0.050000	1.12218   	0.050000	0.00674715	
0.055000	1.85802   	0.055000	1.15334   	0.055000	1.14622   	0.055000	1.14622   	0.055000	1.14708   	0.055000	0.00625981	
0.060000	1.8987    	0.060000	1.17299   	0.060000	1.16693   	0.060000	1.16693   	0.060000	1.16715   	0.060000	0.00584362	
0.070000	1.95071   	0.070000	1.20142   	0.070000	1.19823   	0.070000	1.19823   	0.070000	1.19625   	0.070000	0.00516898	
0.080000	1.97197   	0.080000	1.2196    	0.080000	1.21929   	0.080000	1.21929   	0.080000	1.21495   	0.080000	0.00464425	
0.090000	1.97142   	0.090000	1.23111   	0.090000	1.23308   	0.090000	1.23308   	0.090000	1.22689   	0.090000	0.0042234 	
0.100000	1.95641   	0.100000	1.23826   	0.100000	1.2417    	0.100000	1.2417    	0.100000	1.23438   	0.100000	0.00387768	
0.120000	1.90378   	0.120000	1.24472   	0.120000	1.24889   	0.120000	1.24889   	0.120000	1.24137   	0.120000	0.0033419 	
0.140000	1.84164   	0.140000	1.24508   	0.140000	1.24806   	0.140000	1.24806   	0.140000	1.24214   	0.140000	0.00294457	
0.160000	1.78172   	0.160000	1.24167   	0.160000	1.24265   	0.160000	1.24265   	0.160000	1.23903   	0.160000	0.00263719	
0.180000	1.72773   	0.180000	1.23541   	0.180000	1.23428   	0.180000	1.23428   	0.180000	1.23302   	0.180000	0.00239176	
0.200000	1.67993   	0.200000	1.22679   	0.200000	1.22379   	0.200000	1.22379   	0.200000	1.2246    	0.200000	0.0021909 	
0.250000	1.58126   	0.250000	1.19713   	0.250000	1.19109   	0.250000	1.19109   	0.250000	1.19531   	0.250000	0.00181763	
0.300000	1.50069   	0.300000	1.15951   	0.300000	1.15242   	0.300000	1.15242   	0.300000	1.15795   	0.300000	0.00155889	
0.350000	1.42966   	0.350000	1.11775   	0.350000	1.1108    	0.350000	1.1108    	0.350000	1.11638   	0.350000	0.00136822	
0.400000	1.3646    	0.400000	1.07461   	0.400000	1.06837   	0.400000	1.06837   	0.400000	1.07339   	0.400000	0.00122148	
0.450000	1.30418   	0.450000	1.03188   	0.450000	1.0266    	0.450000	1.0266    	0.450000	1.03078   	0.450000	0.00110479	
0.500000	1.2479    	0.500000	0.990645  	0.500000	0.986345  	0.500000	0.986345  	0.500000	0.989635  	0.500000	0.00100964	
0.600000	1.14676   	0.600000	0.914613  	0.600000	0.91209   	0.600000	0.91209   	0.600000	0.913749  	0.600000	0.000863464	
0.700000	1.05944   	0.700000	0.847986  	0.700000	0.846841  	0.700000	0.846841  	0.700000	0.84723   	0.700000	0.000756128	
0.800000	0.984052  	0.800000	0.790168  	0.800000	0.790026  	0.800000	0.790026  	0.800000	0.789495  	0.800000	0.000673751	
0.900000	0.918706  	0.900000	0.73997   	0.900000	0.740534  	0.900000	0.740534  	0.900000	0.739361  	0.900000	0.000608408	
1.000000	0.861706  	1.000000	0.696165  	1.000000	0.697214  	1.000000	0.697214  	1.000000	0.695609  	1.000000	0.000555229	
1.250000	0.747004  	1.250000	0.608003  	1.250000	0.609651  	1.250000	0.609651  	1.250000	0.607546  	1.250000	0.000457167	
1.500000	0.660395  	1.500000	0.541379  	1.500000	0.543148  	1.500000	0.543148  	1.500000	0.540989  	1.500000	0.000389812	
1.750000	0.592563  	1.750000	0.489099  	1.750000	0.490775  	1.750000	0.490775  	1.750000	0.488759  	1.750000	0.000340531	
2.000000	0.537894  	2.000000	0.446851  	2.000000	0.448342  	2.000000	0.448342  	2.000000	0.446549  	2.000000	0.00030282	
2.250000	0.492836  	2.250000	0.411921  	2.250000	0.413193  	2.250000	0.413193  	2.250000	0.411648  	2.250000	0.000272981	
2.500000	0.447396  	2.500000	0.382512  	2.500000	0.383558  	2.500000	0.383558  	2.500000	0.382263  	2.500000	0.000248748	
3.000000	0.390509  	3.000000	0.335647  	3.000000	0.336269  	3.000000	0.336269  	3.000000	0.335436  	3.000000	0.00021171	
3.500000	0.347387  	3.500000	0.299891  	3.500000	0.300149  	3.500000	0.300149  	3.500000	0.299706  	3.500000	0.000184668	
4.000000	0.313472  	4.000000	0.27166   	4.000000	0.271615  	4.000000	0.271615  	4.000000	0.271496  	4.000000	0.000164013	
4.500000	0.286041  	4.500000	0.248771  	4.500000	0.248476  	4.500000	0.248476  	4.500000	0.248623  	4.500000	0.000147693	
5.000000	0.263359  	5.000000	0.229813  	5.000000	0.229311  	5.000000	0.229311  	5.000000	0.229678  	5.000000	0.000134456	
5.500000	0.244266  	5.500000	0.213833  	5.500000	0.213159  	5.500000	0.213159  	5.500000	0.213709  	5.500000	0.000123493	
6.000000	0.227956  	6.000000	0.200164  	6.000000	0.199347  	6.000000	0.199347  	6.000000	0.20005   	6.000000	0.000114257	
6.500000	0.213849  	6.500000	0.188326  	6.500000	0.187389  	6.500000	0.187389  	6.500000	0.18822   	6.500000	0.000106363	
7.000000	0.201518  	7.000000	0.177964  	7.000000	0.176926  	7.000000	0.176926  	7.000000	0.177865  	7.000000	9.95358e-05	
7.500000	0.190642  	7.500000	0.16881   	7.500000	0.167685  	7.500000	0.167685  	7.500000	0.168716  	7.500000	9.35691e-05	
8.000000	0.180971  	8.000000	0.160656  	8.000000	0.159459  	8.000000	0.159459  	8.000000	0.160568  	8.000000	8.83077e-05	
8.500000	0.172313  	8.500000	0.153343  	8.500000	0.152083  	8.500000	0.152083  	8.500000	0.153259  	8.500000	8.36319e-05	
9.000000	0.164512  	9.000000	0.146742  	9.000000	0.145429  	9.000000	0.145429  	9.000000	0.146662  	9.000000	7.94475e-05	
9.500000	0.157445  	9.500000	0.14075   	9.500000	0.139391  	9.500000	0.139391  	9.500000	0.140674  	9.500000	7.568e-05 	
10.000000	0.151012  	10.000000	0.13593   	10.000000	0.133885  	10.000000	0.133885  	10.000000	0.135858  	10.000000	7.22691e-05	
11.000000	0.139725  	11.000000	0.126624  	11.000000	0.124242  	11.000000	0.12425   	11.000000	0.126557  	11.000000	6.63293e-05	
12.000000	0.13014   	12.000000	0.118589  	12.000000	0.116039  	12.000000	0.116054  	12.000000	0.118527  	12.000000	6.13292e-05	
13.000000	0.121893  	13.000000	0.111581  	13.000000	0.108973  	13.000000	0.108989  	13.000000	0.111524  	13.000000	5.70594e-05	
14.000000	0.114716  	14.000000	0.105414  	14.000000	0.102816  	14.000000	0.102831  	14.000000	0.105361  	14.000000	5.33687e-05	
15.000000	0.108411  	15.000000	0.0999443 	15.000000	0.0973982 	15.000000	0.0974133 	15.000000	0.0998942 	15.000000	5.01453e-05	
16.000000	0.102825  	16.000000	0.0950587 	16.000000	0.0925919 	16.000000	0.0926065 	16.000000	0.0950114 	16.000000	4.73045e-05	
17.000000	0.0978401 	17.000000	0.0906674 	17.000000	0.0882985 	17.000000	0.0883112 	17.000000	0.0906226 	17.000000	4.47813e-05	
18.000000	0.0933617 	18.000000	0.0866982 	18.000000	0.084439  	18.000000	0.0844487 	18.000000	0.0866557 	18.000000	4.25244e-05	
19.000000	0.0893154 	19.000000	0.0830924 	19.000000	0.0809487 	19.000000	0.0809557 	19.000000	0.0830519 	19.000000	4.04932e-05	
20.000000	0.0856404 	20.000000	0.0798016 	20.000000	0.0777742 	20.000000	0.0777812 	20.000000	0.079763  	20.000000	3.86551e-05	
21.000000	0.0822869 	21.000000	0.0767859 	21.000000	0.0748756 	21.000000	0.0748833 	21.000000	0.0767489 	21.000000	3.69833e-05	
22.000000	0.0792136 	22.000000	0.0740117 	22.000000	0.0722212 	22.000000	0.072227  	22.000000	0.0739762 	22.000000	3.5456e-05	
23.000000	0.0763863 	23.000000	0.0714506 	23.000000	0.0697818 	23.000000	0.0697835 	23.000000	0.0714166 	23.000000	3.4055e-05	
24.000000	0.073776  	24.000000	0.0690789 	24.000000	0.0675306 	24.000000	0.0675282 	24.000000	0.0690461 	24.000000	3.2765e-05	
25.000000	0.0713582 	25.000000	0.0668758 	25.000000	0.0654464 	25.000000	0.0654403 	25.000000	0.0668442 	25.000000	3.15732e-05	
27.000000	0.0670193 	27.000000	0.0629078 	27.000000	0.0617136 	27.000000	0.0616984 	27.000000	0.0628783 	27.000000	2.94417e-05	
29.000000	0.0632345 	29.000000	0.0594319 	29.000000	0.0584617 	29.000000	0.0584428 	29.000000	0.0594043 	29.000000	2.75905e-05	
31.000000	0.0599024 	31.000000	0.0563609 	31.000000	0.0555369 	31.000000	0.0555169 	31.000000	0.0563349 	31.000000	2.59669e-05	
33.000000	0.0569449 	33.000000	0.053627  	33.000000	0.0528768 	33.000000	0.0528507 	33.000000	0.0536025 	33.000000	2.4531e-05	
35.000000	0.0543011 	35.000000	0.051177  	35.000000	0.0504854 	35.000000	0.0504607 	35.000000	0.0511537 	35.000000	2.32514e-05	
38.000000	0.0508205 	38.000000	0.0479433 	38.000000	0.0473335 	38.000000	0.0473047 	38.000000	0.0479217 	38.000000	2.15732e-05	
41.000000	0.047814  	41.000000	0.0451431 	41.000000	0.0445992 	41.000000	0.0445699 	41.000000	0.0451229 	41.000000	2.01295e-05	
44.000000	0.0451893 	44.000000	0.0426936 	44.000000	0.0422017 	44.000000	0.0421757 	44.000000	0.0426748 	44.000000	1.88737e-05	
47.000000	0.0428767 	47.000000	0.0405322 	47.000000	0.0400907 	47.000000	0.0400612 	47.000000	0.0405144 	47.000000	1.77711e-05	
50.000000	0.0408226 	50.000000	0.0386102 	50.000000	0.0382089 	50.000000	0.0381791 	50.000000	0.0385934 	50.000000	1.67948e-05	
55.000000	0.0378639 	55.000000	0.0358388 	55.000000	0.0354945 	55.000000	0.035462  	55.000000	0.0358234 	55.000000	1.5394e-05	
60.000000	0.0353657 	60.000000	0.033497  	60.000000	0.0331925 	60.000000	0.0331627 	60.000000	0.0334828 	60.000000	1.42167e-05	
65.000000	0.0332265 	65.000000	0.0314911 	65.000000	0.0312208 	65.000000	0.0311902 	65.000000	0.0314779 	65.000000	1.32126e-05	
70.000000	0.0313726 	70.000000	0.0297529 	70.000000	0.0295096 	70.000000	0.0294785 	70.000000	0.0297405 	70.000000	1.23459e-05	
75.000000	0.0297494 	75.000000	0.0282315 	75.000000	0.0280071 	75.000000	0.0279785 	75.000000	0.0282199 	75.000000	1.15897e-05	
80.000000	0.0283156 	80.000000	0.0268884 	80.000000	0.0266838 	80.000000	0.0266527 	80.000000	0.0268775 	80.000000	1.0924e-05	
85.000000	0.027039  	85.000000	0.0256937 	85.000000	0.0255015 	85.000000	0.025472  	85.000000	0.0256834 	85.000000	1.03333e-05	
90.000000	0.0258947 	90.000000	0.0246238 	90.000000	0.0244417 	90.000000	0.0244135 	90.000000	0.024614  	90.000000	9.80543e-06	
95.000000	0.0248627 	95.000000	0.02366   	95.000000	0.0234892 	95.000000	0.023459  	95.000000	0.0236506 	95.000000	9.33075e-06	
100.000000	0.0239268 	100.000000	0.022787  	100.000000	0.0226227 	100.000000	0.0225938 	100.000000	0.0227781 	100.000000	8.90152e-06	
105.000000	0.0230739 	105.000000	0.0219925 	105.000000	0.0218334 	105.000000	0.0218057 	105.000000	0.021984  	105.000000	8.51143e-06	
110.000000	0.0222932 	110.000000	0.0212662 	110.000000	0.0211111 	110.000000	0.0210848 	110.000000	0.0212581 	110.000000	8.1553e-06	
115.000000	0.0215756 	115.000000	0.0205998 	115.000000	0.02045   	115.000000	0.0204227 	115.000000	0.0205919 	115.000000	7.82884e-06	
120.000000	0.0209137 	120.000000	0.0199859 	120.000000	0.0198404 	120.000000	0.0198125 	120.000000	0.0199784 	120.000000	7.52843e-06	
125.000000	0.020301  	125.000000	0.0194186 	125.000000	0.0192748 	125.000000	0.0192483 	125.000000	0.0194113 	125.000000	7.25104e-06	
130.000000	0.0197322 	130.000000	0.0188927 	130.000000	0.0187507 	130.000000	0.0187251 	130.000000	0.0188857 	130.000000	6.9941e-06	
135.000000	0.0192024 	135.000000	0.0184038 	135.000000	0.0182652 	135.000000	0.0182384 	135.000000	0.0183971 	135.000000	6.75539e-06	
140.000000	0.0187078 	140.000000	0.0179482 	140.000000	0.0178115 	140.000000	0.0177846 	140.000000	0.0179416 	140.000000	6.53302e-06	
145.000000	0.0182449 	145.000000	0.0175224 	145.000000	0.0173864 	145.000000	0.0173605 	145.000000	0.0175161 	145.000000	6.32534e-06	
150.000000	0.0178106 	150.000000	0.0171238 	150.000000	0.0169884 	150.000000	0.0169632 	150.000000	0.0171176 	150.000000	6.13093e-06	
155.000000	0.0171992 	155.000000	0.0167496 	155.000000	0.0166146 	155.000000	0.0165902 	155.000000	0.0167437 	155.000000	5.94855e-06	
160.000000	0.0168407 	160.000000	0.0163978 	160.000000	0.0162636 	160.000000	0.0162394 	160.000000	0.016392  	160.000000	5.77709e-06	
165.000000	0.0165028 	165.000000	0.0160664 	165.000000	0.015934  	165.000000	0.0159089 	165.000000	0.0160608 	165.000000	5.61559e-06	
170.000000	0.0161835 	170.000000	0.0157536 	170.000000	0.015622  	170.000000	0.0155969 	170.000000	0.0157481 	170.000000	5.46319e-06	
175.000000	0.0158814 	175.000000	0.0154579 	175.000000	0.0153263 	175.000000	0.0153019 	175.000000	0.0154526 	175.000000	5.31915e-06	
180.000000	0.0155951 	180.000000	0.015178  	180.000000	0.0150465 	180.000000	0.0150227 	180.000000	0.0151728 	180.000000	5.18278e-06	
185.000000	0.0153234 	185.000000	0.0149126 	185.000000	0.0147812 	185.000000	0.0147578 	185.000000	0.0149076 	185.000000	5.05347e-06	
190.000000	0.0150651 	190.000000	0.0146606 	190.000000	0.0145291 	190.000000	0.0145064 	190.000000	0.0146557 	190.000000	4.93069e-06	
195.000000	0.0148194 	195.000000	0.0144211 	195.000000	0.0142902 	195.000000	0.0142673 	195.000000	0.0144163 	195.000000	4.81395e-06	
200.000000	0.0145852 	200.000000	0.0141931 	200.000000	0.0140633 	200.000000	0.0140398 	200.000000	0.0141884 	200.000000	4.70281e-06	
210.000000	0.0141486 	210.000000	0.0137684 	210.000000	0.0136391 	210.000000	0.013616  	210.000000	0.0137639 	210.000000	4.49577e-06	
220.000000	0.0137495 	220.000000	0.0133811 	220.000000	0.0132518 	220.000000	0.0132295 	220.000000	0.0133767 	220.000000	4.30679e-06	
230.000000	0.0133832 	230.000000	0.0130263 	230.000000	0.012897  	230.000000	0.0128756 	230.000000	0.0130222 	230.000000	4.1336e-06	
240.000000	0.013046  	240.000000	0.0127002 	240.000000	0.0125724 	240.000000	0.0125504 	240.000000	0.0126962 	240.000000	3.97426e-06	
250.000000	0.0127343 	250.000000	0.0123995 	250.000000	0.0122726 	250.000000	0.0122506 	250.000000	0.0123956 	250.000000	3.82716e-06	
260.000000	0.0124455 	260.000000	0.0121213 	260.000000	0.0119946 	260.000000	0.0119733 	260.000000	0.0121176 	260.000000	3.69094e-06	
270.000000	0.0121771 	270.000000	0.0118631 	270.000000	0.0117369 	270.000000	0.0117162 	270.000000	0.0118596 	270.000000	3.5644e-06	
280.000000	0.011927  	280.000000	0.0116231 	280.000000	0.0114973 	280.000000	0.0114771 	280.000000	0.0116196 	280.000000	3.44655e-06	
290.000000	0.0116933 	290.000000	0.0113992 	290.000000	0.0112751 	290.000000	0.0112543 	290.000000	0.0113959 	290.000000	3.3365e-06	
300.000000	0.0114746 	300.000000	0.01119   	300.000000	0.0110671 	300.000000	0.0110462 	300.000000	0.0111868 	300.000000	3.2335e-06	
310.000000	0.0112695 	310.000000	0.0109941 	310.000000	0.0108717 	310.000000	0.0108514 	310.000000	0.010991  	310.000000	3.13689e-06	
320.000000	0.0110766 	320.000000	0.0108103 	320.000000	0.0106887 	320.000000	0.0106688 	320.000000	0.0108072 	320.000000	3.04608e-06	
330.000000	0.0108951 	330.000000	0.0106375 	330.000000	0.0105166 	330.000000	0.0104972 	330.000000	0.0106345 	330.000000	2.96055e-06	
340.000000	0.0107238 	340.000000	0.0104747 	340.000000	0.0103549 	340.000000	0.0103357 	340.000000	0.0104718 	340.000000	2.87986e-06	
350.000000	0.0105621 	350.000000	0.0103212 	350.000000	0.0102032 	350.000000	0.0101835 	350.000000	0.0103184 	350.000000	2.80361e-06	
360.000000	0.010409  	360.000000	0.0101762 	360.000000	0.0100597 	360.000000	0.0100398 	360.000000	0.0101735 	360.000000	2.73142e-06	
370.000000	0.010264  	370.000000	0.0100391 	370.000000	0.00992345	370.000000	0.00990401	370.000000	0.0100364 	370.000000	2.66298e-06	
380.000000	0.0101264 	380.000000	0.00990912	380.000000	0.00979453	380.000000	0.00977543	380.000000	0.00990653	380.000000	2.59801e-06	
390.000000	0.00999578	390.000000	0.00978588	390.000000	0.00967239	390.000000	0.00965356	390.000000	0.00978334	390.000000	2.53624e-06	
400.000000	0.00987153	400.000000	0.00966884	400.000000	0.00955636	400.000000	0.00953792	400.000000	0.00966636	400.000000	2.47743e-06	
410.000000	0.00975323	410.000000	0.00955757	410.000000	0.0094463 	410.000000	0.00942805	410.000000	0.00955515	410.000000	2.42139e-06	
420.000000	0.00964049	420.000000	0.00945167	420.000000	0.00934209	420.000000	0.00932355	420.000000	0.0094493 	420.000000	2.36791e-06	
430.000000	0.00953294	430.000000	0.00935076	430.000000	0.00924293	430.000000	0.00922407	430.000000	0.00934845	430.000000	2.31682e-06	
440.000000	0.00943023	440.000000	0.00925454	440.000000	0.00914805	440.000000	0.00912926	440.000000	0.00925227	440.000000	2.26797e-06	
450.000000	0.00933207	450.000000	0.00916268	450.000000	0.0090573 	450.000000	0.00903883	450.000000	0.00916046	450.000000	2.2212e-06	
460.000000	0.00923817	460.000000	0.00907492	460.000000	0.0089707 	460.000000	0.00895249	460.000000	0.00907274	460.000000	2.17639e-06	
470.000000	0.00914827	470.000000	0.008991  	470.000000	0.00888802	470.000000	0.00886998	470.000000	0.00898887	470.000000	2.13341e-06	
480.000000	0.00906213	480.000000	0.00891069	480.000000	0.00880888	480.000000	0.00879108	480.000000	0.0089086 	480.000000	2.09215e-06	
490.000000	0.00897954	490.000000	0.00883377	490.000000	0.0087331 	490.000000	0.00871557	490.000000	0.00883172	490.000000	2.05252e-06	
500.000000	0.0089003 	500.000000	0.00876005	500.000000	0.00866065	500.000000	0.00864324	500.000000	0.00875804	500.000000	2.0144e-06	
520.000000	0.00875111	520.000000	0.00862148	520.000000	0.00852526	520.000000	0.00850743	520.000000	0.00861954	520.000000	1.94241e-06	
540.000000	0.00861322	540.000000	0.00849368	540.000000	0.00840021	540.000000	0.00838233	540.000000	0.00849181	540.000000	1.87555e-06	
560.000000	0.00848549	560.000000	0.00837553	560.000000	0.00828427	560.000000	0.00826681	560.000000	0.00837371	560.000000	1.81329e-06	
580.000000	0.00836692	580.000000	0.00826605	580.000000	0.00817708	580.000000	0.00815989	580.000000	0.00826429	580.000000	1.75517e-06	
600.000000	0.00825663	600.000000	0.0081644 	600.000000	0.00807756	600.000000	0.00806072	600.000000	0.0081627 	600.000000	1.70077e-06	
620.000000	0.00815387	620.000000	0.00806984	620.000000	0.0079852 	620.000000	0.00796856	620.000000	0.00806819	620.000000	1.64975e-06	
640.000000	0.00805797	640.000000	0.00798173	640.000000	0.00789967	640.000000	0.00788275	640.000000	0.00798013	640.000000	1.60181e-06	
660.000000	0.00796833	660.000000	0.0078995 	660.000000	0.00781986	660.000000	0.00780271	660.000000	0.00789795	660.000000	1.55666e-06	
680.000000	0.00788444	680.000000	0.00782265	680.000000	0.0077449 	680.000000	0.00772795	680.000000	0.00782113	680.000000	1.51407e-06	
700.000000	0.00780583	700.000000	0.00775071	700.000000	0.00767467	700.000000	0.00765799	700.000000	0.00774924	700.000000	1.47382e-06	
720.000000	0.00773207	720.000000	0.0076833 	720.000000	0.00760895	720.000000	0.00759245	720.000000	0.00768187	720.000000	1.43572e-06	
740.000000	0.0076628 	740.000000	0.00762006	740.000000	0.00754777	740.000000	0.00753147	740.000000	0.00761866	740.000000	1.39961e-06	
760.000000	0.00759768	760.000000	0.00756066	760.000000	0.00749137	760.000000	0.00747531	760.000000	0.0075593 	760.000000	1.36533e-06	
780.000000	0.00753641	780.000000	0.00750482	780.000000	0.00743842	780.000000	0.00742249	780.000000	0.00750349	780.000000	1.33275e-06	
800.000000	0.00747872	800.000000	0.00745228	800.000000	0.0073888 	800.000000	0.00737276	800.000000	0.00745098	800.000000	1.30173e-06	
820.000000	0.00742435	820.000000	0.0074028 	820.000000	0.00734215	820.000000	0.00732589	820.000000	0.00740153	820.000000	1.27217e-06	
840.000000	0.00737309	840.000000	0.00735617	840.000000	0.00729806	840.000000	0.00728167	840.000000	0.00735493	840.000000	1.24397e-06	
860.000000	0.00732473	860.000000	0.00731219	860.000000	0.00725623	860.000000	0.00723992	860.000000	0.00731098	860.000000	1.21703e-06	
880.000000	0.00727909	880.000000	0.0072707 	880.000000	0.0072166 	880.000000	0.00720047	880.000000	0.00726951	880.000000	1.19127e-06	
900.000000	0.00723599	900.000000	0.00723152	900.000000	0.00717912	900.000000	0.00716316	900.000000	0.00723035	900.000000	1.16661e-06	
920.000000	0.00719527	920.000000	0.0071945 	920.000000	0.00714367	920.000000	0.00712785	920.000000	0.00719336	920.000000	1.14299e-06	
940.000000	0.0071568 	940.000000	0.00715953	940.000000	0.00711013	940.000000	0.00709441	940.000000	0.00715841	940.000000	1.12033e-06	
960.000000	0.00712044	960.000000	0.00712646	960.000000	0.00707835	960.000000	0.00706272	960.000000	0.00712536	960.000000	1.09859e-06	
980.000000	0.00708607	980.000000	0.00709518	980.000000	0.00704822	980.000000	0.00703268	980.000000	0.00709411	980.000000	1.0777e-06	
1000.000000	0.00705357	1000.000000	0.0070656 	1000.000000	0.00701962	1000.000000	0.00700417	1000.000000	0.00706454	1000.000000	1.05761e-06	
1020.000000	0.00702285	1020.000000	0.00703761	1020.000000	0.00699244	1020.000000	0.0069771 	1020.000000	0.00703657	1020.000000	1.03829e-06	
1040.000000	0.00699381	1040.000000	0.00701112	1040.000000	0.00696661	1040.000000	0.0069514 	1040.000000	0.0070101 	1040.000000	1.01968e-06	
1060.000000	0.00696635	1060.000000	0.00698606	1060.000000	0.00694206	1060.000000	0.00692697	1060.000000	0.00698505	1060.000000	1.00175e-06	
1080.000000	0.0069404 	1080.000000	0.00696233	1080.000000	0.00691874	1080.000000	0.00690375	1080.000000	0.00696135	1080.000000	9.84454e-07	
1100.000000	0.00691588	1100.000000	0.00693988	1100.000000	0.00689661	1100.000000	0.00688167	1100.000000	0.00693891	1100.000000	9.67768e-07	
1120.000000	0.00689271	1120.000000	0.00691863	1120.000000	0.00687562	1120.000000	0.00686066	1120.000000	0.00691767	1120.000000	9.51656e-07	
1140.000000	0.00687084	1140.000000	0.00689852	1140.000000	0.00685572	1140.000000	0.00684067	1140.000000	0.00689758	1140.000000	9.36089e-07	
1160.000000	0.00685019	1160.000000	0.00687949	1160.000000	0.0068368 	1160.000000	0.00682163	1160.000000	0.00687857	1160.000000	9.2104e-07	
1180.000000	0.00683071	1180.000000	0.0068615 	1180.000000	0.00681877	1180.000000	0.0068035 	1180.000000	0.00686059	1180.000000	9.06483e-07	
1200.000000	0.00681234	1200.000000	0.00684448	1200.000000	0.00680157	1200.000000	0.00678624	1200.000000	0.00684359	1200.000000	8.92394e-07	
1220.000000	0.00679504	1220.000000	0.0068284 	1220.000000	0.00678513	1220.000000	0.00676978	1220.000000	0.00682752	1220.000000	8.7875e-07	
1240.000000	0.00677875	1240.000000	0.00681321	1240.000000	0.0067694 	1240.000000	0.0067541 	1240.000000	0.00681234	1240.000000	8.6553e-07	
1260.000000	0.00676344	1260.000000	0.00679886	1260.000000	0.00675439	1260.000000	0.00673915	1260.000000	0.006798  	1260.000000	8.52715e-07	
1280.000000	0.00674905	1280.000000	0.00678532	1280.000000	0.00674005	1280.000000	0.0067249 	1280.000000	0.00678448	1280.000000	8.40286e-07	
1300.000000	0.00673554	1300.000000	0.00677255	1300.000000	0.00672638	1300.000000	0.00671131	1300.000000	0.00677172	1300.000000	8.28226e-07	
1320.000000	0.00672289	1320.000000	0.00676051	1320.000000	0.00671335	1320.000000	0.00669836	1320.000000	0.00675969	1320.000000	8.16518e-07	
1340.000000	0.00671106	1340.000000	0.00674918	1340.000000	0.00670093	1340.000000	0.006686  	1340.000000	0.00674838	1340.000000	8.05148e-07	
1360.000000	0.0067    	1360.000000	0.00673852	1360.000000	0.00668909	1360.000000	0.00667421	1360.000000	0.00673773	1360.000000	7.94099e-07	
1380.000000	0.00668969	1380.000000	0.00672851	1380.000000	0.0066778 	1380.000000	0.00666296	1380.000000	0.00672773	1380.000000	7.8336e-07	
1400.000000	0.00668011	1400.000000	0.00671912	1400.000000	0.00666703	1400.000000	0.00665223	1400.000000	0.00671834	1400.000000	7.72917e-07	
1420.000000	0.00667121	1420.000000	0.00671031	1420.000000	0.00665675	1420.000000	0.006642  	1420.000000	0.00670955	1420.000000	7.62757e-07	
1440.000000	0.00666299	1440.000000	0.00670208	1440.000000	0.00664694	1440.000000	0.00663224	1440.000000	0.00670133	1440.000000	7.5287e-07	
1460.000000	0.0066554 	1460.000000	0.00669439	1460.000000	0.00663757	1460.000000	0.00662293	1460.000000	0.00669364	1460.000000	7.43243e-07	
1480.000000	0.00664842	1480.000000	0.00668722	1480.000000	0.00662863	1480.000000	0.00661405	1480.000000	0.00668648	1480.000000	7.33868e-07	
1500.000000	0.00664204	1500.000000	0.00668055	1500.000000	0.00662009	1500.000000	0.00660558	1500.000000	0.00667983	1500.000000	7.24734e-07	
1520.000000	0.00663624	1520.000000	0.00667437	1520.000000	0.00661196	1520.000000	0.0065975 	1520.000000	0.00667365	1520.000000	7.15832e-07	
1540.000000	0.00663098	1540.000000	0.00666865	1540.000000	0.00660422	1540.000000	0.0065898 	1540.000000	0.00666794	1540.000000	7.07153e-07	
1560.000000	0.00662625	1560.000000	0.00666337	1560.000000	0.00659684	1560.000000	0.00658246	1560.000000	0.00666268	1560.000000	6.98688e-07	
1580.000000	0.00662204	1580.000000	0.00665853	1580.000000	0.00658983	1580.000000	0.00657546	1580.000000	0.00665784	1580.000000	6.9043e-07	
1600.000000	0.00661832	1600.000000	0.0066541 	1600.000000	0.00658316	1600.000000	0.0065688 	1600.000000	0.00665342	1600.000000	6.82372e-07	
1620.000000	0.00661509	1620.000000	0.00665007	1620.000000	0.00657683	1620.000000	0.00656245	1620.000000	0.00664939	1620.000000	6.74505e-07	
1640.000000	0.00661231	1640.000000	0.00664642	1640.000000	0.00657082	1640.000000	0.0065564 	1640.000000	0.00664575	1640.000000	6.66824e-07	
1660.000000	0.00660998	1660.000000	0.00664314	1660.000000	0.00656511	1660.000000	0.00655064	1660.000000	0.00664249	1660.000000	6.59321e-07	
1680.000000	0.00660809	1680.000000	0.00664022	1680.000000	0.00655968	1680.000000	0.00654516	1680.000000	0.00663957	1680.000000	6.5199e-07	
1700.000000	0.00660661	1700.000000	0.00663765	1700.000000	0.00655452	1700.000000	0.00653995	1700.000000	0.00663701	1700.000000	6.44826e-07	
1750.000000	0.00660466	1750.000000	0.00663264	1750.000000	0.0065427 	1750.000000	0.00652802	1750.000000	0.00663202	1750.000000	6.27607e-07	
1800.000000	0.00660506	1800.000000	0.00662955	1800.000000	0.00653228	1800.000000	0.00651754	1800.000000	0.00662894	1800.000000	6.11312e-07	
1850.000000	0.00660763	1850.000000	0.00662821	1850.000000	0.0065231 	1850.000000	0.00650838	1850.000000	0.00662762	1850.000000	5.95867e-07	
1900.000000	0.00661221	1900.000000	0.00662849	1900.000000	0.00651507	1900.000000	0.0065004 	1900.000000	0.00662791	1900.000000	5.81207e-07	
1950.000000	0.00661867	1950.000000	0.00663027	1950.000000	0.0065081 	1950.000000	0.00649351	1950.000000	0.0066297 	1950.000000	5.67273e-07	
2000.000000	0.00662688	2000.000000	0.00663343	2000.000000	0.00650211	2000.000000	0.00648761	2000.000000	0.00663287	2000.000000	5.54012e-07	
2100.000000	0.0066481 	2100.000000	0.0066435 	2100.000000	0.00649278	2100.000000	0.00647842	2100.000000	0.00664297	2100.000000	5.2932e-07	
2200.000000	0.00667507	2200.000000	0.00665802	2200.000000	0.00648651	2200.000000	0.00647223	2200.000000	0.00665751	2200.000000	5.06798e-07	
2300.000000	0.00670714	2300.000000	0.00667639	2300.000000	0.00648276	2300.000000	0.00646857	2300.000000	0.00667591	2300.000000	4.86169e-07	
2400.000000	0.00674375	2400.000000	0.00669814	2400.000000	0.00648114	2400.000000	0.00646702	2400.000000	0.00669768	2400.000000	4.67201e-07	
2500.000000	0.00678441	2500.000000	0.00672287	2500.000000	0.00648131	2500.000000	0.00646726	2500.000000	0.00672242	2500.000000	4.49701e-07	
2600.000000	0.00682875	2600.000000	0.00675021	2600.000000	0.00648299	2600.000000	0.00646902	2600.000000	0.00674978	2600.000000	4.33502e-07	
2700.000000	0.0068764 	2700.000000	0.00677989	2700.000000	0.00648597	2700.000000	0.00647206	2700.000000	0.00677947	2700.000000	4.18463e-07	
2800.000000	0.00692708	2800.000000	0.00681164	2800.000000	0.00649006	2800.000000	0.0064762 	2800.000000	0.00681124	2800.000000	4.04462e-07	
2900.000000	0.00698053	2900.000000	0.00684526	2900.000000	0.0064951 	2900.000000	0.00648126	2900.000000	0.00684486	2900.000000	3.91395e-07	
3000.000000	0.00703652	3000.000000	0.00688054	3000.000000	0.00650094	3000.000000	0.00648712	3000.000000	0.00688016	3000.000000	3.79171e-07	
3200.000000	0.00715537	3200.000000	0.00695546	3200.000000	0.00651457	3200.000000	0.00650075	3200.000000	0.00695511	3200.000000	3.56939e-07	
3400.000000	0.00728233	3400.000000	0.00703534	3400.000000	0.00653017	3400.000000	0.00651635	3400.000000	0.007035  	3400.000000	3.3724e-07	
3600.000000	0.00741637	3600.000000	0.0071193 	3600.000000	0.00654716	3600.000000	0.00653335	3600.000000	0.00711898	3600.000000	3.19659e-07	
3800.000000	0.00755668	3800.000000	0.00720668	3800.000000	0.00656513	3800.000000	0.00655134	3800.000000	0.00720638	3800.000000	3.03869e-07	
4000.000000	0.00770261	4000.000000	0.00729695	4000.000000	0.00658377	4000.000000	0.00657   	4000.000000	0.00729666	4000.000000	2.89609e-07	
4200.000000	0.00785361	4200.000000	0.00738966	4200.000000	0.00660284	4200.000000	0.00658911	4200.000000	0.00738939	4200.000000	2.76663e-07	
4400.000000	0.00800924	4400.000000	0.00748447	4400.000000	0.00662217	4400.000000	0.00660848	4400.000000	0.00748421	4400.000000	2.64856e-07	
4600.000000	0.00816914	4600.000000	0.00758108	4600.000000	0.00664162	4600.000000	0.00662796	4600.000000	0.00758082	4600.000000	2.54043e-07	
4800.000000	0.00833299	4800.000000	0.00767924	4800.000000	0.00666109	4800.000000	0.00664746	4800.000000	0.00767899	4800.000000	2.44103e-07	
5000.000000	0.00850053	5000.000000	0.00777875	5000.000000	0.00668049	5000.000000	0.00666689	5000.000000	0.00777851	5000.000000	2.34933e-07	
5250.000000	0.00871482	5250.000000	0.00790477	5250.000000	0.00670456	5250.000000	0.00669099	5250.000000	0.00790455	5250.000000	2.24421e-07	
5500.000000	0.00893418	5500.000000	0.00803236	5500.000000	0.00672834	5500.000000	0.0067148 	5500.000000	0.00803214	5500.000000	2.14835e-07	
6000.000000	0.00938691	6000.000000	0.00829132	6000.000000	0.00677481	6000.000000	0.00676131	6000.000000	0.00829113	6000.000000	1.97987e-07	
6500.000000	0.00985685	6500.000000	0.00855422	6500.000000	0.00681958	6500.000000	0.00680612	6500.000000	0.00855404	6500.000000	1.83653e-07	
7000.000000	0.0103426 	7000.000000	0.00882004	7000.000000	0.00686254	7000.000000	0.0068491 	7000.000000	0.00881987	7000.000000	1.71305e-07	
7500.000000	0.0108432 	7500.000000	0.00908806	7500.000000	0.00690368	7500.000000	0.00689026	7500.000000	0.0090879 	7500.000000	1.60554e-07	
8000.000000	0.0113579 	8000.000000	0.00935773	8000.000000	0.00694306	8000.000000	0.00692964	8000.000000	0.00935758	8000.000000	1.51106e-07	
8500.000000	0.011886  	8500.000000	0.00962866	8500.000000	0.00698066	8500.000000	0.0069673 	8500.000000	0.00962852	8500.000000	1.42736e-07	
9000.000000	0.0124272 	9000.000000	0.00990054	9000.000000	0.00701656	9000.000000	0.00700333	9000.000000	0.00990041	9000.000000	1.35268e-07	
9500.000000	0.012981  	9500.000000	0.0101731 	9500.000000	0.00705095	9500.000000	0.00703783	9500.000000	0.010173  	9500.000000	1.28562e-07	
10000.000000	0.0135472 	10000.000000	0.0104462 	10000.000000	0.00708398	10000.000000	0.00707089	10000.000000	0.0104461 	10000.000000	1.22507e-07	
11000.000000	0.0147159 	11000.000000	0.0109935 	11000.000000	0.00714613	11000.000000	0.00713303	11000.000000	0.0109933 	11000.000000	1.12e-07  	
12000.000000	0.0159318 	12000.000000	0.0115413 	12000.000000	0.0072035 	12000.000000	0.00719043	12000.000000	0.0115412 	12000.000000	1.03194e-07	
13000.000000	0.0171942 	13000.000000	0.0120894 	13000.000000	0.00725658	13000.000000	0.00724365	13000.000000	0.0120893 	13000.000000	9.57042e-08	
14000.000000	0.0185023 	14000.000000	0.0126372 	14000.000000	0.00730585	14000.000000	0.0072932 	14000.000000	0.0126371 	14000.000000	8.92532e-08	
15000.000000	0.0198557 	15000.000000	0.0131845 	15000.000000	0.00735183	15000.000000	0.00733951	15000.000000	0.0131844 	15000.000000	8.36375e-08	
16000.000000	0.0212542 	16000.000000	0.0137311 	16000.000000	0.00739497	16000.000000	0.00738293	16000.000000	0.0137311 	16000.000000	7.87035e-08	
17000.000000	0.0226977 	17000.000000	0.0142771 	17000.000000	0.00743563	17000.000000	0.00742377	17000.000000	0.014277  	17000.000000	7.43332e-08	
18000.000000	0.024186  	18000.000000	0.0148222 	18000.000000	0.00747406	18000.000000	0.00746231	18000.000000	0.0148221 	18000.000000	7.04346e-08	
19000.000000	0.0257192 	19000.000000	0.0153664 	19000.000000	0.00751048	19000.000000	0.00749876	19000.000000	0.0153663 	19000.000000	6.69344e-08	
20000.000000	0.0272972 	20000.000000	0.0159098 	20000.000000	0.00754507	20000.000000	0.00753333	20000.000000	0.0159097 	20000.000000	6.37742e-08	
21000.000000	0.0289202 	21000.000000	0.0164522 	21000.000000	0.00757793	21000.000000	0.0075662 	21000.000000	0.0164521 	21000.000000	6.09063e-08	
22000.000000	0.0305881 	22000.000000	0.0169937 	22000.000000	0.00760902	22000.000000	0.0075975 	22000.000000	0.0169937 	22000.000000	5.82916e-08	
23000.000000	0.0323013 	23000.000000	0.0175344 	23000.000000	0.00763845	23000.000000	0.00762738	23000.000000	0.0175343 	23000.000000	5.58978e-08	
24000.000000	0.0340597 	24000.000000	0.0180741 	24000.000000	0.00766673	24000.000000	0.00765595	24000.000000	0.0180741 	24000.000000	5.36977e-08	
25000.000000	0.0358635 	25000.000000	0.018613  	25000.000000	0.00769413	25000.000000	0.00768332	25000.000000	0.018613  	25000.000000	5.16685e-08	
26000.000000	0.0377129 	26000.000000	0.019151  	26000.000000	0.00772034	26000.000000	0.00770957	26000.000000	0.019151  	26000.000000	4.9791e-08	
27000.000000	0.0396081 	27000.000000	0.0196882 	27000.000000	0.00774524	27000.000000	0.0077348 	27000.000000	0.0196881 	27000.000000	4.80485e-08	
28000.000000	0.0415493 	28000.000000	0.0202245 	28000.000000	0.00776909	28000.000000	0.00775906	28000.000000	0.0202244 	28000.000000	4.6427e-08	
29000.000000	0.0435366 	29000.000000	0.02076   	29000.000000	0.00779211	29000.000000	0.00778244	29000.000000	0.0207599 	29000.000000	4.4914e-08	
30000.000000	0.0455703 	30000.000000	0.0212947 	30000.000000	0.00781439	30000.000000	0.00780499	30000.000000	0.0212946 	30000.000000	4.34991e-08	
32000.000000	0.0497777 	32000.000000	0.0223617 	32000.000000	0.00785669	32000.000000	0.00784782	32000.000000	0.0223617 	32000.000000	4.09271e-08	
34000.000000	0.0541731 	34000.000000	0.0234258 	34000.000000	0.0078962 	34000.000000	0.00788792	34000.000000	0.0234257 	34000.000000	3.86493e-08	
36000.000000	0.0587585 	36000.000000	0.0244869 	36000.000000	0.00793326	36000.000000	0.0079256 	36000.000000	0.0244869 	36000.000000	3.66176e-08	
38000.000000	0.0635357 	38000.000000	0.0255454 	38000.000000	0.0079682 	38000.000000	0.00796113	38000.000000	0.0255453 	38000.000000	3.47938e-08	
40000.000000	0.0685066 	40000.000000	0.0266012 	40000.000000	0.00800121	40000.000000	0.00799474	40000.000000	0.0266011 	40000.000000	3.31474e-08	
42000.000000	0.0736733 	42000.000000	0.0276545 	42000.000000	0.00803243	42000.000000	0.00802661	42000.000000	0.0276544 	42000.000000	3.16534e-08	
44000.000000	0.0790378 	44000.000000	0.0287054 	44000.000000	0.00806202	44000.000000	0.00805691	44000.000000	0.0287053 	44000.000000	3.02915e-08	
46000.000000	0.0846022 	46000.000000	0.0297539 	46000.000000	0.00809013	46000.000000	0.00808579	46000.000000	0.0297539 	46000.000000	2.90448e-08	
48000.000000	0.0903685 	48000.000000	0.0308003 	48000.000000	0.00811689	48000.000000	0.00811336	48000.000000	0.0308003 	48000.000000	2.78991e-08	
50000.000000	0.0963389 	50000.000000	0.0318446 	50000.000000	0.00814241	50000.000000	0.00813975	50000.000000	0.0318445 	50000.000000	2.68425e-08	
