Energy (MeV/u)1	0 - [He-base] F.Hubert et al, AD&ND Tables 46(1990)1	Energy (MeV/u)2	1 - [H -base] J.F.Ziegler et al, Pergamon Press, NY (low energy)	Energy (MeV/u)3	2 - ATIMA 1.2  LS-theory (recommended for high energy)	Energy (MeV/u)4	3 - ATIMA 1.2  without LS-correction	Energy (MeV/u)5	4 - electrical component of [1] - J.F.Ziegler et al	Energy (MeV/u)6	5 - nuclear component of [1] - J.F.Ziegler et al	
0.001000	12.7779   	0.001000	37.4203   	0.001000	29.6314   	0.001000	29.6314   	0.001000	12.5234   	0.001000	24.8969   	
0.002000	13.2091   	0.002000	41.7083   	0.002000	32.1629   	0.002000	32.1629   	0.002000	16.2408   	0.002000	25.4675   	
0.005000	13.1079   	0.005000	45.9629   	0.005000	33.6489   	0.005000	33.6489   	0.005000	22.9      	0.005000	23.0629   	
0.008000	13.0279   	0.008000	47.8678   	0.008000	33.9443   	0.008000	33.9443   	0.008000	27.3136   	0.008000	20.5542   	
0.010000	13.0494   	0.010000	48.8577   	0.010000	34.1306   	0.010000	34.1306   	0.010000	29.6976   	0.010000	19.1601   	
0.015000	13.2571   	0.015000	51.0276   	0.015000	34.7881   	0.015000	34.7881   	0.015000	34.5744   	0.015000	16.4531   	
0.020000	13.5754   	0.020000	53.0141   	0.020000	35.6723   	0.020000	35.6723   	0.020000	38.513    	0.020000	14.5011   	
0.025000	13.9383   	0.025000	54.8962   	0.025000	36.6919   	0.025000	36.6919   	0.025000	41.8744   	0.025000	13.0219   	
0.030000	14.3174   	0.030000	56.6942   	0.030000	37.7859   	0.030000	37.7859   	0.030000	44.8375   	0.030000	11.8567   	
0.035000	14.6995   	0.035000	58.4171   	0.035000	38.9181   	0.035000	38.9181   	0.035000	47.5058   	0.035000	10.9113   	
0.040000	15.078    	0.040000	60.0715   	0.040000	40.0667   	0.040000	40.0667   	0.040000	49.9451   	0.040000	10.1263   	
0.045000	15.4498   	0.045000	61.6629   	0.045000	41.2188   	0.045000	41.2188   	0.045000	52.2006   	0.045000	9.46228   	
0.050000	15.8132   	0.050000	63.1963   	0.050000	42.3663   	0.050000	42.3663   	0.050000	54.3043   	0.050000	8.89195   	
0.055000	16.1677   	0.055000	64.6763   	0.055000	43.5041   	0.055000	43.5041   	0.055000	56.2804   	0.055000	8.3959    	
0.060000	16.5131   	0.060000	66.1069   	0.060000	44.6291   	0.060000	44.6291   	0.060000	58.147    	0.060000	7.95983   	
0.070000	17.6799   	0.070000	70.9363   	0.070000	48.406    	0.070000	48.406    	0.070000	63.7093   	0.070000	7.22705   	
0.080000	19.7113   	0.080000	79.8154   	0.080000	55.5123   	0.080000	55.5123   	0.080000	73.1819   	0.080000	6.63344   	
0.090000	21.5791   	0.090000	88.0163   	0.090000	62.5164   	0.090000	62.5164   	0.090000	81.8751   	0.090000	6.14127   	
0.100000	23.3228   	0.100000	95.4205   	0.100000	69.2956   	0.100000	69.2956   	0.100000	89.6949   	0.100000	5.72557   	
0.120000	25.8766   	0.120000	107.74    	0.120000	81.8916   	0.120000	81.8916   	0.120000	102.68    	0.120000	5.05952   	
0.140000	28.0662   	0.140000	117.039   	0.140000	92.9999   	0.140000	92.9999   	0.140000	112.492   	0.140000	4.54712   	
0.160000	30.0656   	0.160000	123.919   	0.160000	102.569   	0.160000	102.569   	0.160000	119.819   	0.160000	4.09995   	
0.180000	31.9767   	0.180000	129.13    	0.180000	110.805   	0.180000	110.805   	0.180000	125.359   	0.180000	3.7705    	
0.200000	33.8514   	0.200000	133.176   	0.200000	117.842   	0.200000	117.842   	0.200000	129.681   	0.200000	3.49497   	
0.250000	37.4096   	0.250000	140.996   	0.250000	131.363   	0.250000	131.363   	0.250000	138.028   	0.250000	2.96799   	
0.300000	40.7158   	0.300000	147.119   	0.300000	140.878   	0.300000	140.878   	0.300000	144.529   	0.300000	2.59045   	
0.350000	43.7283   	0.350000	152.517   	0.350000	147.935   	0.350000	147.935   	0.350000	150.211   	0.350000	2.30526   	
0.400000	46.4467   	0.400000	157.491   	0.400000	153.451   	0.400000	153.451   	0.400000	155.41    	0.400000	2.08144   	
0.450000	48.8846   	0.450000	162.097   	0.450000	157.955   	0.450000	157.955   	0.450000	160.197   	0.450000	1.90061   	
0.500000	51.5196   	0.500000	167.765   	0.500000	161.757   	0.500000	161.757   	0.500000	166.014   	0.500000	1.75116   	
0.600000	54.9357   	0.600000	180.282   	0.600000	167.932   	0.600000	167.932   	0.600000	178.764   	0.600000	1.51786   	
0.700000	56.9224   	0.700000	190.01    	0.700000	172.795   	0.700000	172.795   	0.700000	188.667   	0.700000	1.34346   	
0.800000	60.1662   	0.800000	197.538   	0.800000	177.761   	0.800000	177.761   	0.800000	196.33    	0.800000	1.2077    	
0.900000	62.7789   	0.900000	203.328   	0.900000	182.96    	0.900000	182.96    	0.900000	202.229   	0.900000	1.09873   	
1.000000	64.6134   	1.000000	206.855   	1.000000	187.119   	1.000000	187.119   	1.000000	205.846   	1.000000	1.00916   	
1.250000	67.4869   	1.250000	211.52    	1.250000	194.24    	1.250000	194.24    	1.250000	210.678   	1.250000	0.841731  	
1.500000	69.0474   	1.500000	212.898   	1.500000	198.203   	1.500000	198.203   	1.500000	212.173   	1.500000	0.724866  	
1.750000	69.4967   	1.750000	211.435   	1.750000	200.164   	1.750000	200.164   	1.750000	210.796   	1.750000	0.63829   	
2.000000	69.2176   	2.000000	208.204   	2.000000	200.807   	2.000000	200.807   	2.000000	207.632   	2.000000	0.57137   	
2.250000	68.863    	2.250000	204.776   	2.250000	200.559   	2.250000	200.559   	2.250000	204.258   	2.250000	0.517973  	
2.500000	101.77    	2.500000	201.262   	2.500000	199.699   	2.500000	199.699   	2.500000	200.787   	2.500000	0.474298  	
3.000000	98.7303   	3.000000	194.276   	3.000000	196.83    	3.000000	196.83    	3.000000	193.869   	3.000000	0.40696   	
3.500000	95.3501   	3.500000	187.521   	3.500000	193.11    	3.500000	193.11    	3.500000	187.164   	3.500000	0.357311  	
4.000000	91.937    	4.000000	181.043   	4.000000	189.002   	4.000000	189.002   	4.000000	180.724   	4.000000	0.31908   	
4.500000	88.6274   	4.500000	174.898   	4.500000	184.751   	4.500000	184.751   	4.500000	174.61    	4.500000	0.288671  	
5.000000	85.4795   	5.000000	169.101   	5.000000	180.145   	5.000000	180.145   	5.000000	168.837   	5.000000	0.263865  	
5.500000	82.5137   	5.500000	163.643   	5.500000	175.501   	5.500000	175.501   	5.500000	163.4     	5.500000	0.243217  	
6.000000	79.7324   	6.000000	158.507   	6.000000	171.11    	6.000000	171.11    	6.000000	158.281   	6.000000	0.225744  	
6.500000	77.1292   	6.500000	153.653   	6.500000	166.954   	6.500000	166.954   	6.500000	153.442   	6.500000	0.210752  	
7.000000	74.6937   	7.000000	149.082   	7.000000	163.013   	7.000000	163.013   	7.000000	148.884   	7.000000	0.197738  	
7.500000	72.4139   	7.500000	144.777   	7.500000	159.272   	7.500000	159.272   	7.500000	144.591   	7.500000	0.186329  	
8.000000	70.2777   	8.000000	140.716   	8.000000	155.715   	8.000000	155.715   	8.000000	140.54    	8.000000	0.176238  	
8.500000	68.2736   	8.500000	136.843   	8.500000	152.329   	8.500000	152.329   	8.500000	136.676   	8.500000	0.167245  	
9.000000	66.3905   	9.000000	133.193   	9.000000	149.101   	9.000000	149.101   	9.000000	133.034   	9.000000	0.159178  	
9.500000	64.6184   	9.500000	129.748   	9.500000	146.02    	9.500000	146.02    	9.500000	129.596   	9.500000	0.151897  	
10.000000	62.9482   	10.000000	127.724   	10.000000	143.075   	10.000000	143.075   	10.000000	127.579   	10.000000	0.145291  	
11.000000	59.8807   	11.000000	124.308   	11.000000	136.329   	11.000000	137.67    	11.000000	124.175   	11.000000	0.133752  	
12.000000	57.1306   	12.000000	120.962   	12.000000	130.23    	12.000000	132.698   	12.000000	120.838   	12.000000	0.124004  	
13.000000	54.6509   	13.000000	117.713   	13.000000	124.689   	13.000000	128.111   	13.000000	117.597   	13.000000	0.115651  	
14.000000	52.4033   	14.000000	114.585   	14.000000	119.633   	14.000000	123.864   	14.000000	114.476   	14.000000	0.108411  	
15.000000	50.3561   	15.000000	111.586   	15.000000	115       	15.000000	119.922   	15.000000	111.484   	15.000000	0.10207   	
16.000000	48.4831   	16.000000	108.719   	16.000000	110.74    	16.000000	116.254   	16.000000	108.623   	16.000000	0.0964677 	
17.000000	46.7625   	17.000000	105.984   	17.000000	106.811   	17.000000	112.831   	17.000000	105.892   	17.000000	0.0914804 	
18.000000	45.1761   	18.000000	103.375   	18.000000	103.179   	18.000000	109.63    	18.000000	103.288   	18.000000	0.0870101 	
19.000000	43.7082   	19.000000	100.889   	19.000000	99.8107   	19.000000	106.631   	19.000000	100.806   	19.000000	0.082979  	
20.000000	42.3458   	20.000000	98.5184   	20.000000	96.6762   	20.000000	103.816   	20.000000	98.4391   	20.000000	0.0793243 	
21.000000	41.0775   	21.000000	96.2581   	21.000000	93.7543   	21.000000	101.169   	21.000000	96.1821   	21.000000	0.0759947 	
22.000000	39.8937   	22.000000	94.1016   	22.000000	91.03     	22.000000	98.6748   	22.000000	94.0286   	22.000000	0.0729479 	
23.000000	38.7859   	23.000000	92.043    	23.000000	88.4851   	23.000000	96.3222   	23.000000	91.9728   	23.000000	0.0701487 	
24.000000	37.7469   	24.000000	90.0764   	24.000000	86.1005   	24.000000	94.0998   	24.000000	90.0089   	24.000000	0.0675676 	
25.000000	36.7702   	25.000000	88.1965   	25.000000	83.862    	25.000000	91.9975   	25.000000	88.1313   	25.000000	0.0651796 	
27.000000	34.9819   	27.000000	84.6762   	27.000000	79.7821   	27.000000	88.1191   	27.000000	84.6153   	27.000000	0.0609008 	
29.000000	33.3838   	29.000000	81.4443   	29.000000	76.1671   	29.000000	84.6258   	29.000000	81.3871   	29.000000	0.0571756 	
31.000000	31.946    	31.000000	78.4682   	31.000000	73.2472   	31.000000	81.3606   	31.000000	78.4143   	31.000000	0.0539015 	
33.000000	30.6451   	33.000000	75.7194   	33.000000	70.8545   	33.000000	78.2745   	33.000000	75.6684   	33.000000	0.0509998 	
35.000000	29.4617   	35.000000	73.1734   	35.000000	68.6281   	35.000000	75.4367   	35.000000	73.125    	35.000000	0.0484095 	
38.000000	27.8736   	38.000000	69.6887   	38.000000	65.5709   	38.000000	71.5828   	38.000000	69.6437   	38.000000	0.0450048 	
41.000000	26.4732   	41.000000	66.552    	41.000000	62.8117   	41.000000	68.1421   	41.000000	66.5099   	41.000000	0.0420689 	
44.000000	25.2283   	44.000000	63.7141   	44.000000	60.2999   	44.000000	65.0507   	44.000000	63.6745   	44.000000	0.0395099 	
47.000000	24.1137   	47.000000	61.1341   	47.000000	58.0083   	47.000000	62.2575   	47.000000	61.0969   	47.000000	0.0372584 	
50.000000	23.1094   	50.000000	58.7786   	50.000000	55.9047   	50.000000	59.721    	50.000000	58.7433   	50.000000	0.0352614 	
55.000000	21.6385   	55.000000	55.2771   	55.000000	52.7692   	55.000000	55.9742   	55.000000	55.2447   	55.000000	0.0323898 	
60.000000	20.3736   	60.000000	52.2188   	60.000000	50.0122   	60.000000	52.724    	60.000000	52.1888   	60.000000	0.0299701 	
65.000000	19.2732   	65.000000	49.5244   	65.000000	47.5766   	65.000000	49.8777   	65.000000	49.4965   	65.000000	0.027902  	
70.000000	18.3065   	70.000000	47.1325   	70.000000	45.4057   	70.000000	47.3643   	70.000000	47.1064   	70.000000	0.0261131 	
75.000000	17.4498   	75.000000	44.9948   	75.000000	43.4549   	75.000000	45.1287   	75.000000	44.9702   	75.000000	0.0245495 	
80.000000	16.685    	80.000000	43.0727   	80.000000	41.7007   	80.000000	43.1272   	80.000000	43.0496   	80.000000	0.0231706 	
85.000000	15.9976   	85.000000	41.3353   	85.000000	40.1053   	85.000000	41.325    	85.000000	41.3134   	85.000000	0.0219451 	
90.000000	15.3762   	90.000000	39.7571   	90.000000	38.6562   	90.000000	39.6938   	90.000000	39.7363   	90.000000	0.0208483 	
95.000000	14.8114   	95.000000	38.3173   	95.000000	37.33     	95.000000	38.2105   	95.000000	38.2974   	95.000000	0.0198607 	
100.000000	14.2957   	100.000000	36.9983   	100.000000	36.1119   	100.000000	36.8559   	100.000000	36.9793   	100.000000	0.0189665 	
105.000000	13.8227   	105.000000	35.7856   	105.000000	34.9923   	105.000000	35.614    	105.000000	35.7675   	105.000000	0.0181529 	
110.000000	13.3872   	110.000000	34.667    	110.000000	33.9572   	110.000000	34.4715   	110.000000	34.6496   	110.000000	0.0174093 	
115.000000	12.9849   	115.000000	33.6318   	115.000000	32.9969   	115.000000	33.4168   	115.000000	33.6151   	115.000000	0.0167268 	
120.000000	12.6119   	120.000000	32.6712   	120.000000	32.1033   	120.000000	32.4404   	120.000000	32.6551   	120.000000	0.0160982 	
125.000000	12.2651   	125.000000	31.7773   	125.000000	31.2709   	125.000000	31.5339   	125.000000	31.7618   	125.000000	0.0155172 	
130.000000	11.9417   	130.000000	30.9435   	130.000000	30.4949   	130.000000	30.69     	130.000000	30.9285   	130.000000	0.0149786 	
135.000000	11.6394   	135.000000	30.1639   	135.000000	29.7674   	135.000000	29.9026   	135.000000	30.1495   	135.000000	0.0144777 	
140.000000	11.3561   	140.000000	29.4335   	140.000000	29.0858   	140.000000	29.1663   	140.000000	29.4195   	140.000000	0.0140107 	
145.000000	11.0901   	145.000000	28.7478   	145.000000	28.4458   	145.000000	28.4762   	145.000000	28.7342   	145.000000	0.0135742 	
150.000000	10.8398   	150.000000	28.1028   	150.000000	27.8422   	150.000000	27.8282   	150.000000	28.0896   	150.000000	0.0131653 	
155.000000	10.4799   	155.000000	27.4949   	155.000000	27.2738   	155.000000	27.2186   	155.000000	27.4822   	155.000000	0.0127814 	
160.000000	10.2727   	160.000000	26.9212   	160.000000	26.7372   	160.000000	26.644    	160.000000	26.9088   	160.000000	0.0124202 	
165.000000	10.0769   	165.000000	26.3789   	165.000000	26.2287   	165.000000	26.1017   	165.000000	26.3668   	165.000000	0.0120798 	
170.000000	9.89139   	170.000000	25.8654   	170.000000	25.7461   	170.000000	25.589    	170.000000	25.8536   	170.000000	0.0117583 	
175.000000	9.71548   	175.000000	25.3785   	175.000000	25.2882   	175.000000	25.1035   	175.000000	25.367    	175.000000	0.0114543 	
180.000000	9.54841   	180.000000	24.9162   	180.000000	24.8536   	180.000000	24.6432   	180.000000	24.9051   	180.000000	0.0111663 	
185.000000	9.38952   	185.000000	24.4768   	185.000000	24.4409   	185.000000	24.2062   	185.000000	24.4659   	185.000000	0.010893  	
190.000000	9.23822   	190.000000	24.0586   	190.000000	24.0482   	190.000000	23.7907   	190.000000	24.048    	190.000000	0.0106334 	
195.000000	9.09396   	195.000000	23.6601   	195.000000	23.6735   	195.000000	23.3953   	195.000000	23.6497   	195.000000	0.0103864 	
200.000000	8.95626   	200.000000	23.2799   	200.000000	23.3154   	200.000000	23.0186   	200.000000	23.2698   	200.000000	0.0101512 	
210.000000	8.69883   	210.000000	22.57     	210.000000	22.6457   	210.000000	22.3161   	210.000000	22.5603   	210.000000	0.00971255	
220.000000	8.46282   	220.000000	21.9201   	220.000000	22.0334   	220.000000	21.6745   	220.000000	21.9108   	220.000000	0.00931182	
230.000000	8.24566   	230.000000	21.323    	230.000000	21.4706   	230.000000	21.0861   	230.000000	21.3141   	230.000000	0.0089442 	
240.000000	8.04515   	240.000000	20.7728   	240.000000	20.9503   	240.000000	20.5448   	240.000000	20.7642   	240.000000	0.0086057 	
250.000000	7.85945   	250.000000	20.264    	250.000000	20.4691   	250.000000	20.0453   	250.000000	20.2557   	250.000000	0.00829294	
260.000000	7.68697   	260.000000	19.7924   	260.000000	20.0234   	260.000000	19.583    	260.000000	19.7844   	260.000000	0.00800306	
270.000000	7.52634   	270.000000	19.354    	270.000000	19.6095   	270.000000	19.1539   	270.000000	19.3463   	270.000000	0.00773358	
280.000000	7.3764    	280.000000	18.9456   	280.000000	19.2239   	280.000000	18.7547   	280.000000	18.9381   	280.000000	0.00748242	
290.000000	7.2361    	290.000000	18.5641   	290.000000	18.8632   	290.000000	18.3825   	290.000000	18.5569   	290.000000	0.00724772	
300.000000	7.10455   	300.000000	18.2072   	300.000000	18.5243   	300.000000	18.0347   	300.000000	18.2002   	300.000000	0.00702791	
310.000000	6.98097   	310.000000	17.8725   	310.000000	18.2068   	310.000000	17.709    	310.000000	17.8657   	310.000000	0.00682159	
320.000000	6.86466   	320.000000	17.5582   	320.000000	17.9098   	320.000000	17.4034   	320.000000	17.5515   	320.000000	0.00662753	
330.000000	6.755     	330.000000	17.2623   	330.000000	17.6298   	330.000000	17.1162   	330.000000	17.2559   	330.000000	0.00644467	
340.000000	6.65144   	340.000000	16.9835   	340.000000	17.3654   	340.000000	16.8459   	340.000000	16.9773   	340.000000	0.00627204	
350.000000	6.5535    	350.000000	16.7204   	350.000000	17.1161   	350.000000	16.591    	350.000000	16.7143   	350.000000	0.0061088 	
360.000000	6.46075   	360.000000	16.4716   	360.000000	16.8808   	360.000000	16.3503   	360.000000	16.4656   	360.000000	0.00595419	
370.000000	6.37278   	370.000000	16.2361   	370.000000	16.658    	370.000000	16.1227   	370.000000	16.2303   	370.000000	0.00580754	
380.000000	6.28925   	380.000000	16.0129   	380.000000	16.4463   	380.000000	15.9072   	380.000000	16.0072   	380.000000	0.00566823	
390.000000	6.20984   	390.000000	15.8011   	390.000000	16.2452   	390.000000	15.7029   	390.000000	15.7955   	390.000000	0.00553573	
400.000000	6.13426   	400.000000	15.5998   	400.000000	16.0543   	400.000000	15.509    	400.000000	15.5944   	400.000000	0.00540953	
410.000000	6.06224   	410.000000	15.4084   	410.000000	15.8729   	410.000000	15.3248   	410.000000	15.4031   	410.000000	0.0052892 	
420.000000	5.99356   	420.000000	15.2262   	420.000000	15.7002   	420.000000	15.1495   	420.000000	15.221    	420.000000	0.00517432	
430.000000	5.92798   	430.000000	15.0525   	430.000000	15.5357   	430.000000	14.9826   	430.000000	15.0475   	430.000000	0.00506454	
440.000000	5.86532   	440.000000	14.8869   	440.000000	15.379    	440.000000	14.8235   	440.000000	14.8819   	440.000000	0.0049595 	
450.000000	5.8054    	450.000000	14.7287   	450.000000	15.2293   	450.000000	14.6717   	450.000000	14.7238   	450.000000	0.00485892	
460.000000	5.74804   	460.000000	14.5775   	460.000000	15.0859   	460.000000	14.5268   	460.000000	14.5727   	460.000000	0.0047625 	
470.000000	5.69309   	470.000000	14.4329   	470.000000	14.9486   	470.000000	14.3883   	470.000000	14.4283   	470.000000	0.00466998	
480.000000	5.64041   	480.000000	14.2946   	480.000000	14.8171   	480.000000	14.2558   	480.000000	14.29     	480.000000	0.00458115	
490.000000	5.58988   	490.000000	14.162    	490.000000	14.6914   	490.000000	14.129    	490.000000	14.1575   	490.000000	0.00449576	
500.000000	5.54137   	500.000000	14.035    	500.000000	14.5709   	500.000000	14.0075   	500.000000	14.0306   	500.000000	0.00441363	
520.000000	5.44997   	520.000000	13.7962   	520.000000	14.3444   	520.000000	13.7793   	520.000000	13.7919   	520.000000	0.00425841	
540.000000	5.36542   	540.000000	13.5759   	540.000000	14.1357   	540.000000	13.569    	540.000000	13.5718   	540.000000	0.00411416	
560.000000	5.28704   	560.000000	13.3722   	560.000000	13.9426   	560.000000	13.3748   	560.000000	13.3683   	560.000000	0.00397974	
580.000000	5.21422   	580.000000	13.1835   	580.000000	13.763    	580.000000	13.195    	580.000000	13.1797   	580.000000	0.00385417	
600.000000	5.14644   	600.000000	13.0084   	600.000000	13.5968   	600.000000	13.0282   	600.000000	13.0046   	600.000000	0.00373659	
620.000000	5.08325   	620.000000	12.8455   	620.000000	13.4426   	620.000000	12.8731   	620.000000	12.8418   	620.000000	0.00362625	
640.000000	5.02425   	640.000000	12.6937   	640.000000	13.2983   	640.000000	12.7287   	640.000000	12.6902   	640.000000	0.00352249	
660.000000	4.96907   	660.000000	12.5521   	660.000000	13.1634   	660.000000	12.5939   	660.000000	12.5487   	660.000000	0.00342473	
680.000000	4.9174    	680.000000	12.4198   	680.000000	13.0373   	680.000000	12.468    	680.000000	12.4165   	680.000000	0.00333246	
700.000000	4.86895   	700.000000	12.296    	700.000000	12.9194   	700.000000	12.3502   	700.000000	12.2927   	700.000000	0.00324523	
720.000000	4.82348   	720.000000	12.18     	720.000000	12.8089   	720.000000	12.2397   	720.000000	12.1769   	720.000000	0.00316262	
740.000000	4.78077   	740.000000	12.0713   	740.000000	12.705    	740.000000	12.1361   	740.000000	12.0682   	740.000000	0.00308428	
760.000000	4.74059   	760.000000	11.9692   	760.000000	12.6069   	760.000000	12.0387   	760.000000	11.9662   	760.000000	0.00300988	
780.000000	4.70278   	780.000000	11.8733   	780.000000	12.5146   	780.000000	11.9471   	780.000000	11.8703   	780.000000	0.00293912	
800.000000	4.66717   	800.000000	11.7831   	800.000000	12.428    	800.000000	11.8608   	800.000000	11.7802   	800.000000	0.00287174	
820.000000	4.6336    	820.000000	11.6982   	820.000000	12.3465   	820.000000	11.7795   	820.000000	11.6954   	820.000000	0.0028075 	
840.000000	4.60194   	840.000000	11.6182   	840.000000	12.2695   	840.000000	11.7028   	840.000000	11.6155   	840.000000	0.00274619	
860.000000	4.57206   	860.000000	11.5429   	860.000000	12.1965   	860.000000	11.6303   	860.000000	11.5402   	860.000000	0.00268759	
880.000000	4.54385   	880.000000	11.4718   	880.000000	12.1273   	880.000000	11.5618   	880.000000	11.4692   	880.000000	0.00263155	
900.000000	4.51721   	900.000000	11.4047   	900.000000	12.0619   	900.000000	11.4971   	900.000000	11.4022   	900.000000	0.00257788	
920.000000	4.49204   	920.000000	11.3415   	920.000000	11.9999   	920.000000	11.4357   	920.000000	11.3389   	920.000000	0.00252644	
940.000000	4.46825   	940.000000	11.2817   	940.000000	11.9413   	940.000000	11.3776   	940.000000	11.2792   	940.000000	0.0024771 	
960.000000	4.44577   	960.000000	11.2253   	960.000000	11.8856   	960.000000	11.3225   	960.000000	11.2228   	960.000000	0.00242972	
980.000000	4.42451   	980.000000	11.1719   	980.000000	11.8328   	980.000000	11.2702   	980.000000	11.1696   	980.000000	0.00238419	
1000.000000	4.40441   	1000.000000	11.1215   	1000.000000	11.7827   	1000.000000	11.2206   	1000.000000	11.1192   	1000.000000	0.0023404 	
1020.000000	4.3854    	1020.000000	11.0739   	1020.000000	11.735    	1020.000000	11.1735   	1020.000000	11.0716   	1020.000000	0.00229825	
1040.000000	4.36743   	1040.000000	11.0289   	1040.000000	11.6898   	1040.000000	11.1287   	1040.000000	11.0266   	1040.000000	0.00225765	
1060.000000	4.35044   	1060.000000	10.9863   	1060.000000	11.6467   	1060.000000	11.0861   	1060.000000	10.9841   	1060.000000	0.00221852	
1080.000000	4.33438   	1080.000000	10.9461   	1080.000000	11.6058   	1080.000000	11.0456   	1080.000000	10.9439   	1080.000000	0.00218077	
1100.000000	4.31921   	1100.000000	10.908    	1100.000000	11.5668   	1100.000000	11.0071   	1100.000000	10.9059   	1100.000000	0.00214433	
1120.000000	4.30487   	1120.000000	10.8721   	1120.000000	11.5296   	1120.000000	10.9704   	1120.000000	10.87     	1120.000000	0.00210914	
1140.000000	4.29133   	1140.000000	10.8381   	1140.000000	11.4941   	1140.000000	10.9355   	1140.000000	10.8361   	1140.000000	0.00207513	
1160.000000	4.27855   	1160.000000	10.8061   	1160.000000	11.4602   	1160.000000	10.9022   	1160.000000	10.804    	1160.000000	0.00204224	
1180.000000	4.26649   	1180.000000	10.7758   	1180.000000	11.4279   	1180.000000	10.8705   	1180.000000	10.7738   	1180.000000	0.00201042	
1200.000000	4.25513   	1200.000000	10.7472   	1200.000000	11.3972   	1200.000000	10.8402   	1200.000000	10.7452   	1200.000000	0.00197961	
1220.000000	4.24442   	1220.000000	10.7202   	1220.000000	11.3678   	1220.000000	10.8114   	1220.000000	10.7182   	1220.000000	0.00194977	
1240.000000	4.23434   	1240.000000	10.6948   	1240.000000	11.3399   	1240.000000	10.7839   	1240.000000	10.6928   	1240.000000	0.00192085	
1260.000000	4.22486   	1260.000000	10.6708   	1260.000000	11.3132   	1260.000000	10.7577   	1260.000000	10.6689   	1260.000000	0.00189281	
1280.000000	4.21595   	1280.000000	10.6482   	1280.000000	11.2878   	1280.000000	10.7326   	1280.000000	10.6464   	1280.000000	0.0018656 	
1300.000000	4.2076    	1300.000000	10.627    	1300.000000	11.2635   	1300.000000	10.7088   	1300.000000	10.6252   	1300.000000	0.0018392 	
1320.000000	4.19977   	1320.000000	10.607    	1320.000000	11.2402   	1320.000000	10.6859   	1320.000000	10.6052   	1320.000000	0.00181356	
1340.000000	4.19245   	1340.000000	10.5883   	1340.000000	11.2181   	1340.000000	10.6642   	1340.000000	10.5865   	1340.000000	0.00178866	
1360.000000	4.18561   	1360.000000	10.5707   	1360.000000	11.1969   	1360.000000	10.6434   	1360.000000	10.569    	1360.000000	0.00176445	
1380.000000	4.17924   	1380.000000	10.5543   	1380.000000	11.1766   	1380.000000	10.6235   	1380.000000	10.5526   	1380.000000	0.00174092	
1400.000000	4.17332   	1400.000000	10.5389   	1400.000000	11.1573   	1400.000000	10.6046   	1400.000000	10.5372   	1400.000000	0.00171803	
1420.000000	4.16782   	1420.000000	10.5246   	1420.000000	11.1388   	1420.000000	10.5865   	1420.000000	10.5229   	1420.000000	0.00169576	
1440.000000	4.16274   	1440.000000	10.5112   	1440.000000	11.1211   	1440.000000	10.5692   	1440.000000	10.5096   	1440.000000	0.00167408	
1460.000000	4.15805   	1460.000000	10.4988   	1460.000000	11.1042   	1460.000000	10.5527   	1460.000000	10.4972   	1460.000000	0.00165296	
1480.000000	4.15375   	1480.000000	10.4873   	1480.000000	11.088    	1480.000000	10.5369   	1480.000000	10.4857   	1480.000000	0.0016324 	
1500.000000	4.14981   	1500.000000	10.4767   	1500.000000	11.0726   	1500.000000	10.5219   	1500.000000	10.4751   	1500.000000	0.00161236	
1520.000000	4.14623   	1520.000000	10.4669   	1520.000000	11.0578   	1520.000000	10.5075   	1520.000000	10.4653   	1520.000000	0.00159282	
1540.000000	4.14299   	1540.000000	10.4579   	1540.000000	11.0437   	1540.000000	10.4938   	1540.000000	10.4563   	1540.000000	0.00157377	
1560.000000	4.14008   	1560.000000	10.4496   	1560.000000	11.0302   	1560.000000	10.4807   	1560.000000	10.4481   	1560.000000	0.00155519	
1580.000000	4.13749   	1580.000000	10.4422   	1580.000000	11.0174   	1580.000000	10.4682   	1580.000000	10.4406   	1580.000000	0.00153706	
1600.000000	4.13521   	1600.000000	10.4354   	1600.000000	11.0051   	1600.000000	10.4563   	1600.000000	10.4339   	1600.000000	0.00151936	
1620.000000	4.13322   	1620.000000	10.4293   	1620.000000	10.9934   	1620.000000	10.4449   	1620.000000	10.4278   	1620.000000	0.00150208	
1640.000000	4.13153   	1640.000000	10.4239   	1640.000000	10.9822   	1640.000000	10.434    	1640.000000	10.4225   	1640.000000	0.0014852 	
1660.000000	4.13011   	1660.000000	10.4192   	1660.000000	10.9715   	1660.000000	10.4237   	1660.000000	10.4177   	1660.000000	0.00146872	
1680.000000	4.12896   	1680.000000	10.415    	1680.000000	10.9613   	1680.000000	10.4138   	1680.000000	10.4136   	1680.000000	0.00145261	
1700.000000	4.12807   	1700.000000	10.4115   	1700.000000	10.9516   	1700.000000	10.4044   	1700.000000	10.4101   	1700.000000	0.00143686	
1750.000000	4.12693   	1750.000000	10.4051   	1750.000000	10.9293   	1750.000000	10.3828   	1750.000000	10.4037   	1750.000000	0.001399  	
1800.000000	4.12725   	1800.000000	10.4021   	1800.000000	10.9095   	1800.000000	10.3638   	1800.000000	10.4007   	1800.000000	0.00136315	
1850.000000	4.12891   	1850.000000	10.4021   	1850.000000	10.8921   	1850.000000	10.347    	1850.000000	10.4007   	1850.000000	0.00132916	
1900.000000	4.13184   	1900.000000	10.4049   	1900.000000	10.8767   	1900.000000	10.3323   	1900.000000	10.4036   	1900.000000	0.00129689	
1950.000000	4.13593   	1950.000000	10.4103   	1950.000000	10.8632   	1950.000000	10.3195   	1950.000000	10.409    	1950.000000	0.0012662 	
2000.000000	4.14111   	2000.000000	10.4181   	2000.000000	10.8515   	2000.000000	10.3084   	2000.000000	10.4168   	2000.000000	0.00123699	
2100.000000	4.15445   	2100.000000	10.4402   	2100.000000	10.8328   	2100.000000	10.2909   	2100.000000	10.439    	2100.000000	0.00118256	
2200.000000	4.17138   	2200.000000	10.4699   	2200.000000	10.8195   	2200.000000	10.2786   	2200.000000	10.4688   	2200.000000	0.00113288	
2300.000000	4.19149   	2300.000000	10.5064   	2300.000000	10.8107   	2300.000000	10.2708   	2300.000000	10.5053   	2300.000000	0.00108735	
2400.000000	4.21441   	2400.000000	10.5488   	2400.000000	10.8057   	2400.000000	10.2668   	2400.000000	10.5477   	2400.000000	0.00104546	
2500.000000	4.23988   	2500.000000	10.5963   	2500.000000	10.804    	2500.000000	10.2659   	2500.000000	10.5952   	2500.000000	0.00100679	
2600.000000	4.26762   	2600.000000	10.6483   	2600.000000	10.8051   	2600.000000	10.2678   	2600.000000	10.6473   	2600.000000	0.000970977	
2700.000000	4.29744   	2700.000000	10.7044   	2700.000000	10.8086   	2700.000000	10.272    	2700.000000	10.7034   	2700.000000	0.000937709	
2800.000000	4.32914   	2800.000000	10.764    	2800.000000	10.8141   	2800.000000	10.2782   	2800.000000	10.7631   	2800.000000	0.000906722	
2900.000000	4.36257   	2900.000000	10.8269   	2900.000000	10.8214   	2900.000000	10.2861   	2900.000000	10.826    	2900.000000	0.000877788	
3000.000000	4.39759   	3000.000000	10.8927   	3000.000000	10.8302   	3000.000000	10.2955   	3000.000000	10.8918   	3000.000000	0.000850706	
3200.000000	4.47191   	3200.000000	11.0318   	3200.000000	10.8514   	3200.000000	10.3178   	3200.000000	11.031    	3200.000000	0.000801424	
3400.000000	4.55129   	3400.000000	11.1794   	3400.000000	10.8764   	3400.000000	10.3439   	3400.000000	11.1786   	3400.000000	0.000757717	
3600.000000	4.63509   	3600.000000	11.3341   	3600.000000	10.9042   	3600.000000	10.3727   	3600.000000	11.3334   	3600.000000	0.000718682	
3800.000000	4.72281   	3800.000000	11.4947   	3800.000000	10.934    	3800.000000	10.4035   	3800.000000	11.4941   	3800.000000	0.000683598	
4000.000000	4.81403   	4000.000000	11.6604   	4000.000000	10.9652   	4000.000000	10.4357   	4000.000000	11.6597   	4000.000000	0.00065189	
4200.000000	4.90842   	4200.000000	11.8302   	4200.000000	10.9975   	4200.000000	10.469    	4200.000000	11.8296   	4200.000000	0.000623086	
4400.000000	5.0057    	4400.000000	12.0036   	4400.000000	11.0306   	4400.000000	10.5029   	4400.000000	12.003    	4400.000000	0.000596802	
4600.000000	5.10564   	4600.000000	12.1802   	4600.000000	11.0641   	4600.000000	10.5373   	4600.000000	12.1796   	4600.000000	0.000572716	
4800.000000	5.20805   	4800.000000	12.3594   	4800.000000	11.0979   	4800.000000	10.5718   	4800.000000	12.3588   	4800.000000	0.000550562	
5000.000000	5.31278   	5000.000000	12.5409   	5000.000000	11.1318   	5000.000000	10.6064   	5000.000000	12.5404   	5000.000000	0.000530113	
5250.000000	5.44672   	5250.000000	12.7707   	5250.000000	11.1742   	5250.000000	10.6496   	5250.000000	12.7702   	5250.000000	0.00050666	
5500.000000	5.58382   	5500.000000	13.0031   	5500.000000	11.2163   	5500.000000	10.6924   	5500.000000	13.0026   	5500.000000	0.00048526	
6000.000000	5.86679   	6000.000000	13.4744   	6000.000000	11.2993   	6000.000000	10.7768   	6000.000000	13.474    	6000.000000	0.000447616	
6500.000000	6.1605    	6500.000000	13.9525   	6500.000000	11.3793   	6500.000000	10.8589   	6500.000000	13.9521   	6500.000000	0.000415558	
7000.000000	6.46411   	7000.000000	14.4355   	7000.000000	11.4572   	7000.000000	10.9383   	7000.000000	14.4351   	7000.000000	0.000387915	
7500.000000	6.77699   	7500.000000	14.9223   	7500.000000	11.5323   	7500.000000	11.015    	7500.000000	14.9219   	7500.000000	0.000363827	
8000.000000	7.09865   	8000.000000	15.4119   	8000.000000	11.6043   	8000.000000	11.0889   	8000.000000	15.4115   	8000.000000	0.000342643	
8500.000000	7.42874   	8500.000000	15.9035   	8500.000000	11.6736   	8500.000000	11.1601   	8500.000000	15.9032   	8500.000000	0.000323862	
9000.000000	7.76696   	9000.000000	16.3968   	9000.000000	11.7405   	9000.000000	11.2287   	9000.000000	16.3965   	9000.000000	0.000307093	
9500.000000	8.11311   	9500.000000	16.8912   	9500.000000	11.8048   	9500.000000	11.2948   	9500.000000	16.8909   	9500.000000	0.000292027	
10000.000000	8.46699   	10000.000000	17.3864   	10000.000000	11.8667   	10000.000000	11.3585   	10000.000000	17.3861   	10000.000000	0.000278414	
11000.000000	9.19742   	11000.000000	18.3785   	11000.000000	11.9837   	11000.000000	11.4793   	11000.000000	18.3782   	11000.000000	0.000254774	
12000.000000	9.9574    	12000.000000	19.3715   	12000.000000	12.0923   	12000.000000	11.592    	12000.000000	19.3712   	12000.000000	0.00023494	
13000.000000	10.7464   	13000.000000	20.3645   	13000.000000	12.1934   	13000.000000	11.6976   	13000.000000	20.3643   	13000.000000	0.000218054	
14000.000000	11.5639   	14000.000000	21.3569   	14000.000000	12.2879   	14000.000000	11.7968   	14000.000000	21.3567   	14000.000000	0.000203499	
15000.000000	12.4098   	15000.000000	22.3484   	15000.000000	12.3765   	15000.000000	11.8903   	15000.000000	22.3482   	15000.000000	0.000190819	
16000.000000	13.2839   	16000.000000	23.3386   	16000.000000	12.4598   	16000.000000	11.9786   	16000.000000	23.3384   	16000.000000	0.00017967	
17000.000000	14.1861   	17000.000000	24.3273   	17000.000000	12.5382   	17000.000000	12.0623   	17000.000000	24.3271   	17000.000000	0.000169788	
18000.000000	15.1163   	18000.000000	25.3145   	18000.000000	12.6123   	18000.000000	12.1417   	18000.000000	25.3143   	18000.000000	0.000160968	
19000.000000	16.0745   	19000.000000	26.3      	19000.000000	12.6828   	19000.000000	12.2174   	19000.000000	26.2999   	19000.000000	0.000153044	
20000.000000	17.0608   	20000.000000	27.2839   	20000.000000	12.7499   	20000.000000	12.2896   	20000.000000	27.2838   	20000.000000	0.000145886	
21000.000000	18.0751   	21000.000000	28.2661   	21000.000000	12.8136   	21000.000000	12.3586   	21000.000000	28.266    	21000.000000	0.000139387	
22000.000000	19.1176   	22000.000000	29.2467   	22000.000000	12.8736   	22000.000000	12.4248   	22000.000000	29.2466   	22000.000000	0.000133459	
23000.000000	20.1883   	23000.000000	30.2256   	23000.000000	12.9308   	23000.000000	12.4882   	23000.000000	30.2254   	23000.000000	0.000128029	
24000.000000	21.2873   	24000.000000	31.2028   	24000.000000	12.9856   	24000.000000	12.5491   	24000.000000	31.2027   	24000.000000	0.000123036	
25000.000000	22.4147   	25000.000000	32.1784   	25000.000000	13.0381   	25000.000000	12.6078   	25000.000000	32.1783   	25000.000000	0.000118429	
26000.000000	23.5706   	26000.000000	33.1524   	26000.000000	13.0882   	26000.000000	12.6643   	26000.000000	33.1523   	26000.000000	0.000114165	
27000.000000	24.7551   	27000.000000	34.1249   	27000.000000	13.1362   	27000.000000	12.7188   	27000.000000	34.1247   	27000.000000	0.000110206	
28000.000000	25.9683   	28000.000000	35.0958   	28000.000000	13.1822   	28000.000000	12.7714   	28000.000000	35.0957   	28000.000000	0.00010652	
29000.000000	27.2104   	29000.000000	36.0652   	29000.000000	13.2263   	29000.000000	12.8224   	29000.000000	36.0651   	29000.000000	0.00010308	
30000.000000	28.4815   	30000.000000	37.0331   	30000.000000	13.2688   	30000.000000	12.8717   	30000.000000	37.033    	30000.000000	9.98621e-05	
32000.000000	31.1111   	32000.000000	38.9647   	32000.000000	13.3489   	32000.000000	12.9658   	32000.000000	38.9647   	32000.000000	9.40094e-05	
34000.000000	33.8582   	34000.000000	40.8909   	34000.000000	13.4233   	34000.000000	13.0545   	34000.000000	40.8908   	34000.000000	8.88231e-05	
36000.000000	36.724    	36000.000000	42.8118   	36000.000000	13.4924   	36000.000000	13.1384   	36000.000000	42.8117   	36000.000000	8.41945e-05	
38000.000000	39.7098   	38000.000000	44.7277   	38000.000000	13.5569   	38000.000000	13.2179   	38000.000000	44.7276   	38000.000000	8.00374e-05	
40000.000000	42.8166   	40000.000000	46.6388   	40000.000000	13.6172   	40000.000000	13.2935   	40000.000000	46.6388   	40000.000000	7.62826e-05	
42000.000000	46.0458   	42000.000000	48.5454   	42000.000000	13.6738   	42000.000000	13.3655   	42000.000000	48.5453   	42000.000000	7.2874e-05	
44000.000000	49.3986   	44000.000000	50.4476   	44000.000000	13.7273   	44000.000000	13.4344   	44000.000000	50.4475   	44000.000000	6.97653e-05	
46000.000000	52.8764   	46000.000000	52.3456   	46000.000000	13.7781   	46000.000000	13.5002   	46000.000000	52.3455   	46000.000000	6.69183e-05	
48000.000000	56.4803   	48000.000000	54.2396   	48000.000000	13.8263   	48000.000000	13.5634   	48000.000000	54.2395   	48000.000000	6.43009e-05	
50000.000000	60.2118   	50000.000000	56.1297   	50000.000000	13.8718   	50000.000000	13.624    	50000.000000	56.1296   	50000.000000	6.18862e-05	
