Energy (MeV/u)1	0 - [He-base] F.Hubert et al, AD&ND Tables 46(1990)1	Energy (MeV/u)2	1 - [H -base] J.F.Ziegler et al, Pergamon Press, NY (low energy)	Energy (MeV/u)3	2 - ATIMA 1.2  LS-theory (recommended for high energy)	Energy (MeV/u)4	3 - ATIMA 1.2  without LS-correction	Energy (MeV/u)5	4 - electrical component of [1] - J.F.Ziegler et al	Energy (MeV/u)6	5 - nuclear component of [1] - J.F.Ziegler et al	
0.001000	1.07006   	0.001000	0.965778  	0.001000	1.01289   	0.001000	1.01289   	0.001000	0.547443  	0.001000	0.418336  	
0.002000	1.1755    	0.002000	1.02294   	0.002000	1.08644   	0.002000	1.08644   	0.002000	0.717293  	0.002000	0.305648  	
0.005000	1.44601   	0.005000	1.20701   	0.005000	1.30412   	0.005000	1.30412   	0.005000	1.02619   	0.005000	0.180821  	
0.008000	1.65768   	0.008000	1.36666   	0.008000	1.48889   	0.008000	1.48889   	0.008000	1.23363   	0.008000	0.13303   	
0.010000	1.77722   	0.010000	1.46046   	0.010000	1.59715   	0.010000	1.59715   	0.010000	1.34646   	0.010000	0.114002  	
0.015000	2.08117   	0.015000	1.66222   	0.015000	1.82661   	0.015000	1.82661   	0.015000	1.57739   	0.015000	0.0848291 	
0.020000	2.32471   	0.020000	1.83396   	0.020000	2.04634   	0.020000	2.04634   	0.020000	1.76528   	0.020000	0.0686787 	
0.025000	2.5987    	0.025000	2.03637   	0.025000	2.25807   	0.025000	2.25807   	0.025000	1.97829   	0.025000	0.0580809 	
0.030000	2.83144   	0.030000	2.22837   	0.030000	2.44028   	0.030000	2.44028   	0.030000	2.17783   	0.030000	0.0505374 	
0.035000	3.02302   	0.035000	2.40821   	0.035000	2.61248   	0.035000	2.61248   	0.035000	2.36335   	0.035000	0.0448661 	
0.040000	3.17408   	0.040000	2.57601   	0.040000	2.77515   	0.040000	2.77515   	0.040000	2.53558   	0.040000	0.0404315 	
0.045000	3.2854    	0.045000	2.73185   	0.045000	2.92869   	0.045000	2.92869   	0.045000	2.69499   	0.045000	0.0368593 	
0.050000	3.35418   	0.050000	2.87163   	0.050000	3.07341   	0.050000	3.07341   	0.050000	2.83771   	0.050000	0.0339142 	
0.055000	3.49622   	0.055000	3.02306   	0.055000	3.20959   	0.055000	3.20959   	0.055000	2.99162   	0.055000	0.0314403 	
0.060000	3.61597   	0.060000	3.16555   	0.060000	3.33752   	0.060000	3.33752   	0.060000	3.13622   	0.060000	0.0293301 	
0.070000	3.7952    	0.070000	3.424     	0.070000	3.56968   	0.070000	3.56968   	0.070000	3.39809   	0.070000	0.0259143 	
0.080000	3.98649   	0.080000	3.64426   	0.080000	3.77208   	0.080000	3.77208   	0.080000	3.621     	0.080000	0.0232618 	
0.090000	4.12903   	0.090000	3.83183   	0.090000	3.94699   	0.090000	3.94699   	0.090000	3.81069   	0.090000	0.0211373 	
0.100000	4.23509   	0.100000	3.98934   	0.100000	4.09671   	0.100000	4.09671   	0.100000	3.96995   	0.100000	0.0193939 	
0.120000	4.27307   	0.120000	4.23505   	0.120000	4.32986   	0.120000	4.32986   	0.120000	4.21835   	0.120000	0.0166958 	
0.140000	4.26832   	0.140000	4.39727   	0.140000	4.48928   	0.140000	4.48928   	0.140000	4.38257   	0.140000	0.0146978 	
0.160000	4.27435   	0.160000	4.51614   	0.160000	4.59085   	0.160000	4.59085   	0.160000	4.50299   	0.160000	0.0131539 	
0.180000	4.2995    	0.180000	4.61502   	0.180000	4.64799   	0.180000	4.64799   	0.180000	4.60309   	0.180000	0.0119224 	
0.200000	4.32179   	0.200000	4.67171   	0.200000	4.67169   	0.200000	4.67169   	0.200000	4.6608    	0.200000	0.0109154 	
0.250000	4.26895   	0.250000	4.70655   	0.250000	4.63703   	0.250000	4.63703   	0.250000	4.6975    	0.250000	0.00904611	
0.300000	4.25137   	0.300000	4.6971    	0.300000	4.53237   	0.300000	4.53237   	0.300000	4.68935   	0.300000	0.00775209	
0.350000	4.22693   	0.350000	4.65691   	0.350000	4.4311    	0.350000	4.4311    	0.350000	4.65011   	0.350000	0.00679949	
0.400000	4.22129   	0.400000	4.63497   	0.400000	4.32343   	0.400000	4.32343   	0.400000	4.62891   	0.400000	0.00606691	
0.450000	4.19162   	0.450000	4.59482   	0.450000	4.20874   	0.450000	4.20874   	0.450000	4.58933   	0.450000	0.00548483	
0.500000	4.13846   	0.500000	4.53644   	0.500000	4.0932    	0.500000	4.0932    	0.500000	4.53143   	0.500000	0.00501043	
0.600000	3.85489   	0.600000	4.28116   	0.600000	3.86807   	0.600000	3.86807   	0.600000	4.27688   	0.600000	0.00428219	
0.700000	3.5579    	0.700000	4.02968   	0.700000	3.67067   	0.700000	3.67067   	0.700000	4.02593   	0.700000	0.00374786	
0.800000	3.39064   	0.800000	3.78337   	0.800000	3.4967    	0.800000	3.4967    	0.800000	3.78003   	0.800000	0.00333806	
0.900000	3.23229   	0.900000	3.56156   	0.900000	3.34157   	0.900000	3.34157   	0.900000	3.55855   	0.900000	0.00301318	
1.000000	3.08434   	1.000000	3.36113   	1.000000	3.20165   	1.000000	3.20165   	1.000000	3.35838   	1.000000	0.0027489 	
1.250000	2.74086   	1.250000	2.99779   	1.250000	2.88912   	1.250000	2.88912   	1.250000	2.99553   	1.250000	0.00226188	
1.500000	2.46359   	1.500000	2.71269   	1.500000	2.63878   	1.500000	2.63878   	1.500000	2.71077   	1.500000	0.00192763	
1.750000	2.23716   	1.750000	2.48357   	1.750000	2.43135   	1.750000	2.43135   	1.750000	2.48189   	1.750000	0.00168322	
2.000000	2.03802   	2.000000	2.28154   	2.000000	2.25476   	2.000000	2.25476   	2.000000	2.28004   	2.000000	0.00149629	
2.250000	1.87382   	2.250000	2.09947   	2.250000	2.10202   	2.250000	2.10202   	2.250000	2.09812   	2.250000	0.00134844	
2.500000	1.70108   	2.500000	1.94923   	2.500000	1.96848   	2.500000	1.96848   	2.500000	1.948     	2.500000	0.00122841	
3.000000	1.50152   	3.000000	1.71242   	3.000000	1.74646   	3.000000	1.74646   	3.000000	1.71137   	3.000000	0.00104504	
3.500000	1.34619   	3.500000	1.53143   	3.500000	1.56951   	3.500000	1.56951   	3.500000	1.53052   	3.500000	0.000911236	
4.000000	1.22169   	4.000000	1.38716   	4.000000	1.42558   	4.000000	1.42558   	4.000000	1.38635   	4.000000	0.000809067	
4.500000	1.11958   	4.500000	1.2689    	4.500000	1.30646   	4.500000	1.30646   	4.500000	1.26817   	4.500000	0.000728373	
5.000000	1.03423   	5.000000	1.16998   	5.000000	1.20636   	5.000000	1.20636   	5.000000	1.16932   	5.000000	0.000662944	
5.500000	0.961769  	5.500000	1.08699   	5.500000	1.12111   	5.500000	1.12111   	5.500000	1.08638   	5.500000	0.000608768	
6.000000	0.899448  	6.000000	1.01556   	6.000000	1.04766   	6.000000	1.04766   	6.000000	1.015     	6.000000	0.000563136	
6.500000	0.845246  	6.500000	0.953406  	6.500000	0.983709  	6.500000	0.983709  	6.500000	0.952882  	6.500000	0.000524147	
7.000000	0.797649  	7.000000	0.89881   	7.000000	0.927523  	7.000000	0.927523  	7.000000	0.898319  	7.000000	0.00049043	
7.500000	0.755502  	7.500000	0.850458  	7.500000	0.877758  	7.500000	0.877758  	7.500000	0.849997  	7.500000	0.000460969	
8.000000	0.717906  	8.000000	0.807324  	8.000000	0.83336   	8.000000	0.83336   	8.000000	0.806889  	8.000000	0.000434994	
8.500000	0.684149  	8.500000	0.768596  	8.500000	0.793495  	8.500000	0.793495  	8.500000	0.768185  	8.500000	0.000411914	
9.000000	0.653663  	9.000000	0.733624  	9.000000	0.757493  	9.000000	0.757493  	9.000000	0.733233  	9.000000	0.000391263	
9.500000	0.625988  	9.500000	0.701878  	9.500000	0.724808  	9.500000	0.724808  	9.500000	0.701506  	9.500000	0.000372671	
10.000000	0.600745  	10.000000	0.693517  	10.000000	0.694995  	10.000000	0.694995  	10.000000	0.693161  	10.000000	0.00035584	
11.000000	0.556359  	11.000000	0.642493  	11.000000	0.641983  	11.000000	0.642174  	11.000000	0.642166  	11.000000	0.000326537	
12.000000	0.518568  	12.000000	0.598924  	12.000000	0.596963  	12.000000	0.597273  	12.000000	0.598622  	12.000000	0.000301875	
13.000000	0.485983  	13.000000	0.561275  	13.000000	0.558252  	13.000000	0.558633  	13.000000	0.560994  	13.000000	0.000280819	
14.000000	0.457582  	14.000000	0.528406  	14.000000	0.524606  	14.000000	0.52503   	14.000000	0.528143  	14.000000	0.000262621	
15.000000	0.432596  	15.000000	0.499453  	15.000000	0.495094  	15.000000	0.495542  	15.000000	0.499207  	15.000000	0.00024673	
16.000000	0.410435  	16.000000	0.473749  	16.000000	0.469007  	16.000000	0.46946   	16.000000	0.473516  	16.000000	0.000232727	
17.000000	0.390638  	17.000000	0.450769  	17.000000	0.445787  	17.000000	0.44623   	17.000000	0.450549  	17.000000	0.000220291	
18.000000	0.372839  	18.000000	0.430098  	18.000000	0.424987  	18.000000	0.425414  	18.000000	0.429889  	18.000000	0.000209169	
19.000000	0.356747  	19.000000	0.411399  	19.000000	0.406245  	19.000000	0.406659  	19.000000	0.4112    	19.000000	0.000199161	
20.000000	0.342122  	20.000000	0.394401  	20.000000	0.389272  	20.000000	0.389679  	20.000000	0.394211  	20.000000	0.000190104	
21.000000	0.32877   	21.000000	0.378877  	21.000000	0.373842  	21.000000	0.374238  	21.000000	0.378696  	21.000000	0.000181869	
22.000000	0.316529  	22.000000	0.364643  	22.000000	0.359773  	22.000000	0.360142  	22.000000	0.364469  	22.000000	0.000174345	
23.000000	0.305262  	23.000000	0.351541  	23.000000	0.346895  	23.000000	0.347227  	23.000000	0.351373  	23.000000	0.000167445	
24.000000	0.294857  	24.000000	0.339439  	24.000000	0.335055  	24.000000	0.335356  	24.000000	0.339278  	24.000000	0.000161091	
25.000000	0.285217  	25.000000	0.328227  	25.000000	0.324134  	25.000000	0.324413  	25.000000	0.328072  	25.000000	0.000155222	
27.000000	0.267909  	27.000000	0.308098  	27.000000	0.304692  	27.000000	0.304922  	27.000000	0.307953  	27.000000	0.000144726	
29.000000	0.252805  	29.000000	0.290536  	29.000000	0.287937  	29.000000	0.28811   	29.000000	0.2904    	29.000000	0.000135611	
31.000000	0.239504  	31.000000	0.275072  	31.000000	0.273083  	31.000000	0.273189  	31.000000	0.274944  	31.000000	0.000127618	
33.000000	0.227694  	33.000000	0.261347  	33.000000	0.259654  	33.000000	0.259696  	33.000000	0.261227  	33.000000	0.00012055	
35.000000	0.217134  	35.000000	0.24908   	35.000000	0.247612  	35.000000	0.247626  	35.000000	0.248966  	35.000000	0.000114252	
38.000000	0.203229  	38.000000	0.232937  	38.000000	0.231775  	38.000000	0.231726  	38.000000	0.232831  	38.000000	0.000105993	
41.000000	0.191216  	41.000000	0.218999  	41.000000	0.21807   	41.000000	0.217983  	41.000000	0.2189    	41.000000	9.88891e-05	
44.000000	0.180726  	44.000000	0.206839  	44.000000	0.206086  	44.000000	0.205979  	44.000000	0.206747  	44.000000	9.27109e-05	
47.000000	0.171482  	47.000000	0.196134  	47.000000	0.195526  	47.000000	0.195399  	47.000000	0.196046  	47.000000	8.72866e-05	
50.000000	0.163271  	50.000000	0.186633  	50.000000	0.186138  	50.000000	0.185999  	50.000000	0.18655   	50.000000	8.24845e-05	
55.000000	0.151442  	55.000000	0.172964  	55.000000	0.172643  	55.000000	0.172458  	55.000000	0.172888  	55.000000	7.55951e-05	
60.000000	0.141453  	60.000000	0.161442  	60.000000	0.161222  	60.000000	0.161026  	60.000000	0.161372  	60.000000	6.98053e-05	
65.000000	0.132899  	65.000000	0.151593  	65.000000	0.151431  	65.000000	0.15124   	65.000000	0.151528  	65.000000	6.48686e-05	
70.000000	0.125485  	70.000000	0.143073  	70.000000	0.142967  	70.000000	0.142764  	70.000000	0.143012  	70.000000	6.06073e-05	
75.000000	0.118994  	75.000000	0.135627  	75.000000	0.13556   	75.000000	0.135348  	75.000000	0.13557   	75.000000	5.68903e-05	
80.000000	0.113259  	80.000000	0.129062  	80.000000	0.129021  	80.000000	0.128803  	80.000000	0.129009  	80.000000	5.36182e-05	
85.000000	0.108154  	85.000000	0.123229  	85.000000	0.123205  	85.000000	0.122982  	85.000000	0.123179  	85.000000	5.0715e-05	
90.000000	0.103577  	90.000000	0.118011  	90.000000	0.117982  	90.000000	0.11777   	90.000000	0.117963  	90.000000	4.81207e-05	
95.000000	0.0994492 	95.000000	0.113315  	95.000000	0.113292  	95.000000	0.113075  	95.000000	0.113269  	95.000000	4.57882e-05	
100.000000	0.0957059 	100.000000	0.109064  	100.000000	0.109044  	100.000000	0.108823  	100.000000	0.109021  	100.000000	4.36791e-05	
105.000000	0.0922946 	105.000000	0.105199  	105.000000	0.105179  	105.000000	0.104954  	105.000000	0.105157  	105.000000	4.17625e-05	
110.000000	0.0891719 	110.000000	0.101668  	110.000000	0.101635  	110.000000	0.101418  	110.000000	0.101628  	110.000000	4.00129e-05	
115.000000	0.0863019 	115.000000	0.0984295 	115.000000	0.0983885 	115.000000	0.0981736 	115.000000	0.0983911 	115.000000	3.84091e-05	
120.000000	0.0836544 	120.000000	0.0954483 	120.000000	0.0954051 	120.000000	0.0951853 	120.000000	0.0954113 	120.000000	3.69334e-05	
125.000000	0.0812037 	125.000000	0.0926946 	125.000000	0.0926427 	125.000000	0.0924241 	125.000000	0.0926591 	125.000000	3.55709e-05	
130.000000	0.0789283 	130.000000	0.0901433 	130.000000	0.090076  	130.000000	0.0898649 	130.000000	0.090109  	130.000000	3.43088e-05	
135.000000	0.0768094 	135.000000	0.0877725 	135.000000	0.0876974 	135.000000	0.0874861 	135.000000	0.0877394 	135.000000	3.31364e-05	
140.000000	0.0748311 	140.000000	0.0855637 	140.000000	0.0854843 	140.000000	0.0852693 	140.000000	0.0855316 	140.000000	3.20443e-05	
145.000000	0.0729794 	145.000000	0.0835007 	145.000000	0.0834123 	145.000000	0.0831984 	145.000000	0.0834696 	145.000000	3.10244e-05	
150.000000	0.0712423 	150.000000	0.0815694 	150.000000	0.0814668 	150.000000	0.0812594 	150.000000	0.0815393 	150.000000	3.00697e-05	
155.000000	0.0687964 	155.000000	0.0797576 	155.000000	0.0796473 	155.000000	0.0794401 	155.000000	0.0797284 	155.000000	2.91741e-05	
160.000000	0.0673628 	160.000000	0.0780544 	160.000000	0.0779372 	160.000000	0.0777297 	160.000000	0.078026  	160.000000	2.83322e-05	
165.000000	0.0660109 	165.000000	0.0764503 	165.000000	0.0763207 	165.000000	0.0761188 	165.000000	0.0764228 	165.000000	2.75392e-05	
170.000000	0.0647338 	170.000000	0.0749369 	170.000000	0.0747983 	170.000000	0.0745988 	170.000000	0.0749101 	170.000000	2.67909e-05	
175.000000	0.0635254 	175.000000	0.0735067 	175.000000	0.0733638 	175.000000	0.0731623 	175.000000	0.0734806 	175.000000	2.60837e-05	
180.000000	0.0623803 	180.000000	0.072153  	180.000000	0.0720062 	180.000000	0.0718027 	180.000000	0.0721275 	180.000000	2.54142e-05	
185.000000	0.0612934 	185.000000	0.0708697 	185.000000	0.0707159 	185.000000	0.0705139 	185.000000	0.0708449 	185.000000	2.47794e-05	
190.000000	0.0602605 	190.000000	0.0696516 	190.000000	0.0694878 	190.000000	0.0692905 	190.000000	0.0696274 	190.000000	2.41766e-05	
195.000000	0.0592775 	195.000000	0.0684937 	195.000000	0.0683234 	195.000000	0.0681278 	195.000000	0.0684701 	195.000000	2.36036e-05	
200.000000	0.0583409 	200.000000	0.0673918 	200.000000	0.0672182 	200.000000	0.0670213 	200.000000	0.0673687 	200.000000	2.3058e-05	
210.000000	0.0565942 	210.000000	0.0653402 	210.000000	0.0651525 	210.000000	0.0649616 	210.000000	0.0653182 	210.000000	2.20416e-05	
220.000000	0.0549978 	220.000000	0.0634693 	220.000000	0.0632749 	220.000000	0.0630838 	220.000000	0.0634482 	220.000000	2.11141e-05	
230.000000	0.0535329 	230.000000	0.0617564 	230.000000	0.0615513 	230.000000	0.0613651 	230.000000	0.0617361 	230.000000	2.0264e-05	
240.000000	0.0521838 	240.000000	0.0601822 	240.000000	0.0599707 	240.000000	0.0597863 	240.000000	0.0601628 	240.000000	1.9482e-05	
250.000000	0.0509373 	250.000000	0.0587308 	250.000000	0.058518  	250.000000	0.0583312 	250.000000	0.058712  	250.000000	1.87602e-05	
260.000000	0.0497821 	260.000000	0.0573883 	260.000000	0.05717   	260.000000	0.0569859 	260.000000	0.0573702 	260.000000	1.80917e-05	
270.000000	0.0487083 	270.000000	0.056143  	270.000000	0.0559189 	270.000000	0.0557387 	270.000000	0.0561255 	270.000000	1.74707e-05	
280.000000	0.0477078 	280.000000	0.0549849 	280.000000	0.0547606 	280.000000	0.0545794 	280.000000	0.054968  	280.000000	1.68924e-05	
290.000000	0.0467733 	290.000000	0.0539051 	290.000000	0.0536761 	290.000000	0.0534992 	290.000000	0.0538888 	290.000000	1.63525e-05	
300.000000	0.0458985 	300.000000	0.0528962 	300.000000	0.0526661 	300.000000	0.0524905 	300.000000	0.0528804 	300.000000	1.58471e-05	
310.000000	0.0450779 	310.000000	0.0519515 	310.000000	0.0517221 	310.000000	0.0515464 	310.000000	0.0519361 	310.000000	1.53731e-05	
320.000000	0.0443066 	320.000000	0.0510651 	320.000000	0.0508329 	320.000000	0.0506612 	320.000000	0.0510502 	320.000000	1.49276e-05	
330.000000	0.0435803 	330.000000	0.0502319 	330.000000	0.0500007 	330.000000	0.0498297 	330.000000	0.0502174 	330.000000	1.4508e-05	
340.000000	0.0428953 	340.000000	0.0494473 	340.000000	0.0492184 	340.000000	0.0490472 	340.000000	0.0494332 	340.000000	1.41122e-05	
350.000000	0.0422482 	350.000000	0.0487073 	350.000000	0.0484775 	350.000000	0.0483097 	350.000000	0.0486936 	350.000000	1.37381e-05	
360.000000	0.041636  	360.000000	0.0480084 	360.000000	0.0477799 	360.000000	0.0476135 	360.000000	0.047995  	360.000000	1.3384e-05	
370.000000	0.041056  	370.000000	0.0473472 	370.000000	0.047119  	370.000000	0.0469519 	370.000000	0.0473341 	370.000000	1.30483e-05	
380.000000	0.0405058 	380.000000	0.0467208 	380.000000	0.0464908 	380.000000	0.0463255 	380.000000	0.0467081 	380.000000	1.27296e-05	
390.000000	0.0399831 	390.000000	0.0461267 	390.000000	0.0458943 	390.000000	0.0457318 	390.000000	0.0461143 	390.000000	1.24266e-05	
400.000000	0.0394861 	400.000000	0.0455626 	400.000000	0.0453308 	400.000000	0.0451684 	400.000000	0.0455505 	400.000000	1.21382e-05	
410.000000	0.0390129 	410.000000	0.0450262 	410.000000	0.0447958 	410.000000	0.044633  	410.000000	0.0450144 	410.000000	1.18633e-05	
420.000000	0.038562  	420.000000	0.0445158 	420.000000	0.0442846 	420.000000	0.0441238 	420.000000	0.0445042 	420.000000	1.1601e-05	
430.000000	0.0381317 	430.000000	0.0440294 	430.000000	0.0437975 	430.000000	0.043639  	430.000000	0.044018  	430.000000	1.13505e-05	
440.000000	0.0377209 	440.000000	0.0435655 	440.000000	0.0433353 	440.000000	0.0431769 	440.000000	0.0435544 	440.000000	1.11109e-05	
450.000000	0.0373283 	450.000000	0.0431228 	450.000000	0.0428949 	450.000000	0.042736  	450.000000	0.0431119 	450.000000	1.08815e-05	
460.000000	0.0369527 	460.000000	0.0426997 	460.000000	0.0424728 	460.000000	0.0423151 	460.000000	0.042689  	460.000000	1.06618e-05	
470.000000	0.0365931 	470.000000	0.0422951 	470.000000	0.0420683 	470.000000	0.0419128 	470.000000	0.0422847 	470.000000	1.0451e-05	
480.000000	0.0362485 	480.000000	0.0419079 	480.000000	0.0416824 	480.000000	0.041528  	480.000000	0.0418977 	480.000000	1.02487e-05	
490.000000	0.0359182 	490.000000	0.0415371 	490.000000	0.0413145 	490.000000	0.0411597 	490.000000	0.0415271 	490.000000	1.00543e-05	
500.000000	0.0356012 	500.000000	0.0411817 	500.000000	0.0409619 	500.000000	0.0408069 	500.000000	0.0411718 	500.000000	9.86746e-06	
520.000000	0.0350044 	520.000000	0.0405135 	520.000000	0.0402962 	520.000000	0.0401442 	520.000000	0.040504  	520.000000	9.51445e-06	
540.000000	0.0344529 	540.000000	0.0398971 	540.000000	0.0396846 	540.000000	0.0395336 	540.000000	0.039888  	540.000000	9.18664e-06	
560.000000	0.033942  	560.000000	0.0393272 	560.000000	0.0391205 	560.000000	0.0389695 	560.000000	0.0393183 	560.000000	8.88138e-06	
580.000000	0.0334677 	580.000000	0.038799  	580.000000	0.0385954 	580.000000	0.0384472 	580.000000	0.0387904 	580.000000	8.59639e-06	
600.000000	0.0330265 	600.000000	0.0383086 	600.000000	0.0381101 	600.000000	0.0379626 	600.000000	0.0383002 	600.000000	8.32971e-06	
620.000000	0.0326155 	620.000000	0.0378522 	620.000000	0.0376598 	620.000000	0.037512  	620.000000	0.0378441 	620.000000	8.0796e-06	
640.000000	0.0322319 	640.000000	0.0374268 	640.000000	0.0372381 	640.000000	0.0370923 	640.000000	0.037419  	640.000000	7.84455e-06	
660.000000	0.0318733 	660.000000	0.0370298 	660.000000	0.0368447 	660.000000	0.0367007 	660.000000	0.0370221 	660.000000	7.62323e-06	
680.000000	0.0315378 	680.000000	0.0366585 	680.000000	0.0364791 	680.000000	0.0363346 	680.000000	0.0366511 	680.000000	7.41445e-06	
700.000000	0.0312233 	700.000000	0.0363109 	700.000000	0.0361363 	700.000000	0.035992  	700.000000	0.0363037 	700.000000	7.21717e-06	
720.000000	0.0309283 	720.000000	0.0359851 	720.000000	0.0358133 	720.000000	0.0356709 	720.000000	0.0359781 	720.000000	7.03045e-06	
740.000000	0.0306512 	740.000000	0.0356793 	740.000000	0.0355105 	740.000000	0.0353695 	740.000000	0.0356725 	740.000000	6.85345e-06	
760.000000	0.0303907 	760.000000	0.0353921 	760.000000	0.0352274 	760.000000	0.0350863 	760.000000	0.0353854 	760.000000	6.68544e-06	
780.000000	0.0301456 	780.000000	0.0351219 	780.000000	0.0349612 	780.000000	0.0348198 	780.000000	0.0351153 	780.000000	6.52572e-06	
800.000000	0.0299149 	800.000000	0.0348675 	800.000000	0.0347092 	800.000000	0.0345687 	800.000000	0.0348611 	800.000000	6.3737e-06	
820.000000	0.0296974 	820.000000	0.0346279 	820.000000	0.034471  	820.000000	0.0343321 	820.000000	0.0346217 	820.000000	6.22884e-06	
840.000000	0.0294924 	840.000000	0.034402  	840.000000	0.0342466 	840.000000	0.0341087 	840.000000	0.0343959 	840.000000	6.09062e-06	
860.000000	0.0292989 	860.000000	0.0341888 	860.000000	0.0340357 	860.000000	0.0338977 	860.000000	0.0341828 	860.000000	5.95859e-06	
880.000000	0.0291164 	880.000000	0.0339875 	880.000000	0.0338365 	880.000000	0.0336981 	880.000000	0.0339817 	880.000000	5.83235e-06	
900.000000	0.0289439 	900.000000	0.0337974 	900.000000	0.0336474 	900.000000	0.0335093 	900.000000	0.0337917 	900.000000	5.71152e-06	
920.000000	0.0287811 	920.000000	0.0336177 	920.000000	0.0334675 	920.000000	0.0333305 	920.000000	0.0336121 	920.000000	5.59576e-06	
940.000000	0.0286272 	940.000000	0.0334477 	940.000000	0.0332969 	940.000000	0.0331611 	940.000000	0.0334422 	940.000000	5.48474e-06	
960.000000	0.0284818 	960.000000	0.033287  	960.000000	0.0331355 	960.000000	0.0330004 	960.000000	0.0332816 	960.000000	5.37819e-06	
980.000000	0.0283443 	980.000000	0.0331348 	980.000000	0.032983  	980.000000	0.0328479 	980.000000	0.0331296 	980.000000	5.27583e-06	
1000.000000	0.0282143 	1000.000000	0.0329908 	1000.000000	0.0328385 	1000.000000	0.0327031 	1000.000000	0.0329856 	1000.000000	5.17741e-06	
1020.000000	0.0280914 	1020.000000	0.0328544 	1020.000000	0.032701  	1020.000000	0.0325655 	1020.000000	0.0328494 	1020.000000	5.08272e-06	
1040.000000	0.0279752 	1040.000000	0.0327253 	1040.000000	0.0325698 	1040.000000	0.0324347 	1040.000000	0.0327203 	1040.000000	4.99154e-06	
1060.000000	0.0278654 	1060.000000	0.032603  	1060.000000	0.0324446 	1060.000000	0.0323104 	1060.000000	0.0325981 	1060.000000	4.90368e-06	
1080.000000	0.0277616 	1080.000000	0.0324871 	1080.000000	0.0323253 	1080.000000	0.032192  	1080.000000	0.0324823 	1080.000000	4.81895e-06	
1100.000000	0.0276635 	1100.000000	0.0323773 	1100.000000	0.0322119 	1100.000000	0.0320793 	1100.000000	0.0323726 	1100.000000	4.7372e-06	
1120.000000	0.0275709 	1120.000000	0.0322733 	1120.000000	0.0321042 	1120.000000	0.031972  	1120.000000	0.0322686 	1120.000000	4.65826e-06	
1140.000000	0.0274834 	1140.000000	0.0321748 	1140.000000	0.032002  	1140.000000	0.0318697 	1140.000000	0.0321702 	1140.000000	4.582e-06 	
1160.000000	0.0274008 	1160.000000	0.0320815 	1160.000000	0.0319047 	1160.000000	0.0317722 	1160.000000	0.032077  	1160.000000	4.50827e-06	
1180.000000	0.0273228 	1180.000000	0.0319931 	1180.000000	0.031812  	1180.000000	0.0316793 	1180.000000	0.0319887 	1180.000000	4.43695e-06	
1200.000000	0.0272494 	1200.000000	0.0319095 	1200.000000	0.0317233 	1200.000000	0.0315907 	1200.000000	0.0319051 	1200.000000	4.36793e-06	
1220.000000	0.0271802 	1220.000000	0.0318303 	1220.000000	0.0316384 	1220.000000	0.0315061 	1220.000000	0.031826  	1220.000000	4.30108e-06	
1240.000000	0.027115  	1240.000000	0.0317554 	1240.000000	0.0315571 	1240.000000	0.0314254 	1240.000000	0.0317511 	1240.000000	4.23632e-06	
1260.000000	0.0270537 	1260.000000	0.0316845 	1260.000000	0.0314794 	1260.000000	0.0313484 	1260.000000	0.0316803 	1260.000000	4.17354e-06	
1280.000000	0.0269962 	1280.000000	0.0316175 	1280.000000	0.0314052 	1280.000000	0.0312748 	1280.000000	0.0316134 	1280.000000	4.11266e-06	
1300.000000	0.0269422 	1300.000000	0.0315543 	1300.000000	0.0313345 	1300.000000	0.0312045 	1300.000000	0.0315502 	1300.000000	4.05358e-06	
1320.000000	0.0268916 	1320.000000	0.0314945 	1320.000000	0.0312671 	1320.000000	0.0311374 	1320.000000	0.0314905 	1320.000000	3.99623e-06	
1340.000000	0.0268442 	1340.000000	0.0314382 	1340.000000	0.0312029 	1340.000000	0.0310733 	1340.000000	0.0314342 	1340.000000	3.94053e-06	
1360.000000	0.0268    	1360.000000	0.031385  	1360.000000	0.0311417 	1360.000000	0.0310121 	1360.000000	0.0313812 	1360.000000	3.88641e-06	
1380.000000	0.0267588 	1380.000000	0.031335  	1380.000000	0.0310834 	1380.000000	0.0309536 	1380.000000	0.0313312 	1380.000000	3.8338e-06	
1400.000000	0.0267204 	1400.000000	0.031288  	1400.000000	0.0310276 	1400.000000	0.0308976 	1400.000000	0.0312842 	1400.000000	3.78265e-06	
1420.000000	0.0266849 	1420.000000	0.0312437 	1420.000000	0.0309742 	1420.000000	0.0308442 	1420.000000	0.03124   	1420.000000	3.73288e-06	
1440.000000	0.0266519 	1440.000000	0.0312022 	1440.000000	0.030923  	1440.000000	0.0307931 	1440.000000	0.0311985 	1440.000000	3.68445e-06	
1460.000000	0.0266216 	1460.000000	0.0311633 	1460.000000	0.0308739 	1460.000000	0.0307442 	1460.000000	0.0311597 	1460.000000	3.6373e-06	
1480.000000	0.0265937 	1480.000000	0.031127  	1480.000000	0.0308269 	1480.000000	0.0306975 	1480.000000	0.0311234 	1480.000000	3.59138e-06	
1500.000000	0.0265682 	1500.000000	0.031093  	1500.000000	0.0307818 	1500.000000	0.0306529 	1500.000000	0.0310895 	1500.000000	3.54664e-06	
1520.000000	0.0265449 	1520.000000	0.0310614 	1520.000000	0.0307387 	1520.000000	0.0306102 	1520.000000	0.0310579 	1520.000000	3.50304e-06	
1540.000000	0.0265239 	1540.000000	0.0310319 	1540.000000	0.0306975 	1540.000000	0.0305694 	1540.000000	0.0310285 	1540.000000	3.46053e-06	
1560.000000	0.026505  	1560.000000	0.0310047 	1560.000000	0.0306581 	1560.000000	0.0305305 	1560.000000	0.0310012 	1560.000000	3.41907e-06	
1580.000000	0.0264882 	1580.000000	0.0309795 	1580.000000	0.0306206 	1580.000000	0.0304932 	1580.000000	0.0309761 	1580.000000	3.37862e-06	
1600.000000	0.0264733 	1600.000000	0.0309562 	1600.000000	0.0305848 	1600.000000	0.0304576 	1600.000000	0.0309529 	1600.000000	3.33916e-06	
1620.000000	0.0264603 	1620.000000	0.0309349 	1620.000000	0.0305507 	1620.000000	0.0304236 	1620.000000	0.0309316 	1620.000000	3.30063e-06	
1640.000000	0.0264492 	1640.000000	0.0309154 	1640.000000	0.0305182 	1640.000000	0.0303912 	1640.000000	0.0309122 	1640.000000	3.26301e-06	
1660.000000	0.0264399 	1660.000000	0.0308978 	1660.000000	0.0304872 	1660.000000	0.0303601 	1660.000000	0.0308945 	1660.000000	3.22626e-06	
1680.000000	0.0264323 	1680.000000	0.0308818 	1680.000000	0.0304576 	1680.000000	0.0303305 	1680.000000	0.0308786 	1680.000000	3.19036e-06	
1700.000000	0.0264264 	1700.000000	0.0308675 	1700.000000	0.0304294 	1700.000000	0.0303023 	1700.000000	0.0308643 	1700.000000	3.15527e-06	
1750.000000	0.0264186 	1750.000000	0.0308385 	1750.000000	0.0303645 	1750.000000	0.0302371 	1750.000000	0.0308355 	1750.000000	3.07094e-06	
1800.000000	0.0264202 	1800.000000	0.0308188 	1800.000000	0.0303066 	1800.000000	0.0301793 	1800.000000	0.0308158 	1800.000000	2.99114e-06	
1850.000000	0.0264305 	1850.000000	0.0308075 	1850.000000	0.030255  	1850.000000	0.0301281 	1850.000000	0.0308046 	1850.000000	2.91551e-06	
1900.000000	0.0264488 	1900.000000	0.0308039 	1900.000000	0.0302093 	1900.000000	0.0300829 	1900.000000	0.0308011 	1900.000000	2.84372e-06	
1950.000000	0.0264747 	1950.000000	0.0308076 	1950.000000	0.030169  	1950.000000	0.0300432 	1950.000000	0.0308048 	1950.000000	2.77549e-06	
2000.000000	0.0265075 	2000.000000	0.0308178 	2000.000000	0.0301337 	2000.000000	0.0300085 	2000.000000	0.0308151 	2000.000000	2.71055e-06	
2100.000000	0.0265924 	2100.000000	0.0308564 	2100.000000	0.0300768 	2100.000000	0.0299525 	2100.000000	0.0308538 	2100.000000	2.58964e-06	
2200.000000	0.0267003 	2200.000000	0.0309163 	2200.000000	0.0300357 	2200.000000	0.0299117 	2200.000000	0.0309139 	2200.000000	2.47937e-06	
2300.000000	0.0268286 	2300.000000	0.0309948 	2300.000000	0.0300077 	2300.000000	0.0298839 	2300.000000	0.0309924 	2300.000000	2.37836e-06	
2400.000000	0.026975  	2400.000000	0.0310895 	2400.000000	0.0299907 	2400.000000	0.029867  	2400.000000	0.0310872 	2400.000000	2.2855e-06	
2500.000000	0.0271377 	2500.000000	0.0311984 	2500.000000	0.0299828 	2500.000000	0.0298593 	2500.000000	0.0311962 	2500.000000	2.19982e-06	
2600.000000	0.027315  	2600.000000	0.03132   	2600.000000	0.0299827 	2600.000000	0.0298595 	2600.000000	0.0313178 	2600.000000	2.12051e-06	
2700.000000	0.0275056 	2700.000000	0.0314527 	2700.000000	0.0299894 	2700.000000	0.0298664 	2700.000000	0.0314506 	2700.000000	2.04689e-06	
2800.000000	0.0277083 	2800.000000	0.0315954 	2800.000000	0.0300017 	2800.000000	0.029879  	2800.000000	0.0315934 	2800.000000	1.97835e-06	
2900.000000	0.0279221 	2900.000000	0.031747  	2900.000000	0.0300189 	2900.000000	0.0298966 	2900.000000	0.0317451 	2900.000000	1.91439e-06	
3000.000000	0.0281461 	3000.000000	0.0319067 	3000.000000	0.0300403 	3000.000000	0.0299185 	3000.000000	0.0319049 	3000.000000	1.85455e-06	
3200.000000	0.0286215 	3200.000000	0.032247  	3200.000000	0.0300936 	3200.000000	0.0299725 	3200.000000	0.0322453 	3200.000000	1.74573e-06	
3400.000000	0.0291293 	3400.000000	0.0326111 	3400.000000	0.0301579 	3400.000000	0.0300374 	3400.000000	0.0326095 	3400.000000	1.64931e-06	
3600.000000	0.0296655 	3600.000000	0.0329949 	3600.000000	0.0302303 	3600.000000	0.0301103 	3600.000000	0.0329933 	3600.000000	1.56326e-06	
3800.000000	0.0302267 	3800.000000	0.0333951 	3800.000000	0.0303087 	3800.000000	0.030189  	3800.000000	0.0333936 	3800.000000	1.48599e-06	
4000.000000	0.0308104 	4000.000000	0.0338092 	4000.000000	0.0303915 	4000.000000	0.0302719 	4000.000000	0.0338078 	4000.000000	1.4162e-06	
4200.000000	0.0314144 	4200.000000	0.0342351 	4200.000000	0.0304773 	4200.000000	0.0303577 	4200.000000	0.0342337 	4200.000000	1.35284e-06	
4400.000000	0.032037  	4400.000000	0.034671  	4400.000000	0.0305651 	4400.000000	0.0304456 	4400.000000	0.0346697 	4400.000000	1.29507e-06	
4600.000000	0.0326765 	4600.000000	0.0351157 	4600.000000	0.0306542 	4600.000000	0.0305347 	4600.000000	0.0351144 	4600.000000	1.24216e-06	
4800.000000	0.0333319 	4800.000000	0.0355678 	4800.000000	0.0307439 	4800.000000	0.0306245 	4800.000000	0.0355666 	4800.000000	1.19352e-06	
5000.000000	0.0340021 	5000.000000	0.0360264 	5000.000000	0.0308339 	5000.000000	0.0307145 	5000.000000	0.0360253 	5000.000000	1.14865e-06	
5250.000000	0.0348593 	5250.000000	0.0366077 	5250.000000	0.0309461 	5250.000000	0.0308269 	5250.000000	0.0366066 	5250.000000	1.09722e-06	
5500.000000	0.0357367 	5500.000000	0.0371964 	5500.000000	0.0310576 	5500.000000	0.0309385 	5500.000000	0.0371954 	5500.000000	1.05032e-06	
6000.000000	0.0375476 	6000.000000	0.0383923 	6000.000000	0.031277  	6000.000000	0.0311582 	6000.000000	0.0383913 	6000.000000	9.67888e-07	
6500.000000	0.0394274 	6500.000000	0.0396072 	6500.000000	0.0314902 	6500.000000	0.0313718 	6500.000000	0.0396063 	6500.000000	8.97765e-07	
7000.000000	0.0413704 	7000.000000	0.0408364 	7000.000000	0.0316964 	7000.000000	0.0315782 	7000.000000	0.0408355 	7000.000000	8.37361e-07	
7500.000000	0.0433728 	7500.000000	0.0420762 	7500.000000	0.0318952 	7500.000000	0.0317772 	7500.000000	0.0420754 	7500.000000	7.84771e-07	
8000.000000	0.0454314 	8000.000000	0.0433242 	8000.000000	0.0320866 	8000.000000	0.0319686 	8000.000000	0.0433234 	8000.000000	7.38559e-07	
8500.000000	0.047544  	8500.000000	0.0445783 	8500.000000	0.0322704 	8500.000000	0.0321527 	8500.000000	0.0445776 	8500.000000	6.97621e-07	
9000.000000	0.0497086 	9000.000000	0.0458371 	9000.000000	0.0324466 	9000.000000	0.0323298 	9000.000000	0.0458365 	9000.000000	6.61097e-07	
9500.000000	0.0519239 	9500.000000	0.0470995 	9500.000000	0.032616  	9500.000000	0.0325    	9500.000000	0.0470989 	9500.000000	6.28304e-07	
10000.000000	0.0541888 	10000.000000	0.0483645 	10000.000000	0.0327792 	10000.000000	0.0326639 	10000.000000	0.0483639 	10000.000000	5.98692e-07	
11000.000000	0.0588635 	11000.000000	0.0508997 	11000.000000	0.0330885 	11000.000000	0.0329737 	11000.000000	0.0508991 	11000.000000	5.47311e-07	
12000.000000	0.0637274 	12000.000000	0.0534385 	12000.000000	0.0333766 	12000.000000	0.0332619 	12000.000000	0.053438  	12000.000000	5.04251e-07	
13000.000000	0.0687767 	13000.000000	0.0559784 	13000.000000	0.0336451 	13000.000000	0.0335309 	13000.000000	0.0559779 	13000.000000	4.67627e-07	
14000.000000	0.074009  	14000.000000	0.0585175 	14000.000000	0.033896  	14000.000000	0.0337828 	14000.000000	0.0585171 	14000.000000	4.36086e-07	
15000.000000	0.0794228 	15000.000000	0.0610547 	15000.000000	0.0341314 	15000.000000	0.0340195 	15000.000000	0.0610543 	15000.000000	4.08631e-07	
16000.000000	0.0850169 	16000.000000	0.0635891 	16000.000000	0.034353  	16000.000000	0.0342425 	16000.000000	0.0635887 	16000.000000	3.8451e-07	
17000.000000	0.0907908 	17000.000000	0.0661203 	17000.000000	0.0345626 	17000.000000	0.0344533 	17000.000000	0.0661199 	17000.000000	3.63145e-07	
18000.000000	0.0967441 	18000.000000	0.0686478 	18000.000000	0.0347614 	18000.000000	0.034653  	18000.000000	0.0686474 	18000.000000	3.44087e-07	
19000.000000	0.102877  	19000.000000	0.0711714 	19000.000000	0.0349504 	19000.000000	0.0348428 	19000.000000	0.071171  	19000.000000	3.26977e-07	
20000.000000	0.109189  	20000.000000	0.073691  	20000.000000	0.0351304 	20000.000000	0.0350233 	20000.000000	0.0736907 	20000.000000	3.1153e-07	
21000.000000	0.115681  	21000.000000	0.0762065 	21000.000000	0.0353017 	21000.000000	0.0351956 	21000.000000	0.0762062 	21000.000000	2.97512e-07	
22000.000000	0.122353  	22000.000000	0.0787179 	22000.000000	0.0354643 	22000.000000	0.0353603 	22000.000000	0.0787176 	22000.000000	2.84732e-07	
23000.000000	0.129205  	23000.000000	0.0812252 	23000.000000	0.0356209 	23000.000000	0.035518  	23000.000000	0.0812249 	23000.000000	2.73032e-07	
24000.000000	0.136239  	24000.000000	0.0837284 	24000.000000	0.0357716 	24000.000000	0.0356692 	24000.000000	0.0837282 	24000.000000	2.62279e-07	
25000.000000	0.143454  	25000.000000	0.0862276 	25000.000000	0.0359158 	25000.000000	0.0358145 	25000.000000	0.0862273 	25000.000000	2.52362e-07	
26000.000000	0.150852  	26000.000000	0.0887228 	26000.000000	0.036054  	26000.000000	0.0359542 	26000.000000	0.0887226 	26000.000000	2.43186e-07	
27000.000000	0.158433  	27000.000000	0.0912141 	27000.000000	0.0361868 	27000.000000	0.0360888 	27000.000000	0.0912139 	27000.000000	2.34671e-07	
28000.000000	0.166197  	28000.000000	0.0937016 	28000.000000	0.0363148 	28000.000000	0.0362187 	28000.000000	0.0937013 	28000.000000	2.26746e-07	
29000.000000	0.174147  	29000.000000	0.0961852 	29000.000000	0.0364384 	29000.000000	0.0363441 	29000.000000	0.096185  	29000.000000	2.19353e-07	
30000.000000	0.182281  	30000.000000	0.0986652 	30000.000000	0.0365578 	30000.000000	0.0364653 	30000.000000	0.098665  	30000.000000	2.12438e-07	
32000.000000	0.199111  	32000.000000	0.103614  	32000.000000	0.0367853 	32000.000000	0.0366962 	32000.000000	0.103614  	32000.000000	1.9987e-07	
34000.000000	0.216693  	34000.000000	0.10855   	34000.000000	0.036999  	34000.000000	0.0369134 	34000.000000	0.10855   	34000.000000	1.8874e-07	
36000.000000	0.235034  	36000.000000	0.113472  	36000.000000	0.0371999 	36000.000000	0.0371182 	36000.000000	0.113472  	36000.000000	1.78812e-07	
38000.000000	0.254143  	38000.000000	0.118382  	38000.000000	0.0373892 	38000.000000	0.037312  	38000.000000	0.118381  	38000.000000	1.69901e-07	
40000.000000	0.274026  	40000.000000	0.123279  	40000.000000	0.0375683 	40000.000000	0.0374959 	40000.000000	0.123279  	40000.000000	1.61857e-07	
42000.000000	0.294693  	42000.000000	0.128165  	42000.000000	0.0377386 	42000.000000	0.0376709 	42000.000000	0.128165  	42000.000000	1.54558e-07	
44000.000000	0.316151  	44000.000000	0.133039  	44000.000000	0.0379012 	44000.000000	0.0378377 	44000.000000	0.133039  	44000.000000	1.47904e-07	
46000.000000	0.338409  	46000.000000	0.137904  	46000.000000	0.0380568 	46000.000000	0.0379971 	46000.000000	0.137903  	46000.000000	1.41814e-07	
48000.000000	0.361474  	48000.000000	0.142757  	48000.000000	0.0382058 	48000.000000	0.0381497 	48000.000000	0.142757  	48000.000000	1.36216e-07	
50000.000000	0.385355  	50000.000000	0.147601  	50000.000000	0.0383482 	50000.000000	0.0382961 	50000.000000	0.147601  	50000.000000	1.31055e-07	
