Energy (MeV/u)1	0 - [He-base] F.Hubert et al, AD&ND Tables 46(1990)1	Energy (MeV/u)2	1 - [H -base] J.F.Ziegler et al, Pergamon Press, NY (low energy)	Energy (MeV/u)3	2 - ATIMA 1.2  LS-theory (recommended for high energy)	Energy (MeV/u)4	3 - ATIMA 1.2  without LS-correction	Energy (MeV/u)5	4 - electrical component of [1] - J.F.Ziegler et al	Energy (MeV/u)6	5 - nuclear component of [1] - J.F.Ziegler et al	
0.001000	10.0354   	0.001000	6.95845   	0.001000	6.56323   	0.001000	6.56323   	0.001000	1.29956   	0.001000	5.65889   	
0.002000	10.2593   	0.002000	7.2026    	0.002000	6.68145   	0.002000	6.68145   	0.002000	1.80003   	0.002000	5.40257   	
0.005000	10.3076   	0.005000	7.17159   	0.005000	6.42465   	0.005000	6.42465   	0.005000	2.76892   	0.005000	4.40267   	
0.008000	10.4754   	0.008000	7.16861   	0.008000	6.27279   	0.008000	6.27279   	0.008000	3.4534    	0.008000	3.7152    	
0.010000	10.6383   	0.010000	7.21376   	0.010000	6.23795   	0.010000	6.23795   	0.010000	3.83526   	0.010000	3.37849   	
0.015000	11.1172   	0.015000	7.42225   	0.015000	6.28389   	0.015000	6.28389   	0.015000	4.64043   	0.015000	2.78182   	
0.020000	11.6242   	0.020000	7.69863   	0.020000	6.4302    	0.020000	6.4302    	0.020000	5.31226   	0.020000	2.38637   	
0.025000	12.1244   	0.025000	8.00168   	0.025000	6.62314   	0.025000	6.62314   	0.025000	5.89966   	0.025000	2.10202   	
0.030000	12.6074   	0.030000	8.31361   	0.030000	6.83874   	0.030000	6.83874   	0.030000	6.4275    	0.030000	1.88611   	
0.035000	13.0702   	0.035000	8.62612   	0.035000	7.06511   	0.035000	7.06511   	0.035000	6.91046   	0.035000	1.71566   	
0.040000	13.6135   	0.040000	8.9352    	0.040000	7.29593   	0.040000	7.29593   	0.040000	7.35806   	0.040000	1.57714   	
0.045000	14.1908   	0.045000	9.55988   	0.045000	7.87803   	0.045000	7.87803   	0.045000	8.0979    	0.045000	1.46198   	
0.050000	14.6535   	0.050000	10.1812   	0.050000	8.51138   	0.050000	8.51138   	0.050000	8.81665   	0.050000	1.3645    	
0.055000	15.436    	0.055000	10.7789   	0.055000	9.17053   	0.055000	9.17053   	0.055000	9.49813   	0.055000	1.28076   	
0.060000	16.1438   	0.060000	11.3509   	0.060000	9.84756   	0.060000	9.84756   	0.060000	10.143    	0.060000	1.20791   	
0.070000	17.3903   	0.070000	12.4156   	0.070000	11.228    	0.070000	11.228    	0.070000	11.3285   	0.070000	1.0871    	
0.080000	18.7549   	0.080000	13.3785   	0.080000	12.6056   	0.080000	12.6056   	0.080000	12.3878   	0.080000	0.990667  	
0.090000	19.9548   	0.090000	14.2405   	0.090000	13.935    	0.090000	13.935    	0.090000	13.3374   	0.090000	0.903081  	
0.100000	21.0231   	0.100000	15.0312   	0.100000	15.2077   	0.100000	15.2077   	0.100000	14.1933   	0.100000	0.837856  	
0.120000	22.3628   	0.120000	16.413    	0.120000	17.4917   	0.120000	17.4917   	0.120000	15.6786   	0.120000	0.734383  	
0.140000	23.7661   	0.140000	17.7438   	0.140000	19.3931   	0.140000	19.3931   	0.140000	17.0882   	0.140000	0.655684  	
0.160000	25.4407   	0.160000	19.2613   	0.160000	20.9353   	0.160000	20.9353   	0.160000	18.6677   	0.160000	0.593591  	
0.180000	27.019    	0.180000	20.5938   	0.180000	22.1772   	0.180000	22.1772   	0.180000	20.0506   	0.180000	0.543215  	
0.200000	28.5497   	0.200000	21.7739   	0.200000	23.1847   	0.200000	23.1847   	0.200000	21.2725   	0.200000	0.501434  	
0.250000	31.2624   	0.250000	24.2154   	0.250000	25.0367   	0.250000	25.0367   	0.250000	23.793    	0.250000	0.422396  	
0.300000	33.7126   	0.300000	26.1324   	0.300000	26.3751   	0.300000	26.3751   	0.300000	25.766    	0.300000	0.366465  	
0.350000	35.9837   	0.350000	27.7437   	0.350000	27.4783   	0.350000	27.4783   	0.350000	27.4191   	0.350000	0.324598  	
0.400000	37.9929   	0.400000	29.0834   	0.400000	28.4566   	0.400000	28.4566   	0.400000	28.7914   	0.400000	0.29197   	
0.450000	39.7547   	0.450000	30.2111   	0.450000	29.3511   	0.450000	29.3511   	0.450000	29.9454   	0.450000	0.26576   	
0.500000	41.2936   	0.500000	31.1731   	0.500000	30.1774   	0.500000	30.1774   	0.500000	30.9289   	0.500000	0.244201  	
0.600000	42.4172   	0.600000	32.7685   	0.600000	32.237    	0.600000	32.237    	0.600000	32.5577   	0.600000	0.210735  	
0.700000	43.2716   	0.700000	34.4028   	0.700000	33.9863   	0.700000	33.9863   	0.700000	34.2169   	0.700000	0.185872  	
0.800000	45.1534   	0.800000	35.6578   	0.800000	35.4055   	0.800000	35.4055   	0.800000	35.4912   	0.800000	0.166612  	
0.900000	46.6012   	0.900000	36.6332   	0.900000	36.5591   	0.900000	36.5591   	0.900000	36.482    	0.900000	0.151215  	
1.000000	47.7122   	1.000000	37.3968   	1.000000	37.4974   	1.000000	37.4974   	1.000000	37.2582   	1.000000	0.138602  	
1.250000	49.1543   	1.250000	38.523    	1.250000	39.1397   	1.250000	39.1397   	1.250000	38.4079   	1.250000	0.115131  	
1.500000	49.6609   	1.500000	39.0731   	1.500000	40.0874   	1.500000	40.0874   	1.500000	38.9743   	1.500000	0.0988362 	
1.750000	49.6504   	1.750000	39.3028   	1.750000	40.5889   	1.750000	40.5889   	1.750000	39.216    	1.750000	0.0868138 	
2.000000	49.1534   	2.000000	39.1915   	2.000000	40.7945   	2.000000	40.7945   	2.000000	39.1139   	2.000000	0.0775515 	
2.250000	48.5629   	2.250000	38.9594   	2.250000	40.7991   	2.250000	40.7991   	2.250000	38.8892   	2.250000	0.0701809 	
2.500000	64.5389   	2.500000	38.6758   	2.500000	40.6646   	2.500000	40.6646   	2.500000	38.6116   	2.500000	0.0641661 	
3.000000	61.7401   	3.000000	38.0132   	3.000000	40.1327   	3.000000	40.1327   	3.000000	37.9583   	3.000000	0.0549185 	
3.500000	58.9564   	3.500000	37.2153   	3.500000	39.1967   	3.500000	39.1967   	3.500000	37.1672   	3.500000	0.0481215 	
4.000000	56.3128   	4.000000	36.4304   	4.000000	38.2384   	4.000000	38.2384   	4.000000	36.3875   	4.000000	0.0429011 	
4.500000	53.8501   	4.500000	35.6909   	4.500000	37.2987   	4.500000	37.2987   	4.500000	35.6521   	4.500000	0.0387574 	
5.000000	51.5744   	5.000000	34.957    	5.000000	36.3874   	5.000000	36.3874   	5.000000	34.9216   	5.000000	0.0353833 	
5.500000	49.4775   	5.500000	34.2309   	5.500000	35.5091   	5.500000	35.5091   	5.500000	34.1983   	5.500000	0.0325792 	
6.000000	47.5458   	6.000000	33.5241   	6.000000	34.6658   	6.000000	34.6658   	6.000000	33.4939   	6.000000	0.0302095 	
6.500000	45.7642   	6.500000	32.8424   	6.500000	33.8578   	6.500000	33.8578   	6.500000	32.8142   	6.500000	0.0281788 	
7.000000	44.1182   	7.000000	32.1854   	7.000000	33.0843   	7.000000	33.0843   	7.000000	32.159    	7.000000	0.0264181 	
7.500000	42.594    	7.500000	31.5523   	7.500000	32.3443   	7.500000	32.3443   	7.500000	31.5274   	7.500000	0.0248759 	
8.000000	41.1795   	8.000000	30.9437   	8.000000	31.6363   	8.000000	31.6363   	8.000000	30.9202   	8.000000	0.0235132 	
8.500000	39.8635   	8.500000	30.3587   	8.500000	30.9588   	8.500000	30.9588   	8.500000	30.3364   	8.500000	0.0222999 	
9.000000	38.6364   	9.000000	29.7959   	9.000000	30.3101   	9.000000	30.3101   	9.000000	29.7747   	9.000000	0.0212122 	
9.500000	37.4896   	9.500000	29.2544   	9.500000	29.6887   	9.500000	29.6887   	9.500000	29.2342   	9.500000	0.0202312 	
10.000000	36.4155   	10.000000	29.0088   	10.000000	29.0931   	10.000000	29.0931   	10.000000	28.9894   	10.000000	0.0193418 	
11.000000	34.4592   	11.000000	27.9665   	11.000000	27.8119   	11.000000	28.1269   	11.000000	27.9487   	11.000000	0.0177897 	
12.000000	32.7228   	12.000000	26.9824   	12.000000	26.6401   	12.000000	27.2114   	12.000000	26.9659   	12.000000	0.0164799 	
13.000000	31.1706   	13.000000	26.0572   	13.000000	25.5652   	13.000000	26.3463   	13.000000	26.0418   	13.000000	0.0153588 	
14.000000	29.7744   	14.000000	25.189    	14.000000	24.5766   	14.000000	25.5297   	14.000000	25.1746   	14.000000	0.0143877 	
15.000000	28.5113   	15.000000	24.3747   	15.000000	23.665    	15.000000	24.7593   	15.000000	24.3611   	15.000000	0.013538  	
16.000000	27.3629   	16.000000	23.6107   	16.000000	22.8216   	16.000000	24.0321   	16.000000	23.598    	16.000000	0.0127879 	
17.000000	26.3139   	17.000000	22.8936   	17.000000	22.039    	17.000000	23.3454   	17.000000	22.8814   	17.000000	0.0121206 	
18.000000	25.3515   	18.000000	22.2196   	18.000000	21.3111   	18.000000	22.6964   	18.000000	22.2081   	18.000000	0.0115228 	
19.000000	24.4653   	19.000000	21.5854   	19.000000	20.6332   	19.000000	22.0825   	19.000000	21.5744   	19.000000	0.0109841 	
20.000000	23.6464   	20.000000	20.988    	20.000000	20.0008   	20.000000	21.5012   	20.000000	20.9775   	20.000000	0.010496  	
21.000000	22.8872   	21.000000	20.4243   	21.000000	19.4092   	21.000000	20.9502   	21.000000	20.4142   	21.000000	0.0100515 	
22.000000	22.1812   	22.000000	19.8918   	22.000000	18.8536   	22.000000	20.4275   	22.000000	19.8822   	22.000000	0.00964491	
23.000000	21.5228   	23.000000	19.3881   	23.000000	18.3313   	23.000000	19.9311   	23.000000	19.3788   	23.000000	0.00927158	
24.000000	20.9074   	24.000000	18.911    	24.000000	17.841    	24.000000	19.4593   	24.000000	18.902    	24.000000	0.00892748	
25.000000	20.3307   	25.000000	18.4584   	25.000000	17.3801   	25.000000	19.0104   	25.000000	18.4498   	25.000000	0.00860925	
27.000000	19.2795   	27.000000	17.6201   	27.000000	16.5338   	27.000000	18.1755   	27.000000	17.612    	27.000000	0.00803939	
29.000000	18.3449   	29.000000	16.8604   	29.000000	15.7764   	29.000000	17.4161   	29.000000	16.8529   	29.000000	0.00754361	
31.000000	17.5082   	31.000000	16.1691   	31.000000	15.1425   	31.000000	16.6914   	31.000000	16.1619   	31.000000	0.00710814	
33.000000	16.7545   	33.000000	15.5372   	33.000000	14.6062   	33.000000	16.0019   	33.000000	15.5305   	33.000000	0.00672245	
35.000000	16.0716   	35.000000	14.9576   	35.000000	14.1108   	35.000000	15.373    	35.000000	14.9512   	35.000000	0.00637833	
38.000000	15.1594   	38.000000	14.1727   	38.000000	13.4339   	38.000000	14.5267   	38.000000	14.1668   	38.000000	0.0059263 	
41.000000	14.359    	41.000000	13.4745   	41.000000	12.8279   	41.000000	13.7786   	41.000000	13.469    	41.000000	0.00553679	
44.000000	13.6506   	44.000000	12.8494   	44.000000	12.2804   	44.000000	13.1122   	44.000000	12.8442   	44.000000	0.00519749	
47.000000	13.0189   	47.000000	12.2864   	47.000000	11.7844   	47.000000	12.5149   	47.000000	12.2815   	47.000000	0.00489914	
50.000000	12.4518   	50.000000	11.7768   	50.000000	11.3318   	50.000000	11.9763   	50.000000	11.7722   	50.000000	0.00463465	
55.000000	11.6248   	55.000000	11.0269   	55.000000	10.6624   	55.000000	11.1872   	55.000000	11.0226   	55.000000	0.00425458	
60.000000	10.9172   	60.000000	10.3793   	60.000000	10.0781   	60.000000	10.5089   	60.000000	10.3754   	60.000000	0.00393455	
65.000000	10.3043   	65.000000	9.81439   	65.000000	9.56383   	65.000000	9.91958   	65.000000	9.81073   	65.000000	0.00366121	
70.000000	9.76785   	70.000000	9.31731   	70.000000	9.10963   	70.000000	9.4027    	70.000000	9.31389   	70.000000	0.0034249 	
75.000000	9.29416   	75.000000	8.87654   	75.000000	8.70423   	75.000000	8.94567   	75.000000	8.87332   	75.000000	0.00321847	
80.000000	8.87257   	80.000000	8.48303   	80.000000	8.34019   	80.000000	8.53864   	80.000000	8.47999   	80.000000	0.00303652	
85.000000	8.49475   	85.000000	8.12957   	85.000000	8.01141   	85.000000	8.17384   	85.000000	8.1267    	85.000000	0.00287488	
90.000000	8.15406   	90.000000	7.81035   	90.000000	7.71298   	90.000000	7.84499   	90.000000	7.80762   	90.000000	0.00273029	
95.000000	7.84517   	95.000000	7.52064   	95.000000	7.4418    	95.000000	7.54705   	95.000000	7.51804   	95.000000	0.00260014	
100.000000	7.56373   	100.000000	7.25653   	100.000000	7.19238   	100.000000	7.27585   	100.000000	7.25405   	100.000000	0.00248234	
105.000000	7.30614   	105.000000	7.01478   	105.000000	6.96486   	105.000000	7.02794   	105.000000	7.01241   	105.000000	0.00237519	
110.000000	7.06943   	110.000000	6.79267   	110.000000	6.75419   	110.000000	6.80046   	110.000000	6.79039   	110.000000	0.0022773 	
115.000000	6.85109   	115.000000	6.5879    	115.000000	6.55953   	115.000000	6.59097   	115.000000	6.58572   	115.000000	0.00218749	
120.000000	6.64903   	120.000000	6.39853   	120.000000	6.37909   	120.000000	6.39743   	120.000000	6.39643   	120.000000	0.00210479	
125.000000	6.46143   	125.000000	6.22289   	125.000000	6.21118   	125.000000	6.2181    	125.000000	6.22086   	125.000000	0.00202837	
130.000000	6.28676   	130.000000	6.05954   	130.000000	6.05499   	130.000000	6.05145   	130.000000	6.05758   	130.000000	0.00195754	
135.000000	6.1237    	135.000000	5.90723   	135.000000	5.90875   	135.000000	5.89621   	135.000000	5.90534   	135.000000	0.00189169	
140.000000	5.9711    	140.000000	5.7649    	140.000000	5.77183   	140.000000	5.75123   	140.000000	5.76307   	140.000000	0.00183032	
145.000000	5.82796   	145.000000	5.63158   	145.000000	5.64372   	145.000000	5.61554   	145.000000	5.62981   	145.000000	0.00177296	
150.000000	5.6934    	150.000000	5.50647   	150.000000	5.52342   	150.000000	5.48828   	150.000000	5.50475   	150.000000	0.00171924	
155.000000	5.50165   	155.000000	5.38882   	155.000000	5.40942   	155.000000	5.36869   	155.000000	5.38715   	155.000000	0.00166882	
160.000000	5.39039   	160.000000	5.27799   	160.000000	5.30179   	160.000000	5.2561    	160.000000	5.27637   	160.000000	0.00162139	
165.000000	5.2853    	165.000000	5.1734    	165.000000	5.20069   	165.000000	5.14991   	165.000000	5.17183   	165.000000	0.0015767 	
170.000000	5.18586   	170.000000	5.07456   	170.000000	5.10485   	170.000000	5.0496    	170.000000	5.07302   	170.000000	0.00153451	
175.000000	5.09164   	175.000000	4.98099   	175.000000	5.01382   	175.000000	4.9547    	175.000000	4.97949   	175.000000	0.00149461	
180.000000	5.00223   	180.000000	4.89229   	180.000000	4.92761   	180.000000	4.86479   	180.000000	4.89083   	180.000000	0.00145682	
185.000000	4.91726   	185.000000	4.80809   	185.000000	4.84564   	185.000000	4.77948   	185.000000	4.80667   	185.000000	0.00142097	
190.000000	4.8364    	190.000000	4.72806   	190.000000	4.76744   	190.000000	4.69843   	190.000000	4.72668   	190.000000	0.00138692	
195.000000	4.75937   	195.000000	4.65191   	195.000000	4.69295   	195.000000	4.62134   	195.000000	4.65055   	195.000000	0.00135453	
200.000000	4.68589   	200.000000	4.57934   	200.000000	4.62202   	200.000000	4.54793   	200.000000	4.57802   	200.000000	0.00132368	
210.000000	4.54865   	210.000000	4.44405   	210.000000	4.48983   	210.000000	4.41113   	210.000000	4.44278   	210.000000	0.00126618	
220.000000	4.42298   	220.000000	4.32046   	220.000000	4.36842   	220.000000	4.28627   	220.000000	4.31924   	220.000000	0.00121366	
230.000000	4.30747   	230.000000	4.20712   	230.000000	4.25758   	230.000000	4.17187   	230.000000	4.20595   	230.000000	0.00116549	
240.000000	4.20093   	240.000000	4.10283   	240.000000	4.15485   	240.000000	4.06669   	240.000000	4.10171   	240.000000	0.00112115	
250.000000	4.10235   	250.000000	4.00656   	250.000000	4.06001   	250.000000	3.96967   	250.000000	4.00547   	250.000000	0.00108019	
260.000000	4.01087   	260.000000	3.91742   	260.000000	3.97235   	260.000000	3.87992   	260.000000	3.91638   	260.000000	0.00104224	
270.000000	3.92575   	270.000000	3.83466   	270.000000	3.89055   	270.000000	3.79666   	270.000000	3.83366   	270.000000	0.00100696	
280.000000	3.84635   	280.000000	3.75764   	280.000000	3.81444   	280.000000	3.71924   	280.000000	3.75666   	280.000000	0.000974091	
290.000000	3.77212   	290.000000	3.68578   	290.000000	3.7436    	290.000000	3.64706   	290.000000	3.68484   	290.000000	0.000943382	
300.000000	3.70256   	300.000000	3.61859   	300.000000	3.67735   	300.000000	3.57963   	300.000000	3.61768   	300.000000	0.000914626	
310.000000	3.63725   	310.000000	3.55564   	310.000000	3.61526   	310.000000	3.51651   	310.000000	3.55476   	310.000000	0.00088764	
320.000000	3.57582   	320.000000	3.49655   	320.000000	3.55701   	320.000000	3.4573    	320.000000	3.49569   	320.000000	0.000862263	
330.000000	3.51794   	330.000000	3.44099   	330.000000	3.50205   	330.000000	3.40167   	330.000000	3.44015   	330.000000	0.000838354	
340.000000	3.46331   	340.000000	3.38864   	340.000000	3.45017   	340.000000	3.34931   	340.000000	3.38783   	340.000000	0.000815787	
350.000000	3.41167   	350.000000	3.33926   	350.000000	3.40127   	350.000000	3.29996   	350.000000	3.33846   	350.000000	0.00079445	
360.000000	3.36278   	360.000000	3.2926    	360.000000	3.35509   	360.000000	3.25336   	360.000000	3.29182   	360.000000	0.000774245	
370.000000	3.31644   	370.000000	3.24844   	370.000000	3.3114    	370.000000	3.2093    	370.000000	3.24769   	370.000000	0.000755083	
380.000000	3.27246   	380.000000	3.20661   	380.000000	3.27008   	380.000000	3.16759   	380.000000	3.20587   	380.000000	0.000736883	
390.000000	3.23066   	390.000000	3.16692   	390.000000	3.23083   	390.000000	3.12805   	390.000000	3.1662    	390.000000	0.000719574	
400.000000	3.19089   	400.000000	3.12923   	400.000000	3.1934    	400.000000	3.09053   	400.000000	3.12852   	400.000000	0.000703091	
410.000000	3.15301   	410.000000	3.09338   	410.000000	3.15781   	410.000000	3.05488   	410.000000	3.0927    	410.000000	0.000687377	
420.000000	3.1169    	420.000000	3.05926   	420.000000	3.12412   	420.000000	3.02097   	420.000000	3.05859   	420.000000	0.000672376	
430.000000	3.08244   	430.000000	3.02675   	430.000000	3.09207   	430.000000	2.98869   	430.000000	3.02609   	430.000000	0.000658042	
440.000000	3.04951   	440.000000	2.99574   	440.000000	3.06138   	440.000000	2.95792   	440.000000	2.9951    	440.000000	0.000644331	
450.000000	3.01804   	450.000000	2.96614   	450.000000	3.03202   	450.000000	2.92857   	450.000000	2.96551   	450.000000	0.000631201	
460.000000	2.98791   	460.000000	2.93785   	460.000000	3.00398   	460.000000	2.90055   	460.000000	2.93723   	460.000000	0.000618617	
470.000000	2.95907   	470.000000	2.9108    	470.000000	2.97721   	470.000000	2.87376   	470.000000	2.91019   	470.000000	0.000606544	
480.000000	2.93142   	480.000000	2.8849    	480.000000	2.9516    	480.000000	2.84815   	480.000000	2.88431   	480.000000	0.000594952	
490.000000	2.90491   	490.000000	2.8601    	490.000000	2.92708   	490.000000	2.82364   	490.000000	2.85952   	490.000000	0.000583812	
500.000000	2.87946   	500.000000	2.83633   	500.000000	2.90357   	500.000000	2.80016   	500.000000	2.83576   	500.000000	0.000573098	
520.000000	2.83153   	520.000000	2.79164   	520.000000	2.85942   	520.000000	2.75606   	520.000000	2.79109   	520.000000	0.000552851	
540.000000	2.78721   	540.000000	2.75042   	540.000000	2.81877   	540.000000	2.71543   	540.000000	2.74988   	540.000000	0.000534039	
560.000000	2.74614   	560.000000	2.7123    	560.000000	2.78113   	560.000000	2.67792   	560.000000	2.71178   	560.000000	0.000516512	
580.000000	2.708     	580.000000	2.67698   	580.000000	2.74609   	580.000000	2.64319   	580.000000	2.67648   	580.000000	0.000500142	
600.000000	2.67251   	600.000000	2.64417   	600.000000	2.71372   	600.000000	2.61097   	600.000000	2.64369   	600.000000	0.000484815	
620.000000	2.63944   	620.000000	2.61365   	620.000000	2.6837    	620.000000	2.58102   	620.000000	2.61318   	620.000000	0.000470435	
640.000000	2.60856   	640.000000	2.58521   	640.000000	2.6556    	640.000000	2.55314   	640.000000	2.58476   	640.000000	0.000456915	
660.000000	2.57969   	660.000000	2.55867   	660.000000	2.62929   	660.000000	2.52712   	660.000000	2.55822   	660.000000	0.000444179	
680.000000	2.55267   	680.000000	2.53385   	680.000000	2.60471   	680.000000	2.50282   	680.000000	2.53342   	680.000000	0.00043216	
700.000000	2.52734   	700.000000	2.51062   	700.000000	2.58179   	700.000000	2.48007   	700.000000	2.5102    	700.000000	0.000420798	
720.000000	2.50357   	720.000000	2.48884   	720.000000	2.5604    	720.000000	2.45876   	720.000000	2.48843   	720.000000	0.000410041	
740.000000	2.48124   	740.000000	2.46841   	740.000000	2.5405    	740.000000	2.43896   	740.000000	2.46801   	740.000000	0.00039984	
760.000000	2.46025   	760.000000	2.44922   	760.000000	2.52189   	760.000000	2.42055   	760.000000	2.44883   	760.000000	0.000390154	
780.000000	2.44049   	780.000000	2.43118   	780.000000	2.50435   	780.000000	2.40324   	780.000000	2.43079   	780.000000	0.000380942	
800.000000	2.42189   	800.000000	2.41419   	800.000000	2.48784   	800.000000	2.38694   	800.000000	2.41382   	800.000000	0.000372172	
820.000000	2.40435   	820.000000	2.3982    	820.000000	2.47229   	820.000000	2.37159   	820.000000	2.39783   	820.000000	0.000363812	
840.000000	2.38782   	840.000000	2.38312   	840.000000	2.45763   	840.000000	2.3571    	840.000000	2.38276   	840.000000	0.000355833	
860.000000	2.37221   	860.000000	2.3689    	860.000000	2.4438    	860.000000	2.34343   	860.000000	2.36855   	860.000000	0.000348209	
880.000000	2.35749   	880.000000	2.35547   	880.000000	2.43072   	880.000000	2.33052   	880.000000	2.35513   	880.000000	0.000340917	
900.000000	2.34358   	900.000000	2.3428    	900.000000	2.41829   	900.000000	2.31831   	900.000000	2.34246   	900.000000	0.000333935	
920.000000	2.33044   	920.000000	2.33082   	920.000000	2.40649   	920.000000	2.30675   	920.000000	2.33049   	920.000000	0.000327245	
940.000000	2.31802   	940.000000	2.31949   	940.000000	2.3953    	940.000000	2.29581   	940.000000	2.31917   	940.000000	0.000320827	
960.000000	2.30629   	960.000000	2.30879   	960.000000	2.38472   	960.000000	2.28545   	960.000000	2.30847   	960.000000	0.000314665	
980.000000	2.29519   	980.000000	2.29866   	980.000000	2.37473   	980.000000	2.27562   	980.000000	2.29835   	980.000000	0.000308744	
1000.000000	2.2847    	1000.000000	2.28907   	1000.000000	2.36527   	1000.000000	2.2663    	1000.000000	2.28877   	1000.000000	0.00030305	
1020.000000	2.27478   	1020.000000	2.28      	1020.000000	2.35631   	1020.000000	2.25746   	1020.000000	2.2797    	1020.000000	0.00029757	
1040.000000	2.2654    	1040.000000	2.27142   	1040.000000	2.3478    	1040.000000	2.24906   	1040.000000	2.27112   	1040.000000	0.000292292	
1060.000000	2.25654   	1060.000000	2.26329   	1060.000000	2.33971   	1060.000000	2.24108   	1060.000000	2.263     	1060.000000	0.000287205	
1080.000000	2.24816   	1080.000000	2.25559   	1080.000000	2.33201   	1080.000000	2.2335    	1080.000000	2.25531   	1080.000000	0.000282298	
1100.000000	2.24024   	1100.000000	2.2483    	1100.000000	2.32467   	1100.000000	2.22629   	1100.000000	2.24802   	1100.000000	0.000277563	
1120.000000	2.23276   	1120.000000	2.2414    	1120.000000	2.31766   	1120.000000	2.21943   	1120.000000	2.24113   	1120.000000	0.000272989	
1140.000000	2.2257    	1140.000000	2.23487   	1140.000000	2.31097   	1140.000000	2.21291   	1140.000000	2.2346    	1140.000000	0.00026857	
1160.000000	2.21903   	1160.000000	2.22869   	1160.000000	2.30459   	1160.000000	2.2067    	1160.000000	2.22843   	1160.000000	0.000264296	
1180.000000	2.21274   	1180.000000	2.22284   	1180.000000	2.29852   	1180.000000	2.20079   	1180.000000	2.22258   	1180.000000	0.000260161	
1200.000000	2.20681   	1200.000000	2.21731   	1200.000000	2.29274   	1200.000000	2.19516   	1200.000000	2.21705   	1200.000000	0.000256159	
1220.000000	2.20122   	1220.000000	2.21207   	1220.000000	2.28727   	1220.000000	2.1898    	1220.000000	2.21182   	1220.000000	0.000252282	
1240.000000	2.19596   	1240.000000	2.20712   	1240.000000	2.28206   	1240.000000	2.18469   	1240.000000	2.20688   	1240.000000	0.000248525	
1260.000000	2.19101   	1260.000000	2.20245   	1260.000000	2.27711   	1260.000000	2.17982   	1260.000000	2.2022    	1260.000000	0.000244883	
1280.000000	2.18637   	1280.000000	2.19804   	1280.000000	2.27239   	1280.000000	2.17518   	1280.000000	2.19779   	1280.000000	0.000241349	
1300.000000	2.182     	1300.000000	2.19387   	1300.000000	2.26788   	1300.000000	2.17076   	1300.000000	2.19363   	1300.000000	0.00023792	
1320.000000	2.17792   	1320.000000	2.18994   	1320.000000	2.26357   	1320.000000	2.16655   	1320.000000	2.18971   	1320.000000	0.000234591	
1340.000000	2.1741    	1340.000000	2.18624   	1340.000000	2.25945   	1340.000000	2.16253   	1340.000000	2.18601   	1340.000000	0.000231356	
1360.000000	2.17053   	1360.000000	2.18275   	1360.000000	2.2555    	1360.000000	2.1587    	1360.000000	2.18252   	1360.000000	0.000228213	
1380.000000	2.1672    	1380.000000	2.17948   	1380.000000	2.25173   	1380.000000	2.15504   	1380.000000	2.17925   	1380.000000	0.000225158	
1400.000000	2.1641    	1400.000000	2.1764    	1400.000000	2.24813   	1400.000000	2.15156   	1400.000000	2.17617   	1400.000000	0.000222186	
1420.000000	2.16123   	1420.000000	2.17351   	1420.000000	2.24469   	1420.000000	2.14824   	1420.000000	2.17329   	1420.000000	0.000219294	
1440.000000	2.15858   	1440.000000	2.1708    	1440.000000	2.24142   	1440.000000	2.14507   	1440.000000	2.17059   	1440.000000	0.00021648	
1460.000000	2.15613   	1460.000000	2.16828   	1460.000000	2.23829   	1460.000000	2.14205   	1460.000000	2.16806   	1460.000000	0.000213739	
1480.000000	2.15388   	1480.000000	2.16591   	1480.000000	2.23531   	1480.000000	2.13918   	1480.000000	2.1657    	1480.000000	0.00021107	
1500.000000	2.15182   	1500.000000	2.16372   	1500.000000	2.23248   	1500.000000	2.13643   	1500.000000	2.16351   	1500.000000	0.000208468	
1520.000000	2.14994   	1520.000000	2.16167   	1520.000000	2.22977   	1520.000000	2.13382   	1520.000000	2.16147   	1520.000000	0.000205933	
1540.000000	2.14825   	1540.000000	2.15978   	1540.000000	2.22719   	1540.000000	2.13133   	1540.000000	2.15957   	1540.000000	0.000203461	
1560.000000	2.14672   	1560.000000	2.15803   	1560.000000	2.22473   	1560.000000	2.12895   	1560.000000	2.15783   	1560.000000	0.000201049	
1580.000000	2.14536   	1580.000000	2.15642   	1580.000000	2.22238   	1580.000000	2.12669   	1580.000000	2.15622   	1580.000000	0.000198696	
1600.000000	2.14417   	1600.000000	2.15494   	1600.000000	2.22015   	1600.000000	2.12454   	1600.000000	2.15474   	1600.000000	0.000196399	
1620.000000	2.14312   	1620.000000	2.15359   	1620.000000	2.21801   	1620.000000	2.12249   	1620.000000	2.15339   	1620.000000	0.000194157	
1640.000000	2.14223   	1640.000000	2.15236   	1640.000000	2.21598   	1640.000000	2.12054   	1640.000000	2.15217   	1640.000000	0.000191968	
1660.000000	2.14148   	1660.000000	2.15125   	1660.000000	2.21404   	1660.000000	2.11869   	1660.000000	2.15106   	1660.000000	0.000189829	
1680.000000	2.14087   	1680.000000	2.15026   	1680.000000	2.21219   	1680.000000	2.11693   	1680.000000	2.15008   	1680.000000	0.000187738	
1700.000000	2.1404    	1700.000000	2.14938   	1700.000000	2.21044   	1700.000000	2.11525   	1700.000000	2.1492    	1700.000000	0.000185696	
1750.000000	2.13978   	1750.000000	2.14764   	1750.000000	2.20642   	1750.000000	2.11142   	1750.000000	2.14746   	1750.000000	0.000180784	
1800.000000	2.13992   	1800.000000	2.14652   	1800.000000	2.20289   	1800.000000	2.10807   	1800.000000	2.14634   	1800.000000	0.000176135	
1850.000000	2.14076   	1850.000000	2.14596   	1850.000000	2.19981   	1850.000000	2.10515   	1850.000000	2.14579   	1850.000000	0.000171727	
1900.000000	2.14225   	1900.000000	2.14593   	1900.000000	2.19713   	1900.000000	2.10261   	1900.000000	2.14576   	1900.000000	0.000167542	
1950.000000	2.14435   	1950.000000	2.14637   	1950.000000	2.19481   	1950.000000	2.10044   	1950.000000	2.14621   	1950.000000	0.000163563	
2000.000000	2.14702   	2000.000000	2.14726   	2000.000000	2.19283   	2000.000000	2.09858   	2000.000000	2.1471    	2000.000000	0.000159776	
2100.000000	2.15391   	2100.000000	2.15026   	2100.000000	2.18973   	2100.000000	2.09573   	2100.000000	2.15011   	2100.000000	0.00015272	
2200.000000	2.16266   	2200.000000	2.15468   	2200.000000	2.18764   	2200.000000	2.09386   	2200.000000	2.15454   	2200.000000	0.000146282	
2300.000000	2.17306   	2300.000000	2.16036   	2300.000000	2.1864    	2300.000000	2.09282   	2300.000000	2.16021   	2300.000000	0.000140382	
2400.000000	2.18492   	2400.000000	2.16711   	2400.000000	2.18588   	2400.000000	2.09247   	2400.000000	2.16698   	2400.000000	0.000134955	
2500.000000	2.19811   	2500.000000	2.17483   	2500.000000	2.18597   	2500.000000	2.0927    	2500.000000	2.1747    	2500.000000	0.000129945	
2600.000000	2.21248   	2600.000000	2.18339   	2600.000000	2.18657   	2600.000000	2.09343   	2600.000000	2.18327   	2600.000000	0.000125307	
2700.000000	2.22792   	2700.000000	2.19271   	2700.000000	2.1876    	2700.000000	2.09458   	2700.000000	2.19259   	2700.000000	0.000120998	
2800.000000	2.24434   	2800.000000	2.20269   	2800.000000	2.18899   	2800.000000	2.09609   	2800.000000	2.20257   	2800.000000	0.000116986	
2900.000000	2.26166   	2900.000000	2.21327   	2900.000000	2.19069   	2900.000000	2.0979    	2900.000000	2.21316   	2900.000000	0.00011324	
3000.000000	2.27981   	3000.000000	2.22439   	3000.000000	2.19264   	3000.000000	2.09997   	3000.000000	2.22428   	3000.000000	0.000109735	
3200.000000	2.31832   	3200.000000	2.24804   	3200.000000	2.19718   	3200.000000	2.10473   	3200.000000	2.24794   	3200.000000	0.000103356	
3400.000000	2.35946   	3400.000000	2.27329   	3400.000000	2.20237   	3400.000000	2.11014   	3400.000000	2.27319   	3400.000000	9.77011e-05	
3600.000000	2.40289   	3600.000000	2.29985   	3600.000000	2.20804   	3600.000000	2.11599   	3600.000000	2.29976   	3600.000000	9.26512e-05	
3800.000000	2.44835   	3800.000000	2.32752   	3800.000000	2.21404   	3800.000000	2.12217   	3800.000000	2.32743   	3800.000000	8.81136e-05	
4000.000000	2.49564   	4000.000000	2.35612   	4000.000000	2.22026   	4000.000000	2.12857   	4000.000000	2.35603   	4000.000000	8.40132e-05	
4200.000000	2.54456   	4200.000000	2.38551   	4200.000000	2.22664   	4200.000000	2.1351    	4200.000000	2.38543   	4200.000000	8.02891e-05	
4400.000000	2.59499   	4400.000000	2.41557   	4400.000000	2.23311   	4400.000000	2.14172   	4400.000000	2.41549   	4400.000000	7.68913e-05	
4600.000000	2.64679   	4600.000000	2.44621   	4600.000000	2.23962   	4600.000000	2.14837   	4600.000000	2.44614   	4600.000000	7.37782e-05	
4800.000000	2.69988   	4800.000000	2.47736   	4800.000000	2.24614   	4800.000000	2.15502   	4800.000000	2.47729   	4800.000000	7.09152e-05	
5000.000000	2.75417   	5000.000000	2.50894   	5000.000000	2.25263   	5000.000000	2.16164   	5000.000000	2.50887   	5000.000000	6.8273e-05	
5250.000000	2.8236    	5250.000000	2.54895   	5250.000000	2.26069   	5250.000000	2.16985   	5250.000000	2.54889   	5250.000000	6.52431e-05	
5500.000000	2.89467   	5500.000000	2.58946   	5500.000000	2.26866   	5500.000000	2.17796   	5500.000000	2.5894    	5500.000000	6.24789e-05	
6000.000000	3.04136   	6000.000000	2.67171   	6000.000000	2.28423   	6000.000000	2.1938    	6000.000000	2.67165   	6000.000000	5.76176e-05	
6500.000000	3.19362   	6500.000000	2.75523   	6500.000000	2.29927   	6500.000000	2.20905   	6500.000000	2.75518   	6500.000000	5.34786e-05	
7000.000000	3.351     	7000.000000	2.8397    	7000.000000	2.31372   	7000.000000	2.22369   	7000.000000	2.83965   	7000.000000	4.99107e-05	
7500.000000	3.5132    	7500.000000	2.92489   	7500.000000	2.32743   	7500.000000	2.2377    	7500.000000	2.92484   	7500.000000	4.68023e-05	
8000.000000	3.67995   	8000.000000	3.01061   	8000.000000	2.34059   	8000.000000	2.25111   	8000.000000	3.01056   	8000.000000	4.40692e-05	
8500.000000	3.85106   	8500.000000	3.09674   	8500.000000	2.35318   	8500.000000	2.26393   	8500.000000	3.09669   	8500.000000	4.16467e-05	
9000.000000	4.0264    	9000.000000	3.18317   	9000.000000	2.36518   	9000.000000	2.2762    	9000.000000	3.18313   	9000.000000	3.94842e-05	
9500.000000	4.20584   	9500.000000	3.26984   	9500.000000	2.37664   	9500.000000	2.28795   	9500.000000	3.2698    	9500.000000	3.75416e-05	
10000.000000	4.38929   	10000.000000	3.35668   	10000.000000	2.38761   	10000.000000	2.29922   	10000.000000	3.35665   	10000.000000	3.57866e-05	
11000.000000	4.76794   	11000.000000	3.5307    	11000.000000	2.40819   	11000.000000	2.32039   	11000.000000	3.53067   	11000.000000	3.27396e-05	
12000.000000	5.16192   	12000.000000	3.70495   	12000.000000	2.42715   	12000.000000	2.33995   	12000.000000	3.70492   	12000.000000	3.01839e-05	
13000.000000	5.57091   	13000.000000	3.87924   	13000.000000	2.44471   	13000.000000	2.3581    	13000.000000	3.87922   	13000.000000	2.80086e-05	
14000.000000	5.99473   	14000.000000	4.05347   	14000.000000	2.46104   	14000.000000	2.37499   	14000.000000	4.05345   	14000.000000	2.6134e-05	
15000.000000	6.43325   	15000.000000	4.22756   	15000.000000	2.47626   	15000.000000	2.39078   	15000.000000	4.22754   	15000.000000	2.45013e-05	
16000.000000	6.88637   	16000.000000	4.40145   	16000.000000	2.4904    	16000.000000	2.40559   	16000.000000	4.40143   	16000.000000	2.3066e-05	
17000.000000	7.35405   	17000.000000	4.5751    	17000.000000	2.50355   	17000.000000	2.41951   	17000.000000	4.57508   	17000.000000	2.1794e-05	
18000.000000	7.83627   	18000.000000	4.7485    	18000.000000	2.51583   	18000.000000	2.43265   	18000.000000	4.74848   	18000.000000	2.06588e-05	
19000.000000	8.33302   	19000.000000	4.92163   	19000.000000	2.52736   	19000.000000	2.44508   	19000.000000	4.92161   	19000.000000	1.96393e-05	
20000.000000	8.8443    	20000.000000	5.09448   	20000.000000	2.53822   	20000.000000	2.45686   	20000.000000	5.09446   	20000.000000	1.87184e-05	
21000.000000	9.37013   	21000.000000	5.26704   	21000.000000	2.54851   	21000.000000	2.46806   	21000.000000	5.26702   	21000.000000	1.78823e-05	
22000.000000	9.91056   	22000.000000	5.43932   	22000.000000	2.55827   	22000.000000	2.47873   	22000.000000	5.4393    	22000.000000	1.71198e-05	
23000.000000	10.4656   	23000.000000	5.61131   	23000.000000	2.56748   	23000.000000	2.48891   	23000.000000	5.6113    	23000.000000	1.64215e-05	
24000.000000	11.0353   	24000.000000	5.78302   	24000.000000	2.57621   	24000.000000	2.49864   	24000.000000	5.78301   	24000.000000	1.57795e-05	
25000.000000	11.6198   	25000.000000	5.95445   	25000.000000	2.58454   	25000.000000	2.50797   	25000.000000	5.95444   	25000.000000	1.51872e-05	
26000.000000	12.219    	26000.000000	6.12561   	26000.000000	2.59247   	26000.000000	2.5169    	26000.000000	6.1256    	26000.000000	1.4639e-05	
27000.000000	12.833    	27000.000000	6.2965    	27000.000000	2.6       	27000.000000	2.52549   	27000.000000	6.29648   	27000.000000	1.41301e-05	
28000.000000	13.462    	28000.000000	6.46712   	28000.000000	2.60717   	28000.000000	2.53375   	28000.000000	6.46711   	28000.000000	1.36563e-05	
29000.000000	14.1059   	29000.000000	6.63748   	29000.000000	2.61401   	29000.000000	2.54171   	29000.000000	6.63747   	29000.000000	1.32142e-05	
30000.000000	14.7648   	30000.000000	6.80759   	30000.000000	2.62055   	30000.000000	2.54938   	30000.000000	6.80757   	30000.000000	1.28007e-05	
32000.000000	16.128    	32000.000000	7.14706   	32000.000000	2.63277   	32000.000000	2.56394   	32000.000000	7.14705   	32000.000000	1.20486e-05	
34000.000000	17.5521   	34000.000000	7.48558   	34000.000000	2.64397   	34000.000000	2.57756   	34000.000000	7.48557   	34000.000000	1.13823e-05	
36000.000000	19.0377   	36000.000000	7.82319   	36000.000000	2.65426   	36000.000000	2.59036   	36000.000000	7.82318   	36000.000000	1.07878e-05	
38000.000000	20.5856   	38000.000000	8.15993   	38000.000000	2.66376   	38000.000000	2.60242   	38000.000000	8.15992   	38000.000000	1.02539e-05	
40000.000000	22.1961   	40000.000000	8.49584   	40000.000000	2.67254   	40000.000000	2.61382   	40000.000000	8.49583   	40000.000000	9.77172e-06	
42000.000000	23.8702   	42000.000000	8.83095   	42000.000000	2.68066   	42000.000000	2.62462   	42000.000000	8.83094   	42000.000000	9.33405e-06	
44000.000000	25.6082   	44000.000000	9.16529   	44000.000000	2.6882    	44000.000000	2.63489   	44000.000000	9.16528   	44000.000000	8.93495e-06	
46000.000000	27.4111   	46000.000000	9.4989    	46000.000000	2.69525   	46000.000000	2.64466   	46000.000000	9.49889   	46000.000000	8.56948e-06	
48000.000000	29.2794   	48000.000000	9.83181   	48000.000000	2.70183   	48000.000000	2.65399   	48000.000000	9.8318    	48000.000000	8.23352e-06	
50000.000000	31.2138   	50000.000000	10.164    	50000.000000	2.70792   	50000.000000	2.66291   	50000.000000	10.164    	50000.000000	7.92362e-06	
