Energy (MeV/u)1	0 - [He-base] F.Hubert et al, AD&ND Tables 46(1990)1	Energy (MeV/u)2	1 - [H -base] J.F.Ziegler et al, Pergamon Press, NY (low energy)	Energy (MeV/u)3	2 - ATIMA 1.2  LS-theory (recommended for high energy)	Energy (MeV/u)4	3 - ATIMA 1.2  without LS-correction	Energy (MeV/u)5	4 - electrical component of [1] - J.F.Ziegler et al	Energy (MeV/u)6	5 - nuclear component of [1] - J.F.Ziegler et al	
0.001000	2.93419   	0.001000	2.00075   	0.001000	2.11462   	0.001000	2.11462   	0.001000	0.453599  	0.001000	1.54716   	
0.002000	2.87012   	0.002000	1.9082    	0.002000	2.05863   	0.002000	2.05863   	0.002000	0.606305  	0.002000	1.3019    	
0.005000	2.94001   	0.005000	1.79051   	0.005000	2.01093   	0.005000	2.01093   	0.005000	0.891251  	0.005000	0.899259  	
0.008000	3.10938   	0.008000	1.79106   	0.008000	2.06089   	0.008000	2.06089   	0.008000	1.08677   	0.008000	0.70429   	
0.010000	3.22957   	0.010000	1.8146    	0.010000	2.11206   	0.010000	2.11206   	0.010000	1.19429   	0.010000	0.62031   	
0.015000	3.75189   	0.015000	1.93456   	0.015000	2.28802   	0.015000	2.28802   	0.015000	1.44975   	0.015000	0.484813  	
0.020000	4.2758    	0.020000	2.27545   	0.020000	2.68696   	0.020000	2.68696   	0.020000	1.87283   	0.020000	0.402617  	
0.025000	4.90715   	0.025000	2.65723   	0.025000	3.12816   	0.025000	3.12816   	0.025000	2.31056   	0.025000	0.346672  	
0.030000	5.50522   	0.030000	3.0671    	0.030000	3.5132    	0.030000	3.5132    	0.030000	2.76131   	0.030000	0.305789  	
0.035000	6.05009   	0.035000	3.48484   	0.035000	3.89914   	0.035000	3.89914   	0.035000	3.21181   	0.035000	0.273032  	
0.040000	6.53048   	0.040000	3.90499   	0.040000	4.28367   	0.040000	4.28367   	0.040000	3.65672   	0.040000	0.248267  	
0.045000	6.93964   	0.045000	4.31886   	0.045000	4.66067   	0.045000	4.66067   	0.045000	4.09177   	0.045000	0.227093  	
0.050000	7.27451   	0.050000	4.72398   	0.050000	5.0296    	0.050000	5.0296    	0.050000	4.51367   	0.050000	0.210309  	
0.055000	7.76737   	0.055000	5.11615   	0.055000	5.38768   	0.055000	5.38768   	0.055000	4.92009   	0.055000	0.196062  	
0.060000	8.21631   	0.060000	5.49327   	0.060000	5.73372   	0.060000	5.73372   	0.060000	5.30947   	0.060000	0.183801  	
0.070000	8.95555   	0.070000	6.18349   	0.070000	6.38693   	0.070000	6.38693   	0.070000	6.01975   	0.070000	0.163736  	
0.080000	9.72636   	0.080000	6.79975   	0.080000	6.98671   	0.080000	6.98671   	0.080000	6.65179   	0.080000	0.147962  	
0.090000	10.3823   	0.090000	7.35228   	0.090000	7.53378   	0.090000	7.53378   	0.090000	7.21708   	0.090000	0.135202  	
0.100000	10.9448   	0.100000	7.84661   	0.100000	8.03079   	0.100000	8.03079   	0.100000	7.72196   	0.100000	0.124644  	
0.120000	11.5899   	0.120000	8.68571   	0.120000	8.88937   	0.120000	8.88937   	0.120000	8.57757   	0.120000	0.108142  	
0.140000	12.087    	0.140000	9.37633   	0.140000	9.59379   	0.140000	9.59379   	0.140000	9.28054   	0.140000	0.0957896 	
0.160000	12.5132   	0.160000	9.95073   	0.160000	10.1732   	0.160000	10.1732   	0.160000	9.86457   	0.160000	0.0861625 	
0.180000	12.9047   	0.180000	10.4244   	0.180000	10.6516   	0.180000	10.6516   	0.180000	10.3459   	0.180000	0.0784288 	
0.200000	13.2834   	0.200000	10.8186   	0.200000	11.0484   	0.200000	11.0484   	0.200000	10.7465   	0.200000	0.0720672 	
0.250000	13.8206   	0.250000	11.5971   	0.250000	11.7745   	0.250000	11.7745   	0.250000	11.537    	0.250000	0.0601635 	
0.300000	14.3873   	0.300000	12.2206   	0.300000	12.2396   	0.300000	12.2396   	0.300000	12.1687   	0.300000	0.0518451 	
0.350000	14.8366   	0.350000	12.6488   	0.350000	12.6407   	0.350000	12.6407   	0.350000	12.6032   	0.350000	0.0456771 	
0.400000	15.1821   	0.400000	12.9465   	0.400000	13.0822   	0.400000	13.0822   	0.400000	12.9056   	0.400000	0.0409061 	
0.450000	15.6081   	0.450000	13.2919   	0.450000	13.3953   	0.450000	13.3953   	0.450000	13.2548   	0.450000	0.037097  	
0.500000	15.9575   	0.500000	13.5791   	0.500000	13.6159   	0.500000	13.6159   	0.500000	13.5451   	0.500000	0.0339798 	
0.600000	15.8526   	0.600000	13.9444   	0.600000	13.8701   	0.600000	13.8701   	0.600000	13.9153   	0.600000	0.0291709 	
0.700000	15.4739   	0.700000	14.1126   	0.700000	13.9576   	0.700000	13.9576   	0.700000	14.087    	0.700000	0.0256229 	
0.800000	15.4591   	0.800000	14.0801   	0.800000	13.8229   	0.800000	13.8229   	0.800000	14.0573   	0.800000	0.0228893 	
0.900000	15.3564   	0.900000	13.9813   	0.900000	13.6606   	0.900000	13.6606   	0.900000	13.9605   	0.900000	0.0207141 	
1.000000	15.0954   	1.000000	13.7466   	1.000000	13.4817   	1.000000	13.4817   	1.000000	13.7277   	1.000000	0.0189389 	
1.250000	14.3406   	1.250000	13.1187   	1.250000	12.9621   	1.250000	12.9621   	1.250000	13.103    	1.250000	0.0156531 	
1.500000	13.5632   	1.500000	12.481    	1.500000	12.3649   	1.500000	12.3649   	1.500000	12.4676   	1.500000	0.013386  	
1.750000	12.8314   	1.750000	11.8859   	1.750000	11.8361   	1.750000	11.8361   	1.750000	11.8742   	1.750000	0.0117214 	
2.000000	12.1745   	2.000000	11.3549   	2.000000	11.3575   	2.000000	11.3575   	2.000000	11.3445   	2.000000	0.010444  	
2.250000	11.6112   	2.250000	10.8868   	2.250000	10.9192   	2.250000	10.9192   	2.250000	10.8773   	2.250000	0.00943071	
2.500000	12.0084   	2.500000	10.4661   	2.500000	10.5151   	2.500000	10.5151   	2.500000	10.4575   	2.500000	0.00860614	
3.000000	10.9663   	3.000000	9.72817   	3.000000	9.79308   	3.000000	9.79308   	3.000000	9.72083   	3.000000	0.00734267	
3.500000	10.0908   	3.500000	9.0963    	3.500000	9.16619   	3.500000	9.16619   	3.500000	9.08988   	3.500000	0.00641756	
4.000000	9.34815   	4.000000	8.54771   	4.000000	8.61678   	4.000000	8.61678   	4.000000	8.54201   	4.000000	0.00570923	
4.500000	8.71141   	4.500000	8.06563   	4.500000	8.13142   	4.500000	8.13142   	4.500000	8.06048   	4.500000	0.00514847	
5.000000	8.15987   	5.000000	7.63767   	5.000000	7.6996    	5.000000	7.6996    	5.000000	7.63298   	5.000000	0.00469287	
5.500000	7.67763   	5.500000	7.25469   	5.500000	7.31294   	5.500000	7.31294   	5.500000	7.25038   	5.500000	0.00431497	
6.000000	7.25242   	6.000000	6.91008   	6.000000	6.96472   	6.000000	6.96472   	6.000000	6.90608   	6.000000	0.00399617	
6.500000	6.87466   	6.500000	6.59837   	6.500000	6.64945   	6.500000	6.64945   	6.500000	6.59465   	6.500000	0.0037234 	
7.000000	6.53678   	7.000000	6.31507   	7.000000	6.36264   	7.000000	6.36264   	7.000000	6.31158   	7.000000	0.00348721	
7.500000	6.23273   	7.500000	6.05644   	7.500000	6.10059   	7.500000	6.10059   	7.500000	6.05316   	7.500000	0.00328059	
8.000000	5.95762   	8.000000	5.81937   	8.000000	5.86019   	8.000000	5.86019   	8.000000	5.81627   	8.000000	0.00309824	
8.500000	5.70745   	8.500000	5.60124   	8.500000	5.63885   	8.500000	5.63885   	8.500000	5.5983    	8.500000	0.00293605	
9.000000	5.47896   	9.000000	5.39984   	9.000000	5.43437   	9.000000	5.43437   	9.000000	5.39705   	9.000000	0.00279079	
9.500000	5.26939   	9.500000	5.2133    	9.500000	5.24486   	9.500000	5.24486   	9.500000	5.21064   	9.500000	0.00265991	
10.000000	5.07647   	10.000000	5.0753    	10.000000	5.06874   	10.000000	5.06874   	10.000000	5.07276   	10.000000	0.00254134	
11.000000	4.7331    	11.000000	4.76127   	11.000000	4.74317   	11.000000	4.75593   	11.000000	4.75894   	11.000000	0.00233467	
12.000000	4.43656   	12.000000	4.48463   	12.000000	4.45826   	12.000000	4.48003   	12.000000	4.48247   	12.000000	0.0021605 	
13.000000	4.17777   	13.000000	4.23927   	13.000000	4.20687   	13.000000	4.23498   	13.000000	4.23726   	13.000000	0.00201162	
14.000000	3.94985   	14.000000	4.0203    	14.000000	3.98337   	14.000000	4.01594   	14.000000	4.01842   	14.000000	0.00188282	
15.000000	3.74752   	15.000000	3.82376   	15.000000	3.78335   	15.000000	3.81904   	15.000000	3.82199   	15.000000	0.00177023	
16.000000	3.56664   	16.000000	3.64641   	16.000000	3.60339   	16.000000	3.64112   	16.000000	3.64474   	16.000000	0.00167093	
17.000000	3.40392   	17.000000	3.48562   	17.000000	3.44068   	17.000000	3.4796    	17.000000	3.48404   	17.000000	0.00158267	
18.000000	3.25672   	18.000000	3.33919   	18.000000	3.2928    	18.000000	3.33236   	18.000000	3.33769   	18.000000	0.00150367	
19.000000	3.12289   	19.000000	3.2053    	19.000000	3.15779   	19.000000	3.19762   	19.000000	3.20386   	19.000000	0.00143253	
20.000000	3.00066   	20.000000	3.0824    	20.000000	3.03404   	20.000000	3.07388   	20.000000	3.08104   	20.000000	0.00136812	
21.000000	2.88856   	21.000000	2.96922   	21.000000	2.92026   	21.000000	2.95988   	21.000000	2.96791   	21.000000	0.0013095 	
22.000000	2.78536   	22.000000	2.86464   	22.000000	2.81538   	22.000000	2.85455   	22.000000	2.86338   	22.000000	0.00125593	
23.000000	2.69003   	23.000000	2.76772   	23.000000	2.71847   	23.000000	2.75696   	23.000000	2.76651   	23.000000	0.00120675	
24.000000	2.60169   	24.000000	2.67766   	24.000000	2.62868   	24.000000	2.66632   	24.000000	2.6765    	24.000000	0.00116146	
25.000000	2.51959   	25.000000	2.59375   	25.000000	2.54525   	25.000000	2.58193   	25.000000	2.59263   	25.000000	0.00111959	
27.000000	2.37158   	27.000000	2.44203   	27.000000	2.39485   	27.000000	2.4296    	27.000000	2.44099   	27.000000	0.00104467	
29.000000	2.24178   	29.000000	2.30856   	29.000000	2.2633    	29.000000	2.29601   	29.000000	2.30758   	29.000000	0.000979557	
31.000000	2.12699   	31.000000	2.19022   	31.000000	2.14866   	31.000000	2.17786   	31.000000	2.1893    	31.000000	0.000922409	
33.000000	2.0247    	33.000000	2.08459   	33.000000	2.0474    	33.000000	2.07247   	33.000000	2.08371   	33.000000	0.000871832	
35.000000	1.93294   	35.000000	1.98971   	35.000000	1.95651   	35.000000	1.97796   	35.000000	1.98888   	35.000000	0.00082674	
38.000000	1.81171   	38.000000	1.8642    	38.000000	1.83605   	38.000000	1.85311   	38.000000	1.86344   	38.000000	0.000767557	
41.000000	1.7066    	41.000000	1.75531   	41.000000	1.73148   	41.000000	1.7449    	41.000000	1.75459   	41.000000	0.000716605	
44.000000	1.61454   	44.000000	1.65992   	44.000000	1.6394    	44.000000	1.65019   	44.000000	1.65925   	44.000000	0.000672259	
47.000000	1.53322   	47.000000	1.57566   	47.000000	1.55811   	47.000000	1.56657   	47.000000	1.57503   	47.000000	0.000633294	
50.000000	1.46082   	50.000000	1.50067   	50.000000	1.48556   	50.000000	1.49217   	50.000000	1.50008   	50.000000	0.000598776	
55.000000	1.35627   	55.000000	1.39248   	55.000000	1.38047   	55.000000	1.38484   	55.000000	1.39194   	55.000000	0.000549215	
60.000000	1.26777   	60.000000	1.30103   	60.000000	1.29156   	60.000000	1.29408   	60.000000	1.30052   	60.000000	0.000507525	
65.000000	1.19182   	65.000000	1.22267   	65.000000	1.21519   	65.000000	1.21629   	65.000000	1.2222    	65.000000	0.000471947	
70.000000	1.12588   	70.000000	1.15478   	70.000000	1.14879   	70.000000	1.14885   	70.000000	1.15433   	70.000000	0.000441213	
75.000000	1.06807   	75.000000	1.09536   	75.000000	1.09064   	75.000000	1.0898    	75.000000	1.09495   	75.000000	0.000414386	
80.000000	1.01694   	80.000000	1.04292   	80.000000	1.03909   	80.000000	1.03765   	80.000000	1.04253   	80.000000	0.000390755	
85.000000	0.971367  	85.000000	0.996281  	85.000000	0.993178  	85.000000	0.991232  	85.000000	0.995911  	85.000000	0.000369775	
90.000000	0.930483  	90.000000	0.954527  	90.000000	0.952035  	90.000000	0.949654  	90.000000	0.954176  	90.000000	0.000351017	
95.000000	0.893582  	95.000000	0.916922  	95.000000	0.914943  	95.000000	0.912184  	95.000000	0.916588  	95.000000	0.000334143	
100.000000	0.860097  	100.000000	0.882872  	100.000000	0.881329  	100.000000	0.878237  	100.000000	0.882554  	100.000000	0.000318878	
105.000000	0.829564  	105.000000	0.851892  	105.000000	0.850607  	105.000000	0.847333  	105.000000	0.851587  	105.000000	0.000305  	
110.000000	0.801601  	110.000000	0.823582  	110.000000	0.822603  	110.000000	0.819078  	110.000000	0.823289  	110.000000	0.000292326	
115.000000	0.77589   	115.000000	0.797607  	115.000000	0.796844  	115.000000	0.793143  	115.000000	0.797326  	115.000000	0.000280703	
120.000000	0.752162  	120.000000	0.773688  	120.000000	0.773061  	120.000000	0.769251  	120.000000	0.773418  	120.000000	0.000270004	
125.000000	0.730191  	125.000000	0.75159   	125.000000	0.751091  	125.000000	0.747168  	125.000000	0.751329  	125.000000	0.000260122	
130.000000	0.709785  	130.000000	0.731109  	130.000000	0.730714  	130.000000	0.726695  	130.000000	0.730858  	130.000000	0.000250966	
135.000000	0.690778  	135.000000	0.712074  	135.000000	0.711767  	135.000000	0.707662  	135.000000	0.711831  	135.000000	0.000242457	
140.000000	0.673028  	140.000000	0.694335  	140.000000	0.6941    	140.000000	0.68992   	140.000000	0.694101  	140.000000	0.000234528	
145.000000	0.65641   	145.000000	0.677765  	145.000000	0.677596  	145.000000	0.673343  	145.000000	0.677538  	145.000000	0.000227121	
150.000000	0.640817  	150.000000	0.66225   	150.000000	0.662139  	150.000000	0.657819  	150.000000	0.66203   	150.000000	0.000220186	
155.000000	0.618844  	155.000000	0.647693  	155.000000	0.647581  	155.000000	0.643251  	155.000000	0.647479  	155.000000	0.000213678	
160.000000	0.605972  	160.000000	0.634006  	160.000000	0.633885  	160.000000	0.629553  	160.000000	0.633799  	160.000000	0.000207559	
165.000000	0.593832  	165.000000	0.621115  	165.000000	0.621027  	165.000000	0.616649  	165.000000	0.620913  	165.000000	0.000201793	
170.000000	0.582363  	170.000000	0.60895   	170.000000	0.608905  	170.000000	0.604472  	170.000000	0.608754  	170.000000	0.000196352	
175.000000	0.571509  	175.000000	0.597453  	175.000000	0.597429  	175.000000	0.592962  	175.000000	0.597262  	175.000000	0.000191208	
180.000000	0.561221  	180.000000	0.58657   	180.000000	0.586533  	180.000000	0.582067  	180.000000	0.586383  	180.000000	0.000186337	
185.000000	0.551457  	185.000000	0.576252  	185.000000	0.576186  	185.000000	0.571739  	185.000000	0.57607   	185.000000	0.000181717	
190.000000	0.542176  	190.000000	0.566457  	190.000000	0.566366  	190.000000	0.561933  	190.000000	0.566279  	190.000000	0.00017733	
195.000000	0.533343  	195.000000	0.557145  	195.000000	0.557059  	195.000000	0.552613  	195.000000	0.556972  	195.000000	0.000173157	
200.000000	0.524926  	200.000000	0.548283  	200.000000	0.548219  	200.000000	0.543743  	200.000000	0.548114  	200.000000	0.000169184	
210.000000	0.509226  	210.000000	0.531782  	210.000000	0.531701  	210.000000	0.52723   	210.000000	0.53162   	210.000000	0.000161781	
220.000000	0.494876  	220.000000	0.516731  	220.000000	0.516611  	220.000000	0.512173  	220.000000	0.516576  	220.000000	0.000155022	
230.000000	0.481706  	230.000000	0.50295   	230.000000	0.502861  	230.000000	0.498391  	230.000000	0.502801  	230.000000	0.000148825	
240.000000	0.469577  	240.000000	0.490284  	240.000000	0.490193  	240.000000	0.485729  	240.000000	0.490141  	240.000000	0.000143123	
250.000000	0.458368  	250.000000	0.478604  	250.000000	0.478493  	250.000000	0.474058  	250.000000	0.478466  	250.000000	0.000137857	
260.000000	0.447979  	260.000000	0.4678    	260.000000	0.467682  	260.000000	0.463269  	260.000000	0.467667  	260.000000	0.000132979	
270.000000	0.438323  	270.000000	0.457777  	270.000000	0.457655  	270.000000	0.453265  	270.000000	0.457649  	270.000000	0.000128447	
280.000000	0.429325  	280.000000	0.448455  	280.000000	0.448335  	280.000000	0.443967  	280.000000	0.448331  	280.000000	0.000124225	
290.000000	0.420919  	290.000000	0.439764  	290.000000	0.43965   	290.000000	0.435304  	290.000000	0.439644  	290.000000	0.000120281	
300.000000	0.413051  	300.000000	0.431642  	300.000000	0.431539  	300.000000	0.427214  	300.000000	0.431526  	300.000000	0.00011659	
310.000000	0.405669  	310.000000	0.424037  	310.000000	0.423949  	310.000000	0.419643  	310.000000	0.423924  	310.000000	0.000113126	
320.000000	0.39873   	320.000000	0.416901  	320.000000	0.416831  	320.000000	0.412546  	320.000000	0.416791  	320.000000	0.00010987	
330.000000	0.392197  	330.000000	0.410192  	330.000000	0.410145  	330.000000	0.405878  	330.000000	0.410086  	330.000000	0.000106803	
340.000000	0.386035  	340.000000	0.403875  	340.000000	0.403853  	340.000000	0.399605  	340.000000	0.403771  	340.000000	0.000103908	
350.000000	0.380213  	350.000000	0.397917  	350.000000	0.397923  	350.000000	0.393694  	350.000000	0.397816  	350.000000	0.000101173	
360.000000	0.374705  	360.000000	0.392289  	360.000000	0.392326  	360.000000	0.388114  	360.000000	0.392191  	360.000000	9.85822e-05	
370.000000	0.369487  	370.000000	0.386965  	370.000000	0.387035  	370.000000	0.38284   	370.000000	0.386869  	370.000000	9.6126e-05	
380.000000	0.364537  	380.000000	0.381922  	380.000000	0.382027  	380.000000	0.377849  	380.000000	0.381828  	380.000000	9.37937e-05	
390.000000	0.359834  	390.000000	0.377138  	390.000000	0.377281  	390.000000	0.373118  	390.000000	0.377046  	390.000000	9.1576e-05	
400.000000	0.355362  	400.000000	0.372595  	400.000000	0.372778  	400.000000	0.36863   	400.000000	0.372505  	400.000000	8.94646e-05	
410.000000	0.351105  	410.000000	0.368276  	410.000000	0.3685    	410.000000	0.364367  	410.000000	0.368188  	410.000000	8.74519e-05	
420.000000	0.347047  	420.000000	0.364165  	420.000000	0.36443   	420.000000	0.360314  	420.000000	0.36408   	420.000000	8.5531e-05	
430.000000	0.343176  	430.000000	0.360248  	430.000000	0.360558  	430.000000	0.356455  	430.000000	0.360165  	430.000000	8.36958e-05	
440.000000	0.339479  	440.000000	0.356513  	440.000000	0.356871  	440.000000	0.352778  	440.000000	0.356431  	440.000000	8.19405e-05	
450.000000	0.335946  	450.000000	0.352947  	450.000000	0.353351  	450.000000	0.349271  	450.000000	0.352867  	450.000000	8.02601e-05	
460.000000	0.332566  	460.000000	0.34954   	460.000000	0.349977  	460.000000	0.345924  	460.000000	0.349462  	460.000000	7.86496e-05	
470.000000	0.329331  	470.000000	0.346282  	470.000000	0.346747  	470.000000	0.342725  	470.000000	0.346205  	470.000000	7.71049e-05	
480.000000	0.32623   	480.000000	0.343164  	480.000000	0.343665  	480.000000	0.339667  	480.000000	0.343089  	480.000000	7.56219e-05	
490.000000	0.323258  	490.000000	0.340178  	490.000000	0.340726  	490.000000	0.336741  	490.000000	0.340104  	490.000000	7.41969e-05	
500.000000	0.320405  	500.000000	0.337316  	500.000000	0.337916  	500.000000	0.333939  	500.000000	0.337243  	500.000000	7.28266e-05	
520.000000	0.315035  	520.000000	0.331935  	520.000000	0.332634  	520.000000	0.328678  	520.000000	0.331865  	520.000000	7.02376e-05	
540.000000	0.310072  	540.000000	0.326972  	540.000000	0.327773  	540.000000	0.323834  	540.000000	0.326904  	540.000000	6.78328e-05	
560.000000	0.305474  	560.000000	0.322383  	560.000000	0.323276  	560.000000	0.319362  	560.000000	0.322317  	560.000000	6.55928e-05	
580.000000	0.301206  	580.000000	0.31813   	580.000000	0.319096  	580.000000	0.315225  	580.000000	0.318067  	580.000000	6.35011e-05	
600.000000	0.297236  	600.000000	0.314181  	600.000000	0.315232  	600.000000	0.31139   	600.000000	0.314119  	600.000000	6.15432e-05	
620.000000	0.293537  	620.000000	0.310507  	620.000000	0.311656  	620.000000	0.307826  	620.000000	0.310447  	620.000000	5.97067e-05	
640.000000	0.290085  	640.000000	0.307082  	640.000000	0.308325  	640.000000	0.30451   	640.000000	0.307024  	640.000000	5.79803e-05	
660.000000	0.286858  	660.000000	0.303886  	660.000000	0.305219  	660.000000	0.301418  	660.000000	0.30383   	660.000000	5.63545e-05	
680.000000	0.283838  	680.000000	0.300898  	680.000000	0.302321  	680.000000	0.298532  	680.000000	0.300843  	680.000000	5.48204e-05	
700.000000	0.281008  	700.000000	0.2981    	700.000000	0.299603  	700.000000	0.295832  	700.000000	0.298047  	700.000000	5.33706e-05	
720.000000	0.278353  	720.000000	0.295478  	720.000000	0.297046  	720.000000	0.293304  	720.000000	0.295426  	720.000000	5.19981e-05	
740.000000	0.27586   	740.000000	0.293017  	740.000000	0.29465   	740.000000	0.290934  	740.000000	0.292967  	740.000000	5.06968e-05	
760.000000	0.273515  	760.000000	0.290706  	760.000000	0.29241   	760.000000	0.288709  	760.000000	0.290656  	760.000000	4.94613e-05	
780.000000	0.27131   	780.000000	0.288532  	780.000000	0.290311  	780.000000	0.286617  	780.000000	0.288483  	780.000000	4.82867e-05	
800.000000	0.269233  	800.000000	0.286486  	800.000000	0.288337  	800.000000	0.28465   	800.000000	0.286438  	800.000000	4.71686e-05	
820.000000	0.267276  	820.000000	0.284558  	820.000000	0.28648   	820.000000	0.282801  	820.000000	0.284512  	820.000000	4.61028e-05	
840.000000	0.265431  	840.000000	0.282741  	840.000000	0.284742  	840.000000	0.281077  	840.000000	0.282696  	840.000000	4.50858e-05	
860.000000	0.26369   	860.000000	0.281027  	860.000000	0.283096  	860.000000	0.279452  	860.000000	0.280983  	860.000000	4.41142e-05	
880.000000	0.262047  	880.000000	0.279408  	880.000000	0.28154   	880.000000	0.277916  	880.000000	0.279365  	880.000000	4.31851e-05	
900.000000	0.260495  	900.000000	0.27788   	900.000000	0.280074  	900.000000	0.276466  	900.000000	0.277838  	900.000000	4.22956e-05	
920.000000	0.259029  	920.000000	0.276435  	920.000000	0.278692  	920.000000	0.275094  	920.000000	0.276394  	920.000000	4.14433e-05	
940.000000	0.257644  	940.000000	0.27507   	940.000000	0.277389  	940.000000	0.273797  	940.000000	0.275029  	940.000000	4.06259e-05	
960.000000	0.256335  	960.000000	0.273778  	960.000000	0.276155  	960.000000	0.272568  	960.000000	0.273738  	960.000000	3.98412e-05	
980.000000	0.255098  	980.000000	0.272556  	980.000000	0.274987  	980.000000	0.271404  	980.000000	0.272517  	980.000000	3.90872e-05	
1000.000000	0.253928  	1000.000000	0.271399  	1000.000000	0.273878  	1000.000000	0.270301  	1000.000000	0.271361  	1000.000000	3.83623e-05	
1020.000000	0.252822  	1020.000000	0.270304  	1020.000000	0.272824  	1020.000000	0.269255  	1020.000000	0.270266  	1020.000000	3.76647e-05	
1040.000000	0.251777  	1040.000000	0.269267  	1040.000000	0.27182   	1040.000000	0.268262  	1040.000000	0.26923   	1040.000000	3.69929e-05	
1060.000000	0.250788  	1060.000000	0.268285  	1060.000000	0.270864  	1060.000000	0.26732   	1060.000000	0.268249  	1060.000000	3.63454e-05	
1080.000000	0.249854  	1080.000000	0.267355  	1080.000000	0.269955  	1080.000000	0.266426  	1080.000000	0.26732   	1080.000000	3.5721e-05	
1100.000000	0.248971  	1100.000000	0.266475  	1100.000000	0.269093  	1100.000000	0.265576  	1100.000000	0.26644   	1100.000000	3.51184e-05	
1120.000000	0.248137  	1120.000000	0.265641  	1120.000000	0.268277  	1120.000000	0.264769  	1120.000000	0.265606  	1120.000000	3.45366e-05	
1140.000000	0.24735   	1140.000000	0.264851  	1140.000000	0.267505  	1140.000000	0.264001  	1140.000000	0.264817  	1140.000000	3.39743e-05	
1160.000000	0.246607  	1160.000000	0.264103  	1160.000000	0.266771  	1160.000000	0.263271  	1160.000000	0.26407   	1160.000000	3.34307e-05	
1180.000000	0.245905  	1180.000000	0.263395  	1180.000000	0.266073  	1180.000000	0.262577  	1180.000000	0.263362  	1180.000000	3.29048e-05	
1200.000000	0.245244  	1200.000000	0.262725  	1200.000000	0.265408  	1200.000000	0.261917  	1200.000000	0.262693  	1200.000000	3.23958e-05	
1220.000000	0.244621  	1220.000000	0.262091  	1220.000000	0.264773  	1220.000000	0.261289  	1220.000000	0.262059  	1220.000000	3.19028e-05	
1240.000000	0.244035  	1240.000000	0.261492  	1240.000000	0.264166  	1240.000000	0.260692  	1240.000000	0.26146   	1240.000000	3.14251e-05	
1260.000000	0.243484  	1260.000000	0.260925  	1260.000000	0.263587  	1260.000000	0.260123  	1260.000000	0.260894  	1260.000000	3.0962e-05	
1280.000000	0.242966  	1280.000000	0.260389  	1280.000000	0.263036  	1280.000000	0.259582  	1280.000000	0.260359  	1280.000000	3.05128e-05	
1300.000000	0.24248   	1300.000000	0.259884  	1300.000000	0.262511  	1300.000000	0.259066  	1300.000000	0.259853  	1300.000000	3.00769e-05	
1320.000000	0.242024  	1320.000000	0.259406  	1320.000000	0.262013  	1320.000000	0.258576  	1320.000000	0.259377  	1320.000000	2.96537e-05	
1340.000000	0.241598  	1340.000000	0.258957  	1340.000000	0.261541  	1340.000000	0.258109  	1340.000000	0.258927  	1340.000000	2.92427e-05	
1360.000000	0.2412    	1360.000000	0.258533  	1360.000000	0.261092  	1360.000000	0.257664  	1360.000000	0.258504  	1360.000000	2.88433e-05	
1380.000000	0.240829  	1380.000000	0.258134  	1380.000000	0.260665  	1380.000000	0.257241  	1380.000000	0.258105  	1380.000000	2.8455e-05	
1400.000000	0.240484  	1400.000000	0.257759  	1400.000000	0.26026   	1400.000000	0.256838  	1400.000000	0.257731  	1400.000000	2.80774e-05	
1420.000000	0.240164  	1420.000000	0.257407  	1420.000000	0.259875  	1420.000000	0.256455  	1420.000000	0.257379  	1420.000000	2.77101e-05	
1440.000000	0.239867  	1440.000000	0.257077  	1440.000000	0.259508  	1440.000000	0.25609   	1440.000000	0.25705   	1440.000000	2.73525e-05	
1460.000000	0.239594  	1460.000000	0.256768  	1460.000000	0.259159  	1460.000000	0.255743  	1460.000000	0.256741  	1460.000000	2.70044e-05	
1480.000000	0.239343  	1480.000000	0.256479  	1480.000000	0.258827  	1480.000000	0.255413  	1480.000000	0.256452  	1480.000000	2.66653e-05	
1500.000000	0.239114  	1500.000000	0.25621   	1500.000000	0.258511  	1500.000000	0.255099  	1500.000000	0.256184  	1500.000000	2.63349e-05	
1520.000000	0.238904  	1520.000000	0.255959  	1520.000000	0.25821   	1520.000000	0.254801  	1520.000000	0.255933  	1520.000000	2.60129e-05	
1540.000000	0.238715  	1540.000000	0.255727  	1540.000000	0.257924  	1540.000000	0.254517  	1540.000000	0.255701  	1540.000000	2.5699e-05	
1560.000000	0.238545  	1560.000000	0.255511  	1560.000000	0.257651  	1560.000000	0.254247  	1560.000000	0.255486  	1560.000000	2.53927e-05	
1580.000000	0.238393  	1580.000000	0.255313  	1580.000000	0.257391  	1580.000000	0.253991  	1580.000000	0.255287  	1580.000000	2.5094e-05	
1600.000000	0.23826   	1600.000000	0.25513   	1600.000000	0.257143  	1600.000000	0.253748  	1600.000000	0.255105  	1600.000000	2.48024e-05	
1620.000000	0.238143  	1620.000000	0.254963  	1620.000000	0.256908  	1620.000000	0.253517  	1620.000000	0.254938  	1620.000000	2.45178e-05	
1640.000000	0.238043  	1640.000000	0.25481   	1640.000000	0.256684  	1640.000000	0.253298  	1640.000000	0.254786  	1640.000000	2.42398e-05	
1660.000000	0.237959  	1660.000000	0.254672  	1660.000000	0.256471  	1660.000000	0.253091  	1660.000000	0.254648  	1660.000000	2.39683e-05	
1680.000000	0.237891  	1680.000000	0.254548  	1680.000000	0.256269  	1680.000000	0.252894  	1680.000000	0.254524  	1680.000000	2.3703e-05	
1700.000000	0.237838  	1700.000000	0.254437  	1700.000000	0.256077  	1700.000000	0.252708  	1700.000000	0.254414  	1700.000000	2.34437e-05	
1750.000000	0.237768  	1750.000000	0.254215  	1750.000000	0.255643  	1750.000000	0.252286  	1750.000000	0.254192  	1750.000000	2.28205e-05	
1800.000000	0.237782  	1800.000000	0.254068  	1800.000000	0.255269  	1800.000000	0.251921  	1800.000000	0.254045  	1800.000000	2.22306e-05	
1850.000000	0.237875  	1850.000000	0.253988  	1850.000000	0.25495   	1850.000000	0.251608  	1850.000000	0.253966  	1850.000000	2.16714e-05	
1900.000000	0.23804   	1900.000000	0.253971  	1900.000000	0.25468   	1900.000000	0.251341  	1900.000000	0.25395   	1900.000000	2.11406e-05	
1950.000000	0.238272  	1950.000000	0.254012  	1950.000000	0.254453  	1950.000000	0.251117  	1950.000000	0.253991  	1950.000000	2.0636e-05	
2000.000000	0.238568  	2000.000000	0.254106  	2000.000000	0.254263  	2000.000000	0.250931  	2000.000000	0.254086  	2000.000000	2.01557e-05	
2100.000000	0.239332  	2100.000000	0.25444   	2100.000000	0.253983  	2100.000000	0.250663  	2100.000000	0.254421  	2100.000000	1.92612e-05	
2200.000000	0.240303  	2200.000000	0.254947  	2200.000000	0.253817  	2200.000000	0.250512  	2200.000000	0.254928  	2200.000000	1.84451e-05	
2300.000000	0.241457  	2300.000000	0.255603  	2300.000000	0.253751  	2300.000000	0.250459  	2300.000000	0.255585  	2300.000000	1.76975e-05	
2400.000000	0.242775  	2400.000000	0.256389  	2400.000000	0.253771  	2400.000000	0.25049   	2400.000000	0.256372  	2400.000000	1.701e-05 	
2500.000000	0.244239  	2500.000000	0.257291  	2500.000000	0.253866  	2500.000000	0.25059   	2500.000000	0.257275  	2500.000000	1.63755e-05	
2600.000000	0.245835  	2600.000000	0.258294  	2600.000000	0.254022  	2600.000000	0.250749  	2600.000000	0.258279  	2600.000000	1.57881e-05	
2700.000000	0.24755   	2700.000000	0.259388  	2700.000000	0.254228  	2700.000000	0.250959  	2700.000000	0.259373  	2700.000000	1.52426e-05	
2800.000000	0.249375  	2800.000000	0.260562  	2800.000000	0.254477  	2800.000000	0.251211  	2800.000000	0.260547  	2800.000000	1.47348e-05	
2900.000000	0.251299  	2900.000000	0.261808  	2900.000000	0.25476   	2900.000000	0.251499  	2900.000000	0.261794  	2900.000000	1.42607e-05	
3000.000000	0.253315  	3000.000000	0.263119  	3000.000000	0.255074  	3000.000000	0.251817  	3000.000000	0.263105  	3000.000000	1.38171e-05	
3200.000000	0.257593  	3200.000000	0.265909  	3200.000000	0.255773  	3200.000000	0.252528  	3200.000000	0.265896  	3200.000000	1.30103e-05	
3400.000000	0.262164  	3400.000000	0.268892  	3400.000000	0.256548  	3400.000000	0.253314  	3400.000000	0.26888   	3400.000000	1.22951e-05	
3600.000000	0.266989  	3600.000000	0.272033  	3600.000000	0.257377  	3600.000000	0.254153  	3600.000000	0.272021  	3600.000000	1.16567e-05	
3800.000000	0.272041  	3800.000000	0.275306  	3800.000000	0.258246  	3800.000000	0.255029  	3800.000000	0.275295  	3800.000000	1.10832e-05	
4000.000000	0.277294  	4000.000000	0.278692  	4000.000000	0.25914   	4000.000000	0.25593   	4000.000000	0.278681  	4000.000000	1.05651e-05	
4200.000000	0.28273   	4200.000000	0.282172  	4200.000000	0.260051  	4200.000000	0.256845  	4200.000000	0.282162  	4200.000000	1.00946e-05	
4400.000000	0.288333  	4400.000000	0.285734  	4400.000000	0.26097   	4400.000000	0.257769  	4400.000000	0.285724  	4400.000000	9.66552e-06	
4600.000000	0.294089  	4600.000000	0.289366  	4600.000000	0.261893  	4600.000000	0.258695  	4600.000000	0.289356  	4600.000000	9.27246e-06	
4800.000000	0.299987  	4800.000000	0.293058  	4800.000000	0.262813  	4800.000000	0.25962   	4800.000000	0.293049  	4800.000000	8.91103e-06	
5000.000000	0.306019  	5000.000000	0.296802  	5000.000000	0.26373   	5000.000000	0.26054   	5000.000000	0.296793  	5000.000000	8.57755e-06	
5250.000000	0.313734  	5250.000000	0.301546  	5250.000000	0.264865  	5250.000000	0.26168   	5250.000000	0.301538  	5250.000000	8.19523e-06	
5500.000000	0.32163   	5500.000000	0.306351  	5500.000000	0.265985  	5500.000000	0.262806  	5500.000000	0.306343  	5500.000000	7.8465e-06	
6000.000000	0.337929  	6000.000000	0.316109  	6000.000000	0.268174  	6000.000000	0.265004  	6000.000000	0.316102  	6000.000000	7.2334e-06	
6500.000000	0.354846  	6500.000000	0.32602   	6500.000000	0.270286  	6500.000000	0.267123  	6500.000000	0.326013  	6500.000000	6.71161e-06	
7000.000000	0.372334  	7000.000000	0.336045  	7000.000000	0.272317  	7000.000000	0.26916   	7000.000000	0.336039  	7000.000000	6.26198e-06	
7500.000000	0.390355  	7500.000000	0.346156  	7500.000000	0.274267  	7500.000000	0.271115  	7500.000000	0.34615   	7500.000000	5.87038e-06	
8000.000000	0.408883  	8000.000000	0.356332  	8000.000000	0.276131  	8000.000000	0.272989  	8000.000000	0.356327  	8000.000000	5.52616e-06	
8500.000000	0.427896  	8500.000000	0.366558  	8500.000000	0.277921  	8500.000000	0.274787  	8500.000000	0.366553  	8500.000000	5.22115e-06	
9000.000000	0.447378  	9000.000000	0.376821  	9000.000000	0.279644  	9000.000000	0.276511  	9000.000000	0.376816  	9000.000000	4.94894e-06	
9500.000000	0.467316  	9500.000000	0.387112  	9500.000000	0.281295  	9500.000000	0.278167  	9500.000000	0.387108  	9500.000000	4.70448e-06	
10000.000000	0.487699  	10000.000000	0.397425  	10000.000000	0.282877  	10000.000000	0.279758  	10000.000000	0.39742   	10000.000000	4.48368e-06	
11000.000000	0.529772  	11000.000000	0.41809   	11000.000000	0.285862  	11000.000000	0.28276   	11000.000000	0.418086  	11000.000000	4.10043e-06	
12000.000000	0.573546  	12000.000000	0.438785  	12000.000000	0.288638  	12000.000000	0.285548  	12000.000000	0.438781  	12000.000000	3.77912e-06	
13000.000000	0.61899   	13000.000000	0.459486  	13000.000000	0.291223  	13000.000000	0.288146  	13000.000000	0.459483  	13000.000000	3.50573e-06	
14000.000000	0.666081  	14000.000000	0.480181  	14000.000000	0.293635  	14000.000000	0.290577  	14000.000000	0.480178  	14000.000000	3.2702e-06	
15000.000000	0.714805  	15000.000000	0.500859  	15000.000000	0.295894  	15000.000000	0.292859  	15000.000000	0.500856  	15000.000000	3.06512e-06	
16000.000000	0.765152  	16000.000000	0.521514  	16000.000000	0.298018  	16000.000000	0.295008  	16000.000000	0.521511  	16000.000000	2.8849e-06	
17000.000000	0.817117  	17000.000000	0.542142  	17000.000000	0.300025  	17000.000000	0.297037  	17000.000000	0.542139  	17000.000000	2.72522e-06	
18000.000000	0.870697  	18000.000000	0.56274   	18000.000000	0.301925  	18000.000000	0.29896   	18000.000000	0.562737  	18000.000000	2.58275e-06	
19000.000000	0.925891  	19000.000000	0.583306  	19000.000000	0.30373   	19000.000000	0.300786  	19000.000000	0.583303  	19000.000000	2.45482e-06	
20000.000000	0.9827    	20000.000000	0.603839  	20000.000000	0.305448  	20000.000000	0.302523  	20000.000000	0.603836  	20000.000000	2.33929e-06	
21000.000000	1.04113   	21000.000000	0.624338  	21000.000000	0.307085  	21000.000000	0.30418   	21000.000000	0.624336  	21000.000000	2.23443e-06	
22000.000000	1.10117   	22000.000000	0.644804  	22000.000000	0.308644  	22000.000000	0.305764  	22000.000000	0.644802  	22000.000000	2.13881e-06	
23000.000000	1.16285   	23000.000000	0.665236  	23000.000000	0.310141  	23000.000000	0.30728   	23000.000000	0.665234  	23000.000000	2.05125e-06	
24000.000000	1.22615   	24000.000000	0.685635  	24000.000000	0.311573  	24000.000000	0.308734  	24000.000000	0.685633  	24000.000000	1.97077e-06	
25000.000000	1.29109   	25000.000000	0.706001  	25000.000000	0.312935  	25000.000000	0.310131  	25000.000000	0.705999  	25000.000000	1.89653e-06	
26000.000000	1.35767   	26000.000000	0.726334  	26000.000000	0.314246  	26000.000000	0.311474  	26000.000000	0.726332  	26000.000000	1.82783e-06	
27000.000000	1.42589   	27000.000000	0.746635  	27000.000000	0.315516  	27000.000000	0.312768  	27000.000000	0.746633  	27000.000000	1.76406e-06	
28000.000000	1.49578   	28000.000000	0.766905  	28000.000000	0.31674   	28000.000000	0.314017  	28000.000000	0.766903  	28000.000000	1.70471e-06	
29000.000000	1.56732   	29000.000000	0.787144  	29000.000000	0.317917  	29000.000000	0.315222  	29000.000000	0.787142  	29000.000000	1.64933e-06	
30000.000000	1.64053   	30000.000000	0.807353  	30000.000000	0.319048  	30000.000000	0.316387  	30000.000000	0.807351  	30000.000000	1.59753e-06	
32000.000000	1.792     	32000.000000	0.847683  	32000.000000	0.321195  	32000.000000	0.318606  	32000.000000	0.847681  	32000.000000	1.50335e-06	
34000.000000	1.95023   	34000.000000	0.8879    	34000.000000	0.32321   	34000.000000	0.320693  	34000.000000	0.887898  	34000.000000	1.41994e-06	
36000.000000	2.11531   	36000.000000	0.928009  	36000.000000	0.325102  	36000.000000	0.322661  	36000.000000	0.928007  	36000.000000	1.34551e-06	
38000.000000	2.28728   	38000.000000	0.968014  	38000.000000	0.326881  	38000.000000	0.324523  	38000.000000	0.968013  	38000.000000	1.2787e-06	
40000.000000	2.46624   	40000.000000	1.00792   	40000.000000	0.328562  	40000.000000	0.326291  	40000.000000	1.00792   	40000.000000	1.21837e-06	
42000.000000	2.65224   	42000.000000	1.04773   	42000.000000	0.330156  	42000.000000	0.327972  	42000.000000	1.04773   	42000.000000	1.16362e-06	
44000.000000	2.84536   	44000.000000	1.08746   	44000.000000	0.331673  	44000.000000	0.329575  	44000.000000	1.08745   	44000.000000	1.1137e-06	
46000.000000	3.04568   	46000.000000	1.12709   	46000.000000	0.333121  	46000.000000	0.331106  	46000.000000	1.12709   	46000.000000	1.06799e-06	
48000.000000	3.25327   	48000.000000	1.16664   	48000.000000	0.334505  	48000.000000	0.332572  	48000.000000	1.16664   	48000.000000	1.02599e-06	
50000.000000	3.4682    	50000.000000	1.20611   	50000.000000	0.335823  	50000.000000	0.333978  	50000.000000	1.20611   	50000.000000	9.87244e-07	
