Energy (MeV/u)1	0 - [He-base] F.Hubert et al, AD&ND Tables 46(1990)1	Energy (MeV/u)2	1 - [H -base] J.F.Ziegler et al, Pergamon Press, NY (low energy)	Energy (MeV/u)3	2 - ATIMA 1.2  LS-theory (recommended for high energy)	Energy (MeV/u)4	3 - ATIMA 1.2  without LS-correction	Energy (MeV/u)5	4 - electrical component of [1] - J.F.Ziegler et al	Energy (MeV/u)6	5 - nuclear component of [1] - J.F.Ziegler et al	
0.001000	1.08641   	0.001000	0.610547  	0.001000	0.695679  	0.001000	0.695679  	0.001000	0.294555  	0.001000	0.315993  	
0.002000	1.18472   	0.002000	0.631699  	0.002000	0.744339  	0.002000	0.744339  	0.002000	0.39374   	0.002000	0.237959  	
0.005000	1.45001   	0.005000	0.724148  	0.005000	0.889317  	0.005000	0.889317  	0.005000	0.578829  	0.005000	0.145318  	
0.008000	1.65922   	0.008000	0.814103  	0.008000	1.01625   	0.008000	1.01625   	0.008000	0.705838  	0.008000	0.108264  	
0.010000	1.77926   	0.010000	0.869083  	0.010000	1.09187   	0.010000	1.09187   	0.010000	0.775684  	0.010000	0.0933995 	
0.015000	2.08253   	0.015000	1.00501   	0.015000	1.26752   	0.015000	1.26752   	0.015000	0.934761  	0.015000	0.0702535 	
0.020000	2.32573   	0.020000	1.19452   	0.020000	1.47665   	0.020000	1.47665   	0.020000	1.13759   	0.020000	0.0569362 	
0.025000	2.59951   	0.025000	1.382     	0.025000	1.68107   	0.025000	1.68107   	0.025000	1.33366   	0.025000	0.0483375 	
0.030000	2.83212   	0.030000	1.56437   	0.030000	1.83362   	0.030000	1.83362   	0.030000	1.52219   	0.030000	0.04218   	
0.035000	3.0236    	0.035000	1.73775   	0.035000	1.97644   	0.035000	1.97644   	0.035000	1.70022   	0.035000	0.0375303 	
0.040000	3.17459   	0.040000	1.90106   	0.040000	2.1099    	0.040000	2.1099    	0.040000	1.86718   	0.040000	0.033882  	
0.045000	3.28585   	0.045000	2.05365   	0.045000	2.23435   	0.045000	2.23435   	0.045000	2.02271   	0.045000	0.0309351 	
0.050000	3.35459   	0.050000	2.19261   	0.050000	2.35015   	0.050000	2.35015   	0.050000	2.16411   	0.050000	0.0284999 	
0.055000	3.4966    	0.055000	2.31861   	0.055000	2.45763   	0.055000	2.45763   	0.055000	2.29216   	0.055000	0.0264504 	
0.060000	3.61631   	0.060000	2.43417   	0.060000	2.55717   	0.060000	2.55717   	0.060000	2.40947   	0.060000	0.0246993 	
0.070000	3.79549   	0.070000	2.63594   	0.070000	2.73404   	0.070000	2.73404   	0.070000	2.61408   	0.070000	0.0218588 	
0.080000	3.98675   	0.080000	2.80264   	0.080000	2.88402   	0.080000	2.88402   	0.080000	2.78299   	0.080000	0.0196479 	
0.090000	4.12926   	0.090000	2.93945   	0.090000	3.01039   	0.090000	3.01039   	0.090000	2.92157   	0.090000	0.0178737 	
0.100000	4.23529   	0.100000	3.05129   	0.100000	3.11627   	0.100000	3.11627   	0.100000	3.03488   	0.100000	0.0164155 	
0.120000	4.27324   	0.120000	3.21667   	0.120000	3.27765   	0.120000	3.27765   	0.120000	3.20252   	0.120000	0.0141543 	
0.140000	4.26846   	0.140000	3.32532   	0.140000	3.38713   	0.140000	3.38713   	0.140000	3.31284   	0.140000	0.0124762 	
0.160000	4.27448   	0.160000	3.40785   	0.160000	3.45881   	0.160000	3.45881   	0.160000	3.39668   	0.160000	0.0111775 	
0.180000	4.29961   	0.180000	3.48336   	0.180000	3.50283   	0.180000	3.50283   	0.180000	3.47322   	0.180000	0.0101399 	
0.200000	4.32189   	0.200000	3.53092   	0.200000	3.52645   	0.200000	3.52645   	0.200000	3.52163   	0.200000	0.00929054	
0.250000	4.26904   	0.250000	3.5965    	0.250000	3.52726   	0.250000	3.52726   	0.250000	3.58879   	0.250000	0.00771129	
0.300000	4.25144   	0.300000	3.62455   	0.300000	3.48065   	0.300000	3.48065   	0.300000	3.61794   	0.300000	0.00661595	
0.350000	4.22698   	0.350000	3.61978   	0.350000	3.43394   	0.350000	3.43394   	0.350000	3.61397   	0.350000	0.00580842	
0.400000	4.22134   	0.400000	3.61867   	0.400000	3.37752   	0.400000	3.37752   	0.400000	3.61349   	0.400000	0.00518666	
0.450000	4.19166   	0.450000	3.59486   	0.450000	3.30997   	0.450000	3.30997   	0.450000	3.59017   	0.450000	0.00469214	
0.500000	4.1385    	0.500000	3.5493    	0.500000	3.23688   	0.500000	3.23688   	0.500000	3.54502   	0.500000	0.00428876	
0.600000	3.85492   	0.600000	3.42007   	0.600000	3.08405   	0.600000	3.08405   	0.600000	3.4164    	0.600000	0.0036689 	
0.700000	3.55793   	0.700000	3.27337   	0.700000	2.94371   	0.700000	2.94371   	0.700000	3.27015   	0.700000	0.00321357	
0.800000	3.39066   	0.800000	3.11392   	0.800000	2.81649   	0.800000	2.81649   	0.800000	3.11105   	0.800000	0.00286403	
0.900000	3.23231   	0.900000	2.96598   	0.900000	2.70099   	0.900000	2.70099   	0.900000	2.96339   	0.900000	0.00258669	
1.000000	3.08436   	1.000000	2.82977   	1.000000	2.59554   	1.000000	2.59554   	1.000000	2.82741   	1.000000	0.00236094	
1.250000	2.74088   	1.250000	2.52299   	1.250000	2.35618   	1.250000	2.35618   	1.250000	2.52105   	1.250000	0.00194452	
1.500000	2.46361   	1.500000	2.27916   	1.500000	2.16246   	1.500000	2.16246   	1.500000	2.27751   	1.500000	0.00165841	
1.750000	2.23717   	1.750000	2.08196   	1.750000	2.00083   	1.750000	2.00083   	1.750000	2.08051   	1.750000	0.00144901	
2.000000	2.03803   	2.000000	1.90742   	2.000000	1.86243   	2.000000	1.86243   	2.000000	1.90613   	2.000000	0.00128875	
2.250000	1.87382   	2.250000	1.76116   	2.250000	1.74212   	2.250000	1.74212   	2.250000	1.76      	2.250000	0.00116191	
2.500000	1.70108   	2.500000	1.64062   	2.500000	1.63646   	2.500000	1.63646   	2.500000	1.63956   	2.500000	0.00105888	
3.000000	1.50152   	3.000000	1.45062   	3.000000	1.45986   	3.000000	1.45986   	3.000000	1.44972   	3.000000	0.00090139	
3.500000	1.34619   	3.500000	1.30521   	3.500000	1.31823   	3.500000	1.31823   	3.500000	1.30442   	3.500000	0.00078638	
4.000000	1.22169   	4.000000	1.18903   	4.000000	1.20245   	4.000000	1.20245   	4.000000	1.18833   	4.000000	0.000698512	
4.500000	1.11958   	4.500000	1.09356   	4.500000	1.10622   	4.500000	1.10622   	4.500000	1.09293   	4.500000	0.000629077	
5.000000	1.03423   	5.000000	1.0135    	5.000000	1.02505   	5.000000	1.02505   	5.000000	1.01293   	5.000000	0.000572753	
5.500000	0.961769  	5.500000	0.945287  	5.500000	0.955698  	5.500000	0.955698  	5.500000	0.944761  	5.500000	0.000526099	
6.000000	0.899448  	6.000000	0.886422  	6.000000	0.89576   	6.000000	0.89576   	6.000000	0.885935  	6.000000	0.000486788	
6.500000	0.845246  	6.500000	0.835068  	6.500000	0.843435  	6.500000	0.843435  	6.500000	0.834614  	6.500000	0.00045319	
7.000000	0.797649  	7.000000	0.789847  	7.000000	0.797344  	7.000000	0.797344  	7.000000	0.789423  	7.000000	0.000424127	
7.500000	0.755502  	7.500000	0.749701  	7.500000	0.756423  	7.500000	0.756423  	7.500000	0.749302  	7.500000	0.000398726	
8.000000	0.717906  	8.000000	0.713804  	8.000000	0.719834  	8.000000	0.719834  	8.000000	0.713428  	8.000000	0.000376326	
8.500000	0.684149  	8.500000	0.681501  	8.500000	0.686911  	8.500000	0.686911  	8.500000	0.681145  	8.500000	0.000356417	
9.000000	0.653663  	9.000000	0.652266  	9.000000	0.657119  	9.000000	0.657119  	9.000000	0.651928  	9.000000	0.0003386 	
9.500000	0.625988  	9.500000	0.625672  	9.500000	0.63002   	9.500000	0.63002   	9.500000	0.62535   	9.500000	0.000322557	
10.000000	0.600745  	10.000000	0.605579  	10.000000	0.605257  	10.000000	0.605257  	10.000000	0.605271  	10.000000	0.000308032	
11.000000	0.556359  	11.000000	0.562465  	11.000000	0.560962  	11.000000	0.561145  	11.000000	0.562182  	11.000000	0.000282736	
12.000000	0.518568  	12.000000	0.525447  	12.000000	0.523136  	12.000000	0.523433  	12.000000	0.525186  	12.000000	0.00026144	
13.000000	0.485983  	13.000000	0.493315  	13.000000	0.490437  	13.000000	0.490803  	13.000000	0.493072  	13.000000	0.000243253	
14.000000	0.457582  	14.000000	0.465157  	14.000000	0.461869  	14.000000	0.462276  	14.000000	0.46493   	14.000000	0.000227532	
15.000000	0.432596  	15.000000	0.440274  	15.000000	0.436684  	15.000000	0.437114  	15.000000	0.44006   	15.000000	0.0002138 	
16.000000	0.410435  	16.000000	0.41812   	16.000000	0.414311  	16.000000	0.414746  	16.000000	0.417918  	16.000000	0.000201698	
17.000000	0.390638  	17.000000	0.398266  	17.000000	0.394302  	17.000000	0.394727  	17.000000	0.398075  	17.000000	0.000190947	
18.000000	0.372839  	18.000000	0.380369  	18.000000	0.376291  	18.000000	0.376701  	18.000000	0.380187  	18.000000	0.000181331	
19.000000	0.356747  	19.000000	0.364149  	19.000000	0.359985  	19.000000	0.360382  	19.000000	0.363976  	19.000000	0.000172676	
20.000000	0.342122  	20.000000	0.349378  	20.000000	0.345148  	20.000000	0.345539  	20.000000	0.349213  	20.000000	0.000164844	
21.000000	0.32877   	21.000000	0.335869  	21.000000	0.331598  	21.000000	0.331978  	21.000000	0.335711  	21.000000	0.00015772	
22.000000	0.316529  	22.000000	0.323464  	22.000000	0.319188  	22.000000	0.319542  	22.000000	0.323313  	22.000000	0.000151212	
23.000000	0.305262  	23.000000	0.312032  	23.000000	0.307777  	23.000000	0.308095  	23.000000	0.311886  	23.000000	0.000145241	
24.000000	0.294857  	24.000000	0.30146   	24.000000	0.297238  	24.000000	0.297527  	24.000000	0.30132   	24.000000	0.000139743	
25.000000	0.285217  	25.000000	0.291655  	25.000000	0.287471  	25.000000	0.287739  	25.000000	0.29152   	25.000000	0.000134664	
27.000000	0.267909  	27.000000	0.274028  	27.000000	0.269971  	27.000000	0.270191  	27.000000	0.273903  	27.000000	0.000125579	
29.000000	0.252805  	29.000000	0.258623  	29.000000	0.254753  	29.000000	0.254919  	29.000000	0.258505  	29.000000	0.000117688	
31.000000	0.239504  	31.000000	0.245039  	31.000000	0.241499  	31.000000	0.2416    	31.000000	0.244929  	31.000000	0.000110768	
33.000000	0.227694  	33.000000	0.232968  	33.000000	0.229811  	33.000000	0.229851  	33.000000	0.232864  	33.000000	0.000104646	
35.000000	0.217134  	35.000000	0.222167  	35.000000	0.219318  	35.000000	0.219331  	35.000000	0.222068  	35.000000	9.91919e-05	
38.000000	0.203229  	38.000000	0.207935  	38.000000	0.205502  	38.000000	0.205455  	38.000000	0.207843  	38.000000	9.20371e-05	
41.000000	0.191216  	41.000000	0.195633  	41.000000	0.193529  	41.000000	0.193446  	41.000000	0.195547  	41.000000	8.58817e-05	
44.000000	0.180726  	44.000000	0.184888  	44.000000	0.183046  	44.000000	0.182944  	44.000000	0.184808  	44.000000	8.05275e-05	
47.000000	0.171482  	47.000000	0.175419  	47.000000	0.1738    	47.000000	0.173678  	47.000000	0.175344  	47.000000	7.58259e-05	
50.000000	0.163271  	50.000000	0.167009  	50.000000	0.165571  	50.000000	0.165438  	50.000000	0.166938  	50.000000	7.1663e-05	
55.000000	0.151442  	55.000000	0.154898  	55.000000	0.153731  	55.000000	0.153553  	55.000000	0.154833  	55.000000	6.56896e-05	
60.000000	0.141453  	60.000000	0.144679  	60.000000	0.143696  	60.000000	0.143507  	60.000000	0.144619  	60.000000	6.06685e-05	
65.000000	0.132899  	65.000000	0.135936  	65.000000	0.135081  	65.000000	0.134898  	65.000000	0.13588   	65.000000	5.63864e-05	
70.000000	0.125485  	70.000000	0.128368  	70.000000	0.127628  	70.000000	0.127433  	70.000000	0.128315  	70.000000	5.26896e-05	
75.000000	0.118994  	75.000000	0.12175   	75.000000	0.121099  	75.000000	0.120896  	75.000000	0.1217    	75.000000	4.94644e-05	
80.000000	0.113259  	80.000000	0.115911  	80.000000	0.115332  	80.000000	0.115122  	80.000000	0.115865  	80.000000	4.66249e-05	
85.000000	0.108154  	85.000000	0.110721  	85.000000	0.110198  	85.000000	0.109983  	85.000000	0.110677  	85.000000	4.41051e-05	
90.000000	0.103577  	90.000000	0.106076  	90.000000	0.105583  	90.000000	0.105379  	90.000000	0.106034  	90.000000	4.18532e-05	
95.000000	0.0994492 	95.000000	0.101894  	95.000000	0.101438  	95.000000	0.101229  	95.000000	0.101854  	95.000000	3.98282e-05	
100.000000	0.0957059 	100.000000	0.0981077 	100.000000	0.0976812 	100.000000	0.0974691 	100.000000	0.0980697 	100.000000	3.79971e-05	
105.000000	0.0922946 	105.000000	0.0946633 	105.000000	0.0942615 	105.000000	0.0940456 	105.000000	0.094627  	105.000000	3.63329e-05	
110.000000	0.0891719 	110.000000	0.091516  	110.000000	0.0911233 	110.000000	0.0909151 	110.000000	0.0914812 	110.000000	3.48135e-05	
115.000000	0.0863019 	115.000000	0.0886287 	115.000000	0.0882475 	115.000000	0.0880413 	115.000000	0.0885953 	115.000000	3.34206e-05	
120.000000	0.0836544 	120.000000	0.0859702 	120.000000	0.0856045 	120.000000	0.0853936 	120.000000	0.0859381 	120.000000	3.21389e-05	
125.000000	0.0812037 	125.000000	0.0835141 	125.000000	0.0831558 	125.000000	0.0829461 	125.000000	0.0834831 	125.000000	3.09554e-05	
130.000000	0.0789283 	130.000000	0.0812379 	130.000000	0.0808794 	130.000000	0.0806768 	130.000000	0.081208  	130.000000	2.9859e-05	
135.000000	0.0768094 	135.000000	0.0791224 	135.000000	0.0787697 	135.000000	0.0785669 	135.000000	0.0790936 	135.000000	2.88405e-05	
140.000000	0.0748311 	140.000000	0.0771512 	140.000000	0.0768063 	140.000000	0.0766    	140.000000	0.0771233 	140.000000	2.78916e-05	
145.000000	0.0729794 	145.000000	0.0753097 	145.000000	0.0749673 	145.000000	0.0747621 	145.000000	0.0752827 	145.000000	2.70055e-05	
150.000000	0.0712423 	150.000000	0.0735857 	150.000000	0.0732397 	150.000000	0.0730408 	150.000000	0.0735595 	150.000000	2.61759e-05	
155.000000	0.0687964 	155.000000	0.071968  	155.000000	0.0716241 	155.000000	0.0714253 	155.000000	0.0719426 	155.000000	2.53976e-05	
160.000000	0.0673628 	160.000000	0.0704471 	160.000000	0.0701053 	160.000000	0.0699062 	160.000000	0.0704225 	160.000000	2.46659e-05	
165.000000	0.0660109 	165.000000	0.0690146 	165.000000	0.0686689 	165.000000	0.0684751 	165.000000	0.0689906 	165.000000	2.39767e-05	
170.000000	0.0647338 	170.000000	0.0676629 	170.000000	0.067316  	170.000000	0.0671245 	170.000000	0.0676396 	170.000000	2.33264e-05	
175.000000	0.0635254 	175.000000	0.0663853 	175.000000	0.0660413 	175.000000	0.0658479 	175.000000	0.0663626 	175.000000	2.27117e-05	
180.000000	0.0623803 	180.000000	0.065176  	180.000000	0.0648347 	180.000000	0.0646394 	180.000000	0.0651538 	180.000000	2.21297e-05	
185.000000	0.0612934 	185.000000	0.0640295 	185.000000	0.0636875 	185.000000	0.0634937 	185.000000	0.0640079 	185.000000	2.15779e-05	
190.000000	0.0602605 	190.000000	0.0629411 	190.000000	0.0625953 	190.000000	0.0624059 	190.000000	0.06292   	190.000000	2.10539e-05	
195.000000	0.0592775 	195.000000	0.0619064 	195.000000	0.0615597 	195.000000	0.061372  	195.000000	0.0618859 	195.000000	2.05557e-05	
200.000000	0.0583409 	200.000000	0.0609217 	200.000000	0.0605768 	200.000000	0.0603879 	200.000000	0.0609016 	200.000000	2.00813e-05	
210.000000	0.0565942 	210.000000	0.0590881 	210.000000	0.0587389 	210.000000	0.0585557 	210.000000	0.0590689 	210.000000	1.91976e-05	
220.000000	0.0549978 	220.000000	0.0574158 	220.000000	0.0570684 	220.000000	0.0568851 	220.000000	0.0573974 	220.000000	1.83911e-05	
230.000000	0.0535329 	230.000000	0.0558845 	230.000000	0.0555343 	230.000000	0.0553557 	230.000000	0.0558668 	230.000000	1.76519e-05	
240.000000	0.0521838 	240.000000	0.0544771 	240.000000	0.0541275 	240.000000	0.0539506 	240.000000	0.0544601 	240.000000	1.69718e-05	
250.000000	0.0509373 	250.000000	0.0531792 	250.000000	0.0528346 	250.000000	0.0526554 	250.000000	0.0531629 	250.000000	1.63439e-05	
260.000000	0.0497821 	260.000000	0.0519787 	260.000000	0.0516345 	260.000000	0.0514579 	260.000000	0.051963  	260.000000	1.57624e-05	
270.000000	0.0487083 	270.000000	0.0508651 	270.000000	0.0505206 	270.000000	0.0503476 	270.000000	0.0508499 	270.000000	1.52223e-05	
280.000000	0.0477078 	280.000000	0.0498293 	280.000000	0.0494894 	280.000000	0.0493156 	280.000000	0.0498146 	280.000000	1.47192e-05	
290.000000	0.0467733 	290.000000	0.0488636 	290.000000	0.0485237 	290.000000	0.048354  	290.000000	0.0488493 	290.000000	1.42495e-05	
300.000000	0.0458985 	300.000000	0.0479611 	300.000000	0.0476245 	300.000000	0.0474559 	300.000000	0.0479473 	300.000000	1.38098e-05	
310.000000	0.0450779 	310.000000	0.047116  	310.000000	0.0467842 	310.000000	0.0466156 	310.000000	0.0471026 	310.000000	1.33974e-05	
320.000000	0.0443066 	320.000000	0.0463231 	320.000000	0.0459924 	320.000000	0.0458276 	320.000000	0.0463101 	320.000000	1.30097e-05	
330.000000	0.0435803 	330.000000	0.0455777 	330.000000	0.0452516 	330.000000	0.0450875 	330.000000	0.0455651 	330.000000	1.26446e-05	
340.000000	0.0428953 	340.000000	0.0448758 	340.000000	0.0445554 	340.000000	0.0443911 	340.000000	0.0448635 	340.000000	1.23001e-05	
350.000000	0.0422482 	350.000000	0.0442138 	350.000000	0.0438958 	350.000000	0.0437348 	350.000000	0.0442018 	350.000000	1.19746e-05	
360.000000	0.041636  	360.000000	0.0435884 	360.000000	0.0432749 	360.000000	0.0431153 	360.000000	0.0435767 	360.000000	1.16664e-05	
370.000000	0.041056  	370.000000	0.0429968 	370.000000	0.0426902 	370.000000	0.0425298 	370.000000	0.0429854 	370.000000	1.13742e-05	
380.000000	0.0405058 	380.000000	0.0424364 	380.000000	0.0421341 	380.000000	0.0419756 	380.000000	0.0424253 	380.000000	1.10968e-05	
390.000000	0.0399831 	390.000000	0.0419049 	390.000000	0.0416063 	390.000000	0.0414504 	390.000000	0.041894  	390.000000	1.08331e-05	
400.000000	0.0394861 	400.000000	0.0414001 	400.000000	0.041108  	400.000000	0.0409521 	400.000000	0.0413895 	400.000000	1.0582e-05	
410.000000	0.0390129 	410.000000	0.0409202 	410.000000	0.040635  	410.000000	0.0404788 	410.000000	0.0409098 	410.000000	1.03428e-05	
420.000000	0.038562  	420.000000	0.0404634 	420.000000	0.0401829 	420.000000	0.0400286 	420.000000	0.0404533 	420.000000	1.01144e-05	
430.000000	0.0381317 	430.000000	0.0400282 	430.000000	0.0397522 	430.000000	0.0396002 	430.000000	0.0400183 	430.000000	9.89631e-06	
440.000000	0.0377209 	440.000000	0.0396131 	440.000000	0.0393439 	440.000000	0.0391919 	440.000000	0.0396035 	440.000000	9.68772e-06	
450.000000	0.0373283 	450.000000	0.0392169 	450.000000	0.038955  	450.000000	0.0388025 	450.000000	0.0392074 	450.000000	9.48804e-06	
460.000000	0.0369527 	460.000000	0.0388384 	460.000000	0.0385821 	460.000000	0.0384308 	460.000000	0.0388291 	460.000000	9.2967e-06	
470.000000	0.0365931 	470.000000	0.0384764 	470.000000	0.0382249 	470.000000	0.0380757 	470.000000	0.0384673 	470.000000	9.1132e-06	
480.000000	0.0362485 	480.000000	0.0381299 	480.000000	0.0378842 	480.000000	0.0377361 	480.000000	0.038121  	480.000000	8.93704e-06	
490.000000	0.0359182 	490.000000	0.0377981 	490.000000	0.0375597 	490.000000	0.0374112 	490.000000	0.0377893 	490.000000	8.7678e-06	
500.000000	0.0356012 	500.000000	0.03748   	500.000000	0.0372487 	500.000000	0.0371    	500.000000	0.0374714 	500.000000	8.60507e-06	
520.000000	0.0350044 	520.000000	0.0368822 	520.000000	0.0366616 	520.000000	0.0365158 	520.000000	0.0368739 	520.000000	8.29767e-06	
540.000000	0.0344529 	540.000000	0.0363307 	540.000000	0.0361227 	540.000000	0.0359778 	540.000000	0.0363227 	540.000000	8.01218e-06	
560.000000	0.033942  	560.000000	0.0358208 	560.000000	0.0356262 	560.000000	0.0354813 	560.000000	0.035813  	560.000000	7.74632e-06	
580.000000	0.0334677 	580.000000	0.0353482 	580.000000	0.035164  	580.000000	0.0350218 	580.000000	0.0353407 	580.000000	7.49811e-06	
600.000000	0.0330265 	600.000000	0.0349094 	600.000000	0.0347374 	600.000000	0.0345959 	600.000000	0.0349022 	600.000000	7.26583e-06	
620.000000	0.0326155 	620.000000	0.0345012 	620.000000	0.034342  	620.000000	0.0342001 	620.000000	0.0344941 	620.000000	7.04797e-06	
640.000000	0.0322319 	640.000000	0.0341207 	640.000000	0.0339717 	640.000000	0.0338318 	640.000000	0.0341138 	640.000000	6.84322e-06	
660.000000	0.0318733 	660.000000	0.0337655 	660.000000	0.0336267 	660.000000	0.0334885 	660.000000	0.0337588 	660.000000	6.65041e-06	
680.000000	0.0315378 	680.000000	0.0334334 	680.000000	0.0333065 	680.000000	0.0331678 	680.000000	0.033427  	680.000000	6.46853e-06	
700.000000	0.0312233 	700.000000	0.0331226 	700.000000	0.0330065 	700.000000	0.032868  	700.000000	0.0331163 	700.000000	6.29665e-06	
720.000000	0.0309283 	720.000000	0.0328312 	720.000000	0.0327239 	720.000000	0.0325873 	720.000000	0.0328251 	720.000000	6.13397e-06	
740.000000	0.0306512 	740.000000	0.0325578 	740.000000	0.0324593 	740.000000	0.032324  	740.000000	0.0325518 	740.000000	5.97975e-06	
760.000000	0.0303907 	760.000000	0.032301  	760.000000	0.0322123 	760.000000	0.0320769 	760.000000	0.0322951 	760.000000	5.83336e-06	
780.000000	0.0301456 	780.000000	0.0320594 	780.000000	0.0319803 	780.000000	0.0318446 	780.000000	0.0320537 	780.000000	5.69419e-06	
800.000000	0.0299149 	800.000000	0.031832  	800.000000	0.0317609 	800.000000	0.0316261 	800.000000	0.0318265 	800.000000	5.56172e-06	
820.000000	0.0296974 	820.000000	0.0316179 	820.000000	0.031554  	820.000000	0.0314207 	820.000000	0.0316124 	820.000000	5.43548e-06	
840.000000	0.0294924 	840.000000	0.031416  	840.000000	0.0313617 	840.000000	0.0312293 	840.000000	0.0314107 	840.000000	5.31502e-06	
860.000000	0.0292989 	860.000000	0.0312255 	860.000000	0.0311812 	860.000000	0.0310487 	860.000000	0.0312203 	860.000000	5.19997e-06	
880.000000	0.0291164 	880.000000	0.0310457 	880.000000	0.031011  	880.000000	0.0308782 	880.000000	0.0310406 	880.000000	5.08995e-06	
900.000000	0.0289439 	900.000000	0.0308758 	900.000000	0.0308496 	900.000000	0.0307171 	900.000000	0.0308708 	900.000000	4.98464e-06	
920.000000	0.0287811 	920.000000	0.0307153 	920.000000	0.0306962 	920.000000	0.0305648 	920.000000	0.0307104 	920.000000	4.88374e-06	
940.000000	0.0286272 	940.000000	0.0305636 	940.000000	0.030551  	940.000000	0.0304207 	940.000000	0.0305588 	940.000000	4.78698e-06	
960.000000	0.0284818 	960.000000	0.03042   	960.000000	0.0304138 	960.000000	0.0302842 	960.000000	0.0304153 	960.000000	4.6941e-06	
980.000000	0.0283443 	980.000000	0.0302842 	980.000000	0.0302845 	980.000000	0.0301549 	980.000000	0.0302796 	980.000000	4.60488e-06	
1000.000000	0.0282143 	1000.000000	0.0301557 	1000.000000	0.0301623 	1000.000000	0.0300324 	1000.000000	0.0301512 	1000.000000	4.51909e-06	
1020.000000	0.0280914 	1020.000000	0.030034  	1020.000000	0.0300462 	1020.000000	0.0299162 	1020.000000	0.0300296 	1020.000000	4.43655e-06	
1040.000000	0.0279752 	1040.000000	0.0299188 	1040.000000	0.0299356 	1040.000000	0.029806  	1040.000000	0.0299145 	1040.000000	4.35706e-06	
1060.000000	0.0278654 	1060.000000	0.0298097 	1060.000000	0.0298302 	1060.000000	0.0297013 	1060.000000	0.0298054 	1060.000000	4.28047e-06	
1080.000000	0.0277616 	1080.000000	0.0297064 	1080.000000	0.0297299 	1080.000000	0.029602  	1080.000000	0.0297022 	1080.000000	4.20661e-06	
1100.000000	0.0276635 	1100.000000	0.0296085 	1100.000000	0.0296348 	1100.000000	0.0295076 	1100.000000	0.0296044 	1100.000000	4.13533e-06	
1120.000000	0.0275709 	1120.000000	0.0295159 	1120.000000	0.0295448 	1120.000000	0.0294179 	1120.000000	0.0295118 	1120.000000	4.06652e-06	
1140.000000	0.0274834 	1140.000000	0.0294281 	1140.000000	0.0294596 	1140.000000	0.0293327 	1140.000000	0.0294241 	1140.000000	4.00002e-06	
1160.000000	0.0274008 	1160.000000	0.029345  	1160.000000	0.0293787 	1160.000000	0.0292516 	1160.000000	0.0293411 	1160.000000	3.93574e-06	
1180.000000	0.0273228 	1180.000000	0.0292663 	1180.000000	0.0293018 	1180.000000	0.0291745 	1180.000000	0.0292625 	1180.000000	3.87356e-06	
1200.000000	0.0272494 	1200.000000	0.0291919 	1200.000000	0.0292285 	1200.000000	0.0291012 	1200.000000	0.0291881 	1200.000000	3.81338e-06	
1220.000000	0.0271802 	1220.000000	0.0291214 	1220.000000	0.0291584 	1220.000000	0.0290315 	1220.000000	0.0291177 	1220.000000	3.7551e-06	
1240.000000	0.027115  	1240.000000	0.0290548 	1240.000000	0.0290915 	1240.000000	0.0289651 	1240.000000	0.0290511 	1240.000000	3.69863e-06	
1260.000000	0.0270537 	1260.000000	0.0289918 	1260.000000	0.0290276 	1260.000000	0.0289019 	1260.000000	0.0289882 	1260.000000	3.64389e-06	
1280.000000	0.0269962 	1280.000000	0.0289323 	1280.000000	0.0289669 	1280.000000	0.0288418 	1280.000000	0.0289287 	1280.000000	3.59079e-06	
1300.000000	0.0269422 	1300.000000	0.0288761 	1300.000000	0.0289092 	1300.000000	0.0287845 	1300.000000	0.0288726 	1300.000000	3.53928e-06	
1320.000000	0.0268916 	1320.000000	0.0288231 	1320.000000	0.0288544 	1320.000000	0.0287301 	1320.000000	0.0288196 	1320.000000	3.48927e-06	
1340.000000	0.0268442 	1340.000000	0.0287731 	1340.000000	0.0288025 	1340.000000	0.0286782 	1340.000000	0.0287697 	1340.000000	3.44069e-06	
1360.000000	0.0268    	1360.000000	0.028726  	1360.000000	0.0287532 	1360.000000	0.0286288 	1360.000000	0.0287227 	1360.000000	3.3935e-06	
1380.000000	0.0267588 	1380.000000	0.0286817 	1380.000000	0.0287064 	1380.000000	0.0285818 	1380.000000	0.0286784 	1380.000000	3.34762e-06	
1400.000000	0.0267204 	1400.000000	0.0286401 	1400.000000	0.0286618 	1400.000000	0.0285371 	1400.000000	0.0286368 	1400.000000	3.30301e-06	
1420.000000	0.0266849 	1420.000000	0.0286009 	1420.000000	0.0286192 	1420.000000	0.0284945 	1420.000000	0.0285977 	1420.000000	3.25961e-06	
1440.000000	0.0266519 	1440.000000	0.0285643 	1440.000000	0.0285787 	1440.000000	0.028454  	1440.000000	0.0285611 	1440.000000	3.21737e-06	
1460.000000	0.0266216 	1460.000000	0.0285299 	1460.000000	0.0285399 	1460.000000	0.0284155 	1460.000000	0.0285268 	1460.000000	3.17625e-06	
1480.000000	0.0265937 	1480.000000	0.0284979 	1480.000000	0.0285029 	1480.000000	0.0283788 	1480.000000	0.0284947 	1480.000000	3.1362e-06	
1500.000000	0.0265682 	1500.000000	0.0284679 	1500.000000	0.0284676 	1500.000000	0.0283439 	1500.000000	0.0284648 	1500.000000	3.09718e-06	
1520.000000	0.0265449 	1520.000000	0.0284401 	1520.000000	0.028434  	1520.000000	0.0283107 	1520.000000	0.028437  	1520.000000	3.05915e-06	
1540.000000	0.0265239 	1540.000000	0.0284142 	1540.000000	0.0284021 	1540.000000	0.0282792 	1540.000000	0.0284112 	1540.000000	3.02207e-06	
1560.000000	0.026505  	1560.000000	0.0283903 	1560.000000	0.0283718 	1560.000000	0.0282493 	1560.000000	0.0283873 	1560.000000	2.98591e-06	
1580.000000	0.0264882 	1580.000000	0.0283682 	1580.000000	0.028343  	1580.000000	0.0282208 	1580.000000	0.0283653 	1580.000000	2.95063e-06	
1600.000000	0.0264733 	1600.000000	0.0283479 	1600.000000	0.0283158 	1600.000000	0.0281938 	1600.000000	0.028345  	1600.000000	2.91621e-06	
1620.000000	0.0264603 	1620.000000	0.0283293 	1620.000000	0.0282901 	1620.000000	0.0281682 	1620.000000	0.0283264 	1620.000000	2.8826e-06	
1640.000000	0.0264492 	1640.000000	0.0283124 	1640.000000	0.0282657 	1640.000000	0.0281439 	1640.000000	0.0283095 	1640.000000	2.84978e-06	
1660.000000	0.0264399 	1660.000000	0.0282971 	1660.000000	0.0282427 	1660.000000	0.0281208 	1660.000000	0.0282942 	1660.000000	2.81773e-06	
1680.000000	0.0264323 	1680.000000	0.0282833 	1680.000000	0.0282209 	1680.000000	0.028099  	1680.000000	0.0282805 	1680.000000	2.78641e-06	
1700.000000	0.0264264 	1700.000000	0.0282709 	1700.000000	0.0282004 	1700.000000	0.0280783 	1700.000000	0.0282682 	1700.000000	2.75581e-06	
1750.000000	0.0264186 	1750.000000	0.0282463 	1750.000000	0.0281537 	1750.000000	0.0280315 	1750.000000	0.0282436 	1750.000000	2.68225e-06	
1800.000000	0.0264202 	1800.000000	0.0282299 	1800.000000	0.0281131 	1800.000000	0.027991  	1800.000000	0.0282273 	1800.000000	2.61263e-06	
1850.000000	0.0264305 	1850.000000	0.028221  	1850.000000	0.028078  	1850.000000	0.0279561 	1850.000000	0.0282185 	1850.000000	2.54664e-06	
1900.000000	0.0264488 	1900.000000	0.0282191 	1900.000000	0.0280478 	1900.000000	0.0279265 	1900.000000	0.0282166 	1900.000000	2.48401e-06	
1950.000000	0.0264747 	1950.000000	0.0282237 	1950.000000	0.0280223 	1950.000000	0.0279016 	1950.000000	0.0282212 	1950.000000	2.42448e-06	
2000.000000	0.0265075 	2000.000000	0.0282341 	2000.000000	0.0280011 	2000.000000	0.027881  	2000.000000	0.0282318 	2000.000000	2.36782e-06	
2100.000000	0.0265924 	2100.000000	0.0282713 	2100.000000	0.0279704 	2100.000000	0.0278512 	2100.000000	0.028269  	2100.000000	2.26233e-06	
2200.000000	0.0267003 	2200.000000	0.0283275 	2200.000000	0.0279531 	2200.000000	0.0278345 	2200.000000	0.0283254 	2200.000000	2.1661e-06	
2300.000000	0.0268286 	2300.000000	0.0284004 	2300.000000	0.027947  	2300.000000	0.0278287 	2300.000000	0.0283983 	2300.000000	2.07796e-06	
2400.000000	0.026975  	2400.000000	0.0284878 	2400.000000	0.0279502 	2400.000000	0.0278321 	2400.000000	0.0284858 	2400.000000	1.99692e-06	
2500.000000	0.0271377 	2500.000000	0.028588  	2500.000000	0.0279613 	2500.000000	0.0278432 	2500.000000	0.0285861 	2500.000000	1.92215e-06	
2600.000000	0.027315  	2600.000000	0.0286995 	2600.000000	0.0279789 	2600.000000	0.0278609 	2600.000000	0.0286976 	2600.000000	1.85293e-06	
2700.000000	0.0275056 	2700.000000	0.028821  	2700.000000	0.028002  	2700.000000	0.0278842 	2700.000000	0.0288192 	2700.000000	1.78867e-06	
2800.000000	0.0277083 	2800.000000	0.0289514 	2800.000000	0.0280298 	2800.000000	0.0279122 	2800.000000	0.0289497 	2800.000000	1.72885e-06	
2900.000000	0.0279221 	2900.000000	0.0290899 	2900.000000	0.0280615 	2900.000000	0.0279442 	2900.000000	0.0290882 	2900.000000	1.67301e-06	
3000.000000	0.0281461 	3000.000000	0.0292355 	3000.000000	0.0280966 	3000.000000	0.0279796 	3000.000000	0.0292339 	3000.000000	1.62077e-06	
3200.000000	0.0286215 	3200.000000	0.0295456 	3200.000000	0.0281749 	3200.000000	0.0280586 	3200.000000	0.0295441 	3200.000000	1.52578e-06	
3400.000000	0.0291293 	3400.000000	0.0298769 	3400.000000	0.0282617 	3400.000000	0.028146  	3400.000000	0.0298755 	3400.000000	1.4416e-06	
3600.000000	0.0296655 	3600.000000	0.0302259 	3600.000000	0.0283544 	3600.000000	0.0282392 	3600.000000	0.0302246 	3600.000000	1.36647e-06	
3800.000000	0.0302267 	3800.000000	0.0305897 	3800.000000	0.0284514 	3800.000000	0.0283365 	3800.000000	0.0305884 	3800.000000	1.29899e-06	
4000.000000	0.0308104 	4000.000000	0.0309658 	4000.000000	0.0285512 	4000.000000	0.0284366 	4000.000000	0.0309646 	4000.000000	1.23805e-06	
4200.000000	0.0314144 	4200.000000	0.0313526 	4200.000000	0.0286528 	4200.000000	0.0285383 	4200.000000	0.0313514 	4200.000000	1.18273e-06	
4400.000000	0.032037  	4400.000000	0.0317483 	4400.000000	0.0287553 	4400.000000	0.028641  	4400.000000	0.0317472 	4400.000000	1.13227e-06	
4600.000000	0.0326765 	4600.000000	0.0321518 	4600.000000	0.0288582 	4600.000000	0.0287439 	4600.000000	0.0321507 	4600.000000	1.08606e-06	
4800.000000	0.0333319 	4800.000000	0.032562  	4800.000000	0.0289608 	4800.000000	0.0288467 	4800.000000	0.032561  	4800.000000	1.04358e-06	
5000.000000	0.0340021 	5000.000000	0.0329781 	5000.000000	0.029063  	5000.000000	0.0289489 	5000.000000	0.0329771 	5000.000000	1.00438e-06	
5250.000000	0.0348593 	5250.000000	0.0335052 	5250.000000	0.0291895 	5250.000000	0.0290756 	5250.000000	0.0335042 	5250.000000	9.5946e-07	
5500.000000	0.0357367 	5500.000000	0.0340391 	5500.000000	0.0293144 	5500.000000	0.0292006 	5500.000000	0.0340382 	5500.000000	9.1849e-07	
6000.000000	0.0375476 	6000.000000	0.0351233 	6000.000000	0.0295583 	6000.000000	0.0294449 	6000.000000	0.0351224 	6000.000000	8.4648e-07	
6500.000000	0.0394274 	6500.000000	0.0362245 	6500.000000	0.0297935 	6500.000000	0.0296804 	6500.000000	0.0362237 	6500.000000	7.85214e-07	
7000.000000	0.0413704 	7000.000000	0.0373384 	7000.000000	0.0300196 	7000.000000	0.0299067 	7000.000000	0.0373376 	7000.000000	7.32435e-07	
7500.000000	0.0433728 	7500.000000	0.0384618 	7500.000000	0.0302366 	7500.000000	0.0301239 	7500.000000	0.0384611 	7500.000000	6.8648e-07	
8000.000000	0.0454314 	8000.000000	0.0395925 	8000.000000	0.0304448 	8000.000000	0.0303322 	8000.000000	0.0395919 	8000.000000	6.46095e-07	
8500.000000	0.047544  	8500.000000	0.0407287 	8500.000000	0.0306443 	8500.000000	0.0305319 	8500.000000	0.0407281 	8500.000000	6.10318e-07	
9000.000000	0.0497086 	9000.000000	0.041869  	9000.000000	0.0308354 	9000.000000	0.0307235 	9000.000000	0.0418685 	9000.000000	5.78395e-07	
9500.000000	0.0519239 	9500.000000	0.0430125 	9500.000000	0.0310187 	9500.000000	0.0309074 	9500.000000	0.043012  	9500.000000	5.49732e-07	
10000.000000	0.0541888 	10000.000000	0.0441583 	10000.000000	0.0311948 	10000.000000	0.0310842 	10000.000000	0.0441578 	10000.000000	5.23848e-07	
11000.000000	0.0588635 	11000.000000	0.0464545 	11000.000000	0.0315274 	11000.000000	0.0314178 	11000.000000	0.046454  	11000.000000	4.78932e-07	
12000.000000	0.0637274 	12000.000000	0.0487539 	12000.000000	0.0318366 	12000.000000	0.0317275 	12000.000000	0.0487534 	12000.000000	4.41286e-07	
13000.000000	0.0687767 	13000.000000	0.0510541 	13000.000000	0.0321247 	13000.000000	0.0320162 	13000.000000	0.0510537 	13000.000000	4.09265e-07	
14000.000000	0.074009  	14000.000000	0.0533535 	14000.000000	0.032394  	14000.000000	0.0322863 	14000.000000	0.0533531 	14000.000000	3.81686e-07	
15000.000000	0.0794228 	15000.000000	0.055651  	15000.000000	0.0326466 	15000.000000	0.0325399 	15000.000000	0.0556507 	15000.000000	3.57677e-07	
16000.000000	0.0850169 	16000.000000	0.057946  	16000.000000	0.0328843 	16000.000000	0.0327786 	16000.000000	0.0579457 	16000.000000	3.36582e-07	
17000.000000	0.0907908 	17000.000000	0.060238  	17000.000000	0.0331087 	17000.000000	0.0330042 	17000.000000	0.0602377 	17000.000000	3.17897e-07	
18000.000000	0.0967441 	18000.000000	0.0625267 	18000.000000	0.0333212 	18000.000000	0.0332178 	18000.000000	0.0625264 	18000.000000	3.01229e-07	
19000.000000	0.102877  	19000.000000	0.0648118 	19000.000000	0.0335229 	19000.000000	0.0334207 	19000.000000	0.0648115 	19000.000000	2.86264e-07	
20000.000000	0.109189  	20000.000000	0.0670932 	20000.000000	0.0337149 	20000.000000	0.0336137 	20000.000000	0.0670929 	20000.000000	2.72752e-07	
21000.000000	0.115681  	21000.000000	0.0693709 	21000.000000	0.0338976 	21000.000000	0.0337978 	21000.000000	0.0693707 	21000.000000	2.60489e-07	
22000.000000	0.122353  	22000.000000	0.0716449 	22000.000000	0.0340717 	22000.000000	0.0339738 	22000.000000	0.0716447 	22000.000000	2.4931e-07	
23000.000000	0.129205  	23000.000000	0.0739151 	23000.000000	0.0342388 	23000.000000	0.0341423 	23000.000000	0.0739149 	23000.000000	2.39074e-07	
24000.000000	0.136239  	24000.000000	0.0761817 	24000.000000	0.0343996 	24000.000000	0.0343038 	24000.000000	0.0761814 	24000.000000	2.29666e-07	
25000.000000	0.143454  	25000.000000	0.0784445 	25000.000000	0.0345538 	25000.000000	0.034459  	25000.000000	0.0784443 	25000.000000	2.2099e-07	
26000.000000	0.150852  	26000.000000	0.0807038 	26000.000000	0.0347015 	26000.000000	0.0346083 	26000.000000	0.0807035 	26000.000000	2.12962e-07	
27000.000000	0.158433  	27000.000000	0.0829594 	27000.000000	0.0348433 	27000.000000	0.0347521 	27000.000000	0.0829592 	27000.000000	2.05511e-07	
28000.000000	0.166197  	28000.000000	0.0852116 	28000.000000	0.0349797 	28000.000000	0.0348907 	28000.000000	0.0852114 	28000.000000	1.98577e-07	
29000.000000	0.174147  	29000.000000	0.0874604 	29000.000000	0.0351116 	29000.000000	0.0350246 	29000.000000	0.0874602 	29000.000000	1.92108e-07	
30000.000000	0.182281  	30000.000000	0.0897059 	30000.000000	0.0352391 	30000.000000	0.0351541 	30000.000000	0.0897057 	30000.000000	1.86057e-07	
32000.000000	0.199111  	32000.000000	0.094187  	32000.000000	0.0354822 	32000.000000	0.0354007 	32000.000000	0.0941868 	32000.000000	1.75059e-07	
34000.000000	0.216693  	34000.000000	0.0986555 	34000.000000	0.0357105 	34000.000000	0.0356325 	34000.000000	0.0986554 	34000.000000	1.65318e-07	
36000.000000	0.235034  	36000.000000	0.103112  	36000.000000	0.035925  	36000.000000	0.0358512 	36000.000000	0.103112  	36000.000000	1.5663e-07	
38000.000000	0.254143  	38000.000000	0.107557  	38000.000000	0.036127  	38000.000000	0.0360582 	38000.000000	0.107557  	38000.000000	1.48831e-07	
40000.000000	0.274026  	40000.000000	0.111991  	40000.000000	0.0363179 	40000.000000	0.0362545 	40000.000000	0.111991  	40000.000000	1.4179e-07	
42000.000000	0.294693  	42000.000000	0.116415  	42000.000000	0.0364995 	42000.000000	0.0364413 	42000.000000	0.116415  	42000.000000	1.35401e-07	
44000.000000	0.316151  	44000.000000	0.120828  	44000.000000	0.0366729 	44000.000000	0.0366194 	44000.000000	0.120828  	44000.000000	1.29576e-07	
46000.000000	0.338409  	46000.000000	0.125232  	46000.000000	0.0368388 	46000.000000	0.0367896 	46000.000000	0.125232  	46000.000000	1.24245e-07	
48000.000000	0.361474  	48000.000000	0.129627  	48000.000000	0.0369978 	48000.000000	0.0369525 	48000.000000	0.129627  	48000.000000	1.19345e-07	
50000.000000	0.385355  	50000.000000	0.134012  	50000.000000	0.0371496 	50000.000000	0.0371087 	50000.000000	0.134012  	50000.000000	1.14826e-07	
