0.001000	0.301255  	0.001000	0.329608  	0.001000	0.391618  	0.001000	0.391618  	0.001000	0.205096  	0.001000	0.124512  	
0.002000	0.368196  	0.002000	0.414637  	0.002000	0.485876  	0.002000	0.485876  	0.002000	0.331153  	0.002000	0.0834839 	
0.005000	0.555252  	0.005000	0.637289  	0.005000	0.701646  	0.005000	0.701646  	0.005000	0.591907  	0.005000	0.0453821 	
0.008000	0.699583  	0.008000	0.805536  	0.008000	0.850262  	0.008000	0.850262  	0.008000	0.773507  	0.008000	0.0320283 	
0.010000	0.779402  	0.010000	0.898477  	0.010000	0.928521  	0.010000	0.928521  	0.010000	0.871359  	0.010000	0.027118  	
0.015000	0.992807  	0.015000	1.08055   	0.015000	1.08246   	0.015000	1.08246   	0.015000	1.06066   	0.015000	0.0198901 	
0.020000	1.17164   	0.020000	1.22458   	0.020000	1.20201   	0.020000	1.20201   	0.020000	1.2087    	0.020000	0.0158815 	
0.025000	1.32423   	0.025000	1.3443    	0.025000	1.30246   	0.025000	1.30246   	0.025000	1.331     	0.025000	0.0133034 	
0.030000	1.4551    	0.030000	1.44681   	0.030000	1.40671   	0.030000	1.40671   	0.030000	1.43531   	0.030000	0.0114934 	
0.035000	1.56697   	0.035000	1.53617   	0.035000	1.49817   	0.035000	1.49817   	0.035000	1.52602   	0.035000	0.0101467 	
0.040000	1.66176   	0.040000	1.61494   	0.040000	1.57925   	0.040000	1.57925   	0.040000	1.60583   	0.040000	0.00910204	
0.045000	1.74098   	0.045000	1.68481   	0.045000	1.65155   	0.045000	1.65155   	0.045000	1.67655   	0.045000	0.0082661 	
0.050000	1.80602   	0.050000	1.74699   	0.050000	1.7162    	0.050000	1.7162    	0.050000	1.73941   	0.050000	0.00758071	
0.055000	1.8582    	0.055000	1.80236   	0.055000	1.77404   	0.055000	1.77404   	0.055000	1.79535   	0.055000	0.00700768	
0.060000	1.89886   	0.060000	1.85158   	0.060000	1.8257    	0.060000	1.8257    	0.060000	1.84506   	0.060000	0.00652089	
0.070000	1.95085   	0.070000	1.93372   	0.070000	1.91253   	0.070000	1.91253   	0.070000	1.92798   	0.070000	0.00573691	
0.080000	1.97209   	0.080000	1.99689   	0.080000	1.98002   	0.080000	1.98002   	0.080000	1.99176   	0.080000	0.00513165	
0.090000	1.97153   	0.090000	2.04386   	0.090000	2.03087   	0.090000	2.03087   	0.090000	2.03921   	0.090000	0.00464917	
0.100000	1.95651   	0.100000	2.07697   	0.100000	2.06741   	0.100000	2.06741   	0.100000	2.07271   	0.100000	0.00425486	
0.120000	1.90387   	0.120000	2.10963   	0.120000	2.10564   	0.120000	2.10564   	0.120000	2.10599   	0.120000	0.00364754	
0.140000	1.84171   	0.140000	2.10892   	0.140000	2.10899   	0.140000	2.10899   	0.140000	2.10572   	0.140000	0.00320025	
0.160000	1.78179   	0.160000	2.08572   	0.160000	2.08871   	0.160000	2.08871   	0.160000	2.08287   	0.160000	0.00285614	
0.180000	1.72778   	0.180000	2.0482    	0.180000	2.05327   	0.180000	2.05327   	0.180000	2.04562   	0.180000	0.00258265	
0.200000	1.67998   	0.200000	2.00219   	0.200000	2.00874   	0.200000	2.00874   	0.200000	1.99983   	0.200000	0.00235969	
0.250000	1.5813    	0.250000	1.8732    	0.250000	1.88188   	0.250000	1.88188   	0.250000	1.87126   	0.250000	0.00194756	
0.300000	1.50072   	0.300000	1.74616   	0.300000	1.75572   	0.300000	1.75572   	0.300000	1.74449   	0.300000	0.0016637 	
0.350000	1.42969   	0.350000	1.63106   	0.350000	1.64088   	0.350000	1.64088   	0.350000	1.6296    	0.350000	0.00145554	
0.400000	1.36463   	0.400000	1.5294    	0.400000	1.53911   	0.400000	1.53911   	0.400000	1.5281    	0.400000	0.00129597	
0.450000	1.30421   	0.450000	1.44005   	0.450000	1.44943   	0.450000	1.44943   	0.450000	1.43888   	0.450000	0.00116951	
0.500000	1.24792   	0.500000	1.36129   	0.500000	1.37021   	0.500000	1.37021   	0.500000	1.36022   	0.500000	0.00106668	
0.600000	1.14678   	0.600000	1.22923   	0.600000	1.23708   	0.600000	1.23708   	0.600000	1.22832   	0.600000	0.000909266	
0.700000	1.05945   	0.700000	1.12298   	0.700000	1.12972   	0.700000	1.12972   	0.700000	1.12218   	0.700000	0.000794129	
0.800000	0.984065  	0.800000	1.03556   	0.800000	1.04128   	0.800000	1.04128   	0.800000	1.03485   	0.800000	0.000706048	
0.900000	0.918717  	0.900000	0.962252  	0.900000	0.967059  	0.900000	0.967059  	0.900000	0.961615  	0.900000	0.000636369	
1.000000	0.861716  	1.000000	0.899771  	1.000000	0.903784  	1.000000	0.903784  	1.000000	0.899192  	1.000000	0.000579792	
1.250000	0.747012  	1.250000	0.777087  	1.250000	0.779549  	1.250000	0.779549  	1.250000	0.776612  	1.250000	0.000475797	
1.500000	0.660402  	1.500000	0.686315  	1.500000	0.687689  	1.500000	0.687689  	1.500000	0.68591   	1.500000	0.000404643	
1.750000	0.592569  	1.750000	0.615928  	1.750000	0.616527  	1.750000	0.616527  	1.750000	0.615575  	1.750000	0.00035274	
2.000000	0.537899  	2.000000	0.559489  	2.000000	0.559524  	2.000000	0.559524  	2.000000	0.559175  	2.000000	0.000313122	
2.250000	0.49284   	2.250000	0.513091  	2.250000	0.512708  	2.250000	0.512708  	2.250000	0.512809  	2.250000	0.000281838	
2.500000	0.447396  	2.500000	0.474205  	2.500000	0.473508  	2.500000	0.473508  	2.500000	0.473948  	2.500000	0.000256479	
3.000000	0.390509  	3.000000	0.412573  	3.000000	0.411451  	3.000000	0.411451  	3.000000	0.412355  	3.000000	0.000217805	
3.500000	0.347387  	3.500000	0.365839  	3.500000	0.364462  	3.500000	0.364462  	3.500000	0.365649  	3.500000	0.000189642	
4.000000	0.313472  	4.000000	0.329135  	4.000000	0.327603  	4.000000	0.327603  	4.000000	0.328967  	4.000000	0.000168174	
4.500000	0.286041  	4.500000	0.299516  	4.500000	0.297889  	4.500000	0.297889  	4.500000	0.299365  	4.500000	0.000151242	
5.000000	0.263359  	5.000000	0.27509   	5.000000	0.273406  	5.000000	0.273406  	5.000000	0.274952  	5.000000	0.00013753	
5.500000	0.244266  	5.500000	0.254584  	5.500000	0.252869  	5.500000	0.252869  	5.500000	0.254458  	5.500000	0.000126188	
6.000000	0.227956  	6.000000	0.23711   	6.000000	0.235381  	6.000000	0.235381  	6.000000	0.236994  	6.000000	0.000116644	
6.500000	0.213849  	6.500000	0.222032  	6.500000	0.2203    	6.500000	0.2203    	6.500000	0.221923  	6.500000	0.000108497	
7.000000	0.201518  	7.000000	0.208879  	7.000000	0.207152  	7.000000	0.207152  	7.000000	0.208777  	7.000000	0.000101457	
7.500000	0.190642  	7.500000	0.197297  	7.500000	0.195581  	7.500000	0.195581  	7.500000	0.197201  	7.500000	9.53093e-05	
8.000000	0.180971  	8.000000	0.187014  	8.000000	0.185313  	8.000000	0.185313  	8.000000	0.186924  	8.000000	8.98931e-05	
8.500000	0.172313  	8.500000	0.177819  	8.500000	0.176136  	8.500000	0.176136  	8.500000	0.177734  	8.500000	8.50833e-05	
9.000000	0.164512  	9.000000	0.169545  	9.000000	0.16788   	9.000000	0.16788   	9.000000	0.169464  	9.000000	8.0782e-05	
9.500000	0.157445  	9.500000	0.162055  	9.500000	0.160411  	9.500000	0.160411  	9.500000	0.161978  	9.500000	7.69117e-05	
10.000000	0.151012  	10.000000	0.15322   	10.000000	0.153618  	10.000000	0.153618  	10.000000	0.153147  	10.000000	7.34099e-05	
11.000000	0.139725  	11.000000	0.141984  	11.000000	0.141616  	11.000000	0.141624  	11.000000	0.141917  	11.000000	6.73169e-05	
12.000000	0.13014   	12.000000	0.132397  	12.000000	0.131486  	12.000000	0.1315    	12.000000	0.132335  	12.000000	6.21931e-05	
13.000000	0.121893  	13.000000	0.124116  	13.000000	0.122823  	13.000000	0.122838  	13.000000	0.124058  	13.000000	5.78216e-05	
14.000000	0.114716  	14.000000	0.116886  	14.000000	0.11533   	14.000000	0.115345  	14.000000	0.116832  	14.000000	5.40462e-05	
15.000000	0.108411  	15.000000	0.110518  	15.000000	0.108784  	15.000000	0.108798  	15.000000	0.110467  	15.000000	5.07514e-05	
16.000000	0.102825  	16.000000	0.104862  	16.000000	0.103018  	16.000000	0.103032  	16.000000	0.104814  	16.000000	4.78497e-05	
17.000000	0.0978401 	17.000000	0.0998047 	17.000000	0.0979023 	17.000000	0.0979145 	17.000000	0.0997594 	17.000000	4.5274e-05	
18.000000	0.0933617 	18.000000	0.0952538 	18.000000	0.0933355 	18.000000	0.0933447 	18.000000	0.0952108 	18.000000	4.29716e-05	
19.000000	0.0893154 	19.000000	0.0911358 	19.000000	0.0892337 	19.000000	0.0892405 	19.000000	0.0910949 	19.000000	4.09006e-05	
20.000000	0.0856404 	20.000000	0.0873909 	20.000000	0.085529  	20.000000	0.0855358 	20.000000	0.0873519 	20.000000	3.90275e-05	
21.000000	0.0822869 	21.000000	0.0839697 	21.000000	0.082169  	21.000000	0.0821764 	21.000000	0.0839324 	21.000000	3.73247e-05	
22.000000	0.0792136 	22.000000	0.0808315 	22.000000	0.0791124 	22.000000	0.0791179 	22.000000	0.0807957 	22.000000	3.57699e-05	
23.000000	0.0763863 	23.000000	0.0779419 	23.000000	0.0763214 	23.000000	0.076323  	23.000000	0.0779076 	23.000000	3.43442e-05	
24.000000	0.073776  	24.000000	0.0752721 	24.000000	0.0737628 	24.000000	0.0737605 	24.000000	0.0752391 	24.000000	3.3032e-05	
25.000000	0.0713582 	25.000000	0.0727976 	25.000000	0.0714098 	25.000000	0.071404  	25.000000	0.0727658 	25.000000	3.18201e-05	
27.000000	0.0670193 	27.000000	0.0683534 	27.000000	0.0672362 	27.000000	0.0672216 	27.000000	0.0683237 	27.000000	2.96541e-05	
29.000000	0.0632345 	29.000000	0.0644736 	29.000000	0.063649  	29.000000	0.0636308 	29.000000	0.0644458 	29.000000	2.77741e-05	
31.000000	0.0599024 	31.000000	0.0610557 	31.000000	0.0604174 	31.000000	0.0603983 	31.000000	0.0610295 	31.000000	2.61264e-05	
33.000000	0.0569449 	33.000000	0.0580208 	33.000000	0.0574471 	33.000000	0.0574221 	33.000000	0.0579961 	33.000000	2.467e-05 	
35.000000	0.0543011 	35.000000	0.055307  	35.000000	0.0547828 	35.000000	0.0547591 	35.000000	0.0552836 	35.000000	2.33729e-05	
38.000000	0.0508205 	38.000000	0.0517339 	38.000000	0.0512774 	38.000000	0.0512499 	38.000000	0.0517122 	38.000000	2.16727e-05	
41.000000	0.047814  	41.000000	0.0486477 	41.000000	0.0482439 	41.000000	0.0482157 	41.000000	0.0486274 	41.000000	2.02111e-05	
44.000000	0.0451893 	44.000000	0.0459539 	44.000000	0.0455898 	44.000000	0.0455648 	44.000000	0.045935  	44.000000	1.89406e-05	
47.000000	0.0428767 	47.000000	0.0435813 	47.000000	0.0432561 	47.000000	0.0432278 	47.000000	0.0435635 	47.000000	1.78257e-05	
50.000000	0.0408226 	50.000000	0.041475  	50.000000	0.0411796 	50.000000	0.0411511 	50.000000	0.0414582 	50.000000	1.68391e-05	
55.000000	0.0378639 	55.000000	0.0384436 	55.000000	0.0381899 	55.000000	0.0381587 	55.000000	0.0384282 	55.000000	1.54244e-05	
60.000000	0.0353657 	60.000000	0.0358873 	60.000000	0.0356605 	60.000000	0.0356318 	60.000000	0.035873  	60.000000	1.42362e-05	
65.000000	0.0332265 	65.000000	0.0337013 	65.000000	0.0334977 	65.000000	0.0334683 	65.000000	0.033688  	65.000000	1.32236e-05	
70.000000	0.0313726 	70.000000	0.0318097 	70.000000	0.0316238 	70.000000	0.031594  	70.000000	0.0317973 	70.000000	1.235e-05 	
75.000000	0.0297494 	75.000000	0.0301562 	75.000000	0.0299813 	75.000000	0.0299539 	75.000000	0.0301446 	75.000000	1.15884e-05	
80.000000	0.0283156 	80.000000	0.0286981 	80.000000	0.028536  	80.000000	0.0285061 	80.000000	0.0286872 	80.000000	1.09181e-05	
85.000000	0.027039  	85.000000	0.0274022 	85.000000	0.0272468 	85.000000	0.0272184 	85.000000	0.0273919 	85.000000	1.03237e-05	
90.000000	0.0258947 	90.000000	0.0262428 	90.000000	0.0260924 	90.000000	0.0260653 	90.000000	0.026233  	90.000000	9.79272e-06	
95.000000	0.0248627 	95.000000	0.025199  	95.000000	0.0250555 	95.000000	0.0250266 	95.000000	0.0251897 	95.000000	9.31545e-06	
100.000000	0.0239268 	100.000000	0.0242543 	100.000000	0.0241135 	100.000000	0.0240858 	100.000000	0.0242454 	100.000000	8.88405e-06	
105.000000	0.0230739 	105.000000	0.023395  	105.000000	0.0232562 	105.000000	0.0232296 	105.000000	0.0233865 	105.000000	8.49214e-06	
110.000000	0.0222932 	110.000000	0.02261   	110.000000	0.0224723 	110.000000	0.022447  	110.000000	0.0226019 	110.000000	8.13448e-06	
115.000000	0.0215756 	115.000000	0.02189   	115.000000	0.021755  	115.000000	0.0217288 	115.000000	0.0218822 	115.000000	7.80671e-06	
120.000000	0.0209137 	120.000000	0.0212271 	120.000000	0.0210941 	120.000000	0.0210673 	120.000000	0.0212196 	120.000000	7.50519e-06	
125.000000	0.020301  	125.000000	0.0206147 	125.000000	0.0204815 	125.000000	0.0204561 	125.000000	0.0206075 	125.000000	7.22687e-06	
130.000000	0.0197322 	130.000000	0.0200473 	130.000000	0.0199142 	130.000000	0.0198895 	130.000000	0.0200403 	130.000000	6.96913e-06	
135.000000	0.0192024 	135.000000	0.01952   	135.000000	0.0193886 	135.000000	0.0193629 	135.000000	0.0195132 	135.000000	6.72975e-06	
140.000000	0.0187078 	140.000000	0.0190287 	140.000000	0.0188979 	140.000000	0.0188721 	140.000000	0.0190221 	140.000000	6.50681e-06	
145.000000	0.0182449 	145.000000	0.0185697 	145.000000	0.0184384 	145.000000	0.0184135 	145.000000	0.0185634 	145.000000	6.29866e-06	
150.000000	0.0178106 	150.000000	0.0181401 	150.000000	0.0180084 	150.000000	0.0179842 	150.000000	0.018134  	150.000000	6.10385e-06	
155.000000	0.0171992 	155.000000	0.017737  	155.000000	0.0176047 	155.000000	0.0175813 	155.000000	0.0177311 	155.000000	5.92113e-06	
160.000000	0.0168407 	160.000000	0.0173581 	160.000000	0.0172257 	160.000000	0.0172025 	160.000000	0.0173524 	160.000000	5.74939e-06	
165.000000	0.0165028 	165.000000	0.0170012 	165.000000	0.0168698 	165.000000	0.0168458 	165.000000	0.0169956 	165.000000	5.58766e-06	
170.000000	0.0161835 	170.000000	0.0166645 	170.000000	0.0165333 	170.000000	0.0165091 	170.000000	0.0166591 	170.000000	5.43509e-06	
175.000000	0.0158814 	175.000000	0.0163463 	175.000000	0.0162144 	175.000000	0.016191  	175.000000	0.016341  	175.000000	5.2909e-06	
180.000000	0.0155951 	180.000000	0.016045  	180.000000	0.0159127 	180.000000	0.0158898 	180.000000	0.0160399 	180.000000	5.15442e-06	
185.000000	0.0153234 	185.000000	0.0157595 	185.000000	0.0156267 	185.000000	0.0156043 	185.000000	0.0157545 	185.000000	5.02503e-06	
190.000000	0.0150651 	190.000000	0.0154884 	190.000000	0.0153551 	190.000000	0.0153333 	190.000000	0.0154835 	190.000000	4.9022e-06	
195.000000	0.0148194 	195.000000	0.0152308 	195.000000	0.0150976 	195.000000	0.0150757 	195.000000	0.015226  	195.000000	4.78543e-06	
200.000000	0.0145852 	200.000000	0.0149855 	200.000000	0.0148531 	200.000000	0.0148306 	200.000000	0.0149809 	200.000000	4.67428e-06	
210.000000	0.0141486 	210.000000	0.0145289 	210.000000	0.0143964 	210.000000	0.0143742 	210.000000	0.0145245 	210.000000	4.46726e-06	
220.000000	0.0137495 	220.000000	0.0141126 	220.000000	0.0139795 	220.000000	0.0139581 	220.000000	0.0141083 	220.000000	4.27838e-06	
230.000000	0.0133832 	230.000000	0.0137313 	230.000000	0.0135978 	230.000000	0.0135772 	230.000000	0.0137272 	230.000000	4.10531e-06	
240.000000	0.013046  	240.000000	0.0133809 	240.000000	0.0132484 	240.000000	0.0132273 	240.000000	0.013377  	240.000000	3.94614e-06	
250.000000	0.0127343 	250.000000	0.0130579 	250.000000	0.0129259 	250.000000	0.0129048 	250.000000	0.0130541 	250.000000	3.79924e-06	
260.000000	0.0124455 	260.000000	0.012759  	260.000000	0.012627  	260.000000	0.0126065 	260.000000	0.0127554 	260.000000	3.66322e-06	
270.000000	0.0121771 	270.000000	0.0124819 	270.000000	0.0123499 	270.000000	0.01233   	270.000000	0.0124783 	270.000000	3.53692e-06	
280.000000	0.011927  	280.000000	0.0122241 	280.000000	0.0120924 	280.000000	0.012073  	280.000000	0.0122206 	280.000000	3.4193e-06	
290.000000	0.0116933 	290.000000	0.0119837 	290.000000	0.0118534 	290.000000	0.0118334 	290.000000	0.0119804 	290.000000	3.3095e-06	
300.000000	0.0114746 	300.000000	0.0117591 	300.000000	0.0116297 	300.000000	0.0116097 	300.000000	0.0117559 	300.000000	3.20676e-06	
310.000000	0.0112695 	310.000000	0.0115488 	310.000000	0.0114198 	310.000000	0.0114003 	310.000000	0.0115457 	310.000000	3.1104e-06	
320.000000	0.0110766 	320.000000	0.0113515 	320.000000	0.011223  	320.000000	0.0112039 	320.000000	0.0113485 	320.000000	3.01985e-06	
330.000000	0.0108951 	330.000000	0.0111661 	330.000000	0.011038  	330.000000	0.0110194 	330.000000	0.0111631 	330.000000	2.93459e-06	
340.000000	0.0107238 	340.000000	0.0109914 	340.000000	0.0108642 	340.000000	0.0108457 	340.000000	0.0109886 	340.000000	2.85416e-06	
350.000000	0.0105621 	350.000000	0.0108267 	350.000000	0.0107009 	350.000000	0.010682  	350.000000	0.0108239 	350.000000	2.77817e-06	
360.000000	0.010409  	360.000000	0.0106711 	360.000000	0.0105465 	360.000000	0.0105275 	360.000000	0.0106684 	360.000000	2.70624e-06	
370.000000	0.010264  	370.000000	0.0105239 	370.000000	0.0104    	370.000000	0.0103813 	370.000000	0.0105213 	370.000000	2.63806e-06	
380.000000	0.0101264 	380.000000	0.0103845 	380.000000	0.0102613 	380.000000	0.010243  	380.000000	0.0103819 	380.000000	2.57334e-06	
390.000000	0.00999578	390.000000	0.0102523 	390.000000	0.0101299 	390.000000	0.0101118 	390.000000	0.0102498 	390.000000	2.51182e-06	
400.000000	0.00987153	400.000000	0.0101267 	400.000000	0.010005  	400.000000	0.00998733	400.000000	0.0101242 	400.000000	2.45327e-06	
410.000000	0.00975323	410.000000	0.0100073 	410.000000	0.00988655	410.000000	0.00986903	410.000000	0.0100049 	410.000000	2.39747e-06	
420.000000	0.00964049	420.000000	0.00989369	420.000000	0.00977427	420.000000	0.00975647	420.000000	0.00989134	420.000000	2.34423e-06	
430.000000	0.00953294	430.000000	0.00978543	430.000000	0.00966739	430.000000	0.00964928	430.000000	0.00978314	430.000000	2.29338e-06	
440.000000	0.00943023	440.000000	0.00968219	440.000000	0.00956444	440.000000	0.00954641	440.000000	0.00967995	440.000000	2.24476e-06	
450.000000	0.00933207	450.000000	0.00958364	450.000000	0.00946556	450.000000	0.00944783	450.000000	0.00958145	450.000000	2.19822e-06	
460.000000	0.00923817	460.000000	0.00948949	460.000000	0.00937116	460.000000	0.00935367	460.000000	0.00948733	460.000000	2.15364e-06	
470.000000	0.00914827	470.000000	0.00939945	470.000000	0.00928099	470.000000	0.00926367	470.000000	0.00939734	470.000000	2.11088e-06	
480.000000	0.00906213	480.000000	0.00931328	480.000000	0.00919466	480.000000	0.00917758	480.000000	0.00931121	480.000000	2.06984e-06	
490.000000	0.00897954	490.000000	0.00923076	490.000000	0.00911197	490.000000	0.00909514	490.000000	0.00922873	490.000000	2.03042e-06	
500.000000	0.0089003 	500.000000	0.00915166	500.000000	0.00903287	500.000000	0.00901616	500.000000	0.00914966	500.000000	1.99252e-06	
520.000000	0.00875111	520.000000	0.00900297	520.000000	0.00888487	520.000000	0.00886775	520.000000	0.00900105	520.000000	1.92094e-06	
540.000000	0.00861322	540.000000	0.00886583	540.000000	0.0087481 	540.000000	0.00873094	540.000000	0.00886398	540.000000	1.85448e-06	
560.000000	0.00848549	560.000000	0.00873903	560.000000	0.00862125	560.000000	0.00860449	560.000000	0.00873723	560.000000	1.7926e-06	
580.000000	0.00836692	580.000000	0.00862152	580.000000	0.00850385	580.000000	0.00848735	580.000000	0.00861979	580.000000	1.73484e-06	
600.000000	0.00825663	600.000000	0.00851241	600.000000	0.00839476	600.000000	0.0083786 	600.000000	0.00851073	600.000000	1.6808e-06	
620.000000	0.00815387	620.000000	0.0084109 	620.000000	0.0082934 	620.000000	0.00827743	620.000000	0.00840927	620.000000	1.63012e-06	
640.000000	0.00805797	640.000000	0.0083163 	640.000000	0.00819938	640.000000	0.00818314	640.000000	0.00831472	640.000000	1.58251e-06	
660.000000	0.00796833	660.000000	0.00822799	660.000000	0.00811156	660.000000	0.0080951 	660.000000	0.00822646	660.000000	1.53768e-06	
680.000000	0.00788444	680.000000	0.00814544	680.000000	0.00802904	680.000000	0.00801277	680.000000	0.00814395	680.000000	1.49539e-06	
700.000000	0.00780583	700.000000	0.00806817	700.000000	0.00795166	700.000000	0.00793565	700.000000	0.00806671	700.000000	1.45544e-06	
720.000000	0.00773207	720.000000	0.00799573	720.000000	0.00787915	720.000000	0.00786332	720.000000	0.00799432	720.000000	1.41763e-06	
740.000000	0.0076628 	740.000000	0.00792776	740.000000	0.00781103	740.000000	0.00779538	740.000000	0.00792638	740.000000	1.3818e-06	
760.000000	0.00759768	760.000000	0.00786391	760.000000	0.00774691	760.000000	0.00773149	760.000000	0.00786257	760.000000	1.34779e-06	
780.000000	0.00753641	780.000000	0.00780387	780.000000	0.00768662	780.000000	0.00767133	780.000000	0.00780256	780.000000	1.31546e-06	
800.000000	0.00747872	800.000000	0.00774736	800.000000	0.00763001	800.000000	0.00761461	800.000000	0.00774608	800.000000	1.2847e-06	
820.000000	0.00742435	820.000000	0.00769413	820.000000	0.00757671	820.000000	0.0075611 	820.000000	0.00769288	820.000000	1.25538e-06	
840.000000	0.00737309	840.000000	0.00764395	840.000000	0.00752628	840.000000	0.00751055	840.000000	0.00764272	840.000000	1.22741e-06	
860.000000	0.00732473	860.000000	0.00759661	860.000000	0.00747841	860.000000	0.00746275	860.000000	0.00759541	860.000000	1.2007e-06	
880.000000	0.00727909	880.000000	0.00755192	880.000000	0.007433  	880.000000	0.00741752	880.000000	0.00755075	880.000000	1.17516e-06	
900.000000	0.00723599	900.000000	0.00750972	900.000000	0.00738998	900.000000	0.00737467	900.000000	0.00750857	900.000000	1.15072e-06	
920.000000	0.00719527	920.000000	0.00746983	920.000000	0.00734924	920.000000	0.00733406	920.000000	0.0074687 	920.000000	1.12731e-06	
940.000000	0.0071568 	940.000000	0.00743212	940.000000	0.00731061	940.000000	0.00729553	940.000000	0.00743102	940.000000	1.10486e-06	
960.000000	0.00712044	960.000000	0.00739646	960.000000	0.00727395	960.000000	0.00725895	960.000000	0.00739538	960.000000	1.08331e-06	
980.000000	0.00708607	980.000000	0.00736272	980.000000	0.00723912	980.000000	0.0072242 	980.000000	0.00736166	980.000000	1.06261e-06	
1000.000000	0.00705357	1000.000000	0.00733078	1000.000000	0.00720599	1000.000000	0.00719116	1000.000000	0.00732974	1000.000000	1.04271e-06	
1020.000000	0.00702285	1020.000000	0.00730056	1020.000000	0.00717447	1020.000000	0.00715974	1020.000000	0.00729953	1020.000000	1.02357e-06	
1040.000000	0.00699381	1040.000000	0.00727193	1040.000000	0.00714444	1040.000000	0.00712983	1040.000000	0.00727093	1040.000000	1.00513e-06	
1060.000000	0.00696635	1060.000000	0.00724483	1060.000000	0.00711583	1060.000000	0.00710135	1060.000000	0.00724385	1060.000000	9.87374e-07	
1080.000000	0.0069404 	1080.000000	0.00721917	1080.000000	0.0070886 	1080.000000	0.00707421	1080.000000	0.0072182 	1080.000000	9.70249e-07	
1100.000000	0.00691588	1100.000000	0.00719486	1100.000000	0.00706268	1100.000000	0.00704834	1100.000000	0.00719391	1100.000000	9.53726e-07	
1120.000000	0.00689271	1120.000000	0.00717185	1120.000000	0.00703803	1120.000000	0.00702367	1120.000000	0.00717091	1120.000000	9.37773e-07	
1140.000000	0.00687084	1140.000000	0.00715005	1140.000000	0.00701457	1140.000000	0.00700012	1140.000000	0.00714913	1140.000000	9.22362e-07	
1160.000000	0.00685019	1160.000000	0.00712942	1160.000000	0.00699221	1160.000000	0.00697765	1160.000000	0.00712851	1160.000000	9.07464e-07	
1180.000000	0.00683071	1180.000000	0.00710988	1180.000000	0.00697084	1180.000000	0.00695619	1180.000000	0.00710899	1180.000000	8.93054e-07	
1200.000000	0.00681234	1200.000000	0.0070914 	1200.000000	0.0069504 	1200.000000	0.00693568	1200.000000	0.00709052	1200.000000	8.79108e-07	
1220.000000	0.00679504	1220.000000	0.00707391	1220.000000	0.00693082	1220.000000	0.00691609	1220.000000	0.00707304	1220.000000	8.65604e-07	
1240.000000	0.00677875	1240.000000	0.00705737	1240.000000	0.00691205	1240.000000	0.00689736	1240.000000	0.00705652	1240.000000	8.52522e-07	
1260.000000	0.00676344	1260.000000	0.00704174	1260.000000	0.00689406	1260.000000	0.00687944	1260.000000	0.0070409 	1260.000000	8.39841e-07	
1280.000000	0.00674905	1280.000000	0.00702697	1280.000000	0.00687685	1280.000000	0.00686231	1280.000000	0.00702614	1280.000000	8.27543e-07	
1300.000000	0.00673554	1300.000000	0.00701302	1300.000000	0.00686037	1300.000000	0.00684591	1300.000000	0.00701221	1300.000000	8.1561e-07	
1320.000000	0.00672289	1320.000000	0.00699987	1320.000000	0.00684461	1320.000000	0.00683022	1320.000000	0.00699906	1320.000000	8.04028e-07	
1340.000000	0.00671106	1340.000000	0.00698746	1340.000000	0.00682953	1340.000000	0.00681519	1340.000000	0.00698667	1340.000000	7.92779e-07	
1360.000000	0.0067    	1360.000000	0.00697578	1360.000000	0.00681509	1360.000000	0.00680081	1360.000000	0.006975  	1360.000000	7.81851e-07	
1380.000000	0.00668969	1380.000000	0.00696479	1380.000000	0.00680127	1380.000000	0.00678703	1380.000000	0.00696402	1380.000000	7.71229e-07	
1400.000000	0.00668011	1400.000000	0.00695445	1400.000000	0.00678803	1400.000000	0.00677383	1400.000000	0.00695369	1400.000000	7.609e-07 	
1420.000000	0.00667121	1420.000000	0.00694475	1420.000000	0.00677535	1420.000000	0.00676119	1420.000000	0.006944  	1420.000000	7.50852e-07	
1440.000000	0.00666299	1440.000000	0.00693566	1440.000000	0.00676318	1440.000000	0.00674907	1440.000000	0.00693492	1440.000000	7.41075e-07	
1460.000000	0.0066554 	1460.000000	0.00692715	1460.000000	0.00675151	1460.000000	0.00673746	1460.000000	0.00692642	1460.000000	7.31556e-07	
1480.000000	0.00664842	1480.000000	0.0069192 	1480.000000	0.00674032	1480.000000	0.00672633	1480.000000	0.00691848	1480.000000	7.22286e-07	
1500.000000	0.00664204	1500.000000	0.00691179	1500.000000	0.0067296 	1500.000000	0.00671566	1500.000000	0.00691107	1500.000000	7.13256e-07	
1520.000000	0.00663624	1520.000000	0.00690489	1520.000000	0.00671932	1520.000000	0.00670544	1520.000000	0.00690418	1520.000000	7.04455e-07	
1540.000000	0.00663098	1540.000000	0.00689848	1540.000000	0.00670947	1540.000000	0.00669563	1540.000000	0.00689779	1540.000000	6.95875e-07	
1560.000000	0.00662625	1560.000000	0.00689256	1560.000000	0.00670004	1560.000000	0.00668623	1560.000000	0.00689187	1560.000000	6.87508e-07	
1580.000000	0.00662204	1580.000000	0.0068871 	1580.000000	0.00669101	1580.000000	0.00667722	1580.000000	0.00688642	1580.000000	6.79345e-07	
1600.000000	0.00661832	1600.000000	0.00688207	1600.000000	0.00668237	1600.000000	0.00666857	1600.000000	0.0068814 	1600.000000	6.7138e-07	
1620.000000	0.00661509	1620.000000	0.00687748	1620.000000	0.0066741 	1620.000000	0.00666029	1620.000000	0.00687681	1620.000000	6.63605e-07	
1640.000000	0.00661231	1640.000000	0.00687329	1640.000000	0.00666618	1640.000000	0.00665234	1640.000000	0.00687264	1640.000000	6.56014e-07	
1660.000000	0.00660998	1660.000000	0.0068695 	1660.000000	0.00665861	1660.000000	0.00664472	1660.000000	0.00686885	1660.000000	6.486e-07 	
1680.000000	0.00660809	1680.000000	0.0068661 	1680.000000	0.00665135	1680.000000	0.00663742	1680.000000	0.00686545	1680.000000	6.41356e-07	
1700.000000	0.00660661	1700.000000	0.00686306	1700.000000	0.0066444 	1700.000000	0.00663042	1700.000000	0.00686242	1700.000000	6.34277e-07	
1750.000000	0.00660466	1750.000000	0.00685699	1750.000000	0.00662824	1750.000000	0.00661415	1750.000000	0.00685638	1750.000000	6.17265e-07	
1800.000000	0.00660506	1800.000000	0.00685297	1800.000000	0.00661368	1800.000000	0.00659953	1800.000000	0.00685237	1800.000000	6.01168e-07	
1850.000000	0.00660763	1850.000000	0.00685083	1850.000000	0.00660054	1850.000000	0.0065864 	1850.000000	0.00685025	1850.000000	5.85912e-07	
1900.000000	0.00661221	1900.000000	0.00685042	1900.000000	0.00658871	1900.000000	0.00657463	1900.000000	0.00684985	1900.000000	5.71434e-07	
1950.000000	0.00661867	1950.000000	0.00685161	1950.000000	0.00657809	1950.000000	0.00656409	1950.000000	0.00685106	1950.000000	5.57675e-07	
2000.000000	0.00662688	2000.000000	0.00685428	2000.000000	0.0065686 	2000.000000	0.00655467	2000.000000	0.00685374	2000.000000	5.44581e-07	
2100.000000	0.0066481 	2100.000000	0.00686364	2100.000000	0.00655263	2100.000000	0.00653884	2100.000000	0.00686312	2100.000000	5.20206e-07	
2200.000000	0.00667507	2200.000000	0.00687775	2200.000000	0.00654017	2200.000000	0.00652648	2200.000000	0.00687725	2200.000000	4.97977e-07	
2300.000000	0.00670714	2300.000000	0.00689598	2300.000000	0.00653065	2300.000000	0.00651703	2300.000000	0.00689551	2300.000000	4.77621e-07	
2400.000000	0.00674375	2400.000000	0.00691783	2400.000000	0.00652362	2400.000000	0.00651006	2400.000000	0.00691737	2400.000000	4.58908e-07	
2500.000000	0.00678441	2500.000000	0.00694286	2500.000000	0.00651869	2500.000000	0.0065052 	2500.000000	0.00694242	2500.000000	4.41646e-07	
2600.000000	0.00682875	2600.000000	0.00697069	2600.000000	0.00651557	2600.000000	0.00650213	2600.000000	0.00697027	2600.000000	4.25671e-07	
2700.000000	0.0068764 	2700.000000	0.00700102	2700.000000	0.00651399	2700.000000	0.00650061	2700.000000	0.00700061	2700.000000	4.10842e-07	
2800.000000	0.00692708	2800.000000	0.00703357	2800.000000	0.00651373	2800.000000	0.0065004 	2800.000000	0.00703317	2800.000000	3.9704e-07	
2900.000000	0.00698053	2900.000000	0.0070681 	2900.000000	0.00651463	2900.000000	0.00650134	2900.000000	0.00706772	2900.000000	3.84159e-07	
3000.000000	0.00703652	3000.000000	0.00710443	3000.000000	0.0065165 	3000.000000	0.00650326	3000.000000	0.00710406	3000.000000	3.72111e-07	
3200.000000	0.00715537	3200.000000	0.00718175	3200.000000	0.0065227 	3200.000000	0.00650954	3200.000000	0.0071814 	3200.000000	3.50206e-07	
3400.000000	0.00728233	3400.000000	0.00726436	3400.000000	0.00653147	3400.000000	0.00651837	3400.000000	0.00726403	3400.000000	3.30801e-07	
3600.000000	0.00741637	3600.000000	0.00735135	3600.000000	0.00654216	3600.000000	0.00652912	3600.000000	0.00735104	3600.000000	3.13487e-07	
3800.000000	0.00755668	3800.000000	0.00744201	3800.000000	0.00655429	3800.000000	0.00654129	3800.000000	0.00744171	3800.000000	2.97941e-07	
4000.000000	0.00770261	4000.000000	0.00753575	4000.000000	0.00656749	4000.000000	0.00655453	4000.000000	0.00753547	4000.000000	2.83903e-07	
4200.000000	0.00785361	4200.000000	0.00763211	4200.000000	0.00658148	4200.000000	0.00656856	4200.000000	0.00763184	4200.000000	2.71163e-07	
4400.000000	0.00800924	4400.000000	0.00773072	4400.000000	0.00659603	4400.000000	0.00658314	4400.000000	0.00773046	4400.000000	2.59546e-07	
4600.000000	0.00816914	4600.000000	0.00783126	4600.000000	0.00661097	4600.000000	0.00659811	4600.000000	0.00783101	4600.000000	2.48909e-07	
4800.000000	0.00833299	4800.000000	0.00793346	4800.000000	0.00662617	4800.000000	0.00661334	4800.000000	0.00793323	4800.000000	2.39132e-07	
5000.000000	0.00850053	5000.000000	0.00803712	5000.000000	0.00664153	5000.000000	0.00662872	5000.000000	0.00803689	5000.000000	2.30113e-07	
5250.000000	0.00871482	5250.000000	0.00816844	5250.000000	0.00666082	5250.000000	0.00664803	5250.000000	0.00816822	5250.000000	2.19778e-07	
5500.000000	0.00893418	5500.000000	0.00830144	5500.000000	0.00668009	5500.000000	0.00666733	5500.000000	0.00830123	5500.000000	2.10355e-07	
6000.000000	0.00938691	6000.000000	0.00857152	6000.000000	0.00671825	6000.000000	0.00670553	6000.000000	0.00857133	6000.000000	1.93798e-07	
6500.000000	0.00985685	6500.000000	0.00884583	6500.000000	0.00675553	6500.000000	0.00674284	6500.000000	0.00884565	6500.000000	1.79715e-07	
7000.000000	0.0103426 	7000.000000	0.00912329	7000.000000	0.00679167	7000.000000	0.006779  	7000.000000	0.00912312	7000.000000	1.67588e-07	
7500.000000	0.0108432 	7500.000000	0.00940312	7500.000000	0.00682656	7500.000000	0.00681391	7500.000000	0.00940297	7500.000000	1.57032e-07	
8000.000000	0.0113579 	8000.000000	0.00968475	8000.000000	0.00686014	8000.000000	0.0068475 	8000.000000	0.0096846 	8000.000000	1.47758e-07	
8500.000000	0.011886  	8500.000000	0.00996774	8500.000000	0.00689242	8500.000000	0.00687981	8500.000000	0.0099676 	8500.000000	1.39544e-07	
9000.000000	0.0124272 	9000.000000	0.0102518 	9000.000000	0.00692345	9000.000000	0.00691084	9000.000000	0.0102516 	9000.000000	1.32217e-07	
9500.000000	0.012981  	9500.000000	0.0105366 	9500.000000	0.00695326	9500.000000	0.00694066	9500.000000	0.0105364 	9500.000000	1.2564e-07	
10000.000000	0.0135472 	10000.000000	0.0108219 	10000.000000	0.00698191	10000.000000	0.00696932	10000.000000	0.0108218 	10000.000000	1.19702e-07	
11000.000000	0.0147159 	11000.000000	0.0113938 	11000.000000	0.00703597	11000.000000	0.00702339	11000.000000	0.0113937 	11000.000000	1.094e-07 	
12000.000000	0.0159318 	12000.000000	0.0119665 	12000.000000	0.00708602	12000.000000	0.00707352	12000.000000	0.0119664 	12000.000000	1.0077e-07	
13000.000000	0.0171942 	13000.000000	0.0125394 	13000.000000	0.00713242	13000.000000	0.00712014	13000.000000	0.0125393 	13000.000000	9.34308e-08	
14000.000000	0.0185023 	14000.000000	0.013112  	14000.000000	0.00717554	14000.000000	0.00716365	14000.000000	0.0131119 	14000.000000	8.71119e-08	
15000.000000	0.0198557 	15000.000000	0.0136842 	15000.000000	0.00721582	15000.000000	0.00720438	15000.000000	0.0136841 	15000.000000	8.16126e-08	
16000.000000	0.0212542 	16000.000000	0.0142558 	16000.000000	0.00725371	16000.000000	0.00724263	16000.000000	0.0142557 	16000.000000	7.67822e-08	
17000.000000	0.0226977 	17000.000000	0.0148266 	17000.000000	0.0072895 	17000.000000	0.00727865	17000.000000	0.0148265 	17000.000000	7.25046e-08	
18000.000000	0.024186  	18000.000000	0.0153966 	18000.000000	0.00732341	18000.000000	0.00731267	18000.000000	0.0153965 	18000.000000	6.86893e-08	
19000.000000	0.0257192 	19000.000000	0.0159657 	19000.000000	0.00735561	19000.000000	0.00734487	19000.000000	0.0159656 	19000.000000	6.52648e-08	
20000.000000	0.0272972 	20000.000000	0.0165338 	20000.000000	0.00738625	20000.000000	0.00737543	20000.000000	0.0165338 	20000.000000	6.21734e-08	
21000.000000	0.0289202 	21000.000000	0.0171011 	21000.000000	0.00741531	21000.000000	0.0074045 	21000.000000	0.017101  	21000.000000	5.93685e-08	
22000.000000	0.0305881 	22000.000000	0.0176674 	22000.000000	0.00744262	22000.000000	0.0074322 	22000.000000	0.0176674 	22000.000000	5.68116e-08	
23000.000000	0.0323013 	23000.000000	0.0182328 	23000.000000	0.00746856	23000.000000	0.00745865	23000.000000	0.0182327 	23000.000000	5.44711e-08	
24000.000000	0.0340597 	24000.000000	0.0187973 	24000.000000	0.0074936 	24000.000000	0.00748394	24000.000000	0.0187972 	24000.000000	5.23203e-08	
25000.000000	0.0358635 	25000.000000	0.0193608 	25000.000000	0.00751789	25000.000000	0.00750818	25000.000000	0.0193607 	25000.000000	5.03369e-08	
26000.000000	0.0377129 	26000.000000	0.0199234 	26000.000000	0.00754108	26000.000000	0.00753143	26000.000000	0.0199234 	26000.000000	4.8502e-08	
27000.000000	0.0396081 	27000.000000	0.0204852 	27000.000000	0.00756304	27000.000000	0.00755378	27000.000000	0.0204851 	27000.000000	4.67993e-08	
28000.000000	0.0415493 	28000.000000	0.0210461 	28000.000000	0.00758404	28000.000000	0.00757528	28000.000000	0.021046  	28000.000000	4.52149e-08	
29000.000000	0.0435366 	29000.000000	0.0216061 	29000.000000	0.00760433	29000.000000	0.007596  	29000.000000	0.0216061 	29000.000000	4.37368e-08	
30000.000000	0.0455703 	30000.000000	0.0221653 	30000.000000	0.00762397	30000.000000	0.00761598	30000.000000	0.0221653 	30000.000000	4.23547e-08	
32000.000000	0.0497777 	32000.000000	0.0232813 	32000.000000	0.00766131	32000.000000	0.00765394	32000.000000	0.0232813 	32000.000000	3.98427e-08	
34000.000000	0.0541731 	34000.000000	0.0243941 	34000.000000	0.0076962 	34000.000000	0.00768948	34000.000000	0.0243941 	34000.000000	3.76185e-08	
36000.000000	0.0587585 	36000.000000	0.025504  	36000.000000	0.00772892	36000.000000	0.00772288	36000.000000	0.025504  	36000.000000	3.5635e-08	
38000.000000	0.0635357 	38000.000000	0.026611  	38000.000000	0.00775973	38000.000000	0.00775437	38000.000000	0.026611  	38000.000000	3.38548e-08	
40000.000000	0.0685066 	40000.000000	0.0277152 	40000.000000	0.0077888 	40000.000000	0.00778416	40000.000000	0.0277152 	40000.000000	3.2248e-08	
42000.000000	0.0736733 	42000.000000	0.0288169 	42000.000000	0.00781627	42000.000000	0.00781242	42000.000000	0.0288169 	42000.000000	3.07902e-08	
44000.000000	0.0790378 	44000.000000	0.029916  	44000.000000	0.00784228	44000.000000	0.00783928	44000.000000	0.029916  	44000.000000	2.94615e-08	
46000.000000	0.0846022 	46000.000000	0.0310127 	46000.000000	0.00786696	46000.000000	0.00786489	46000.000000	0.0310127 	46000.000000	2.82453e-08	
48000.000000	0.0903685 	48000.000000	0.0321072 	48000.000000	0.00789044	48000.000000	0.00788933	48000.000000	0.0321071 	48000.000000	2.71279e-08	
50000.000000	0.0963389 	50000.000000	0.0331993 	50000.000000	0.0079128 	50000.000000	0.00791273	50000.000000	0.0331993 	50000.000000	2.60975e-08	
