Energy (MeV/u)1	0 - [He-base] F.Hubert et al, AD&ND Tables 46(1990)1	Energy (MeV/u)2	1 - [H -base] J.F.Ziegler et al, Pergamon Press, NY (low energy)	Energy (MeV/u)3	2 - ATIMA 1.2  LS-theory (recommended for high energy)	Energy (MeV/u)4	3 - ATIMA 1.2  without LS-correction	Energy (MeV/u)5	4 - electrical component of [1] - J.F.Ziegler et al	Energy (MeV/u)6	5 - nuclear component of [1] - J.F.Ziegler et al	
0.001000	3.54621   	0.001000	3.54621   	0.001000	3.21181   	0.001000	3.21181   	0.001000	1.71303   	0.001000	1.83318   	
0.002000	3.56557   	0.002000	3.56557   	0.002000	3.29369   	0.002000	3.29369   	0.002000	2.22153   	0.002000	1.34404   	
0.005000	3.93007   	0.005000	3.93007   	0.005000	3.88029   	0.005000	3.88029   	0.005000	3.13241   	0.005000	0.797657  	
0.008000	4.32366   	0.008000	4.32366   	0.008000	4.48676   	0.008000	4.48676   	0.008000	3.73615   	0.008000	0.587511  	
0.010000	4.56668   	0.010000	4.56668   	0.010000	4.86394   	0.010000	4.86394   	0.010000	4.06224   	0.010000	0.504449  	
0.015000	5.45402   	0.015000	5.45402   	0.015000	5.62448   	0.015000	5.62448   	0.015000	5.07893   	0.015000	0.375091  	
0.020000	6.59885   	0.020000	6.59885   	0.020000	6.33093   	0.020000	6.33093   	0.020000	6.29503   	0.020000	0.303816  	
0.025000	7.74346   	0.025000	7.74346   	0.025000	7.03583   	0.025000	7.03583   	0.025000	7.48644   	0.025000	0.257014  	
0.030000	8.8768    	0.030000	8.8768    	0.030000	7.94325   	0.030000	7.94325   	0.030000	8.65311   	0.030000	0.223684  	
0.035000	9.98797   	0.035000	9.98797   	0.035000	8.822     	0.035000	8.822     	0.035000	9.78935   	0.035000	0.198618  	
0.040000	11.0559   	0.040000	11.0559   	0.040000	9.66818   	0.040000	9.66818   	0.040000	10.8769   	0.040000	0.179012  	
0.045000	12.0628   	0.045000	12.0628   	0.045000	10.479    	0.045000	10.479    	0.045000	11.8996   	0.045000	0.163216  	
0.050000	13.0228   	0.050000	13.0228   	0.050000	11.2524   	0.050000	11.2524   	0.050000	12.8726   	0.050000	0.15019   	
0.055000	13.9308   	0.055000	13.9308   	0.055000	11.987    	0.055000	11.987    	0.055000	13.7915   	0.055000	0.139247  	
0.060000	14.7827   	0.060000	14.7827   	0.060000	12.6822   	0.060000	12.6822   	0.060000	14.6528   	0.060000	0.129911  	
0.070000	16.3081   	0.070000	16.3081   	0.070000	13.9533   	0.070000	13.9533   	0.070000	16.1933   	0.070000	0.114797  	
0.080000	17.5886   	0.080000	17.5886   	0.080000	15.0683   	0.080000	15.0683   	0.080000	17.4855   	0.080000	0.103058  	
0.090000	18.6572   	0.090000	18.6572   	0.090000	16.0344   	0.090000	16.0344   	0.090000	18.5635   	0.090000	0.093654  	
0.100000	19.5143   	0.100000	19.5143   	0.100000	16.8621   	0.100000	16.8621   	0.100000	19.4283   	0.100000	0.0859366 	
0.120000	20.6412   	0.120000	20.6412   	0.120000	18.1513   	0.120000	18.1513   	0.120000	20.5672   	0.120000	0.0739902 	
0.140000	21.1729   	0.140000	21.1729   	0.140000	19.0367   	0.140000	19.0367   	0.140000	21.1078   	0.140000	0.0651424 	
0.160000	21.3032   	0.160000	21.3032   	0.160000	19.6123   	0.160000	19.6123   	0.160000	21.2448   	0.160000	0.058305  	
0.180000	21.146    	0.180000	21.146    	0.180000	19.9569   	0.180000	19.9569   	0.180000	21.0931   	0.180000	0.0528501 	
0.200000	20.8871   	0.200000	20.8871   	0.200000	20.1328   	0.200000	20.1328   	0.200000	20.8387   	0.200000	0.0483891 	
0.250000	20.1367   	0.250000	20.1367   	0.250000	20.119    	0.250000	20.119    	0.250000	20.0966   	0.250000	0.0401073 	
0.300000	19.59     	0.300000	19.59     	0.300000	19.7829   	0.300000	19.7829   	0.300000	19.5556   	0.300000	0.0343733 	
0.350000	19.217    	0.350000	19.217    	0.350000	19.3352   	0.350000	19.3352   	0.350000	19.1869   	0.350000	0.0301517 	
0.400000	18.8862   	0.400000	18.8862   	0.400000	18.8659   	0.400000	18.8659   	0.400000	18.8593   	0.400000	0.0269049 	
0.450000	18.5863   	0.450000	18.5863   	0.450000	18.6046   	0.450000	18.6046   	0.450000	18.562    	0.450000	0.0243249 	
0.500000	18.341    	0.500000	18.341    	0.500000	18.3326   	0.500000	18.3326   	0.500000	18.3188   	0.500000	0.022222  	
0.600000	17.8856   	0.600000	17.8856   	0.600000	17.7505   	0.600000	17.7505   	0.600000	17.8667   	0.600000	0.0189936 	
0.700000	17.5463   	0.700000	17.5463   	0.700000	17.1691   	0.700000	17.1691   	0.700000	17.5296   	0.700000	0.0166247 	
0.800000	17.1695   	0.800000	17.1695   	0.800000	16.5359   	0.800000	16.5359   	0.800000	17.1547   	0.800000	0.0148077 	
0.900000	16.6556   	0.900000	16.6556   	0.900000	15.9537   	0.900000	15.9537   	0.900000	16.6422   	0.900000	0.0133671 	
1.000000	16.142    	1.000000	16.142    	1.000000	15.4175   	1.000000	15.4175   	1.000000	16.1298   	1.000000	0.0121951 	
1.250000	14.9007   	1.250000	14.9007   	1.250000	14.238    	1.250000	14.238    	1.250000	14.8906   	1.250000	0.0100353 	
1.500000	13.788    	1.500000	13.788    	1.500000	13.1558   	1.500000	13.1558   	1.500000	13.7794   	1.500000	0.00855289	
1.750000	12.8044   	1.750000	12.8044   	1.750000	12.2617   	1.750000	12.2617   	1.750000	12.7969   	1.750000	0.00746882	
2.000000	11.9421   	2.000000	11.9421   	2.000000	11.4999   	2.000000	11.4999   	2.000000	11.9355   	2.000000	0.00663965	
2.250000	11.1848   	2.250000	11.1848   	2.250000	10.838    	2.250000	10.838    	2.250000	11.1788   	2.250000	0.00598379	
2.500000	11.2054   	2.500000	10.5132   	2.500000	10.2548   	2.500000	10.2548   	2.500000	10.5078   	2.500000	0.00545133	
3.000000	9.97077   	3.000000	9.37627   	3.000000	9.26944   	3.000000	9.26944   	3.000000	9.37163   	3.000000	0.00463783	
3.500000	8.98728   	3.500000	8.44334   	3.500000	8.46554   	3.500000	8.46554   	3.500000	8.43929   	3.500000	0.00404417	
4.000000	8.18592   	4.000000	7.67513   	4.000000	7.79533   	4.000000	7.79533   	4.000000	7.67154   	4.000000	0.00359086	
4.500000	7.52045   	4.500000	7.03315   	4.500000	7.22716   	4.500000	7.22716   	4.500000	7.02992   	4.500000	0.00323282	
5.000000	6.95898   	5.000000	6.48835   	5.000000	6.73892   	5.000000	6.73892   	5.000000	6.48541   	5.000000	0.00294249	
5.500000	6.47881   	5.500000	6.01975   	5.500000	6.31457   	5.500000	6.31457   	5.500000	6.01705   	5.500000	0.0027021 	
6.000000	6.0634    	6.000000	5.61101   	6.000000	5.94216   	6.000000	5.94216   	6.000000	5.60851   	6.000000	0.00249961	
6.500000	5.70041   	6.500000	5.25354   	6.500000	5.61258   	6.500000	5.61258   	6.500000	5.25121   	6.500000	0.00232659	
7.000000	5.38046   	7.000000	4.93808   	7.000000	5.31876   	7.000000	5.31876   	7.000000	4.9359    	7.000000	0.00217696	
7.500000	5.09627   	7.500000	4.65754   	7.500000	5.0551    	7.500000	5.0551    	7.500000	4.65549   	7.500000	0.00204622	
8.000000	4.84213   	8.000000	4.40639   	8.000000	4.81714   	8.000000	4.81714   	8.000000	4.40446   	8.000000	0.00193095	
8.500000	4.61347   	8.500000	4.18024   	8.500000	4.60126   	8.500000	4.60126   	8.500000	4.17841   	8.500000	0.00182852	
9.000000	4.40662   	9.000000	3.97552   	9.000000	4.40449   	9.000000	4.40449   	9.000000	3.97379   	9.000000	0.00173687	
9.500000	4.21858   	9.500000	3.78935   	9.500000	4.22438   	9.500000	4.22438   	9.500000	3.78769   	9.500000	0.00165436	
10.000000	4.04688   	10.000000	3.65474   	10.000000	4.05889   	10.000000	4.05889   	10.000000	3.65316   	10.000000	0.00157966	
11.000000	3.74458   	11.000000	3.42635   	11.000000	3.75832   	11.000000	3.76278   	11.000000	3.4249    	11.000000	0.00144961	
12.000000	3.4869    	12.000000	3.22507   	12.000000	3.50025   	12.000000	3.50775   	12.000000	3.22373   	12.000000	0.00134015	
13.000000	3.26456   	13.000000	3.04658   	13.000000	3.27625   	13.000000	3.28584   	13.000000	3.04533   	13.000000	0.00124669	
14.000000	3.0707    	14.000000	2.88735   	14.000000	3.08005   	14.000000	3.09105   	14.000000	2.88618   	14.000000	0.00116592	
15.000000	2.90014   	15.000000	2.74451   	15.000000	2.90687   	15.000000	2.91876   	15.000000	2.74342   	15.000000	0.00109539	
16.000000	2.74887   	16.000000	2.61572   	16.000000	2.75287   	16.000000	2.76533   	16.000000	2.61469   	16.000000	0.00103324	
17.000000	2.61378   	17.000000	2.49904   	17.000000	2.61506   	17.000000	2.62787   	17.000000	2.49806   	17.000000	0.000978034	
18.000000	2.49237   	18.000000	2.39286   	18.000000	2.49112   	18.000000	2.50407   	18.000000	2.39193   	18.000000	0.000928666	
19.000000	2.38264   	19.000000	2.29584   	19.000000	2.37913   	19.000000	2.39203   	19.000000	2.29496   	19.000000	0.00088424	
20.000000	2.28298   	20.000000	2.20686   	20.000000	2.27747   	20.000000	2.29019   	20.000000	2.20602   	20.000000	0.000844039	
21.000000	2.19203   	21.000000	2.12497   	21.000000	2.1848    	21.000000	2.19726   	21.000000	2.12416   	21.000000	0.000807481	
22.000000	2.1087    	22.000000	2.04935   	22.000000	2.09997   	22.000000	2.11215   	22.000000	2.04857   	22.000000	0.000774084	
23.000000	2.03206   	23.000000	1.97931   	23.000000	2.02208   	23.000000	2.03396   	23.000000	1.97857   	23.000000	0.000743451	
24.000000	1.96132   	24.000000	1.91427   	24.000000	1.95035   	24.000000	1.96191   	24.000000	1.91355   	24.000000	0.000715248	
25.000000	1.89581   	25.000000	1.8537    	25.000000	1.88412   	25.000000	1.89532   	25.000000	1.85301   	25.000000	0.000689192	
27.000000	1.77833   	27.000000	1.74426   	27.000000	1.76592   	27.000000	1.77635   	27.000000	1.74362   	27.000000	0.000642599	
29.000000	1.67593   	29.000000	1.64805   	29.000000	1.66364   	29.000000	1.67334   	29.000000	1.64745   	29.000000	0.000602136	
31.000000	1.58587   	31.000000	1.56282   	31.000000	1.57464   	31.000000	1.58316   	31.000000	1.56225   	31.000000	0.000566653	
33.000000	1.506     	33.000000	1.48677   	33.000000	1.49599   	33.000000	1.50304   	33.000000	1.48623   	33.000000	0.000535274	
35.000000	1.43467   	35.000000	1.41849   	35.000000	1.42556   	35.000000	1.43146   	35.000000	1.41798   	35.000000	0.000507317	
38.000000	1.34088   	38.000000	1.32821   	38.000000	1.33285   	38.000000	1.33729   	38.000000	1.32774   	38.000000	0.00047065	
41.000000	1.25998   	41.000000	1.2499    	41.000000	1.25268   	41.000000	1.25602   	41.000000	1.24946   	41.000000	0.000439111	
44.000000	1.18944   	44.000000	1.18132   	44.000000	1.18271   	44.000000	1.18516   	44.000000	1.18091   	44.000000	0.000411682	
47.000000	1.12737   	47.000000	1.12074   	47.000000	1.12103   	47.000000	1.1228    	47.000000	1.12035   	47.000000	0.000387599	
50.000000	1.07231   	50.000000	1.06683   	50.000000	1.06624   	50.000000	1.06748   	50.000000	1.06646   	50.000000	0.000366279	
55.000000	0.99312   	55.000000	0.989038  	55.000000	0.987441  	55.000000	0.987932  	55.000000	0.988702  	55.000000	0.000335691	
60.000000	0.926375  	60.000000	0.92326   	60.000000	0.921007  	60.000000	0.920923  	60.000000	0.92295   	60.000000	0.000309985	
65.000000	0.869313  	65.000000	0.86689   	65.000000	0.864172  	65.000000	0.863674  	65.000000	0.866602  	65.000000	0.000288066	
70.000000	0.819934  	70.000000	0.818026  	70.000000	0.815021  	70.000000	0.814177  	70.000000	0.817757  	70.000000	0.000269146	
75.000000	0.776759  	75.000000	0.77525   	75.000000	0.772035  	75.000000	0.770943  	75.000000	0.774997  	75.000000	0.000252642	
80.000000	0.738668  	80.000000	0.73748   	80.000000	0.734058  	80.000000	0.732843  	80.000000	0.737242  	80.000000	0.000238114	
85.000000	0.704795  	85.000000	0.703878  	85.000000	0.700401  	85.000000	0.699006  	85.000000	0.703652  	85.000000	0.000225223	
90.000000	0.674463  	90.000000	0.673783  	90.000000	0.670295  	90.000000	0.668748  	90.000000	0.67357   	90.000000	0.000213703	
95.000000	0.647134  	95.000000	0.64667   	95.000000	0.643136  	95.000000	0.641525  	95.000000	0.646466  	95.000000	0.000203346	
100.000000	0.622373  	100.000000	0.622111  	100.000000	0.618565  	100.000000	0.6169    	100.000000	0.621917  	100.000000	0.000193981	
105.000000	0.599828  	105.000000	0.59976   	105.000000	0.596286  	105.000000	0.594514  	105.000000	0.599574  	105.000000	0.000185471	
110.000000	0.579206  	110.000000	0.579328  	110.000000	0.575896  	110.000000	0.574074  	110.000000	0.579151  	110.000000	0.000177702	
115.000000	0.560268  	115.000000	0.560577  	115.000000	0.557185  	115.000000	0.555334  	115.000000	0.560407  	115.000000	0.00017058	
120.000000	0.542809  	120.000000	0.543306  	120.000000	0.539972  	120.000000	0.538091  	120.000000	0.543142  	120.000000	0.000164027	
125.000000	0.526659  	125.000000	0.527345  	125.000000	0.524076  	125.000000	0.52217   	125.000000	0.527187  	125.000000	0.000157977	
130.000000	0.511673  	130.000000	0.51255   	130.000000	0.509353  	130.000000	0.507425  	130.000000	0.512397  	130.000000	0.000152373	
135.000000	0.497726  	135.000000	0.498795  	135.000000	0.495677  	135.000000	0.493729  	135.000000	0.498648  	135.000000	0.000147167	
140.000000	0.484712  	140.000000	0.485976  	140.000000	0.482938  	140.000000	0.480975  	140.000000	0.485833  	140.000000	0.000142317	
145.000000	0.472536  	145.000000	0.473998  	145.000000	0.471047  	145.000000	0.469067  	145.000000	0.47386   	145.000000	0.000137788	
150.000000	0.46112   	150.000000	0.462781  	150.000000	0.45992   	150.000000	0.457925  	150.000000	0.462648  	150.000000	0.000133549	
155.000000	0.445133  	155.000000	0.452255  	155.000000	0.449457  	155.000000	0.447477  	155.000000	0.452125  	155.000000	0.000129572	
160.000000	0.435711  	160.000000	0.442357  	160.000000	0.439623  	160.000000	0.437659  	160.000000	0.442231  	160.000000	0.000125833	
165.000000	0.426829  	165.000000	0.433033  	165.000000	0.43039   	165.000000	0.428418  	165.000000	0.432911  	165.000000	0.000122311	
170.000000	0.418442  	170.000000	0.424233  	170.000000	0.421686  	170.000000	0.419702  	170.000000	0.424115  	170.000000	0.000118989	
175.000000	0.410509  	175.000000	0.415916  	175.000000	0.41346   	175.000000	0.411469  	175.000000	0.4158    	175.000000	0.000115848	
180.000000	0.402993  	180.000000	0.408041  	180.000000	0.405676  	180.000000	0.40368   	180.000000	0.407928  	180.000000	0.000112875	
185.000000	0.395862  	185.000000	0.400575  	185.000000	0.398291  	185.000000	0.3963    	185.000000	0.400465  	185.000000	0.000110056	
190.000000	0.389087  	190.000000	0.393487  	190.000000	0.391272  	190.000000	0.389298  	190.000000	0.39338   	190.000000	0.000107379	
195.000000	0.382641  	195.000000	0.386748  	195.000000	0.384616  	195.000000	0.382646  	195.000000	0.386643  	195.000000	0.000104834	
200.000000	0.376501  	200.000000	0.380334  	200.000000	0.378295  	200.000000	0.376318  	200.000000	0.380232  	200.000000	0.000102411	
210.000000	0.365053  	210.000000	0.368389  	210.000000	0.366494  	210.000000	0.364544  	210.000000	0.368291  	210.000000	9.7898e-05	
220.000000	0.354596  	220.000000	0.357494  	220.000000	0.355771  	220.000000	0.353819  	220.000000	0.3574    	220.000000	9.37788e-05	
230.000000	0.345004  	230.000000	0.347516  	230.000000	0.345936  	230.000000	0.344008  	230.000000	0.347426  	230.000000	9.00038e-05	
240.000000	0.336173  	240.000000	0.338346  	240.000000	0.336926  	240.000000	0.335001  	240.000000	0.338259  	240.000000	8.6531e-05	
250.000000	0.328016  	250.000000	0.329888  	250.000000	0.328615  	250.000000	0.326705  	250.000000	0.329805  	250.000000	8.33251e-05	
260.000000	0.320458  	260.000000	0.322065  	260.000000	0.320935  	260.000000	0.319039  	260.000000	0.321985  	260.000000	8.03563e-05	
270.000000	0.313436  	270.000000	0.314808  	270.000000	0.313831  	270.000000	0.311936  	270.000000	0.31473   	270.000000	7.75987e-05	
280.000000	0.306894  	280.000000	0.308058  	280.000000	0.307207  	280.000000	0.305336  	280.000000	0.307983  	280.000000	7.50305e-05	
290.000000	0.300785  	290.000000	0.301765  	290.000000	0.30106   	290.000000	0.29919   	290.000000	0.301692  	290.000000	7.26325e-05	
300.000000	0.295066  	300.000000	0.295884  	300.000000	0.295315  	300.000000	0.293452  	300.000000	0.295813  	300.000000	7.03882e-05	
310.000000	0.289703  	310.000000	0.290377  	310.000000	0.289924  	310.000000	0.288085  	310.000000	0.290309  	310.000000	6.8283e-05	
320.000000	0.284663  	320.000000	0.28521   	320.000000	0.284873  	320.000000	0.283055  	320.000000	0.285144  	320.000000	6.63044e-05	
330.000000	0.279918  	330.000000	0.280354  	330.000000	0.280146  	330.000000	0.278331  	330.000000	0.280289  	330.000000	6.4441e-05	
340.000000	0.275442  	340.000000	0.275781  	340.000000	0.275703  	340.000000	0.273887  	340.000000	0.275718  	340.000000	6.2683e-05	
350.000000	0.271215  	350.000000	0.271468  	350.000000	0.271501  	350.000000	0.2697    	350.000000	0.271407  	350.000000	6.10216e-05	
360.000000	0.267216  	360.000000	0.267394  	360.000000	0.26753   	360.000000	0.265749  	360.000000	0.267335  	360.000000	5.9449e-05	
370.000000	0.263427  	370.000000	0.263541  	370.000000	0.263782  	370.000000	0.262016  	370.000000	0.263483  	370.000000	5.79581e-05	
380.000000	0.259833  	380.000000	0.259891  	380.000000	0.260246  	380.000000	0.258482  	380.000000	0.259835  	380.000000	5.65426e-05	
390.000000	0.256419  	390.000000	0.25643   	390.000000	0.256899  	390.000000	0.255135  	390.000000	0.256375  	390.000000	5.5197e-05	
400.000000	0.253172  	400.000000	0.253143  	400.000000	0.253714  	400.000000	0.251958  	400.000000	0.253089  	400.000000	5.3916e-05	
410.000000	0.250082  	410.000000	0.250019  	410.000000	0.250682  	410.000000	0.248941  	410.000000	0.249966  	410.000000	5.26952e-05	
420.000000	0.247136  	420.000000	0.247046  	420.000000	0.247798  	420.000000	0.246073  	420.000000	0.246994  	420.000000	5.15303e-05	
430.000000	0.244325  	430.000000	0.244213  	430.000000	0.245058  	430.000000	0.243342  	430.000000	0.244163  	430.000000	5.04175e-05	
440.000000	0.241641  	440.000000	0.241513  	440.000000	0.242455  	440.000000	0.24074   	440.000000	0.241463  	440.000000	4.93534e-05	
450.000000	0.239076  	450.000000	0.238935  	450.000000	0.239974  	450.000000	0.238259  	450.000000	0.238886  	450.000000	4.83348e-05	
460.000000	0.236622  	460.000000	0.236472  	460.000000	0.237599  	460.000000	0.23589   	460.000000	0.236425  	460.000000	4.73587e-05	
470.000000	0.234272  	470.000000	0.234118  	470.000000	0.235325  	470.000000	0.233627  	470.000000	0.234071  	470.000000	4.64227e-05	
480.000000	0.23202   	480.000000	0.231865  	480.000000	0.23315   	480.000000	0.231463  	480.000000	0.23182   	480.000000	4.55241e-05	
490.000000	0.229861  	490.000000	0.229708  	490.000000	0.23107   	490.000000	0.229392  	490.000000	0.229663  	490.000000	4.46609e-05	
500.000000	0.227789  	500.000000	0.227641  	500.000000	0.229078  	500.000000	0.227408  	500.000000	0.227597  	500.000000	4.38309e-05	
520.000000	0.223887  	520.000000	0.223756  	520.000000	0.225334  	520.000000	0.223684  	520.000000	0.223713  	520.000000	4.2263e-05	
540.000000	0.22028   	540.000000	0.220174  	540.000000	0.221898  	540.000000	0.220254  	540.000000	0.220133  	540.000000	4.08071e-05	
560.000000	0.216937  	560.000000	0.216864  	560.000000	0.218729  	560.000000	0.217086  	560.000000	0.216824  	560.000000	3.94512e-05	
580.000000	0.213833  	580.000000	0.213798  	580.000000	0.215784  	580.000000	0.214155  	580.000000	0.213759  	580.000000	3.81855e-05	
600.000000	0.210944  	600.000000	0.210952  	600.000000	0.21305   	600.000000	0.211436  	600.000000	0.210915  	600.000000	3.7001e-05	
620.000000	0.208251  	620.000000	0.208306  	620.000000	0.210511  	620.000000	0.208908  	620.000000	0.20827   	620.000000	3.58902e-05	
640.000000	0.205737  	640.000000	0.205842  	640.000000	0.208144  	640.000000	0.206555  	640.000000	0.205807  	640.000000	3.48462e-05	
660.000000	0.203385  	660.000000	0.203543  	660.000000	0.205941  	660.000000	0.20436   	660.000000	0.203509  	660.000000	3.38632e-05	
680.000000	0.201183  	680.000000	0.201395  	680.000000	0.20389   	680.000000	0.20231   	680.000000	0.201362  	680.000000	3.29358e-05	
700.000000	0.199118  	700.000000	0.199386  	700.000000	0.20197   	700.000000	0.200391  	700.000000	0.199354  	700.000000	3.20596e-05	
720.000000	0.197179  	720.000000	0.197504  	720.000000	0.200163  	720.000000	0.198593  	720.000000	0.197473  	720.000000	3.12302e-05	
740.000000	0.195357  	740.000000	0.195739  	740.000000	0.198465  	740.000000	0.196906  	740.000000	0.195709  	740.000000	3.04441e-05	
760.000000	0.193643  	760.000000	0.194083  	760.000000	0.196871  	760.000000	0.195321  	760.000000	0.194053  	760.000000	2.96978e-05	
780.000000	0.192029  	780.000000	0.192527  	780.000000	0.195373  	780.000000	0.193831  	780.000000	0.192498  	780.000000	2.89884e-05	
800.000000	0.190507  	800.000000	0.191063  	800.000000	0.193962  	800.000000	0.192427  	800.000000	0.191035  	800.000000	2.83132e-05	
820.000000	0.189072  	820.000000	0.189686  	820.000000	0.192632  	820.000000	0.191105  	820.000000	0.189658  	820.000000	2.76698e-05	
840.000000	0.187717  	840.000000	0.188389  	840.000000	0.191376  	840.000000	0.189856  	840.000000	0.188362  	840.000000	2.70558e-05	
860.000000	0.186438  	860.000000	0.187167  	860.000000	0.19019   	860.000000	0.188678  	860.000000	0.18714   	860.000000	2.64694e-05	
880.000000	0.185229  	880.000000	0.186014  	880.000000	0.189069  	880.000000	0.187564  	880.000000	0.185988  	880.000000	2.59087e-05	
900.000000	0.184086  	900.000000	0.184927  	900.000000	0.188012  	900.000000	0.18651   	900.000000	0.184902  	900.000000	2.5372e-05	
920.000000	0.183005  	920.000000	0.183901  	920.000000	0.187014  	920.000000	0.185513  	920.000000	0.183876  	920.000000	2.48578e-05	
940.000000	0.181982  	940.000000	0.182932  	940.000000	0.18607   	940.000000	0.184568  	940.000000	0.182907  	940.000000	2.43647e-05	
960.000000	0.181014  	960.000000	0.182016  	960.000000	0.185172  	960.000000	0.183672  	960.000000	0.181992  	960.000000	2.38914e-05	
980.000000	0.180098  	980.000000	0.181152  	980.000000	0.184319  	980.000000	0.182822  	980.000000	0.181128  	980.000000	2.34367e-05	
1000.000000	0.17923   	1000.000000	0.180334  	1000.000000	0.183507  	1000.000000	0.182015  	1000.000000	0.180311  	1000.000000	2.29996e-05	
1020.000000	0.178408  	1020.000000	0.179562  	1020.000000	0.182735  	1020.000000	0.181249  	1020.000000	0.179539  	1020.000000	2.2579e-05	
1040.000000	0.177629  	1040.000000	0.178832  	1040.000000	0.182002  	1040.000000	0.180521  	1040.000000	0.17881   	1040.000000	2.2174e-05	
1060.000000	0.176892  	1060.000000	0.178142  	1060.000000	0.181305  	1060.000000	0.179829  	1060.000000	0.17812   	1060.000000	2.17837e-05	
1080.000000	0.176193  	1080.000000	0.177489  	1080.000000	0.180643  	1080.000000	0.179171  	1080.000000	0.177468  	1080.000000	2.14074e-05	
1100.000000	0.175532  	1100.000000	0.176873  	1100.000000	0.180012  	1100.000000	0.178545  	1100.000000	0.176852  	1100.000000	2.10442e-05	
1120.000000	0.174905  	1120.000000	0.17629   	1120.000000	0.179412  	1120.000000	0.177948  	1120.000000	0.176269  	1120.000000	2.06936e-05	
1140.000000	0.174312  	1140.000000	0.175739  	1140.000000	0.178841  	1140.000000	0.17738   	1140.000000	0.175719  	1140.000000	2.03549e-05	
1160.000000	0.173751  	1160.000000	0.175219  	1160.000000	0.178296  	1160.000000	0.176839  	1160.000000	0.175199  	1160.000000	2.00274e-05	
1180.000000	0.17322   	1180.000000	0.174728  	1180.000000	0.177777  	1180.000000	0.176324  	1180.000000	0.174709  	1180.000000	1.97106e-05	
1200.000000	0.172718  	1200.000000	0.174265  	1200.000000	0.177282  	1200.000000	0.175833  	1200.000000	0.174245  	1200.000000	1.9404e-05	
1220.000000	0.172243  	1220.000000	0.173827  	1220.000000	0.17681   	1220.000000	0.175364  	1220.000000	0.173808  	1220.000000	1.91071e-05	
1240.000000	0.171795  	1240.000000	0.173415  	1240.000000	0.17636   	1240.000000	0.174917  	1240.000000	0.173396  	1240.000000	1.88194e-05	
1260.000000	0.171371  	1260.000000	0.173027  	1260.000000	0.175931  	1260.000000	0.174491  	1260.000000	0.173008  	1260.000000	1.85405e-05	
1280.000000	0.170972  	1280.000000	0.172661  	1280.000000	0.175521  	1280.000000	0.174084  	1280.000000	0.172642  	1280.000000	1.82701e-05	
1300.000000	0.170595  	1300.000000	0.172317  	1300.000000	0.17513   	1300.000000	0.173696  	1300.000000	0.172299  	1300.000000	1.80077e-05	
1320.000000	0.170241  	1320.000000	0.171993  	1320.000000	0.174756  	1320.000000	0.173325  	1320.000000	0.171975  	1320.000000	1.77529e-05	
1340.000000	0.169907  	1340.000000	0.17169   	1340.000000	0.174399  	1340.000000	0.172971  	1340.000000	0.171672  	1340.000000	1.75055e-05	
1360.000000	0.169594  	1360.000000	0.171405  	1360.000000	0.174058  	1360.000000	0.172634  	1360.000000	0.171388  	1360.000000	1.72651e-05	
1380.000000	0.1693    	1380.000000	0.171138  	1380.000000	0.173733  	1380.000000	0.172311  	1380.000000	0.171121  	1380.000000	1.70314e-05	
1400.000000	0.169025  	1400.000000	0.170889  	1400.000000	0.173423  	1400.000000	0.172003  	1400.000000	0.170873  	1400.000000	1.68042e-05	
1420.000000	0.168767  	1420.000000	0.170657  	1420.000000	0.173126  	1420.000000	0.171709  	1420.000000	0.17064   	1420.000000	1.65831e-05	
1440.000000	0.168527  	1440.000000	0.17044   	1440.000000	0.172844  	1440.000000	0.171428  	1440.000000	0.170424  	1440.000000	1.6368e-05	
1460.000000	0.168303  	1460.000000	0.170239  	1460.000000	0.172575  	1460.000000	0.17116   	1460.000000	0.170223  	1460.000000	1.61586e-05	
1480.000000	0.168095  	1480.000000	0.170053  	1480.000000	0.172318  	1480.000000	0.170904  	1480.000000	0.170037  	1480.000000	1.59546e-05	
1500.000000	0.167902  	1500.000000	0.16988   	1500.000000	0.172073  	1500.000000	0.170659  	1500.000000	0.169864  	1500.000000	1.57559e-05	
1520.000000	0.167724  	1520.000000	0.169721  	1520.000000	0.171839  	1520.000000	0.170426  	1520.000000	0.169706  	1520.000000	1.55622e-05	
1540.000000	0.167561  	1540.000000	0.169576  	1540.000000	0.171616  	1540.000000	0.170203  	1540.000000	0.16956   	1540.000000	1.53733e-05	
1560.000000	0.167411  	1560.000000	0.169442  	1560.000000	0.171403  	1560.000000	0.16999   	1560.000000	0.169427  	1560.000000	1.51892e-05	
1580.000000	0.167274  	1580.000000	0.169321  	1580.000000	0.171199  	1580.000000	0.169787  	1580.000000	0.169306  	1580.000000	1.50095e-05	
1600.000000	0.16715   	1600.000000	0.169212  	1600.000000	0.171005  	1600.000000	0.169593  	1600.000000	0.169197  	1600.000000	1.48342e-05	
1620.000000	0.167038  	1620.000000	0.169113  	1620.000000	0.170819  	1620.000000	0.169408  	1620.000000	0.169099  	1620.000000	1.46631e-05	
1640.000000	0.166938  	1640.000000	0.169026  	1640.000000	0.170641  	1640.000000	0.169232  	1640.000000	0.169011  	1640.000000	1.44959e-05	
1660.000000	0.16685   	1660.000000	0.168949  	1660.000000	0.170472  	1660.000000	0.169064  	1660.000000	0.168935  	1660.000000	1.43327e-05	
1680.000000	0.166773  	1680.000000	0.168882  	1680.000000	0.17031   	1680.000000	0.168904  	1680.000000	0.168868  	1680.000000	1.41732e-05	
1700.000000	0.166706  	1700.000000	0.168825  	1700.000000	0.170156  	1700.000000	0.168751  	1700.000000	0.168811  	1700.000000	1.40174e-05	
1750.000000	0.166585  	1750.000000	0.168722  	1750.000000	0.169801  	1750.000000	0.1684    	1750.000000	0.168708  	1750.000000	1.36428e-05	
1800.000000	0.166524  	1800.000000	0.168672  	1800.000000	0.169488  	1800.000000	0.16809   	1800.000000	0.168659  	1800.000000	1.32883e-05	
1850.000000	0.166519  	1850.000000	0.168672  	1850.000000	0.169211  	1850.000000	0.167817  	1850.000000	0.168659  	1850.000000	1.29523e-05	
1900.000000	0.166565  	1900.000000	0.168718  	1900.000000	0.168969  	1900.000000	0.167578  	1900.000000	0.168705  	1900.000000	1.26334e-05	
1950.000000	0.16666   	1950.000000	0.168806  	1950.000000	0.168758  	1950.000000	0.16737   	1950.000000	0.168793  	1950.000000	1.23303e-05	
2000.000000	0.166799  	2000.000000	0.168932  	2000.000000	0.168575  	2000.000000	0.16719   	2000.000000	0.16892   	2000.000000	1.20419e-05	
2100.000000	0.167201  	2100.000000	0.169291  	2100.000000	0.168285  	2100.000000	0.166905  	2100.000000	0.169279  	2100.000000	1.15048e-05	
2200.000000	0.16775   	2200.000000	0.169774  	2200.000000	0.16808   	2200.000000	0.166706  	2200.000000	0.169763  	2200.000000	1.10149e-05	
2300.000000	0.168429  	2300.000000	0.170366  	2300.000000	0.167949  	2300.000000	0.166579  	2300.000000	0.170356  	2300.000000	1.05662e-05	
2400.000000	0.169223  	2400.000000	0.171053  	2400.000000	0.167879  	2400.000000	0.166513  	2400.000000	0.171043  	2400.000000	1.01537e-05	
2500.000000	0.17012   	2500.000000	0.171823  	2500.000000	0.167862  	2500.000000	0.166499  	2500.000000	0.171813  	2500.000000	9.77311e-06	
2600.000000	0.17111   	2600.000000	0.172667  	2600.000000	0.167889  	2600.000000	0.166529  	2600.000000	0.172658  	2600.000000	9.42081e-06	
2700.000000	0.172185  	2700.000000	0.173577  	2700.000000	0.167954  	2700.000000	0.166597  	2700.000000	0.173567  	2700.000000	9.09376e-06	
2800.000000	0.173335  	2800.000000	0.174544  	2800.000000	0.168052  	2800.000000	0.166697  	2800.000000	0.174535  	2800.000000	8.7893e-06	
2900.000000	0.174556  	2900.000000	0.175564  	2900.000000	0.168177  	2900.000000	0.166825  	2900.000000	0.175556  	2900.000000	8.50514e-06	
3000.000000	0.17584   	3000.000000	0.176631  	3000.000000	0.168327  	3000.000000	0.166977  	3000.000000	0.176623  	3000.000000	8.23931e-06	
3200.000000	0.178581  	3200.000000	0.178887  	3200.000000	0.168684  	3200.000000	0.167339  	3200.000000	0.178879  	3200.000000	7.7559e-06	
3400.000000	0.181523  	3400.000000	0.181281  	3400.000000	0.169103  	3400.000000	0.167761  	3400.000000	0.181274  	3400.000000	7.32756e-06	
3600.000000	0.184641  	3600.000000	0.18379   	3600.000000	0.169567  	3600.000000	0.168228  	3600.000000	0.183783  	3600.000000	6.94531e-06	
3800.000000	0.187914  	3800.000000	0.186395  	3800.000000	0.170064  	3800.000000	0.168727  	3800.000000	0.186389  	3800.000000	6.60202e-06	
4000.000000	0.191324  	4000.000000	0.189081  	4000.000000	0.170585  	4000.000000	0.16925   	4000.000000	0.189075  	4000.000000	6.29198e-06	
4200.000000	0.194857  	4200.000000	0.191835  	4200.000000	0.171122  	4200.000000	0.169789  	4200.000000	0.191829  	4200.000000	6.01053e-06	
4400.000000	0.198503  	4400.000000	0.194648  	4400.000000	0.171671  	4400.000000	0.170339  	4400.000000	0.194642  	4400.000000	5.75386e-06	
4600.000000	0.202251  	4600.000000	0.197511  	4600.000000	0.172226  	4600.000000	0.170896  	4600.000000	0.197505  	4600.000000	5.51881e-06	
4800.000000	0.206093  	4800.000000	0.200417  	4800.000000	0.172784  	4800.000000	0.171456  	4800.000000	0.200412  	4800.000000	5.30272e-06	
5000.000000	0.210024  	5000.000000	0.203361  	5000.000000	0.173344  	5000.000000	0.172017  	5000.000000	0.203356  	5000.000000	5.10338e-06	
5250.000000	0.215051  	5250.000000	0.207087  	5250.000000	0.174042  	5250.000000	0.172717  	5250.000000	0.207082  	5250.000000	4.8749e-06	
5500.000000	0.220198  	5500.000000	0.210856  	5500.000000	0.174735  	5500.000000	0.173412  	5500.000000	0.210851  	5500.000000	4.66655e-06	
6000.000000	0.230817  	6000.000000	0.2185    	6000.000000	0.176099  	6000.000000	0.174781  	6000.000000	0.218495  	6000.000000	4.30035e-06	
6500.000000	0.241832  	6500.000000	0.226252  	6500.000000	0.177427  	6500.000000	0.176112  	6500.000000	0.226248  	6500.000000	3.98881e-06	
7000.000000	0.253206  	7000.000000	0.234085  	7000.000000	0.178713  	7000.000000	0.1774    	7000.000000	0.234082  	7000.000000	3.72046e-06	
7500.000000	0.264915  	7500.000000	0.241979  	7500.000000	0.179954  	7500.000000	0.178644  	7500.000000	0.241975  	7500.000000	3.48682e-06	
8000.000000	0.276938  	8000.000000	0.249918  	8000.000000	0.181153  	8000.000000	0.179843  	8000.000000	0.249915  	8000.000000	3.28151e-06	
8500.000000	0.289259  	8500.000000	0.257891  	8500.000000	0.182304  	8500.000000	0.180997  	8500.000000	0.257888  	8500.000000	3.09963e-06	
9000.000000	0.301867  	9000.000000	0.265889  	9000.000000	0.183409  	9000.000000	0.18211   	9000.000000	0.265886  	9000.000000	2.93736e-06	
9500.000000	0.314752  	9500.000000	0.273907  	9500.000000	0.184476  	9500.000000	0.183182  	9500.000000	0.273904  	9500.000000	2.79167e-06	
10000.000000	0.327907  	10000.000000	0.281938  	10000.000000	0.185508  	10000.000000	0.184215  	10000.000000	0.281935  	10000.000000	2.66011e-06	
11000.000000	0.355     	11000.000000	0.298025  	11000.000000	0.187465  	11000.000000	0.186174  	11000.000000	0.298022  	11000.000000	2.43183e-06	
12000.000000	0.38311   	12000.000000	0.314128  	12000.000000	0.189286  	12000.000000	0.188003  	12000.000000	0.314126  	12000.000000	2.24052e-06	
13000.000000	0.41221   	13000.000000	0.330231  	13000.000000	0.190992  	13000.000000	0.189715  	13000.000000	0.330229  	13000.000000	2.0778e-06	
14000.000000	0.442281  	14000.000000	0.346325  	14000.000000	0.192596  	14000.000000	0.191323  	14000.000000	0.346323  	14000.000000	1.93767e-06	
15000.000000	0.473312  	15000.000000	0.362402  	15000.000000	0.194108  	15000.000000	0.192839  	15000.000000	0.3624    	15000.000000	1.81568e-06	
16000.000000	0.505293  	16000.000000	0.378459  	16000.000000	0.195536  	16000.000000	0.194272  	16000.000000	0.378457  	16000.000000	1.70851e-06	
17000.000000	0.538216  	17000.000000	0.394492  	17000.000000	0.196887  	17000.000000	0.195629  	17000.000000	0.394491  	17000.000000	1.61359e-06	
18000.000000	0.572078  	18000.000000	0.410501  	18000.000000	0.198167  	18000.000000	0.196918  	18000.000000	0.410499  	18000.000000	1.52891e-06	
19000.000000	0.606876  	19000.000000	0.426483  	19000.000000	0.199385  	19000.000000	0.198145  	19000.000000	0.426481  	19000.000000	1.45289e-06	
20000.000000	0.642606  	20000.000000	0.442438  	20000.000000	0.200545  	20000.000000	0.199316  	20000.000000	0.442436  	20000.000000	1.38426e-06	
21000.000000	0.679269  	21000.000000	0.458365  	21000.000000	0.201653  	21000.000000	0.200436  	21000.000000	0.458364  	21000.000000	1.32198e-06	
22000.000000	0.716864  	22000.000000	0.474266  	22000.000000	0.202715  	22000.000000	0.201508  	22000.000000	0.474265  	22000.000000	1.2652e-06	
23000.000000	0.755391  	23000.000000	0.490139  	23000.000000	0.203736  	23000.000000	0.202537  	23000.000000	0.490138  	23000.000000	1.21321e-06	
24000.000000	0.794852  	24000.000000	0.505986  	24000.000000	0.204714  	24000.000000	0.203525  	24000.000000	0.505985  	24000.000000	1.16543e-06	
25000.000000	0.835246  	25000.000000	0.521807  	25000.000000	0.205651  	25000.000000	0.204476  	25000.000000	0.521806  	25000.000000	1.12137e-06	
26000.000000	0.876576  	26000.000000	0.537602  	26000.000000	0.206554  	26000.000000	0.205393  	26000.000000	0.5376    	26000.000000	1.0806e-06	
27000.000000	0.918844  	27000.000000	0.553371  	27000.000000	0.207427  	27000.000000	0.206277  	27000.000000	0.55337   	27000.000000	1.04276e-06	
28000.000000	0.962052  	28000.000000	0.569115  	28000.000000	0.208271  	28000.000000	0.207131  	28000.000000	0.569114  	28000.000000	1.00755e-06	
29000.000000	1.0062    	29000.000000	0.584835  	29000.000000	0.209087  	29000.000000	0.207957  	29000.000000	0.584834  	29000.000000	9.74703e-07	
30000.000000	1.05129   	30000.000000	0.600532  	30000.000000	0.209876  	30000.000000	0.208757  	30000.000000	0.600531  	30000.000000	9.43981e-07	
32000.000000	1.14433   	32000.000000	0.631855  	32000.000000	0.211377  	32000.000000	0.210283  	32000.000000	0.631854  	32000.000000	8.88136e-07	
34000.000000	1.24117   	34000.000000	0.66309   	34000.000000	0.212785  	34000.000000	0.211722  	34000.000000	0.663089  	34000.000000	8.38682e-07	
36000.000000	1.34185   	36000.000000	0.694239  	36000.000000	0.214114  	36000.000000	0.213082  	36000.000000	0.694238  	36000.000000	7.94572e-07	
38000.000000	1.44639   	38000.000000	0.725308  	38000.000000	0.215373  	38000.000000	0.214371  	38000.000000	0.725307  	38000.000000	7.54978e-07	
40000.000000	1.55482   	40000.000000	0.756299  	40000.000000	0.216569  	40000.000000	0.215598  	40000.000000	0.756298  	40000.000000	7.19235e-07	
42000.000000	1.66717   	42000.000000	0.787216  	42000.000000	0.217704  	42000.000000	0.216766  	42000.000000	0.787216  	42000.000000	6.86802e-07	
44000.000000	1.78347   	44000.000000	0.818062  	44000.000000	0.218784  	44000.000000	0.217883  	44000.000000	0.818062  	44000.000000	6.57238e-07	
46000.000000	1.90375   	46000.000000	0.848841  	46000.000000	0.219813  	46000.000000	0.218951  	46000.000000	0.84884   	46000.000000	6.30174e-07	
48000.000000	2.02803   	48000.000000	0.879554  	48000.000000	0.220796  	48000.000000	0.219975  	48000.000000	0.879553  	48000.000000	6.05303e-07	
50000.000000	2.15636   	50000.000000	0.910204  	50000.000000	0.221736  	50000.000000	0.220959  	50000.000000	0.910203  	50000.000000	5.82368e-07	
