0.001000	11.0136   	0.001000	8.7633    	0.001000	8.32452   	0.001000	8.32452   	0.001000	1.40641   	0.001000	7.35689   	
0.002000	11.3192   	0.002000	9.0204    	0.002000	8.44073   	0.002000	8.44073   	0.002000	1.94803   	0.002000	7.07237   	
0.005000	11.3259   	0.005000	8.82015   	0.005000	7.98699   	0.005000	7.98699   	0.005000	2.99659   	0.005000	5.82356   	
0.008000	11.4159   	0.008000	8.67739   	0.008000	7.67653   	0.008000	7.67653   	0.008000	3.73735   	0.008000	4.94004   	
0.010000	11.535    	0.010000	8.65348   	0.010000	7.56235   	0.010000	7.56235   	0.010000	4.1506    	0.010000	4.50287   	
0.015000	11.9324   	0.015000	8.74425   	0.015000	7.46931   	0.015000	7.46931   	0.015000	5.02197   	0.015000	3.72228   	
0.020000	12.3851   	0.020000	8.95024   	0.020000	7.52787   	0.020000	7.52787   	0.020000	5.74904   	0.020000	3.2012    	
0.025000	12.8477   	0.025000	9.20954   	0.025000	7.66216   	0.025000	7.66216   	0.025000	6.38474   	0.025000	2.82481   	
0.030000	13.3035   	0.030000	9.49407   	0.030000	7.83713   	0.030000	7.83713   	0.030000	6.95598   	0.030000	2.53809   	
0.035000	13.7465   	0.035000	9.78987   	0.035000	8.03482   	0.035000	8.03482   	0.035000	7.47865   	0.035000	2.31122   	
0.040000	14.1744   	0.040000	10.0895   	0.040000	8.24527   	0.040000	8.24527   	0.040000	7.96305   	0.040000	2.12648   	
0.045000	14.5871   	0.045000	10.389    	0.045000	8.46262   	0.045000	8.46262   	0.045000	8.4163    	0.045000	1.97267   	
0.050000	15.0309   	0.050000	10.6925   	0.050000	8.69196   	0.050000	8.69196   	0.050000	8.85017   	0.050000	1.84231   	
0.055000	15.8665   	0.055000	11.3139   	0.055000	9.34313   	0.055000	9.34313   	0.055000	9.58367   	0.055000	1.73019   	
0.060000	16.6414   	0.060000	11.9432   	0.060000	10.0302   	0.060000	10.0302   	0.060000	10.3106   	0.060000	1.63257   	
0.070000	17.9908   	0.070000	13.1538   	0.070000	11.4157   	0.070000	11.4157   	0.070000	11.6833   	0.070000	1.47049   	
0.080000	19.4807   	0.080000	14.2897   	0.080000	12.7876   	0.080000	12.7876   	0.080000	12.9487   	0.080000	1.34094   	
0.090000	20.8049   	0.090000	15.3419   	0.090000	14.1173   	0.090000	14.1173   	0.090000	14.1136   	0.090000	1.22837   	
0.100000	21.9939   	0.100000	16.3276   	0.100000	15.405    	0.100000	15.405    	0.100000	15.1875   	0.100000	1.14006   	
0.120000	23.5378   	0.120000	18.099    	0.120000	17.8063   	0.120000	17.8063   	0.120000	17.1033   	0.120000	0.995777  	
0.140000	24.8416   	0.140000	19.659    	0.140000	19.9791   	0.140000	19.9791   	0.140000	18.7694   	0.140000	0.889665  	
0.160000	26.0808   	0.160000	21.0478   	0.160000	21.9322   	0.160000	21.9322   	0.160000	20.242    	0.160000	0.805851  	
0.180000	27.9004   	0.180000	22.7691   	0.180000	23.6875   	0.180000	23.6875   	0.180000	22.0313   	0.180000	0.737791  	
0.200000	29.6651   	0.200000	24.3725   	0.200000	25.2684   	0.200000	25.2684   	0.200000	23.6912   	0.200000	0.681303  	
0.250000	32.8909   	0.250000	27.7844   	0.250000	28.5937   	0.250000	28.5937   	0.250000	27.2101   	0.250000	0.574341  	
0.300000	35.8034   	0.300000	30.5554   	0.300000	31.2316   	0.300000	31.2316   	0.300000	30.0568   	0.300000	0.498566  	
0.350000	38.4189   	0.350000	32.8683   	0.350000	33.3758   	0.350000	33.3758   	0.350000	32.4265   	0.350000	0.441799  	
0.400000	41.269    	0.400000	35.2648   	0.400000	35.1607   	0.400000	35.1607   	0.400000	34.8673   	0.400000	0.397532  	
0.450000	43.9327   	0.450000	37.4991   	0.450000	36.679    	0.450000	36.679    	0.450000	37.1371   	0.450000	0.361953  	
0.500000	46.2591   	0.500000	39.4354   	0.500000	37.9948   	0.500000	37.9948   	0.500000	39.1027   	0.500000	0.332674  	
0.600000	48.3959   	0.600000	42.6094   	0.600000	40.3494   	0.600000	40.3494   	0.600000	42.3222   	0.600000	0.287203  	
0.700000	49.4199   	0.700000	45.0761   	0.700000	42.8083   	0.700000	42.8083   	0.700000	44.8227   	0.700000	0.253402  	
0.800000	51.6314   	0.800000	47.0194   	0.800000	44.7845   	0.800000	44.7845   	0.800000	46.7922   	0.800000	0.227206  	
0.900000	53.3573   	0.900000	48.5638   	0.900000	46.396    	0.900000	46.396    	0.900000	48.3576   	0.900000	0.206256  	
1.000000	54.7042   	1.000000	49.7978   	1.000000	47.7214   	1.000000	47.7214   	1.000000	49.6087   	1.000000	0.189089  	
1.250000	56.754    	1.250000	51.9104   	1.250000	50.1165   	1.250000	50.1165   	1.250000	51.7533   	1.250000	0.157131  	
1.500000	57.3279   	1.500000	52.7568   	1.500000	51.6007   	1.500000	51.6007   	1.500000	52.6219   	1.500000	0.134932  	
1.750000	57.3585   	1.750000	53.1373   	1.750000	52.486    	1.750000	52.486    	1.750000	53.0188   	1.750000	0.118547  	
2.000000	57.0566   	2.000000	53.2223   	2.000000	52.9627   	2.000000	52.9627   	2.000000	53.1164   	2.000000	0.105921  	
2.250000	56.515    	2.250000	52.996    	2.250000	53.1535   	2.250000	53.1535   	2.250000	52.9001   	2.250000	0.0958699 	
2.500000	77.5972   	2.500000	52.5356   	2.500000	53.1405   	2.500000	53.1405   	2.500000	52.4479   	2.500000	0.0876662 	
3.000000	74.6312   	3.000000	51.5463   	3.000000	52.7137   	3.000000	52.7137   	3.000000	51.4713   	3.000000	0.07505   	
3.500000	71.5759   	3.500000	50.5105   	3.500000	51.967    	3.500000	51.967    	3.500000	50.4447   	3.500000	0.0657743 	
4.000000	68.6145   	4.000000	49.4717   	4.000000	50.8675   	4.000000	50.8675   	4.000000	49.4131   	4.000000	0.0586483 	
4.500000	65.8175   	4.500000	48.4365   	4.500000	49.7062   	4.500000	49.7062   	4.500000	48.3836   	4.500000	0.0529909 	
5.000000	63.2065   	5.000000	47.423    	5.000000	48.5692   	5.000000	48.5692   	5.000000	47.3746   	5.000000	0.0483835 	
5.500000	60.7816   	5.500000	46.4329   	5.500000	47.4651   	5.500000	47.4651   	5.500000	46.3883   	5.500000	0.0445538 	
6.000000	58.5332   	6.000000	45.4668   	6.000000	46.3986   	6.000000	46.3986   	6.000000	45.4254   	6.000000	0.041317  	
6.500000	56.4486   	6.500000	44.5105   	6.500000	45.3716   	6.500000	45.3716   	6.500000	44.472    	6.500000	0.038543  	
7.000000	54.5136   	7.000000	43.5884   	7.000000	44.3844   	7.000000	44.3844   	7.000000	43.5523   	7.000000	0.0361374 	
7.500000	52.7147   	7.500000	42.7084   	7.500000	43.4364   	7.500000	43.4364   	7.500000	42.6744   	7.500000	0.0340302 	
8.000000	51.0393   	8.000000	41.8665   	8.000000	42.5265   	8.000000	42.5265   	8.000000	41.8344   	8.000000	0.0321681 	
8.500000	49.4757   	8.500000	41.0609   	8.500000	41.6532   	8.500000	41.6532   	8.500000	41.0304   	8.500000	0.03051   	
9.000000	48.0136   	9.000000	40.2842   	9.000000	40.8151   	9.000000	40.8151   	9.000000	40.2551   	9.000000	0.0290235 	
9.500000	46.6436   	9.500000	39.534    	9.500000	40.0103   	9.500000	40.0103   	9.500000	39.5063   	9.500000	0.0276827 	
10.000000	45.3575   	10.000000	39.0815   	10.000000	39.2373   	10.000000	39.2373   	10.000000	39.0551   	10.000000	0.0264669 	
11.000000	43.0077   	11.000000	37.7013   	11.000000	37.5042   	11.000000	37.9429   	11.000000	37.6769   	11.000000	0.0243453 	
12.000000	40.9141   	12.000000	36.4032   	12.000000	35.919    	12.000000	36.7195   	12.000000	36.3806   	12.000000	0.0225545 	
13.000000	39.0365   	13.000000	35.1853   	13.000000	34.4656   	13.000000	35.5658   	13.000000	35.1643   	13.000000	0.0210216 	
14.000000	37.3427   	14.000000	34.0438   	14.000000	33.1289   	14.000000	34.4785   	14.000000	34.0241   	14.000000	0.0196938 	
15.000000	35.8065   	15.000000	32.9737   	15.000000	31.8949   	15.000000	33.4539   	15.000000	32.9552   	15.000000	0.0185319 	
16.000000	34.4064   	16.000000	31.9699   	16.000000	30.7542   	16.000000	32.4879   	16.000000	31.9524   	16.000000	0.0175061 	
17.000000	33.1247   	17.000000	31.0273   	17.000000	29.6974   	17.000000	31.5764   	17.000000	31.0107   	17.000000	0.0165933 	
18.000000	31.9467   	18.000000	30.1409   	18.000000	28.7145   	18.000000	30.7156   	18.000000	30.1252   	18.000000	0.0157757 	
19.000000	30.8599   	19.000000	29.3064   	19.000000	27.7982   	19.000000	29.9019   	19.000000	29.2914   	19.000000	0.0150388 	
20.000000	29.8539   	20.000000	28.5196   	20.000000	26.9437   	20.000000	29.1319   	20.000000	28.5052   	20.000000	0.0143711 	
21.000000	28.9199   	21.000000	27.7767   	21.000000	26.1451   	21.000000	28.4024   	21.000000	27.7629   	21.000000	0.013763  	
22.000000	28.05     	22.000000	27.0742   	22.000000	25.3964   	22.000000	27.7107   	22.000000	27.061    	22.000000	0.0132068 	
23.000000	27.2378   	23.000000	26.4091   	23.000000	24.6935   	23.000000	27.0542   	23.000000	26.3964   	23.000000	0.012696  	
24.000000	26.4776   	24.000000	25.7785   	24.000000	24.0331   	24.000000	26.4304   	24.000000	25.7662   	24.000000	0.0122252 	
25.000000	25.7644   	25.000000	25.1798   	25.000000	23.4118   	25.000000	25.8371   	25.000000	25.168    	25.000000	0.0117898 	
27.000000	24.462    	27.000000	24.069    	27.000000	22.2742   	27.000000	24.7344   	27.000000	24.058    	27.000000	0.0110101 	
29.000000	23.302    	29.000000	23.0606   	29.000000	21.2592   	29.000000	23.732    	29.000000	23.0503   	29.000000	0.0103316 	
31.000000	22.2615   	31.000000	22.1411   	31.000000	20.4274   	31.000000	22.7782   	31.000000	22.1313   	31.000000	0.0097357 	
33.000000	21.3226   	33.000000	21.2992   	33.000000	19.7391   	33.000000	21.8703   	33.000000	21.29     	33.000000	0.00920785	
35.000000	20.4706   	35.000000	20.5254   	35.000000	19.1003   	35.000000	21.0396   	35.000000	20.5167   	35.000000	0.00873687	
38.000000	19.3305   	38.000000	19.4756   	38.000000	18.2269   	38.000000	19.9178   	38.000000	19.4675   	38.000000	0.00811815	
41.000000	18.3283   	41.000000	18.5394   	41.000000	17.4391   	41.000000	18.9221   	41.000000	18.5318   	41.000000	0.00758497	
44.000000	17.4399   	44.000000	17.6993   	44.000000	16.726    	44.000000	18.0323   	44.000000	17.6922   	44.000000	0.0071205 	
47.000000	16.6464   	47.000000	16.9411   	47.000000	16.076    	47.000000	17.2321   	47.000000	16.9344   	47.000000	0.00671206	
50.000000	15.933    	50.000000	16.2534   	50.000000	15.482    	50.000000	16.5085   	50.000000	16.2471   	50.000000	0.00634996	
55.000000	14.8911   	55.000000	15.239    	55.000000	14.596    	55.000000	15.4449   	55.000000	15.2332   	55.000000	0.00582957	
60.000000	13.9978   	60.000000	14.3606   	60.000000	13.8232   	60.000000	14.5272   	60.000000	14.3552   	60.000000	0.00539137	
65.000000	13.2229   	65.000000	13.5923   	65.000000	13.1392   	65.000000	13.7273   	65.000000	13.5873   	65.000000	0.00501707	
70.000000	12.5437   	70.000000	12.9148   	70.000000	12.5317   	70.000000	13.0239   	70.000000	12.9101   	70.000000	0.00469346	
75.000000	11.9432   	75.000000	12.3128   	75.000000	11.9878   	75.000000	12.4003   	75.000000	12.3084   	75.000000	0.00441076	
80.000000	11.408    	80.000000	11.7743   	80.000000	11.5      	80.000000	11.8439   	80.000000	11.7701   	80.000000	0.00416157	
85.000000	10.928    	85.000000	11.2898   	85.000000	11.0568   	85.000000	11.3441   	85.000000	11.2858   	85.000000	0.00394018	
90.000000	10.4947   	90.000000	10.8515   	90.000000	10.6551   	90.000000	10.8929   	90.000000	10.8478   	90.000000	0.00374213	
95.000000	10.1015   	95.000000	10.4532   	95.000000	10.2866   	95.000000	10.4835   	95.000000	10.4496   	95.000000	0.00356385	
100.000000	9.74288   	100.000000	10.0896   	100.000000	9.94977   	100.000000	10.1103   	100.000000	10.0862   	100.000000	0.0034025 	
105.000000	9.41447   	105.000000	9.75632   	105.000000	9.64091   	105.000000	9.76879   	105.000000	9.75307   	105.000000	0.00325573	
110.000000	9.11245   	110.000000	9.44981   	110.000000	9.35444   	110.000000	9.45505   	110.000000	9.44669   	110.000000	0.00312162	
115.000000	8.83371   	115.000000	9.16695   	115.000000	9.08926   	115.000000	9.16586   	115.000000	9.16395   	115.000000	0.00299859	
120.000000	8.57558   	120.000000	8.9051    	120.000000	8.84404   	120.000000	8.89845   	120.000000	8.90221   	120.000000	0.00288529	
125.000000	8.3358    	125.000000	8.66201   	125.000000	8.6155    	125.000000	8.65047   	125.000000	8.65923   	125.000000	0.00278059	
130.000000	8.11243   	130.000000	8.43575   	130.000000	8.40118   	130.000000	8.41987   	130.000000	8.43307   	130.000000	0.00268355	
135.000000	7.9038    	135.000000	8.22463   	135.000000	8.20114   	135.000000	8.2049    	135.000000	8.22203   	135.000000	0.00259334	
140.000000	7.70845   	140.000000	8.02718   	140.000000	8.01415   	140.000000	8.00404   	140.000000	8.02467   	140.000000	0.00250924	
145.000000	7.52514   	145.000000	7.84213   	145.000000	7.83849   	145.000000	7.81594   	145.000000	7.8397    	145.000000	0.00243066	
150.000000	7.35275   	150.000000	7.66835   	150.000000	7.67289   	150.000000	7.63943   	150.000000	7.66599   	150.000000	0.00235706	
155.000000	7.10635   	155.000000	7.50484   	155.000000	7.51708   	155.000000	7.47349   	155.000000	7.50255   	155.000000	0.00228797	
160.000000	6.96377   	160.000000	7.35073   	160.000000	7.36999   	160.000000	7.3172    	160.000000	7.34851   	160.000000	0.00222298	
165.000000	6.82904   	165.000000	7.20523   	165.000000	7.23059   	165.000000	7.16974   	165.000000	7.20307   	165.000000	0.00216174	
170.000000	6.70153   	170.000000	7.06764   	170.000000	7.09875   	170.000000	7.0304    	170.000000	7.06554   	170.000000	0.00210392	
175.000000	6.58066   	175.000000	6.93734   	175.000000	6.97383   	175.000000	6.89853   	175.000000	6.93529   	175.000000	0.00204925	
180.000000	6.46593   	180.000000	6.81378   	180.000000	6.85493   	180.000000	6.77355   	180.000000	6.81178   	180.000000	0.00199746	
185.000000	6.35687   	185.000000	6.69643   	185.000000	6.74181   	185.000000	6.65494   	185.000000	6.69448   	185.000000	0.00194834	
190.000000	6.25306   	190.000000	6.58486   	190.000000	6.63431   	190.000000	6.54223   	190.000000	6.58296   	190.000000	0.00190167	
195.000000	6.15414   	195.000000	6.47864   	195.000000	6.53204   	195.000000	6.435     	195.000000	6.47678   	195.000000	0.00185729	
200.000000	6.05975   	200.000000	6.37741   	200.000000	6.43451   	200.000000	6.33286   	200.000000	6.3756    	200.000000	0.00181501	
210.000000	5.8834    	210.000000	6.18857   	210.000000	6.25181   	210.000000	6.14248   	210.000000	6.18683   	210.000000	0.00173621	
220.000000	5.72185   	220.000000	6.01597   	220.000000	6.0847    	220.000000	5.96866   	220.000000	6.0143    	220.000000	0.00166423	
230.000000	5.57331   	230.000000	5.85761   	230.000000	5.93079   	230.000000	5.80937   	230.000000	5.85601   	230.000000	0.00159821	
240.000000	5.43625   	240.000000	5.71183   	240.000000	5.78893   	240.000000	5.66287   	240.000000	5.71029   	240.000000	0.00153744	
250.000000	5.30939   	250.000000	5.5772    	250.000000	5.65797   	250.000000	5.52772   	250.000000	5.57572   	250.000000	0.00148131	
260.000000	5.19163   	260.000000	5.4525    	260.000000	5.53673   	260.000000	5.40268   	260.000000	5.45107   	260.000000	0.00142928	
270.000000	5.08202   	270.000000	5.3367    	270.000000	5.424     	270.000000	5.28667   	270.000000	5.33532   	270.000000	0.00138094	
280.000000	4.97975   	280.000000	5.22888   	280.000000	5.31864   	280.000000	5.17877   	280.000000	5.22755   	280.000000	0.00133588	
290.000000	4.8841    	290.000000	5.12827   	290.000000	5.22035   	290.000000	5.07818   	290.000000	5.12698   	290.000000	0.00129379	
300.000000	4.79446   	300.000000	5.03418   	300.000000	5.12856   	300.000000	4.9842    	300.000000	5.03292   	300.000000	0.00125437	
310.000000	4.71029   	310.000000	4.946     	310.000000	5.04239   	310.000000	4.89622   	310.000000	4.94478   	310.000000	0.00121738	
320.000000	4.63109   	320.000000	4.86321   	320.000000	4.96119   	320.000000	4.8137    	320.000000	4.86203   	320.000000	0.00118259	
330.000000	4.55645   	330.000000	4.78535   	330.000000	4.88513   	330.000000	4.73616   	330.000000	4.7842    	330.000000	0.00114982	
340.000000	4.48599   	340.000000	4.71199   	340.000000	4.81364   	340.000000	4.66318   	340.000000	4.71087   	340.000000	0.00111888	
350.000000	4.41938   	350.000000	4.64276   	350.000000	4.74593   	350.000000	4.59439   	350.000000	4.64167   	350.000000	0.00108963	
360.000000	4.35631   	360.000000	4.57734   	360.000000	4.68166   	360.000000	4.52944   	360.000000	4.57628   	360.000000	0.00106193	
370.000000	4.29651   	370.000000	4.51544   	370.000000	4.62078   	370.000000	4.46804   	370.000000	4.5144    	370.000000	0.00103566	
380.000000	4.23975   	380.000000	4.45677   	380.000000	4.56335   	380.000000	4.40991   	380.000000	4.45576   	380.000000	0.00101071	
390.000000	4.1858    	390.000000	4.40111   	390.000000	4.50901   	390.000000	4.35482   	390.000000	4.40013   	390.000000	0.000986981	
400.000000	4.13446   	400.000000	4.34824   	400.000000	4.45729   	400.000000	4.30253   	400.000000	4.34728   	400.000000	0.000964384	
410.000000	4.08556   	410.000000	4.29796   	410.000000	4.40808   	410.000000	4.25286   	410.000000	4.29702   	410.000000	0.00094284	
420.000000	4.03892   	420.000000	4.2501    	420.000000	4.36129   	420.000000	4.20562   	420.000000	4.24918   	420.000000	0.000922274	
430.000000	3.99442   	430.000000	4.20448   	430.000000	4.31671   	430.000000	4.16065   	430.000000	4.20358   	430.000000	0.000902622	
440.000000	3.9519    	440.000000	4.16097   	440.000000	4.27413   	440.000000	4.11779   	440.000000	4.16009   	440.000000	0.000883823	
450.000000	3.91124   	450.000000	4.11943   	450.000000	4.23347   	450.000000	4.07691   	450.000000	4.11857   	450.000000	0.000865822	
460.000000	3.87233   	460.000000	4.07973   	460.000000	4.19468   	460.000000	4.03788   	460.000000	4.07889   	460.000000	0.000848568	
470.000000	3.83506   	470.000000	4.04177   	470.000000	4.1576    	470.000000	4.00059   	470.000000	4.04094   	470.000000	0.000832015	
480.000000	3.79934   	480.000000	4.00543   	480.000000	4.12201   	480.000000	3.96493   	480.000000	4.00461   	480.000000	0.000816121	
490.000000	3.76508   	490.000000	3.97062   	490.000000	4.08783   	490.000000	3.93081   	490.000000	3.96982   	490.000000	0.000800847	
500.000000	3.73219   	500.000000	3.93725   	500.000000	4.05511   	500.000000	3.89812   	500.000000	3.93646   	500.000000	0.000786156	
520.000000	3.67025   	520.000000	3.87451   	520.000000	3.99399   	520.000000	3.83676   	520.000000	3.87376   	520.000000	0.000758395	
540.000000	3.61296   	540.000000	3.81664   	540.000000	3.93749   	540.000000	3.78025   	540.000000	3.8159    	540.000000	0.000732601	
560.000000	3.55987   	560.000000	3.76311   	560.000000	3.88519   	560.000000	3.72809   	560.000000	3.76241   	560.000000	0.000708568	
580.000000	3.51056   	580.000000	3.71351   	580.000000	3.83707   	580.000000	3.67981   	580.000000	3.71282   	580.000000	0.000686121	
600.000000	3.46467   	600.000000	3.66744   	600.000000	3.79229   	600.000000	3.63506   	600.000000	3.66677   	600.000000	0.000665105	
620.000000	3.4219    	620.000000	3.62457   	620.000000	3.75049   	620.000000	3.59347   	620.000000	3.62393   	620.000000	0.000645386	
640.000000	3.38196   	640.000000	3.58462   	640.000000	3.71159   	640.000000	3.55477   	640.000000	3.58399   	640.000000	0.000626846	
660.000000	3.34462   	660.000000	3.54732   	660.000000	3.67536   	660.000000	3.51869   	660.000000	3.54671   	660.000000	0.000609381	
680.000000	3.30967   	680.000000	3.51245   	680.000000	3.64153   	680.000000	3.48499   	680.000000	3.51186   	680.000000	0.000592899	
700.000000	3.2769    	700.000000	3.47981   	700.000000	3.60977   	700.000000	3.45348   	700.000000	3.47923   	700.000000	0.000577318	
720.000000	3.24614   	720.000000	3.44921   	720.000000	3.57988   	720.000000	3.42397   	720.000000	3.44864   	720.000000	0.000562566	
740.000000	3.21725   	740.000000	3.42049   	740.000000	3.55189   	740.000000	3.39631   	740.000000	3.41994   	740.000000	0.000548577	
760.000000	3.19009   	760.000000	3.39351   	760.000000	3.52575   	760.000000	3.37033   	760.000000	3.39298   	760.000000	0.000535292	
780.000000	3.16453   	780.000000	3.36814   	780.000000	3.50118   	780.000000	3.34592   	780.000000	3.36762   	780.000000	0.00052266	
800.000000	3.14045   	800.000000	3.34426   	800.000000	3.47794   	800.000000	3.32295   	800.000000	3.34375   	800.000000	0.000510632	
820.000000	3.11776   	820.000000	3.32176   	820.000000	3.45603   	820.000000	3.30136   	820.000000	3.32126   	820.000000	0.000499166	
840.000000	3.09636   	840.000000	3.30055   	840.000000	3.43564   	840.000000	3.28124   	840.000000	3.30007   	840.000000	0.000488223	
860.000000	3.07616   	860.000000	3.28055   	860.000000	3.4165    	860.000000	3.26226   	860.000000	3.28007   	860.000000	0.000477767	
880.000000	3.0571    	880.000000	3.26166   	880.000000	3.39845   	880.000000	3.24433   	880.000000	3.26119   	880.000000	0.000467766	
900.000000	3.0391    	900.000000	3.24382   	900.000000	3.38134   	900.000000	3.2274    	900.000000	3.24336   	900.000000	0.000458191	
920.000000	3.02209   	920.000000	3.22696   	920.000000	3.36509   	920.000000	3.21139   	920.000000	3.22651   	920.000000	0.000449014	
940.000000	3.00602   	940.000000	3.21102   	940.000000	3.34968   	940.000000	3.19623   	940.000000	3.21058   	940.000000	0.000440212	
960.000000	2.99083   	960.000000	3.19594   	960.000000	3.33507   	960.000000	3.18189   	960.000000	3.19551   	960.000000	0.000431761	
980.000000	2.97646   	980.000000	3.18167   	980.000000	3.32124   	980.000000	3.1683    	980.000000	3.18125   	980.000000	0.00042364	
1000.000000	2.96288   	1000.000000	3.16817   	1000.000000	3.30814   	1000.000000	3.15542   	1000.000000	3.16775   	1000.000000	0.00041583	
1020.000000	2.95004   	1020.000000	3.15539   	1020.000000	3.29571   	1020.000000	3.1432    	1020.000000	3.15498   	1020.000000	0.000408314	
1040.000000	2.93791   	1040.000000	3.14329   	1040.000000	3.28392   	1040.000000	3.13161   	1040.000000	3.14288   	1040.000000	0.000401075	
1060.000000	2.92643   	1060.000000	3.13182   	1060.000000	3.27272   	1060.000000	3.12061   	1060.000000	3.13143   	1060.000000	0.000394097	
1080.000000	2.91558   	1080.000000	3.12097   	1080.000000	3.26208   	1080.000000	3.11017   	1080.000000	3.12058   	1080.000000	0.000387367	
1100.000000	2.90533   	1100.000000	3.11069   	1100.000000	3.25196   	1100.000000	3.10024   	1100.000000	3.11031   	1100.000000	0.000380872	
1120.000000	2.89564   	1120.000000	3.10096   	1120.000000	3.24235   	1120.000000	3.09081   	1120.000000	3.10058   	1120.000000	0.000374598	
1140.000000	2.8865    	1140.000000	3.09174   	1140.000000	3.2332    	1140.000000	3.08185   	1140.000000	3.09137   	1140.000000	0.000368536	
1160.000000	2.87787   	1160.000000	3.08301   	1160.000000	3.2245    	1160.000000	3.07333   	1160.000000	3.08264   	1160.000000	0.000362674	
1180.000000	2.86972   	1180.000000	3.07474   	1180.000000	3.21623   	1180.000000	3.06523   	1180.000000	3.07439   	1180.000000	0.000357003	
1200.000000	2.86204   	1200.000000	3.06692   	1200.000000	3.20837   	1200.000000	3.05752   	1200.000000	3.06657   	1200.000000	0.000351512	
1220.000000	2.85481   	1220.000000	3.05952   	1220.000000	3.20089   	1220.000000	3.05018   	1220.000000	3.05918   	1220.000000	0.000346195	
1240.000000	2.848     	1240.000000	3.05252   	1240.000000	3.19377   	1240.000000	3.04321   	1240.000000	3.05218   	1240.000000	0.000341041	
1260.000000	2.84159   	1260.000000	3.04591   	1260.000000	3.18699   	1260.000000	3.03656   	1260.000000	3.04557   	1260.000000	0.000336045	
1280.000000	2.83558   	1280.000000	3.03966   	1280.000000	3.18052   	1280.000000	3.03024   	1280.000000	3.03933   	1280.000000	0.000331198	
1300.000000	2.82993   	1300.000000	3.03375   	1300.000000	3.17435   	1300.000000	3.02422   	1300.000000	3.03343   	1300.000000	0.000326494	
1320.000000	2.82464   	1320.000000	3.02819   	1320.000000	3.16846   	1320.000000	3.0185    	1320.000000	3.02786   	1320.000000	0.000321927	
1340.000000	2.8197    	1340.000000	3.02293   	1340.000000	3.16282   	1340.000000	3.01304   	1340.000000	3.02262   	1340.000000	0.00031749	
1360.000000	2.81508   	1360.000000	3.01799   	1360.000000	3.15745   	1360.000000	3.00785   	1360.000000	3.01767   	1360.000000	0.000313179	
1380.000000	2.81077   	1380.000000	3.01333   	1380.000000	3.15232   	1380.000000	3.00291   	1380.000000	3.01302   	1380.000000	0.000308987	
1400.000000	2.80676   	1400.000000	3.00895   	1400.000000	3.14744   	1400.000000	2.99821   	1400.000000	3.00865   	1400.000000	0.00030491	
1420.000000	2.80305   	1420.000000	3.00485   	1420.000000	3.1428    	1420.000000	2.99373   	1420.000000	3.00454   	1420.000000	0.000300944	
1440.000000	2.79961   	1440.000000	3.00099   	1440.000000	3.1384    	1440.000000	2.98947   	1440.000000	3.0007    	1440.000000	0.000297083	
1460.000000	2.79644   	1460.000000	2.99739   	1460.000000	3.13421   	1460.000000	2.98542   	1460.000000	2.99709   	1460.000000	0.000293323	
1480.000000	2.79353   	1480.000000	2.99402   	1480.000000	3.13025   	1480.000000	2.98156   	1480.000000	2.99373   	1480.000000	0.000289661	
1500.000000	2.79086   	1500.000000	2.99087   	1500.000000	3.12648   	1500.000000	2.97789   	1500.000000	2.99059   	1500.000000	0.000286093	
1520.000000	2.78844   	1520.000000	2.98795   	1520.000000	3.12289   	1520.000000	2.97441   	1520.000000	2.98766   	1520.000000	0.000282614	
1540.000000	2.78624   	1540.000000	2.98523   	1540.000000	3.11949   	1540.000000	2.97109   	1540.000000	2.98495   	1540.000000	0.000279223	
1560.000000	2.78427   	1560.000000	2.98272   	1560.000000	3.11624   	1560.000000	2.96794   	1560.000000	2.98244   	1560.000000	0.000275915	
1580.000000	2.78252   	1580.000000	2.9804    	1580.000000	3.11316   	1580.000000	2.96495   	1580.000000	2.98013   	1580.000000	0.000272687	
1600.000000	2.78097   	1600.000000	2.97827   	1600.000000	3.11022   	1600.000000	2.96211   	1600.000000	2.978     	1600.000000	0.000269536	
1620.000000	2.77962   	1620.000000	2.97631   	1620.000000	3.10741   	1620.000000	2.95941   	1620.000000	2.97605   	1620.000000	0.00026646	
1640.000000	2.77847   	1640.000000	2.97454   	1640.000000	3.10474   	1640.000000	2.95686   	1640.000000	2.97427   	1640.000000	0.000263456	
1660.000000	2.7775    	1660.000000	2.97292   	1660.000000	3.1022    	1660.000000	2.95443   	1660.000000	2.97266   	1660.000000	0.000260522	
1680.000000	2.77672   	1680.000000	2.97147   	1680.000000	3.09979   	1680.000000	2.95214   	1680.000000	2.97122   	1680.000000	0.000257654	
1700.000000	2.77611   	1700.000000	2.97018   	1700.000000	3.0975    	1700.000000	2.94997   	1700.000000	2.96993   	1700.000000	0.000254852	
1750.000000	2.77531   	1750.000000	2.96759   	1750.000000	3.09229   	1750.000000	2.94504   	1750.000000	2.96734   	1750.000000	0.000248114	
1800.000000	2.7755    	1800.000000	2.96587   	1800.000000	3.08777   	1800.000000	2.94077   	1800.000000	2.96563   	1800.000000	0.000241735	
1850.000000	2.7766    	1850.000000	2.96494   	1850.000000	3.08388   	1850.000000	2.93711   	1850.000000	2.9647    	1850.000000	0.000235688	
1900.000000	2.77855   	1900.000000	2.96474   	1900.000000	3.08056   	1900.000000	2.934     	1900.000000	2.96451   	1900.000000	0.000229947	
1950.000000	2.78128   	1950.000000	2.96522   	1950.000000	3.07777   	1950.000000	2.93138   	1950.000000	2.96499   	1950.000000	0.000224488	
2000.000000	2.78474   	2000.000000	2.96632   	2000.000000	3.07543   	2000.000000	2.92921   	2000.000000	2.9661    	2000.000000	0.000219291	
2100.000000	2.79369   	2100.000000	2.97022   	2100.000000	3.07199   	2100.000000	2.92607   	2100.000000	2.97001   	2100.000000	0.000209611	
2200.000000	2.80505   	2200.000000	2.97614   	2200.000000	3.06995   	2200.000000	2.9243    	2200.000000	2.97593   	2200.000000	0.000200778	
2300.000000	2.81854   	2300.000000	2.98379   	2300.000000	3.06907   	2300.000000	2.92369   	2300.000000	2.9836    	2300.000000	0.000192682	
2400.000000	2.83394   	2400.000000	2.99298   	2400.000000	3.06916   	2400.000000	2.92404   	2400.000000	2.99279   	2400.000000	0.000185236	
2500.000000	2.85104   	2500.000000	3.0035    	2500.000000	3.07008   	2500.000000	2.92521   	2500.000000	3.00332   	2500.000000	0.000178363	
2600.000000	2.86969   	2600.000000	3.01522   	2600.000000	3.07168   	2600.000000	2.92707   	2600.000000	3.01504   	2600.000000	0.000171998	
2700.000000	2.88972   	2700.000000	3.02798   	2700.000000	3.07389   	2700.000000	2.92951   	2700.000000	3.02782   	2700.000000	0.000166086	
2800.000000	2.91103   	2800.000000	3.04169   	2800.000000	3.0766    	2800.000000	2.93245   	2800.000000	3.04153   	2800.000000	0.000160581	
2900.000000	2.9335    	2900.000000	3.05623   	2900.000000	3.07975   	2900.000000	2.93581   	2900.000000	3.05608   	2900.000000	0.000155441	
3000.000000	2.95703   	3000.000000	3.07154   	3000.000000	3.08327   	3000.000000	2.93952   	3000.000000	3.07139   	3000.000000	0.00015063	
3200.000000	3.00699   	3200.000000	3.10411   	3200.000000	3.0912    	3200.000000	2.94782   	3200.000000	3.10397   	3200.000000	0.000141878	
3400.000000	3.06036   	3400.000000	3.13893   	3400.000000	3.10006   	3400.000000	2.95699   	3400.000000	3.13879   	3400.000000	0.000134118	
3600.000000	3.11669   	3600.000000	3.1756    	3600.000000	3.10959   	3600.000000	2.96678   	3600.000000	3.17547   	3600.000000	0.000127188	
3800.000000	3.17567   	3800.000000	3.21381   	3800.000000	3.11958   	3800.000000	2.97701   	3800.000000	3.21369   	3800.000000	0.000120961	
4000.000000	3.237     	4000.000000	3.25333   	4000.000000	3.12989   	4000.000000	2.98752   	4000.000000	3.25322   	4000.000000	0.000115334	
4200.000000	3.30046   	4200.000000	3.29396   	4200.000000	3.14039   	4200.000000	2.99821   	4200.000000	3.29385   	4200.000000	0.000110223	
4400.000000	3.36586   	4400.000000	3.33554   	4400.000000	3.15098   	4400.000000	3.00899   	4400.000000	3.33544   	4400.000000	0.00010556	
4600.000000	3.43306   	4600.000000	3.37794   	4600.000000	3.16161   	4600.000000	3.0198    	4600.000000	3.37783   	4600.000000	0.000101287	
4800.000000	3.50192   	4800.000000	3.42103   	4800.000000	3.17221   	4800.000000	3.0306    	4800.000000	3.42094   	4800.000000	9.73581e-05	
5000.000000	3.57234   	5000.000000	3.46475   	5000.000000	3.18277   	5000.000000	3.04134   	5000.000000	3.46465   	5000.000000	9.37317e-05	
5250.000000	3.66239   	5250.000000	3.52013   	5250.000000	3.19584   	5250.000000	3.05464   	5250.000000	3.52004   	5250.000000	8.95734e-05	
5500.000000	3.75458   	5500.000000	3.57622   	5500.000000	3.20875   	5500.000000	3.06778   	5500.000000	3.57613   	5500.000000	8.57795e-05	
6000.000000	3.94484   	6000.000000	3.69013   	6000.000000	3.23399   	6000.000000	3.09344   	6000.000000	3.69005   	6000.000000	7.91072e-05	
6500.000000	4.14233   	6500.000000	3.80582   	6500.000000	3.25838   	6500.000000	3.11818   	6500.000000	3.80575   	6500.000000	7.34262e-05	
7000.000000	4.34648   	7000.000000	3.92285   	7000.000000	3.28162   	7000.000000	3.14196   	7000.000000	3.92278   	7000.000000	6.8529e-05	
7500.000000	4.55685   	7500.000000	4.04089   	7500.000000	3.304     	7500.000000	3.16477   	7500.000000	4.04082   	7500.000000	6.42624e-05	
8000.000000	4.77314   	8000.000000	4.15968   	8000.000000	3.32556   	8000.000000	3.18665   	8000.000000	4.15962   	8000.000000	6.05108e-05	
8500.000000	4.99509   	8500.000000	4.27905   	8500.000000	3.34618   	8500.000000	3.20764   	8500.000000	4.279     	8500.000000	5.71854e-05	
9000.000000	5.22251   	9000.000000	4.39886   	9000.000000	3.36587   	9000.000000	3.22777   	9000.000000	4.39881   	9000.000000	5.42169e-05	
9500.000000	5.45526   	9500.000000	4.519     	9500.000000	3.38479   	9500.000000	3.24709   	9500.000000	4.51895   	9500.000000	5.15502e-05	
10000.000000	5.69321   	10000.000000	4.63938   	10000.000000	3.40298   	10000.000000	3.26566   	10000.000000	4.63933   	10000.000000	4.91411e-05	
11000.000000	6.18435   	11000.000000	4.88062   	11000.000000	3.43719   	11000.000000	3.30071   	11000.000000	4.88058   	11000.000000	4.49581e-05	
12000.000000	6.69536   	12000.000000	5.1222    	12000.000000	3.46869   	12000.000000	3.33325   	12000.000000	5.12216   	12000.000000	4.14496e-05	
13000.000000	7.22585   	13000.000000	5.36386   	13000.000000	3.49798   	13000.000000	3.36358   	13000.000000	5.36382   	13000.000000	3.84633e-05	
14000.000000	7.77558   	14000.000000	5.60544   	14000.000000	3.52544   	14000.000000	3.39196   	14000.000000	5.60541   	14000.000000	3.58896e-05	
15000.000000	8.34436   	15000.000000	5.84683   	15000.000000	3.55121   	15000.000000	3.41859   	15000.000000	5.8468    	15000.000000	3.3648e-05	
16000.000000	8.93209   	16000.000000	6.08795   	16000.000000	3.57531   	16000.000000	3.44368   	16000.000000	6.08792   	16000.000000	3.16774e-05	
17000.000000	9.53871   	17000.000000	6.32875   	17000.000000	3.59785   	17000.000000	3.46737   	17000.000000	6.32872   	17000.000000	2.99311e-05	
18000.000000	10.1642   	18000.000000	6.5692    	18000.000000	3.619     	18000.000000	3.48982   	18000.000000	6.56918   	18000.000000	2.83725e-05	
19000.000000	10.8085   	19000.000000	6.80928   	19000.000000	3.63895   	19000.000000	3.51113   	19000.000000	6.80926   	19000.000000	2.69726e-05	
20000.000000	11.4717   	20000.000000	7.04898   	20000.000000	3.65782   	20000.000000	3.53141   	20000.000000	7.04895   	20000.000000	2.57081e-05	
21000.000000	12.1537   	21000.000000	7.28828   	21000.000000	3.67577   	21000.000000	3.55076   	21000.000000	7.28826   	21000.000000	2.45602e-05	
22000.000000	12.8547   	22000.000000	7.52719   	22000.000000	3.69289   	22000.000000	3.56924   	22000.000000	7.52717   	22000.000000	2.35132e-05	
23000.000000	13.5746   	23000.000000	7.76571   	23000.000000	3.70917   	23000.000000	3.58694   	23000.000000	7.76568   	23000.000000	2.25544e-05	
24000.000000	14.3136   	24000.000000	8.00383   	24000.000000	3.72467   	24000.000000	3.60391   	24000.000000	8.00381   	24000.000000	2.16728e-05	
25000.000000	15.0716   	25000.000000	8.24157   	25000.000000	3.73949   	25000.000000	3.62022   	25000.000000	8.24155   	25000.000000	2.08595e-05	
26000.000000	15.8489   	26000.000000	8.47894   	26000.000000	3.75365   	26000.000000	3.6359    	26000.000000	8.47892   	26000.000000	2.01067e-05	
27000.000000	16.6453   	27000.000000	8.71592   	27000.000000	3.76718   	27000.000000	3.65101   	27000.000000	8.71591   	27000.000000	1.94079e-05	
28000.000000	17.4611   	28000.000000	8.95255   	28000.000000	3.78012   	28000.000000	3.66557   	28000.000000	8.95253   	28000.000000	1.87574e-05	
29000.000000	18.2963   	29000.000000	9.18881   	29000.000000	3.79251   	29000.000000	3.67964   	29000.000000	9.18879   	29000.000000	1.81503e-05	
30000.000000	19.1509   	30000.000000	9.42472   	30000.000000	3.80442   	30000.000000	3.69324   	30000.000000	9.4247    	30000.000000	1.75824e-05	
32000.000000	20.9191   	32000.000000	9.89552   	32000.000000	3.82687   	32000.000000	3.71915   	32000.000000	9.8955    	32000.000000	1.65497e-05	
34000.000000	22.7663   	34000.000000	10.365    	34000.000000	3.84771   	34000.000000	3.74351   	34000.000000	10.365    	34000.000000	1.56347e-05	
36000.000000	24.6933   	36000.000000	10.8332   	36000.000000	3.867     	36000.000000	3.76648   	36000.000000	10.8332   	36000.000000	1.48182e-05	
38000.000000	26.7009   	38000.000000	11.3002   	38000.000000	3.88488   	38000.000000	3.78822   	38000.000000	11.3002   	38000.000000	1.4085e-05	
40000.000000	28.7899   	40000.000000	11.7661   	40000.000000	3.90153   	40000.000000	3.80885   	40000.000000	11.7661   	40000.000000	1.34229e-05	
42000.000000	30.9612   	42000.000000	12.2308   	42000.000000	3.91713   	42000.000000	3.82848   	42000.000000	12.2308   	42000.000000	1.28218e-05	
44000.000000	33.2156   	44000.000000	12.6945   	44000.000000	3.93182   	44000.000000	3.84719   	44000.000000	12.6945   	44000.000000	1.22737e-05	
46000.000000	35.5541   	46000.000000	13.1572   	46000.000000	3.94576   	46000.000000	3.86506   	46000.000000	13.1572   	46000.000000	1.17718e-05	
48000.000000	37.9774   	48000.000000	13.6189   	48000.000000	3.95897   	48000.000000	3.88218   	48000.000000	13.6189   	48000.000000	1.13104e-05	
50000.000000	40.4864   	50000.000000	14.0797   	50000.000000	3.97137   	50000.000000	3.89859   	50000.000000	14.0797   	50000.000000	1.08848e-05	
