0.001000	0.582339  	0.001000	0.362131  	0.001000	0.500125  	0.001000	0.500125  	0.001000	0.17162   	0.001000	0.190512  	
0.002000	0.671858  	0.002000	0.392658  	0.002000	0.550204  	0.002000	0.550204  	0.002000	0.251266  	0.002000	0.141392  	
0.005000	0.937454  	0.005000	0.501025  	0.005000	0.677677  	0.005000	0.677677  	0.005000	0.415911  	0.005000	0.0851138 	
0.008000	1.16262   	0.008000	0.601664  	0.008000	0.781149  	0.008000	0.781149  	0.008000	0.5386    	0.008000	0.0630642 	
0.010000	1.29686   	0.010000	0.663213  	0.010000	0.841279  	0.010000	0.841279  	0.010000	0.608929  	0.010000	0.0542839 	
0.015000	1.52215   	0.015000	0.803485  	0.015000	0.98422   	0.015000	0.98422   	0.015000	0.762748  	0.015000	0.0407371 	
0.020000	1.69893   	0.020000	0.962827  	0.020000	1.14693   	0.020000	1.14693   	0.020000	0.929924  	0.020000	0.0329032 	
0.025000	1.89135   	0.025000	1.11764   	0.025000	1.30411   	0.025000	1.30411   	0.025000	1.08976   	0.025000	0.0278892 	
0.030000	2.04738   	0.030000	1.26376   	0.030000	1.42332   	0.030000	1.42332   	0.030000	1.23945   	0.030000	0.0243076 	
0.035000	2.17219   	0.035000	1.3993    	0.035000	1.53355   	0.035000	1.53355   	0.035000	1.37769   	0.035000	0.0216081 	
0.040000	2.26794   	0.040000	1.52548   	0.040000	1.63528   	0.040000	1.63528   	0.040000	1.50599   	0.040000	0.019493  	
0.045000	2.33616   	0.045000	1.64177   	0.045000	1.72891   	0.045000	1.72891   	0.045000	1.62398   	0.045000	0.0177865 	
0.050000	2.37881   	0.050000	1.74793   	0.050000	1.81483   	0.050000	1.81483   	0.050000	1.73155   	0.050000	0.0163777 	
0.055000	2.47343   	0.055000	1.84404   	0.055000	1.89341   	0.055000	1.89341   	0.055000	1.82885   	0.055000	0.015193  	
0.060000	2.55211   	0.060000	1.93038   	0.060000	1.96505   	0.060000	1.96505   	0.060000	1.9162    	0.060000	0.0141814 	
0.070000	2.66672   	0.070000	2.07565   	0.070000	2.08912   	0.070000	2.08912   	0.070000	2.0631    	0.070000	0.012542  	
0.080000	2.78959   	0.080000	2.18841   	0.080000	2.19029   	0.080000	2.19029   	0.080000	2.17714   	0.080000	0.0112672 	
0.090000	2.87815   	0.090000	2.27394   	0.090000	2.27173   	0.090000	2.27173   	0.090000	2.26369   	0.090000	0.010245  	
0.100000	2.94353   	0.100000	2.33776   	0.100000	2.33639   	0.100000	2.33639   	0.100000	2.32835   	0.100000	0.00940543	
0.120000	2.98503   	0.120000	2.44493   	0.120000	2.42565   	0.120000	2.42565   	0.120000	2.43682   	0.120000	0.00810452	
0.140000	2.99224   	0.140000	2.50384   	0.140000	2.47535   	0.140000	2.47535   	0.140000	2.4967    	0.140000	0.00713999	
0.160000	2.99248   	0.160000	2.53684   	0.160000	2.49788   	0.160000	2.49788   	0.160000	2.53045   	0.160000	0.00639397	
0.180000	2.98881   	0.180000	2.54663   	0.180000	2.50183   	0.180000	2.50183   	0.180000	2.54083   	0.180000	0.00579837	
0.200000	2.99672   	0.200000	2.55303   	0.200000	2.49309   	0.200000	2.49309   	0.200000	2.54772   	0.200000	0.005311  	
0.250000	2.93539   	0.250000	2.53882   	0.250000	2.43932   	0.250000	2.43932   	0.250000	2.53441   	0.250000	0.00440546	
0.300000	2.92579   	0.300000	2.54223   	0.300000	2.38039   	0.300000	2.38039   	0.300000	2.53845   	0.300000	0.00377788	
0.350000	2.89178   	0.350000	2.51088   	0.350000	2.31407   	0.350000	2.31407   	0.350000	2.50756   	0.350000	0.00331548	
0.400000	2.84296   	0.400000	2.46289   	0.400000	2.24144   	0.400000	2.24144   	0.400000	2.45993   	0.400000	0.00295964	
0.450000	2.7787    	0.450000	2.40058   	0.450000	2.16628   	0.450000	2.16628   	0.450000	2.3979    	0.450000	0.00267673	
0.500000	2.71623   	0.500000	2.34081   	0.500000	2.09529   	0.500000	2.09529   	0.500000	2.33837   	0.500000	0.00244604	
0.600000	2.49276   	0.600000	2.21523   	0.600000	1.96749   	0.600000	1.96749   	0.600000	2.21313   	0.600000	0.0020917 	
0.700000	2.26902   	0.700000	2.08534   	0.700000	1.8572    	0.700000	1.8572    	0.700000	2.08351   	0.700000	0.00183154	
0.800000	2.17015   	0.800000	1.98988   	0.800000	1.76129   	0.800000	1.76129   	0.800000	1.98825   	0.800000	0.00163189	
0.900000	2.06481   	0.900000	1.89051   	0.900000	1.67681   	0.900000	1.67681   	0.900000	1.88903   	0.900000	0.00147354	
1.000000	1.96026   	1.000000	1.79292   	1.000000	1.59739   	1.000000	1.59739   	1.000000	1.79157   	1.000000	0.00134468	
1.250000	1.72047   	1.250000	1.57629   	1.250000	1.4348    	1.250000	1.4348    	1.250000	1.57519   	1.250000	0.00110707	
1.500000	1.49375   	1.500000	1.36956   	1.500000	1.30644   	1.500000	1.30644   	1.500000	1.36862   	1.500000	0.000943895	
1.750000	1.32758   	1.750000	1.22137   	1.750000	1.20013   	1.750000	1.20013   	1.750000	1.22055   	1.750000	0.000824513	
2.000000	1.1991    	2.000000	1.10854   	2.000000	1.10993   	2.000000	1.10993   	2.000000	1.1078    	2.000000	0.000733167	
2.250000	1.09766   	2.250000	1.0188    	2.250000	1.03198   	2.250000	1.03198   	2.250000	1.01814   	2.250000	0.000660892	
2.500000	0.979644  	2.500000	0.945072  	2.500000	0.96404   	2.500000	0.96404   	2.500000	0.94447   	2.500000	0.000602199	
3.000000	0.860778  	3.000000	0.829688  	3.000000	0.851718  	3.000000	0.851718  	3.000000	0.829176  	3.000000	0.000512499	
3.500000	0.769179  	3.500000	0.742327  	3.500000	0.763127  	3.500000	0.763127  	3.500000	0.74188   	3.500000	0.000447015	
4.000000	0.696309  	4.000000	0.673248  	4.000000	0.691791  	4.000000	0.691791  	4.000000	0.672851  	4.000000	0.000396998	
4.500000	0.636875  	4.500000	0.617015  	4.500000	0.633283  	4.500000	0.633283  	4.500000	0.616658  	4.500000	0.000357481	
5.000000	0.587421  	5.000000	0.570257  	5.000000	0.584507  	5.000000	0.584507  	5.000000	0.569931  	5.000000	0.000325431	
5.500000	0.545589  	5.500000	0.530719  	5.500000	0.543252  	5.500000	0.543252  	5.500000	0.53042   	5.500000	0.000298888	
6.000000	0.509716  	6.000000	0.496821  	6.000000	0.507907  	6.000000	0.507907  	6.000000	0.496545  	6.000000	0.000276526	
6.500000	0.478593  	6.500000	0.467416  	6.500000	0.477283  	6.500000	0.477283  	6.500000	0.467159  	6.500000	0.000257416	
7.000000	0.45132   	7.000000	0.441648  	7.000000	0.450483  	7.000000	0.450483  	7.000000	0.441407  	7.000000	0.000240887	
7.500000	0.427213  	7.500000	0.418866  	7.500000	0.42682   	7.500000	0.42682   	7.500000	0.41864   	7.500000	0.000226443	
8.000000	0.405742  	8.000000	0.398567  	8.000000	0.405762  	8.000000	0.405762  	8.000000	0.398354  	8.000000	0.000213706	
8.500000	0.386489  	8.500000	0.380356  	8.500000	0.386892  	8.500000	0.386892  	8.500000	0.380153  	8.500000	0.000202387	
9.000000	0.369122  	9.000000	0.363916  	9.000000	0.369875  	9.000000	0.369875  	9.000000	0.363724  	9.000000	0.000192258	
9.500000	0.353373  	9.500000	0.348994  	9.500000	0.354443  	9.500000	0.354443  	9.500000	0.348811  	9.500000	0.000183138	
10.000000	0.339021  	10.000000	0.337663  	10.000000	0.340378  	10.000000	0.340378  	10.000000	0.337488  	10.000000	0.000174881	
11.000000	0.313814  	11.000000	0.3137    	11.000000	0.315252  	11.000000	0.315306  	11.000000	0.31354   	11.000000	0.000160504	
12.000000	0.29238   	12.000000	0.293136  	12.000000	0.293865  	12.000000	0.293954  	12.000000	0.292988  	12.000000	0.000148401	
13.000000	0.273919  	13.000000	0.27529   	13.000000	0.275419  	13.000000	0.275529  	13.000000	0.275152  	13.000000	0.000138066	
14.000000	0.257842  	14.000000	0.259651  	14.000000	0.259332  	14.000000	0.25945   	14.000000	0.259522  	14.000000	0.000129133	
15.000000	0.243709  	15.000000	0.24583   	15.000000	0.245167  	15.000000	0.245284  	15.000000	0.245709  	15.000000	0.000121332	
16.000000	0.231182  	16.000000	0.233523  	16.000000	0.232587  	16.000000	0.232702  	16.000000	0.233409  	16.000000	0.000114456	
17.000000	0.219996  	17.000000	0.222491  	17.000000	0.221332  	17.000000	0.221445  	17.000000	0.222383  	17.000000	0.00010835	
18.000000	0.209945  	18.000000	0.212544  	18.000000	0.211205  	18.000000	0.21131   	18.000000	0.212441  	18.000000	0.000102888	
19.000000	0.20086   	19.000000	0.203526  	19.000000	0.202039  	19.000000	0.202136  	19.000000	0.203428  	19.000000	9.79719e-05	
20.000000	0.192607  	20.000000	0.195311  	20.000000	0.193696  	20.000000	0.193788  	20.000000	0.195218  	20.000000	9.35234e-05	
21.000000	0.185075  	21.000000	0.187796  	21.000000	0.186071  	21.000000	0.18616   	21.000000	0.187707  	21.000000	8.94777e-05	
22.000000	0.17817   	22.000000	0.180893  	22.000000	0.179083  	22.000000	0.179162  	22.000000	0.180807  	22.000000	8.57817e-05	
23.000000	0.171818  	23.000000	0.17453   	23.000000	0.172654  	23.000000	0.172717  	23.000000	0.174447  	23.000000	8.23912e-05	
24.000000	0.165952  	24.000000	0.168644  	24.000000	0.166713  	24.000000	0.166764  	24.000000	0.168564  	24.000000	7.92695e-05	
25.000000	0.160518  	25.000000	0.163183  	25.000000	0.161203  	25.000000	0.161247  	25.000000	0.163106  	25.000000	7.63853e-05	
27.000000	0.150764  	27.000000	0.153362  	27.000000	0.151316  	27.000000	0.151347  	27.000000	0.15329   	27.000000	7.12274e-05	
29.000000	0.142255  	29.000000	0.144774  	29.000000	0.142706  	29.000000	0.142719  	29.000000	0.144708  	29.000000	6.67477e-05	
31.000000	0.134763  	31.000000	0.137199  	31.000000	0.135235  	31.000000	0.135231  	31.000000	0.137136  	31.000000	6.2819e-05	
33.000000	0.128112  	33.000000	0.130465  	33.000000	0.128686  	33.000000	0.128667  	33.000000	0.130405  	33.000000	5.93443e-05	
35.000000	0.122166  	35.000000	0.124437  	35.000000	0.12282   	35.000000	0.122787  	35.000000	0.12438   	35.000000	5.62482e-05	
38.000000	0.114338  	38.000000	0.116491  	38.000000	0.115081  	38.000000	0.115032  	38.000000	0.116439  	38.000000	5.21874e-05	
41.000000	0.107576  	41.000000	0.109619  	41.000000	0.108381  	41.000000	0.108318  	41.000000	0.10957   	41.000000	4.86941e-05	
44.000000	0.101671  	44.000000	0.103615  	44.000000	0.102519  	44.000000	0.102446  	44.000000	0.10357   	44.000000	4.56558e-05	
47.000000	0.0964691 	47.000000	0.0983227 	47.000000	0.0973481 	47.000000	0.0972638 	47.000000	0.0982797 	47.000000	4.29879e-05	
50.000000	0.0918481 	50.000000	0.0936204 	50.000000	0.0927383 	50.000000	0.0926549 	50.000000	0.0935798 	50.000000	4.06258e-05	
55.000000	0.0851919 	55.000000	0.0868468 	55.000000	0.0860946 	55.000000	0.0860068 	55.000000	0.0868096 	55.000000	3.72367e-05	
60.000000	0.0795716 	60.000000	0.0811292 	60.000000	0.0804803 	60.000000	0.080386  	60.000000	0.0810949 	60.000000	3.43882e-05	
65.000000	0.0747588 	65.000000	0.076236  	65.000000	0.07566   	65.000000	0.0755682 	65.000000	0.0762041 	65.000000	3.1959e-05	
70.000000	0.0705878 	70.000000	0.071999  	70.000000	0.0714913 	70.000000	0.0713905 	70.000000	0.0719691 	70.000000	2.98621e-05	
75.000000	0.0669357 	75.000000	0.0682931 	75.000000	0.0678274 	75.000000	0.0677318 	75.000000	0.0682651 	75.000000	2.80327e-05	
80.000000	0.0637096 	80.000000	0.0650233 	80.000000	0.0645994 	80.000000	0.0644997 	80.000000	0.0649969 	80.000000	2.64223e-05	
85.000000	0.0608375 	85.000000	0.0621162 	85.000000	0.0617176 	85.000000	0.0616228 	85.000000	0.0620912 	85.000000	2.49932e-05	
90.000000	0.0582629 	90.000000	0.0595139 	90.000000	0.0591435 	90.000000	0.0590451 	90.000000	0.0594902 	90.000000	2.37162e-05	
95.000000	0.0559408 	95.000000	0.0571705 	95.000000	0.0568154 	95.000000	0.0567216 	95.000000	0.057148  	95.000000	2.25678e-05	
100.000000	0.0538351 	100.000000	0.0550488 	100.000000	0.0547131 	100.000000	0.0546161 	100.000000	0.0550273 	100.000000	2.15295e-05	
105.000000	0.0519162 	105.000000	0.0531184 	105.000000	0.0527919 	105.000000	0.052699  	105.000000	0.0530979 	105.000000	2.05858e-05	
110.000000	0.0501596 	110.000000	0.0513544 	110.000000	0.0510409 	110.000000	0.050946  	110.000000	0.0513347 	110.000000	1.97243e-05	
115.000000	0.0485451 	115.000000	0.049736  	115.000000	0.0494294 	115.000000	0.0493365 	115.000000	0.0497171 	115.000000	1.89346e-05	
120.000000	0.0470558 	120.000000	0.0482457 	120.000000	0.0479455 	120.000000	0.0478537 	120.000000	0.0482275 	120.000000	1.82079e-05	
125.000000	0.0456773 	125.000000	0.0468687 	125.000000	0.0465764 	125.000000	0.0464829 	125.000000	0.0468511 	125.000000	1.75369e-05	
130.000000	0.0443973 	130.000000	0.0455925 	130.000000	0.0453019 	130.000000	0.0452119 	130.000000	0.0455756 	130.000000	1.69153e-05	
135.000000	0.0432054 	135.000000	0.0444064 	135.000000	0.0441165 	135.000000	0.0440301 	135.000000	0.04439   	135.000000	1.63379e-05	
140.000000	0.0420926 	140.000000	0.043301  	140.000000	0.0430155 	140.000000	0.0429283 	140.000000	0.0432852 	140.000000	1.58e-05  	
145.000000	0.041051  	145.000000	0.0422684 	145.000000	0.0419868 	145.000000	0.0418988 	145.000000	0.0422531 	145.000000	1.52977e-05	
150.000000	0.0400739 	150.000000	0.0413016 	150.000000	0.0410198 	150.000000	0.0409346 	150.000000	0.0412868 	150.000000	1.48274e-05	
155.000000	0.0386981 	155.000000	0.0403944 	155.000000	0.0401153 	155.000000	0.0400296 	155.000000	0.04038   	155.000000	1.43862e-05	
160.000000	0.0378917 	160.000000	0.0395414 	160.000000	0.0392651 	160.000000	0.0391786 	160.000000	0.0395274 	160.000000	1.39715e-05	
165.000000	0.0371312 	165.000000	0.038738  	165.000000	0.0384609 	165.000000	0.0383769 	165.000000	0.0387244 	165.000000	1.35808e-05	
170.000000	0.0364128 	170.000000	0.0379798 	170.000000	0.0377041 	170.000000	0.0376203 	170.000000	0.0379666 	170.000000	1.32122e-05	
175.000000	0.0357331 	175.000000	0.0372632 	175.000000	0.0369902 	175.000000	0.036905  	175.000000	0.0372504 	175.000000	1.28638e-05	
180.000000	0.0350889 	180.000000	0.0365849 	180.000000	0.036312  	180.000000	0.036228  	180.000000	0.0365724 	180.000000	1.25339e-05	
185.000000	0.0344776 	185.000000	0.0359418 	185.000000	0.0356675 	185.000000	0.035586  	185.000000	0.0359296 	185.000000	1.22212e-05	
190.000000	0.0338966 	190.000000	0.0353313 	190.000000	0.035056  	190.000000	0.0349766 	190.000000	0.0353193 	190.000000	1.19242e-05	
195.000000	0.0333436 	195.000000	0.0347509 	195.000000	0.0344767 	195.000000	0.0343973 	195.000000	0.0347392 	195.000000	1.16418e-05	
200.000000	0.0328168 	200.000000	0.0341984 	200.000000	0.0339264 	200.000000	0.0338459 	200.000000	0.0341871 	200.000000	1.1373e-05	
210.000000	0.0318343 	210.000000	0.0331698 	210.000000	0.0328975 	210.000000	0.0328192 	210.000000	0.0331589 	210.000000	1.08722e-05	
220.000000	0.0309363 	220.000000	0.0322316 	220.000000	0.0319621 	220.000000	0.0318831 	220.000000	0.0322212 	220.000000	1.04151e-05	
230.000000	0.0301123 	230.000000	0.0313725 	230.000000	0.0311037 	230.000000	0.0310261 	230.000000	0.0313625 	230.000000	9.99623e-06	
240.000000	0.0293534 	240.000000	0.0305829 	240.000000	0.0303131 	240.000000	0.0302387 	240.000000	0.0305733 	240.000000	9.61085e-06	
250.000000	0.0286523 	250.000000	0.0298547 	250.000000	0.0295877 	250.000000	0.0295128 	250.000000	0.0298454 	250.000000	9.25507e-06	
260.000000	0.0280024 	260.000000	0.0291811 	260.000000	0.0289163 	260.000000	0.0288417 	260.000000	0.0291722 	260.000000	8.92558e-06	
270.000000	0.0273984 	270.000000	0.0285563 	270.000000	0.0282924 	270.000000	0.0282195 	270.000000	0.0285477 	270.000000	8.61954e-06	
280.000000	0.0268357 	280.000000	0.0279751 	280.000000	0.0277151 	280.000000	0.0276411 	280.000000	0.0279668 	280.000000	8.33449e-06	
290.000000	0.02631   	290.000000	0.0274332 	290.000000	0.0271749 	290.000000	0.0271021 	290.000000	0.0274252 	290.000000	8.06834e-06	
300.000000	0.0258179 	300.000000	0.0269269 	300.000000	0.0266693 	300.000000	0.0265988 	300.000000	0.026919  	300.000000	7.81923e-06	
310.000000	0.0253563 	310.000000	0.0264527 	310.000000	0.0261974 	310.000000	0.0261277 	310.000000	0.0264451 	310.000000	7.58556e-06	
320.000000	0.0249224 	320.000000	0.0260078 	320.000000	0.0257566 	320.000000	0.025686  	320.000000	0.0260004 	320.000000	7.36592e-06	
330.000000	0.0245139 	330.000000	0.0255895 	330.000000	0.0253413 	330.000000	0.0252712 	330.000000	0.0255823 	330.000000	7.15908e-06	
340.000000	0.0241286 	340.000000	0.0251957 	340.000000	0.0249492 	340.000000	0.0248808 	340.000000	0.0251887 	340.000000	6.96393e-06	
350.000000	0.0237646 	350.000000	0.0248242 	350.000000	0.0245797 	350.000000	0.0245128 	350.000000	0.0248174 	350.000000	6.77949e-06	
360.000000	0.0234203 	360.000000	0.0244733 	360.000000	0.0242324 	360.000000	0.0241656 	360.000000	0.0244667 	360.000000	6.60491e-06	
370.000000	0.023094  	370.000000	0.0241413 	370.000000	0.0239049 	370.000000	0.0238373 	370.000000	0.0241349 	370.000000	6.4394e-06	
380.000000	0.0227845 	380.000000	0.0238269 	380.000000	0.0235934 	380.000000	0.0235266 	380.000000	0.0238206 	380.000000	6.28226e-06	
390.000000	0.0224905 	390.000000	0.0235286 	390.000000	0.0232979 	390.000000	0.0232321 	390.000000	0.0235225 	390.000000	6.13286e-06	
400.000000	0.0222109 	400.000000	0.0232454 	400.000000	0.0230187 	400.000000	0.0229527 	400.000000	0.0232394 	400.000000	5.99065e-06	
410.000000	0.0219448 	410.000000	0.0229761 	410.000000	0.0227538 	410.000000	0.0226873 	410.000000	0.0229703 	410.000000	5.85511e-06	
420.000000	0.0216911 	420.000000	0.0227199 	420.000000	0.022501  	420.000000	0.0224349 	420.000000	0.0227141 	420.000000	5.72577e-06	
430.000000	0.0214491 	430.000000	0.0224757 	430.000000	0.0222595 	430.000000	0.0221947 	430.000000	0.0224701 	430.000000	5.60222e-06	
440.000000	0.021218  	440.000000	0.0222428 	440.000000	0.0220294 	440.000000	0.0219657 	440.000000	0.0222373 	440.000000	5.48406e-06	
450.000000	0.0209972 	450.000000	0.0220205 	450.000000	0.0218104 	450.000000	0.0217474 	450.000000	0.0220151 	450.000000	5.37096e-06	
460.000000	0.0207859 	460.000000	0.0218081 	460.000000	0.021602  	460.000000	0.0215389 	460.000000	0.0218029 	460.000000	5.26259e-06	
470.000000	0.0205836 	470.000000	0.021605  	470.000000	0.0214033 	470.000000	0.0213397 	470.000000	0.0215999 	470.000000	5.15865e-06	
480.000000	0.0203898 	480.000000	0.0214107 	480.000000	0.021213  	480.000000	0.0211493 	480.000000	0.0214056 	480.000000	5.05887e-06	
490.000000	0.020204  	490.000000	0.0212245 	490.000000	0.0210301 	490.000000	0.020967  	490.000000	0.0212195 	490.000000	4.96302e-06	
500.000000	0.0200257 	500.000000	0.0210461 	500.000000	0.0208547 	500.000000	0.0207925 	500.000000	0.0210412 	500.000000	4.87085e-06	
520.000000	0.01969   	520.000000	0.0207107 	520.000000	0.0205254 	520.000000	0.0204648 	520.000000	0.020706  	520.000000	4.69675e-06	
540.000000	0.0193797 	540.000000	0.0204013 	540.000000	0.0202238 	540.000000	0.020163  	540.000000	0.0203968 	540.000000	4.53506e-06	
560.000000	0.0190924 	560.000000	0.0201153 	560.000000	0.0199455 	560.000000	0.0198843 	560.000000	0.0201109 	560.000000	4.38449e-06	
580.000000	0.0188256 	580.000000	0.0198503 	580.000000	0.0196865 	580.000000	0.0196265 	580.000000	0.019846  	580.000000	4.24392e-06	
600.000000	0.0185774 	600.000000	0.0196042 	600.000000	0.0194473 	600.000000	0.0193875 	600.000000	0.0196001 	600.000000	4.11237e-06	
620.000000	0.0183462 	620.000000	0.0193752 	620.000000	0.0192257 	620.000000	0.0191654 	620.000000	0.0193712 	620.000000	3.989e-06 	
640.000000	0.0181304 	640.000000	0.0191619 	640.000000	0.0190184 	640.000000	0.0189586 	640.000000	0.019158  	640.000000	3.87305e-06	
660.000000	0.0179288 	660.000000	0.0189627 	660.000000	0.0188245 	660.000000	0.0187658 	660.000000	0.0189589 	660.000000	3.76387e-06	
680.000000	0.01774   	680.000000	0.0187765 	680.000000	0.0186435 	680.000000	0.0185858 	680.000000	0.0187729 	680.000000	3.66087e-06	
700.000000	0.0175631 	700.000000	0.0186023 	700.000000	0.0184749 	700.000000	0.0184174 	700.000000	0.0185987 	700.000000	3.56354e-06	
720.000000	0.0173972 	720.000000	0.018439  	720.000000	0.0183176 	720.000000	0.0182597 	720.000000	0.0184355 	720.000000	3.47142e-06	
740.000000	0.0172413 	740.000000	0.0182857 	740.000000	0.0181699 	740.000000	0.0181118 	740.000000	0.0182823 	740.000000	3.3841e-06	
760.000000	0.0170948 	760.000000	0.0181417 	760.000000	0.0180306 	760.000000	0.017973  	760.000000	0.0181384 	760.000000	3.3012e-06	
780.000000	0.0169569 	780.000000	0.0180064 	780.000000	0.0178993 	780.000000	0.0178424 	780.000000	0.0180032 	780.000000	3.2224e-06	
800.000000	0.0168271 	800.000000	0.017879  	800.000000	0.0177757 	800.000000	0.0177196 	800.000000	0.0178758 	800.000000	3.1474e-06	
820.000000	0.0167048 	820.000000	0.017759  	820.000000	0.0176597 	820.000000	0.0176042 	820.000000	0.0177559 	820.000000	3.07591e-06	
840.000000	0.0165895 	840.000000	0.0176459 	840.000000	0.0175523 	840.000000	0.017497  	840.000000	0.0176429 	840.000000	3.00771e-06	
860.000000	0.0164807 	860.000000	0.0175392 	860.000000	0.0174514 	860.000000	0.0173958 	860.000000	0.0175363 	860.000000	2.94257e-06	
880.000000	0.016378  	880.000000	0.0174385 	880.000000	0.0173561 	880.000000	0.0173002 	880.000000	0.0174356 	880.000000	2.88028e-06	
900.000000	0.016281  	900.000000	0.0173434 	900.000000	0.0172658 	900.000000	0.0172099 	900.000000	0.0173406 	900.000000	2.82065e-06	
920.000000	0.0161894 	920.000000	0.0172536 	920.000000	0.0171801 	920.000000	0.0171245 	920.000000	0.0172508 	920.000000	2.76353e-06	
940.000000	0.0161028 	940.000000	0.0171686 	940.000000	0.0170988 	940.000000	0.0170437 	940.000000	0.0171659 	940.000000	2.70875e-06	
960.000000	0.016021  	960.000000	0.0170883 	960.000000	0.0170217 	960.000000	0.0169671 	960.000000	0.0170856 	960.000000	2.65616e-06	
980.000000	0.0159436 	980.000000	0.0170123 	980.000000	0.0169487 	980.000000	0.0168946 	980.000000	0.0170097 	980.000000	2.60565e-06	
1000.000000	0.0158705 	1000.000000	0.0169404 	1000.000000	0.0168795 	1000.000000	0.0168258 	1000.000000	0.0169378 	1000.000000	2.55708e-06	
1020.000000	0.0158014 	1020.000000	0.0168723 	1020.000000	0.016814  	1020.000000	0.0167606 	1020.000000	0.0168698 	1020.000000	2.51035e-06	
1040.000000	0.0157361 	1040.000000	0.0168079 	1040.000000	0.0167522 	1040.000000	0.0166987 	1040.000000	0.0168055 	1040.000000	2.46535e-06	
1060.000000	0.0156743 	1060.000000	0.0167469 	1060.000000	0.0166936 	1060.000000	0.0166399 	1060.000000	0.0167445 	1060.000000	2.42199e-06	
1080.000000	0.0156159 	1080.000000	0.0166892 	1080.000000	0.016638  	1080.000000	0.0165841 	1080.000000	0.0166868 	1080.000000	2.38017e-06	
1100.000000	0.0155607 	1100.000000	0.0166345 	1100.000000	0.016585  	1100.000000	0.016531  	1100.000000	0.0166322 	1100.000000	2.33983e-06	
1120.000000	0.0155086 	1120.000000	0.0165827 	1120.000000	0.0165345 	1120.000000	0.0164806 	1120.000000	0.0165804 	1120.000000	2.30087e-06	
1140.000000	0.0154594 	1140.000000	0.0165337 	1140.000000	0.0164863 	1140.000000	0.0164327 	1140.000000	0.0165314 	1140.000000	2.26323e-06	
1160.000000	0.0154129 	1160.000000	0.0164873 	1160.000000	0.0164404 	1160.000000	0.0163871 	1160.000000	0.0164851 	1160.000000	2.22684e-06	
1180.000000	0.0153691 	1180.000000	0.0164434 	1180.000000	0.0163967 	1180.000000	0.0163437 	1180.000000	0.0164412 	1180.000000	2.19164e-06	
1200.000000	0.0153278 	1200.000000	0.0164019 	1200.000000	0.0163552 	1200.000000	0.0163024 	1200.000000	0.0163997 	1200.000000	2.15757e-06	
1220.000000	0.0152888 	1220.000000	0.0163626 	1220.000000	0.0163159 	1220.000000	0.0162631 	1220.000000	0.0163605 	1220.000000	2.12458e-06	
1240.000000	0.0152522 	1240.000000	0.0163255 	1240.000000	0.0162786 	1240.000000	0.0162257 	1240.000000	0.0163234 	1240.000000	2.09261e-06	
1260.000000	0.0152177 	1260.000000	0.0162904 	1260.000000	0.0162431 	1260.000000	0.0161901 	1260.000000	0.0162883 	1260.000000	2.06162e-06	
1280.000000	0.0151854 	1280.000000	0.0162572 	1280.000000	0.0162093 	1280.000000	0.0161562 	1280.000000	0.0162552 	1280.000000	2.03157e-06	
1300.000000	0.015155  	1300.000000	0.0162259 	1300.000000	0.0161771 	1300.000000	0.0161239 	1300.000000	0.0162239 	1300.000000	2.00241e-06	
1320.000000	0.0151265 	1320.000000	0.0161964 	1320.000000	0.0161464 	1320.000000	0.0160931 	1320.000000	0.0161944 	1320.000000	1.9741e-06	
1340.000000	0.0150999 	1340.000000	0.0161686 	1340.000000	0.0161171 	1340.000000	0.0160638 	1340.000000	0.0161667 	1340.000000	1.9466e-06	
1360.000000	0.015075  	1360.000000	0.0161424 	1360.000000	0.016089  	1360.000000	0.0160359 	1360.000000	0.0161405 	1360.000000	1.91989e-06	
1380.000000	0.0150518 	1380.000000	0.0161178 	1380.000000	0.0160623 	1380.000000	0.0160094 	1380.000000	0.0161159 	1380.000000	1.89392e-06	
1400.000000	0.0150302 	1400.000000	0.0160947 	1400.000000	0.0160367 	1400.000000	0.015984  	1400.000000	0.0160928 	1400.000000	1.86867e-06	
1420.000000	0.0150102 	1420.000000	0.016073  	1420.000000	0.0160124 	1420.000000	0.0159599 	1420.000000	0.0160712 	1420.000000	1.8441e-06	
1440.000000	0.0149917 	1440.000000	0.0160527 	1440.000000	0.0159892 	1440.000000	0.015937  	1440.000000	0.0160509 	1440.000000	1.82019e-06	
1460.000000	0.0149746 	1460.000000	0.0160337 	1460.000000	0.0159671 	1460.000000	0.0159151 	1460.000000	0.0160319 	1460.000000	1.79692e-06	
1480.000000	0.014959  	1480.000000	0.0160159 	1480.000000	0.0159461 	1480.000000	0.0158943 	1480.000000	0.0160141 	1480.000000	1.77425e-06	
1500.000000	0.0149446 	1500.000000	0.0159994 	1500.000000	0.0159261 	1500.000000	0.0158745 	1500.000000	0.0159976 	1500.000000	1.75216e-06	
1520.000000	0.0149315 	1520.000000	0.015984  	1520.000000	0.0159071 	1520.000000	0.0158557 	1520.000000	0.0159823 	1520.000000	1.73064e-06	
1540.000000	0.0149197 	1540.000000	0.0159698 	1540.000000	0.015889  	1540.000000	0.0158378 	1540.000000	0.015968  	1540.000000	1.70965e-06	
1560.000000	0.0149091 	1560.000000	0.0159566 	1560.000000	0.0158718 	1560.000000	0.0158207 	1560.000000	0.0159549 	1560.000000	1.68919e-06	
1580.000000	0.0148996 	1580.000000	0.0159445 	1580.000000	0.0158556 	1580.000000	0.0158045 	1580.000000	0.0159428 	1580.000000	1.66922e-06	
1600.000000	0.0148912 	1600.000000	0.0159333 	1600.000000	0.0158401 	1600.000000	0.0157891 	1600.000000	0.0159317 	1600.000000	1.64973e-06	
1620.000000	0.0148839 	1620.000000	0.0159231 	1620.000000	0.0158255 	1620.000000	0.0157745 	1620.000000	0.0159215 	1620.000000	1.63071e-06	
1640.000000	0.0148777 	1640.000000	0.0159139 	1640.000000	0.0158117 	1640.000000	0.0157606 	1640.000000	0.0159123 	1640.000000	1.61214e-06	
1660.000000	0.0148725 	1660.000000	0.0159056 	1660.000000	0.0157985 	1660.000000	0.0157474 	1660.000000	0.015904  	1660.000000	1.594e-06 	
1680.000000	0.0148682 	1680.000000	0.0158981 	1680.000000	0.0157861 	1680.000000	0.0157349 	1680.000000	0.0158965 	1680.000000	1.57627e-06	
1700.000000	0.0148649 	1700.000000	0.0158914 	1700.000000	0.0157743 	1700.000000	0.015723  	1700.000000	0.0158899 	1700.000000	1.55895e-06	
1750.000000	0.0148605 	1750.000000	0.0158783 	1750.000000	0.0157475 	1750.000000	0.0156961 	1750.000000	0.0158767 	1750.000000	1.51731e-06	
1800.000000	0.0148614 	1800.000000	0.0158697 	1800.000000	0.0157242 	1800.000000	0.0156727 	1800.000000	0.0158682 	1800.000000	1.47791e-06	
1850.000000	0.0148672 	1850.000000	0.0158654 	1850.000000	0.0157039 	1850.000000	0.0156525 	1850.000000	0.015864  	1850.000000	1.44057e-06	
1900.000000	0.0148775 	1900.000000	0.015865  	1900.000000	0.0156864 	1900.000000	0.0156351 	1900.000000	0.0158636 	1900.000000	1.40512e-06	
1950.000000	0.014892  	1950.000000	0.0158682 	1950.000000	0.0156714 	1950.000000	0.0156205 	1950.000000	0.0158668 	1950.000000	1.37143e-06	
2000.000000	0.0149105 	2000.000000	0.0158748 	2000.000000	0.0156589 	2000.000000	0.0156082 	2000.000000	0.0158734 	2000.000000	1.33937e-06	
2100.000000	0.0149582 	2100.000000	0.0158969 	2100.000000	0.0156402 	2100.000000	0.01559   	2100.000000	0.0158957 	2100.000000	1.27967e-06	
2200.000000	0.0150189 	2200.000000	0.0159299 	2200.000000	0.0156289 	2200.000000	0.0155792 	2200.000000	0.0159286 	2200.000000	1.22521e-06	
2300.000000	0.0150911 	2300.000000	0.0159721 	2300.000000	0.0156239 	2300.000000	0.0155744 	2300.000000	0.0159709 	2300.000000	1.17533e-06	
2400.000000	0.0151734 	2400.000000	0.0160225 	2400.000000	0.0156242 	2400.000000	0.0155749 	2400.000000	0.0160214 	2400.000000	1.12947e-06	
2500.000000	0.0152649 	2500.000000	0.0160801 	2500.000000	0.0156291 	2500.000000	0.0155796 	2500.000000	0.016079  	2500.000000	1.08716e-06	
2600.000000	0.0153647 	2600.000000	0.016144  	2600.000000	0.0156377 	2600.000000	0.0155881 	2600.000000	0.016143  	2600.000000	1.04799e-06	
2700.000000	0.0154719 	2700.000000	0.0162135 	2700.000000	0.0156494 	2700.000000	0.0155996 	2700.000000	0.0162125 	2700.000000	1.01163e-06	
2800.000000	0.0155859 	2800.000000	0.0162881 	2800.000000	0.0156637 	2800.000000	0.0156139 	2800.000000	0.0162871 	2800.000000	9.77783e-07	
2900.000000	0.0157062 	2900.000000	0.0163672 	2900.000000	0.0156801 	2900.000000	0.0156303 	2900.000000	0.0163662 	2900.000000	9.4619e-07	
3000.000000	0.0158322 	3000.000000	0.0164503 	3000.000000	0.0156985 	3000.000000	0.0156487 	3000.000000	0.0164493 	3000.000000	9.16634e-07	
3200.000000	0.0160996 	3200.000000	0.016627  	3200.000000	0.0157396 	3200.000000	0.01569   	3200.000000	0.0166261 	3200.000000	8.62884e-07	
3400.000000	0.0163852 	3400.000000	0.0168157 	3400.000000	0.0157853 	3400.000000	0.0157361 	3400.000000	0.0168149 	3400.000000	8.15256e-07	
3600.000000	0.0166868 	3600.000000	0.0170143 	3600.000000	0.0158345 	3600.000000	0.0157855 	3600.000000	0.0170135 	3600.000000	7.72751e-07	
3800.000000	0.0170025 	3800.000000	0.0172211 	3800.000000	0.0158859 	3800.000000	0.0158372 	3800.000000	0.0172204 	3800.000000	7.34577e-07	
4000.000000	0.0173309 	4000.000000	0.0174349 	4000.000000	0.015939  	4000.000000	0.0158905 	4000.000000	0.0174342 	4000.000000	7.00099e-07	
4200.000000	0.0176706 	4200.000000	0.0176547 	4200.000000	0.0159932 	4200.000000	0.0159447 	4200.000000	0.017654  	4200.000000	6.68799e-07	
4400.000000	0.0180208 	4400.000000	0.0178795 	4400.000000	0.0160478 	4400.000000	0.0159995 	4400.000000	0.0178789 	4400.000000	6.40255e-07	
4600.000000	0.0183806 	4600.000000	0.0181087 	4600.000000	0.0161027 	4600.000000	0.0160545 	4600.000000	0.018108  	4600.000000	6.14114e-07	
4800.000000	0.0187492 	4800.000000	0.0183416 	4800.000000	0.0161576 	4800.000000	0.0161094 	4800.000000	0.018341  	4800.000000	5.90082e-07	
5000.000000	0.0191262 	5000.000000	0.0185778 	5000.000000	0.0162122 	5000.000000	0.0161641 	5000.000000	0.0185772 	5000.000000	5.67912e-07	
5250.000000	0.0196083 	5250.000000	0.018877  	5250.000000	0.0162798 	5250.000000	0.0162319 	5250.000000	0.0188764 	5250.000000	5.42499e-07	
5500.000000	0.0201019 	5500.000000	0.01918   	5500.000000	0.0163467 	5500.000000	0.0162988 	5500.000000	0.0191794 	5500.000000	5.19325e-07	
6000.000000	0.0211206 	6000.000000	0.0197951 	6000.000000	0.0164772 	6000.000000	0.0164295 	6000.000000	0.0197947 	6000.000000	4.78593e-07	
6500.000000	0.0221779 	6500.000000	0.0204198 	6500.000000	0.0166032 	6500.000000	0.0165555 	6500.000000	0.0204194 	6500.000000	4.4394e-07	
7000.000000	0.0232709 	7000.000000	0.0210517 	7000.000000	0.0167241 	7000.000000	0.0166766 	7000.000000	0.0210512 	7000.000000	4.14088e-07	
7500.000000	0.0243972 	7500.000000	0.0216888 	7500.000000	0.0168402 	7500.000000	0.0167927 	7500.000000	0.0216884 	7500.000000	3.88096e-07	
8000.000000	0.0255552 	8000.000000	0.02233   	8000.000000	0.0169516 	8000.000000	0.016904  	8000.000000	0.0223296 	8000.000000	3.65256e-07	
8500.000000	0.0267435 	8500.000000	0.0229743 	8500.000000	0.017058  	8500.000000	0.0170107 	8500.000000	0.0229739 	8500.000000	3.45023e-07	
9000.000000	0.0279611 	9000.000000	0.0236208 	9000.000000	0.0171596 	9000.000000	0.017113  	9000.000000	0.0236205 	9000.000000	3.26969e-07	
9500.000000	0.0292072 	9500.000000	0.0242691 	9500.000000	0.0172573 	9500.000000	0.0172112 	9500.000000	0.0242688 	9500.000000	3.10759e-07	
10000.000000	0.0304812 	10000.000000	0.0249187 	10000.000000	0.0173515 	10000.000000	0.0173055 	10000.000000	0.0249185 	10000.000000	2.96122e-07	
11000.000000	0.0331107 	11000.000000	0.0262205 	11000.000000	0.0175293 	11000.000000	0.0174832 	11000.000000	0.0262202 	11000.000000	2.70722e-07	
12000.000000	0.0358466 	12000.000000	0.0275239 	12000.000000	0.0176939 	12000.000000	0.0176481 	12000.000000	0.0275237 	12000.000000	2.49435e-07	
13000.000000	0.0386869 	13000.000000	0.0288278 	13000.000000	0.0178468 	13000.000000	0.0178016 	13000.000000	0.0288275 	13000.000000	2.31328e-07	
14000.000000	0.0416301 	14000.000000	0.0301311 	14000.000000	0.0179895 	14000.000000	0.0179451 	14000.000000	0.0301309 	14000.000000	2.15734e-07	
15000.000000	0.0446753 	15000.000000	0.0314334 	15000.000000	0.0181233 	15000.000000	0.0180796 	15000.000000	0.0314332 	15000.000000	2.02159e-07	
16000.000000	0.047822  	16000.000000	0.0327342 	16000.000000	0.0182493 	16000.000000	0.0182062 	16000.000000	0.032734  	16000.000000	1.90232e-07	
17000.000000	0.0510698 	17000.000000	0.0340333 	17000.000000	0.0183683 	17000.000000	0.0183257 	17000.000000	0.0340331 	17000.000000	1.79668e-07	
18000.000000	0.0544185 	18000.000000	0.0353304 	18000.000000	0.0184811 	18000.000000	0.0184388 	18000.000000	0.0353303 	18000.000000	1.70243e-07	
19000.000000	0.0578682 	19000.000000	0.0366255 	19000.000000	0.0185882 	19000.000000	0.0185461 	19000.000000	0.0366254 	19000.000000	1.61783e-07	
20000.000000	0.0614187 	20000.000000	0.0379186 	20000.000000	0.0186901 	20000.000000	0.0186481 	20000.000000	0.0379184 	20000.000000	1.54144e-07	
21000.000000	0.0650704 	21000.000000	0.0392095 	21000.000000	0.0187871 	21000.000000	0.0187453 	21000.000000	0.0392093 	21000.000000	1.47211e-07	
22000.000000	0.0688233 	22000.000000	0.0404983 	22000.000000	0.0188791 	22000.000000	0.0188382 	22000.000000	0.0404981 	22000.000000	1.40891e-07	
23000.000000	0.0726779 	23000.000000	0.0417849 	23000.000000	0.0189671 	23000.000000	0.018927  	23000.000000	0.0417848 	23000.000000	1.35104e-07	
24000.000000	0.0766343 	24000.000000	0.0430694 	24000.000000	0.0190516 	24000.000000	0.0190122 	24000.000000	0.0430693 	24000.000000	1.29786e-07	
25000.000000	0.0806929 	25000.000000	0.0443519 	25000.000000	0.0191328 	25000.000000	0.0190939 	25000.000000	0.0443518 	25000.000000	1.24881e-07	
26000.000000	0.0848541 	26000.000000	0.0456323 	26000.000000	0.0192106 	26000.000000	0.0191725 	26000.000000	0.0456322 	26000.000000	1.20343e-07	
27000.000000	0.0891183 	27000.000000	0.0469107 	27000.000000	0.0192852 	27000.000000	0.0192482 	27000.000000	0.0469105 	27000.000000	1.16131e-07	
28000.000000	0.0934859 	28000.000000	0.048187  	28000.000000	0.0193572 	28000.000000	0.0193211 	28000.000000	0.0481869 	28000.000000	1.12212e-07	
29000.000000	0.0979574 	29000.000000	0.0494615 	29000.000000	0.0194267 	29000.000000	0.0193915 	29000.000000	0.0494614 	29000.000000	1.08555e-07	
30000.000000	0.102533  	30000.000000	0.050734  	30000.000000	0.0194939 	30000.000000	0.0194595 	30000.000000	0.0507339 	30000.000000	1.05135e-07	
32000.000000	0.112     	32000.000000	0.0532736 	32000.000000	0.0196218 	32000.000000	0.0195889 	32000.000000	0.0532735 	32000.000000	9.89176e-08	
34000.000000	0.12189   	34000.000000	0.055806  	34000.000000	0.0197415 	34000.000000	0.0197105 	34000.000000	0.0558059 	34000.000000	9.34119e-08	
36000.000000	0.132207  	36000.000000	0.0583316 	36000.000000	0.0198541 	36000.000000	0.0198252 	36000.000000	0.0583315 	36000.000000	8.8501e-08	
38000.000000	0.142955  	38000.000000	0.0608507 	38000.000000	0.0199604 	38000.000000	0.0199335 	38000.000000	0.0608506 	38000.000000	8.40928e-08	
40000.000000	0.15414   	40000.000000	0.0633636 	40000.000000	0.0200611 	40000.000000	0.0200363 	40000.000000	0.0633635 	40000.000000	8.01132e-08	
42000.000000	0.165765  	42000.000000	0.0658705 	42000.000000	0.0201566 	42000.000000	0.020134  	42000.000000	0.0658704 	42000.000000	7.65022e-08	
44000.000000	0.177835  	44000.000000	0.0683717 	44000.000000	0.0202475 	44000.000000	0.020227  	44000.000000	0.0683716 	44000.000000	7.32104e-08	
46000.000000	0.190355  	46000.000000	0.0708674 	46000.000000	0.0203342 	46000.000000	0.0203159 	46000.000000	0.0708673 	46000.000000	7.01969e-08	
48000.000000	0.203329  	48000.000000	0.0733578 	48000.000000	0.020417  	48000.000000	0.020401  	48000.000000	0.0733578 	48000.000000	6.74277e-08	
50000.000000	0.216762  	50000.000000	0.0758432 	50000.000000	0.0204961 	50000.000000	0.0204825 	50000.000000	0.0758432 	50000.000000	6.48739e-08	
