Energy (MeV/u)1	0 - [He-base] F.Hubert et al, AD&ND Tables 46(1990)1	Energy (MeV/u)2	1 - [H -base] J.F.Ziegler et al, Pergamon Press, NY (low energy)	Energy (MeV/u)3	2 - ATIMA 1.2  LS-theory (recommended for high energy)	Energy (MeV/u)4	3 - ATIMA 1.2  without LS-correction	Energy (MeV/u)5	4 - electrical component of [1] - J.F.Ziegler et al	Energy (MeV/u)6	5 - nuclear component of [1] - J.F.Ziegler et al	
0.001000	10.2441   	0.001000	3.01092   	0.001000	2.75952   	0.001000	2.75952   	0.001000	0.675296  	0.001000	2.33562   	
0.002000	10.4857   	0.002000	3.33036   	0.002000	2.99447   	0.002000	2.99447   	0.002000	0.935359  	0.002000	2.395     	
0.005000	10.5283   	0.005000	3.61621   	0.005000	3.12518   	0.005000	3.12518   	0.005000	1.43883   	0.005000	2.17737   	
0.008000	10.6831   	0.008000	3.73921   	0.008000	3.14357   	0.008000	3.14357   	0.008000	1.79451   	0.008000	1.94469   	
0.010000	10.8388   	0.010000	3.80755   	0.010000	3.15499   	0.010000	3.15499   	0.010000	1.99294   	0.010000	1.81461   	
0.015000	11.3049   	0.015000	3.97228   	0.015000	3.20255   	0.015000	3.20255   	0.015000	2.41133   	0.015000	1.56095   	
0.020000	11.8041   	0.020000	4.13777   	0.020000	3.27288   	0.020000	3.27288   	0.020000	2.76044   	0.020000	1.37733   	
0.025000	12.2996   	0.025000	4.30352   	0.025000	3.35713   	0.025000	3.35713   	0.025000	3.06567   	0.025000	1.23785   	
0.030000	12.7795   	0.030000	4.46776   	0.030000	3.44935   	0.030000	3.44935   	0.030000	3.33996   	0.030000	1.1278    	
0.035000	13.2406   	0.035000	4.62932   	0.035000	3.54596   	0.035000	3.54596   	0.035000	3.59092   	0.035000	1.0384    	
0.040000	13.6982   	0.040000	4.7876    	0.040000	3.64478   	0.040000	3.64478   	0.040000	3.82351   	0.040000	0.96409   	
0.045000	14.2856   	0.045000	4.94232   	0.045000	3.74448   	0.045000	3.74448   	0.045000	4.04114   	0.045000	0.901181  	
0.050000	14.7588   	0.050000	5.10408   	0.050000	3.86423   	0.050000	3.86423   	0.050000	4.25696   	0.050000	0.847115  	
0.055000	15.5534   	0.055000	5.32852   	0.055000	4.13086   	0.055000	4.13086   	0.055000	4.52845   	0.055000	0.800065  	
0.060000	16.2845   	0.060000	5.5528    	0.060000	4.41752   	0.060000	4.41752   	0.060000	4.79411   	0.060000	0.758684  	
0.070000	17.5447   	0.070000	5.9802    	0.070000	4.99144   	0.070000	4.99144   	0.070000	5.29109   	0.070000	0.689105  	
0.080000	18.9362   	0.080000	6.37954   	0.080000	5.55464   	0.080000	5.55464   	0.080000	5.74683   	0.080000	0.632703  	
0.090000	20.1623   	0.090000	6.75198   	0.090000	6.09785   	0.090000	6.09785   	0.090000	6.16607   	0.090000	0.585913  	
0.100000	21.2556   	0.100000	7.0992    	0.100000	6.61589   	0.100000	6.61589   	0.100000	6.55282   	0.100000	0.546376  	
0.120000	22.6361   	0.120000	7.72557   	0.120000	7.56847   	0.120000	7.56847   	0.120000	7.24258   	0.120000	0.482994  	
0.140000	23.8869   	0.140000	8.27437   	0.140000	8.41059   	0.140000	8.41059   	0.140000	7.84016   	0.140000	0.434204  	
0.160000	25.6131   	0.160000	8.92937   	0.160000	9.15288   	0.160000	9.15288   	0.160000	8.53404   	0.160000	0.39533   	
0.180000	27.241    	0.180000	9.59592   	0.180000	9.80646   	0.180000	9.80646   	0.180000	9.23573   	0.180000	0.360184  	
0.200000	28.8196   	0.200000	10.1934   	0.200000	10.3927   	0.200000	10.3927   	0.200000	9.85948   	0.200000	0.333927  	
0.250000	31.6357   	0.250000	11.4479   	0.250000	11.6259   	0.250000	11.6259   	0.250000	11.1642   	0.250000	0.28368   	
0.300000	34.1788   	0.300000	12.468    	0.300000	12.6322   	0.300000	12.6322   	0.300000	12.2204   	0.300000	0.24766   	
0.350000	36.5738   	0.350000	13.3706   	0.350000	13.4919   	0.350000	13.4919   	0.350000	13.1502   	0.350000	0.220441  	
0.400000	38.731    	0.400000	14.1888   	0.400000	14.2485   	0.400000	14.2485   	0.400000	13.9897   	0.400000	0.199071  	
0.450000	40.6202   	0.450000	14.9146   	0.450000	14.9264   	0.450000	14.9264   	0.450000	14.7328   	0.450000	0.181802  	
0.500000	42.2692   	0.500000	15.5662   	0.500000	15.5403   	0.500000	15.5403   	0.500000	15.3986   	0.500000	0.167526  	
0.600000	43.4606   	0.600000	16.6918   	0.600000	16.9423   	0.600000	16.9423   	0.600000	16.5465   	0.600000	0.145236  	
0.700000	44.3127   	0.700000	17.8074   	0.700000	18.1261   	0.700000	18.1261   	0.700000	17.6788   	0.700000	0.128568  	
0.800000	46.2843   	0.800000	18.7766   	0.800000	19.1023   	0.800000	19.1023   	0.800000	18.661    	0.800000	0.11559   	
0.900000	47.808    	0.900000	19.5862   	0.900000	19.9144   	0.900000	19.9144   	0.900000	19.4811   	0.900000	0.105171  	
1.000000	48.9836   	1.000000	20.2671   	1.000000	20.5941   	1.000000	20.5941   	1.000000	20.1705   	1.000000	0.0966063 	
1.250000	50.3853   	1.250000	21.4026   	1.250000	21.8603   	1.250000	21.8603   	1.250000	21.322    	1.250000	0.0805927 	
1.500000	50.7625   	1.500000	22.0859   	1.500000	22.6924   	1.500000	22.6924   	1.500000	22.0165   	1.500000	0.0694127 	
1.750000	50.6826   	1.750000	22.5469   	1.750000	23.2372   	1.750000	23.2372   	1.750000	22.4858   	1.750000	0.0611288 	
2.000000	50.2757   	2.000000	22.8312   	2.000000	23.5843   	2.000000	23.5843   	2.000000	22.7765   	2.000000	0.0547248 	
2.250000	49.7579   	2.250000	22.9916   	2.250000	23.7915   	2.250000	23.7915   	2.250000	22.942    	2.250000	0.0496142 	
2.500000	67.1166   	2.500000	23.0787   	2.500000	23.8974   	2.500000	23.8974   	2.500000	23.0332   	2.500000	0.0454336 	
3.000000	64.2779   	3.000000	23.0979   	3.000000	23.9041   	3.000000	23.9041   	3.000000	23.0589   	3.000000	0.0389874 	
3.500000	61.4355   	3.500000	22.9902   	3.500000	23.6421   	3.500000	23.6421   	3.500000	22.956    	3.500000	0.0342339 	
4.000000	58.7252   	4.000000	22.7968   	4.000000	23.2835   	4.000000	23.2835   	4.000000	22.7662   	4.000000	0.0305732 	
4.500000	56.1934   	4.500000	22.5406   	4.500000	22.9047   	4.500000	22.9047   	4.500000	22.5129   	4.500000	0.0276611 	
5.000000	53.8491   	5.000000	22.2508   	5.000000	22.5172   	5.000000	22.5172   	5.000000	22.2255   	5.000000	0.0252855 	
5.500000	51.6855   	5.500000	21.939    	5.500000	22.1282   	5.500000	22.1282   	5.500000	21.9157   	5.500000	0.0233079 	
6.000000	49.6897   	6.000000	21.6102   	6.000000	21.7423   	6.000000	21.7423   	6.000000	21.5886   	6.000000	0.0216343 	
6.500000	47.8471   	6.500000	21.2825   	6.500000	21.3624   	6.500000	21.3624   	6.500000	21.2623   	6.500000	0.0201983 	
7.000000	46.143    	7.000000	20.9579   	7.000000	20.9905   	7.000000	20.9905   	7.000000	20.9389   	7.000000	0.0189517 	
7.500000	44.5638   	7.500000	20.6387   	7.500000	20.6277   	7.500000	20.6277   	7.500000	20.6209   	7.500000	0.0178587 	
8.000000	43.0971   	8.000000	20.3246   	8.000000	20.2747   	8.000000	20.2747   	8.000000	20.3077   	8.000000	0.016892  	
8.500000	41.7317   	8.500000	20.0161   	8.500000	19.9317   	8.500000	19.9317   	8.500000	20        	8.500000	0.0160305 	
9.000000	40.4578   	9.000000	19.7138   	9.000000	19.599    	9.000000	19.599    	9.000000	19.6985   	9.000000	0.0152576 	
9.500000	39.2666   	9.500000	19.4182   	9.500000	19.2764   	9.500000	19.2764   	9.500000	19.4037   	9.500000	0.01456   	
10.000000	38.1504   	10.000000	19.2564   	10.000000	18.9637   	10.000000	18.9637   	10.000000	19.2425   	10.000000	0.0139271 	
11.000000	36.1161   	11.000000	18.816    	11.000000	18.3993   	11.000000	18.6878   	11.000000	18.8032   	11.000000	0.0128215 	
12.000000	34.309    	12.000000	18.3563   	12.000000	17.857    	12.000000	18.381    	12.000000	18.3444   	12.000000	0.0118874 	
13.000000	32.6926   	13.000000	17.8926   	13.000000	17.3411   	13.000000	18.0582   	13.000000	17.8816   	13.000000	0.0110871 	
14.000000	31.2378   	14.000000	17.4344   	14.000000	16.8514   	14.000000	17.7272   	14.000000	17.424    	14.000000	0.0103932 	
15.000000	29.921    	15.000000	16.9871   	15.000000	16.3864   	15.000000	17.3936   	15.000000	16.9773   	15.000000	0.00978556	
16.000000	28.7231   	16.000000	16.5539   	16.000000	15.9457   	16.000000	17.0611   	16.000000	16.5446   	16.000000	0.0092487 	
17.000000	27.6283   	17.000000	16.1365   	17.000000	15.528    	17.000000	16.7326   	17.000000	16.1277   	17.000000	0.00877073	
18.000000	26.6237   	18.000000	15.7357   	18.000000	15.132    	18.000000	16.4099   	18.000000	15.7274   	18.000000	0.00834231	
19.000000	25.6982   	19.000000	15.3517   	19.000000	14.7563   	19.000000	16.0943   	19.000000	15.3438   	19.000000	0.00795597	
20.000000	24.8427   	20.000000	14.9843   	20.000000	14.3996   	20.000000	15.7864   	20.000000	14.9766   	20.000000	0.00760569	
21.000000	24.0492   	21.000000	14.6328   	21.000000	14.0492   	21.000000	15.4754   	21.000000	14.6256   	21.000000	0.00728656	
22.000000	23.3112   	22.000000	14.2969   	22.000000	13.7149   	22.000000	15.1725   	22.000000	14.2899   	22.000000	0.00699453	
23.000000	22.6228   	23.000000	13.9758   	23.000000	13.4087   	23.000000	14.8911   	23.000000	13.9691   	23.000000	0.00672623	
24.000000	21.9791   	24.000000	13.6688   	24.000000	13.1181   	24.000000	14.6187   	24.000000	13.6623   	24.000000	0.00647883	
25.000000	21.3758   	25.000000	13.3752   	25.000000	12.8417   	25.000000	14.3553   	25.000000	13.3689   	25.000000	0.00624993	
27.000000	20.2756   	27.000000	12.8253   	27.000000	12.3262   	27.000000	13.8543   	27.000000	12.8195   	27.000000	0.00583979	
29.000000	19.2971   	29.000000	12.3208   	29.000000	11.8574   	29.000000	13.3862   	29.000000	12.3153   	29.000000	0.0054827 	
31.000000	18.4208   	31.000000	11.8568   	31.000000	11.4311   	31.000000	12.8763   	31.000000	11.8517   	31.000000	0.00516884	
33.000000	17.6311   	33.000000	11.429    	33.000000	11.0391   	33.000000	12.3426   	33.000000	11.4241   	33.000000	0.00489068	
35.000000	16.9154   	35.000000	11.0335   	35.000000	10.6774   	35.000000	11.8572   	35.000000	11.0288   	35.000000	0.00464237	
38.000000	15.9589   	38.000000	10.4935   	38.000000	10.1839   	38.000000	11.2061   	38.000000	10.4892   	38.000000	0.00431596	
41.000000	15.1194   	41.000000	10.0092   	41.000000	9.74023   	41.000000	10.6321   	41.000000	10.0051   	41.000000	0.0040345 	
44.000000	14.3762   	44.000000	9.57239   	44.000000	9.3403    	44.000000	10.122    	44.000000	9.5686    	44.000000	0.00378916	
47.000000	13.7132   	47.000000	9.17668   	47.000000	8.97839   	47.000000	9.66542   	47.000000	9.17311   	47.000000	0.0035733 	
50.000000	13.1178   	50.000000	8.81659   	50.000000	8.64765   	50.000000	9.25418   	50.000000	8.81321   	50.000000	0.00338183	
55.000000	12.2493   	55.000000	8.28359   	55.000000	8.15633   	55.000000	8.65233   	55.000000	8.28049   	55.000000	0.0031065 	
60.000000	11.5059   	60.000000	7.82041   	60.000000	7.72639   	60.000000	8.13543   	60.000000	7.81754   	60.000000	0.0028745 	
65.000000	10.8617   	65.000000	7.41428   	65.000000	7.34868   	65.000000	7.68647   	65.000000	7.4116    	65.000000	0.0026762 	
70.000000	10.2978   	70.000000	7.05533   	70.000000	7.01342   	70.000000	7.29277   	70.000000	7.05282   	70.000000	0.00250466	
75.000000	9.79971   	75.000000	6.73583   	75.000000	6.71301   	75.000000	6.94462   	75.000000	6.73348   	75.000000	0.00235472	
80.000000	9.35629   	80.000000	6.44966   	80.000000	6.44358   	80.000000	6.63451   	80.000000	6.44744   	80.000000	0.0022225 	
85.000000	8.95881   	85.000000	6.19188   	85.000000	6.19983   	85.000000	6.35648   	85.000000	6.18978   	85.000000	0.00210498	
90.000000	8.60033   	90.000000	5.95849   	90.000000	5.97809   	90.000000	6.10578   	90.000000	5.95649   	90.000000	0.00199981	
95.000000	8.27524   	95.000000	5.74619   	95.000000	5.77544   	95.000000	5.87854   	95.000000	5.74428   	95.000000	0.0019051 	
100.000000	7.979     	100.000000	5.55226   	100.000000	5.58946   	100.000000	5.67162   	100.000000	5.55044   	100.000000	0.00181935	
105.000000	7.70782   	105.000000	5.37442   	105.000000	5.41895   	105.000000	5.4824    	105.000000	5.37268   	105.000000	0.00174132	
110.000000	7.45858   	110.000000	5.21077   	110.000000	5.26132   	110.000000	5.30869   	110.000000	5.2091    	110.000000	0.00167001	
115.000000	7.22867   	115.000000	5.05967   	115.000000	5.11565   	115.000000	5.14866   	115.000000	5.05806   	115.000000	0.00160456	
120.000000	7.01586   	120.000000	4.91974   	120.000000	4.9805    	120.000000	5.00076   	120.000000	4.91819   	120.000000	0.00154427	
125.000000	6.81826   	125.000000	4.78979   	125.000000	4.85429   	125.000000	4.86365   	125.000000	4.7883    	125.000000	0.00148855	
130.000000	6.63427   	130.000000	4.66879   	130.000000	4.73637   	130.000000	4.7362    	130.000000	4.66736   	130.000000	0.00143689	
135.000000	6.46249   	135.000000	4.55587   	135.000000	4.62637   	135.000000	4.61742   	135.000000	4.55448   	135.000000	0.00138885	
140.000000	6.3017    	140.000000	4.45022   	140.000000	4.5231    	140.000000	4.50646   	140.000000	4.44888   	140.000000	0.00134407	
145.000000	6.15087   	145.000000	4.35119   	145.000000	4.42598   	145.000000	4.40257   	145.000000	4.34989   	145.000000	0.0013022 	
150.000000	6.00907   	150.000000	4.25817   	150.000000	4.33481   	150.000000	4.3051    	150.000000	4.2569    	150.000000	0.00126298	
155.000000	5.8069    	155.000000	4.17063   	155.000000	4.24904   	155.000000	4.21348   	155.000000	4.1694    	155.000000	0.00122616	
160.000000	5.68965   	160.000000	4.0881    	160.000000	4.16805   	160.000000	4.1272    	160.000000	4.08691   	160.000000	0.00119152	
165.000000	5.57888   	165.000000	4.01017   	165.000000	4.09127   	165.000000	4.0458    	165.000000	4.00901   	165.000000	0.00115887	
170.000000	5.47408   	170.000000	3.93647   	170.000000	4.01828   	170.000000	3.96889   	170.000000	3.93534   	170.000000	0.00112804	
175.000000	5.37477   	175.000000	3.86666   	175.000000	3.94908   	175.000000	3.8961    	175.000000	3.86556   	175.000000	0.00109888	
180.000000	5.28052   	180.000000	3.80045   	180.000000	3.88376   	180.000000	3.82713   	180.000000	3.79938   	180.000000	0.00107125	
185.000000	5.19094   	185.000000	3.73757   	185.000000	3.82172   	185.000000	3.76167   	185.000000	3.73652   	185.000000	0.00104505	
190.000000	5.1057    	190.000000	3.67776   	190.000000	3.76245   	190.000000	3.69947   	190.000000	3.67674   	190.000000	0.00102015	
195.000000	5.02449   	195.000000	3.62083   	195.000000	3.70579   	195.000000	3.64029   	195.000000	3.61983   	195.000000	0.000996456	
200.000000	4.94701   	200.000000	3.56656   	200.000000	3.65166   	200.000000	3.58392   	200.000000	3.56558   	200.000000	0.00097389	
210.000000	4.8023    	210.000000	3.4653    	210.000000	3.55068   	210.000000	3.47887   	210.000000	3.46437   	210.000000	0.000931819	
220.000000	4.66978   	220.000000	3.37274   	220.000000	3.45836   	220.000000	3.38295   	220.000000	3.37184   	220.000000	0.000893382	
230.000000	4.54797   	230.000000	3.2878    	230.000000	3.3737    	230.000000	3.29505   	230.000000	3.28694   	230.000000	0.00085812	
240.000000	4.43561   	240.000000	3.20958   	240.000000	3.2954    	240.000000	3.21422   	240.000000	3.20876   	240.000000	0.000825651	
250.000000	4.33163   	250.000000	3.13735   	250.000000	3.22295   	250.000000	3.13964   	250.000000	3.13655   	250.000000	0.00079565	
260.000000	4.23514   	260.000000	3.07043   	260.000000	3.15588   	260.000000	3.07065   	260.000000	3.06966   	260.000000	0.000767843	
270.000000	4.14535   	270.000000	3.00827   	270.000000	3.09362   	270.000000	3.00664   	270.000000	3.00753   	270.000000	0.000741995	
280.000000	4.06159   	280.000000	2.9504    	280.000000	3.03565   	280.000000	2.94712   	280.000000	2.94968   	280.000000	0.000717902	
290.000000	3.98328   	290.000000	2.89638   	290.000000	2.9813    	290.000000	2.89163   	290.000000	2.89569   	290.000000	0.000695388	
300.000000	3.90989   	300.000000	2.84586   	300.000000	2.9304    	300.000000	2.83979   	300.000000	2.84519   	300.000000	0.000674303	
310.000000	3.84099   	310.000000	2.79852   	310.000000	2.8828    	310.000000	2.79126   	310.000000	2.79786   	310.000000	0.000654511	
320.000000	3.77617   	320.000000	2.75406   	320.000000	2.83812   	320.000000	2.74576   	320.000000	2.75342   	320.000000	0.000635896	
330.000000	3.7151    	330.000000	2.71224   	330.000000	2.79589   	330.000000	2.703     	330.000000	2.71162   	330.000000	0.000618354	
340.000000	3.65745   	340.000000	2.67284   	340.000000	2.75611   	340.000000	2.66277   	340.000000	2.67224   	340.000000	0.000601794	
350.000000	3.60296   	350.000000	2.63566   	350.000000	2.71882   	350.000000	2.62485   	350.000000	2.63507   	350.000000	0.000586134	
360.000000	3.55137   	360.000000	2.60052   	360.000000	2.68352   	360.000000	2.58906   	360.000000	2.59994   	360.000000	0.000571303	
370.000000	3.50247   	370.000000	2.56726   	370.000000	2.64997   	370.000000	2.55523   	370.000000	2.5667    	370.000000	0.000557234	
380.000000	3.45605   	380.000000	2.53574   	380.000000	2.61821   	380.000000	2.52322   	380.000000	2.5352    	380.000000	0.000543871	
390.000000	3.41194   	390.000000	2.50584   	390.000000	2.58813   	390.000000	2.49288   	390.000000	2.50531   	390.000000	0.000531159	
400.000000	3.36997   	400.000000	2.47744   	400.000000	2.55958   	400.000000	2.4641    	400.000000	2.47692   	400.000000	0.000519053	
410.000000	3.32999   	410.000000	2.45042   	410.000000	2.53244   	410.000000	2.43676   	410.000000	2.44991   	410.000000	0.000507509	
420.000000	3.29188   	420.000000	2.4247    	420.000000	2.50662   	420.000000	2.41077   	420.000000	2.42421   	420.000000	0.000496489	
430.000000	3.2555    	430.000000	2.4002    	430.000000	2.48206   	430.000000	2.38604   	430.000000	2.39971   	430.000000	0.000485956	
440.000000	3.22075   	440.000000	2.37682   	440.000000	2.45867   	440.000000	2.36248   	440.000000	2.37634   	440.000000	0.00047588	
450.000000	3.18753   	450.000000	2.3545    	450.000000	2.43634   	450.000000	2.34001   	450.000000	2.35403   	450.000000	0.00046623	
460.000000	3.15574   	460.000000	2.33317   	460.000000	2.41491   	460.000000	2.31857   	460.000000	2.33271   	460.000000	0.00045698	
470.000000	3.12529   	470.000000	2.31277   	470.000000	2.39438   	470.000000	2.2981    	470.000000	2.31232   	470.000000	0.000448105	
480.000000	3.0961    	480.000000	2.29324   	480.000000	2.37488   	480.000000	2.27858   	480.000000	2.2928    	480.000000	0.000439582	
490.000000	3.06812   	490.000000	2.27454   	490.000000	2.35635   	490.000000	2.25996   	490.000000	2.27411   	490.000000	0.000431391	
500.000000	3.04125   	500.000000	2.25661   	500.000000	2.3386    	500.000000	2.24212   	500.000000	2.25619   	500.000000	0.000423512	
520.000000	2.99066   	520.000000	2.22291   	520.000000	2.30507   	520.000000	2.20865   	520.000000	2.2225    	520.000000	0.00040862	
540.000000	2.94387   	540.000000	2.19182   	540.000000	2.27413   	540.000000	2.17785   	540.000000	2.19143   	540.000000	0.000394781	
560.000000	2.90052   	560.000000	2.16307   	560.000000	2.24561   	560.000000	2.14942   	560.000000	2.16269   	560.000000	0.000381885	
580.000000	2.86025   	580.000000	2.13643   	580.000000	2.21921   	580.000000	2.12315   	580.000000	2.13606   	580.000000	0.000369838	
600.000000	2.82279   	600.000000	2.11169   	600.000000	2.19477   	600.000000	2.0988    	600.000000	2.11133   	600.000000	0.000358557	
620.000000	2.78787   	620.000000	2.08868   	620.000000	2.17204   	620.000000	2.0762    	620.000000	2.08833   	620.000000	0.00034797	
640.000000	2.75527   	640.000000	2.06724   	640.000000	2.15075   	640.000000	2.05519   	640.000000	2.0669    	640.000000	0.000338015	
660.000000	2.72479   	660.000000	2.04722   	660.000000	2.13094   	660.000000	2.03563   	660.000000	2.04689   	660.000000	0.000328636	
680.000000	2.69626   	680.000000	2.02851   	680.000000	2.11259   	680.000000	2.01738   	680.000000	2.02819   	680.000000	0.000319784	
700.000000	2.66952   	700.000000	2.011     	700.000000	2.0954    	700.000000	2.00033   	700.000000	2.01069   	700.000000	0.000311415	
720.000000	2.64442   	720.000000	1.99459   	720.000000	2.07921   	720.000000	1.9844    	720.000000	1.99429   	720.000000	0.000303489	
740.000000	2.62084   	740.000000	1.9792    	740.000000	2.06406   	740.000000	1.96947   	740.000000	1.97891   	740.000000	0.000295973	
760.000000	2.59868   	760.000000	1.96474   	760.000000	2.04996   	760.000000	1.95548   	760.000000	1.96446   	760.000000	0.000288834	
780.000000	2.57782   	780.000000	1.95116   	780.000000	2.03674   	780.000000	1.94236   	780.000000	1.95087   	780.000000	0.000282045	
800.000000	2.55817   	800.000000	1.93837   	800.000000	2.02425   	800.000000	1.93003   	800.000000	1.93809   	800.000000	0.000275581	
820.000000	2.53966   	820.000000	1.92633   	820.000000	2.01245   	820.000000	1.91844   	820.000000	1.92606   	820.000000	0.000269417	
840.000000	2.5222    	840.000000	1.91498   	840.000000	2.00134   	840.000000	1.90753   	840.000000	1.91472   	840.000000	0.000263534	
860.000000	2.50572   	860.000000	1.90429   	860.000000	1.99088   	860.000000	1.89727   	860.000000	1.90403   	860.000000	0.000257912	
880.000000	2.49017   	880.000000	1.89419   	880.000000	1.98103   	880.000000	1.88759   	880.000000	1.89394   	880.000000	0.000252535	
900.000000	2.47549   	900.000000	1.88466   	900.000000	1.97174   	900.000000	1.87847   	900.000000	1.88441   	900.000000	0.000247385	
920.000000	2.46161   	920.000000	1.87566   	920.000000	1.96296   	920.000000	1.86986   	920.000000	1.87542   	920.000000	0.00024245	
940.000000	2.4485    	940.000000	1.86716   	940.000000	1.95468   	940.000000	1.86173   	940.000000	1.86692   	940.000000	0.000237715	
960.000000	2.43611   	960.000000	1.85912   	960.000000	1.94684   	960.000000	1.85406   	960.000000	1.85889   	960.000000	0.000233169	
980.000000	2.42439   	980.000000	1.85152   	980.000000	1.93944   	980.000000	1.8468    	980.000000	1.85129   	980.000000	0.000228801	
1000.000000	2.41331   	1000.000000	1.84433   	1000.000000	1.93244   	1000.000000	1.83994   	1000.000000	1.84411   	1000.000000	0.000224599	
1020.000000	2.40284   	1020.000000	1.83753   	1020.000000	1.92581   	1020.000000	1.83346   	1020.000000	1.83731   	1020.000000	0.000220555	
1040.000000	2.39294   	1040.000000	1.8311    	1040.000000	1.91953   	1040.000000	1.82732   	1040.000000	1.83088   	1040.000000	0.000216659	
1060.000000	2.38358   	1060.000000	1.82501   	1060.000000	1.91359   	1060.000000	1.82151   	1060.000000	1.8248    	1060.000000	0.000212904	
1080.000000	2.37473   	1080.000000	1.81925   	1080.000000	1.90796   	1080.000000	1.81601   	1080.000000	1.81904   	1080.000000	0.000209282	
1100.000000	2.36637   	1100.000000	1.8138    	1100.000000	1.90263   	1100.000000	1.8108    	1100.000000	1.8136    	1100.000000	0.000205786	
1120.000000	2.35847   	1120.000000	1.80865   	1120.000000	1.89759   	1120.000000	1.80586   	1120.000000	1.80845   	1120.000000	0.00020241	
1140.000000	2.35101   	1140.000000	1.80377   	1140.000000	1.89281   	1140.000000	1.80119   	1140.000000	1.80357   	1140.000000	0.000199146	
1160.000000	2.34397   	1160.000000	1.79916   	1160.000000	1.88828   	1160.000000	1.79676   	1160.000000	1.79897   	1160.000000	0.000195991	
1180.000000	2.33733   	1180.000000	1.7948    	1180.000000	1.88398   	1180.000000	1.79257   	1180.000000	1.79461   	1180.000000	0.000192937	
1200.000000	2.33106   	1200.000000	1.79068   	1200.000000	1.87988   	1200.000000	1.78859   	1200.000000	1.79049   	1200.000000	0.000189981	
1220.000000	2.32516   	1220.000000	1.78679   	1220.000000	1.87597   	1220.000000	1.78482   	1220.000000	1.7866    	1220.000000	0.000187118	
1240.000000	2.31961   	1240.000000	1.78311   	1240.000000	1.87226   	1240.000000	1.78125   	1240.000000	1.78293   	1240.000000	0.000184343	
1260.000000	2.31438   	1260.000000	1.77964   	1260.000000	1.86873   	1260.000000	1.77787   	1260.000000	1.77946   	1260.000000	0.000181652	
1280.000000	2.30948   	1280.000000	1.77637   	1280.000000	1.86538   	1280.000000	1.77466   	1280.000000	1.77619   	1280.000000	0.000179041	
1300.000000	2.30487   	1300.000000	1.77328   	1300.000000	1.86221   	1300.000000	1.77162   	1300.000000	1.77311   	1300.000000	0.000176508	
1320.000000	2.30056   	1320.000000	1.77038   	1320.000000	1.85922   	1320.000000	1.76874   	1320.000000	1.7702    	1320.000000	0.000174048	
1340.000000	2.29652   	1340.000000	1.76765   	1340.000000	1.85639   	1340.000000	1.76602   	1340.000000	1.76747   	1340.000000	0.000171658	
1360.000000	2.29275   	1360.000000	1.76508   	1360.000000	1.85373   	1360.000000	1.76344   	1360.000000	1.76491   	1360.000000	0.000169336	
1380.000000	2.28924   	1380.000000	1.76267   	1380.000000	1.85121   	1380.000000	1.76099   	1380.000000	1.7625    	1380.000000	0.000167077	
1400.000000	2.28597   	1400.000000	1.76041   	1400.000000	1.84884   	1400.000000	1.75868   	1400.000000	1.76024   	1400.000000	0.000164881	
1420.000000	2.28294   	1420.000000	1.75829   	1420.000000	1.84659   	1420.000000	1.7565    	1420.000000	1.75813   	1420.000000	0.000162744	
1440.000000	2.28013   	1440.000000	1.75631   	1440.000000	1.84446   	1440.000000	1.75443   	1440.000000	1.75615   	1440.000000	0.000160663	
1460.000000	2.27755   	1460.000000	1.75447   	1460.000000	1.84245   	1460.000000	1.75248   	1460.000000	1.75431   	1460.000000	0.000158638	
1480.000000	2.27517   	1480.000000	1.75275   	1480.000000	1.84054   	1480.000000	1.75064   	1480.000000	1.7526    	1480.000000	0.000156664	
1500.000000	2.273     	1500.000000	1.75116   	1500.000000	1.83874   	1500.000000	1.7489    	1500.000000	1.75101   	1500.000000	0.000154741	
1520.000000	2.27102   	1520.000000	1.74969   	1520.000000	1.83704   	1520.000000	1.74726   	1520.000000	1.74953   	1520.000000	0.000152867	
1540.000000	2.26923   	1540.000000	1.74832   	1540.000000	1.83543   	1540.000000	1.74571   	1540.000000	1.74817   	1540.000000	0.000151039	
1560.000000	2.26762   	1560.000000	1.74707   	1560.000000	1.83391   	1560.000000	1.74425   	1560.000000	1.74692   	1560.000000	0.000149255	
1580.000000	2.26618   	1580.000000	1.74592   	1580.000000	1.83247   	1580.000000	1.74289   	1580.000000	1.74577   	1580.000000	0.000147516	
1600.000000	2.26492   	1600.000000	1.74487   	1600.000000	1.83111   	1600.000000	1.7416    	1600.000000	1.74473   	1600.000000	0.000145817	
1620.000000	2.26382   	1620.000000	1.74392   	1620.000000	1.82983   	1620.000000	1.74039   	1620.000000	1.74378   	1620.000000	0.000144159	
1640.000000	2.26287   	1640.000000	1.74307   	1640.000000	1.82863   	1640.000000	1.73926   	1640.000000	1.74293   	1640.000000	0.00014254	
1660.000000	2.26208   	1660.000000	1.7423    	1660.000000	1.8275    	1660.000000	1.73821   	1660.000000	1.74216   	1660.000000	0.000140958	
1680.000000	2.26144   	1680.000000	1.74163   	1680.000000	1.82643   	1680.000000	1.73722   	1680.000000	1.74149   	1680.000000	0.000139412	
1700.000000	2.26094   	1700.000000	1.74103   	1700.000000	1.82544   	1700.000000	1.7363    	1700.000000	1.74089   	1700.000000	0.000137901	
1750.000000	2.26029   	1750.000000	1.7399    	1750.000000	1.82323   	1750.000000	1.73427   	1750.000000	1.73976   	1750.000000	0.000134267	
1800.000000	2.26044   	1800.000000	1.73923   	1800.000000	1.82139   	1800.000000	1.7326    	1800.000000	1.7391    	1800.000000	0.000130828	
1850.000000	2.26133   	1850.000000	1.73899   	1850.000000	1.81989   	1850.000000	1.73125   	1850.000000	1.73886   	1850.000000	0.000127566	
1900.000000	2.26291   	1900.000000	1.73915   	1900.000000	1.81869   	1900.000000	1.7302    	1900.000000	1.73902   	1900.000000	0.000124469	
1950.000000	2.26513   	1950.000000	1.73967   	1950.000000	1.81778   	1950.000000	1.72942   	1950.000000	1.73955   	1950.000000	0.000121525	
2000.000000	2.26794   	2000.000000	1.74053   	2000.000000	1.8171    	2000.000000	1.72888   	2000.000000	1.74041   	2000.000000	0.000118721	
2100.000000	2.27522   	2100.000000	1.74317   	2100.000000	1.81641   	2100.000000	1.72843   	2100.000000	1.74306   	2100.000000	0.000113498	
2200.000000	2.28447   	2200.000000	1.7469    	2200.000000	1.81647   	2200.000000	1.72871   	2200.000000	1.74679   	2200.000000	0.000108731	
2300.000000	2.29545   	2300.000000	1.75157   	2300.000000	1.81714   	2300.000000	1.72958   	2300.000000	1.75146   	2300.000000	0.000104362	
2400.000000	2.30799   	2400.000000	1.75706   	2400.000000	1.81834   	2400.000000	1.73096   	2400.000000	1.75696   	2400.000000	0.000100342	
2500.000000	2.32191   	2500.000000	1.76328   	2500.000000	1.82      	2500.000000	1.73278   	2500.000000	1.76318   	2500.000000	9.66307e-05	
2600.000000	2.33709   	2600.000000	1.77014   	2600.000000	1.82221   	2600.000000	1.73513   	2600.000000	1.77005   	2600.000000	9.31937e-05	
2700.000000	2.35341   	2700.000000	1.77757   	2700.000000	1.82471   	2700.000000	1.73776   	2700.000000	1.77748   	2700.000000	9.0001e-05	
2800.000000	2.37076   	2800.000000	1.78551   	2800.000000	1.82747   	2800.000000	1.74063   	2800.000000	1.78543   	2800.000000	8.70274e-05	
2900.000000	2.38905   	2900.000000	1.79391   	2900.000000	1.83043   	2900.000000	1.7437    	2900.000000	1.79382   	2900.000000	8.42506e-05	
3000.000000	2.40822   	3000.000000	1.80271   	3000.000000	1.83356   	3000.000000	1.74692   	3000.000000	1.80263   	3000.000000	8.16517e-05	
3200.000000	2.4489    	3200.000000	1.82138   	3200.000000	1.84022   	3200.000000	1.75375   	3200.000000	1.82131   	3200.000000	7.69221e-05	
3400.000000	2.49236   	3400.000000	1.84126   	3400.000000	1.84726   	3400.000000	1.76095   	3400.000000	1.84119   	3400.000000	7.27277e-05	
3600.000000	2.53824   	3600.000000	1.86214   	3600.000000	1.85454   	3600.000000	1.76837   	3600.000000	1.86207   	3600.000000	6.89814e-05	
3800.000000	2.58626   	3800.000000	1.88386   	3800.000000	1.86196   	3800.000000	1.77593   	3800.000000	1.88379   	3800.000000	6.56145e-05	
4000.000000	2.63621   	4000.000000	1.90628   	4000.000000	1.86944   	4000.000000	1.78355   	4000.000000	1.90622   	4000.000000	6.25714e-05	
4200.000000	2.68789   	4200.000000	1.9293    	4200.000000	1.87694   	4200.000000	1.79118   	4200.000000	1.92924   	4200.000000	5.9807e-05	
4400.000000	2.74115   	4400.000000	1.95283   	4400.000000	1.88441   	4400.000000	1.79878   	4400.000000	1.95278   	4400.000000	5.72844e-05	
4600.000000	2.79588   	4600.000000	1.9768    	4600.000000	1.89183   	4600.000000	1.80633   	4600.000000	1.97675   	4600.000000	5.49728e-05	
4800.000000	2.85196   	4800.000000	2.00115   	4800.000000	1.89916   	4800.000000	1.81379   	4800.000000	2.0011    	4800.000000	5.28466e-05	
5000.000000	2.9093    	5000.000000	2.02584   	5000.000000	1.90641   	5000.000000	1.82116   	5000.000000	2.02578   	5000.000000	5.0884e-05	
5250.000000	2.98264   	5250.000000	2.05709   	5250.000000	1.91532   	5250.000000	1.83022   	5250.000000	2.05704   	5250.000000	4.86332e-05	
5500.000000	3.05772   	5500.000000	2.08872   	5500.000000	1.92405   	5500.000000	1.8391    	5500.000000	2.08867   	5500.000000	4.65793e-05	
6000.000000	3.21267   	6000.000000	2.15291   	6000.000000	1.94097   	6000.000000	1.85629   	6000.000000	2.15286   	6000.000000	4.29664e-05	
6500.000000	3.3735    	6500.000000	2.21805   	6500.000000	1.95716   	6500.000000	1.87269   	6500.000000	2.21802   	6500.000000	3.98894e-05	
7000.000000	3.53976   	7000.000000	2.28392   	7000.000000	1.97246   	7000.000000	1.88831   	7000.000000	2.28388   	7000.000000	3.72364e-05	
7500.000000	3.71109   	7500.000000	2.35031   	7500.000000	1.98723   	7500.000000	1.9032    	7500.000000	2.35028   	7500.000000	3.49244e-05	
8000.000000	3.88723   	8000.000000	2.41711   	8000.000000	2.00111   	8000.000000	1.91739   	8000.000000	2.41708   	8000.000000	3.28911e-05	
8500.000000	4.06798   	8500.000000	2.48421   	8500.000000	2.0143    	8500.000000	1.93092   	8500.000000	2.48418   	8500.000000	3.10885e-05	
9000.000000	4.25319   	9000.000000	2.55155   	9000.000000	2.02698   	9000.000000	1.94383   	9000.000000	2.55152   	9000.000000	2.9479e-05	
9500.000000	4.44274   	9500.000000	2.61905   	9500.000000	2.0391    	9500.000000	1.95617   	9500.000000	2.61902   	9500.000000	2.80329e-05	
10000.000000	4.63653   	10000.000000	2.68668   	10000.000000	2.05065   	10000.000000	1.96798   	10000.000000	2.68665   	10000.000000	2.67263e-05	
11000.000000	5.03651   	11000.000000	2.82218   	11000.000000	2.07224   	11000.000000	1.99015   	11000.000000	2.82216   	11000.000000	2.44572e-05	
12000.000000	5.45267   	12000.000000	2.95784   	12000.000000	2.09208   	12000.000000	2.01058   	12000.000000	2.95782   	12000.000000	2.25535e-05	
13000.000000	5.88471   	13000.000000	3.09352   	13000.000000	2.11042   	13000.000000	2.02951   	13000.000000	3.0935    	13000.000000	2.09327e-05	
14000.000000	6.3324    	14000.000000	3.22914   	14000.000000	2.12746   	14000.000000	2.04712   	14000.000000	3.22912   	14000.000000	1.95355e-05	
15000.000000	6.79561   	15000.000000	3.36464   	15000.000000	2.14334   	15000.000000	2.06357   	15000.000000	3.36462   	15000.000000	1.83184e-05	
16000.000000	7.27426   	16000.000000	3.49997   	16000.000000	2.15812   	16000.000000	2.07898   	16000.000000	3.49995   	16000.000000	1.72482e-05	
17000.000000	7.76829   	17000.000000	3.63512   	17000.000000	2.17192   	17000.000000	2.09348   	17000.000000	3.6351    	17000.000000	1.62997e-05	
18000.000000	8.27767   	18000.000000	3.77006   	18000.000000	2.18485   	18000.000000	2.10715   	18000.000000	3.77004   	18000.000000	1.5453e-05	
19000.000000	8.80239   	19000.000000	3.90478   	19000.000000	2.19701   	19000.000000	2.12008   	19000.000000	3.90477   	19000.000000	1.46924e-05	
20000.000000	9.34247   	20000.000000	4.03928   	20000.000000	2.20851   	20000.000000	2.13234   	20000.000000	4.03927   	20000.000000	1.40053e-05	
21000.000000	9.89793   	21000.000000	4.17356   	21000.000000	2.21935   	21000.000000	2.14399   	21000.000000	4.17355   	21000.000000	1.33815e-05	
22000.000000	10.4688   	22000.000000	4.30762   	22000.000000	2.2295    	22000.000000	2.15509   	22000.000000	4.3076    	22000.000000	1.28124e-05	
23000.000000	11.0551   	23000.000000	4.44144   	23000.000000	2.23916   	23000.000000	2.16568   	23000.000000	4.44143   	23000.000000	1.22911e-05	
24000.000000	11.6569   	24000.000000	4.57505   	24000.000000	2.2484    	24000.000000	2.1758    	24000.000000	4.57504   	24000.000000	1.18119e-05	
25000.000000	12.2743   	25000.000000	4.70844   	25000.000000	2.25724   	25000.000000	2.18549   	25000.000000	4.70843   	25000.000000	1.13696e-05	
26000.000000	12.9073   	26000.000000	4.84161   	26000.000000	2.2656    	26000.000000	2.19479   	26000.000000	4.8416    	26000.000000	1.09603e-05	
27000.000000	13.5559   	27000.000000	4.97457   	27000.000000	2.27349   	27000.000000	2.20372   	27000.000000	4.97456   	27000.000000	1.05803e-05	
28000.000000	14.2203   	28000.000000	5.10732   	28000.000000	2.28102   	28000.000000	2.21231   	28000.000000	5.10731   	28000.000000	1.02265e-05	
29000.000000	14.9004   	29000.000000	5.23987   	29000.000000	2.28827   	29000.000000	2.22058   	29000.000000	5.23986   	29000.000000	9.89624e-06	
30000.000000	15.5964   	30000.000000	5.37222   	30000.000000	2.29525   	30000.000000	2.22856   	30000.000000	5.37222   	30000.000000	9.58731e-06	
32000.000000	17.0364   	32000.000000	5.63635   	32000.000000	2.30834   	32000.000000	2.2437    	32000.000000	5.63634   	32000.000000	9.02547e-06	
34000.000000	18.5408   	34000.000000	5.89972   	34000.000000	2.3203    	34000.000000	2.25787   	34000.000000	5.89971   	34000.000000	8.5276e-06	
36000.000000	20.1101   	36000.000000	6.16239   	36000.000000	2.33127   	36000.000000	2.27117   	36000.000000	6.16238   	36000.000000	8.08326e-06	
38000.000000	21.7451   	38000.000000	6.42437   	38000.000000	2.34137   	38000.000000	2.28371   	38000.000000	6.42436   	38000.000000	7.68419e-06	
40000.000000	23.4464   	40000.000000	6.68571   	40000.000000	2.35074   	40000.000000	2.29556   	40000.000000	6.6857    	40000.000000	7.32374e-06	
42000.000000	25.2147   	42000.000000	6.94642   	42000.000000	2.35946   	42000.000000	2.30678   	42000.000000	6.94641   	42000.000000	6.99652e-06	
44000.000000	27.0507   	44000.000000	7.20654   	44000.000000	2.36764   	44000.000000	2.31745   	44000.000000	7.20653   	44000.000000	6.69808e-06	
46000.000000	28.9551   	46000.000000	7.46608   	46000.000000	2.37534   	46000.000000	2.32761   	46000.000000	7.46607   	46000.000000	6.42477e-06	
48000.000000	30.9286   	48000.000000	7.72508   	48000.000000	2.38259   	48000.000000	2.33729   	48000.000000	7.72507   	48000.000000	6.1735e-06	
50000.000000	32.972    	50000.000000	7.98355   	50000.000000	2.38932   	50000.000000	2.34656   	50000.000000	7.98354   	50000.000000	5.94168e-06	
