0.001000	5.78661   	0.001000	4.11639   	0.001000	4.17909   	0.001000	4.17909   	0.001000	0.870705  	0.001000	3.24569   	
0.002000	5.81806   	0.002000	4.0653    	0.002000	4.17927   	0.002000	4.17927   	0.002000	1.20602   	0.002000	2.85928   	
0.005000	5.99811   	0.005000	3.9448    	0.005000	4.17665   	0.005000	4.17665   	0.005000	1.85518   	0.005000	2.08962   	
0.008000	6.29916   	0.008000	3.99059   	0.008000	4.31669   	0.008000	4.31669   	0.008000	2.31379   	0.008000	1.67681   	
0.010000	6.5134    	0.010000	4.06169   	0.010000	4.44353   	0.010000	4.44353   	0.010000	2.56963   	0.010000	1.49206   	
0.015000	7.35814   	0.015000	4.3943    	0.015000	4.89714   	0.015000	4.89714   	0.015000	3.20872   	0.015000	1.18557   	
0.020000	8.17035   	0.020000	5.03621   	0.020000	5.56408   	0.020000	5.56408   	0.020000	4.04154   	0.020000	0.99467   	
0.025000	9.13854   	0.025000	5.74195   	0.025000	6.29724   	0.025000	6.29724   	0.025000	4.87937   	0.025000	0.862582  	
0.030000	10.0285   	0.030000	6.47708   	0.030000	6.92736   	0.030000	6.92736   	0.030000	5.71214   	0.030000	0.764942  	
0.035000	10.8137   	0.035000	7.21904   	0.035000	7.557     	0.035000	7.557     	0.035000	6.52964   	0.035000	0.689397  	
0.040000	11.4932   	0.040000	7.95224   	0.040000	8.17749   	0.040000	8.17749   	0.040000	7.32328   	0.040000	0.62896   	
0.045000	12.0538   	0.045000	8.66345   	0.045000	8.78093   	0.045000	8.78093   	0.045000	8.08635   	0.045000	0.577103  	
0.050000	12.4943   	0.050000	9.34978   	0.050000	9.36825   	0.050000	9.36825   	0.050000	8.81401   	0.050000	0.535769  	
0.055000	13.2081   	0.055000	10.0009   	0.055000	9.93171   	0.055000	9.93171   	0.055000	9.5031    	0.055000	0.497799  	
0.060000	13.8512   	0.060000	10.6196   	0.060000	10.4755   	0.060000	10.4755   	0.060000	10.1519   	0.060000	0.467629  	
0.070000	14.9326   	0.070000	11.746    	0.070000	11.4924   	0.070000	11.4924   	0.070000	11.328    	0.070000	0.418003  	
0.080000	16.0826   	0.080000	12.7275   	0.080000	12.4148   	0.080000	12.4148   	0.080000	12.3488   	0.080000	0.378773  	
0.090000	17.0568   	0.090000	13.576    	0.090000	13.247    	0.090000	13.247    	0.090000	13.2291   	0.090000	0.346895  	
0.100000	17.8913   	0.100000	14.3078   	0.100000	13.9954   	0.100000	13.9954   	0.100000	13.9874   	0.100000	0.320425  	
0.120000	18.8193   	0.120000	15.4895   	0.120000	15.2728   	0.120000	15.2728   	0.120000	15.2106   	0.120000	0.278872  	
0.140000	19.5444   	0.140000	16.4096   	0.140000	16.3091   	0.140000	16.3091   	0.140000	16.162    	0.140000	0.247622  	
0.160000	20.2086   	0.160000	17.1676   	0.160000	17.1577   	0.160000	17.1577   	0.160000	16.9444   	0.160000	0.22318   	
0.180000	20.8425   	0.180000	17.7875   	0.180000	17.8605   	0.180000	17.8605   	0.180000	17.584    	0.180000	0.203486  	
0.200000	21.4758   	0.200000	18.3096   	0.200000	18.4492   	0.200000	18.4492   	0.200000	18.1223   	0.200000	0.187247  	
0.250000	22.3618   	0.250000	19.339    	0.250000	19.5645   	0.250000	19.5645   	0.250000	19.1822   	0.250000	0.15676   	
0.300000	23.5114   	0.300000	20.3739   	0.300000	20.3421   	0.300000	20.3421   	0.300000	20.2385   	0.300000	0.135374  	
0.350000	24.584    	0.350000	21.2601   	0.350000	20.9105   	0.350000	20.9105   	0.350000	21.1406   	0.350000	0.119471  	
0.400000	25.4765   	0.400000	21.9553   	0.400000	21.5853   	0.400000	21.5853   	0.400000	21.8481   	0.400000	0.107141  	
0.450000	26.209    	0.450000	22.5059   	0.450000	22.8099   	0.450000	22.8099   	0.450000	22.4086   	0.450000	0.0972781 	
0.500000	26.9919   	0.500000	23.0986   	0.500000	23.5584   	0.500000	23.5584   	0.500000	23.0094   	0.500000	0.0891941 	
0.600000	27.5028   	0.600000	24.247    	0.600000	24.1543   	0.600000	24.1543   	0.600000	24.1703   	0.600000	0.0766987 	
0.700000	27.4363   	0.700000	25.0088   	0.700000	24.5157   	0.700000	24.5157   	0.700000	24.9413   	0.700000	0.0674596 	
0.800000	28.0693   	0.800000	25.5006   	0.800000	24.7251   	0.800000	24.7251   	0.800000	25.4402   	0.800000	0.0603292 	
0.900000	28.319    	0.900000	25.6741   	0.900000	24.8288   	0.900000	24.8288   	0.900000	25.6194   	0.900000	0.0546468 	
1.000000	28.3923   	1.000000	25.7087   	1.000000	24.8556   	1.000000	24.8556   	1.000000	25.6587   	1.000000	0.050004  	
1.250000	28.1009   	1.250000	25.4974   	1.250000	24.6988   	1.250000	24.6988   	1.250000	25.456    	1.250000	0.0413957 	
1.500000	27.3459   	1.500000	24.9184   	1.500000	24.239    	1.500000	24.239    	1.500000	24.8829   	1.500000	0.0354446 	
1.750000	26.3874   	1.750000	24.1721   	1.750000	23.6321   	1.750000	23.6321   	1.750000	24.141    	1.750000	0.0310682 	
2.000000	25.3487   	2.000000	23.3574   	2.000000	23.0422   	2.000000	23.0422   	2.000000	23.3297   	2.000000	0.0277055 	
2.250000	24.4213   	2.250000	22.6049   	2.250000	22.4712   	2.250000	22.4712   	2.250000	22.5799   	2.250000	0.0250354 	
2.500000	26.9801   	2.500000	21.8418   	2.500000	21.9203   	2.500000	21.9203   	2.500000	21.8189   	2.500000	0.0228606 	
3.000000	25.1836   	3.000000	20.5166   	3.000000	20.8819   	3.000000	20.8819   	3.000000	20.4971   	3.000000	0.0195246 	
3.500000	23.5776   	3.500000	19.5218   	3.500000	19.9274   	3.500000	19.9274   	3.500000	19.5048   	3.500000	0.0170789 	
4.000000	22.1535   	4.000000	18.6587   	4.000000	19.052    	4.000000	19.052    	4.000000	18.6434   	4.000000	0.0152045 	
4.500000	20.8907   	4.500000	17.8805   	4.500000	18.2491   	4.500000	18.2491   	4.500000	17.8668   	4.500000	0.0137193 	
5.000000	19.767    	5.000000	17.1699   	5.000000	17.5114   	5.000000	17.5114   	5.000000	17.1574   	5.000000	0.0125117 	
5.500000	18.7625   	5.500000	16.5156   	5.500000	16.8321   	5.500000	16.8321   	5.500000	16.5041   	5.500000	0.0115095 	
6.000000	17.8602   	6.000000	15.9114   	6.000000	16.205    	6.000000	16.205    	6.000000	15.9008   	6.000000	0.0106635 	
6.500000	17.0456   	6.500000	15.3517   	6.500000	15.6246   	6.500000	15.6246   	6.500000	15.3418   	6.500000	0.00993926	
7.000000	16.3067   	7.000000	14.8316   	7.000000	15.0858   	7.000000	15.0858   	7.000000	14.8223   	7.000000	0.00931189	
7.500000	15.6336   	7.500000	14.3472   	7.500000	14.5845   	7.500000	14.5845   	7.500000	14.3385   	7.500000	0.00876286	
8.000000	15.0178   	8.000000	13.8952   	8.000000	14.117    	8.000000	14.117    	8.000000	13.8869   	8.000000	0.00827811	
8.500000	14.4524   	8.500000	13.4723   	8.500000	13.6798   	8.500000	13.6798   	8.500000	13.4645   	8.500000	0.0078468 	
9.000000	13.9312   	9.000000	13.076    	9.000000	13.2702   	9.000000	13.2702   	9.000000	13.0685   	9.000000	0.00746041	
9.500000	13.4493   	9.500000	12.7037   	9.500000	12.8855   	9.500000	12.8855   	9.500000	12.6966   	9.500000	0.00711215	
10.000000	13.0024   	10.000000	12.4374   	10.000000	12.5236   	10.000000	12.5236   	10.000000	12.4306   	10.000000	0.00679655	
11.000000	12.199    	11.000000	11.7964   	11.000000	11.8196   	11.000000	11.8873   	11.000000	11.7901   	11.000000	0.00624627	
12.000000	11.497    	12.000000	11.2175   	12.000000	11.1932   	12.000000	11.312    	12.000000	11.2117   	12.000000	0.00578231	
13.000000	10.878    	13.000000	10.693    	13.000000	10.6323   	13.000000	10.7898   	13.000000	10.6876   	13.000000	0.00538555	
14.000000	10.3279   	14.000000	10.2162   	14.000000	10.1273   	14.000000	10.3139   	14.000000	10.2112   	14.000000	0.00504216	
15.000000	9.83564   	15.000000	9.78118   	15.000000	9.66981   	15.000000	9.87847   	15.000000	9.77643   	15.000000	0.00474189	
16.000000	9.39241   	16.000000	9.38287   	16.000000	9.25356   	16.000000	9.47874   	16.000000	9.37839   	16.000000	0.00447699	
17.000000	8.9911    	17.000000	9.01697   	17.000000	8.87324   	17.000000	9.11056   	17.000000	9.01273   	17.000000	0.00424146	
18.000000	8.62594   	18.000000	8.67979   	18.000000	8.5245    	18.000000	8.7704    	18.000000	8.67576   	18.000000	0.00403059	
19.000000	8.29218   	19.000000	8.36813   	19.000000	8.20358   	19.000000	8.45525   	19.000000	8.36429   	19.000000	0.00384065	
20.000000	7.98585   	20.000000	8.07926   	20.000000	7.9073    	20.000000	8.16252   	20.000000	8.07559   	20.000000	0.00366862	
21.000000	7.70366   	21.000000	7.81079   	21.000000	7.63294   	21.000000	7.88995   	21.000000	7.80728   	21.000000	0.00351205	
22.000000	7.44281   	22.000000	7.56067   	22.000000	7.3782    	22.000000	7.6356    	22.000000	7.5573    	22.000000	0.00336891	
23.000000	7.20092   	23.000000	7.32709   	23.000000	7.14103   	23.000000	7.39776   	23.000000	7.32385   	23.000000	0.00323751	
24.000000	6.97596   	24.000000	7.10849   	24.000000	6.91959   	24.000000	7.17492   	24.000000	7.10537   	24.000000	0.00311645	
25.000000	6.76619   	25.000000	6.90347   	25.000000	6.7125    	25.000000	6.96577   	25.000000	6.90046   	25.000000	0.00300453	
27.000000	6.38633   	27.000000	6.52946   	27.000000	6.33732   	27.000000	6.58399   	27.000000	6.52665   	27.000000	0.0028042 	
29.000000	6.05141   	29.000000	6.19687   	29.000000	6.00604   	29.000000	6.24454   	29.000000	6.19424   	29.000000	0.00263003	
31.000000	5.75376   	31.000000	5.89921   	31.000000	5.71976   	31.000000	5.93891   	31.000000	5.89673   	31.000000	0.00247713	
33.000000	5.48739   	33.000000	5.63127   	33.000000	5.4703    	33.000000	5.66257   	33.000000	5.62893   	33.000000	0.00234178	
35.000000	5.24754   	35.000000	5.38883   	35.000000	5.24417   	35.000000	5.41334   	35.000000	5.38661   	35.000000	0.00222108	
38.000000	4.92928   	38.000000	5.06555   	38.000000	4.94202   	38.000000	5.08215   	38.000000	5.06348   	38.000000	0.00206261	
41.000000	4.65209   	41.000000	4.78267   	41.000000	4.67633   	41.000000	4.79337   	41.000000	4.78074   	41.000000	0.00192615	
44.000000	4.40837   	44.000000	4.53308   	44.000000	4.44037   	44.000000	4.53929   	44.000000	4.53127   	44.000000	0.00180734	
47.000000	4.19231   	47.000000	4.31122   	47.000000	4.23039   	47.000000	4.31398   	47.000000	4.30952   	47.000000	0.00170292	
50.000000	3.99937   	50.000000	4.11273   	50.000000	4.04224   	50.000000	4.1128    	50.000000	4.11112   	50.000000	0.0016104 	
55.000000	3.71976   	55.000000	3.82461   	55.000000	3.76798   	55.000000	3.8214    	55.000000	3.82313   	55.000000	0.00147752	
60.000000	3.48215   	60.000000	3.5795    	60.000000	3.53356   	60.000000	3.57401   	60.000000	3.57813   	60.000000	0.00136571	
65.000000	3.27758   	65.000000	3.36843   	65.000000	3.33101   	65.000000	3.36133   	65.000000	3.36715   	65.000000	0.00127026	
70.000000	3.09949   	70.000000	3.18475   	70.000000	3.15435   	70.000000	3.17647   	70.000000	3.18357   	70.000000	0.00118778	
75.000000	2.94296   	75.000000	3.02347   	75.000000	2.99844   	75.000000	3.01429   	75.000000	3.02235   	75.000000	0.00111577	
80.000000	2.80422   	80.000000	2.8807    	80.000000	2.86028   	80.000000	2.87084   	80.000000	2.87965   	80.000000	0.00105233	
85.000000	2.68035   	85.000000	2.75342   	85.000000	2.73663   	85.000000	2.74301   	85.000000	2.75243   	85.000000	0.000995992	
90.000000	2.56904   	90.000000	2.63924   	90.000000	2.62562   	90.000000	2.62839   	90.000000	2.6383    	90.000000	0.000945613	
95.000000	2.46842   	95.000000	2.53623   	95.000000	2.5254    	95.000000	2.52501   	95.000000	2.53533   	95.000000	0.000900284	
100.000000	2.377     	100.000000	2.44283   	100.000000	2.43414   	100.000000	2.43128   	100.000000	2.44197   	100.000000	0.000859271	
105.000000	2.29354   	105.000000	2.35773   	105.000000	2.35097   	105.000000	2.34591   	105.000000	2.35691   	105.000000	0.000821978	
110.000000	2.21703   	110.000000	2.27989   	110.000000	2.2746    	110.000000	2.26782   	110.000000	2.2791    	110.000000	0.000787914	
115.000000	2.1466    	115.000000	2.2084    	115.000000	2.20437   	115.000000	2.19611   	115.000000	2.20764   	115.000000	0.000756672	
120.000000	2.08156   	120.000000	2.14252   	120.000000	2.13963   	120.000000	2.13003   	120.000000	2.14179   	120.000000	0.000727911	
125.000000	2.02129   	125.000000	2.08161   	125.000000	2.07976   	125.000000	2.06894   	125.000000	2.0809    	125.000000	0.000701342	
130.000000	1.96526   	130.000000	2.02512   	130.000000	2.02419   	130.000000	2.01229   	130.000000	2.02444   	130.000000	0.00067672	
135.000000	1.91305   	135.000000	1.97259   	135.000000	1.9723    	135.000000	1.95961   	135.000000	1.97194   	135.000000	0.000653837	
140.000000	1.86425   	140.000000	1.92362   	140.000000	1.92402   	140.000000	1.9105    	140.000000	1.92299   	140.000000	0.000632513	
145.000000	1.81854   	145.000000	1.87786   	145.000000	1.87896   	145.000000	1.86461   	145.000000	1.87725   	145.000000	0.00061259	
150.000000	1.77564   	150.000000	1.835     	150.000000	1.83657   	150.000000	1.82162   	150.000000	1.8344    	150.000000	0.000593933	
155.000000	1.71501   	155.000000	1.79476   	155.000000	1.79662   	155.000000	1.78128   	155.000000	1.79419   	155.000000	0.000576424	
160.000000	1.67957   	160.000000	1.75693   	160.000000	1.75907   	160.000000	1.74335   	160.000000	1.75637   	160.000000	0.000559959	
165.000000	1.64613   	165.000000	1.72128   	165.000000	1.72381   	165.000000	1.70761   	165.000000	1.72074   	165.000000	0.000544445	
170.000000	1.61452   	170.000000	1.68764   	170.000000	1.69043   	170.000000	1.67389   	170.000000	1.68711   	170.000000	0.000529802	
175.000000	1.5846    	175.000000	1.65584   	175.000000	1.65881   	175.000000	1.64201   	175.000000	1.65532   	175.000000	0.000515957	
180.000000	1.55623   	180.000000	1.62572   	180.000000	1.62899   	180.000000	1.61183   	180.000000	1.62522   	180.000000	0.000502845	
185.000000	1.5293    	185.000000	1.59717   	185.000000	1.60071   	185.000000	1.58322   	185.000000	1.59668   	185.000000	0.00049041	
190.000000	1.50369   	190.000000	1.57007   	190.000000	1.57375   	190.000000	1.55606   	190.000000	1.56959   	190.000000	0.0004786 	
195.000000	1.47931   	195.000000	1.54429   	195.000000	1.5481    	195.000000	1.53024   	195.000000	1.54383   	195.000000	0.000467367	
200.000000	1.45607   	200.000000	1.51976   	200.000000	1.5237    	200.000000	1.50567   	200.000000	1.51931   	200.000000	0.00045667	
210.000000	1.41272   	210.000000	1.47408   	210.000000	1.47826   	210.000000	1.45992   	210.000000	1.47364   	210.000000	0.000436736	
220.000000	1.37307   	220.000000	1.4324    	220.000000	1.43683   	220.000000	1.41821   	220.000000	1.43199   	220.000000	0.000418534	
230.000000	1.33667   	230.000000	1.39424   	230.000000	1.39873   	230.000000	1.38002   	230.000000	1.39384   	230.000000	0.000401845	
240.000000	1.30313   	240.000000	1.35916   	240.000000	1.36381   	240.000000	1.34494   	240.000000	1.35877   	240.000000	0.000386484	
250.000000	1.27213   	250.000000	1.32681   	250.000000	1.33159   	250.000000	1.31261   	250.000000	1.32643   	250.000000	0.000372299	
260.000000	1.24339   	260.000000	1.29688   	260.000000	1.30169   	260.000000	1.28272   	260.000000	1.29652   	260.000000	0.000359156	
270.000000	1.21666   	270.000000	1.26911   	270.000000	1.27403   	270.000000	1.255     	270.000000	1.26877   	270.000000	0.000346945	
280.000000	1.19176   	280.000000	1.24329   	280.000000	1.24839   	280.000000	1.22924   	280.000000	1.24295   	280.000000	0.000335567	
290.000000	1.16849   	290.000000	1.21921   	290.000000	1.2244    	290.000000	1.20524   	290.000000	1.21888   	290.000000	0.000324939	
300.000000	1.1467    	300.000000	1.19671   	300.000000	1.20196   	300.000000	1.18282   	300.000000	1.19639   	300.000000	0.00031499	
310.000000	1.12625   	310.000000	1.17564   	310.000000	1.18098   	310.000000	1.16185   	310.000000	1.17533   	310.000000	0.000305654	
320.000000	1.10703   	320.000000	1.15586   	320.000000	1.1613    	320.000000	1.14218   	320.000000	1.15557   	320.000000	0.000296876	
330.000000	1.08893   	330.000000	1.13728   	330.000000	1.14281   	330.000000	1.12371   	330.000000	1.13699   	330.000000	0.000288607	
340.000000	1.07185   	340.000000	1.11977   	340.000000	1.12541   	340.000000	1.10633   	340.000000	1.11949   	340.000000	0.000280804	
350.000000	1.05572   	350.000000	1.10327   	350.000000	1.10901   	350.000000	1.08995   	350.000000	1.10299   	350.000000	0.000273427	
360.000000	1.04046   	360.000000	1.08767   	360.000000	1.09353   	360.000000	1.07448   	360.000000	1.08741   	360.000000	0.000266442	
370.000000	1.02599   	370.000000	1.07292   	370.000000	1.0789    	370.000000	1.05987   	370.000000	1.07266   	370.000000	0.000259818	
380.000000	1.01227   	380.000000	1.05895   	380.000000	1.06499   	380.000000	1.04604   	380.000000	1.05869   	380.000000	0.000253529	
390.000000	0.999229  	390.000000	1.04569   	390.000000	1.05179   	390.000000	1.03293   	390.000000	1.04544   	390.000000	0.000247547	
400.000000	0.98683   	400.000000	1.0331    	400.000000	1.0393    	400.000000	1.0205    	400.000000	1.03286   	400.000000	0.000241852	
410.000000	0.975024  	410.000000	1.02114   	410.000000	1.02748   	410.000000	1.00868   	410.000000	1.0209    	410.000000	0.000236423	
420.000000	0.963771  	420.000000	1.00975   	420.000000	1.01624   	420.000000	0.997448  	420.000000	1.00952   	420.000000	0.000231242	
430.000000	0.953035  	430.000000	0.998896  	430.000000	1.00551   	430.000000	0.986754  	430.000000	0.998669  	430.000000	0.000226291	
440.000000	0.942783  	440.000000	0.988547  	440.000000	0.995243  	440.000000	0.976564  	440.000000	0.988325  	440.000000	0.000221556	
450.000000	0.932983  	450.000000	0.978667  	450.000000	0.985444  	450.000000	0.966845  	450.000000	0.97845   	450.000000	0.000217022	
460.000000	0.923607  	460.000000	0.969228  	460.000000	0.976128  	460.000000	0.957568  	460.000000	0.969016  	460.000000	0.000212677	
470.000000	0.914631  	470.000000	0.960203  	470.000000	0.967249  	470.000000	0.948704  	470.000000	0.959994  	470.000000	0.000208508	
480.000000	0.90603   	480.000000	0.951565  	480.000000	0.958734  	480.000000	0.940228  	480.000000	0.95136   	480.000000	0.000204507	
490.000000	0.897783  	490.000000	0.943291  	490.000000	0.950551  	490.000000	0.932118  	490.000000	0.943091  	490.000000	0.000200661	
500.000000	0.889869  	500.000000	0.935362  	500.000000	0.942716  	500.000000	0.92435   	500.000000	0.935165  	500.000000	0.000196963	
520.000000	0.874969  	520.000000	0.920457  	520.000000	0.928084  	520.000000	0.909767  	520.000000	0.920267  	520.000000	0.000189976	
540.000000	0.861196  	540.000000	0.906708  	540.000000	0.914582  	540.000000	0.896338  	540.000000	0.906525  	540.000000	0.000183485	
560.000000	0.848437  	560.000000	0.893997  	560.000000	0.902055  	560.000000	0.883941  	560.000000	0.89382   	560.000000	0.000177439	
580.000000	0.836592  	580.000000	0.882218  	580.000000	0.89047   	580.000000	0.87247   	580.000000	0.882046  	580.000000	0.000171792	
600.000000	0.825574  	600.000000	0.871281  	600.000000	0.87978   	600.000000	0.861834  	600.000000	0.871114  	600.000000	0.000166506	
620.000000	0.815307  	620.000000	0.861106  	620.000000	0.869862  	620.000000	0.851951  	620.000000	0.860944  	620.000000	0.000161548	
640.000000	0.805725  	640.000000	0.851623  	640.000000	0.860584  	640.000000	0.842753  	640.000000	0.851466  	640.000000	0.000156886	
660.000000	0.796768  	660.000000	0.842772  	660.000000	0.851911  	660.000000	0.834177  	660.000000	0.84262   	660.000000	0.000152496	
680.000000	0.788385  	680.000000	0.834499  	680.000000	0.843819  	680.000000	0.826167  	680.000000	0.83435   	680.000000	0.000148353	
700.000000	0.780529  	700.000000	0.826754  	700.000000	0.836254  	700.000000	0.818677  	700.000000	0.82661   	700.000000	0.000144438	
720.000000	0.773158  	720.000000	0.819496  	720.000000	0.829166  	720.000000	0.811661  	720.000000	0.819355  	720.000000	0.000140731	
740.000000	0.766235  	740.000000	0.812685  	740.000000	0.822514  	740.000000	0.805082  	740.000000	0.812547  	740.000000	0.000137216	
760.000000	0.759727  	760.000000	0.806287  	760.000000	0.816265  	760.000000	0.798904  	760.000000	0.806153  	760.000000	0.000133879	
780.000000	0.753604  	780.000000	0.800271  	780.000000	0.8104    	780.000000	0.793097  	780.000000	0.80014   	780.000000	0.000130706	
800.000000	0.747837  	800.000000	0.79461   	800.000000	0.804901  	800.000000	0.787632  	800.000000	0.794482  	800.000000	0.000127685	
820.000000	0.742404  	820.000000	0.789277  	820.000000	0.799746  	820.000000	0.7825    	820.000000	0.789152  	820.000000	0.000124806	
840.000000	0.73728   	840.000000	0.784251  	840.000000	0.794944  	840.000000	0.77773   	840.000000	0.784129  	840.000000	0.000122058	
860.000000	0.732447  	860.000000	0.779509  	860.000000	0.790394  	860.000000	0.773228  	860.000000	0.77939   	860.000000	0.000119433	
880.000000	0.727884  	880.000000	0.775034  	880.000000	0.786087  	880.000000	0.768978  	880.000000	0.774917  	880.000000	0.000116922	
900.000000	0.723576  	900.000000	0.770808  	900.000000	0.782015  	900.000000	0.76496   	900.000000	0.770693  	900.000000	0.000114519	
920.000000	0.719506  	920.000000	0.766814  	920.000000	0.778167  	920.000000	0.761161  	920.000000	0.766702  	920.000000	0.000112215	
940.000000	0.71566   	940.000000	0.763039  	940.000000	0.774527  	940.000000	0.757565  	940.000000	0.762929  	940.000000	0.000110006	
960.000000	0.712026  	960.000000	0.75947   	960.000000	0.771079  	960.000000	0.75416   	960.000000	0.759362  	960.000000	0.000107886	
980.000000	0.70859   	980.000000	0.756092  	980.000000	0.767811  	980.000000	0.750934  	980.000000	0.755987  	980.000000	0.000105848	
1000.000000	0.705341  	1000.000000	0.752897  	1000.000000	0.764712  	1000.000000	0.747875  	1000.000000	0.752793  	1000.000000	0.000103889	
1020.000000	0.70227   	1020.000000	0.749872  	1020.000000	0.761771  	1020.000000	0.744974  	1020.000000	0.74977   	1020.000000	0.000102003	
1040.000000	0.699367  	1040.000000	0.747009  	1040.000000	0.758979  	1040.000000	0.74222   	1040.000000	0.746909  	1040.000000	0.000100187	
1060.000000	0.696622  	1060.000000	0.744299  	1060.000000	0.756329  	1060.000000	0.739605  	1060.000000	0.7442    	1060.000000	9.84369e-05	
1080.000000	0.694028  	1080.000000	0.741732  	1080.000000	0.75381   	1080.000000	0.737122  	1080.000000	0.741635  	1080.000000	9.6749e-05	
1100.000000	0.691577  	1100.000000	0.739302  	1100.000000	0.751417  	1100.000000	0.734763  	1100.000000	0.739207  	1100.000000	9.51201e-05	
1120.000000	0.689261  	1120.000000	0.737001  	1120.000000	0.749142  	1120.000000	0.73252   	1120.000000	0.736908  	1120.000000	9.3547e-05	
1140.000000	0.687074  	1140.000000	0.734823  	1140.000000	0.746978  	1140.000000	0.730387  	1140.000000	0.734731  	1140.000000	9.20269e-05	
1160.000000	0.68501   	1160.000000	0.732761  	1160.000000	0.744919  	1160.000000	0.728359  	1160.000000	0.732671  	1160.000000	9.05572e-05	
1180.000000	0.683062  	1180.000000	0.73081   	1180.000000	0.74296   	1180.000000	0.726429  	1180.000000	0.730721  	1180.000000	8.91354e-05	
1200.000000	0.681226  	1200.000000	0.728964  	1200.000000	0.741096  	1200.000000	0.724593  	1200.000000	0.728876  	1200.000000	8.7759e-05	
1220.000000	0.679496  	1220.000000	0.727218  	1220.000000	0.739321  	1220.000000	0.722845  	1220.000000	0.727132  	1220.000000	8.6426e-05	
1240.000000	0.677868  	1240.000000	0.725568  	1240.000000	0.737631  	1240.000000	0.721181  	1240.000000	0.725483  	1240.000000	8.51344e-05	
1260.000000	0.676337  	1260.000000	0.724008  	1260.000000	0.736021  	1260.000000	0.719597  	1260.000000	0.723924  	1260.000000	8.38821e-05	
1280.000000	0.674898  	1280.000000	0.722535  	1280.000000	0.734488  	1280.000000	0.718089  	1280.000000	0.722452  	1280.000000	8.26674e-05	
1300.000000	0.673548  	1300.000000	0.721145  	1300.000000	0.733027  	1300.000000	0.716652  	1300.000000	0.721063  	1300.000000	8.14886e-05	
1320.000000	0.672283  	1320.000000	0.719834  	1320.000000	0.731635  	1320.000000	0.715284  	1320.000000	0.719753  	1320.000000	8.03442e-05	
1340.000000	0.6711    	1340.000000	0.718598  	1340.000000	0.730309  	1340.000000	0.713981  	1340.000000	0.718519  	1340.000000	7.92325e-05	
1360.000000	0.669995  	1360.000000	0.717435  	1360.000000	0.729045  	1360.000000	0.71274   	1360.000000	0.717357  	1360.000000	7.81523e-05	
1380.000000	0.668964  	1380.000000	0.716341  	1380.000000	0.727842  	1380.000000	0.711558  	1380.000000	0.716264  	1380.000000	7.71022e-05	
1400.000000	0.668006  	1400.000000	0.715313  	1400.000000	0.726695  	1400.000000	0.710432  	1400.000000	0.715237  	1400.000000	7.60809e-05	
1420.000000	0.667117  	1420.000000	0.714349  	1420.000000	0.725604  	1420.000000	0.70936   	1420.000000	0.714274  	1420.000000	7.50873e-05	
1440.000000	0.666294  	1440.000000	0.713445  	1440.000000	0.724564  	1440.000000	0.708339  	1440.000000	0.713371  	1440.000000	7.41202e-05	
1460.000000	0.665536  	1460.000000	0.7126    	1460.000000	0.723575  	1460.000000	0.707367  	1460.000000	0.712527  	1460.000000	7.31785e-05	
1480.000000	0.664838  	1480.000000	0.711812  	1480.000000	0.722634  	1480.000000	0.706442  	1480.000000	0.711739  	1480.000000	7.22613e-05	
1500.000000	0.664201  	1500.000000	0.711077  	1500.000000	0.721737  	1500.000000	0.705561  	1500.000000	0.711006  	1500.000000	7.13676e-05	
1520.000000	0.66362   	1520.000000	0.710394  	1520.000000	0.720883  	1520.000000	0.704723  	1520.000000	0.710323  	1520.000000	7.04966e-05	
1540.000000	0.663095  	1540.000000	0.709761  	1540.000000	0.720069  	1540.000000	0.703926  	1540.000000	0.709691  	1540.000000	6.96472e-05	
1560.000000	0.662622  	1560.000000	0.709175  	1560.000000	0.719294  	1560.000000	0.703167  	1560.000000	0.709107  	1560.000000	6.88189e-05	
1580.000000	0.662201  	1580.000000	0.708636  	1580.000000	0.718555  	1580.000000	0.702446  	1580.000000	0.708568  	1580.000000	6.80106e-05	
1600.000000	0.661829  	1600.000000	0.708141  	1600.000000	0.71785   	1600.000000	0.701761  	1600.000000	0.708074  	1600.000000	6.72218e-05	
1620.000000	0.661506  	1620.000000	0.70769   	1620.000000	0.717178  	1620.000000	0.70111   	1620.000000	0.707623  	1620.000000	6.64517e-05	
1640.000000	0.661228  	1640.000000	0.707279  	1640.000000	0.716538  	1640.000000	0.700492  	1640.000000	0.707213  	1640.000000	6.56997e-05	
1660.000000	0.660996  	1660.000000	0.706908  	1660.000000	0.715929  	1660.000000	0.699906  	1660.000000	0.706843  	1660.000000	6.49651e-05	
1680.000000	0.660806  	1680.000000	0.706575  	1680.000000	0.71535   	1680.000000	0.699349  	1680.000000	0.706511  	1680.000000	6.42473e-05	
1700.000000	0.660659  	1700.000000	0.70628   	1700.000000	0.714801  	1700.000000	0.698822  	1700.000000	0.706216  	1700.000000	6.35458e-05	
1750.000000	0.660464  	1750.000000	0.705695  	1750.000000	0.71355   	1750.000000	0.697623  	1750.000000	0.705633  	1750.000000	6.18594e-05	
1800.000000	0.660504  	1800.000000	0.705315  	1800.000000	0.712464  	1800.000000	0.696581  	1800.000000	0.705254  	1800.000000	6.02632e-05	
1850.000000	0.660761  	1850.000000	0.705123  	1850.000000	0.71153   	1850.000000	0.695681  	1850.000000	0.705064  	1850.000000	5.875e-05 	
1900.000000	0.66122   	1900.000000	0.705106  	1900.000000	0.710732  	1900.000000	0.694911  	1900.000000	0.705048  	1900.000000	5.73134e-05	
1950.000000	0.661866  	1950.000000	0.705249  	1950.000000	0.710056  	1950.000000	0.694258  	1950.000000	0.705193  	1950.000000	5.59477e-05	
2000.000000	0.662687  	2000.000000	0.70554   	2000.000000	0.709488  	2000.000000	0.693712  	2000.000000	0.705485  	2000.000000	5.46478e-05	
2100.000000	0.664809  	2100.000000	0.706526  	2100.000000	0.708638  	2100.000000	0.692903  	2100.000000	0.706474  	2100.000000	5.22267e-05	
2200.000000	0.667507  	2200.000000	0.707989  	2200.000000	0.708114  	2200.000000	0.692419  	2200.000000	0.707939  	2200.000000	5.00177e-05	
2300.000000	0.670713  	2300.000000	0.709867  	2300.000000	0.707866  	2300.000000	0.692208  	2300.000000	0.709819  	2300.000000	4.79938e-05	
2400.000000	0.674374  	2400.000000	0.712107  	2400.000000	0.707852  	2400.000000	0.692225  	2400.000000	0.712061  	2400.000000	4.61324e-05	
2500.000000	0.678441  	2500.000000	0.714666  	2500.000000	0.708037  	2500.000000	0.692437  	2500.000000	0.714622  	2500.000000	4.44145e-05	
2600.000000	0.682874  	2600.000000	0.717507  	2600.000000	0.708388  	2600.000000	0.692811  	2600.000000	0.717465  	2600.000000	4.28239e-05	
2700.000000	0.68764   	2700.000000	0.720599  	2700.000000	0.708877  	2700.000000	0.693325  	2700.000000	0.720557  	2700.000000	4.13469e-05	
2800.000000	0.692708  	2800.000000	0.723913  	2800.000000	0.709484  	2800.000000	0.693955  	2800.000000	0.723873  	2800.000000	3.99715e-05	
2900.000000	0.698052  	2900.000000	0.727427  	2900.000000	0.710189  	2900.000000	0.694686  	2900.000000	0.727388  	2900.000000	3.86876e-05	
3000.000000	0.703651  	3000.000000	0.73112   	3000.000000	0.710979  	3000.000000	0.695502  	3000.000000	0.731082  	3000.000000	3.74861e-05	
3200.000000	0.715536  	3200.000000	0.738975  	3200.000000	0.712764  	3200.000000	0.697339  	3200.000000	0.738939  	3200.000000	3.53006e-05	
3400.000000	0.728232  	3400.000000	0.747361  	3400.000000	0.714763  	3400.000000	0.699385  	3400.000000	0.747328  	3400.000000	3.33632e-05	
3600.000000	0.741637  	3600.000000	0.756187  	3600.000000	0.716919  	3600.000000	0.70158   	3600.000000	0.756155  	3600.000000	3.16335e-05	
3800.000000	0.755668  	3800.000000	0.765381  	3800.000000	0.719187  	3800.000000	0.703877  	3800.000000	0.76535   	3800.000000	3.00796e-05	
4000.000000	0.770261  	4000.000000	0.774884  	4000.000000	0.72153   	4000.000000	0.706245  	4000.000000	0.774855  	4000.000000	2.86756e-05	
4200.000000	0.785361  	4200.000000	0.78465   	4200.000000	0.72392   	4200.000000	0.708656  	4200.000000	0.784623  	4200.000000	2.74007e-05	
4400.000000	0.800924  	4400.000000	0.794642  	4400.000000	0.726336  	4400.000000	0.711091  	4400.000000	0.794616  	4400.000000	2.62377e-05	
4600.000000	0.816913  	4600.000000	0.804827  	4600.000000	0.728762  	4600.000000	0.713535  	4600.000000	0.804802  	4600.000000	2.51723e-05	
4800.000000	0.833299  	4800.000000	0.815179  	4800.000000	0.731185  	4800.000000	0.715976  	4800.000000	0.815155  	4800.000000	2.41927e-05	
5000.000000	0.850053  	5000.000000	0.825677  	5000.000000	0.733598  	5000.000000	0.718406  	5000.000000	0.825653  	5000.000000	2.32886e-05	
5250.000000	0.871482  	5250.000000	0.838975  	5250.000000	0.736587  	5250.000000	0.721418  	5250.000000	0.838953  	5250.000000	2.22521e-05	
5500.000000	0.893418  	5500.000000	0.852441  	5500.000000	0.739539  	5500.000000	0.724391  	5500.000000	0.85242   	5500.000000	2.13067e-05	
6000.000000	0.938691  	6000.000000	0.879782  	6000.000000	0.745305  	6000.000000	0.7302    	6000.000000	0.879763  	6000.000000	1.96442e-05	
6500.000000	0.985685  	6500.000000	0.907547  	6500.000000	0.750871  	6500.000000	0.735801  	6500.000000	0.907529  	6500.000000	1.82292e-05	
7000.000000	1.03426   	7000.000000	0.935628  	7000.000000	0.756218  	7000.000000	0.741182  	7000.000000	0.935611  	7000.000000	1.70097e-05	
7500.000000	1.08432   	7500.000000	0.963946  	7500.000000	0.761305  	7500.000000	0.746344  	7500.000000	0.96393   	7500.000000	1.59475e-05	
8000.000000	1.13579   	8000.000000	0.992443  	8000.000000	0.766229  	8000.000000	0.751291  	8000.000000	0.992428  	8000.000000	1.50137e-05	
8500.000000	1.1886    	8500.000000	1.02108   	8500.000000	0.770949  	8500.000000	0.756033  	8500.000000	1.02106   	8500.000000	1.41862e-05	
9000.000000	1.24272   	9000.000000	1.04981   	9000.000000	0.775449  	9000.000000	0.760579  	9000.000000	1.0498    	9000.000000	1.34476e-05	
9500.000000	1.2981    	9500.000000	1.07863   	9500.000000	0.779774  	9500.000000	0.764942  	9500.000000	1.07861   	9500.000000	1.27842e-05	
10000.000000	1.35472   	10000.000000	1.1075    	10000.000000	0.783944  	10000.000000	0.769131  	10000.000000	1.10749   	10000.000000	1.2185e-05	
11000.000000	1.47159   	11000.000000	1.16535   	11000.000000	0.791783  	11000.000000	0.777032  	11000.000000	1.16534   	11000.000000	1.11449e-05	
12000.000000	1.59318   	12000.000000	1.22328   	12000.000000	0.79899   	12000.000000	0.78436   	12000.000000	1.22327   	12000.000000	1.02727e-05	
13000.000000	1.71942   	13000.000000	1.28123   	13000.000000	0.805706  	13000.000000	0.791183  	13000.000000	1.28122   	13000.000000	9.53052e-06	
14000.000000	1.85023   	14000.000000	1.33916   	14000.000000	0.812025  	14000.000000	0.797559  	14000.000000	1.33915   	14000.000000	8.89106e-06	
15000.000000	1.98557   	15000.000000	1.39704   	15000.000000	0.817972  	15000.000000	0.803539  	15000.000000	1.39703   	15000.000000	8.3342e-06	
16000.000000	2.12542   	16000.000000	1.45485   	16000.000000	0.823541  	16000.000000	0.809166  	16000.000000	1.45485   	16000.000000	7.84478e-06	
17000.000000	2.26977   	17000.000000	1.51259   	17000.000000	0.828756  	17000.000000	0.814476  	17000.000000	1.51258   	17000.000000	7.41114e-06	
18000.000000	2.4186    	18000.000000	1.57024   	18000.000000	0.833651  	18000.000000	0.819501  	18000.000000	1.57023   	18000.000000	7.02418e-06	
19000.000000	2.57192   	19000.000000	1.6278    	19000.000000	0.838261  	19000.000000	0.824269  	19000.000000	1.62779   	19000.000000	6.67668e-06	
20000.000000	2.72972   	20000.000000	1.68527   	20000.000000	0.84262   	20000.000000	0.828804  	20000.000000	1.68526   	20000.000000	6.36286e-06	
21000.000000	2.89202   	21000.000000	1.74264   	21000.000000	0.846784  	21000.000000	0.833126  	21000.000000	1.74264   	21000.000000	6.07799e-06	
22000.000000	3.05881   	22000.000000	1.79992   	22000.000000	0.850817  	22000.000000	0.837253  	22000.000000	1.79992   	22000.000000	5.81821e-06	
23000.000000	3.23013   	23000.000000	1.85711   	23000.000000	0.854637  	23000.000000	0.841202  	23000.000000	1.8571    	23000.000000	5.58032e-06	
24000.000000	3.40597   	24000.000000	1.9142    	24000.000000	0.858263  	24000.000000	0.844986  	24000.000000	1.91419   	24000.000000	5.36164e-06	
25000.000000	3.58635   	25000.000000	1.97119   	25000.000000	0.861745  	25000.000000	0.848619  	25000.000000	1.97119   	25000.000000	5.15991e-06	
26000.000000	3.77129   	26000.000000	2.0281    	26000.000000	0.865086  	26000.000000	0.852111  	26000.000000	2.0281    	26000.000000	4.97322e-06	
27000.000000	3.96081   	27000.000000	2.08492   	27000.000000	0.868286  	27000.000000	0.855474  	27000.000000	2.08491   	27000.000000	4.79993e-06	
28000.000000	4.15493   	28000.000000	2.14165   	28000.000000	0.871358  	28000.000000	0.858715  	28000.000000	2.14164   	28000.000000	4.63864e-06	
29000.000000	4.35366   	29000.000000	2.19829   	29000.000000	0.874313  	29000.000000	0.861843  	29000.000000	2.19828   	29000.000000	4.48812e-06	
30000.000000	4.55703   	30000.000000	2.25485   	30000.000000	0.877162  	30000.000000	0.864865  	30000.000000	2.25484   	30000.000000	4.34733e-06	
32000.000000	4.97777   	32000.000000	2.36771   	32000.000000	0.882564  	32000.000000	0.870619  	32000.000000	2.36771   	32000.000000	4.09136e-06	
34000.000000	5.41731   	34000.000000	2.48027   	34000.000000	0.88761   	34000.000000	0.876024  	34000.000000	2.48026   	34000.000000	3.8646e-06	
36000.000000	5.87585   	36000.000000	2.59252   	36000.000000	0.892319  	36000.000000	0.881118  	36000.000000	2.59251   	36000.000000	3.66228e-06	
38000.000000	6.35357   	38000.000000	2.70448   	38000.000000	0.896721  	38000.000000	0.885934  	38000.000000	2.70447   	38000.000000	3.48063e-06	
40000.000000	6.85066   	40000.000000	2.81616   	40000.000000	0.900854  	40000.000000	0.890501  	40000.000000	2.81616   	40000.000000	3.3166e-06	
42000.000000	7.36733   	42000.000000	2.92758   	42000.000000	0.904751  	42000.000000	0.894842  	42000.000000	2.92757   	42000.000000	3.16773e-06	
44000.000000	7.90378   	44000.000000	3.03874   	44000.000000	0.908441  	44000.000000	0.898979  	44000.000000	3.03874   	44000.000000	3.03199e-06	
46000.000000	8.46022   	46000.000000	3.14966   	46000.000000	0.91195   	46000.000000	0.902929  	46000.000000	3.14966   	46000.000000	2.9077e-06	
48000.000000	9.03685   	48000.000000	3.26035   	48000.000000	0.915288  	48000.000000	0.906709  	48000.000000	3.26035   	48000.000000	2.79346e-06	
50000.000000	9.63389   	50000.000000	3.37081   	50000.000000	0.918447  	50000.000000	0.910331  	50000.000000	3.37081   	50000.000000	2.68809e-06	
