0.001000	1.7558    	0.001000	1.00218   	0.001000	1.08702   	0.001000	1.08702   	0.001000	0.532916  	0.001000	0.469265  	
0.002000	1.93439   	0.002000	1.08943   	0.002000	1.19642   	0.002000	1.19642   	0.002000	0.708647  	0.002000	0.380784  	
0.005000	2.35756   	0.005000	1.28706   	0.005000	1.4347    	0.005000	1.4347    	0.005000	1.03451   	0.005000	0.252553  	
0.008000	2.68781   	0.008000	1.45153   	0.008000	1.62706   	0.008000	1.62706   	0.008000	1.25696   	0.008000	0.194571  	
0.010000	2.87636   	0.010000	1.54917   	0.010000	1.74013   	0.010000	1.74013   	0.010000	1.37896   	0.010000	0.170209  	
0.015000	3.35329   	0.015000	1.79844   	0.015000	2.02436   	0.015000	2.02436   	0.015000	1.66684   	0.015000	0.131596  	
0.020000	3.73392   	0.020000	2.14202   	0.020000	2.37165   	0.020000	2.37165   	0.020000	2.03345   	0.020000	0.108563  	
0.025000	4.15357   	0.025000	2.47811   	0.025000	2.7143    	0.025000	2.7143    	0.025000	2.38543   	0.025000	0.0926784 	
0.030000	4.50918   	0.030000	2.80261   	0.030000	2.9842    	0.030000	2.9842    	0.030000	2.72114   	0.030000	0.0814728 	
0.035000	4.80149   	0.035000	3.11142   	0.035000	3.23854   	0.035000	3.23854   	0.035000	3.0385    	0.035000	0.0729187 	
0.040000	5.03187   	0.040000	3.40165   	0.040000	3.47709   	0.040000	3.47709   	0.040000	3.33584   	0.040000	0.0658061 	
0.045000	5.20276   	0.045000	3.6724    	0.045000	3.70077   	0.045000	3.70077   	0.045000	3.61206   	0.045000	0.0603318 	
0.050000	5.31767   	0.050000	3.92246   	0.050000	3.90953   	0.050000	3.90953   	0.050000	3.86668   	0.050000	0.055778  	
0.055000	5.54936   	0.055000	4.15168   	0.055000	4.10381   	0.055000	4.10381   	0.055000	4.09976   	0.055000	0.0519239 	
0.060000	5.7467    	0.060000	4.36041   	0.060000	4.28413   	0.060000	4.28413   	0.060000	4.3118    	0.060000	0.048615  	
0.070000	6.04817   	0.070000	4.71971   	0.070000	4.60533   	0.070000	4.60533   	0.070000	4.6765    	0.070000	0.043216  	
0.080000	6.3716    	0.080000	5.00916   	0.080000	4.87848   	0.080000	4.87848   	0.080000	4.97018   	0.080000	0.0389859 	
0.090000	6.62569   	0.090000	5.24256   	0.090000	5.10922   	0.090000	5.10922   	0.090000	5.20699   	0.090000	0.0355729 	
0.100000	6.82947   	0.100000	5.43425   	0.100000	5.30311   	0.100000	5.30311   	0.100000	5.4015    	0.100000	0.0327553 	
0.120000	6.95331   	0.120000	5.70257   	0.120000	5.60049   	0.120000	5.60049   	0.120000	5.67421   	0.120000	0.0283627 	
0.140000	7.00255   	0.140000	5.86485   	0.140000	5.8054    	0.140000	5.8054    	0.140000	5.83977   	0.140000	0.0250839 	
0.160000	7.02001   	0.160000	5.954     	0.160000	5.9438    	0.160000	5.9438    	0.160000	5.93146   	0.160000	0.0225343 	
0.180000	7.01857   	0.180000	5.98108   	0.180000	6.0343    	0.180000	6.0343    	0.180000	5.96059   	0.180000	0.0204899 	
0.200000	7.03394   	0.200000	5.98895   	0.200000	6.09001   	0.200000	6.09001   	0.200000	5.97014   	0.200000	0.0188108 	
0.250000	6.90562   	0.250000	5.96636   	0.250000	6.13177   	0.250000	6.13177   	0.250000	5.95068   	0.250000	0.0156753 	
0.300000	6.93402   	0.300000	6.00404   	0.300000	6.09479   	0.300000	6.09479   	0.300000	5.99055   	0.300000	0.0134894 	
0.350000	6.98601   	0.350000	6.03904   	0.350000	6.02004   	0.350000	6.02004   	0.350000	6.02717   	0.350000	0.0118715 	
0.400000	6.97383   	0.400000	6.0093    	0.400000	5.93735   	0.400000	5.93735   	0.400000	5.99868   	0.400000	0.010622  	
0.450000	6.93535   	0.450000	5.95556   	0.450000	5.88588   	0.450000	5.88588   	0.450000	5.94593   	0.450000	0.00962549	
0.500000	6.91593   	0.500000	5.92021   	0.500000	5.81786   	0.500000	5.81786   	0.500000	5.9114    	0.500000	0.00881088	
0.600000	6.60862   	0.600000	5.82924   	0.600000	5.65864   	0.600000	5.65864   	0.600000	5.82168   	0.600000	0.00755573	
0.700000	6.26341   	0.700000	5.71327   	0.700000	5.47615   	0.700000	5.47615   	0.700000	5.70664   	0.700000	0.00663094	
0.800000	6.13018   	0.800000	5.57428   	0.800000	5.29749   	0.800000	5.29749   	0.800000	5.56836   	0.800000	0.00591926	
0.900000	5.98299   	0.900000	5.43018   	0.900000	5.12897   	0.900000	5.12897   	0.900000	5.42483   	0.900000	0.00535344	
1.000000	5.82824   	1.000000	5.285     	1.000000	4.97033   	1.000000	4.97033   	1.000000	5.28011   	1.000000	0.00489207	
1.250000	5.38642   	1.250000	4.8968    	1.250000	4.60544   	1.250000	4.60544   	1.250000	4.89276   	1.250000	0.00403898	
1.500000	4.93151   	1.500000	4.50117   	1.500000	4.27623   	1.500000	4.27623   	1.500000	4.49772   	1.500000	0.00345115	
1.750000	4.54331   	1.750000	4.16845   	1.750000	3.99822   	1.750000	3.99822   	1.750000	4.16543   	1.750000	0.00301997	
2.000000	4.18212   	2.000000	3.85833   	2.000000	3.75728   	2.000000	3.75728   	2.000000	3.85564   	2.000000	0.00268935	
2.250000	3.88168   	2.250000	3.5964    	2.250000	3.54527   	2.250000	3.54527   	2.250000	3.59397   	2.250000	0.00242728	
2.500000	3.61506   	2.500000	3.37612   	2.500000	3.35681   	2.500000	3.35681   	2.500000	3.37391   	2.500000	0.00221414	
3.000000	3.22152   	3.000000	3.02146   	3.000000	3.03594   	3.000000	3.03594   	3.000000	3.01957   	3.000000	0.00188778	
3.500000	2.90887   	3.500000	2.74305   	3.500000	2.77287   	3.500000	2.77287   	3.500000	2.7414    	3.500000	0.00164902	
4.000000	2.65443   	4.000000	2.5177    	4.000000	2.55338   	4.000000	2.55338   	4.000000	2.51623   	4.000000	0.00146633	
4.500000	2.44324   	4.500000	2.33067   	4.500000	2.36755   	4.500000	2.36755   	4.500000	2.32934   	4.500000	0.00132178	
5.000000	2.26502   	5.000000	2.1722    	5.000000	2.20823   	5.000000	2.20823   	5.000000	2.171     	5.000000	0.0012044 	
5.500000	2.11254   	5.500000	2.03584   	5.500000	2.07014   	5.500000	2.07014   	5.500000	2.03473   	5.500000	0.00110707	
6.000000	1.98053   	6.000000	1.91703   	6.000000	1.94928   	6.000000	1.94928   	6.000000	1.91601   	6.000000	0.001025  	
6.500000	1.86508   	6.500000	1.81248   	6.500000	1.84259   	6.500000	1.84259   	6.500000	1.81153   	6.500000	0.000954796	
7.000000	1.76322   	7.000000	1.71968   	7.000000	1.74771   	7.000000	1.74771   	7.000000	1.71879   	7.000000	0.000894028	
7.500000	1.67266   	7.500000	1.6367    	7.500000	1.66276   	7.500000	1.66276   	7.500000	1.63586   	7.500000	0.000840885	
8.000000	1.59158   	8.000000	1.56202   	8.000000	1.58623   	8.000000	1.58623   	8.000000	1.56123   	8.000000	0.000793993	
8.500000	1.51855   	8.500000	1.49443   	8.500000	1.51692   	8.500000	1.51692   	8.500000	1.49368   	8.500000	0.000752295	
9.000000	1.45241   	9.000000	1.43294   	9.000000	1.45383   	9.000000	1.45383   	9.000000	1.43223   	9.000000	0.000714959	
9.500000	1.39222   	9.500000	1.37675   	9.500000	1.39616   	9.500000	1.39616   	9.500000	1.37606   	9.500000	0.000681326	
10.000000	1.33719   	10.000000	1.33419   	10.000000	1.34321   	10.000000	1.34321   	10.000000	1.33353   	10.000000	0.00065086	
11.000000	1.24016   	11.000000	1.24272   	11.000000	1.24783   	11.000000	1.24877   	11.000000	1.24213   	11.000000	0.000597774	
12.000000	1.15727   	12.000000	1.16355   	12.000000	1.16579   	12.000000	1.16733   	12.000000	1.163     	12.000000	0.00055305	
13.000000	1.0856    	13.000000	1.09437   	13.000000	1.09444   	13.000000	1.09639   	13.000000	1.09385   	13.000000	0.000514831	
14.000000	1.02299   	14.000000	1.03341   	14.000000	1.03181   	14.000000	1.03401   	14.000000	1.03293   	14.000000	0.000481773	
15.000000	0.967789  	15.000000	0.979307  	15.000000	0.976359  	15.000000	0.978728  	15.000000	0.978854  	15.000000	0.000452884	
16.000000	0.918748  	16.000000	0.93096   	16.000000	0.926946  	16.000000	0.92939   	16.000000	0.930532  	16.000000	0.000427411	
17.000000	0.874874  	17.000000	0.887498  	17.000000	0.882632  	17.000000	0.885081  	17.000000	0.887093  	17.000000	0.000404773	
18.000000	0.835377  	18.000000	0.848216  	18.000000	0.842627  	18.000000	0.845066  	18.000000	0.847831  	18.000000	0.000384515	
19.000000	0.799626  	19.000000	0.812536  	19.000000	0.806331  	19.000000	0.80875   	19.000000	0.81217   	19.000000	0.000366275	
20.000000	0.767103  	20.000000	0.779983  	20.000000	0.773281  	20.000000	0.775641  	20.000000	0.779633  	20.000000	0.000349762	
21.000000	0.737382  	21.000000	0.750161  	21.000000	0.743062  	21.000000	0.745334  	21.000000	0.749826  	21.000000	0.000334737	
22.000000	0.710112  	22.000000	0.722737  	22.000000	0.715309  	22.000000	0.717488  	22.000000	0.722416  	22.000000	0.000321007	
23.000000	0.684997  	23.000000	0.697433  	23.000000	0.689725  	23.000000	0.691818  	23.000000	0.697124  	23.000000	0.000308407	
24.000000	0.661786  	24.000000	0.674009  	24.000000	0.666068  	24.000000	0.66808   	24.000000	0.673712  	24.000000	0.000296801	
25.000000	0.640267  	25.000000	0.652262  	25.000000	0.644134  	25.000000	0.646066  	25.000000	0.651976  	25.000000	0.000286076	
27.000000	0.601606  	27.000000	0.61312   	27.000000	0.60477   	27.000000	0.606523  	27.000000	0.612853  	27.000000	0.000266886	
29.000000	0.567839  	29.000000	0.578865  	29.000000	0.570495  	29.000000	0.572026  	29.000000	0.578615  	29.000000	0.00025021	
31.000000	0.538078  	31.000000	0.548629  	31.000000	0.540747  	31.000000	0.542001  	31.000000	0.548393  	31.000000	0.000235578	
33.000000	0.511639  	33.000000	0.521735  	33.000000	0.514623  	33.000000	0.515622  	33.000000	0.521513  	33.000000	0.00022263	
35.000000	0.487986  	35.000000	0.497654  	35.000000	0.491227  	35.000000	0.492003  	35.000000	0.497443  	35.000000	0.000211089	
38.000000	0.456822  	38.000000	0.465901  	38.000000	0.46036   	38.000000	0.460852  	38.000000	0.465705  	38.000000	0.000195943	
41.000000	0.429883  	41.000000	0.438433  	41.000000	0.433647  	41.000000	0.433895  	41.000000	0.43825   	41.000000	0.000182907	
44.000000	0.406349  	44.000000	0.41443   	44.000000	0.410219  	44.000000	0.410323  	44.000000	0.414258  	44.000000	0.000171563	
47.000000	0.385603  	47.000000	0.393267  	47.000000	0.389578  	47.000000	0.389527  	47.000000	0.393105  	47.000000	0.000161597	
50.000000	0.367168  	50.000000	0.374463  	50.000000	0.371209  	50.000000	0.371035  	50.000000	0.37431   	50.000000	0.00015277	
55.000000	0.340603  	55.000000	0.347374  	55.000000	0.344665  	55.000000	0.344369  	55.000000	0.347234  	55.000000	0.000140099	
60.000000	0.318163  	60.000000	0.324506  	60.000000	0.322219  	60.000000	0.321829  	60.000000	0.324377  	60.000000	0.000129442	
65.000000	0.298941  	65.000000	0.304935  	65.000000	0.302948  	65.000000	0.302514  	65.000000	0.304815  	65.000000	0.000120349	
70.000000	0.282278  	70.000000	0.287988  	70.000000	0.286284  	70.000000	0.285769  	70.000000	0.287876  	70.000000	0.000112496	
75.000000	0.267685  	75.000000	0.273166  	75.000000	0.271638  	75.000000	0.271106  	75.000000	0.27306   	75.000000	0.000105642	
80.000000	0.254792  	80.000000	0.260087  	80.000000	0.258735  	80.000000	0.258155  	80.000000	0.259987  	80.000000	9.9606e-05	
85.000000	0.243313  	85.000000	0.248459  	85.000000	0.247216  	85.000000	0.246629  	85.000000	0.248365  	85.000000	9.42476e-05	
90.000000	0.233021  	90.000000	0.23805   	90.000000	0.236927  	90.000000	0.236303  	90.000000	0.237961  	90.000000	8.94575e-05	
95.000000	0.223739  	95.000000	0.228677  	95.000000	0.227621  	95.000000	0.226996  	95.000000	0.228592  	95.000000	8.51488e-05	
100.000000	0.21532   	100.000000	0.22019   	100.000000	0.219189  	100.000000	0.218562  	100.000000	0.220109  	100.000000	8.12514e-05	
105.000000	0.207647  	105.000000	0.212469  	105.000000	0.21151   	105.000000	0.210885  	105.000000	0.212391  	105.000000	7.77085e-05	
110.000000	0.200624  	110.000000	0.205413  	110.000000	0.204512  	110.000000	0.203864  	110.000000	0.205339  	110.000000	7.44732e-05	
115.000000	0.194168  	115.000000	0.19894   	115.000000	0.198074  	115.000000	0.197419  	115.000000	0.198868  	115.000000	7.15066e-05	
120.000000	0.188213  	120.000000	0.192979  	120.000000	0.192132  	120.000000	0.191482  	120.000000	0.19291   	120.000000	6.87762e-05	
125.000000	0.1827    	125.000000	0.187471  	125.000000	0.186642  	125.000000	0.185993  	125.000000	0.187405  	125.000000	6.62544e-05	
130.000000	0.177582  	130.000000	0.182366  	130.000000	0.181551  	130.000000	0.180904  	130.000000	0.182302  	130.000000	6.3918e-05	
135.000000	0.172815  	135.000000	0.177622  	135.000000	0.176817  	135.000000	0.176173  	135.000000	0.17756   	135.000000	6.17469e-05	
140.000000	0.168365  	140.000000	0.173201  	140.000000	0.172404  	140.000000	0.171762  	140.000000	0.173141  	140.000000	5.9724e-05	
145.000000	0.164199  	145.000000	0.16907   	145.000000	0.16828   	145.000000	0.16764   	145.000000	0.169013  	145.000000	5.78345e-05	
150.000000	0.160291  	150.000000	0.165203  	150.000000	0.164417  	150.000000	0.16378   	150.000000	0.165147  	150.000000	5.60653e-05	
155.000000	0.154789  	155.000000	0.161574  	155.000000	0.160792  	155.000000	0.160158  	155.000000	0.16152   	155.000000	5.44053e-05	
160.000000	0.151563  	160.000000	0.158163  	160.000000	0.157383  	160.000000	0.156751  	160.000000	0.15811   	160.000000	5.28444e-05	
165.000000	0.148522  	165.000000	0.154949  	165.000000	0.154171  	165.000000	0.153542  	165.000000	0.154898  	165.000000	5.1374e-05	
170.000000	0.145649  	170.000000	0.151916  	170.000000	0.15114   	170.000000	0.150513  	170.000000	0.151866  	170.000000	4.99863e-05	
175.000000	0.14293   	175.000000	0.14905   	175.000000	0.148275  	175.000000	0.14765   	175.000000	0.149002  	175.000000	4.86744e-05	
180.000000	0.140354  	180.000000	0.146337  	180.000000	0.145562  	180.000000	0.14494   	180.000000	0.146289  	180.000000	4.74322e-05	
185.000000	0.137908  	185.000000	0.143765  	185.000000	0.14299   	185.000000	0.142371  	185.000000	0.143718  	185.000000	4.62542e-05	
190.000000	0.135585  	190.000000	0.141322  	190.000000	0.140549  	190.000000	0.139932  	190.000000	0.141277  	190.000000	4.51356e-05	
195.000000	0.133373  	195.000000	0.139001  	195.000000	0.138228  	195.000000	0.137613  	195.000000	0.138957  	195.000000	4.40718e-05	
200.000000	0.131266  	200.000000	0.136791  	200.000000	0.136019  	200.000000	0.135406  	200.000000	0.136748  	200.000000	4.30588e-05	
210.000000	0.127336  	210.000000	0.132677  	210.000000	0.131905  	210.000000	0.131298  	210.000000	0.132636  	210.000000	4.11715e-05	
220.000000	0.123744  	220.000000	0.128924  	220.000000	0.128154  	220.000000	0.127551  	220.000000	0.128885  	220.000000	3.94486e-05	
230.000000	0.120448  	230.000000	0.125488  	230.000000	0.12472   	230.000000	0.124121  	230.000000	0.12545   	230.000000	3.78691e-05	
240.000000	0.117413  	240.000000	0.122329  	240.000000	0.121564  	240.000000	0.12097   	240.000000	0.122293  	240.000000	3.64157e-05	
250.000000	0.114608  	250.000000	0.119417  	250.000000	0.118658  	250.000000	0.118066  	250.000000	0.119382  	250.000000	3.50737e-05	
260.000000	0.112009  	260.000000	0.116723  	260.000000	0.115962  	260.000000	0.11538   	260.000000	0.116689  	260.000000	3.38306e-05	
270.000000	0.109593  	270.000000	0.114223  	270.000000	0.113458  	270.000000	0.11289   	270.000000	0.114191  	270.000000	3.26758e-05	
280.000000	0.107342  	280.000000	0.111899  	280.000000	0.111141  	280.000000	0.110575  	280.000000	0.111867  	280.000000	3.16e-05  	
290.000000	0.10524   	290.000000	0.109731  	290.000000	0.108982  	290.000000	0.108419  	290.000000	0.109701  	290.000000	3.05953e-05	
300.000000	0.103271  	300.000000	0.107706  	300.000000	0.106964  	300.000000	0.106405  	300.000000	0.107676  	300.000000	2.96548e-05	
310.000000	0.101425  	310.000000	0.105809  	310.000000	0.105077  	310.000000	0.10452   	310.000000	0.10578   	310.000000	2.87724e-05	
320.000000	0.0996896 	320.000000	0.104029  	320.000000	0.103307  	320.000000	0.102753  	320.000000	0.104002  	320.000000	2.79429e-05	
330.000000	0.0980555 	330.000000	0.102357  	330.000000	0.101643  	330.000000	0.101093  	330.000000	0.102329  	330.000000	2.71616e-05	
340.000000	0.0965143 	340.000000	0.100781  	340.000000	0.100079  	340.000000	0.0995305 	340.000000	0.100755  	340.000000	2.64244e-05	
350.000000	0.0950584 	350.000000	0.0992954 	350.000000	0.0986055 	350.000000	0.0980583 	350.000000	0.0992696 	350.000000	2.57276e-05	
360.000000	0.0936809 	360.000000	0.0978918 	360.000000	0.0972095 	360.000000	0.0966688 	360.000000	0.0978667 	360.000000	2.50679e-05	
370.000000	0.0923759 	370.000000	0.096564  	370.000000	0.0958865 	370.000000	0.0953554 	370.000000	0.0965396 	370.000000	2.44423e-05	
380.000000	0.0911379 	380.000000	0.0953063 	380.000000	0.0946386 	380.000000	0.0941122 	380.000000	0.0952824 	380.000000	2.38484e-05	
390.000000	0.089962  	390.000000	0.0941133 	390.000000	0.0934594 	390.000000	0.0929341 	390.000000	0.09409   	390.000000	2.32836e-05	
400.000000	0.0888437 	400.000000	0.0929804 	400.000000	0.0923401 	400.000000	0.0918162 	400.000000	0.0929577 	400.000000	2.2746e-05	
410.000000	0.087779  	410.000000	0.0919034 	410.000000	0.0912759 	410.000000	0.0907543 	410.000000	0.0918811 	410.000000	2.22335e-05	
420.000000	0.0867644 	420.000000	0.0908783 	420.000000	0.0902638 	420.000000	0.0897445 	420.000000	0.0908565 	420.000000	2.17444e-05	
430.000000	0.0857964 	430.000000	0.0899016 	430.000000	0.0893008 	430.000000	0.0887831 	430.000000	0.0898803 	430.000000	2.12771e-05	
440.000000	0.084872  	440.000000	0.0889701 	440.000000	0.0883841 	440.000000	0.0878671 	440.000000	0.0889493 	440.000000	2.08302e-05	
450.000000	0.0839886 	450.000000	0.088081  	450.000000	0.0875085 	450.000000	0.0869935 	450.000000	0.0880606 	450.000000	2.04024e-05	
460.000000	0.0831435 	460.000000	0.0872314 	460.000000	0.0866695 	460.000000	0.0861594 	460.000000	0.0872114 	460.000000	1.99924e-05	
470.000000	0.0823344 	470.000000	0.0864191 	470.000000	0.0858662 	470.000000	0.0853626 	470.000000	0.0863995 	470.000000	1.95992e-05	
480.000000	0.0815592 	480.000000	0.0856416 	480.000000	0.0850996 	480.000000	0.0846006 	480.000000	0.0856224 	480.000000	1.92217e-05	
490.000000	0.0808159 	490.000000	0.084897  	490.000000	0.0843687 	490.000000	0.0838714 	490.000000	0.0848782 	490.000000	1.88589e-05	
500.000000	0.0801027 	500.000000	0.0841834 	500.000000	0.0836698 	500.000000	0.083173  	500.000000	0.0841649 	500.000000	1.85101e-05	
520.000000	0.0787599 	520.000000	0.0828419 	520.000000	0.0823563 	520.000000	0.0818619 	520.000000	0.082824  	520.000000	1.78511e-05	
540.000000	0.077519  	540.000000	0.0816045 	540.000000	0.081146  	540.000000	0.0806545 	540.000000	0.0815873 	540.000000	1.7239e-05	
560.000000	0.0763694 	560.000000	0.0804604 	560.000000	0.0800292 	560.000000	0.0795399 	560.000000	0.0804438 	560.000000	1.6669e-05	
580.000000	0.0753022 	580.000000	0.0794003 	580.000000	0.0789956 	580.000000	0.0785085 	580.000000	0.0793842 	580.000000	1.61366e-05	
600.000000	0.0743097 	600.000000	0.0784159 	600.000000	0.0780331 	600.000000	0.077552  	600.000000	0.0784003 	600.000000	1.56384e-05	
620.000000	0.0733848 	620.000000	0.0775001 	620.000000	0.0771377 	620.000000	0.0766634 	620.000000	0.077485  	620.000000	1.51711e-05	
640.000000	0.0725217 	640.000000	0.0766467 	640.000000	0.076308  	640.000000	0.0758363 	640.000000	0.076632  	640.000000	1.47318e-05	
660.000000	0.071715  	660.000000	0.0758501 	660.000000	0.0755357 	660.000000	0.0750651 	660.000000	0.0758358 	660.000000	1.43181e-05	
680.000000	0.07096   	680.000000	0.0751055 	680.000000	0.0748137 	680.000000	0.0743449 	680.000000	0.0750915 	680.000000	1.39278e-05	
700.000000	0.0702524 	700.000000	0.0744084 	700.000000	0.0741387 	700.000000	0.0736713 	700.000000	0.0743949 	700.000000	1.3559e-05	
720.000000	0.0695886 	720.000000	0.0737551 	720.000000	0.073507  	720.000000	0.0730404 	720.000000	0.0737419 	720.000000	1.32098e-05	
740.000000	0.0689652 	740.000000	0.0731421 	740.000000	0.0729129 	740.000000	0.0724487 	740.000000	0.0731293 	740.000000	1.28788e-05	
760.000000	0.0683791 	760.000000	0.0725663 	760.000000	0.0723524 	760.000000	0.0718932 	760.000000	0.0725538 	760.000000	1.25645e-05	
780.000000	0.0678277 	780.000000	0.0720249 	780.000000	0.0718253 	780.000000	0.0713709 	780.000000	0.0720126 	780.000000	1.22657e-05	
800.000000	0.0673084 	800.000000	0.0715154 	800.000000	0.0713313 	800.000000	0.0708795 	800.000000	0.0715034 	800.000000	1.19813e-05	
820.000000	0.0668192 	820.000000	0.0710354 	820.000000	0.0708688 	820.000000	0.0704179 	820.000000	0.0710237 	820.000000	1.17102e-05	
840.000000	0.0663578 	840.000000	0.070583  	840.000000	0.0704392 	840.000000	0.0699889 	840.000000	0.0705716 	840.000000	1.14515e-05	
860.000000	0.0659226 	860.000000	0.0701563 	860.000000	0.0700333 	860.000000	0.0695841 	860.000000	0.0701451 	860.000000	1.12044e-05	
880.000000	0.0655118 	880.000000	0.0697535 	880.000000	0.0696499 	880.000000	0.0692018 	880.000000	0.0697425 	880.000000	1.09681e-05	
900.000000	0.0651239 	900.000000	0.0693731 	900.000000	0.0692878 	900.000000	0.0688405 	900.000000	0.0693624 	900.000000	1.07419e-05	
920.000000	0.0647574 	920.000000	0.0690137 	920.000000	0.0689457 	920.000000	0.0684988 	920.000000	0.0690032 	920.000000	1.05252e-05	
940.000000	0.0644112 	940.000000	0.068674  	940.000000	0.0686215 	940.000000	0.0681755 	940.000000	0.0686636 	940.000000	1.03173e-05	
960.000000	0.0640839 	960.000000	0.0683527 	960.000000	0.0683135 	960.000000	0.0678692 	960.000000	0.0683425 	960.000000	1.01177e-05	
980.000000	0.0637746 	980.000000	0.0680487 	980.000000	0.0680205 	980.000000	0.067579  	980.000000	0.0680388 	980.000000	9.92602e-06	
1000.000000	0.0634821 	1000.000000	0.0677611 	1000.000000	0.0677423 	1000.000000	0.0673039 	1000.000000	0.0677514 	1000.000000	9.74168e-06	
1020.000000	0.0632057 	1020.000000	0.0674889 	1020.000000	0.0674785 	1020.000000	0.067043  	1020.000000	0.0674793 	1020.000000	9.5643e-06	
1040.000000	0.0629443 	1040.000000	0.0672312 	1040.000000	0.067229  	1040.000000	0.0667953 	1040.000000	0.0672218 	1040.000000	9.39348e-06	
1060.000000	0.0626972 	1060.000000	0.0669872 	1060.000000	0.0669929 	1060.000000	0.0665602 	1060.000000	0.066978  	1060.000000	9.22886e-06	
1080.000000	0.0624636 	1080.000000	0.0667563 	1080.000000	0.0667691 	1080.000000	0.0663369 	1080.000000	0.0667472 	1080.000000	9.0701e-06	
1100.000000	0.0622429 	1100.000000	0.0665375 	1100.000000	0.0665566 	1100.000000	0.0661246 	1100.000000	0.0665286 	1100.000000	8.9169e-06	
1120.000000	0.0620344 	1120.000000	0.0663305 	1120.000000	0.0663545 	1120.000000	0.0659229 	1120.000000	0.0663217 	1120.000000	8.76897e-06	
1140.000000	0.0618375 	1140.000000	0.0661344 	1140.000000	0.0661621 	1140.000000	0.0657311 	1140.000000	0.0661258 	1140.000000	8.62603e-06	
1160.000000	0.0616517 	1160.000000	0.0659489 	1160.000000	0.065979  	1160.000000	0.0655487 	1160.000000	0.0659404 	1160.000000	8.48783e-06	
1180.000000	0.0614764 	1180.000000	0.0657732 	1180.000000	0.0658048 	1180.000000	0.0653751 	1180.000000	0.0657649 	1180.000000	8.35414e-06	
1200.000000	0.0613111 	1200.000000	0.0656071 	1200.000000	0.0656391 	1200.000000	0.06521   	1200.000000	0.0655989 	1200.000000	8.22473e-06	
1220.000000	0.0611554 	1220.000000	0.06545   	1220.000000	0.0654816 	1220.000000	0.0650528 	1220.000000	0.0654419 	1220.000000	8.09941e-06	
1240.000000	0.0610088 	1240.000000	0.0653014 	1240.000000	0.0653317 	1240.000000	0.0649032 	1240.000000	0.0652934 	1240.000000	7.97798e-06	
1260.000000	0.0608709 	1260.000000	0.065161  	1260.000000	0.065189  	1260.000000	0.0647607 	1260.000000	0.0651532 	1260.000000	7.86026e-06	
1280.000000	0.0607414 	1280.000000	0.0650285 	1280.000000	0.0650528 	1280.000000	0.064625  	1280.000000	0.0650207 	1280.000000	7.74609e-06	
1300.000000	0.0606199 	1300.000000	0.0649033 	1300.000000	0.0649229 	1300.000000	0.0644958 	1300.000000	0.0648957 	1300.000000	7.63529e-06	
1320.000000	0.060506  	1320.000000	0.0647853 	1320.000000	0.0647988 	1320.000000	0.0643728 	1320.000000	0.0647778 	1320.000000	7.52772e-06	
1340.000000	0.0603995 	1340.000000	0.0646741 	1340.000000	0.0646802 	1340.000000	0.0642556 	1340.000000	0.0646667 	1340.000000	7.42325e-06	
1360.000000	0.0603    	1360.000000	0.0645694 	1360.000000	0.0645671 	1360.000000	0.064144  	1360.000000	0.0645621 	1360.000000	7.32173e-06	
1380.000000	0.0602072 	1380.000000	0.0644709 	1380.000000	0.0644591 	1380.000000	0.0640377 	1380.000000	0.0644637 	1380.000000	7.22304e-06	
1400.000000	0.060121  	1400.000000	0.0643784 	1400.000000	0.0643563 	1400.000000	0.0639364 	1400.000000	0.0643713 	1400.000000	7.12707e-06	
1420.000000	0.0600409 	1420.000000	0.0642917 	1420.000000	0.0642585 	1420.000000	0.06384   	1420.000000	0.0642846 	1420.000000	7.0337e-06	
1440.000000	0.0599669 	1440.000000	0.0642104 	1440.000000	0.0641655 	1440.000000	0.0637482 	1440.000000	0.0642034 	1440.000000	6.94283e-06	
1460.000000	0.0598986 	1460.000000	0.0641343 	1460.000000	0.0640773 	1460.000000	0.0636608 	1460.000000	0.0641275 	1460.000000	6.85436e-06	
1480.000000	0.0598358 	1480.000000	0.0640633 	1480.000000	0.0639934 	1480.000000	0.0635775 	1480.000000	0.0640566 	1480.000000	6.76819e-06	
1500.000000	0.0597784 	1500.000000	0.0639972 	1500.000000	0.0639138 	1500.000000	0.0634983 	1500.000000	0.0639905 	1500.000000	6.68423e-06	
1520.000000	0.0597261 	1520.000000	0.0639357 	1520.000000	0.0638382 	1520.000000	0.063423  	1520.000000	0.0639291 	1520.000000	6.60239e-06	
1540.000000	0.0596788 	1540.000000	0.0638787 	1540.000000	0.0637663 	1540.000000	0.0633513 	1540.000000	0.0638722 	1540.000000	6.52261e-06	
1560.000000	0.0596363 	1560.000000	0.063826  	1560.000000	0.0636979 	1560.000000	0.0632831 	1560.000000	0.0638196 	1560.000000	6.44479e-06	
1580.000000	0.0595984 	1580.000000	0.0637775 	1580.000000	0.0636329 	1580.000000	0.0632182 	1580.000000	0.0637711 	1580.000000	6.36887e-06	
1600.000000	0.0595649 	1600.000000	0.063733  	1600.000000	0.0635712 	1600.000000	0.0631566 	1600.000000	0.0637267 	1600.000000	6.29478e-06	
1620.000000	0.0595358 	1620.000000	0.0636923 	1620.000000	0.0635124 	1620.000000	0.0630981 	1620.000000	0.0636861 	1620.000000	6.22245e-06	
1640.000000	0.0595108 	1640.000000	0.0636553 	1640.000000	0.0634566 	1640.000000	0.0630425 	1640.000000	0.0636492 	1640.000000	6.15182e-06	
1660.000000	0.0594898 	1660.000000	0.0636219 	1660.000000	0.0634036 	1660.000000	0.0629897 	1660.000000	0.0636159 	1660.000000	6.08283e-06	
1680.000000	0.0594728 	1680.000000	0.063592  	1680.000000	0.0633533 	1680.000000	0.0629397 	1680.000000	0.063586  	1680.000000	6.01542e-06	
1700.000000	0.0594595 	1700.000000	0.0635654 	1700.000000	0.0633056 	1700.000000	0.0628923 	1700.000000	0.0635595 	1700.000000	5.94954e-06	
1750.000000	0.059442  	1750.000000	0.0635127 	1750.000000	0.063197  	1750.000000	0.0627845 	1750.000000	0.063507  	1750.000000	5.79118e-06	
1800.000000	0.0594455 	1800.000000	0.0634785 	1800.000000	0.0631028 	1800.000000	0.0626908 	1800.000000	0.0634729 	1800.000000	5.6413e-06	
1850.000000	0.0594686 	1850.000000	0.0634613 	1850.000000	0.0630215 	1850.000000	0.0626099 	1850.000000	0.0634558 	1850.000000	5.49923e-06	
1900.000000	0.0595099 	1900.000000	0.0634597 	1900.000000	0.0629518 	1900.000000	0.0625406 	1900.000000	0.0634543 	1900.000000	5.36437e-06	
1950.000000	0.059568  	1950.000000	0.0634726 	1950.000000	0.0628926 	1950.000000	0.0624819 	1950.000000	0.0634673 	1950.000000	5.23617e-06	
2000.000000	0.0596419 	2000.000000	0.0634988 	2000.000000	0.0628427 	2000.000000	0.0624328 	2000.000000	0.0634937 	2000.000000	5.11415e-06	
2100.000000	0.0598329 	2100.000000	0.0635876 	2100.000000	0.0627679 	2100.000000	0.0623601 	2100.000000	0.0635827 	2100.000000	4.88693e-06	
2200.000000	0.0600757 	2200.000000	0.0637192 	2200.000000	0.0627219 	2200.000000	0.0623167 	2200.000000	0.0637145 	2200.000000	4.67965e-06	
2300.000000	0.0603643 	2300.000000	0.0638882 	2300.000000	0.0627005 	2300.000000	0.0622978 	2300.000000	0.0638837 	2300.000000	4.48975e-06	
2400.000000	0.0606937 	2400.000000	0.0640898 	2400.000000	0.0627004 	2400.000000	0.0622995 	2400.000000	0.0640855 	2400.000000	4.31513e-06	
2500.000000	0.0610597 	2500.000000	0.0643201 	2500.000000	0.0627184 	2500.000000	0.0623185 	2500.000000	0.064316  	2500.000000	4.15399e-06	
2600.000000	0.0614587 	2600.000000	0.0645758 	2600.000000	0.0627516 	2600.000000	0.0623523 	2600.000000	0.0645718 	2600.000000	4.00481e-06	
2700.000000	0.0618876 	2700.000000	0.064854  	2700.000000	0.0627976 	2700.000000	0.0623986 	2700.000000	0.0648501 	2700.000000	3.8663e-06	
2800.000000	0.0623437 	2800.000000	0.0651523 	2800.000000	0.0628542 	2800.000000	0.0624554 	2800.000000	0.0651485 	2800.000000	3.73733e-06	
2900.000000	0.0628247 	2900.000000	0.0654685 	2900.000000	0.0629199 	2900.000000	0.0625212 	2900.000000	0.0654649 	2900.000000	3.61695e-06	
3000.000000	0.0633286 	3000.000000	0.0658009 	3000.000000	0.0629931 	3000.000000	0.0625947 	3000.000000	0.0657974 	3000.000000	3.50432e-06	
3200.000000	0.0643983 	3200.000000	0.0665079 	3200.000000	0.063158  	3200.000000	0.0627601 	3200.000000	0.0665046 	3200.000000	3.29946e-06	
3400.000000	0.0655409 	3400.000000	0.0672626 	3400.000000	0.0633416 	3400.000000	0.0629443 	3400.000000	0.0672595 	3400.000000	3.11789e-06	
3600.000000	0.0667473 	3600.000000	0.0680569 	3600.000000	0.0635383 	3600.000000	0.0631418 	3600.000000	0.068054  	3600.000000	2.95582e-06	
3800.000000	0.0680102 	3800.000000	0.0688844 	3800.000000	0.0637442 	3800.000000	0.0633487 	3800.000000	0.0688815 	3800.000000	2.81024e-06	
4000.000000	0.0693235 	4000.000000	0.0697397 	4000.000000	0.0639563 	4000.000000	0.0635618 	4000.000000	0.069737  	4000.000000	2.67873e-06	
4200.000000	0.0706825 	4200.000000	0.0706186 	4200.000000	0.0641724 	4200.000000	0.0637788 	4200.000000	0.0706161 	4200.000000	2.55933e-06	
4400.000000	0.0720832 	4400.000000	0.0715179 	4400.000000	0.0643906 	4400.000000	0.063998  	4400.000000	0.0715154 	4400.000000	2.45042e-06	
4600.000000	0.0735222 	4600.000000	0.0724345 	4600.000000	0.0646097 	4600.000000	0.0642179 	4600.000000	0.0724322 	4600.000000	2.35066e-06	
4800.000000	0.0749969 	4800.000000	0.0733662 	4800.000000	0.0648287 	4800.000000	0.0644377 	4800.000000	0.0733639 	4800.000000	2.25894e-06	
5000.000000	0.0765048 	5000.000000	0.074311  	5000.000000	0.0650467 	5000.000000	0.0646564 	5000.000000	0.0743088 	5000.000000	2.17432e-06	
5250.000000	0.0784334 	5250.000000	0.0755078 	5250.000000	0.0653169 	5250.000000	0.0649275 	5250.000000	0.0755057 	5250.000000	2.0773e-06	
5500.000000	0.0804076 	5500.000000	0.0767198 	5500.000000	0.0655839 	5500.000000	0.0651951 	5500.000000	0.0767178 	5500.000000	1.98882e-06	
6000.000000	0.0844822 	6000.000000	0.0791805 	6000.000000	0.0661055 	6000.000000	0.0657179 	6000.000000	0.0791786 	6000.000000	1.83327e-06	
6500.000000	0.0887116 	6500.000000	0.0816793 	6500.000000	0.0666087 	6500.000000	0.066222  	6500.000000	0.0816776 	6500.000000	1.70089e-06	
7000.000000	0.0930835 	7000.000000	0.0842066 	7000.000000	0.0670923 	7000.000000	0.0667063 	7000.000000	0.084205  	7000.000000	1.58683e-06	
7500.000000	0.0975888 	7500.000000	0.0867552 	7500.000000	0.0675558 	7500.000000	0.0671709 	7500.000000	0.0867537 	7500.000000	1.4875e-06	
8000.000000	0.102221  	8000.000000	0.08932   	8000.000000	0.0680002 	8000.000000	0.0676161 	8000.000000	0.0893186 	8000.000000	1.4002e-06	
8500.000000	0.106974  	8500.000000	0.091897  	8500.000000	0.0684269 	8500.000000	0.0680429 	8500.000000	0.0918957 	8500.000000	1.32284e-06	
9000.000000	0.111844  	9000.000000	0.0944833 	9000.000000	0.0688364 	9000.000000	0.0684521 	9000.000000	0.094482  	9000.000000	1.25381e-06	
9500.000000	0.116829  	9500.000000	0.0970765 	9500.000000	0.0692279 	9500.000000	0.0688448 	9500.000000	0.0970753 	9500.000000	1.19181e-06	
10000.000000	0.121925  	10000.000000	0.0996749 	10000.000000	0.0696023 	10000.000000	0.0692218 	10000.000000	0.0996738 	10000.000000	1.13582e-06	
11000.000000	0.132443  	11000.000000	0.104882  	11000.000000	0.0703098 	11000.000000	0.0699329 	11000.000000	0.104881  	11000.000000	1.03865e-06	
12000.000000	0.143387  	12000.000000	0.110096  	12000.000000	0.0709702 	12000.000000	0.0705924 	12000.000000	0.110095  	12000.000000	9.57185e-07	
13000.000000	0.154748  	13000.000000	0.115311  	13000.000000	0.0715843 	13000.000000	0.0712065 	13000.000000	0.11531   	13000.000000	8.87878e-07	
14000.000000	0.16652   	14000.000000	0.120524  	14000.000000	0.072155  	14000.000000	0.0717803 	14000.000000	0.120524  	14000.000000	8.28174e-07	
15000.000000	0.178701  	15000.000000	0.125734  	15000.000000	0.0726879 	15000.000000	0.0723185 	15000.000000	0.125733  	15000.000000	7.76192e-07	
16000.000000	0.191288  	16000.000000	0.130937  	16000.000000	0.0731894 	16000.000000	0.0728249 	16000.000000	0.130936  	16000.000000	7.30512e-07	
17000.000000	0.204279  	17000.000000	0.136133  	17000.000000	0.0736636 	17000.000000	0.0733029 	17000.000000	0.136132  	17000.000000	6.90044e-07	
18000.000000	0.217674  	18000.000000	0.141322  	18000.000000	0.0741137 	18000.000000	0.0737551 	18000.000000	0.141321  	18000.000000	6.53938e-07	
19000.000000	0.231473  	19000.000000	0.146502  	19000.000000	0.0745419 	19000.000000	0.0741843 	19000.000000	0.146502  	19000.000000	6.21518e-07	
20000.000000	0.245675  	20000.000000	0.151674  	20000.000000	0.0749502 	20000.000000	0.0745924 	20000.000000	0.151674  	20000.000000	5.92242e-07	
21000.000000	0.260282  	21000.000000	0.156838  	21000.000000	0.0753386 	21000.000000	0.0749813 	21000.000000	0.156837  	21000.000000	5.65671e-07	
22000.000000	0.275293  	22000.000000	0.161993  	22000.000000	0.0757059 	22000.000000	0.0753528 	22000.000000	0.161992  	22000.000000	5.41444e-07	
23000.000000	0.290711  	23000.000000	0.16714   	23000.000000	0.0760573 	23000.000000	0.0757082 	23000.000000	0.167139  	23000.000000	5.19259e-07	
24000.000000	0.306537  	24000.000000	0.172278  	24000.000000	0.0763946 	24000.000000	0.0760488 	24000.000000	0.172277  	24000.000000	4.98869e-07	
25000.000000	0.322772  	25000.000000	0.177408  	25000.000000	0.0767184 	25000.000000	0.0763757 	25000.000000	0.177407  	25000.000000	4.8006e-07	
26000.000000	0.339416  	26000.000000	0.182529  	26000.000000	0.0770298 	26000.000000	0.07669   	26000.000000	0.182529  	26000.000000	4.62655e-07	
27000.000000	0.356473  	27000.000000	0.187643  	27000.000000	0.0773299 	27000.000000	0.0769926 	27000.000000	0.187642  	27000.000000	4.46501e-07	
28000.000000	0.373944  	28000.000000	0.192748  	28000.000000	0.0776191 	28000.000000	0.0772843 	28000.000000	0.192748  	28000.000000	4.31467e-07	
29000.000000	0.39183   	29000.000000	0.197846  	29000.000000	0.0778977 	29000.000000	0.0775659 	29000.000000	0.197846  	29000.000000	4.17438e-07	
30000.000000	0.410133  	30000.000000	0.202936  	30000.000000	0.0781664 	30000.000000	0.0778379 	30000.000000	0.202936  	30000.000000	4.04317e-07	
32000.000000	0.447999  	32000.000000	0.213094  	32000.000000	0.0786769 	32000.000000	0.0783557 	32000.000000	0.213094  	32000.000000	3.80463e-07	
34000.000000	0.487558  	34000.000000	0.223224  	34000.000000	0.0791553 	34000.000000	0.0788422 	34000.000000	0.223224  	34000.000000	3.59335e-07	
36000.000000	0.528826  	36000.000000	0.233326  	36000.000000	0.0796044 	36000.000000	0.0793006 	36000.000000	0.233326  	36000.000000	3.40486e-07	
38000.000000	0.571821  	38000.000000	0.243403  	38000.000000	0.080027  	38000.000000	0.0797341 	38000.000000	0.243403  	38000.000000	3.23565e-07	
40000.000000	0.616559  	40000.000000	0.253454  	40000.000000	0.0804265 	40000.000000	0.0801451 	40000.000000	0.253454  	40000.000000	3.08287e-07	
42000.000000	0.66306   	42000.000000	0.263482  	42000.000000	0.0808059 	42000.000000	0.0805358 	42000.000000	0.263482  	42000.000000	2.94422e-07	
44000.000000	0.71134   	44000.000000	0.273487  	44000.000000	0.0811675 	44000.000000	0.0809081 	44000.000000	0.273486  	44000.000000	2.81781e-07	
46000.000000	0.76142   	46000.000000	0.28347   	46000.000000	0.0815132 	46000.000000	0.0812636 	46000.000000	0.283469  	46000.000000	2.70209e-07	
48000.000000	0.813316  	48000.000000	0.293431  	48000.000000	0.0818439 	48000.000000	0.0816038 	48000.000000	0.293431  	48000.000000	2.59572e-07	
50000.000000	0.86705   	50000.000000	0.303373  	50000.000000	0.0821598 	50000.000000	0.0819298 	50000.000000	0.303373  	50000.000000	2.49763e-07	
