Energy (MeV/u)1	0 - [He-base] F.Hubert et al, AD&ND Tables 46(1990)1	Energy (MeV/u)2	1 - [H -base] J.F.Ziegler et al, Pergamon Press, NY (low energy)	Energy (MeV/u)3	2 - ATIMA 1.2  LS-theory (recommended for high energy)	Energy (MeV/u)4	3 - ATIMA 1.2  without LS-correction	Energy (MeV/u)5	4 - electrical component of [1] - J.F.Ziegler et al	Energy (MeV/u)6	5 - nuclear component of [1] - J.F.Ziegler et al	
0.001000	12.7779   	0.001000	10.5603   	0.001000	10.0962   	0.001000	10.0962   	0.001000	1.478     	0.001000	9.08227   	
0.002000	13.2091   	0.002000	10.9764   	0.002000	10.3631   	0.002000	10.3631   	0.002000	2.04719   	0.002000	8.92922   	
0.005000	13.1079   	0.005000	10.7519   	0.005000	9.86973   	0.005000	9.86973   	0.005000	3.14912   	0.005000	7.60274   	
0.008000	13.0279   	0.008000	10.4863   	0.008000	9.42622   	0.008000	9.42622   	0.008000	3.92759   	0.008000	6.55875   	
0.010000	13.0494   	0.010000	10.3854   	0.010000	9.2294    	0.010000	9.2294    	0.010000	4.36188   	0.010000	6.0235    	
0.015000	13.2571   	0.015000	10.3202   	0.015000	8.96893   	0.015000	8.96893   	0.015000	5.2776    	0.015000	5.04257   	
0.020000	13.5754   	0.020000	10.4134   	0.020000	8.90544   	0.020000	8.90544   	0.020000	6.04168   	0.020000	4.3717    	
0.025000	13.9383   	0.025000	10.5895   	0.025000	8.94862   	0.025000	8.94862   	0.025000	6.70973   	0.025000	3.87977   	
0.030000	14.3174   	0.030000	10.8111   	0.030000	9.05371   	0.030000	9.05371   	0.030000	7.31005   	0.030000	3.50107   	
0.035000	14.6995   	0.035000	11.0584   	0.035000	9.19656   	0.035000	9.19656   	0.035000	7.85933   	0.035000	3.19904   	
0.040000	15.078    	0.040000	11.32     	0.040000	9.3632    	0.040000	9.3632    	0.040000	8.36838   	0.040000	2.95159   	
0.045000	15.4498   	0.045000	11.5892   	0.045000	9.54506   	0.045000	9.54506   	0.045000	8.8447    	0.045000	2.74454   	
0.050000	15.8132   	0.050000	11.862    	0.050000	9.73669   	0.050000	9.73669   	0.050000	9.29371   	0.050000	2.56831   	
0.055000	16.1677   	0.055000	12.1357   	0.055000	9.93446   	0.055000	9.93446   	0.055000	9.7195    	0.055000	2.41621   	
0.060000	16.5131   	0.060000	12.4086   	0.060000	10.1359   	0.060000	10.1359   	0.060000	10.1252   	0.060000	2.28338   	
0.070000	17.6799   	0.070000	13.1048   	0.070000	10.6988   	0.070000	10.6988   	0.070000	11.0428   	0.070000	2.06199   	
0.080000	19.7113   	0.080000	14.6167   	0.080000	12.0937   	0.080000	12.0937   	0.080000	12.7324   	0.080000	1.88429   	
0.090000	21.5791   	0.090000	16.0746   	0.090000	13.4896   	0.090000	13.4896   	0.090000	14.3366   	0.090000	1.73805   	
0.100000	23.3228   	0.100000	17.467    	0.100000	14.8646   	0.100000	14.8646   	0.100000	15.8517   	0.100000	1.6153    	
0.120000	25.8766   	0.120000	20.0362   	0.120000	17.4959   	0.120000	17.4959   	0.120000	18.6232   	0.120000	1.413     	
0.140000	28.0662   	0.140000	22.3429   	0.140000	19.9438   	0.140000	19.9438   	0.140000	21.0832   	0.140000	1.25962   	
0.160000	30.0656   	0.160000	24.4201   	0.160000	22.2004   	0.160000	22.2004   	0.160000	23.2772   	0.160000	1.14291   	
0.180000	31.9767   	0.180000	26.2944   	0.180000	24.2673   	0.180000	24.2673   	0.180000	25.2466   	0.180000	1.04786   	
0.200000	33.8514   	0.200000	27.9953   	0.200000	26.1593   	0.200000	26.1593   	0.200000	27.0265   	0.200000	0.968791  	
0.250000	37.4096   	0.250000	31.7462   	0.250000	30.2314   	0.250000	30.2314   	0.250000	30.9276   	0.250000	0.818605  	
0.300000	40.7158   	0.300000	34.87     	0.300000	33.5516   	0.300000	33.5516   	0.300000	34.1582   	0.300000	0.711838  	
0.350000	43.7283   	0.350000	37.5153   	0.350000	36.3106   	0.350000	36.3106   	0.350000	36.8837   	0.350000	0.631647  	
0.400000	46.4467   	0.400000	39.8032   	0.400000	38.6493   	0.400000	38.6493   	0.400000	39.2342   	0.400000	0.568988  	
0.450000	48.8846   	0.450000	41.8122   	0.450000	40.6688   	0.450000	40.6688   	0.450000	41.2936   	0.450000	0.518544  	
0.500000	51.5196   	0.500000	43.9503   	0.500000	42.4414   	0.500000	42.4414   	0.500000	43.4733   	0.500000	0.476976  	
0.600000	54.9357   	0.600000	48.3976   	0.600000	45.4359   	0.600000	45.4359   	0.600000	47.9853   	0.600000	0.412314  	
0.700000	56.9224   	0.700000	51.9497   	0.700000	47.8944   	0.700000	47.8944   	0.700000	51.5856   	0.700000	0.364162  	
0.800000	60.1662   	0.800000	54.8242   	0.800000	50.2473   	0.800000	50.2473   	0.800000	54.4974   	0.800000	0.32679   	
0.900000	62.7789   	0.900000	57.1728   	0.900000	52.5944   	0.900000	52.5944   	0.900000	56.876    	0.900000	0.296869  	
1.000000	64.6134   	1.000000	58.8554   	1.000000	54.5757   	1.000000	54.5757   	1.000000	58.5831   	1.000000	0.272325  	
1.250000	67.4869   	1.250000	61.7514   	1.250000	58.332    	1.250000	58.332    	1.250000	61.5248   	1.250000	0.226575  	
1.500000	69.0474   	1.500000	63.561    	1.500000	60.8742   	1.500000	60.8742   	1.500000	63.3662   	1.500000	0.194746  	
1.750000	69.4967   	1.750000	64.402    	1.750000	62.5961   	1.750000	62.5961   	1.750000	64.2308   	1.750000	0.171225  	
2.000000	69.2176   	2.000000	64.5762   	2.000000	63.7425   	2.000000	63.7425   	2.000000	64.4232   	2.000000	0.153081  	
2.250000	68.863    	2.250000	64.578    	2.250000	64.4747   	2.250000	64.4747   	2.250000	64.4394   	2.250000	0.138627  	
2.500000	101.77    	2.500000	64.4535   	2.500000	64.9023   	2.500000	64.9023   	2.500000	64.3266   	2.500000	0.126822  	
3.000000	98.7303   	3.000000	63.9628   	3.000000	65.1311   	3.000000	65.1311   	3.000000	63.8541   	3.000000	0.108652  	
3.500000	95.3501   	3.500000	63.2638   	3.500000	64.8253   	3.500000	64.8253   	3.500000	63.1685   	3.500000	0.0952801 	
4.000000	91.937    	4.000000	62.4251   	4.000000	64.2035   	4.000000	64.2035   	4.000000	62.3401   	4.000000	0.0849997 	
4.500000	88.6274   	4.500000	61.5079   	4.500000	63.393    	4.500000	63.393    	4.500000	61.4311   	4.500000	0.076833  	
5.000000	85.4795   	5.000000	60.5497   	5.000000	62.3505   	5.000000	62.3505   	5.000000	60.4796   	5.000000	0.0701784 	
5.500000	82.5137   	5.500000	59.5744   	5.500000	61.2051   	5.500000	61.2051   	5.500000	59.5097   	5.500000	0.0646445 	
6.000000	79.7324   	6.000000	58.5971   	6.000000	60.0771   	6.000000	60.0771   	6.000000	58.5371   	6.000000	0.0599654 	
6.500000	77.1292   	6.500000	57.6207   	6.500000	58.9733   	6.500000	58.9733   	6.500000	57.5648   	6.500000	0.0559538 	
7.000000	74.6937   	7.000000	56.6597   	7.000000	57.8979   	7.000000	57.8979   	7.000000	56.6072   	7.000000	0.0524739 	
7.500000	72.4139   	7.500000	55.7202   	7.500000	56.8529   	7.500000	56.8529   	7.500000	55.6708   	7.500000	0.0494247 	
8.000000	70.2777   	8.000000	54.804    	8.000000	55.8396   	8.000000	55.8396   	8.000000	54.7573   	8.000000	0.0467295 	
8.500000	68.2736   	8.500000	53.898    	8.500000	54.858    	8.500000	54.858    	8.500000	53.8536   	8.500000	0.0443289 	
9.000000	66.3905   	9.000000	53.0231   	9.000000	53.908    	9.000000	53.908    	9.000000	52.9809   	9.000000	0.0421762 	
9.500000	64.6184   	9.500000	52.1788   	9.500000	52.9888   	9.500000	52.9888   	9.500000	52.1385   	9.500000	0.0402342 	
10.000000	62.9482   	10.000000	51.7224   	10.000000	52.0997   	10.000000	52.0997   	10.000000	51.684    	10.000000	0.0384729 	
11.000000	59.8807   	11.000000	50.1612   	11.000000	49.9796   	11.000000	50.6545   	11.000000	50.1258   	11.000000	0.0353983 	
12.000000	57.1306   	12.000000	48.6706   	12.000000	48.0212   	12.000000	49.2637   	12.000000	48.6378   	12.000000	0.0328024 	
13.000000	54.6509   	13.000000	47.2518   	13.000000	46.2102   	13.000000	47.9323   	13.000000	47.2212   	13.000000	0.0305797 	
14.000000	52.4033   	14.000000	45.9055   	14.000000	44.5321   	14.000000	46.6615   	14.000000	45.8769   	14.000000	0.0286539 	
15.000000	50.3561   	15.000000	44.6301   	15.000000	42.9735   	15.000000	45.4508   	15.000000	44.6031   	15.000000	0.0269682 	
16.000000	48.4831   	16.000000	43.4226   	16.000000	41.5231   	16.000000	44.2983   	16.000000	43.3971   	16.000000	0.0254796 	
17.000000	46.7625   	17.000000	42.2792   	17.000000	40.1714   	17.000000	43.2014   	17.000000	42.2551   	17.000000	0.0241548 	
18.000000	45.1761   	18.000000	41.1962   	18.000000	38.9103   	18.000000	42.1574   	18.000000	41.1733   	18.000000	0.0229679 	
19.000000	43.7082   	19.000000	40.1697   	19.000000	37.7307   	19.000000	41.1636   	19.000000	40.1478   	19.000000	0.021898  	
20.000000	42.3458   	20.000000	39.1958   	20.000000	36.6235   	20.000000	40.2171   	20.000000	39.1749   	20.000000	0.0209283 	
21.000000	41.0775   	21.000000	38.2711   	21.000000	35.5835   	21.000000	39.3151   	21.000000	38.251    	21.000000	0.0200451 	
22.000000	39.8937   	22.000000	37.3921   	22.000000	34.6075   	22.000000	38.4551   	22.000000	37.3728   	22.000000	0.0192372 	
23.000000	38.7859   	23.000000	36.5557   	23.000000	33.6903   	23.000000	37.6347   	23.000000	36.5372   	23.000000	0.0184952 	
24.000000	37.7469   	24.000000	35.7591   	24.000000	32.8254   	24.000000	36.8514   	24.000000	35.7413   	24.000000	0.0178111 	
25.000000	36.7702   	25.000000	34.9996   	25.000000	32.0086   	25.000000	36.1032   	25.000000	34.9824   	25.000000	0.0171784 	
27.000000	34.9819   	27.000000	33.5821   	27.000000	30.508    	27.000000	34.704    	27.000000	33.5661   	27.000000	0.016045  	
29.000000	33.3838   	29.000000	32.2859   	29.000000	29.1652   	29.000000	33.4224   	29.000000	32.2708   	29.000000	0.0150588 	
31.000000	31.946    	31.000000	31.0961   	31.000000	28.0975   	31.000000	32.181    	31.000000	31.0819   	31.000000	0.0141923 	
33.000000	30.6451   	33.000000	30.0003   	33.000000	27.2462   	33.000000	30.9806   	33.000000	29.9869   	33.000000	0.0134246 	
35.000000	29.4617   	35.000000	28.9877   	35.000000	26.4505   	35.000000	29.8772   	35.000000	28.975    	35.000000	0.0127396 	
38.000000	27.8736   	38.000000	27.6053   	38.000000	25.3534   	38.000000	28.3792   	38.000000	27.5934   	38.000000	0.0118394 	
41.000000	26.4732   	41.000000	26.3641   	41.000000	24.3589   	41.000000	27.0417   	41.000000	26.353    	41.000000	0.0110636 	
44.000000	25.2283   	44.000000	25.2435   	44.000000	23.4488   	44.000000	25.8399   	44.000000	25.2331   	44.000000	0.0103876 	
47.000000	24.1137   	47.000000	24.2266   	47.000000	22.6151   	47.000000	24.7537   	47.000000	24.2168   	47.000000	0.00979309	
50.000000	23.1094   	50.000000	23.2996   	50.000000	21.8462   	50.000000	23.7669   	50.000000	23.2904   	50.000000	0.00926592	
55.000000	21.6385   	55.000000	21.924    	55.000000	20.6954   	55.000000	22.3084   	55.000000	21.9155   	55.000000	0.00850816	
60.000000	20.3736   	60.000000	20.7246   	60.000000	19.6773   	60.000000	21.0422   	60.000000	20.7167   	60.000000	0.00786994	
65.000000	19.2732   	65.000000	19.6694   	65.000000	18.7741   	65.000000	19.9322   	65.000000	19.6621   	65.000000	0.00732467	
70.000000	18.3065   	70.000000	18.7338   	70.000000	17.9655   	70.000000	18.9512   	70.000000	18.7269   	70.000000	0.00685316	
75.000000	17.4498   	75.000000	17.8984   	75.000000	17.2354   	75.000000	18.0778   	75.000000	17.892    	75.000000	0.00644119	
80.000000	16.685    	80.000000	17.148    	80.000000	16.5772   	80.000000	17.2951   	80.000000	17.1419   	80.000000	0.006078  	
85.000000	15.9976   	85.000000	16.4701   	85.000000	15.9758   	85.000000	16.5897   	85.000000	16.4644   	85.000000	0.00575529	
90.000000	15.3762   	90.000000	15.8548   	90.000000	15.4285   	90.000000	15.9507   	90.000000	15.8493   	90.000000	0.00546655	
95.000000	14.8114   	95.000000	15.2936   	95.000000	14.926    	95.000000	15.3691   	95.000000	15.2884   	95.000000	0.00520662	
100.000000	14.2957   	100.000000	14.7798   	100.000000	14.4631   	100.000000	14.8376   	100.000000	14.7748   	100.000000	0.00497133	
105.000000	13.8227   	105.000000	14.3076   	105.000000	14.037    	105.000000	14.3499   	105.000000	14.3029   	105.000000	0.00475728	
110.000000	13.3872   	110.000000	13.8722   	110.000000	13.642    	110.000000	13.9009   	110.000000	13.8676   	110.000000	0.00456169	
115.000000	12.9849   	115.000000	13.4694   	115.000000	13.2748   	115.000000	13.4861   	115.000000	13.465    	115.000000	0.00438222	
120.000000	12.6119   	120.000000	13.0957   	120.000000	12.9322   	120.000000	13.1018   	120.000000	13.0914   	120.000000	0.00421694	
125.000000	12.2651   	125.000000	12.748    	125.000000	12.6125   	125.000000	12.7448   	125.000000	12.7439   	125.000000	0.00406421	
130.000000	11.9417   	130.000000	12.4238   	130.000000	12.3141   	130.000000	12.4123   	130.000000	12.4199   	130.000000	0.00392262	
135.000000	11.6394   	135.000000	12.1207   	135.000000	12.0338   	135.000000	12.1019   	135.000000	12.1169   	135.000000	0.00379098	
140.000000	11.3561   	140.000000	11.8368   	140.000000	11.7709   	140.000000	11.8114   	140.000000	11.8331   	140.000000	0.00366827	
145.000000	11.0901   	145.000000	11.5703   	145.000000	11.5237   	145.000000	11.539    	145.000000	11.5667   	145.000000	0.00355359	
150.000000	10.8398   	150.000000	11.3196   	150.000000	11.2901   	150.000000	11.283    	150.000000	11.3162   	150.000000	0.00344617	
155.000000	10.4799   	155.000000	11.0834   	155.000000	11.0699   	155.000000	11.0422   	155.000000	11.0801   	155.000000	0.00334533	
160.000000	10.2727   	160.000000	10.8606   	160.000000	10.8619   	160.000000	10.815    	160.000000	10.8573   	160.000000	0.00325048	
165.000000	10.0769   	165.000000	10.6499   	165.000000	10.6644   	165.000000	10.6005   	165.000000	10.6467   	165.000000	0.00316108	
170.000000	9.89139   	170.000000	10.4504   	170.000000	10.4768   	170.000000	10.3977   	170.000000	10.4473   	170.000000	0.00307668	
175.000000	9.71548   	175.000000	10.2613   	175.000000	10.2984   	175.000000	10.2055   	175.000000	10.2583   	175.000000	0.00299686	
180.000000	9.54841   	180.000000	10.0817   	180.000000	10.1291   	180.000000	10.0232   	180.000000	10.0788   	180.000000	0.00292126	
185.000000	9.38952   	185.000000	9.91108   	185.000000	9.96821   	185.000000	9.85008   	185.000000	9.90823   	185.000000	0.00284954	
190.000000	9.23822   	190.000000	9.74867   	190.000000	9.81502   	190.000000	9.68545   	190.000000	9.74588   	190.000000	0.0027814 	
195.000000	9.09396   	195.000000	9.59391   	195.000000	9.66871   	195.000000	9.5287    	195.000000	9.59119   	195.000000	0.00271658	
200.000000	8.95626   	200.000000	9.44629   	200.000000	9.52869   	200.000000	9.3793    	200.000000	9.44364   	200.000000	0.00265485	
210.000000	8.69883   	210.000000	9.1706    	210.000000	9.26644   	210.000000	9.10059   	210.000000	9.16806   	210.000000	0.00253977	
220.000000	8.46282   	220.000000	8.91825   	220.000000	9.02651   	220.000000	8.84584   	220.000000	8.91581   	220.000000	0.00243465	
230.000000	8.24566   	230.000000	8.68642   	230.000000	8.80567   	230.000000	8.61215   	230.000000	8.68408   	230.000000	0.00233823	
240.000000	8.04515   	240.000000	8.47275   	240.000000	8.60112   	240.000000	8.39704   	240.000000	8.4705    	240.000000	0.00224946	
250.000000	7.85945   	250.000000	8.27521   	250.000000	8.41175   	250.000000	8.19844   	250.000000	8.27304   	250.000000	0.00216745	
260.000000	7.68697   	260.000000	8.09207   	260.000000	8.23624   	260.000000	8.01455   	260.000000	8.08998   	260.000000	0.00209145	
270.000000	7.52634   	270.000000	7.92183   	270.000000	8.07312   	270.000000	7.84383   	270.000000	7.91981   	270.000000	0.00202081	
280.000000	7.3764    	280.000000	7.76321   	280.000000	7.92111   	280.000000	7.68496   	280.000000	7.76125   	280.000000	0.00195498	
290.000000	7.2361    	290.000000	7.61507   	290.000000	7.77868   	290.000000	7.53676   	290.000000	7.61318   	290.000000	0.00189348	
300.000000	7.10455   	300.000000	7.47644   	300.000000	7.64469   	300.000000	7.39824   	300.000000	7.4746    	300.000000	0.00183588	
310.000000	6.98097   	310.000000	7.34644   	310.000000	7.51907   	310.000000	7.2685    	310.000000	7.34466   	310.000000	0.00178182	
320.000000	6.86466   	320.000000	7.22431   	320.000000	7.40164   	320.000000	7.14676   	320.000000	7.22258   	320.000000	0.00173098	
330.000000	6.755     	330.000000	7.10939   	330.000000	7.29083   	330.000000	7.03232   	330.000000	7.1077    	330.000000	0.00168308	
340.000000	6.65144   	340.000000	7.00106   	340.000000	7.18606   	340.000000	6.92458   	340.000000	6.99942   	340.000000	0.00163786	
350.000000	6.5535    	350.000000	6.89878   	350.000000	7.08727   	350.000000	6.82298   	350.000000	6.89719   	350.000000	0.00159511	
360.000000	6.46075   	360.000000	6.8021    	360.000000	6.994     	360.000000	6.72703   	360.000000	6.80054   	360.000000	0.00155462	
370.000000	6.37278   	370.000000	6.71056   	370.000000	6.90568   	370.000000	6.63629   	370.000000	6.70904   	370.000000	0.00151622	
380.000000	6.28925   	380.000000	6.62379   	380.000000	6.8217    	380.000000	6.55037   	380.000000	6.62231   	380.000000	0.00147974	
390.000000	6.20984   	390.000000	6.54143   	390.000000	6.74185   	390.000000	6.46892   	390.000000	6.53999   	390.000000	0.00144505	
400.000000	6.13426   	400.000000	6.46318   	400.000000	6.66604   	400.000000	6.3916    	400.000000	6.46177   	400.000000	0.00141202	
410.000000	6.06224   	410.000000	6.38874   	410.000000	6.594     	410.000000	6.31813   	410.000000	6.38736   	410.000000	0.00138052	
420.000000	5.99356   	420.000000	6.31785   	420.000000	6.52541   	420.000000	6.24824   	420.000000	6.3165    	420.000000	0.00135045	
430.000000	5.92798   	430.000000	6.25029   	430.000000	6.46008   	430.000000	6.18169   	430.000000	6.24896   	430.000000	0.00132171	
440.000000	5.86532   	440.000000	6.18582   	440.000000	6.39783   	440.000000	6.11826   	440.000000	6.18453   	440.000000	0.00129423	
450.000000	5.8054    	450.000000	6.12426   	450.000000	6.33837   	450.000000	6.05775   	450.000000	6.12299   	450.000000	0.0012679 	
460.000000	5.74804   	460.000000	6.06541   	460.000000	6.28138   	460.000000	5.99997   	460.000000	6.06417   	460.000000	0.00124267	
470.000000	5.69309   	470.000000	6.00912   	470.000000	6.22676   	470.000000	5.94475   	470.000000	6.00791   	470.000000	0.00121847	
480.000000	5.64041   	480.000000	5.95524   	480.000000	6.17448   	480.000000	5.89195   	480.000000	5.95404   	480.000000	0.00119522	
490.000000	5.58988   	490.000000	5.90361   	490.000000	6.12447   	490.000000	5.8414    	490.000000	5.90244   	490.000000	0.00117288	
500.000000	5.54137   	500.000000	5.85412   	500.000000	6.07655   	500.000000	5.79299   	500.000000	5.85296   	500.000000	0.0011514 	
520.000000	5.44997   	520.000000	5.76104   	520.000000	5.98649   	520.000000	5.70209   	520.000000	5.75993   	520.000000	0.0011108 	
540.000000	5.36542   	540.000000	5.67515   	540.000000	5.90357   	540.000000	5.61835   	540.000000	5.67408   	540.000000	0.00107307	
560.000000	5.28704   	560.000000	5.5957    	560.000000	5.82678   	560.000000	5.54103   	560.000000	5.59467   	560.000000	0.00103791	
580.000000	5.21422   	580.000000	5.52206   	580.000000	5.75532   	580.000000	5.46948   	580.000000	5.52105   	580.000000	0.00100508	
600.000000	5.14644   	600.000000	5.45365   	600.000000	5.68929   	600.000000	5.40312   	600.000000	5.45267   	600.000000	0.000974333	
620.000000	5.08325   	620.000000	5.38999   	620.000000	5.62807   	620.000000	5.34147   	620.000000	5.38904   	620.000000	0.000945485	
640.000000	5.02425   	640.000000	5.33064   	640.000000	5.57076   	640.000000	5.28407   	640.000000	5.32972   	640.000000	0.00091836	
660.000000	4.96907   	660.000000	5.27523   	660.000000	5.51715   	660.000000	5.23056   	660.000000	5.27434   	660.000000	0.000892807	
680.000000	4.9174    	680.000000	5.22343   	680.000000	5.46711   	680.000000	5.18058   	680.000000	5.22256   	680.000000	0.000868691	
700.000000	4.86895   	700.000000	5.17492   	700.000000	5.42036   	700.000000	5.13384   	700.000000	5.17408   	700.000000	0.000845893	
720.000000	4.82348   	720.000000	5.12945   	720.000000	5.37656   	720.000000	5.09006   	720.000000	5.12863   	720.000000	0.000824306	
740.000000	4.78077   	740.000000	5.08678   	740.000000	5.33534   	740.000000	5.04901   	740.000000	5.08597   	740.000000	0.000803835	
760.000000	4.74059   	760.000000	5.04668   	760.000000	5.29645   	760.000000	5.01047   	760.000000	5.0459    	760.000000	0.000784394	
780.000000	4.70278   	780.000000	5.00897   	780.000000	5.25987   	780.000000	4.97425   	780.000000	5.00821   	780.000000	0.000765907	
800.000000	4.66717   	800.000000	4.97348   	800.000000	5.22561   	800.000000	4.94016   	800.000000	4.97273   	800.000000	0.000748305	
820.000000	4.6336    	820.000000	4.94004   	820.000000	5.1935    	820.000000	4.90813   	820.000000	4.93931   	820.000000	0.000731523	
840.000000	4.60194   	840.000000	4.90851   	840.000000	5.16349   	840.000000	4.87827   	840.000000	4.90779   	840.000000	0.000715506	
860.000000	4.57206   	860.000000	4.87877   	860.000000	5.13505   	860.000000	4.8501    	860.000000	4.87807   	860.000000	0.000700202	
880.000000	4.54385   	880.000000	4.85069   	880.000000	5.10811   	880.000000	4.82349   	880.000000	4.85      	880.000000	0.000685564	
900.000000	4.51721   	900.000000	4.82416   	900.000000	5.08263   	900.000000	4.79836   	900.000000	4.82349   	900.000000	0.000671548	
920.000000	4.49204   	920.000000	4.7991    	920.000000	5.05857   	920.000000	4.77459   	920.000000	4.79844   	920.000000	0.000658116	
940.000000	4.46825   	940.000000	4.7754    	940.000000	5.0358    	940.000000	4.7521    	940.000000	4.77475   	940.000000	0.00064523	
960.000000	4.44577   	960.000000	4.75298   	960.000000	5.01423   	960.000000	4.7308    	960.000000	4.75235   	960.000000	0.000632858	
980.000000	4.42451   	980.000000	4.73177   	980.000000	4.99378   	980.000000	4.71063   	980.000000	4.73115   	980.000000	0.00062097	
1000.000000	4.40441   	1000.000000	4.71169   	1000.000000	4.97439   	1000.000000	4.69151   	1000.000000	4.71108   	1000.000000	0.000609537	
1020.000000	4.3854    	1020.000000	4.69269   	1020.000000	4.956     	1020.000000	4.67337   	1020.000000	4.69209   	1020.000000	0.000598533	
1040.000000	4.36743   	1040.000000	4.67469   	1040.000000	4.93855   	1040.000000	4.65617   	1040.000000	4.6741    	1040.000000	0.000587934	
1060.000000	4.35044   	1060.000000	4.65765   	1060.000000	4.92199   	1060.000000	4.63984   	1060.000000	4.65707   	1060.000000	0.000577718	
1080.000000	4.33438   	1080.000000	4.64151   	1080.000000	4.90625   	1080.000000	4.62433   	1080.000000	4.64094   	1080.000000	0.000567865	
1100.000000	4.31921   	1100.000000	4.62622   	1100.000000	4.89127   	1100.000000	4.6096    	1100.000000	4.62567   	1100.000000	0.000558354	
1120.000000	4.30487   	1120.000000	4.61175   	1120.000000	4.87701   	1120.000000	4.5956    	1120.000000	4.6112    	1120.000000	0.000549169	
1140.000000	4.29133   	1140.000000	4.59804   	1140.000000	4.86342   	1140.000000	4.5823    	1140.000000	4.5975    	1140.000000	0.000540292	
1160.000000	4.27855   	1160.000000	4.58506   	1160.000000	4.85048   	1160.000000	4.56964   	1160.000000	4.58453   	1160.000000	0.000531709	
1180.000000	4.26649   	1180.000000	4.57277   	1180.000000	4.83817   	1180.000000	4.55761   	1180.000000	4.57225   	1180.000000	0.000523404	
1200.000000	4.25513   	1200.000000	4.56114   	1200.000000	4.82646   	1200.000000	4.54617   	1200.000000	4.56062   	1200.000000	0.000515364	
1220.000000	4.24442   	1220.000000	4.55014   	1220.000000	4.81532   	1220.000000	4.53528   	1220.000000	4.54963   	1220.000000	0.000507577	
1240.000000	4.23434   	1240.000000	4.53973   	1240.000000	4.80473   	1240.000000	4.52492   	1240.000000	4.53923   	1240.000000	0.00050003	
1260.000000	4.22486   	1260.000000	4.52989   	1260.000000	4.79465   	1260.000000	4.51505   	1260.000000	4.5294    	1260.000000	0.000492713	
1280.000000	4.21595   	1280.000000	4.5206    	1280.000000	4.78505   	1280.000000	4.50567   	1280.000000	4.52011   	1280.000000	0.000485615	
1300.000000	4.2076    	1300.000000	4.51182   	1300.000000	4.77591   	1300.000000	4.49673   	1300.000000	4.51134   	1300.000000	0.000478726	
1320.000000	4.19977   	1320.000000	4.50354   	1320.000000	4.7672    	1320.000000	4.48823   	1320.000000	4.50306   	1320.000000	0.000472038	
1340.000000	4.19245   	1340.000000	4.49573   	1340.000000	4.7589    	1340.000000	4.48013   	1340.000000	4.49526   	1340.000000	0.00046554	
1360.000000	4.18561   	1360.000000	4.48837   	1360.000000	4.75099   	1360.000000	4.47242   	1360.000000	4.48791   	1360.000000	0.000459226	
1380.000000	4.17924   	1380.000000	4.48145   	1380.000000	4.74345   	1380.000000	4.46509   	1380.000000	4.48099   	1380.000000	0.000453087	
1400.000000	4.17332   	1400.000000	4.47494   	1400.000000	4.73626   	1400.000000	4.4581    	1400.000000	4.47449   	1400.000000	0.000447116	
1420.000000	4.16782   	1420.000000	4.46883   	1420.000000	4.72941   	1420.000000	4.45146   	1420.000000	4.46839   	1420.000000	0.000441306	
1440.000000	4.16274   	1440.000000	4.4631    	1440.000000	4.72288   	1440.000000	4.44513   	1440.000000	4.46266   	1440.000000	0.000435651	
1460.000000	4.15805   	1460.000000	4.45773   	1460.000000	4.71666   	1460.000000	4.43911   	1460.000000	4.4573    	1460.000000	0.000430144	
1480.000000	4.15375   	1480.000000	4.45272   	1480.000000	4.71073   	1480.000000	4.43339   	1480.000000	4.4523    	1480.000000	0.00042478	
1500.000000	4.14981   	1500.000000	4.44805   	1500.000000	4.70509   	1500.000000	4.42794   	1500.000000	4.44763   	1500.000000	0.000419553	
1520.000000	4.14623   	1520.000000	4.4437    	1520.000000	4.69972   	1520.000000	4.42277   	1520.000000	4.44328   	1520.000000	0.000414458	
1540.000000	4.14299   	1540.000000	4.43966   	1540.000000	4.6946    	1540.000000	4.41785   	1540.000000	4.43925   	1540.000000	0.00040949	
1560.000000	4.14008   	1560.000000	4.43592   	1560.000000	4.68974   	1560.000000	4.41317   	1560.000000	4.43552   	1560.000000	0.000404644	
1580.000000	4.13749   	1580.000000	4.43247   	1580.000000	4.68512   	1580.000000	4.40873   	1580.000000	4.43207   	1580.000000	0.000399916	
1600.000000	4.13521   	1600.000000	4.4293    	1600.000000	4.68073   	1600.000000	4.40451   	1600.000000	4.42891   	1600.000000	0.0003953 	
1620.000000	4.13322   	1620.000000	4.4264    	1620.000000	4.67656   	1620.000000	4.40051   	1620.000000	4.42601   	1620.000000	0.000390794	
1640.000000	4.13153   	1640.000000	4.42375   	1640.000000	4.6726    	1640.000000	4.39672   	1640.000000	4.42337   	1640.000000	0.000386394	
1660.000000	4.13011   	1660.000000	4.42136   	1660.000000	4.66884   	1660.000000	4.39312   	1660.000000	4.42097   	1660.000000	0.000382095	
1680.000000	4.12896   	1680.000000	4.4192    	1680.000000	4.66528   	1680.000000	4.38971   	1680.000000	4.41882   	1680.000000	0.000377894	
1700.000000	4.12807   	1700.000000	4.41728   	1700.000000	4.6619    	1700.000000	4.38649   	1700.000000	4.4169    	1700.000000	0.000373788	
1750.000000	4.12693   	1750.000000	4.41343   	1750.000000	4.65421   	1750.000000	4.37917   	1750.000000	4.41306   	1750.000000	0.000363917	
1800.000000	4.12725   	1800.000000	4.41086   	1800.000000	4.64752   	1800.000000	4.37284   	1800.000000	4.41051   	1800.000000	0.000354572	
1850.000000	4.12891   	1850.000000	4.40948   	1850.000000	4.64174   	1850.000000	4.36741   	1850.000000	4.40913   	1850.000000	0.000345712	
1900.000000	4.13184   	1900.000000	4.40919   	1900.000000	4.63678   	1900.000000	4.36279   	1900.000000	4.40885   	1900.000000	0.0003373 	
1950.000000	4.13593   	1950.000000	4.4099    	1950.000000	4.63256   	1950.000000	4.3589    	1950.000000	4.40957   	1950.000000	0.000329301	
2000.000000	4.14111   	2000.000000	4.41154   	2000.000000	4.62903   	2000.000000	4.35569   	2000.000000	4.41121   	2000.000000	0.000321687	
2100.000000	4.15445   	2100.000000	4.41734   	2100.000000	4.62379   	2100.000000	4.35103   	2100.000000	4.41704   	2100.000000	0.000307503	
2200.000000	4.17138   	2200.000000	4.42613   	2200.000000	4.62064   	2200.000000	4.34842   	2200.000000	4.42584   	2200.000000	0.000294557	
2300.000000	4.19149   	2300.000000	4.43752   	2300.000000	4.61924   	2300.000000	4.34752   	2300.000000	4.43724   	2300.000000	0.000282694	
2400.000000	4.21441   	2400.000000	4.45118   	2400.000000	4.61931   	2400.000000	4.34806   	2400.000000	4.45091   	2400.000000	0.000271781	
2500.000000	4.23988   	2500.000000	4.46684   	2500.000000	4.62063   	2500.000000	4.34981   	2500.000000	4.46657   	2500.000000	0.000261707	
2600.000000	4.26762   	2600.000000	4.48426   	2600.000000	4.623     	2600.000000	4.35258   	2600.000000	4.484     	2600.000000	0.000252377	
2700.000000	4.29744   	2700.000000	4.50324   	2700.000000	4.62627   	2700.000000	4.35622   	2700.000000	4.503     	2700.000000	0.000243712	
2800.000000	4.32914   	2800.000000	4.52363   	2800.000000	4.6303    	2800.000000	4.3606    	2800.000000	4.52339   	2800.000000	0.000235643	
2900.000000	4.36257   	2900.000000	4.54526   	2900.000000	4.63498   	2900.000000	4.3656    	2900.000000	4.54503   	2900.000000	0.000228108	
3000.000000	4.39759   	3000.000000	4.56802   	3000.000000	4.64022   	3000.000000	4.37113   	3000.000000	4.56779   	3000.000000	0.000221056	
3200.000000	4.47191   	3200.000000	4.61647   	3200.000000	4.65201   	3200.000000	4.38348   	3200.000000	4.61626   	3200.000000	0.000208224	
3400.000000	4.55129   	3400.000000	4.66824   	3400.000000	4.66513   	3400.000000	4.39713   	3400.000000	4.66805   	3400.000000	0.000196846	
3600.000000	4.63509   	3600.000000	4.72278   	3600.000000	4.67919   	3600.000000	4.4117    	3600.000000	4.72259   	3600.000000	0.000186685	
3800.000000	4.72281   	3800.000000	4.77961   	3800.000000	4.69389   	3800.000000	4.42691   	3800.000000	4.77943   	3800.000000	0.000177554	
4000.000000	4.81403   	4000.000000	4.83839   	4000.000000	4.70903   	4000.000000	4.44254   	4000.000000	4.83822   	4000.000000	0.000169303	
4200.000000	4.90842   	4200.000000	4.89881   	4200.000000	4.72445   	4200.000000	4.45844   	4200.000000	4.89865   	4200.000000	0.000161808	
4400.000000	5.0057    	4400.000000	4.96065   	4400.000000	4.74005   	4400.000000	4.47448   	4400.000000	4.96049   	4400.000000	0.000154969	
4600.000000	5.10564   	4600.000000	5.0237    	4600.000000	4.75572   	4600.000000	4.49056   	4600.000000	5.02355   	4600.000000	0.000148703	
4800.000000	5.20805   	4800.000000	5.08779   	4800.000000	4.7714    	4800.000000	4.50662   	4800.000000	5.08765   	4800.000000	0.00014294	
5000.000000	5.31278   	5000.000000	5.1528    	5000.000000	4.78702   	5000.000000	4.52259   	5000.000000	5.15266   	5000.000000	0.000137621	
5250.000000	5.44672   	5250.000000	5.23517   	5250.000000	4.80642   	5250.000000	4.54239   	5250.000000	5.23504   	5250.000000	0.000131521	
5500.000000	5.58382   	5500.000000	5.31859   	5500.000000	4.8256    	5500.000000	4.56192   	5500.000000	5.31846   	5500.000000	0.000125956	
6000.000000	5.86679   	6000.000000	5.48799   	6000.000000	4.86306   	6000.000000	4.60008   	6000.000000	5.48788   	6000.000000	0.000116167	
6500.000000	6.1605    	6500.000000	5.66006   	6500.000000	4.89879   	6500.000000	4.63688   	6500.000000	5.65995   	6500.000000	0.000107833	
7000.000000	6.46411   	7000.000000	5.83411   	7000.000000	4.93341   	7000.000000	4.67224   	7000.000000	5.83401   	7000.000000	0.000100647	
7500.000000	6.77699   	7500.000000	6.00965   	7500.000000	4.96651   	7500.000000	4.70618   	7500.000000	6.00955   	7500.000000	9.43863e-05	
8000.000000	7.09865   	8000.000000	6.18632   	8000.000000	4.99809   	8000.000000	4.73872   	8000.000000	6.18623   	8000.000000	8.88809e-05	
8500.000000	7.42874   	8500.000000	6.36385   	8500.000000	5.02837   	8500.000000	4.76992   	8500.000000	6.36376   	8500.000000	8.40008e-05	
9000.000000	7.76696   	9000.000000	6.54203   	9000.000000	5.05743   	9000.000000	4.79986   	9000.000000	6.54195   	9000.000000	7.96441e-05	
9500.000000	8.11311   	9500.000000	6.7207    	9500.000000	5.0853    	9500.000000	4.8286    	9500.000000	6.72062   	9500.000000	7.57302e-05	
10000.000000	8.46699   	10000.000000	6.89973   	10000.000000	5.112     	10000.000000	4.85621   	10000.000000	6.89966   	10000.000000	7.21941e-05	
11000.000000	9.19742   	11000.000000	7.25851   	11000.000000	5.16218   	11000.000000	4.90833   	11000.000000	7.25844   	11000.000000	6.60539e-05	
12000.000000	9.9574    	12000.000000	7.61779   	12000.000000	5.2085    	12000.000000	4.95672   	12000.000000	7.61772   	12000.000000	6.09034e-05	
13000.000000	10.7464   	13000.000000	7.97719   	13000.000000	5.25137   	13000.000000	5.00183   	13000.000000	7.97713   	13000.000000	5.65191e-05	
14000.000000	11.5639   	14000.000000	8.33647   	14000.000000	5.29121   	14000.000000	5.04402   	14000.000000	8.33642   	14000.000000	5.27404e-05	
15000.000000	12.4098   	15000.000000	8.69547   	15000.000000	5.32838   	15000.000000	5.08363   	15000.000000	8.69542   	15000.000000	4.94489e-05	
16000.000000	13.2839   	16000.000000	9.05406   	16000.000000	5.36312   	16000.000000	5.12094   	16000.000000	9.05402   	16000.000000	4.65553e-05	
17000.000000	14.1861   	17000.000000	9.41218   	17000.000000	5.3957    	17000.000000	5.15618   	17000.000000	9.41214   	17000.000000	4.39908e-05	
18000.000000	15.1163   	18000.000000	9.76979   	18000.000000	5.4264    	18000.000000	5.18955   	18000.000000	9.76974   	18000.000000	4.17019e-05	
19000.000000	16.0745   	19000.000000	10.1268   	19000.000000	5.45545   	19000.000000	5.22124   	19000.000000	10.1268   	19000.000000	3.9646e-05	
20000.000000	17.0608   	20000.000000	10.4833   	20000.000000	5.48304   	20000.000000	5.25141   	20000.000000	10.4833   	20000.000000	3.77889e-05	
21000.000000	18.0751   	21000.000000	10.8392   	21000.000000	5.50916   	21000.000000	5.28017   	21000.000000	10.8392   	21000.000000	3.61028e-05	
22000.000000	19.1176   	22000.000000	11.1945   	22000.000000	5.53358   	22000.000000	5.30766   	22000.000000	11.1945   	22000.000000	3.4565e-05	
23000.000000	20.1883   	23000.000000	11.5492   	23000.000000	5.55676   	23000.000000	5.33398   	23000.000000	11.5492   	23000.000000	3.31565e-05	
24000.000000	21.2873   	24000.000000	11.9034   	24000.000000	5.57891   	24000.000000	5.35922   	24000.000000	11.9033   	24000.000000	3.18616e-05	
25000.000000	22.4147   	25000.000000	12.257    	25000.000000	5.60004   	25000.000000	5.38347   	25000.000000	12.2569   	25000.000000	3.06668e-05	
26000.000000	23.5706   	26000.000000	12.61     	26000.000000	5.62017   	26000.000000	5.40679   	26000.000000	12.6099   	26000.000000	2.9561e-05	
27000.000000	24.7551   	27000.000000	12.9624   	27000.000000	5.63934   	27000.000000	5.42925   	27000.000000	12.9624   	27000.000000	2.85344e-05	
28000.000000	25.9683   	28000.000000	13.3143   	28000.000000	5.65764   	28000.000000	5.45092   	28000.000000	13.3143   	28000.000000	2.75787e-05	
29000.000000	27.2104   	29000.000000	13.6657   	29000.000000	5.67515   	29000.000000	5.47184   	29000.000000	13.6657   	29000.000000	2.66868e-05	
30000.000000	28.4815   	30000.000000	14.0165   	30000.000000	5.69191   	30000.000000	5.49206   	30000.000000	14.0165   	30000.000000	2.58524e-05	
32000.000000	31.1111   	32000.000000	14.7167   	32000.000000	5.7234    	32000.000000	5.53059   	32000.000000	14.7167   	32000.000000	2.4335e-05	
34000.000000	33.8582   	34000.000000	15.4149   	34000.000000	5.75244   	34000.000000	5.56681   	34000.000000	15.4149   	34000.000000	2.29906e-05	
36000.000000	36.724    	36000.000000	16.1113   	36000.000000	5.77919   	36000.000000	5.60098   	36000.000000	16.1112   	36000.000000	2.17909e-05	
38000.000000	39.7098   	38000.000000	16.8058   	38000.000000	5.80392   	38000.000000	5.6333    	38000.000000	16.8058   	38000.000000	2.07134e-05	
40000.000000	42.8166   	40000.000000	17.4986   	40000.000000	5.82688   	40000.000000	5.66398   	40000.000000	17.4986   	40000.000000	1.97404e-05	
42000.000000	46.0458   	42000.000000	18.1898   	42000.000000	5.8483    	42000.000000	5.69316   	42000.000000	18.1898   	42000.000000	1.88571e-05	
44000.000000	49.3986   	44000.000000	18.8794   	44000.000000	5.86841   	44000.000000	5.72099   	44000.000000	18.8794   	44000.000000	1.80515e-05	
46000.000000	52.8764   	46000.000000	19.5675   	46000.000000	5.88741   	46000.000000	5.74757   	46000.000000	19.5675   	46000.000000	1.73139e-05	
48000.000000	56.4803   	48000.000000	20.2542   	48000.000000	5.90536   	48000.000000	5.77302   	48000.000000	20.2542   	48000.000000	1.66357e-05	
50000.000000	60.2118   	50000.000000	20.9394   	50000.000000	5.92213   	50000.000000	5.79743   	50000.000000	20.9394   	50000.000000	1.60102e-05	
