0.001000	9.94318   	0.001000	9.79333   	0.001000	8.34652   	0.001000	8.34652   	0.001000	2.80822   	0.001000	6.98511   	
0.002000	10.188    	0.002000	10.0441   	0.002000	8.32758   	0.002000	8.32758   	0.002000	3.64181   	0.002000	6.40234   	
0.005000	10.266    	0.005000	10.0613   	0.005000	7.97023   	0.005000	7.97023   	0.005000	5.13505   	0.005000	4.92628   	
0.008000	10.4461   	0.008000	10.1698   	0.008000	7.89527   	0.008000	7.89527   	0.008000	6.12477   	0.008000	4.04499   	
0.010000	10.6138   	0.010000	10.2941   	0.010000	7.93947   	0.010000	7.93947   	0.010000	6.65934   	0.010000	3.63475   	
0.015000	11.0998   	0.015000	10.6874   	0.015000	8.20659   	0.015000	8.20659   	0.015000	7.75292   	0.015000	2.93444   	
0.020000	11.6108   	0.020000	11.1224   	0.020000	8.57406   	0.020000	8.57406   	0.020000	8.63609   	0.020000	2.48632   	
0.025000	12.1135   	0.025000	11.5609   	0.025000	8.97735   	0.025000	8.97735   	0.025000	9.38984   	0.025000	2.17106   	
0.030000	12.5981   	0.030000	11.9896   	0.030000	9.3912    	0.030000	9.3912    	0.030000	10.0543   	0.030000	1.9353    	
0.035000	13.0622   	0.035000	12.4039   	0.035000	9.80459   	0.035000	9.80459   	0.035000	10.6526   	0.035000	1.7513    	
0.040000	13.6064   	0.040000	12.9386   	0.040000	10.3874   	0.040000	10.3874   	0.040000	11.3355   	0.040000	1.60309   	
0.045000	14.1845   	0.045000	13.766    	0.045000	11.3754   	0.045000	11.3754   	0.045000	12.2853   	0.045000	1.48078   	
0.050000	14.6479   	0.050000	14.5839   	0.050000	12.3787   	0.050000	12.3787   	0.050000	13.206    	0.050000	1.37786   	
0.055000	15.4308   	0.055000	15.3864   	0.055000	13.386    	0.055000	13.386    	0.055000	14.0965   	0.055000	1.2899    	
0.060000	16.139    	0.060000	16.1692   	0.060000	14.3881   	0.060000	14.3881   	0.060000	14.9555   	0.060000	1.21373   	
0.070000	17.3862   	0.070000	17.6543   	0.070000	16.3396   	0.070000	16.3396   	0.070000	16.5763   	0.070000	1.07802   	
0.080000	18.7513   	0.080000	19.0449   	0.080000	18.213    	0.080000	18.213    	0.080000	18.0654   	0.080000	0.979513  	
0.090000	19.9517   	0.090000	20.3233   	0.090000	19.9724   	0.090000	19.9724   	0.090000	19.4242   	0.090000	0.899093  	
0.100000	21.0203   	0.100000	21.4897   	0.100000	21.6051   	0.100000	21.6051   	0.100000	20.6576   	0.100000	0.83206   	
0.120000	22.3604   	0.120000	23.5068   	0.120000	24.4804   	0.120000	24.4804   	0.120000	22.7804   	0.120000	0.726373  	
0.140000	23.7641   	0.140000	25.4354   	0.140000	26.8663   	0.140000	26.8663   	0.140000	24.7889   	0.140000	0.646513  	
0.160000	25.4389   	0.160000	27.4744   	0.160000	28.8318   	0.160000	28.8318   	0.160000	26.8906   	0.160000	0.583819  	
0.180000	27.0174   	0.180000	29.1777   	0.180000	30.4558   	0.180000	30.4558   	0.180000	28.6445   	0.180000	0.533158  	
0.200000	28.5483   	0.200000	30.6125   	0.200000	31.811    	0.200000	31.811    	0.200000	30.1212   	0.200000	0.491281  	
0.250000	31.2613   	0.250000	33.3769   	0.250000	34.3934   	0.250000	34.3934   	0.250000	32.9645   	0.250000	0.412405  	
0.300000	33.7116   	0.300000	35.416    	0.300000	36.2837   	0.300000	36.2837   	0.300000	35.0591   	0.300000	0.356866  	
0.350000	35.9828   	0.350000	37.1273   	0.350000	37.7979   	0.350000	37.7979   	0.350000	36.8119   	0.350000	0.315448  	
0.400000	37.9922   	0.400000	38.5736   	0.400000	39.0832   	0.400000	39.0832   	0.400000	38.2904   	0.400000	0.283265  	
0.450000	39.754    	0.450000	39.8288   	0.450000	40.2095   	0.450000	40.2095   	0.450000	39.5714   	0.450000	0.257475  	
0.500000	41.293    	0.500000	40.9364   	0.500000	41.2117   	0.500000	41.2117   	0.500000	40.7001   	0.500000	0.236302  	
0.600000	42.4167   	0.600000	42.8718   	0.600000	43.7206   	0.600000	43.7206   	0.600000	42.6683   	0.600000	0.203517  	
0.700000	43.2711   	0.700000	44.9437   	0.700000	45.7542   	0.700000	45.7542   	0.700000	44.7645   	0.700000	0.179224  	
0.800000	45.1531   	0.800000	46.5655   	0.800000	47.3327   	0.800000	47.3327   	0.800000	46.4051   	0.800000	0.160445  	
0.900000	46.6008   	0.900000	47.8361   	0.900000	48.5576   	0.900000	48.5576   	0.900000	47.6906   	0.900000	0.14546   	
1.000000	47.7119   	1.000000	48.8281   	1.000000	49.5035   	1.000000	49.5035   	1.000000	48.6949   	1.000000	0.133201  	
1.250000	49.154    	1.250000	50.2421   	1.250000	50.9857   	1.250000	50.9857   	1.250000	50.1316   	1.250000	0.110437  	
1.500000	49.6607   	1.500000	50.836    	1.500000	51.629    	1.500000	51.629    	1.500000	50.7413   	1.500000	0.09467   	
1.750000	49.6502   	1.750000	50.9604   	1.750000	51.7589   	1.750000	51.7589   	1.750000	50.8773   	1.750000	0.0830583 	
2.000000	49.1532   	2.000000	50.6105   	2.000000	51.5655   	2.000000	51.5655   	2.000000	50.5364   	2.000000	0.0741257 	
2.250000	48.5628   	2.250000	50.0898   	2.250000	51.1654   	2.250000	51.1654   	2.250000	50.0228   	2.250000	0.0670261 	
2.500000	64.5389   	2.500000	49.4962   	2.500000	50.6322   	2.500000	50.6322   	2.500000	49.435    	2.500000	0.0612386 	
3.000000	61.7401   	3.000000	48.191    	3.000000	49.3426   	3.000000	49.3426   	3.000000	48.1387   	3.000000	0.0523517 	
3.500000	58.9564   	3.500000	46.7409   	3.500000	47.6727   	3.500000	47.6727   	3.500000	46.6951   	3.500000	0.0458292 	
4.000000	56.3128   	4.000000	45.3442   	4.000000	46.0675   	4.000000	46.0675   	4.000000	45.3034   	4.000000	0.0408254 	
4.500000	53.8501   	4.500000	44.042    	4.500000	44.5566   	4.500000	44.5566   	4.500000	44.0051   	4.500000	0.0368575 	
5.000000	51.5744   	5.000000	42.7834   	5.000000	43.1375   	5.000000	43.1375   	5.000000	42.7498   	5.000000	0.0336293 	
5.500000	49.4775   	5.500000	41.5688   	5.500000	41.805    	5.500000	41.805    	5.500000	41.5378   	5.500000	0.0309483 	
6.000000	47.5458   	6.000000	40.4095   	6.000000	40.5532   	6.000000	40.5532   	6.000000	40.3808   	6.000000	0.0286842 	
6.500000	45.7642   	6.500000	39.3091   	6.500000	39.3759   	6.500000	39.3759   	6.500000	39.2824   	6.500000	0.0267451 	
7.000000	44.1182   	7.000000	38.2643   	7.000000	38.2671   	7.000000	38.2671   	7.000000	38.2393   	7.000000	0.0250646 	
7.500000	42.594    	7.500000	37.2715   	7.500000	37.2214   	7.500000	37.2214   	7.500000	37.2479   	7.500000	0.0235934 	
8.000000	41.1795   	8.000000	36.329    	8.000000	36.2336   	8.000000	36.2336   	8.000000	36.3067   	8.000000	0.0222939 	
8.500000	39.8635   	8.500000	35.4332   	8.500000	35.2991   	8.500000	35.2991   	8.500000	35.4121   	8.500000	0.0211374 	
9.000000	38.6364   	9.000000	34.581    	9.000000	34.4138   	9.000000	34.4138   	9.000000	34.5609   	9.000000	0.020101  	
9.500000	37.4896   	9.500000	33.7693   	9.500000	33.5738   	9.500000	33.5738   	9.500000	33.7501   	9.500000	0.0191666 	
10.000000	36.4155   	10.000000	32.5651   	10.000000	32.7756   	10.000000	32.7756   	10.000000	32.5468   	10.000000	0.0183197 	
11.000000	34.4592   	11.000000	31.2579   	11.000000	31.0815   	11.000000	31.3823   	11.000000	31.2411   	11.000000	0.0168424 	
12.000000	32.7228   	12.000000	30.0483   	12.000000	29.5685   	12.000000	30.1141   	12.000000	30.0327   	12.000000	0.0155963 	
13.000000	31.1706   	13.000000	28.9283   	13.000000	28.2099   	13.000000	28.9558   	13.000000	28.9138   	13.000000	0.0145302 	
14.000000	29.7744   	14.000000	27.8902   	14.000000	26.9843   	14.000000	27.8946   	14.000000	27.8766   	14.000000	0.0136073 	
15.000000	28.5113   	15.000000	26.9261   	15.000000	25.874    	15.000000	26.919    	15.000000	26.9133   	15.000000	0.0128    	
16.000000	27.3629   	16.000000	26.0292   	16.000000	24.8637   	16.000000	26.0197   	16.000000	26.0171   	16.000000	0.0120876 	
17.000000	26.3139   	17.000000	25.1929   	17.000000	23.9407   	17.000000	25.1884   	17.000000	25.1814   	17.000000	0.011454  	
18.000000	25.3515   	18.000000	24.4116   	18.000000	23.095    	18.000000	24.418    	18.000000	24.4007   	18.000000	0.0108866 	
19.000000	24.4653   	19.000000	23.6803   	19.000000	22.3182   	19.000000	23.7023   	19.000000	23.6699   	19.000000	0.0103754 	
20.000000	23.6464   	20.000000	22.9943   	20.000000	21.6032   	20.000000	23.0361   	20.000000	22.9844   	20.000000	0.00991233	
21.000000	22.8872   	21.000000	22.3497   	21.000000	20.9429   	21.000000	22.4146   	21.000000	22.3402   	21.000000	0.00949076	
22.000000	22.1812   	22.000000	21.7429   	22.000000	20.3307   	22.000000	21.8338   	22.000000	21.7338   	22.000000	0.00910527	
23.000000	21.5228   	23.000000	21.1706   	23.000000	19.7623   	23.000000	21.2901   	23.000000	21.1619   	23.000000	0.00875136	
24.000000	20.9074   	24.000000	20.6301   	24.000000	19.2348   	24.000000	20.7803   	24.000000	20.6217   	24.000000	0.00842522	
25.000000	20.3307   	25.000000	20.1187   	25.000000	18.7447   	25.000000	20.3017   	25.000000	20.1106   	25.000000	0.00812367	
27.000000	19.2795   	27.000000	19.1744   	27.000000	17.8601   	27.000000	19.4279   	27.000000	19.1669   	27.000000	0.0075838 	
29.000000	18.3449   	29.000000	18.3221   	29.000000	17.0859   	29.000000	18.6518   	29.000000	18.315    	29.000000	0.00711428	
31.000000	17.5082   	31.000000	17.5489   	31.000000	16.4178   	31.000000	17.897    	31.000000	17.5422   	31.000000	0.00670201	
33.000000	16.7545   	33.000000	16.8442   	33.000000	15.821    	33.000000	17.1539   	33.000000	16.8379   	33.000000	0.00633696	
35.000000	16.0716   	35.000000	16.1994   	35.000000	15.2702   	35.000000	16.4756   	35.000000	16.1934   	35.000000	0.00601135	
38.000000	15.1594   	38.000000	15.3285   	38.000000	14.5187   	38.000000	15.5624   	38.000000	15.3229   	38.000000	0.00558376	
41.000000	14.359    	41.000000	14.5558   	41.000000	13.8466   	41.000000	14.7546   	41.000000	14.5505   	41.000000	0.00521543	
44.000000	13.6506   	44.000000	13.8655   	44.000000	13.2405   	44.000000	14.0349   	44.000000	13.8606   	44.000000	0.00489468	
47.000000	13.0189   	47.000000	13.245    	47.000000	12.6919   	47.000000	13.3896   	47.000000	13.2404   	47.000000	0.00461273	
50.000000	12.4518   	50.000000	12.6843   	50.000000	12.1922   	50.000000	12.8076   	50.000000	12.68     	50.000000	0.00436283	
55.000000	11.6248   	55.000000	11.8608   	55.000000	11.4539   	55.000000	11.9551   	55.000000	11.8568   	55.000000	0.00400384	
60.000000	10.9172   	60.000000	11.151    	60.000000	10.8109   	60.000000	11.2223   	60.000000	11.1473   	60.000000	0.00370167	
65.000000	10.3043   	65.000000	10.533    	65.000000	10.246    	65.000000	10.5858   	65.000000	10.5295   	65.000000	0.00344367	
70.000000	9.76785   	70.000000	9.98984   	70.000000	9.74774   	70.000000	10.0276   	70.000000	9.98661   	70.000000	0.00322068	
75.000000	9.29416   	75.000000	9.50882   	75.000000	9.30368   	75.000000	9.53426   	75.000000	9.50579   	75.000000	0.00302594	
80.000000	8.87257   	80.000000	9.07982   	80.000000	8.90549   	80.000000	9.09501   	80.000000	9.07697   	80.000000	0.00285433	
85.000000	8.49475   	85.000000	8.69484   	85.000000	8.54633   	85.000000	8.70145   	85.000000	8.69214   	85.000000	0.00270192	
90.000000	8.15406   	90.000000	8.34744   	90.000000	8.22073   	90.000000	8.34681   	90.000000	8.34488   	90.000000	0.0025656 	
95.000000	7.84517   	95.000000	8.03238   	95.000000	7.92508   	95.000000	8.0256    	95.000000	8.02993   	95.000000	0.00244293	
100.000000	7.56373   	100.000000	7.74534   	100.000000	7.65359   	100.000000	7.73331   	100.000000	7.743     	100.000000	0.00233192	
105.000000	7.30614   	105.000000	7.48275   	105.000000	7.40596   	105.000000	7.46621   	105.000000	7.48052   	105.000000	0.00223096	
110.000000	7.06943   	110.000000	7.24162   	110.000000	7.177     	110.000000	7.22118   	110.000000	7.23948   	110.000000	0.00213874	
115.000000	6.85109   	115.000000	7.01942   	115.000000	6.96558   	115.000000	6.99561   	115.000000	7.01737   	115.000000	0.00205414	
120.000000	6.64903   	120.000000	6.81402   	120.000000	6.76976   	120.000000	6.78727   	120.000000	6.81205   	120.000000	0.00197625	
125.000000	6.46143   	125.000000	6.62359   	125.000000	6.58767   	125.000000	6.59427   	125.000000	6.62169   	125.000000	0.00190429	
130.000000	6.28676   	130.000000	6.44655   	130.000000	6.41836   	130.000000	6.41498   	130.000000	6.44471   	130.000000	0.0018376 	
135.000000	6.1237    	135.000000	6.28153   	135.000000	6.25997   	135.000000	6.24799   	135.000000	6.27976   	135.000000	0.00177561	
140.000000	5.9711    	140.000000	6.12737   	140.000000	6.11175   	140.000000	6.09208   	140.000000	6.12565   	140.000000	0.00171784	
145.000000	5.82796   	145.000000	5.98302   	145.000000	5.97311   	145.000000	5.9462    	145.000000	5.98136   	145.000000	0.00166386	
150.000000	5.6934    	150.000000	5.84758   	150.000000	5.84296   	150.000000	5.8094    	150.000000	5.84597   	150.000000	0.0016133 	
155.000000	5.50165   	155.000000	5.72026   	155.000000	5.71977   	155.000000	5.68087   	155.000000	5.71869   	155.000000	0.00156585	
160.000000	5.39039   	160.000000	5.60034   	160.000000	5.60353   	160.000000	5.55989   	160.000000	5.59882   	160.000000	0.00152123	
165.000000	5.2853    	165.000000	5.48721   	165.000000	5.49431   	165.000000	5.44582   	165.000000	5.48573   	165.000000	0.00147918	
170.000000	5.18586   	170.000000	5.38031   	170.000000	5.39083   	170.000000	5.33807   	170.000000	5.37887   	170.000000	0.00143949	
175.000000	5.09164   	175.000000	5.27913   	175.000000	5.29261   	175.000000	5.23615   	175.000000	5.27773   	175.000000	0.00140196	
180.000000	5.00223   	180.000000	5.18324   	180.000000	5.1996    	180.000000	5.1396    	180.000000	5.18187   	180.000000	0.00136641	
185.000000	4.91726   	185.000000	5.09223   	185.000000	5.11119   	185.000000	5.04801   	185.000000	5.0909    	185.000000	0.0013327 	
190.000000	4.8364    	190.000000	5.00574   	190.000000	5.02691   	190.000000	4.96101   	190.000000	5.00444   	190.000000	0.00130067	
195.000000	4.75937   	195.000000	4.92345   	195.000000	4.94664   	195.000000	4.87826   	195.000000	4.92218   	195.000000	0.00127022	
200.000000	4.68589   	200.000000	4.84505   	200.000000	4.87023   	200.000000	4.79946   	200.000000	4.84381   	200.000000	0.00124121	
210.000000	4.54865   	210.000000	4.69891   	210.000000	4.72783   	210.000000	4.65266   	210.000000	4.69772   	210.000000	0.00118715	
220.000000	4.42298   	220.000000	4.56544   	220.000000	4.59716   	220.000000	4.5187    	220.000000	4.5643    	220.000000	0.00113778	
230.000000	4.30747   	230.000000	4.44307   	230.000000	4.47783   	230.000000	4.39598   	230.000000	4.44198   	230.000000	0.00109251	
240.000000	4.20093   	240.000000	4.33049   	240.000000	4.36735   	240.000000	4.28316   	240.000000	4.32944   	240.000000	0.00105084	
250.000000	4.10235   	250.000000	4.22659   	250.000000	4.26539   	250.000000	4.1791    	250.000000	4.22557   	250.000000	0.00101235	
260.000000	4.01087   	260.000000	4.1304    	260.000000	4.17108   	260.000000	4.08285   	260.000000	4.12942   	260.000000	0.000976686	
270.000000	3.92575   	270.000000	4.04111   	270.000000	4.08328   	270.000000	3.99356   	270.000000	4.04017   	270.000000	0.000943548	
280.000000	3.84635   	280.000000	3.95802   	280.000000	4.0018    	280.000000	3.91052   	280.000000	3.95711   	280.000000	0.00091267	
290.000000	3.77212   	290.000000	3.88051   	290.000000	3.92544   	290.000000	3.83312   	290.000000	3.87963   	290.000000	0.000883826	
300.000000	3.70256   	300.000000	3.80805   	300.000000	3.85408   	300.000000	3.7608    	300.000000	3.8072    	300.000000	0.000856819	
310.000000	3.63725   	310.000000	3.74017   	310.000000	3.78741   	310.000000	3.69309   	310.000000	3.73934   	310.000000	0.000831476	
320.000000	3.57582   	320.000000	3.67646   	320.000000	3.72482   	320.000000	3.62959   	320.000000	3.67565   	320.000000	0.000807646	
330.000000	3.51794   	330.000000	3.61655   	330.000000	3.66577   	330.000000	3.56991   	330.000000	3.61576   	330.000000	0.000785197	
340.000000	3.46331   	340.000000	3.56011   	340.000000	3.61005   	340.000000	3.51373   	340.000000	3.55935   	340.000000	0.000764009	
350.000000	3.41167   	350.000000	3.50688   	350.000000	3.55752   	350.000000	3.46077   	350.000000	3.50613   	350.000000	0.000743979	
360.000000	3.36278   	360.000000	3.45658   	360.000000	3.50791   	360.000000	3.41075   	360.000000	3.45585   	360.000000	0.000725012	
370.000000	3.31644   	370.000000	3.40899   	370.000000	3.46097   	370.000000	3.36346   	370.000000	3.40828   	370.000000	0.000707025	
380.000000	3.27246   	380.000000	3.3639    	380.000000	3.41655   	380.000000	3.31867   	380.000000	3.36321   	380.000000	0.000689943	
390.000000	3.23066   	390.000000	3.32113   	390.000000	3.37437   	390.000000	3.27621   	390.000000	3.32046   	390.000000	0.000673698	
400.000000	3.19089   	400.000000	3.28051   	400.000000	3.33415   	400.000000	3.23591   	400.000000	3.27985   	400.000000	0.00065823	
410.000000	3.15301   	410.000000	3.24188   	410.000000	3.2959    	410.000000	3.1976    	410.000000	3.24124   	410.000000	0.000643483	
420.000000	3.1169    	420.000000	3.20511   	420.000000	3.25966   	420.000000	3.16116   	420.000000	3.20448   	420.000000	0.000629408	
430.000000	3.08244   	430.000000	3.17008   	430.000000	3.22517   	430.000000	3.12644   	430.000000	3.16946   	430.000000	0.000615959	
440.000000	3.04951   	440.000000	3.13667   	440.000000	3.19194   	440.000000	3.09313   	440.000000	3.13606   	440.000000	0.000603094	
450.000000	3.01804   	450.000000	3.10477   	450.000000	3.16      	450.000000	3.0612    	450.000000	3.10418   	450.000000	0.000590776	
460.000000	2.98791   	460.000000	3.07429   	460.000000	3.12949   	460.000000	3.03071   	460.000000	3.07371   	460.000000	0.000578971	
470.000000	2.95907   	470.000000	3.04514   	470.000000	3.10034   	470.000000	3.00155   	470.000000	3.04457   	470.000000	0.000567646	
480.000000	2.93142   	480.000000	3.01724   	480.000000	3.07246   	480.000000	2.97366   	480.000000	3.01669   	480.000000	0.000556772	
490.000000	2.90491   	490.000000	2.99052   	490.000000	3.04575   	490.000000	2.94696   	490.000000	2.98998   	490.000000	0.000546323	
500.000000	2.87946   	500.000000	2.96491   	500.000000	3.02014   	500.000000	2.92137   	500.000000	2.96438   	500.000000	0.000536274	
520.000000	2.83153   	520.000000	2.91677   	520.000000	2.97201   	520.000000	2.8733    	520.000000	2.91625   	520.000000	0.000517286	
540.000000	2.78721   	540.000000	2.87236   	540.000000	2.92766   	540.000000	2.82897   	540.000000	2.87186   	540.000000	0.000499644	
560.000000	2.74614   	560.000000	2.83129   	560.000000	2.88658   	560.000000	2.788     	560.000000	2.83081   	560.000000	0.00048321	
580.000000	2.708     	580.000000	2.79323   	580.000000	2.84833   	580.000000	2.75005   	580.000000	2.79277   	580.000000	0.000467861	
600.000000	2.67251   	600.000000	2.75789   	600.000000	2.81294   	600.000000	2.71481   	600.000000	2.75744   	600.000000	0.000453493	
620.000000	2.63944   	620.000000	2.72501   	620.000000	2.78009   	620.000000	2.68203   	620.000000	2.72457   	620.000000	0.000440012	
640.000000	2.60856   	640.000000	2.69437   	640.000000	2.74933   	640.000000	2.65147   	640.000000	2.69394   	640.000000	0.000427339	
660.000000	2.57969   	660.000000	2.66577   	660.000000	2.72051   	660.000000	2.62295   	660.000000	2.66535   	660.000000	0.000415402	
680.000000	2.55267   	680.000000	2.63903   	680.000000	2.69357   	680.000000	2.59627   	680.000000	2.63862   	680.000000	0.000404137	
700.000000	2.52734   	700.000000	2.61399   	700.000000	2.66841   	700.000000	2.57127   	700.000000	2.6136    	700.000000	0.00039349	
720.000000	2.50357   	720.000000	2.59053   	720.000000	2.6449    	720.000000	2.54783   	720.000000	2.59015   	720.000000	0.000383409	
740.000000	2.48124   	740.000000	2.56851   	740.000000	2.62278   	740.000000	2.52582   	740.000000	2.56814   	740.000000	0.00037385	
760.000000	2.46025   	760.000000	2.54783   	760.000000	2.60189   	760.000000	2.50511   	760.000000	2.54746   	760.000000	0.000364774	
780.000000	2.44049   	780.000000	2.52838   	780.000000	2.58218   	780.000000	2.48561   	780.000000	2.52802   	780.000000	0.000356144	
800.000000	2.42189   	800.000000	2.51007   	800.000000	2.56359   	800.000000	2.46723   	800.000000	2.50972   	800.000000	0.000347927	
820.000000	2.40435   	820.000000	2.49283   	820.000000	2.54606   	820.000000	2.44989   	820.000000	2.49249   	820.000000	0.000340095	
840.000000	2.38782   	840.000000	2.47657   	840.000000	2.52952   	840.000000	2.43351   	840.000000	2.47624   	840.000000	0.000332621	
860.000000	2.37221   	860.000000	2.46124   	860.000000	2.51387   	860.000000	2.41802   	860.000000	2.46091   	860.000000	0.000325479	
880.000000	2.35749   	880.000000	2.44676   	880.000000	2.49905   	880.000000	2.40336   	880.000000	2.44644   	880.000000	0.000318649	
900.000000	2.34358   	900.000000	2.43309   	900.000000	2.48496   	900.000000	2.38947   	900.000000	2.43277   	900.000000	0.00031211	
920.000000	2.33044   	920.000000	2.42016   	920.000000	2.47156   	920.000000	2.37631   	920.000000	2.41986   	920.000000	0.000305844	
940.000000	2.31802   	940.000000	2.40795   	940.000000	2.45884   	940.000000	2.36382   	940.000000	2.40765   	940.000000	0.000299834	
960.000000	2.30629   	960.000000	2.3964    	960.000000	2.44678   	960.000000	2.35197   	960.000000	2.3961    	960.000000	0.000294063	
980.000000	2.29519   	980.000000	2.38546   	980.000000	2.43535   	980.000000	2.3407    	980.000000	2.38518   	980.000000	0.000288519	
1000.000000	2.2847    	1000.000000	2.37512   	1000.000000	2.42451   	1000.000000	2.33      	1000.000000	2.37484   	1000.000000	0.000283187	
1020.000000	2.27478   	1020.000000	2.36533   	1020.000000	2.41422   	1020.000000	2.31981   	1020.000000	2.36505   	1020.000000	0.000278056	
1040.000000	2.2654    	1040.000000	2.35605   	1040.000000	2.40442   	1040.000000	2.31012   	1040.000000	2.35578   	1040.000000	0.000273114	
1060.000000	2.25654   	1060.000000	2.34727   	1060.000000	2.39508   	1060.000000	2.30089   	1060.000000	2.34701   	1060.000000	0.000268351	
1080.000000	2.24816   	1080.000000	2.33896   	1080.000000	2.38617   	1080.000000	2.29209   	1080.000000	2.3387    	1080.000000	0.000263757	
1100.000000	2.24024   	1100.000000	2.33109   	1100.000000	2.37766   	1100.000000	2.28371   	1100.000000	2.33083   	1100.000000	0.000259324	
1120.000000	2.23276   	1120.000000	2.32363   	1120.000000	2.36952   	1120.000000	2.27571   	1120.000000	2.32337   	1120.000000	0.000255043	
1140.000000	2.2257    	1140.000000	2.31657   	1140.000000	2.36172   	1140.000000	2.26808   	1140.000000	2.31632   	1140.000000	0.000250905	
1160.000000	2.21903   	1160.000000	2.30988   	1160.000000	2.35428   	1160.000000	2.26079   	1160.000000	2.30964   	1160.000000	0.000246905	
1180.000000	2.21274   	1180.000000	2.30356   	1180.000000	2.34717   	1180.000000	2.25384   	1180.000000	2.30331   	1180.000000	0.000243035	
1200.000000	2.20681   	1200.000000	2.29757   	1200.000000	2.34039   	1200.000000	2.24719   	1200.000000	2.29733   	1200.000000	0.000239288	
1220.000000	2.20122   	1220.000000	2.2919    	1220.000000	2.33392   	1220.000000	2.24084   	1220.000000	2.29167   	1220.000000	0.00023566	
1240.000000	2.19596   	1240.000000	2.28654   	1240.000000	2.32776   	1240.000000	2.23477   	1240.000000	2.28631   	1240.000000	0.000232143	
1260.000000	2.19101   	1260.000000	2.28148   	1260.000000	2.32187   	1260.000000	2.22897   	1260.000000	2.28125   	1260.000000	0.000228734	
1280.000000	2.18637   	1280.000000	2.2767    	1280.000000	2.31624   	1280.000000	2.22341   	1280.000000	2.27647   	1280.000000	0.000225427	
1300.000000	2.182     	1300.000000	2.27218   	1300.000000	2.31084   	1300.000000	2.2181    	1300.000000	2.27196   	1300.000000	0.000222218	
1320.000000	2.17792   	1320.000000	2.26792   	1320.000000	2.30567   	1320.000000	2.21301   	1320.000000	2.2677    	1320.000000	0.000219102	
1340.000000	2.1741    	1340.000000	2.2639    	1340.000000	2.3007    	1340.000000	2.20814   	1340.000000	2.26368   	1340.000000	0.000216076	
1360.000000	2.17053   	1360.000000	2.26011   	1360.000000	2.29593   	1360.000000	2.20348   	1360.000000	2.2599    	1360.000000	0.000213135	
1380.000000	2.1672    	1380.000000	2.25655   	1380.000000	2.29136   	1380.000000	2.19901   	1380.000000	2.25634   	1380.000000	0.000210276	
1400.000000	2.1641    	1400.000000	2.2532    	1400.000000	2.28697   	1400.000000	2.19474   	1400.000000	2.253     	1400.000000	0.000207495	
1420.000000	2.16123   	1420.000000	2.25006   	1420.000000	2.28276   	1420.000000	2.19064   	1420.000000	2.24986   	1420.000000	0.000204789	
1440.000000	2.15858   	1440.000000	2.24712   	1440.000000	2.27872   	1440.000000	2.18671   	1440.000000	2.24691   	1440.000000	0.000202156	
1460.000000	2.15613   	1460.000000	2.24436   	1460.000000	2.27485   	1460.000000	2.18295   	1460.000000	2.24416   	1460.000000	0.000199592	
1480.000000	2.15388   	1480.000000	2.24178   	1480.000000	2.27114   	1480.000000	2.17934   	1480.000000	2.24159   	1480.000000	0.000197094	
1500.000000	2.15182   	1500.000000	2.23938   	1500.000000	2.26759   	1500.000000	2.17588   	1500.000000	2.23919   	1500.000000	0.00019466	
1520.000000	2.14994   	1520.000000	2.23715   	1520.000000	2.26419   	1520.000000	2.17257   	1520.000000	2.23696   	1520.000000	0.000192288	
1540.000000	2.14825   	1540.000000	2.23507   	1540.000000	2.26092   	1540.000000	2.16939   	1540.000000	2.23488   	1540.000000	0.000189975	
1560.000000	2.14672   	1560.000000	2.23315   	1560.000000	2.25779   	1560.000000	2.16634   	1560.000000	2.23297   	1560.000000	0.000187719	
1580.000000	2.14536   	1580.000000	2.23138   	1580.000000	2.25479   	1580.000000	2.16342   	1580.000000	2.2312    	1580.000000	0.000185518	
1600.000000	2.14417   	1600.000000	2.22976   	1600.000000	2.25192   	1600.000000	2.16062   	1600.000000	2.22957   	1600.000000	0.00018337	
1620.000000	2.14312   	1620.000000	2.22827   	1620.000000	2.24917   	1620.000000	2.15793   	1620.000000	2.22809   	1620.000000	0.000181273	
1640.000000	2.14223   	1640.000000	2.22691   	1640.000000	2.24653   	1640.000000	2.15536   	1640.000000	2.22673   	1640.000000	0.000179225	
1660.000000	2.14148   	1660.000000	2.22569   	1660.000000	2.244     	1660.000000	2.15289   	1660.000000	2.22551   	1660.000000	0.000177224	
1680.000000	2.14087   	1680.000000	2.22458   	1680.000000	2.24158   	1680.000000	2.15052   	1680.000000	2.22441   	1680.000000	0.000175269	
1700.000000	2.1404    	1700.000000	2.2236    	1700.000000	2.23925   	1700.000000	2.14825   	1700.000000	2.22343   	1700.000000	0.000173358	
1750.000000	2.13978   	1750.000000	2.22163   	1750.000000	2.23384   	1750.000000	2.14298   	1750.000000	2.22147   	1750.000000	0.000168764	
1800.000000	2.13992   	1800.000000	2.22033   	1800.000000	2.22897   	1800.000000	2.13824   	1800.000000	2.22017   	1800.000000	0.000164416	
1850.000000	2.14076   	1850.000000	2.21964   	1850.000000	2.22457   	1850.000000	2.13399   	1850.000000	2.21948   	1850.000000	0.000160294	
1900.000000	2.14225   	1900.000000	2.21951   	1900.000000	2.22061   	1900.000000	2.13017   	1900.000000	2.21935   	1900.000000	0.000156381	
1950.000000	2.14435   	1950.000000	2.21989   	1950.000000	2.21706   	1950.000000	2.12675   	1950.000000	2.21974   	1950.000000	0.00015266	
2000.000000	2.14702   	2000.000000	2.22076   	2000.000000	2.21388   	2000.000000	2.1237    	2000.000000	2.22061   	2000.000000	0.000149119	
2100.000000	2.15391   	2100.000000	2.22379   	2100.000000	2.20851   	2100.000000	2.11857   	2100.000000	2.22365   	2100.000000	0.000142522	
2200.000000	2.16266   	2200.000000	2.22837   	2200.000000	2.2043    	2200.000000	2.11456   	2200.000000	2.22823   	2200.000000	0.000136503	
2300.000000	2.17306   	2300.000000	2.23427   	2300.000000	2.20105   	2300.000000	2.1115    	2300.000000	2.23414   	2300.000000	0.000130988	
2400.000000	2.18492   	2400.000000	2.24136   	2400.000000	2.19862   	2400.000000	2.10924   	2400.000000	2.24123   	2400.000000	0.000125915	
2500.000000	2.19811   	2500.000000	2.24946   	2500.000000	2.19687   	2500.000000	2.10766   	2500.000000	2.24934   	2500.000000	0.000121233	
2600.000000	2.21248   	2600.000000	2.25848   	2600.000000	2.19571   	2600.000000	2.10667   	2600.000000	2.25837   	2600.000000	0.000116898	
2700.000000	2.22792   	2700.000000	2.26831   	2700.000000	2.19507   	2700.000000	2.10617   	2700.000000	2.2682    	2700.000000	0.000112872	
2800.000000	2.24434   	2800.000000	2.27886   	2800.000000	2.19485   	2800.000000	2.10611   	2800.000000	2.27875   	2800.000000	0.000109122	
2900.000000	2.26166   	2900.000000	2.29005   	2900.000000	2.19502   	2900.000000	2.10641   	2900.000000	2.28994   	2900.000000	0.000105622	
3000.000000	2.27981   	3000.000000	2.30182   	3000.000000	2.19552   	3000.000000	2.10703   	3000.000000	2.30171   	3000.000000	0.000102347	
3200.000000	2.31832   	3200.000000	2.32687   	3200.000000	2.19732   	3200.000000	2.10906   	3200.000000	2.32677   	3200.000000	9.63882e-05	
3400.000000	2.35946   	3400.000000	2.35364   	3400.000000	2.19998   	3400.000000	2.11192   	3400.000000	2.35354   	3400.000000	9.11054e-05	
3600.000000	2.40289   	3600.000000	2.38182   	3600.000000	2.20329   	3600.000000	2.1154    	3600.000000	2.38174   	3600.000000	8.63887e-05	
3800.000000	2.44835   	3800.000000	2.4112    	3800.000000	2.20709   	3800.000000	2.11935   	3800.000000	2.41111   	3800.000000	8.21509e-05	
4000.000000	2.49564   	4000.000000	2.44157   	4000.000000	2.21124   	4000.000000	2.12364   	4000.000000	2.44149   	4000.000000	7.83218e-05	
4200.000000	2.54456   	4200.000000	2.47279   	4200.000000	2.21567   	4200.000000	2.12818   	4200.000000	2.47272   	4200.000000	7.48444e-05	
4400.000000	2.59499   	4400.000000	2.50474   	4400.000000	2.22027   	4400.000000	2.1329    	4400.000000	2.50467   	4400.000000	7.1672e-05	
4600.000000	2.64679   	4600.000000	2.53732   	4600.000000	2.22501   	4600.000000	2.13776   	4600.000000	2.53725   	4600.000000	6.87656e-05	
4800.000000	2.69988   	4800.000000	2.57043   	4800.000000	2.22983   	4800.000000	2.14269   	4800.000000	2.57037   	4800.000000	6.60929e-05	
5000.000000	2.75417   	5000.000000	2.60402   	5000.000000	2.23471   	5000.000000	2.14767   	5000.000000	2.60395   	5000.000000	6.36264e-05	
5250.000000	2.8236    	5250.000000	2.64656   	5250.000000	2.24083   	5250.000000	2.15393   	5250.000000	2.6465    	5250.000000	6.07984e-05	
5500.000000	2.89467   	5500.000000	2.68966   	5500.000000	2.24695   	5500.000000	2.16018   	5500.000000	2.6896    	5500.000000	5.82185e-05	
6000.000000	3.04136   	6000.000000	2.77716   	6000.000000	2.25907   	6000.000000	2.17256   	6000.000000	2.77711   	6000.000000	5.36818e-05	
6500.000000	3.19362   	6500.000000	2.86604   	6500.000000	2.27096   	6500.000000	2.18465   	6500.000000	2.86599   	6500.000000	4.98198e-05	
7000.000000	3.351     	7000.000000	2.95594   	7000.000000	2.2825    	7000.000000	2.19636   	7000.000000	2.95589   	7000.000000	4.64911e-05	
7500.000000	3.5132    	7500.000000	3.0466    	7500.000000	2.29352   	7500.000000	2.20767   	7500.000000	3.04656   	7500.000000	4.35915e-05	
8000.000000	3.67995   	8000.000000	3.13785   	8000.000000	2.30415   	8000.000000	2.21856   	8000.000000	3.13781   	8000.000000	4.10422e-05	
8500.000000	3.85106   	8500.000000	3.22954   	8500.000000	2.31442   	8500.000000	2.22902   	8500.000000	3.2295    	8500.000000	3.87828e-05	
9000.000000	4.0264    	9000.000000	3.32157   	9000.000000	2.3243    	9000.000000	2.23908   	9000.000000	3.32153   	9000.000000	3.67661e-05	
9500.000000	4.20584   	9500.000000	3.41384   	9500.000000	2.33374   	9500.000000	2.24874   	9500.000000	3.41381   	9500.000000	3.49546e-05	
10000.000000	4.38929   	10000.000000	3.5063    	10000.000000	2.34274   	10000.000000	2.25802   	10000.000000	3.50627   	10000.000000	3.33182e-05	
11000.000000	4.76794   	11000.000000	3.69159   	11000.000000	2.35969   	11000.000000	2.27554   	11000.000000	3.69156   	11000.000000	3.04774e-05	
12000.000000	5.16192   	12000.000000	3.87714   	12000.000000	2.37543   	12000.000000	2.29179   	12000.000000	3.87711   	12000.000000	2.80951e-05	
13000.000000	5.57091   	13000.000000	4.06275   	13000.000000	2.39005   	13000.000000	2.30689   	13000.000000	4.06272   	13000.000000	2.60676e-05	
14000.000000	5.99473   	14000.000000	4.24829   	14000.000000	2.40362   	14000.000000	2.32099   	14000.000000	4.24827   	14000.000000	2.43206e-05	
15000.000000	6.43325   	15000.000000	4.43369   	15000.000000	2.41624   	15000.000000	2.33419   	15000.000000	4.43366   	15000.000000	2.27991e-05	
16000.000000	6.88637   	16000.000000	4.61887   	16000.000000	2.42799   	16000.000000	2.34658   	16000.000000	4.61885   	16000.000000	2.14617e-05	
17000.000000	7.35405   	17000.000000	4.80382   	17000.000000	2.43896   	17000.000000	2.35825   	17000.000000	4.8038    	17000.000000	2.02767e-05	
18000.000000	7.83627   	18000.000000	4.98849   	18000.000000	2.44924   	18000.000000	2.36927   	18000.000000	4.98847   	18000.000000	1.92191e-05	
19000.000000	8.33302   	19000.000000	5.17287   	19000.000000	2.45892   	19000.000000	2.3797    	19000.000000	5.17286   	19000.000000	1.82694e-05	
20000.000000	8.8443    	20000.000000	5.35696   	20000.000000	2.46807   	20000.000000	2.38961   	20000.000000	5.35695   	20000.000000	1.74116e-05	
21000.000000	9.37013   	21000.000000	5.54075   	21000.000000	2.47675   	21000.000000	2.39902   	21000.000000	5.54074   	21000.000000	1.66329e-05	
22000.000000	9.91056   	22000.000000	5.72424   	22000.000000	2.48497   	22000.000000	2.408     	22000.000000	5.72422   	22000.000000	1.59228e-05	
23000.000000	10.4656   	23000.000000	5.90742   	23000.000000	2.49271   	23000.000000	2.41657   	23000.000000	5.90741   	23000.000000	1.52725e-05	
24000.000000	11.0353   	24000.000000	6.09031   	24000.000000	2.50004   	24000.000000	2.42476   	24000.000000	6.09029   	24000.000000	1.46746e-05	
25000.000000	11.6198   	25000.000000	6.2729    	25000.000000	2.50703   	25000.000000	2.43262   	25000.000000	6.27288   	25000.000000	1.41231e-05	
26000.000000	12.219    	26000.000000	6.45519   	26000.000000	2.51366   	26000.000000	2.44015   	26000.000000	6.45518   	26000.000000	1.36127e-05	
27000.000000	12.833    	27000.000000	6.6372    	27000.000000	2.51994   	27000.000000	2.44739   	27000.000000	6.63719   	27000.000000	1.31388e-05	
28000.000000	13.462    	28000.000000	6.81893   	28000.000000	2.52593   	28000.000000	2.45436   	28000.000000	6.81892   	28000.000000	1.26978e-05	
29000.000000	14.1059   	29000.000000	7.00038   	29000.000000	2.53168   	29000.000000	2.46107   	29000.000000	7.00037   	29000.000000	1.22862e-05	
30000.000000	14.7648   	30000.000000	7.18156   	30000.000000	2.53719   	30000.000000	2.46754   	30000.000000	7.18155   	30000.000000	1.19012e-05	
32000.000000	16.128    	32000.000000	7.54314   	32000.000000	2.54752   	32000.000000	2.47984   	32000.000000	7.54313   	32000.000000	1.12012e-05	
34000.000000	17.5521   	34000.000000	7.9037    	34000.000000	2.55694   	34000.000000	2.49136   	34000.000000	7.90369   	34000.000000	1.0581e-05	
36000.000000	19.0377   	36000.000000	8.26329   	36000.000000	2.56553   	36000.000000	2.50218   	36000.000000	8.26328   	36000.000000	1.00276e-05	
38000.000000	20.5856   	38000.000000	8.62196   	38000.000000	2.5734    	38000.000000	2.51238   	38000.000000	8.62195   	38000.000000	9.53075e-06	
40000.000000	22.1961   	40000.000000	8.97974   	40000.000000	2.58066   	40000.000000	2.52203   	40000.000000	8.97973   	40000.000000	9.08206e-06	
42000.000000	23.8702   	42000.000000	9.33667   	42000.000000	2.58741   	42000.000000	2.53119   	42000.000000	9.33666   	42000.000000	8.6748e-06	
44000.000000	25.6082   	44000.000000	9.69279   	44000.000000	2.59373   	44000.000000	2.53989   	44000.000000	9.69278   	44000.000000	8.30345e-06	
46000.000000	27.4111   	46000.000000	10.0481   	46000.000000	2.59969   	46000.000000	2.54819   	46000.000000	10.0481   	46000.000000	7.96341e-06	
48000.000000	29.2794   	48000.000000	10.4027   	48000.000000	2.60531   	48000.000000	2.55611   	48000.000000	10.4027   	48000.000000	7.65086e-06	
50000.000000	31.2138   	50000.000000	10.7566   	50000.000000	2.6105    	50000.000000	2.56369   	50000.000000	10.7566   	50000.000000	7.36255e-06	
