Energy (MeV/u)1	0 - [He-base] F.Hubert et al, AD&ND Tables 46(1990)1	Energy (MeV/u)2	1 - [H -base] J.F.Ziegler et al, Pergamon Press, NY (low energy)	Energy (MeV/u)3	2 - ATIMA 1.2  LS-theory (recommended for high energy)	Energy (MeV/u)4	3 - ATIMA 1.2  without LS-correction	Energy (MeV/u)5	4 - electrical component of [1] - J.F.Ziegler et al	Energy (MeV/u)6	5 - nuclear component of [1] - J.F.Ziegler et al	
0.001000	9.98166   	0.001000	2.82298   	0.001000	2.61327   	0.001000	2.61327   	0.001000	0.666965  	0.001000	2.15601   	
0.002000	10.2178   	0.002000	3.14017   	0.002000	2.863     	0.002000	2.863     	0.002000	0.92382   	0.002000	2.21635   	
0.005000	10.2834   	0.005000	3.44411   	0.005000	3.04543   	0.005000	3.04543   	0.005000	1.42108   	0.005000	2.02303   	
0.008000	10.4584   	0.008000	3.58319   	0.008000	3.10405   	0.008000	3.10405   	0.008000	1.77237   	0.008000	1.81082   	
0.010000	10.6241   	0.010000	3.65979   	0.010000	3.1373    	0.010000	3.1373    	0.010000	1.96835   	0.010000	1.69143   	
0.015000	11.1071   	0.015000	3.83917   	0.015000	3.22839   	0.015000	3.22839   	0.015000	2.38158   	0.015000	1.45759   	
0.020000	11.6164   	0.020000	4.01402   	0.020000	3.33237   	0.020000	3.33237   	0.020000	2.72639   	0.020000	1.28764   	
0.025000	12.1181   	0.025000	4.18607   	0.025000	3.4443    	0.025000	3.4443    	0.025000	3.02785   	0.025000	1.15822   	
0.030000	12.602    	0.030000	4.35469   	0.030000	3.5602    	0.030000	3.5602    	0.030000	3.29876   	0.030000	1.05594   	
0.035000	13.0656   	0.035000	4.51936   	0.035000	3.67765   	0.035000	3.67765   	0.035000	3.54662   	0.035000	0.972736  	
0.040000	13.6094   	0.040000	4.67985   	0.040000	3.79519   	0.040000	3.79519   	0.040000	3.77634   	0.040000	0.903512  	
0.045000	14.1871   	0.045000	4.83615   	0.045000	3.91194   	0.045000	3.91194   	0.045000	3.99129   	0.045000	0.844858  	
0.050000	14.6502   	0.050000	5.02289   	0.050000	4.09687   	0.050000	4.09687   	0.050000	4.22847   	0.050000	0.794416  	
0.055000	15.433    	0.055000	5.25132   	0.055000	4.38944   	0.055000	4.38944   	0.055000	4.50083   	0.055000	0.750493  	
0.060000	16.141    	0.060000	5.47267   	0.060000	4.68273   	0.060000	4.68273   	0.060000	4.76083   	0.060000	0.711843  	
0.070000	17.3879   	0.070000	5.89361   	0.070000	5.26424   	0.070000	5.26424   	0.070000	5.24679   	0.070000	0.646816  	
0.080000	18.7528   	0.080000	6.2861    	0.080000	5.82895   	0.080000	5.82895   	0.080000	5.69203   	0.080000	0.594068  	
0.090000	19.953    	0.090000	6.65162   	0.090000	6.36895   	0.090000	6.36895   	0.090000	6.10134   	0.090000	0.550285  	
0.100000	21.0215   	0.100000	6.99202   	0.100000	6.88021   	0.100000	6.88021   	0.100000	6.47875   	0.100000	0.513271  	
0.120000	22.3614   	0.120000	7.60541   	0.120000	7.81196   	0.120000	7.81196   	0.120000	7.15151   	0.120000	0.453901  	
0.140000	23.765    	0.140000	8.1423    	0.140000	8.62764   	0.140000	8.62764   	0.140000	7.73412   	0.140000	0.408172  	
0.160000	25.4396   	0.160000	8.85575   	0.160000	9.34103   	0.160000	9.34103   	0.160000	8.48403   	0.160000	0.371718  	
0.180000	27.0181   	0.180000	9.50539   	0.180000	9.96529   	0.180000	9.96529   	0.180000	9.16667   	0.180000	0.338723  	
0.200000	28.5489   	0.200000	10.0864   	0.200000	10.5225   	0.200000	10.5225   	0.200000	9.77233   	0.200000	0.314091  	
0.250000	31.2617   	0.250000	11.3029   	0.250000	11.6878   	0.250000	11.6878   	0.250000	11.036    	0.250000	0.266929  	
0.300000	33.712    	0.300000	12.2893   	0.300000	12.6345   	0.300000	12.6345   	0.300000	12.0562   	0.300000	0.233101  	
0.350000	35.9832   	0.350000	13.152    	0.350000	13.442    	0.350000	13.442    	0.350000	12.9445   	0.350000	0.207527  	
0.400000	37.9925   	0.400000	13.9132   	0.400000	14.1526   	0.400000	14.1526   	0.400000	13.7257   	0.400000	0.187441  	
0.450000	39.7543   	0.450000	14.5899   	0.450000	14.7894   	0.450000	14.7894   	0.450000	14.4187   	0.450000	0.171206  	
0.500000	41.2932   	0.500000	15.1989   	0.500000	15.3664   	0.500000	15.3664   	0.500000	15.0411   	0.500000	0.157781  	
0.600000	42.4169   	0.600000	16.2572   	0.600000	16.6706   	0.600000	16.6706   	0.600000	16.1204   	0.600000	0.136815  	
0.700000	43.2713   	0.700000	17.3823   	0.700000	17.8033   	0.700000	17.8033   	0.700000	17.2611   	0.700000	0.121132  	
0.800000	45.1532   	0.800000	18.3115   	0.800000	18.7344   	0.800000	18.7344   	0.800000	18.2026   	0.800000	0.108919  	
0.900000	46.601    	0.900000	19.0859   	0.900000	19.5064   	0.900000	19.5064   	0.900000	18.9868   	0.900000	0.0991122 	
1.000000	47.712    	1.000000	19.7354   	1.000000	20.1504   	1.000000	20.1504   	1.000000	19.6444   	1.000000	0.0910491 	
1.250000	49.1541   	1.250000	20.8743   	1.250000	21.3425   	1.250000	21.3425   	1.250000	20.7983   	1.250000	0.0759706 	
1.500000	49.6608   	1.500000	21.6082   	1.500000	22.1171   	1.500000	22.1171   	1.500000	21.5427   	1.500000	0.0654408 	
1.750000	49.6503   	1.750000	22.0932   	1.750000	22.6165   	1.750000	22.6165   	1.750000	22.0355   	1.750000	0.0576372 	
2.000000	49.1533   	2.000000	22.328    	2.000000	22.9273   	2.000000	22.9273   	2.000000	22.2764   	2.000000	0.0516037 	
2.250000	48.5628   	2.250000	22.4444   	2.250000	23.1051   	2.250000	23.1051   	2.250000	22.3976   	2.250000	0.0467882 	
2.500000	64.5389   	2.500000	22.4951   	2.500000	23.1871   	2.500000	23.1871   	2.500000	22.4522   	2.500000	0.0428486 	
3.000000	61.7401   	3.000000	22.4582   	3.000000	23.1581   	3.000000	23.1581   	3.000000	22.4214   	3.000000	0.0367732 	
3.500000	58.9564   	3.500000	22.2599   	3.500000	22.8444   	3.500000	22.8444   	3.500000	22.2276   	3.500000	0.0322924 	
4.000000	56.3128   	4.000000	22.0104   	4.000000	22.4798   	4.000000	22.4798   	4.000000	21.9815   	4.000000	0.0288415 	
4.500000	53.8501   	4.500000	21.7466   	4.500000	22.098    	4.500000	22.098    	4.500000	21.7205   	4.500000	0.026096  	
5.000000	51.5744   	5.000000	21.4537   	5.000000	21.7096   	5.000000	21.7096   	5.000000	21.4299   	5.000000	0.023856  	
5.500000	49.4775   	5.500000	21.1401   	5.500000	21.3213   	5.500000	21.3213   	5.500000	21.1181   	5.500000	0.0219912 	
6.000000	47.5458   	6.000000	20.8179   	6.000000	20.9374   	6.000000	20.9374   	6.000000	20.7975   	6.000000	0.020413  	
6.500000	45.7642   	6.500000	20.4946   	6.500000	20.5607   	6.500000	20.5607   	6.500000	20.4756   	6.500000	0.0190588 	
7.000000	44.1182   	7.000000	20.1731   	7.000000	20.1926   	7.000000	20.1926   	7.000000	20.1552   	7.000000	0.0178831 	
7.500000	42.594    	7.500000	19.8551   	7.500000	19.8343   	7.500000	19.8343   	7.500000	19.8383   	7.500000	0.0168523 	
8.000000	41.1795   	8.000000	19.5429   	8.000000	19.4862   	8.000000	19.4862   	8.000000	19.5269   	8.000000	0.0159405 	
8.500000	39.8635   	8.500000	19.2372   	8.500000	19.1486   	8.500000	19.1486   	8.500000	19.2221   	8.500000	0.0151279 	
9.000000	38.6364   	9.000000	18.9386   	9.000000	18.8215   	9.000000	18.8215   	9.000000	18.9242   	9.000000	0.0143989 	
9.500000	37.4896   	9.500000	18.6472   	9.500000	18.5047   	9.500000	18.5047   	9.500000	18.6335   	9.500000	0.0137409 	
10.000000	36.4155   	10.000000	18.4846   	10.000000	18.1981   	10.000000	18.1981   	10.000000	18.4715   	10.000000	0.0131438 	
11.000000	34.4592   	11.000000	18.0489   	11.000000	17.6459   	11.000000	17.9163   	11.000000	18.0368   	11.000000	0.0121009 	
12.000000	32.7228   	12.000000	17.5965   	12.000000	17.1169   	12.000000	17.6073   	12.000000	17.5852   	12.000000	0.0112197 	
13.000000	31.1706   	13.000000	17.1419   	13.000000	16.6145   	13.000000	17.285    	13.000000	17.1314   	13.000000	0.0104646 	
14.000000	29.7744   	14.000000	16.6938   	14.000000	16.1383   	14.000000	16.9564   	14.000000	16.684    	14.000000	0.00981002	
15.000000	28.5113   	15.000000	16.2574   	15.000000	15.6875   	15.000000	16.6268   	15.000000	16.2481   	15.000000	0.0092367 	
16.000000	27.3629   	16.000000	15.8355   	16.000000	15.2604   	16.000000	16.2995   	16.000000	15.8268   	16.000000	0.00873016	
17.000000	26.3139   	17.000000	15.4297   	17.000000	14.8557   	17.000000	15.9772   	17.000000	15.4214   	17.000000	0.00827917	
18.000000	25.3515   	18.000000	15.0405   	18.000000	14.4722   	18.000000	15.6613   	18.000000	15.0326   	18.000000	0.00787492	
19.000000	24.4653   	19.000000	14.668    	19.000000	14.1089   	19.000000	15.3529   	19.000000	14.6605   	19.000000	0.00751036	
20.000000	23.6464   	20.000000	14.3119   	20.000000	13.7649   	20.000000	15.0528   	20.000000	14.3048   	20.000000	0.00717983	
21.000000	22.8872   	21.000000	13.9717   	21.000000	13.4278   	21.000000	14.7505   	21.000000	13.9649   	21.000000	0.00687869	
22.000000	22.1812   	22.000000	13.6468   	22.000000	13.1057   	22.000000	14.4567   	22.000000	13.6402   	22.000000	0.00660311	
23.000000	21.5228   	23.000000	13.3364   	23.000000	12.8103   	23.000000	14.1835   	23.000000	13.3301   	23.000000	0.00634992	
24.000000	20.9074   	24.000000	13.0399   	24.000000	12.5304   	24.000000	13.9195   	24.000000	13.0338   	24.000000	0.00611645	
25.000000	20.3307   	25.000000	12.7565   	25.000000	12.2649   	25.000000	13.6643   	25.000000	12.7506   	25.000000	0.00590043	
27.000000	19.2795   	27.000000	12.2262   	27.000000	11.7707   	27.000000	13.1799   	27.000000	12.2207   	27.000000	0.00551336	
29.000000	18.3449   	29.000000	11.7402   	29.000000	11.3205   	29.000000	12.7279   	29.000000	11.735    	29.000000	0.00517635	
31.000000	17.5082   	31.000000	11.2936   	31.000000	10.909    	31.000000	12.2385   	31.000000	11.2887   	31.000000	0.00488013	
33.000000	16.7545   	33.000000	10.8822   	33.000000	10.5302   	33.000000	11.7282   	33.000000	10.8776   	33.000000	0.0046176 	
35.000000	16.0716   	35.000000	10.5021   	35.000000	10.1809   	35.000000	11.2644   	35.000000	10.4977   	35.000000	0.00438322	
38.000000	15.1594   	38.000000	9.98375   	38.000000	9.70447   	38.000000	10.6425   	38.000000	9.97968   	38.000000	0.00407514	
41.000000	14.359    	41.000000	9.51915   	41.000000	9.2785    	41.000000	10.0945   	41.000000	9.51534   	41.000000	0.00380947	
44.000000	13.6506   	44.000000	9.10056   	44.000000	8.8938    	44.000000	9.60782   	44.000000	9.09698   	44.000000	0.00357788	
47.000000	13.0189   	47.000000	8.7216    	47.000000	8.54535   	47.000000	9.17238   	47.000000	8.71823   	47.000000	0.00337412	
50.000000	12.4518   	50.000000	8.37699   	50.000000	8.22718   	50.000000	8.78037   	50.000000	8.3738    	50.000000	0.00319338	
55.000000	11.6248   	55.000000	7.8673    	55.000000	7.7565    	55.000000	8.20697   	55.000000	7.86436   	55.000000	0.00293347	
60.000000	10.9172   	60.000000	7.42476   	60.000000	7.34498   	60.000000	7.7148    	60.000000	7.42205   	60.000000	0.00271445	
65.000000	10.3043   	65.000000	7.03702   	65.000000	6.98219   	65.000000	7.28755   	65.000000	7.0345    	65.000000	0.00252725	
70.000000	9.76785   	70.000000	6.69457   	70.000000	6.6615    	70.000000	6.91305   	70.000000	6.6922    	70.000000	0.0023653 	
75.000000	9.29416   	75.000000	6.38993   	75.000000	6.37479   	75.000000	6.58204   	75.000000	6.38771   	75.000000	0.00222375	
80.000000	8.87257   	80.000000	6.11722   	80.000000	6.11694   	80.000000	6.28729   	80.000000	6.11512   	80.000000	0.00209892	
85.000000	8.49475   	85.000000	5.87168   	85.000000	5.8837    	85.000000	6.02312   	85.000000	5.8697    	85.000000	0.00198796	
90.000000	8.15406   	90.000000	5.64947   	90.000000	5.67167   	90.000000	5.78499   	90.000000	5.64758   	90.000000	0.00188866	
95.000000	7.84517   	95.000000	5.44742   	95.000000	5.47887   	95.000000	5.56921   	95.000000	5.44562   	95.000000	0.00179924	
100.000000	7.56373   	100.000000	5.26292   	100.000000	5.30112   	100.000000	5.37277   	100.000000	5.2612    	100.000000	0.00171828	
105.000000	7.30614   	105.000000	5.09378   	105.000000	5.13902   	105.000000	5.19317   	105.000000	5.09214   	105.000000	0.0016446 	
110.000000	7.06943   	110.000000	4.93818   	110.000000	4.98861   	110.000000	5.02832   	110.000000	4.9366    	110.000000	0.00157727	
115.000000	6.85109   	115.000000	4.79456   	115.000000	4.8495    	115.000000	4.87649   	115.000000	4.79304   	115.000000	0.00151547	
120.000000	6.64903   	120.000000	4.66158   	120.000000	4.72044   	120.000000	4.73618   	120.000000	4.66012   	120.000000	0.00145855	
125.000000	6.46143   	125.000000	4.53812   	125.000000	4.60019   	125.000000	4.60613   	125.000000	4.53672   	125.000000	0.00140593	
130.000000	6.28676   	130.000000	4.42319   	130.000000	4.4883    	130.000000	4.48526   	130.000000	4.42184   	130.000000	0.00135715	
135.000000	6.1237    	135.000000	4.31595   	135.000000	4.3834    	135.000000	4.37263   	135.000000	4.31464   	135.000000	0.00131179	
140.000000	5.9711    	140.000000	4.21564   	140.000000	4.2851    	140.000000	4.26742   	140.000000	4.21437   	140.000000	0.0012695 	
145.000000	5.82796   	145.000000	4.12162   	145.000000	4.19312   	145.000000	4.16893   	145.000000	4.12039   	145.000000	0.00122997	
150.000000	5.6934    	150.000000	4.03333   	150.000000	4.1067    	150.000000	4.07654   	150.000000	4.03213   	150.000000	0.00119293	
155.000000	5.50165   	155.000000	3.95025   	155.000000	4.02465   	155.000000	3.98969   	155.000000	3.94909   	155.000000	0.00115816	
160.000000	5.39039   	160.000000	3.87194   	160.000000	3.94714   	160.000000	3.90791   	160.000000	3.87081   	160.000000	0.00112545	
165.000000	5.2853    	165.000000	3.798     	165.000000	3.87435   	165.000000	3.83077   	165.000000	3.7969    	165.000000	0.00109462	
170.000000	5.18586   	170.000000	3.72808   	170.000000	3.8053    	170.000000	3.75788   	170.000000	3.72701   	170.000000	0.0010655 	
175.000000	5.09164   	175.000000	3.66186   	175.000000	3.73966   	175.000000	3.68891   	175.000000	3.66082   	175.000000	0.00103796	
180.000000	5.00223   	180.000000	3.59906   	180.000000	3.67748   	180.000000	3.62355   	180.000000	3.59805   	180.000000	0.00101188	
185.000000	4.91726   	185.000000	3.53942   	185.000000	3.61832   	185.000000	3.56153   	185.000000	3.53843   	185.000000	0.000987126	
190.000000	4.8364    	190.000000	3.48271   	190.000000	3.56184   	190.000000	3.5026    	190.000000	3.48175   	190.000000	0.000963611	
195.000000	4.75937   	195.000000	3.42872   	195.000000	3.508     	195.000000	3.44654   	195.000000	3.42778   	195.000000	0.00094124	
200.000000	4.68589   	200.000000	3.37727   	200.000000	3.45674   	200.000000	3.39314   	200.000000	3.37635   	200.000000	0.000919929	
210.000000	4.54865   	210.000000	3.28128   	210.000000	3.36118   	210.000000	3.29362   	210.000000	3.2804    	210.000000	0.000880199	
220.000000	4.42298   	220.000000	3.19353   	220.000000	3.27329   	220.000000	3.20277   	220.000000	3.19269   	220.000000	0.000843899	
230.000000	4.30747   	230.000000	3.11303   	230.000000	3.19308   	230.000000	3.11951   	230.000000	3.11221   	230.000000	0.000810597	
240.000000	4.20093   	240.000000	3.03891   	240.000000	3.11862   	240.000000	3.04295   	240.000000	3.03813   	240.000000	0.000779933	
250.000000	4.10235   	250.000000	2.97045   	250.000000	3.04988   	250.000000	2.97233   	250.000000	2.9697    	250.000000	0.0007516 	
260.000000	4.01087   	260.000000	2.90705   	260.000000	2.98631   	260.000000	2.90699   	260.000000	2.90632   	260.000000	0.000725338	
270.000000	3.92575   	270.000000	2.84816   	270.000000	2.927     	270.000000	2.84638   	270.000000	2.84746   	270.000000	0.000700926	
280.000000	3.84635   	280.000000	2.79333   	280.000000	2.87193   	280.000000	2.79001   	280.000000	2.79265   	280.000000	0.000678171	
290.000000	3.77212   	290.000000	2.74216   	290.000000	2.82041   	290.000000	2.73746   	290.000000	2.74151   	290.000000	0.000656908	
300.000000	3.70256   	300.000000	2.69431   	300.000000	2.77224   	300.000000	2.68838   	300.000000	2.69367   	300.000000	0.000636994	
310.000000	3.63725   	310.000000	2.64946   	310.000000	2.7272    	310.000000	2.64243   	310.000000	2.64884   	310.000000	0.000618301	
320.000000	3.57582   	320.000000	2.60735   	320.000000	2.68494   	320.000000	2.59935   	320.000000	2.60675   	320.000000	0.000600719	
330.000000	3.51794   	330.000000	2.56775   	330.000000	2.64503   	330.000000	2.55887   	330.000000	2.56716   	330.000000	0.000584151	
340.000000	3.46331   	340.000000	2.53043   	340.000000	2.60734   	340.000000	2.52077   	340.000000	2.52986   	340.000000	0.00056851	
350.000000	3.41167   	350.000000	2.49522   	350.000000	2.57184   	350.000000	2.48487   	350.000000	2.49466   	350.000000	0.00055372	
360.000000	3.36278   	360.000000	2.46194   	360.000000	2.53831   	360.000000	2.45099   	360.000000	2.4614    	360.000000	0.000539711	
370.000000	3.31644   	370.000000	2.43044   	370.000000	2.5066    	370.000000	2.41896   	370.000000	2.42992   	370.000000	0.000526424	
380.000000	3.27246   	380.000000	2.4006    	380.000000	2.47662   	380.000000	2.38865   	380.000000	2.40008   	380.000000	0.000513801	
390.000000	3.23066   	390.000000	2.37228   	390.000000	2.44815   	390.000000	2.35992   	390.000000	2.37178   	390.000000	0.000501795	
400.000000	3.19089   	400.000000	2.34538   	400.000000	2.42097   	400.000000	2.33268   	400.000000	2.34489   	400.000000	0.000490361	
410.000000	3.15301   	410.000000	2.31981   	410.000000	2.39515   	410.000000	2.3068    	410.000000	2.31933   	410.000000	0.000479457	
420.000000	3.1169    	420.000000	2.29545   	420.000000	2.37073   	420.000000	2.28219   	420.000000	2.29498   	420.000000	0.000469048	
430.000000	3.08244   	430.000000	2.27225   	430.000000	2.34751   	430.000000	2.25878   	430.000000	2.27179   	430.000000	0.0004591 	
440.000000	3.04951   	440.000000	2.25011   	440.000000	2.32528   	440.000000	2.23647   	440.000000	2.24966   	440.000000	0.000449582	
450.000000	3.01804   	450.000000	2.22898   	450.000000	2.304     	450.000000	2.2152    	450.000000	2.22854   	450.000000	0.000440467	
460.000000	2.98791   	460.000000	2.20878   	460.000000	2.2837    	460.000000	2.19491   	460.000000	2.20835   	460.000000	0.00043173	
470.000000	2.95907   	470.000000	2.18947   	470.000000	2.26432   	470.000000	2.17553   	470.000000	2.18904   	470.000000	0.000423347	
480.000000	2.93142   	480.000000	2.17098   	480.000000	2.24585   	480.000000	2.15705   	480.000000	2.17057   	480.000000	0.000415296	
490.000000	2.90491   	490.000000	2.15327   	490.000000	2.22821   	490.000000	2.13942   	490.000000	2.15287   	490.000000	0.000407559	
500.000000	2.87946   	500.000000	2.1363    	500.000000	2.21131   	500.000000	2.12254   	500.000000	2.1359    	500.000000	0.000400117	
520.000000	2.83153   	520.000000	2.10439   	520.000000	2.17957   	520.000000	2.09085   	520.000000	2.10401   	520.000000	0.000386051	
540.000000	2.78721   	540.000000	2.07496   	540.000000	2.15039   	540.000000	2.06169   	540.000000	2.07458   	540.000000	0.000372978	
560.000000	2.74614   	560.000000	2.04774   	560.000000	2.12338   	560.000000	2.03478   	560.000000	2.04738   	560.000000	0.000360797	
580.000000	2.708     	580.000000	2.02252   	580.000000	2.09824   	580.000000	2.00991   	580.000000	2.02217   	580.000000	0.000349417	
600.000000	2.67251   	600.000000	1.9991    	600.000000	2.07506   	600.000000	1.98686   	600.000000	1.99876   	600.000000	0.000338761	
620.000000	2.63944   	620.000000	1.97731   	620.000000	2.05361   	620.000000	1.96547   	620.000000	1.97698   	620.000000	0.000328761	
640.000000	2.60856   	640.000000	1.95701   	640.000000	2.03353   	640.000000	1.94558   	640.000000	1.95669   	640.000000	0.000319357	
660.000000	2.57969   	660.000000	1.93806   	660.000000	2.01475   	660.000000	1.92706   	660.000000	1.93775   	660.000000	0.000310497	
680.000000	2.55267   	680.000000	1.92035   	680.000000	1.99724   	680.000000	1.90978   	680.000000	1.92004   	680.000000	0.000302135	
700.000000	2.52734   	700.000000	1.90377   	700.000000	1.98096   	700.000000	1.89365   	700.000000	1.90348   	700.000000	0.000294229	
720.000000	2.50357   	720.000000	1.88824   	720.000000	1.9658    	720.000000	1.87856   	720.000000	1.88795   	720.000000	0.000286742	
740.000000	2.48124   	740.000000	1.87366   	740.000000	1.95158   	740.000000	1.86443   	740.000000	1.87338   	740.000000	0.000279642	
760.000000	2.46025   	760.000000	1.85998   	760.000000	1.93818   	760.000000	1.85119   	760.000000	1.85971   	760.000000	0.000272899	
780.000000	2.44049   	780.000000	1.84711   	780.000000	1.92556   	780.000000	1.83877   	780.000000	1.84685   	780.000000	0.000266485	
800.000000	2.42189   	800.000000	1.83501   	800.000000	1.9137    	800.000000	1.82709   	800.000000	1.83475   	800.000000	0.000260378	
820.000000	2.40435   	820.000000	1.82361   	820.000000	1.90256   	820.000000	1.81612   	820.000000	1.82336   	820.000000	0.000254556	
840.000000	2.38782   	840.000000	1.81287   	840.000000	1.89209   	840.000000	1.8058    	840.000000	1.81262   	840.000000	0.000248998	
860.000000	2.37221   	860.000000	1.80274   	860.000000	1.88224   	860.000000	1.79608   	860.000000	1.8025    	860.000000	0.000243687	
880.000000	2.35749   	880.000000	1.79319   	880.000000	1.87293   	880.000000	1.78692   	880.000000	1.79295   	880.000000	0.000238607	
900.000000	2.34358   	900.000000	1.78416   	900.000000	1.86411   	900.000000	1.77829   	900.000000	1.78393   	900.000000	0.000233743	
920.000000	2.33044   	920.000000	1.77564   	920.000000	1.85575   	920.000000	1.77014   	920.000000	1.77542   	920.000000	0.000229081	
940.000000	2.31802   	940.000000	1.76759   	940.000000	1.84785   	940.000000	1.76245   	940.000000	1.76737   	940.000000	0.000224608	
960.000000	2.30629   	960.000000	1.75998   	960.000000	1.84039   	960.000000	1.75518   	960.000000	1.75976   	960.000000	0.000220313	
980.000000	2.29519   	980.000000	1.75279   	980.000000	1.83338   	980.000000	1.74831   	980.000000	1.75257   	980.000000	0.000216186	
1000.000000	2.2847    	1000.000000	1.74598   	1000.000000	1.82677   	1000.000000	1.74182   	1000.000000	1.74577   	1000.000000	0.000212217	
1020.000000	2.27478   	1020.000000	1.73955   	1020.000000	1.82053   	1020.000000	1.73568   	1020.000000	1.73934   	1020.000000	0.000208396	
1040.000000	2.2654    	1040.000000	1.73346   	1040.000000	1.81462   	1040.000000	1.72987   	1040.000000	1.73325   	1040.000000	0.000204716	
1060.000000	2.25654   	1060.000000	1.72769   	1060.000000	1.80903   	1060.000000	1.72437   	1060.000000	1.72749   	1060.000000	0.000201169	
1080.000000	2.24816   	1080.000000	1.72224   	1080.000000	1.80372   	1080.000000	1.71916   	1080.000000	1.72205   	1080.000000	0.000197747	
1100.000000	2.24024   	1100.000000	1.71708   	1100.000000	1.79868   	1100.000000	1.71423   	1100.000000	1.71689   	1100.000000	0.000194444	
1120.000000	2.23276   	1120.000000	1.7122    	1120.000000	1.79387   	1120.000000	1.70956   	1120.000000	1.71201   	1120.000000	0.000191254	
1140.000000	2.2257    	1140.000000	1.70759   	1140.000000	1.78931   	1140.000000	1.70514   	1140.000000	1.7074    	1140.000000	0.000188171	
1160.000000	2.21903   	1160.000000	1.70322   	1160.000000	1.78497   	1160.000000	1.70094   	1160.000000	1.70304   	1160.000000	0.00018519	
1180.000000	2.21274   	1180.000000	1.6991    	1180.000000	1.78086   	1180.000000	1.69697   	1180.000000	1.69891   	1180.000000	0.000182305	
1200.000000	2.20681   	1200.000000	1.69519   	1200.000000	1.77697   	1200.000000	1.69321   	1200.000000	1.69502   	1200.000000	0.000179512	
1220.000000	2.20122   	1220.000000	1.69151   	1220.000000	1.7733    	1220.000000	1.68964   	1220.000000	1.69133   	1220.000000	0.000176807	
1240.000000	2.19596   	1240.000000	1.68803   	1240.000000	1.76984   	1240.000000	1.68626   	1240.000000	1.68785   	1240.000000	0.000174185	
1260.000000	2.19101   	1260.000000	1.68474   	1260.000000	1.76656   	1260.000000	1.68306   	1260.000000	1.68457   	1260.000000	0.000171643	
1280.000000	2.18637   	1280.000000	1.68165   	1280.000000	1.76346   	1280.000000	1.68002   	1280.000000	1.68148   	1280.000000	0.000169177	
1300.000000	2.182     	1300.000000	1.67873   	1300.000000	1.76051   	1300.000000	1.67715   	1300.000000	1.67856   	1300.000000	0.000166784	
1320.000000	2.17792   	1320.000000	1.67598   	1320.000000	1.7577    	1320.000000	1.67442   	1320.000000	1.67581   	1320.000000	0.00016446	
1340.000000	2.1741    	1340.000000	1.67339   	1340.000000	1.75503   	1340.000000	1.67184   	1340.000000	1.67323   	1340.000000	0.000162202	
1360.000000	2.17053   	1360.000000	1.67096   	1360.000000	1.75249   	1360.000000	1.6694    	1360.000000	1.6708    	1360.000000	0.000160008	
1380.000000	2.1672    	1380.000000	1.66868   	1380.000000	1.75008   	1380.000000	1.66709   	1380.000000	1.66852   	1380.000000	0.000157874	
1400.000000	2.1641    	1400.000000	1.66654   	1400.000000	1.74779   	1400.000000	1.6649    	1400.000000	1.66638   	1400.000000	0.000155799	
1420.000000	2.16123   	1420.000000	1.66453   	1420.000000	1.74563   	1420.000000	1.66283   	1420.000000	1.66438   	1420.000000	0.00015378	
1440.000000	2.15858   	1440.000000	1.66266   	1440.000000	1.74357   	1440.000000	1.66088   	1440.000000	1.66251   	1440.000000	0.000151814	
1460.000000	2.15613   	1460.000000	1.66092   	1460.000000	1.74163   	1460.000000	1.65903   	1460.000000	1.66077   	1460.000000	0.000149901	
1480.000000	2.15388   	1480.000000	1.65929   	1480.000000	1.7398    	1480.000000	1.65728   	1480.000000	1.65914   	1480.000000	0.000148036	
1500.000000	2.15182   	1500.000000	1.65778   	1500.000000	1.73807   	1500.000000	1.65564   	1500.000000	1.65764   	1500.000000	0.000146219	
1520.000000	2.14994   	1520.000000	1.65639   	1520.000000	1.73644   	1520.000000	1.65408   	1520.000000	1.65624   	1520.000000	0.000144448	
1540.000000	2.14825   	1540.000000	1.6551    	1540.000000	1.73489   	1540.000000	1.65262   	1540.000000	1.65495   	1540.000000	0.000142721	
1560.000000	2.14672   	1560.000000	1.65391   	1560.000000	1.73344   	1560.000000	1.65124   	1560.000000	1.65377   	1560.000000	0.000141036	
1580.000000	2.14536   	1580.000000	1.65282   	1580.000000	1.73208   	1580.000000	1.64995   	1580.000000	1.65268   	1580.000000	0.000139393	
1600.000000	2.14417   	1600.000000	1.65183   	1600.000000	1.73079   	1600.000000	1.64873   	1600.000000	1.65169   	1600.000000	0.000137788	
1620.000000	2.14312   	1620.000000	1.65093   	1620.000000	1.72959   	1620.000000	1.64759   	1620.000000	1.6508    	1620.000000	0.000136222	
1640.000000	2.14223   	1640.000000	1.65012   	1640.000000	1.72845   	1640.000000	1.64652   	1640.000000	1.64999   	1640.000000	0.000134692	
1660.000000	2.14148   	1660.000000	1.6494    	1660.000000	1.72739   	1660.000000	1.64552   	1660.000000	1.64926   	1660.000000	0.000133197	
1680.000000	2.14087   	1680.000000	1.64876   	1680.000000	1.7264    	1680.000000	1.64458   	1680.000000	1.64862   	1680.000000	0.000131736	
1700.000000	2.1404    	1700.000000	1.64819   	1700.000000	1.72547   	1700.000000	1.64371   	1700.000000	1.64806   	1700.000000	0.000130308	
1750.000000	2.13978   	1750.000000	1.64712   	1750.000000	1.72341   	1750.000000	1.64179   	1750.000000	1.64699   	1750.000000	0.000126876	
1800.000000	2.13992   	1800.000000	1.64649   	1800.000000	1.72169   	1800.000000	1.64021   	1800.000000	1.64636   	1800.000000	0.000123626	
1850.000000	2.14076   	1850.000000	1.64626   	1850.000000	1.72029   	1850.000000	1.63894   	1850.000000	1.64614   	1850.000000	0.000120545	
1900.000000	2.14225   	1900.000000	1.64641   	1900.000000	1.71917   	1900.000000	1.63794   	1900.000000	1.64629   	1900.000000	0.000117619	
1950.000000	2.14435   	1950.000000	1.6469    	1950.000000	1.71831   	1950.000000	1.6372    	1950.000000	1.64679   	1950.000000	0.000114836	
2000.000000	2.14702   	2000.000000	1.64772   	2000.000000	1.71768   	2000.000000	1.63669   	2000.000000	1.64761   	2000.000000	0.000112188	
2100.000000	2.15391   	2100.000000	1.65022   	2100.000000	1.71705   	2100.000000	1.63627   	2100.000000	1.65011   	2100.000000	0.000107253	
2200.000000	2.16266   	2200.000000	1.65374   	2200.000000	1.71712   	2200.000000	1.63653   	2200.000000	1.65364   	2200.000000	0.000102749	
2300.000000	2.17306   	2300.000000	1.65817   	2300.000000	1.71779   	2300.000000	1.63736   	2300.000000	1.65807   	2300.000000	9.86203e-05	
2400.000000	2.18492   	2400.000000	1.66337   	2400.000000	1.71894   	2400.000000	1.63866   	2400.000000	1.66327   	2400.000000	9.48221e-05	
2500.000000	2.19811   	2500.000000	1.66926   	2500.000000	1.72052   	2500.000000	1.64038   	2500.000000	1.66916   	2500.000000	9.13157e-05	
2600.000000	2.21248   	2600.000000	1.67575   	2600.000000	1.72261   	2600.000000	1.64261   	2600.000000	1.67566   	2600.000000	8.80681e-05	
2700.000000	2.22792   	2700.000000	1.68279   	2700.000000	1.72498   	2700.000000	1.6451    	2700.000000	1.6827    	2700.000000	8.50515e-05	
2800.000000	2.24434   	2800.000000	1.6903    	2800.000000	1.72758   	2800.000000	1.64782   	2800.000000	1.69022   	2800.000000	8.22418e-05	
2900.000000	2.26166   	2900.000000	1.69825   	2900.000000	1.73037   	2900.000000	1.65072   	2900.000000	1.69817   	2900.000000	7.96181e-05	
3000.000000	2.27981   	3000.000000	1.70658   	3000.000000	1.73331   	3000.000000	1.65377   	3000.000000	1.70651   	3000.000000	7.71624e-05	
3200.000000	2.31832   	3200.000000	1.72426   	3200.000000	1.73958   	3200.000000	1.66024   	3200.000000	1.72419   	3200.000000	7.26935e-05	
3400.000000	2.35946   	3400.000000	1.74308   	3400.000000	1.74621   	3400.000000	1.66705   	3400.000000	1.74301   	3400.000000	6.87302e-05	
3600.000000	2.40289   	3600.000000	1.76285   	3600.000000	1.75307   	3600.000000	1.67408   	3600.000000	1.76278   	3600.000000	6.51904e-05	
3800.000000	2.44835   	3800.000000	1.78341   	3800.000000	1.76009   	3800.000000	1.68123   	3800.000000	1.78334   	3800.000000	6.20089e-05	
4000.000000	2.49564   	4000.000000	1.80463   	4000.000000	1.76718   	4000.000000	1.68845   	4000.000000	1.80457   	4000.000000	5.91334e-05	
4200.000000	2.54456   	4200.000000	1.82642   	4200.000000	1.77428   	4200.000000	1.69567   	4200.000000	1.82637   	4200.000000	5.65213e-05	
4400.000000	2.59499   	4400.000000	1.8487    	4400.000000	1.78137   	4400.000000	1.70287   	4400.000000	1.84865   	4400.000000	5.41376e-05	
4600.000000	2.64679   	4600.000000	1.87139   	4600.000000	1.7884    	4600.000000	1.71001   	4600.000000	1.87134   	4600.000000	5.19533e-05	
4800.000000	2.69988   	4800.000000	1.89445   	4800.000000	1.79536   	4800.000000	1.71708   	4800.000000	1.8944    	4800.000000	4.99441e-05	
5000.000000	2.75417   	5000.000000	1.91781   	5000.000000	1.80224   	5000.000000	1.72406   	5000.000000	1.91776   	5000.000000	4.80895e-05	
5250.000000	2.8236    	5250.000000	1.94739   	5250.000000	1.81069   	5250.000000	1.73263   	5250.000000	1.94735   	5250.000000	4.59626e-05	
5500.000000	2.89467   	5500.000000	1.97734   	5500.000000	1.81897   	5500.000000	1.74104   	5500.000000	1.9773    	5500.000000	4.40217e-05	
6000.000000	3.04136   	6000.000000	2.03811   	6000.000000	1.83502   	6000.000000	1.75731   	6000.000000	2.03807   	6000.000000	4.06076e-05	
6500.000000	3.19362   	6500.000000	2.09978   	6500.000000	1.85036   	6500.000000	1.77283   	6500.000000	2.09974   	6500.000000	3.76999e-05	
7000.000000	3.351     	7000.000000	2.16213   	7000.000000	1.86499   	7000.000000	1.78763   	7000.000000	2.16209   	7000.000000	3.51928e-05	
7500.000000	3.5132    	7500.000000	2.22498   	7500.000000	1.87883   	7500.000000	1.80172   	7500.000000	2.22495   	7500.000000	3.3008e-05	
8000.000000	3.67995   	8000.000000	2.28822   	8000.000000	1.89204   	8000.000000	1.81515   	8000.000000	2.28819   	8000.000000	3.10865e-05	
8500.000000	3.85106   	8500.000000	2.35175   	8500.000000	1.90466   	8500.000000	1.82796   	8500.000000	2.35172   	8500.000000	2.9383e-05	
9000.000000	4.0264    	9000.000000	2.41549   	9000.000000	1.9167    	9000.000000	1.84019   	9000.000000	2.41546   	9000.000000	2.7862e-05	
9500.000000	4.20584   	9500.000000	2.47939   	9500.000000	1.92816   	9500.000000	1.85187   	9500.000000	2.47937   	9500.000000	2.64954e-05	
10000.000000	4.38929   	10000.000000	2.54342   	10000.000000	1.93909   	10000.000000	1.86305   	10000.000000	2.54339   	10000.000000	2.52606e-05	
11000.000000	4.76794   	11000.000000	2.67169   	11000.000000	1.95956   	11000.000000	1.88403   	11000.000000	2.67167   	11000.000000	2.31162e-05	
12000.000000	5.16192   	12000.000000	2.80012   	12000.000000	1.97843   	12000.000000	1.90338   	12000.000000	2.8001    	12000.000000	2.1317e-05	
13000.000000	5.57091   	13000.000000	2.92856   	13000.000000	1.99588   	13000.000000	1.9213    	13000.000000	2.92854   	13000.000000	1.97852e-05	
14000.000000	5.99473   	14000.000000	3.05695   	14000.000000	2.01208   	14000.000000	1.93797   	14000.000000	3.05693   	14000.000000	1.84649e-05	
15000.000000	6.43325   	15000.000000	3.18522   	15000.000000	2.02715   	15000.000000	1.95354   	15000.000000	3.18521   	15000.000000	1.73145e-05	
16000.000000	6.88637   	16000.000000	3.31334   	16000.000000	2.04116   	16000.000000	1.96813   	16000.000000	3.31332   	16000.000000	1.63031e-05	
17000.000000	7.35405   	17000.000000	3.44128   	17000.000000	2.05424   	17000.000000	1.98185   	17000.000000	3.44126   	17000.000000	1.54067e-05	
18000.000000	7.83627   	18000.000000	3.56902   	18000.000000	2.06649   	18000.000000	1.9948    	18000.000000	3.56901   	18000.000000	1.46065e-05	
19000.000000	8.33302   	19000.000000	3.69656   	19000.000000	2.07802   	19000.000000	2.00704   	19000.000000	3.69655   	19000.000000	1.38876e-05	
20000.000000	8.8443    	20000.000000	3.82389   	20000.000000	2.0889    	20000.000000	2.01864   	20000.000000	3.82388   	20000.000000	1.32382e-05	
21000.000000	9.37013   	21000.000000	3.95101   	21000.000000	2.09922   	21000.000000	2.02967   	21000.000000	3.951     	21000.000000	1.26486e-05	
22000.000000	9.91056   	22000.000000	4.07792   	22000.000000	2.10902   	22000.000000	2.04018   	22000.000000	4.07791   	22000.000000	1.21107e-05	
23000.000000	10.4656   	23000.000000	4.20461   	23000.000000	2.11826   	23000.000000	2.0502    	23000.000000	4.2046    	23000.000000	1.16181e-05	
24000.000000	11.0353   	24000.000000	4.33109   	24000.000000	2.12703   	24000.000000	2.05979   	24000.000000	4.33108   	24000.000000	1.11651e-05	
25000.000000	11.6198   	25000.000000	4.45737   	25000.000000	2.1354    	25000.000000	2.06896   	25000.000000	4.45736   	25000.000000	1.07471e-05	
26000.000000	12.219    	26000.000000	4.58344   	26000.000000	2.14337   	26000.000000	2.07776   	26000.000000	4.58343   	26000.000000	1.03602e-05	
27000.000000	12.833    	27000.000000	4.70931   	27000.000000	2.15095   	27000.000000	2.08622   	27000.000000	4.7093    	27000.000000	1.00011e-05	
28000.000000	13.462    	28000.000000	4.83498   	28000.000000	2.15818   	28000.000000	2.09435   	28000.000000	4.83497   	28000.000000	9.66665e-06	
29000.000000	14.1059   	29000.000000	4.96047   	29000.000000	2.16511   	29000.000000	2.10218   	29000.000000	4.96046   	29000.000000	9.35455e-06	
30000.000000	14.7648   	30000.000000	5.08576   	30000.000000	2.17175   	30000.000000	2.10973   	30000.000000	5.08575   	30000.000000	9.06255e-06	
32000.000000	16.128    	32000.000000	5.3358    	32000.000000	2.18422   	32000.000000	2.12406   	32000.000000	5.33579   	32000.000000	8.53152e-06	
34000.000000	17.5521   	34000.000000	5.58513   	34000.000000	2.19568   	34000.000000	2.13748   	34000.000000	5.58512   	34000.000000	8.06094e-06	
36000.000000	19.0377   	36000.000000	5.83379   	36000.000000	2.20621   	36000.000000	2.15007   	36000.000000	5.83378   	36000.000000	7.64096e-06	
38000.000000	20.5856   	38000.000000	6.0818    	38000.000000	2.21594   	38000.000000	2.16194   	38000.000000	6.08179   	38000.000000	7.26376e-06	
40000.000000	22.1961   	40000.000000	6.3292    	40000.000000	2.22497   	40000.000000	2.17316   	40000.000000	6.32919   	40000.000000	6.92307e-06	
42000.000000	23.8702   	42000.000000	6.57601   	42000.000000	2.23338   	42000.000000	2.18378   	42000.000000	6.576     	42000.000000	6.61377e-06	
44000.000000	25.6082   	44000.000000	6.82226   	44000.000000	2.24126   	44000.000000	2.19388   	44000.000000	6.82225   	44000.000000	6.33169e-06	
46000.000000	27.4111   	46000.000000	7.06796   	46000.000000	2.24869   	46000.000000	2.2035    	46000.000000	7.06796   	46000.000000	6.07335e-06	
48000.000000	29.2794   	48000.000000	7.31315   	48000.000000	2.25568   	48000.000000	2.21267   	48000.000000	7.31314   	48000.000000	5.83585e-06	
50000.000000	31.2138   	50000.000000	7.55783   	50000.000000	2.26219   	50000.000000	2.22144   	50000.000000	7.55783   	50000.000000	5.61674e-06	
