Energy (MeV/u)1	0 - [He-base] F.Hubert et al, AD&ND Tables 46(1990)1	Energy (MeV/u)2	1 - [H -base] J.F.Ziegler et al, Pergamon Press, NY (low energy)	Energy (MeV/u)3	2 - ATIMA 1.2  LS-theory (recommended for high energy)	Energy (MeV/u)4	3 - ATIMA 1.2  without LS-correction	Energy (MeV/u)5	4 - electrical component of [1] - J.F.Ziegler et al	Energy (MeV/u)6	5 - nuclear component of [1] - J.F.Ziegler et al	
0.001000	0.566916  	0.001000	0.818763  	0.001000	0.930653  	0.001000	0.930653  	0.001000	0.455067  	0.001000	0.363696  	
0.002000	0.66329   	0.002000	0.904783  	0.002000	1.04032   	0.002000	1.04032   	0.002000	0.666257  	0.002000	0.238527  	
0.005000	0.933788  	0.005000	1.22864   	0.005000	1.39355   	0.005000	1.39355   	0.005000	1.10283   	0.005000	0.125812  	
0.008000	1.1603    	0.008000	1.51702   	0.008000	1.69244   	0.008000	1.69244   	0.008000	1.42815   	0.008000	0.088863  	
0.010000	1.295     	0.010000	1.68961   	0.010000	1.86783   	0.010000	1.86783   	0.010000	1.61464   	0.010000	0.0749761 	
0.015000	1.52091   	0.015000	2.10431   	0.015000	2.17649   	0.015000	2.17649   	0.015000	2.04962   	0.015000	0.0546911 	
0.020000	1.698     	0.020000	2.51295   	0.020000	2.41065   	0.020000	2.41065   	0.020000	2.46943   	0.020000	0.0435231 	
0.025000	1.89061   	0.025000	2.89969   	0.025000	2.63135   	0.025000	2.63135   	0.025000	2.86332   	0.025000	0.0363728 	
0.030000	2.04676   	0.030000	3.26027   	0.030000	2.91932   	0.030000	2.91932   	0.030000	3.2289    	0.030000	0.0313689 	
0.035000	2.17166   	0.035000	3.59633   	0.035000	3.1875    	0.035000	3.1875    	0.035000	3.56867   	0.035000	0.0276546 	
0.040000	2.26747   	0.040000	3.91169   	0.040000	3.43691   	0.040000	3.43691   	0.040000	3.88691   	0.040000	0.0247791 	
0.045000	2.33575   	0.045000	4.20572   	0.045000	3.66828   	0.045000	3.66828   	0.045000	4.18324   	0.045000	0.0224816 	
0.050000	2.37844   	0.050000	4.4778    	0.050000	3.88222   	0.050000	3.88222   	0.050000	4.4572    	0.050000	0.0206004 	
0.055000	2.47309   	0.055000	4.72746   	0.055000	4.07934   	0.055000	4.07934   	0.055000	4.70843   	0.055000	0.0190294 	
0.060000	2.5518    	0.060000	4.95445   	0.060000	4.26022   	0.060000	4.26022   	0.060000	4.93675   	0.060000	0.0176961 	
0.070000	2.66645   	0.070000	5.34071   	0.070000	4.5759    	0.070000	4.5759    	0.070000	5.32516   	0.070000	0.0155516 	
0.080000	2.78936   	0.080000	5.63979   	0.080000	4.83473   	0.080000	4.83473   	0.080000	5.62589   	0.080000	0.0138983 	
0.090000	2.87795   	0.090000	5.85848   	0.090000	5.04255   	0.090000	5.04255   	0.090000	5.8459    	0.090000	0.0125819 	
0.100000	2.94334   	0.100000	6.00609   	0.100000	5.20529   	0.100000	5.20529   	0.100000	5.99458   	0.100000	0.0115072 	
0.120000	2.98487   	0.120000	6.20749   	0.120000	5.41841   	0.120000	5.41841   	0.120000	6.19763   	0.120000	0.00985392	
0.140000	2.9921    	0.140000	6.23374   	0.140000	5.51589   	0.140000	5.51589   	0.140000	6.2251    	0.140000	0.00863795	
0.160000	2.99236   	0.160000	6.1649    	0.160000	5.5318    	0.160000	5.5318    	0.160000	6.15719   	0.160000	0.00770354	
0.180000	2.98871   	0.180000	6.03048   	0.180000	5.49226   	0.180000	5.49226   	0.180000	6.02352   	0.180000	0.00696153	
0.200000	2.99663   	0.200000	5.89052   	0.200000	5.41644   	0.200000	5.41644   	0.200000	5.88416   	0.200000	0.00635711	
0.250000	2.93531   	0.250000	5.52778   	0.250000	5.1481    	0.250000	5.1481    	0.250000	5.52253   	0.250000	0.00524112	
0.300000	2.92573   	0.300000	5.28942   	0.300000	4.88164   	0.300000	4.88164   	0.300000	5.28495   	0.300000	0.00447343	
0.350000	2.89172   	0.350000	5.05158   	0.350000	4.62376   	0.350000	4.62376   	0.350000	5.04766   	0.350000	0.00391106	
0.400000	2.84291   	0.400000	4.83289   	0.400000	4.37795   	0.400000	4.37795   	0.400000	4.82941   	0.400000	0.00348031	
0.450000	2.77866   	0.450000	4.62256   	0.450000	4.14877   	0.450000	4.14877   	0.450000	4.61942   	0.450000	0.00313919	
0.500000	2.7162    	0.500000	4.4414    	0.500000	3.94488   	0.500000	3.94488   	0.500000	4.43854   	0.500000	0.00286196	
0.600000	2.49273   	0.600000	4.11142   	0.600000	3.60146   	0.600000	3.60146   	0.600000	4.10898   	0.600000	0.00243788	
0.700000	2.26899   	0.700000	3.80782   	0.700000	3.32423   	0.700000	3.32423   	0.700000	3.8057    	0.700000	0.00212796	
0.800000	2.17012   	0.800000	3.5843    	0.800000	3.0948    	0.800000	3.0948    	0.800000	3.58241   	0.800000	0.00189103	
0.900000	2.06479   	0.900000	3.3652    	0.900000	2.90051   	0.900000	2.90051   	0.900000	3.3635    	0.900000	0.00170371	
1.000000	1.96024   	1.000000	3.15774   	1.000000	2.72587   	1.000000	2.72587   	1.000000	3.15619   	1.000000	0.00155168	
1.250000	1.72045   	1.250000	2.71188   	1.250000	2.38211   	1.250000	2.38211   	1.250000	2.7106    	1.250000	0.00127243	
1.500000	1.49373   	1.500000	2.31027   	1.500000	2.12352   	1.500000	2.12352   	1.500000	2.30919   	1.500000	0.00108153	
1.750000	1.32757   	1.750000	2.02304   	1.750000	1.9178    	1.750000	1.9178    	1.750000	2.0221    	1.750000	0.000942361	
2.000000	1.19909   	2.000000	1.80528   	2.000000	1.74887   	2.000000	1.74887   	2.000000	1.80444   	2.000000	0.000836192	
2.250000	1.09765   	2.250000	1.63315   	2.250000	1.6068    	2.250000	1.6068    	2.250000	1.6324    	2.250000	0.000752397	
2.500000	0.979644  	2.500000	1.49279   	2.500000	1.4857    	2.500000	1.4857    	2.500000	1.49211   	2.500000	0.000684496	
3.000000	0.860778  	3.000000	1.27589   	3.000000	1.29057   	3.000000	1.29057   	3.000000	1.27531   	3.000000	0.000580996	
3.500000	0.769179  	3.500000	1.11469   	3.500000	1.14076   	3.500000	1.14076   	3.500000	1.11418   	3.500000	0.000505666	
4.000000	0.696309  	4.000000	0.989515  	4.000000	1.02255   	4.000000	1.02255   	4.000000	0.989067  	4.000000	0.000448271	
4.500000	0.636875  	4.500000	0.889352  	4.500000	0.927128  	4.500000	0.927128  	4.500000	0.888949  	4.500000	0.000403021	
5.000000	0.587421  	5.000000	0.807372  	5.000000	0.848601  	5.000000	0.848601  	5.000000	0.807006  	5.000000	0.000366388	
5.500000	0.545589  	5.500000	0.739062  	5.500000	0.782899  	5.500000	0.782899  	5.500000	0.738726  	5.500000	0.000336098	
6.000000	0.509716  	6.000000	0.681289  	6.000000	0.727135  	6.000000	0.727135  	6.000000	0.680978  	6.000000	0.000310615	
6.500000	0.478593  	6.500000	0.631807  	6.500000	0.679211  	6.500000	0.679211  	6.500000	0.631518  	6.500000	0.000288866	
7.000000	0.45132   	7.000000	0.588963  	7.000000	0.637575  	7.000000	0.637575  	7.000000	0.588693  	7.000000	0.000270076	
7.500000	0.427213  	7.500000	0.551511  	7.500000	0.601055  	7.500000	0.601055  	7.500000	0.551258  	7.500000	0.000253673	
8.000000	0.405742  	8.000000	0.518499  	8.000000	0.568749  	8.000000	0.568749  	8.000000	0.51826   	8.000000	0.000239223	
8.500000	0.386489  	8.500000	0.489184  	8.500000	0.539958  	8.500000	0.539958  	8.500000	0.488957  	8.500000	0.000226393	
9.000000	0.369122  	9.000000	0.462978  	9.000000	0.514126  	9.000000	0.514126  	9.000000	0.462763  	9.000000	0.000214922	
9.500000	0.353373  	9.500000	0.439414  	9.500000	0.490812  	9.500000	0.490812  	9.500000	0.43921   	9.500000	0.000204601	
10.000000	0.339021  	10.000000	0.422205  	10.000000	0.469656  	10.000000	0.469656  	10.000000	0.422009  	10.000000	0.000195264	
11.000000	0.313814  	11.000000	0.393312  	11.000000	0.432067  	11.000000	0.432121  	11.000000	0.393133  	11.000000	0.000179022	
12.000000	0.29238   	12.000000	0.368333  	12.000000	0.400362  	12.000000	0.40045   	12.000000	0.368168  	12.000000	0.000165366	
13.000000	0.273919  	13.000000	0.346524  	13.000000	0.373244  	13.000000	0.373353  	13.000000	0.34637   	13.000000	0.000153718	
14.000000	0.257842  	14.000000	0.327317  	14.000000	0.349775  	14.000000	0.349893  	14.000000	0.327174  	14.000000	0.00014366	
15.000000	0.243709  	15.000000	0.310271  	15.000000	0.329261  	15.000000	0.329378  	15.000000	0.310136  	15.000000	0.000134883	
16.000000	0.231182  	16.000000	0.295038  	16.000000	0.311167  	16.000000	0.311282  	16.000000	0.294911  	16.000000	0.000127155	
17.000000	0.219996  	17.000000	0.281341  	17.000000	0.295089  	17.000000	0.295201  	17.000000	0.281221  	17.000000	0.000120297	
18.000000	0.209945  	18.000000	0.268957  	18.000000	0.28071   	18.000000	0.280815  	18.000000	0.268842  	18.000000	0.000114167	
19.000000	0.20086   	19.000000	0.257703  	19.000000	0.267775  	19.000000	0.267872  	19.000000	0.257595  	19.000000	0.000108653	
20.000000	0.192607  	20.000000	0.247431  	20.000000	0.256072  	20.000000	0.256165  	20.000000	0.247327  	20.000000	0.000103667	
21.000000	0.185075  	21.000000	0.238015  	21.000000	0.245438  	21.000000	0.245527  	21.000000	0.237916  	21.000000	9.91353e-05	
22.000000	0.17817   	22.000000	0.229352  	22.000000	0.235743  	22.000000	0.235821  	22.000000	0.229257  	22.000000	9.49973e-05	
23.000000	0.171818  	23.000000	0.221353  	23.000000	0.22687   	23.000000	0.226932  	23.000000	0.221262  	23.000000	9.12036e-05	
24.000000	0.165952  	24.000000	0.213945  	24.000000	0.218712  	24.000000	0.218763  	24.000000	0.213857  	24.000000	8.77122e-05	
25.000000	0.160518  	25.000000	0.207062  	25.000000	0.211188  	25.000000	0.211233  	25.000000	0.206978  	25.000000	8.44881e-05	
27.000000	0.150764  	27.000000	0.194664  	27.000000	0.197787  	27.000000	0.197818  	27.000000	0.194586  	27.000000	7.8726e-05	
29.000000	0.142255  	29.000000	0.183802  	29.000000	0.186226  	29.000000	0.18624   	29.000000	0.183728  	29.000000	7.37258e-05	
31.000000	0.134763  	31.000000	0.174204  	31.000000	0.176149  	31.000000	0.176145  	31.000000	0.174134  	31.000000	6.93439e-05	
33.000000	0.128112  	33.000000	0.165658  	33.000000	0.167224  	33.000000	0.167205  	33.000000	0.165593  	33.000000	6.54711e-05	
35.000000	0.122166  	35.000000	0.157999  	35.000000	0.159255  	35.000000	0.159223  	35.000000	0.157937  	35.000000	6.20227e-05	
38.000000	0.114338  	38.000000	0.147888  	38.000000	0.148779  	38.000000	0.14873   	38.000000	0.147831  	38.000000	5.7503e-05	
41.000000	0.107576  	41.000000	0.139132  	41.000000	0.139744  	41.000000	0.139682  	41.000000	0.139079  	41.000000	5.36182e-05	
44.000000	0.101671  	44.000000	0.131472  	44.000000	0.131868  	44.000000	0.131795  	44.000000	0.131422  	44.000000	5.02419e-05	
47.000000	0.0964691 	47.000000	0.124712  	47.000000	0.12494   	47.000000	0.124856  	47.000000	0.124665  	47.000000	4.72793e-05	
50.000000	0.0918481 	50.000000	0.118701  	50.000000	0.118786  	50.000000	0.118703  	50.000000	0.118656  	50.000000	4.46581e-05	
55.000000	0.0851919 	55.000000	0.110032  	55.000000	0.109944  	55.000000	0.109856  	55.000000	0.109991  	55.000000	4.09e-05  	
60.000000	0.0795716 	60.000000	0.102706  	60.000000	0.102499  	60.000000	0.102405  	60.000000	0.102668  	60.000000	3.77442e-05	
65.000000	0.0747588 	65.000000	0.0964301 	65.000000	0.0961316 	65.000000	0.0960401 	65.000000	0.096395  	65.000000	3.50552e-05	
70.000000	0.0705878 	70.000000	0.0909916 	70.000000	0.0906374 	70.000000	0.0905371 	70.000000	0.0909589 	70.000000	3.27356e-05	
75.000000	0.0669357 	75.000000	0.0862315 	75.000000	0.0858257 	75.000000	0.0857304 	75.000000	0.0862008 	75.000000	3.07134e-05	
80.000000	0.0637096 	80.000000	0.082029  	80.000000	0.0815939 	80.000000	0.0814946 	80.000000	0.0820001 	80.000000	2.89343e-05	
85.000000	0.0608375 	85.000000	0.0782906 	85.000000	0.0778271 	85.000000	0.0777326 	85.000000	0.0782633 	85.000000	2.73565e-05	
90.000000	0.0582629 	90.000000	0.0749427 	90.000000	0.0744666 	90.000000	0.0743686 	90.000000	0.0749168 	90.000000	2.59473e-05	
95.000000	0.0559408 	95.000000	0.0719266 	95.000000	0.0714354 	95.000000	0.071342  	95.000000	0.0719019 	95.000000	2.46808e-05	
100.000000	0.0538351 	100.000000	0.0691948 	100.000000	0.0687007 	100.000000	0.0686041 	100.000000	0.0691713 	100.000000	2.3536e-05	
105.000000	0.0519162 	105.000000	0.0667086 	105.000000	0.0662077 	105.000000	0.0661151 	105.000000	0.0666861 	105.000000	2.24962e-05	
110.000000	0.0501596 	110.000000	0.0644359 	110.000000	0.063937  	110.000000	0.0638425 	110.000000	0.0644144 	110.000000	2.15473e-05	
115.000000	0.0485451 	115.000000	0.0623502 	115.000000	0.0618514 	115.000000	0.0617589 	115.000000	0.0623295 	115.000000	2.06778e-05	
120.000000	0.0470558 	120.000000	0.0604292 	120.000000	0.0599331 	120.000000	0.0598416 	120.000000	0.0604093 	120.000000	1.98779e-05	
125.000000	0.0456773 	125.000000	0.0586538 	125.000000	0.0581645 	125.000000	0.0580714 	125.000000	0.0586347 	125.000000	1.91397e-05	
130.000000	0.0443973 	130.000000	0.0570082 	130.000000	0.0565216 	130.000000	0.0564319 	130.000000	0.0569897 	130.000000	1.84561e-05	
135.000000	0.0432054 	135.000000	0.0554783 	135.000000	0.0549951 	135.000000	0.054909  	135.000000	0.0554605 	135.000000	1.78212e-05	
140.000000	0.0420926 	140.000000	0.0540524 	140.000000	0.0535776 	140.000000	0.0534908 	140.000000	0.0540352 	140.000000	1.723e-05 	
145.000000	0.041051  	145.000000	0.0527202 	145.000000	0.0522544 	145.000000	0.0521668 	145.000000	0.0527035 	145.000000	1.6678e-05	
150.000000	0.0400739 	150.000000	0.0514726 	150.000000	0.0510127 	150.000000	0.0509278 	150.000000	0.0514564 	150.000000	1.61614e-05	
155.000000	0.0386981 	155.000000	0.0503018 	155.000000	0.0498514 	155.000000	0.049766  	155.000000	0.0502861 	155.000000	1.56769e-05	
160.000000	0.0378917 	160.000000	0.0492009 	160.000000	0.0487605 	160.000000	0.0486743 	160.000000	0.0491857 	160.000000	1.52216e-05	
165.000000	0.0371312 	165.000000	0.0481638 	165.000000	0.0477303 	165.000000	0.0476466 	165.000000	0.048149  	165.000000	1.47928e-05	
170.000000	0.0364128 	170.000000	0.0471851 	170.000000	0.0467609 	170.000000	0.0466775 	170.000000	0.0471707 	170.000000	1.43883e-05	
175.000000	0.0357331 	175.000000	0.0462599 	175.000000	0.0458467 	175.000000	0.045762  	175.000000	0.0462459 	175.000000	1.4006e-05	
180.000000	0.0350889 	180.000000	0.0453841 	180.000000	0.0449795 	180.000000	0.0448958 	180.000000	0.0453704 	180.000000	1.36442e-05	
185.000000	0.0344776 	185.000000	0.0445537 	185.000000	0.0441563 	185.000000	0.0440752 	185.000000	0.0445404 	185.000000	1.33012e-05	
190.000000	0.0338966 	190.000000	0.0437653 	190.000000	0.0433757 	190.000000	0.0432965 	190.000000	0.0437523 	190.000000	1.29756e-05	
195.000000	0.0333436 	195.000000	0.0430158 	195.000000	0.0426359 	195.000000	0.0425567 	195.000000	0.0430031 	195.000000	1.26661e-05	
200.000000	0.0328168 	200.000000	0.0423023 	200.000000	0.0419333 	200.000000	0.041853  	200.000000	0.0422899 	200.000000	1.23715e-05	
210.000000	0.0318343 	210.000000	0.0409738 	210.000000	0.0406217 	210.000000	0.0405438 	210.000000	0.0409619 	210.000000	1.18229e-05	
220.000000	0.0309363 	220.000000	0.0397619 	220.000000	0.0394297 	220.000000	0.039351  	220.000000	0.0397506 	220.000000	1.13223e-05	
230.000000	0.0301123 	230.000000	0.0386522 	230.000000	0.0383373 	230.000000	0.03826   	230.000000	0.0386413 	230.000000	1.08637e-05	
240.000000	0.0293534 	240.000000	0.0376322 	240.000000	0.0373326 	240.000000	0.0372584 	240.000000	0.0376217 	240.000000	1.04419e-05	
250.000000	0.0286523 	250.000000	0.0366915 	250.000000	0.0364104 	250.000000	0.0363358 	250.000000	0.0366814 	250.000000	1.00527e-05	
260.000000	0.0280024 	260.000000	0.0358213 	260.000000	0.0355575 	260.000000	0.0354832 	260.000000	0.0358117 	260.000000	9.69228e-06	
270.000000	0.0273984 	270.000000	0.0350141 	270.000000	0.034766  	270.000000	0.0346933 	270.000000	0.0350048 	270.000000	9.35764e-06	
280.000000	0.0268357 	280.000000	0.0342634 	280.000000	0.0340331 	280.000000	0.0339593 	280.000000	0.0342543 	280.000000	9.04606e-06	
290.000000	0.02631   	290.000000	0.0335634 	290.000000	0.0333483 	290.000000	0.0332758 	290.000000	0.0335546 	290.000000	8.7552e-06	
300.000000	0.0258179 	300.000000	0.0329093 	300.000000	0.032708  	300.000000	0.0326377 	300.000000	0.0329008 	300.000000	8.48304e-06	
310.000000	0.0253563 	310.000000	0.0322968 	310.000000	0.0321102 	310.000000	0.0320408 	310.000000	0.0322886 	310.000000	8.22781e-06	
320.000000	0.0249224 	320.000000	0.0317221 	320.000000	0.0315516 	320.000000	0.0314814 	320.000000	0.0317142 	320.000000	7.98797e-06	
330.000000	0.0245139 	330.000000	0.031182  	330.000000	0.0310259 	330.000000	0.030956  	330.000000	0.0311742 	330.000000	7.76215e-06	
340.000000	0.0241286 	340.000000	0.0306733 	340.000000	0.0305299 	340.000000	0.0304618 	340.000000	0.0306658 	340.000000	7.54914e-06	
350.000000	0.0237646 	350.000000	0.0301936 	350.000000	0.0300628 	350.000000	0.0299962 	350.000000	0.0301863 	350.000000	7.34787e-06	
360.000000	0.0234203 	360.000000	0.0297405 	360.000000	0.0296234 	360.000000	0.0295568 	360.000000	0.0297334 	360.000000	7.15739e-06	
370.000000	0.023094  	370.000000	0.029312  	370.000000	0.0292089 	370.000000	0.0291416 	370.000000	0.029305  	370.000000	6.97684e-06	
380.000000	0.0227845 	380.000000	0.028906  	380.000000	0.0288152 	380.000000	0.0287486 	380.000000	0.0288992 	380.000000	6.80546e-06	
390.000000	0.0224905 	390.000000	0.028521  	390.000000	0.0284417 	390.000000	0.0283763 	390.000000	0.0285144 	390.000000	6.64256e-06	
400.000000	0.0222109 	400.000000	0.0281555 	400.000000	0.0280887 	400.000000	0.028023  	400.000000	0.028149  	400.000000	6.48752e-06	
410.000000	0.0219448 	410.000000	0.027808  	410.000000	0.0277537 	410.000000	0.0276875 	410.000000	0.0278016 	410.000000	6.33977e-06	
420.000000	0.0216911 	420.000000	0.0274773 	420.000000	0.0274342 	420.000000	0.0273685 	420.000000	0.0274711 	420.000000	6.19882e-06	
430.000000	0.0214491 	430.000000	0.0271623 	430.000000	0.0271294 	430.000000	0.0270648 	430.000000	0.0271562 	430.000000	6.06419e-06	
440.000000	0.021218  	440.000000	0.0268619 	440.000000	0.0268389 	440.000000	0.0267754 	440.000000	0.0268559 	440.000000	5.93546e-06	
450.000000	0.0209972 	450.000000	0.0265751 	450.000000	0.0265622 	450.000000	0.0264994 	450.000000	0.0265693 	450.000000	5.81226e-06	
460.000000	0.0207859 	460.000000	0.0263012 	460.000000	0.0262989 	460.000000	0.026236  	460.000000	0.0262956 	460.000000	5.69423e-06	
470.000000	0.0205836 	470.000000	0.0260394 	470.000000	0.0260476 	470.000000	0.0259843 	470.000000	0.0260338 	470.000000	5.58104e-06	
480.000000	0.0203898 	480.000000	0.0257888 	480.000000	0.025807  	480.000000	0.0257436 	480.000000	0.0257833 	480.000000	5.47241e-06	
490.000000	0.020204  	490.000000	0.0255489 	490.000000	0.0255761 	490.000000	0.0255133 	490.000000	0.0255435 	490.000000	5.36805e-06	
500.000000	0.0200257 	500.000000	0.0253189 	500.000000	0.0253547 	500.000000	0.0252927 	500.000000	0.0253137 	500.000000	5.26773e-06	
520.000000	0.01969   	520.000000	0.0248868 	520.000000	0.0249389 	520.000000	0.0248785 	520.000000	0.0248818 	520.000000	5.07826e-06	
540.000000	0.0193797 	540.000000	0.0244885 	540.000000	0.0245575 	540.000000	0.024497  	540.000000	0.0244835 	540.000000	4.90234e-06	
560.000000	0.0190924 	560.000000	0.0241203 	560.000000	0.0242056 	560.000000	0.0241447 	560.000000	0.0241155 	560.000000	4.73857e-06	
580.000000	0.0188256 	580.000000	0.0237792 	580.000000	0.0238783 	580.000000	0.0238186 	580.000000	0.0237747 	580.000000	4.5857e-06	
600.000000	0.0185774 	600.000000	0.0234627 	600.000000	0.0235758 	600.000000	0.0235162 	600.000000	0.0234583 	600.000000	4.44269e-06	
620.000000	0.0183462 	620.000000	0.0231684 	620.000000	0.0232952 	620.000000	0.0232352 	620.000000	0.0231641 	620.000000	4.30858e-06	
640.000000	0.0181304 	640.000000	0.0228943 	640.000000	0.023033  	640.000000	0.0229734 	640.000000	0.0228902 	640.000000	4.18258e-06	
660.000000	0.0179288 	660.000000	0.0226386 	660.000000	0.0227878 	660.000000	0.0227293 	660.000000	0.0226346 	660.000000	4.06395e-06	
680.000000	0.01774   	680.000000	0.0223997 	680.000000	0.0225588 	680.000000	0.0225013 	680.000000	0.0223958 	680.000000	3.95207e-06	
700.000000	0.0175631 	700.000000	0.0221763 	700.000000	0.0223451 	700.000000	0.0222879 	700.000000	0.0221724 	700.000000	3.84636e-06	
720.000000	0.0173972 	720.000000	0.021967  	720.000000	0.0221455 	720.000000	0.0220879 	720.000000	0.0219632 	720.000000	3.74633e-06	
740.000000	0.0172413 	740.000000	0.0217707 	740.000000	0.0219581 	740.000000	0.0219003 	740.000000	0.021767  	740.000000	3.65153e-06	
760.000000	0.0170948 	760.000000	0.0215865 	760.000000	0.0217814 	760.000000	0.021724  	760.000000	0.0215829 	760.000000	3.56155e-06	
780.000000	0.0169569 	780.000000	0.0214134 	780.000000	0.0216149 	780.000000	0.0215582 	780.000000	0.0214099 	780.000000	3.47602e-06	
800.000000	0.0168271 	800.000000	0.0212506 	800.000000	0.021458  	800.000000	0.0214021 	800.000000	0.0212472 	800.000000	3.39463e-06	
820.000000	0.0167048 	820.000000	0.0210974 	820.000000	0.0213103 	820.000000	0.021255  	820.000000	0.0210941 	820.000000	3.31708e-06	
840.000000	0.0165895 	840.000000	0.0209532 	840.000000	0.0211713 	840.000000	0.0211162 	840.000000	0.0209499 	840.000000	3.2431e-06	
860.000000	0.0164807 	860.000000	0.0208172 	860.000000	0.0210405 	860.000000	0.0209851 	860.000000	0.020814  	860.000000	3.17244e-06	
880.000000	0.016378  	880.000000	0.020689  	880.000000	0.0209169 	880.000000	0.0208612 	880.000000	0.0206859 	880.000000	3.10489e-06	
900.000000	0.016281  	900.000000	0.0205681 	900.000000	0.0207997 	900.000000	0.020744  	900.000000	0.020565  	900.000000	3.04024e-06	
920.000000	0.0161894 	920.000000	0.0204539 	920.000000	0.0206885 	920.000000	0.0206331 	920.000000	0.020451  	920.000000	2.97831e-06	
940.000000	0.0161028 	940.000000	0.0203462 	940.000000	0.0205829 	940.000000	0.020528  	940.000000	0.0203432 	940.000000	2.91893e-06	
960.000000	0.016021  	960.000000	0.0202443 	960.000000	0.0204827 	960.000000	0.0204283 	960.000000	0.0202415 	960.000000	2.86193e-06	
980.000000	0.0159436 	980.000000	0.0201482 	980.000000	0.0203877 	980.000000	0.0203338 	980.000000	0.0201454 	980.000000	2.80719e-06	
1000.000000	0.0158705 	1000.000000	0.0200573 	1000.000000	0.0202975 	1000.000000	0.0202441 	1000.000000	0.0200545 	1000.000000	2.75457e-06	
1020.000000	0.0158014 	1020.000000	0.0199714 	1020.000000	0.0202121 	1020.000000	0.0201589 	1020.000000	0.0199687 	1020.000000	2.70393e-06	
1040.000000	0.0157361 	1040.000000	0.0198902 	1040.000000	0.0201312 	1040.000000	0.0200779 	1040.000000	0.0198875 	1040.000000	2.65519e-06	
1060.000000	0.0156743 	1060.000000	0.0198134 	1060.000000	0.0200544 	1060.000000	0.020001  	1060.000000	0.0198108 	1060.000000	2.60822e-06	
1080.000000	0.0156159 	1080.000000	0.0197408 	1080.000000	0.0199814 	1080.000000	0.0199277 	1080.000000	0.0197383 	1080.000000	2.56293e-06	
1100.000000	0.0155607 	1100.000000	0.0196722 	1100.000000	0.0199119 	1100.000000	0.0198581 	1100.000000	0.0196697 	1100.000000	2.51924e-06	
1120.000000	0.0155086 	1120.000000	0.0196074 	1120.000000	0.0198455 	1120.000000	0.0197918 	1120.000000	0.019605  	1120.000000	2.47705e-06	
1140.000000	0.0154594 	1140.000000	0.0195462 	1140.000000	0.019782  	1140.000000	0.0197286 	1140.000000	0.0195438 	1140.000000	2.4363e-06	
1160.000000	0.0154129 	1160.000000	0.0194883 	1160.000000	0.0197216 	1160.000000	0.0196684 	1160.000000	0.0194859 	1160.000000	2.39691e-06	
1180.000000	0.0153691 	1180.000000	0.0194337 	1180.000000	0.0196639 	1180.000000	0.0196111 	1180.000000	0.0194314 	1180.000000	2.3588e-06	
1200.000000	0.0153278 	1200.000000	0.0193822 	1200.000000	0.0196091 	1200.000000	0.0195565 	1200.000000	0.0193798 	1200.000000	2.32193e-06	
1220.000000	0.0152888 	1220.000000	0.0193335 	1220.000000	0.0195569 	1220.000000	0.0195043 	1220.000000	0.0193312 	1220.000000	2.28622e-06	
1240.000000	0.0152522 	1240.000000	0.0192877 	1240.000000	0.0195073 	1240.000000	0.0194546 	1240.000000	0.0192854 	1240.000000	2.25163e-06	
1260.000000	0.0152177 	1260.000000	0.0192444 	1260.000000	0.01946   	1260.000000	0.0194072 	1260.000000	0.0192422 	1260.000000	2.2181e-06	
1280.000000	0.0151854 	1280.000000	0.0192038 	1280.000000	0.0194149 	1280.000000	0.019362  	1280.000000	0.0192016 	1280.000000	2.18559e-06	
1300.000000	0.015155  	1300.000000	0.0191655 	1300.000000	0.0193718 	1300.000000	0.0193188 	1300.000000	0.0191633 	1300.000000	2.15404e-06	
1320.000000	0.0151265 	1320.000000	0.0191295 	1320.000000	0.0193307 	1320.000000	0.0192776 	1320.000000	0.0191274 	1320.000000	2.12342e-06	
1340.000000	0.0150999 	1340.000000	0.0190957 	1340.000000	0.0192912 	1340.000000	0.0192382 	1340.000000	0.0190936 	1340.000000	2.09368e-06	
1360.000000	0.015075  	1360.000000	0.0190641 	1360.000000	0.0192535 	1360.000000	0.0192007 	1360.000000	0.019062  	1360.000000	2.06479e-06	
1380.000000	0.0150518 	1380.000000	0.0190344 	1380.000000	0.0192175 	1380.000000	0.0191648 	1380.000000	0.0190324 	1380.000000	2.0367e-06	
1400.000000	0.0150302 	1400.000000	0.0190067 	1400.000000	0.019183  	1400.000000	0.0191305 	1400.000000	0.0190047 	1400.000000	2.0094e-06	
1420.000000	0.0150102 	1420.000000	0.0189809 	1420.000000	0.0191501 	1420.000000	0.0190978 	1420.000000	0.0189789 	1420.000000	1.98284e-06	
1440.000000	0.0149917 	1440.000000	0.0189568 	1440.000000	0.0191186 	1440.000000	0.0190666 	1440.000000	0.0189548 	1440.000000	1.95699e-06	
1460.000000	0.0149746 	1460.000000	0.0189344 	1460.000000	0.0190885 	1460.000000	0.0190368 	1460.000000	0.0189325 	1460.000000	1.93182e-06	
1480.000000	0.014959  	1480.000000	0.0189136 	1480.000000	0.0190598 	1480.000000	0.0190083 	1480.000000	0.0189117 	1480.000000	1.90732e-06	
1500.000000	0.0149446 	1500.000000	0.0188945 	1500.000000	0.0190324 	1500.000000	0.0189811 	1500.000000	0.0188926 	1500.000000	1.88345e-06	
1520.000000	0.0149315 	1520.000000	0.0188768 	1520.000000	0.0190063 	1520.000000	0.0189551 	1520.000000	0.0188749 	1520.000000	1.86018e-06	
1540.000000	0.0149197 	1540.000000	0.0188606 	1540.000000	0.0189813 	1540.000000	0.0189303 	1540.000000	0.0188587 	1540.000000	1.8375e-06	
1560.000000	0.0149091 	1560.000000	0.0188458 	1560.000000	0.0189576 	1560.000000	0.0189067 	1560.000000	0.018844  	1560.000000	1.81538e-06	
1580.000000	0.0148996 	1580.000000	0.0188323 	1580.000000	0.0189349 	1580.000000	0.0188841 	1580.000000	0.0188305 	1580.000000	1.79381e-06	
1600.000000	0.0148912 	1600.000000	0.0188201 	1600.000000	0.0189133 	1600.000000	0.0188625 	1600.000000	0.0188183 	1600.000000	1.77276e-06	
1620.000000	0.0148839 	1620.000000	0.0188092 	1620.000000	0.0188928 	1620.000000	0.0188419 	1620.000000	0.0188074 	1620.000000	1.75221e-06	
1640.000000	0.0148777 	1640.000000	0.0187995 	1640.000000	0.0188732 	1640.000000	0.0188223 	1640.000000	0.0187977 	1640.000000	1.73214e-06	
1660.000000	0.0148725 	1660.000000	0.0187909 	1660.000000	0.0188546 	1660.000000	0.0188036 	1660.000000	0.0187892 	1660.000000	1.71254e-06	
1680.000000	0.0148682 	1680.000000	0.0187834 	1680.000000	0.0188368 	1680.000000	0.0187858 	1680.000000	0.0187817 	1680.000000	1.6934e-06	
1700.000000	0.0148649 	1700.000000	0.018777  	1700.000000	0.0188199 	1700.000000	0.0187688 	1700.000000	0.0187754 	1700.000000	1.67469e-06	
1750.000000	0.0148605 	1750.000000	0.0187656 	1750.000000	0.018781  	1750.000000	0.0187298 	1750.000000	0.018764  	1750.000000	1.62972e-06	
1800.000000	0.0148614 	1800.000000	0.0187601 	1800.000000	0.0187466 	1800.000000	0.0186953 	1800.000000	0.0187585 	1800.000000	1.58718e-06	
1850.000000	0.0148672 	1850.000000	0.0187601 	1850.000000	0.0187162 	1850.000000	0.018665  	1850.000000	0.0187586 	1850.000000	1.54686e-06	
1900.000000	0.0148775 	1900.000000	0.0187652 	1900.000000	0.0186894 	1900.000000	0.0186384 	1900.000000	0.0187637 	1900.000000	1.5086e-06	
1950.000000	0.014892  	1950.000000	0.0187749 	1950.000000	0.018666  	1950.000000	0.0186153 	1950.000000	0.0187734 	1950.000000	1.47223e-06	
2000.000000	0.0149105 	2000.000000	0.018789  	2000.000000	0.0186458 	2000.000000	0.0185952 	2000.000000	0.0187876 	2000.000000	1.43763e-06	
2100.000000	0.0149582 	2100.000000	0.0188289 	2100.000000	0.0186135 	2100.000000	0.0185635 	2100.000000	0.0188275 	2100.000000	1.37322e-06	
2200.000000	0.0150189 	2200.000000	0.0188826 	2200.000000	0.0185909 	2200.000000	0.0185413 	2200.000000	0.0188813 	2200.000000	1.31448e-06	
2300.000000	0.0150911 	2300.000000	0.0189485 	2300.000000	0.0185765 	2300.000000	0.0185272 	2300.000000	0.0189472 	2300.000000	1.2607e-06	
2400.000000	0.0151734 	2400.000000	0.0190249 	2400.000000	0.018569  	2400.000000	0.0185199 	2400.000000	0.0190237 	2400.000000	1.21126e-06	
2500.000000	0.0152649 	2500.000000	0.0191105 	2500.000000	0.0185676 	2500.000000	0.0185183 	2500.000000	0.0191094 	2500.000000	1.16565e-06	
2600.000000	0.0153647 	2600.000000	0.0192044 	2600.000000	0.0185711 	2600.000000	0.0185217 	2600.000000	0.0192033 	2600.000000	1.12344e-06	
2700.000000	0.0154719 	2700.000000	0.0193055 	2700.000000	0.0185788 	2700.000000	0.0185292 	2700.000000	0.0193044 	2700.000000	1.08427e-06	
2800.000000	0.0155859 	2800.000000	0.0194132 	2800.000000	0.01859   	2800.000000	0.0185404 	2800.000000	0.0194121 	2800.000000	1.04781e-06	
2900.000000	0.0157062 	2900.000000	0.0195266 	2900.000000	0.0186043 	2900.000000	0.0185546 	2900.000000	0.0195256 	2900.000000	1.01378e-06	
3000.000000	0.0158322 	3000.000000	0.0196452 	3000.000000	0.0186211 	3000.000000	0.0185715 	3000.000000	0.0196442 	3000.000000	9.81957e-07	
3200.000000	0.0160996 	3200.000000	0.0198961 	3200.000000	0.0186611 	3200.000000	0.0186117 	3200.000000	0.0198952 	3200.000000	9.24097e-07	
3400.000000	0.0163852 	3400.000000	0.0201624 	3400.000000	0.0187078 	3400.000000	0.0186587 	3400.000000	0.0201616 	3400.000000	8.72843e-07	
3600.000000	0.0166868 	3600.000000	0.0204415 	3600.000000	0.0187594 	3600.000000	0.0187106 	3600.000000	0.0204407 	3600.000000	8.27117e-07	
3800.000000	0.0170025 	3800.000000	0.0207312 	3800.000000	0.0188147 	3800.000000	0.0187662 	3800.000000	0.0207304 	3800.000000	7.86062e-07	
4000.000000	0.0173309 	4000.000000	0.0210299 	4000.000000	0.0188727 	4000.000000	0.0188243 	4000.000000	0.0210292 	4000.000000	7.48992e-07	
4200.000000	0.0176706 	4200.000000	0.0213363 	4200.000000	0.0189325 	4200.000000	0.0188843 	4200.000000	0.0213355 	4200.000000	7.15348e-07	
4400.000000	0.0180208 	4400.000000	0.0216491 	4400.000000	0.0189936 	4400.000000	0.0189454 	4400.000000	0.0216484 	4400.000000	6.84674e-07	
4600.000000	0.0183806 	4600.000000	0.0219675 	4600.000000	0.0190554 	4600.000000	0.0190074 	4600.000000	0.0219669 	4600.000000	6.56588e-07	
4800.000000	0.0187492 	4800.000000	0.0222908 	4800.000000	0.0191176 	4800.000000	0.0190697 	4800.000000	0.0222901 	4800.000000	6.30774e-07	
5000.000000	0.0191262 	5000.000000	0.0226182 	5000.000000	0.01918   	5000.000000	0.0191321 	5000.000000	0.0226176 	5000.000000	6.06965e-07	
5250.000000	0.0196083 	5250.000000	0.0230326 	5250.000000	0.0192577 	5250.000000	0.0192099 	5250.000000	0.023032  	5250.000000	5.7968e-07	
5500.000000	0.0201019 	5500.000000	0.0234518 	5500.000000	0.0193349 	5500.000000	0.0192872 	5500.000000	0.0234512 	5500.000000	5.54804e-07	
6000.000000	0.0211206 	6000.000000	0.0243019 	6000.000000	0.019487  	6000.000000	0.0194394 	6000.000000	0.0243014 	6000.000000	5.11096e-07	
6500.000000	0.0221779 	6500.000000	0.0251641 	6500.000000	0.0196349 	6500.000000	0.0195875 	6500.000000	0.0251637 	6500.000000	4.73925e-07	
7000.000000	0.0232709 	7000.000000	0.0260354 	7000.000000	0.0197781 	7000.000000	0.0197308 	7000.000000	0.0260349 	7000.000000	4.41917e-07	
7500.000000	0.0243972 	7500.000000	0.0269133 	7500.000000	0.0199163 	7500.000000	0.0198691 	7500.000000	0.0269129 	7500.000000	4.14057e-07	
8000.000000	0.0255552 	8000.000000	0.0277963 	8000.000000	0.0200497 	8000.000000	0.0200024 	8000.000000	0.0277959 	8000.000000	3.89584e-07	
8500.000000	0.0267435 	8500.000000	0.028683  	8500.000000	0.0201779 	8500.000000	0.0201308 	8500.000000	0.0286827 	8500.000000	3.67909e-07	
9000.000000	0.0279611 	9000.000000	0.0295726 	9000.000000	0.0203013 	9000.000000	0.0202545 	9000.000000	0.0295723 	9000.000000	3.48575e-07	
9500.000000	0.0292072 	9500.000000	0.0304643 	9500.000000	0.0204203 	9500.000000	0.0203738 	9500.000000	0.030464  	9500.000000	3.3122e-07	
10000.000000	0.0304812 	10000.000000	0.0313575 	10000.000000	0.0205352 	10000.000000	0.0204887 	10000.000000	0.0313572 	10000.000000	3.15553e-07	
11000.000000	0.0331107 	11000.000000	0.0331468 	11000.000000	0.020753  	11000.000000	0.0207066 	11000.000000	0.0331465 	11000.000000	2.88375e-07	
12000.000000	0.0358466 	12000.000000	0.0349378 	12000.000000	0.0209557 	12000.000000	0.02091   	12000.000000	0.0349375 	12000.000000	2.65606e-07	
13000.000000	0.0386869 	13000.000000	0.0367288 	13000.000000	0.0211456 	13000.000000	0.0211004 	13000.000000	0.0367286 	13000.000000	2.46247e-07	
14000.000000	0.0416301 	14000.000000	0.0385188 	14000.000000	0.0213243 	14000.000000	0.0212793 	14000.000000	0.0385186 	14000.000000	2.2958e-07	
15000.000000	0.0446753 	15000.000000	0.0403069 	15000.000000	0.0214929 	15000.000000	0.0214479 	15000.000000	0.0403067 	15000.000000	2.15075e-07	
16000.000000	0.047822  	16000.000000	0.0420928 	16000.000000	0.0216522 	16000.000000	0.0216072 	16000.000000	0.0420926 	16000.000000	2.02336e-07	
17000.000000	0.0510698 	17000.000000	0.0438761 	17000.000000	0.0218029 	17000.000000	0.0217581 	17000.000000	0.0438759 	17000.000000	1.91055e-07	
18000.000000	0.0544185 	18000.000000	0.0456565 	18000.000000	0.0219458 	18000.000000	0.0219015 	18000.000000	0.0456564 	18000.000000	1.80993e-07	
19000.000000	0.0578682 	19000.000000	0.0474341 	19000.000000	0.0220817 	19000.000000	0.022038  	19000.000000	0.0474339 	19000.000000	1.71963e-07	
20000.000000	0.0614187 	20000.000000	0.0492086 	20000.000000	0.0222111 	20000.000000	0.0221683 	20000.000000	0.0492084 	20000.000000	1.63811e-07	
21000.000000	0.0650704 	21000.000000	0.0509801 	21000.000000	0.0223349 	21000.000000	0.0222928 	21000.000000	0.05098   	21000.000000	1.56415e-07	
22000.000000	0.0688233 	22000.000000	0.0527486 	22000.000000	0.0224537 	22000.000000	0.0224121 	22000.000000	0.0527485 	22000.000000	1.49674e-07	
23000.000000	0.0726779 	23000.000000	0.0545141 	23000.000000	0.0225678 	23000.000000	0.0225265 	23000.000000	0.0545139 	23000.000000	1.43503e-07	
24000.000000	0.0766343 	24000.000000	0.0562766 	24000.000000	0.0226773 	24000.000000	0.0226364 	24000.000000	0.0562765 	24000.000000	1.37832e-07	
25000.000000	0.0806929 	25000.000000	0.0580362 	25000.000000	0.0227825 	25000.000000	0.0227422 	25000.000000	0.058036  	25000.000000	1.32603e-07	
26000.000000	0.0848541 	26000.000000	0.0597929 	26000.000000	0.0228837 	26000.000000	0.0228441 	26000.000000	0.0597928 	26000.000000	1.27766e-07	
27000.000000	0.0891183 	27000.000000	0.0615468 	27000.000000	0.0229813 	27000.000000	0.0229424 	27000.000000	0.0615466 	27000.000000	1.23277e-07	
28000.000000	0.0934859 	28000.000000	0.0632979 	28000.000000	0.0230755 	28000.000000	0.0230374 	28000.000000	0.0632978 	28000.000000	1.19101e-07	
29000.000000	0.0979574 	29000.000000	0.0650463 	29000.000000	0.0231666 	29000.000000	0.0231293 	29000.000000	0.0650462 	29000.000000	1.15204e-07	
30000.000000	0.102533  	30000.000000	0.0667921 	30000.000000	0.0232547 	30000.000000	0.0232182 	30000.000000	0.066792  	30000.000000	1.11561e-07	
32000.000000	0.112     	32000.000000	0.0702759 	32000.000000	0.0234229 	32000.000000	0.023388  	32000.000000	0.0702758 	32000.000000	1.0494e-07	
34000.000000	0.12189   	34000.000000	0.0737499 	34000.000000	0.0235815 	34000.000000	0.023548  	34000.000000	0.0737498 	34000.000000	9.90773e-08	
36000.000000	0.132207  	36000.000000	0.0772144 	36000.000000	0.0237312 	36000.000000	0.0236993 	36000.000000	0.0772143 	36000.000000	9.38495e-08	
38000.000000	0.142955  	38000.000000	0.0806699 	38000.000000	0.023873  	38000.000000	0.0238427 	38000.000000	0.0806698 	38000.000000	8.91578e-08	
40000.000000	0.15414   	40000.000000	0.0841168 	40000.000000	0.0240076 	40000.000000	0.0239791 	40000.000000	0.0841167 	40000.000000	8.49232e-08	
42000.000000	0.165765  	42000.000000	0.0875554 	42000.000000	0.0241357 	42000.000000	0.0241091 	42000.000000	0.0875553 	42000.000000	8.10815e-08	
44000.000000	0.177835  	44000.000000	0.0909862 	44000.000000	0.0242579 	44000.000000	0.0242333 	44000.000000	0.0909861 	44000.000000	7.75801e-08	
46000.000000	0.190355  	46000.000000	0.0944094 	46000.000000	0.0243748 	46000.000000	0.0243521 	46000.000000	0.0944093 	46000.000000	7.43753e-08	
48000.000000	0.203329  	48000.000000	0.0978253 	48000.000000	0.0244868 	48000.000000	0.024466  	48000.000000	0.0978253 	48000.000000	7.14308e-08	
50000.000000	0.216762  	50000.000000	0.101234  	50000.000000	0.0245941 	50000.000000	0.0245754 	50000.000000	0.101234  	50000.000000	6.87157e-08	
