Energy (MeV/u)1	0 - [He-base] F.Hubert et al, AD&ND Tables 46(1990)1	Energy (MeV/u)2	1 - [H -base] J.F.Ziegler et al, Pergamon Press, NY (low energy)	Energy (MeV/u)3	2 - ATIMA 1.2  LS-theory (recommended for high energy)	Energy (MeV/u)4	3 - ATIMA 1.2  without LS-correction	Energy (MeV/u)5	4 - electrical component of [1] - J.F.Ziegler et al	Energy (MeV/u)6	5 - nuclear component of [1] - J.F.Ziegler et al	
0.001000	1.07006   	0.001000	0.589264  	0.001000	0.712224  	0.001000	0.712224  	0.001000	0.345367  	0.001000	0.243896  	
0.002000	1.1755    	0.002000	0.640956  	0.002000	0.789979  	0.002000	0.789979  	0.002000	0.447886  	0.002000	0.19307   	
0.005000	1.44601   	0.005000	0.755754  	0.005000	0.946816  	0.005000	0.946816  	0.005000	0.631531  	0.005000	0.124222  	
0.008000	1.65768   	0.008000	0.84771   	0.008000	1.06414   	0.008000	1.06414   	0.008000	0.753251  	0.008000	0.094459  	
0.010000	1.77722   	0.010000	0.901171  	0.010000	1.13062   	0.010000	1.13062   	0.010000	0.818995  	0.010000	0.0821762 	
0.015000	2.08117   	0.015000	1.0451    	0.015000	1.29157   	0.015000	1.29157   	0.015000	0.982138  	0.015000	0.0629659 	
0.020000	2.32471   	0.020000	1.27976   	0.020000	1.50938   	0.020000	1.50938   	0.020000	1.2281    	0.020000	0.0516555 	
0.025000	2.5987    	0.025000	1.50969   	0.025000	1.72094   	0.025000	1.72094   	0.025000	1.46599   	0.025000	0.043695  	
0.030000	2.83144   	0.030000	1.73051   	0.030000	1.90121   	0.030000	1.90121   	0.030000	1.69221   	0.030000	0.0383049 	
0.035000	3.02302   	0.035000	1.93701   	0.035000	2.06751   	0.035000	2.06751   	0.035000	1.9028    	0.035000	0.0342042 	
0.040000	3.17408   	0.040000	2.12726   	0.040000	2.22016   	0.040000	2.22016   	0.040000	2.0963    	0.040000	0.0309681 	
0.045000	3.2854    	0.045000	2.30021   	0.045000	2.35951   	0.045000	2.35951   	0.045000	2.27187   	0.045000	0.0283422 	
0.050000	3.35418   	0.050000	2.45221   	0.050000	2.48602   	0.050000	2.48602   	0.050000	2.42605   	0.050000	0.0261642 	
0.055000	3.49622   	0.055000	2.58502   	0.055000	2.60021   	0.055000	2.60021   	0.055000	2.5607    	0.055000	0.0243252 	
0.060000	3.61597   	0.060000	2.70145   	0.060000	2.7027    	0.060000	2.7027    	0.060000	2.6787    	0.060000	0.0227497 	
0.070000	3.7952    	0.070000	2.88956   	0.070000	2.87533   	0.070000	2.87533   	0.070000	2.86937   	0.070000	0.0201854 	
0.080000	3.98649   	0.080000	3.02664   	0.080000	3.00973   	0.080000	3.00973   	0.080000	3.00845   	0.080000	0.018182  	
0.090000	4.12903   	0.090000	3.12324   	0.090000	3.11182   	0.090000	3.11182   	0.090000	3.10667   	0.090000	0.0165693 	
0.100000	4.23509   	0.100000	3.18891   	0.100000	3.18723   	0.100000	3.18723   	0.100000	3.17367   	0.100000	0.0152404 	
0.120000	4.27307   	0.120000	3.25742   	0.120000	3.27756   	0.120000	3.27756   	0.120000	3.24424   	0.120000	0.0131735 	
0.140000	4.26832   	0.140000	3.27642   	0.140000	3.31295   	0.140000	3.31295   	0.140000	3.26478   	0.140000	0.0116344 	
0.160000	4.27435   	0.160000	3.28361   	0.160000	3.31543   	0.160000	3.31543   	0.160000	3.27317   	0.160000	0.01044   	
0.180000	4.2995    	0.180000	3.29653   	0.180000	3.29907   	0.180000	3.29907   	0.180000	3.28705   	0.180000	0.00948373	
0.200000	4.32179   	0.200000	3.29516   	0.200000	3.2725    	0.200000	3.2725    	0.200000	3.28646   	0.200000	0.00869939	
0.250000	4.26895   	0.250000	3.28276   	0.250000	3.18988   	0.250000	3.18988   	0.250000	3.27552   	0.250000	0.00723745	
0.300000	4.25137   	0.300000	3.27195   	0.300000	3.1057    	0.300000	3.1057    	0.300000	3.26573   	0.300000	0.00622045	
0.350000	4.22693   	0.350000	3.24936   	0.350000	3.04708   	0.350000	3.04708   	0.350000	3.24389   	0.350000	0.00546895	
0.400000	4.22129   	0.400000	3.23923   	0.400000	2.99378   	0.400000	2.99378   	0.400000	3.23434   	0.400000	0.00488928	
0.450000	4.19162   	0.450000	3.21305   	0.450000	2.93791   	0.450000	2.93791   	0.450000	3.20862   	0.450000	0.00442753	
0.500000	4.13846   	0.500000	3.16998   	0.500000	2.88028   	0.500000	2.88028   	0.500000	3.16593   	0.500000	0.00405039	
0.600000	3.85489   	0.600000	3.05354   	0.600000	2.76078   	0.600000	2.76078   	0.600000	3.05007   	0.600000	0.00346995	
0.700000	3.5579    	0.700000	2.92346   	0.700000	2.64951   	0.700000	2.64951   	0.700000	2.92041   	0.700000	0.00304281	
0.800000	3.39064   	0.800000	2.78304   	0.800000	2.54599   	0.800000	2.54599   	0.800000	2.78032   	0.800000	0.00271443	
0.900000	3.23229   	0.900000	2.65306   	0.900000	2.44962   	0.900000	2.44962   	0.900000	2.65061   	0.900000	0.00245358	
1.000000	3.08434   	1.000000	2.53356   	1.000000	2.35981   	1.000000	2.35981   	1.000000	2.53132   	1.000000	0.00224103	
1.250000	2.74086   	1.250000	2.26477   	1.250000	2.15049   	1.250000	2.15049   	1.250000	2.26292   	1.250000	0.00184841	
1.500000	2.46359   	1.500000	2.05131   	1.500000	1.97785   	1.500000	1.97785   	1.500000	2.04973   	1.500000	0.00157819	
1.750000	2.23716   	1.750000	1.87864   	1.750000	1.83251   	1.750000	1.83251   	1.750000	1.87726   	1.750000	0.00138016	
2.000000	2.03802   	2.000000	1.72557   	2.000000	1.70753   	2.000000	1.70753   	2.000000	1.72434   	2.000000	0.00122843	
2.250000	1.87382   	2.250000	1.59715   	2.250000	1.5987    	2.250000	1.5987    	2.250000	1.59604   	2.250000	0.00110824	
2.500000	1.70108   	2.500000	1.49117   	2.500000	1.50307   	2.500000	1.50307   	2.500000	1.49016   	2.500000	0.00101054	
3.000000	1.50152   	3.000000	1.32388   	3.000000	1.34326   	3.000000	1.34326   	3.000000	1.32302   	3.000000	0.00086104	
3.500000	1.34619   	3.500000	1.19554   	3.500000	1.21517   	3.500000	1.21517   	3.500000	1.19479   	3.500000	0.000751749	
4.000000	1.22169   	4.000000	1.09276   	4.000000	1.11052   	4.000000	1.11052   	4.000000	1.09209   	4.000000	0.000668175	
4.500000	1.11958   	4.500000	1.00809   	4.500000	1.02357   	4.500000	1.02357   	4.500000	1.00749   	4.500000	0.000602084	
5.000000	1.03423   	5.000000	0.936907  	5.000000	0.950241  	5.000000	0.950241  	5.000000	0.936358  	5.000000	0.000548437	
5.500000	0.961769  	5.500000	0.876124  	5.500000	0.887583  	5.500000	0.887583  	5.500000	0.87562   	5.500000	0.000503975	
6.000000	0.899448  	6.000000	0.823555  	6.000000	0.83342   	6.000000	0.83342   	6.000000	0.823088  	6.000000	0.000466493	
6.500000	0.845246  	6.500000	0.777597  	6.500000	0.786118  	6.500000	0.786118  	6.500000	0.777163  	6.500000	0.000434443	
7.000000	0.797649  	7.000000	0.737048  	7.000000	0.744434  	7.000000	0.744434  	7.000000	0.736641  	7.000000	0.000406708	
7.500000	0.755502  	7.500000	0.700981  	7.500000	0.707404  	7.500000	0.707404  	7.500000	0.700598  	7.500000	0.000382459	
8.000000	0.717906  	8.000000	0.668673  	8.000000	0.674273  	8.000000	0.674273  	8.000000	0.668312  	8.000000	0.000361067	
8.500000	0.684149  	8.500000	0.63955   	8.500000	0.644442  	8.500000	0.644442  	8.500000	0.639208  	8.500000	0.000342049	
9.000000	0.653663  	9.000000	0.61315   	9.000000	0.617427  	9.000000	0.617427  	9.000000	0.612825  	9.000000	0.000325023	
9.500000	0.625988  	9.500000	0.589096  	9.500000	0.592837  	9.500000	0.592837  	9.500000	0.588786  	9.500000	0.000309689	
10.000000	0.600745  	10.000000	0.569633  	10.000000	0.570349  	10.000000	0.570349  	10.000000	0.569337  	10.000000	0.000295802	
11.000000	0.556359  	11.000000	0.530247  	11.000000	0.529763  	11.000000	0.529945  	11.000000	0.529975  	11.000000	0.000271609	
12.000000	0.518568  	12.000000	0.49626   	12.000000	0.494976  	12.000000	0.495272  	12.000000	0.496008  	12.000000	0.000251233	
13.000000	0.485983  	13.000000	0.466636  	13.000000	0.464789  	13.000000	0.465153  	13.000000	0.466402  	13.000000	0.000233824	
14.000000	0.457582  	14.000000	0.440587  	14.000000	0.438311  	14.000000	0.438717  	14.000000	0.440368  	14.000000	0.000218771	
15.000000	0.432596  	15.000000	0.4175    	15.000000	0.414874  	15.000000	0.415303  	15.000000	0.417294  	15.000000	0.000205618	
16.000000	0.410435  	16.000000	0.396894  	16.000000	0.39397   	16.000000	0.394404  	16.000000	0.3967    	16.000000	0.000194023	
17.000000	0.390638  	17.000000	0.378388  	17.000000	0.375197  	17.000000	0.375621  	17.000000	0.378204  	17.000000	0.00018372	
18.000000	0.372839  	18.000000	0.361673  	18.000000	0.358229  	18.000000	0.358638  	18.000000	0.361499  	18.000000	0.000174503	
19.000000	0.356747  	19.000000	0.346499  	19.000000	0.342803  	19.000000	0.343199  	19.000000	0.346333  	19.000000	0.000166204	
20.000000	0.342122  	20.000000	0.332661  	20.000000	0.328708  	20.000000	0.329098  	20.000000	0.332502  	20.000000	0.000158693	
21.000000	0.32877   	21.000000	0.319988  	21.000000	0.315782  	21.000000	0.316161  	21.000000	0.319836  	21.000000	0.000151859	
22.000000	0.316529  	22.000000	0.308336  	22.000000	0.303893  	22.000000	0.304247  	22.000000	0.30819   	22.000000	0.000145615	
23.000000	0.305262  	23.000000	0.297586  	23.000000	0.292917  	23.000000	0.293235  	23.000000	0.297446  	23.000000	0.000139886	
24.000000	0.294857  	24.000000	0.287636  	24.000000	0.282737  	24.000000	0.283025  	24.000000	0.287501  	24.000000	0.000134609	
25.000000	0.285217  	25.000000	0.278398  	25.000000	0.273264  	25.000000	0.273531  	25.000000	0.278268  	25.000000	0.000129733	
27.000000	0.267909  	27.000000	0.261772  	27.000000	0.256182  	27.000000	0.256403  	27.000000	0.261651  	27.000000	0.000121011	
29.000000	0.252805  	29.000000	0.24722   	29.000000	0.241204  	29.000000	0.24137   	29.000000	0.247106  	29.000000	0.000113433	
31.000000	0.239504  	31.000000	0.234372  	31.000000	0.228433  	31.000000	0.228534  	31.000000	0.234266  	31.000000	0.000106784	
33.000000	0.227694  	33.000000	0.222943  	33.000000	0.217506  	33.000000	0.217546  	33.000000	0.222842  	33.000000	0.000100903	
35.000000	0.217134  	35.000000	0.212707  	35.000000	0.207685  	35.000000	0.207698  	35.000000	0.212611  	35.000000	9.56603e-05	
38.000000	0.203229  	38.000000	0.199205  	38.000000	0.194743  	38.000000	0.194697  	38.000000	0.199117  	38.000000	8.8782e-05	
41.000000	0.191216  	41.000000	0.187522  	41.000000	0.183516  	41.000000	0.183433  	41.000000	0.187439  	41.000000	8.28629e-05	
44.000000	0.180726  	44.000000	0.177308  	44.000000	0.173676  	44.000000	0.173574  	44.000000	0.17723   	44.000000	7.77129e-05	
47.000000	0.171482  	47.000000	0.1683    	47.000000	0.164989  	47.000000	0.164868  	47.000000	0.168227  	47.000000	7.31895e-05	
50.000000	0.163271  	50.000000	0.160294  	50.000000	0.157253  	50.000000	0.15712   	50.000000	0.160224  	50.000000	6.91834e-05	
55.000000	0.151442  	55.000000	0.148755  	55.000000	0.146113  	55.000000	0.145936  	55.000000	0.148691  	55.000000	6.34336e-05	
60.000000	0.141453  	60.000000	0.13901   	60.000000	0.13666   	60.000000	0.136472  	60.000000	0.138952  	60.000000	5.85991e-05	
65.000000	0.132899  	65.000000	0.130667  	65.000000	0.128538  	65.000000	0.128355  	65.000000	0.130613  	65.000000	5.44749e-05	
70.000000	0.125485  	70.000000	0.12344   	70.000000	0.121506  	70.000000	0.121311  	70.000000	0.123389  	70.000000	5.09135e-05	
75.000000	0.118994  	75.000000	0.117117  	75.000000	0.115342  	75.000000	0.115139  	75.000000	0.11707   	75.000000	4.78057e-05	
80.000000	0.113259  	80.000000	0.111537  	80.000000	0.109893  	80.000000	0.109684  	80.000000	0.111492  	80.000000	4.5069e-05	
85.000000	0.108154  	85.000000	0.106575  	85.000000	0.10504   	85.000000	0.104826  	85.000000	0.106532  	85.000000	4.264e-05 	
90.000000	0.103577  	90.000000	0.102132  	90.000000	0.100675  	90.000000	0.100471  	90.000000	0.102091  	90.000000	4.04689e-05	
95.000000	0.0994492 	95.000000	0.0981298 	95.000000	0.096753  	95.000000	0.0965447 	95.000000	0.0980913 	95.000000	3.85162e-05	
100.000000	0.0957059 	100.000000	0.0945059 	100.000000	0.0931967 	100.000000	0.092985  	100.000000	0.0944692 	100.000000	3.67501e-05	
105.000000	0.0922946 	105.000000	0.0912085 	105.000000	0.0899582 	105.000000	0.0897427 	105.000000	0.0911733 	105.000000	3.51448e-05	
110.000000	0.0891719 	110.000000	0.0881948 	110.000000	0.0869847 	110.000000	0.0867769 	110.000000	0.0881611 	110.000000	3.3679e-05	
115.000000	0.0863019 	115.000000	0.0854294 	115.000000	0.0842591 	115.000000	0.0840532 	115.000000	0.085397  	115.000000	3.2335e-05	
120.000000	0.0836544 	120.000000	0.0828826 	120.000000	0.0817536 	120.000000	0.081543  	120.000000	0.0828515 	120.000000	3.10982e-05	
125.000000	0.0812037 	125.000000	0.0805293 	125.000000	0.0794313 	125.000000	0.079222  	125.000000	0.0804994 	125.000000	2.99559e-05	
130.000000	0.0789283 	130.000000	0.0783481 	130.000000	0.0772715 	130.000000	0.0770693 	130.000000	0.0783192 	130.000000	2.88977e-05	
135.000000	0.0768094 	135.000000	0.0763206 	135.000000	0.0752697 	135.000000	0.0750672 	135.000000	0.0762927 	135.000000	2.79145e-05	
140.000000	0.0748311 	140.000000	0.074431  	140.000000	0.0734064 	140.000000	0.0732004 	140.000000	0.074404  	140.000000	2.69984e-05	
145.000000	0.0729794 	145.000000	0.0726656 	145.000000	0.0716605 	145.000000	0.0714556 	145.000000	0.0726395 	145.000000	2.61428e-05	
150.000000	0.0712423 	150.000000	0.0710126 	150.000000	0.0700197 	150.000000	0.0698211 	150.000000	0.0709872 	150.000000	2.53417e-05	
155.000000	0.0687964 	155.000000	0.0694614 	155.000000	0.0684852 	155.000000	0.0682867 	155.000000	0.0694368 	155.000000	2.45901e-05	
160.000000	0.0673628 	160.000000	0.0680028 	160.000000	0.0670424 	160.000000	0.0668436 	160.000000	0.0679789 	160.000000	2.38835e-05	
165.000000	0.0660109 	165.000000	0.0666289 	165.000000	0.0656773 	165.000000	0.0654838 	165.000000	0.0666057 	165.000000	2.32178e-05	
170.000000	0.0647338 	170.000000	0.0653323 	170.000000	0.0643915 	170.000000	0.0642003 	170.000000	0.0653097 	170.000000	2.25896e-05	
175.000000	0.0635254 	175.000000	0.0641068 	175.000000	0.06318   	175.000000	0.0629869 	175.000000	0.0640848 	175.000000	2.19958e-05	
180.000000	0.0623803 	180.000000	0.0629466 	180.000000	0.062033  	180.000000	0.061838  	180.000000	0.0629252 	180.000000	2.14335e-05	
185.000000	0.0612934 	185.000000	0.0618466 	185.000000	0.0609421 	185.000000	0.0607485 	185.000000	0.0618257 	185.000000	2.09004e-05	
190.000000	0.0602605 	190.000000	0.0608023 	190.000000	0.0599031 	190.000000	0.0597141 	190.000000	0.0607819 	190.000000	2.0394e-05	
195.000000	0.0592775 	195.000000	0.0598095 	195.000000	0.058918  	195.000000	0.0587307 	195.000000	0.0597896 	195.000000	1.99126e-05	
200.000000	0.0583409 	200.000000	0.0588646 	200.000000	0.0579831 	200.000000	0.0577945 	200.000000	0.0588451 	200.000000	1.94542e-05	
210.000000	0.0565942 	210.000000	0.0571048 	210.000000	0.0562341 	210.000000	0.0560512 	210.000000	0.0570862 	210.000000	1.86002e-05	
220.000000	0.0549978 	220.000000	0.0554998 	220.000000	0.0546442 	220.000000	0.0544612 	220.000000	0.055482  	220.000000	1.78205e-05	
230.000000	0.0535329 	230.000000	0.0540299 	230.000000	0.0531836 	230.000000	0.0530052 	230.000000	0.0540128 	230.000000	1.71059e-05	
240.000000	0.0521838 	240.000000	0.0526788 	240.000000	0.0518439 	240.000000	0.0516673 	240.000000	0.0526624 	240.000000	1.64484e-05	
250.000000	0.0509373 	250.000000	0.0514328 	250.000000	0.0506127 	250.000000	0.0504337 	250.000000	0.051417  	250.000000	1.58413e-05	
260.000000	0.0497821 	260.000000	0.0502802 	260.000000	0.0494693 	260.000000	0.0492929 	260.000000	0.0502649 	260.000000	1.5279e-05	
270.000000	0.0487083 	270.000000	0.0492109 	270.000000	0.0484077 	270.000000	0.0482351 	270.000000	0.0491962 	270.000000	1.47566e-05	
280.000000	0.0477078 	280.000000	0.0482163 	280.000000	0.0474251 	280.000000	0.0472515 	280.000000	0.0482021 	280.000000	1.427e-05 	
290.000000	0.0467733 	290.000000	0.047289  	290.000000	0.0465044 	290.000000	0.0463349 	290.000000	0.0472752 	290.000000	1.38157e-05	
300.000000	0.0458985 	300.000000	0.0464224 	300.000000	0.045647  	300.000000	0.0454788 	300.000000	0.046409  	300.000000	1.33903e-05	
310.000000	0.0450779 	310.000000	0.0456108 	310.000000	0.0448458 	310.000000	0.0446775 	310.000000	0.0455978 	310.000000	1.29913e-05	
320.000000	0.0443066 	320.000000	0.0448493 	320.000000	0.0440905 	320.000000	0.0439261 	320.000000	0.0448367 	320.000000	1.26162e-05	
330.000000	0.0435803 	330.000000	0.0441334 	330.000000	0.043384  	330.000000	0.0432201 	330.000000	0.0441212 	330.000000	1.2263e-05	
340.000000	0.0428953 	340.000000	0.0434593 	340.000000	0.0427198 	340.000000	0.0425558 	340.000000	0.0434474 	340.000000	1.19296e-05	
350.000000	0.0422482 	350.000000	0.0428235 	350.000000	0.0420903 	350.000000	0.0419296 	350.000000	0.0428119 	350.000000	1.16146e-05	
360.000000	0.041636  	360.000000	0.0422228 	360.000000	0.0414978 	360.000000	0.0413384 	360.000000	0.0422115 	360.000000	1.13163e-05	
370.000000	0.041056  	370.000000	0.0416546 	370.000000	0.0409397 	370.000000	0.0407796 	370.000000	0.0416436 	370.000000	1.10335e-05	
380.000000	0.0405058 	380.000000	0.0411164 	380.000000	0.0404089 	380.000000	0.0402506 	380.000000	0.0411056 	380.000000	1.0765e-05	
390.000000	0.0399831 	390.000000	0.0406059 	390.000000	0.0399049 	390.000000	0.0397492 	390.000000	0.0405953 	390.000000	1.05097e-05	
400.000000	0.0394861 	400.000000	0.040121  	400.000000	0.0394291 	400.000000	0.0392734 	400.000000	0.0401108 	400.000000	1.02667e-05	
410.000000	0.0390129 	410.000000	0.0396601 	410.000000	0.0389774 	410.000000	0.0388214 	410.000000	0.03965   	410.000000	1.0035e-05	
420.000000	0.038562  	420.000000	0.0392213 	420.000000	0.0385455 	420.000000	0.0383915 	420.000000	0.0392115 	420.000000	9.81397e-06	
430.000000	0.0381317 	430.000000	0.0388033 	430.000000	0.038134  	430.000000	0.0379822 	430.000000	0.0387937 	430.000000	9.60278e-06	
440.000000	0.0377209 	440.000000	0.0384047 	440.000000	0.0377439 	440.000000	0.0375922 	440.000000	0.0383953 	440.000000	9.4008e-06	
450.000000	0.0373283 	450.000000	0.0380242 	450.000000	0.0373723 	450.000000	0.0372201 	450.000000	0.0380149 	450.000000	9.20745e-06	
460.000000	0.0369527 	460.000000	0.0376606 	460.000000	0.037016  	460.000000	0.0368649 	460.000000	0.0376515 	460.000000	9.02216e-06	
470.000000	0.0365931 	470.000000	0.0373129 	470.000000	0.0366744 	470.000000	0.0365255 	470.000000	0.037304  	470.000000	8.84445e-06	
480.000000	0.0362485 	480.000000	0.0369801 	480.000000	0.0363488 	480.000000	0.0362009 	480.000000	0.0369715 	480.000000	8.67385e-06	
490.000000	0.0359182 	490.000000	0.0366615 	490.000000	0.0360385 	490.000000	0.0358902 	490.000000	0.0366529 	490.000000	8.50994e-06	
500.000000	0.0356012 	500.000000	0.036356  	500.000000	0.0357411 	500.000000	0.0355927 	500.000000	0.0363476 	500.000000	8.35232e-06	
520.000000	0.0350044 	520.000000	0.0357818 	520.000000	0.0351795 	520.000000	0.0350339 	520.000000	0.0357738 	520.000000	8.05456e-06	
540.000000	0.0344529 	540.000000	0.0352522 	540.000000	0.0346639 	540.000000	0.0345193 	540.000000	0.0352445 	540.000000	7.77801e-06	
560.000000	0.033942  	560.000000	0.0347626 	560.000000	0.0341887 	560.000000	0.034044  	560.000000	0.0347551 	560.000000	7.52044e-06	
580.000000	0.0334677 	580.000000	0.0343088 	580.000000	0.0337461 	580.000000	0.0336042 	580.000000	0.0343015 	580.000000	7.27996e-06	
600.000000	0.0330265 	600.000000	0.0338875 	600.000000	0.0333375 	600.000000	0.0331962 	600.000000	0.0338804 	600.000000	7.05489e-06	
620.000000	0.0326155 	620.000000	0.0334955 	620.000000	0.0329587 	620.000000	0.032817  	620.000000	0.0334887 	620.000000	6.84378e-06	
640.000000	0.0322319 	640.000000	0.0331303 	640.000000	0.0326037 	640.000000	0.032464  	640.000000	0.0331236 	640.000000	6.64536e-06	
660.000000	0.0318733 	660.000000	0.0327893 	660.000000	0.0322728 	660.000000	0.0321348 	660.000000	0.0327829 	660.000000	6.4585e-06	
680.000000	0.0315378 	680.000000	0.0324706 	680.000000	0.0319656 	680.000000	0.0318272 	680.000000	0.0324644 	680.000000	6.28221e-06	
700.000000	0.0312233 	700.000000	0.0321723 	700.000000	0.0316777 	700.000000	0.0315394 	700.000000	0.0321662 	700.000000	6.11562e-06	
720.000000	0.0309283 	720.000000	0.0318927 	720.000000	0.0314063 	720.000000	0.0312698 	720.000000	0.0318868 	720.000000	5.95792e-06	
740.000000	0.0306512 	740.000000	0.0316304 	740.000000	0.031152  	740.000000	0.0310169 	740.000000	0.0316246 	740.000000	5.80843e-06	
760.000000	0.0303907 	760.000000	0.0313839 	760.000000	0.0309145 	760.000000	0.0307793 	760.000000	0.0313783 	760.000000	5.6665e-06	
780.000000	0.0301456 	780.000000	0.0311522 	780.000000	0.0306914 	780.000000	0.0305559 	780.000000	0.0311467 	780.000000	5.53157e-06	
800.000000	0.0299149 	800.000000	0.0309342 	800.000000	0.0304801 	800.000000	0.0303456 	800.000000	0.0309288 	800.000000	5.40314e-06	
820.000000	0.0296974 	820.000000	0.0307288 	820.000000	0.0302814 	820.000000	0.0301483 	820.000000	0.0307235 	820.000000	5.28073e-06	
840.000000	0.0294924 	840.000000	0.0305352 	840.000000	0.030099  	840.000000	0.0299669 	840.000000	0.03053   	840.000000	5.16393e-06	
860.000000	0.0292989 	860.000000	0.0303526 	860.000000	0.0299279 	860.000000	0.0297956 	860.000000	0.0303476 	860.000000	5.05236e-06	
880.000000	0.0291164 	880.000000	0.0301803 	880.000000	0.0297664 	880.000000	0.0296338 	880.000000	0.0301753 	880.000000	4.94567e-06	
900.000000	0.0289439 	900.000000	0.0300175 	900.000000	0.0296131 	900.000000	0.0294808 	900.000000	0.0300127 	900.000000	4.84354e-06	
920.000000	0.0287811 	920.000000	0.0298637 	920.000000	0.0294673 	920.000000	0.0293361 	920.000000	0.029859  	920.000000	4.74569e-06	
940.000000	0.0286272 	940.000000	0.0297183 	940.000000	0.0293291 	940.000000	0.029199  	940.000000	0.0297137 	940.000000	4.65184e-06	
960.000000	0.0284818 	960.000000	0.0295809 	960.000000	0.0291986 	960.000000	0.0290692 	960.000000	0.0295763 	960.000000	4.56175e-06	
980.000000	0.0283443 	980.000000	0.0294509 	980.000000	0.0290755 	980.000000	0.0289461 	980.000000	0.0294464 	980.000000	4.47521e-06	
1000.000000	0.0282143 	1000.000000	0.0293278 	1000.000000	0.028959  	1000.000000	0.0288294 	1000.000000	0.0293234 	1000.000000	4.39199e-06	
1020.000000	0.0280914 	1020.000000	0.0292114 	1020.000000	0.0288483 	1020.000000	0.0287186 	1020.000000	0.0292071 	1020.000000	4.31192e-06	
1040.000000	0.0279752 	1040.000000	0.0291011 	1040.000000	0.0287428 	1040.000000	0.0286134 	1040.000000	0.0290969 	1040.000000	4.23481e-06	
1060.000000	0.0278654 	1060.000000	0.0289968 	1060.000000	0.0286421 	1060.000000	0.0285135 	1060.000000	0.0289926 	1060.000000	4.16051e-06	
1080.000000	0.0277616 	1080.000000	0.028898  	1080.000000	0.0285462 	1080.000000	0.0284185 	1080.000000	0.0288939 	1080.000000	4.08885e-06	
1100.000000	0.0276635 	1100.000000	0.0288045 	1100.000000	0.0284552 	1100.000000	0.0283282 	1100.000000	0.0288004 	1100.000000	4.0197e-06	
1120.000000	0.0275709 	1120.000000	0.0287159 	1120.000000	0.028369  	1120.000000	0.0282424 	1120.000000	0.0287119 	1120.000000	3.95293e-06	
1140.000000	0.0274834 	1140.000000	0.0286321 	1140.000000	0.0282874 	1140.000000	0.0281607 	1140.000000	0.0286282 	1140.000000	3.88842e-06	
1160.000000	0.0274008 	1160.000000	0.0285527 	1160.000000	0.0282099 	1160.000000	0.0280829 	1160.000000	0.0285489 	1160.000000	3.82604e-06	
1180.000000	0.0273228 	1180.000000	0.0284776 	1180.000000	0.028136  	1180.000000	0.0280089 	1180.000000	0.0284739 	1180.000000	3.76571e-06	
1200.000000	0.0272494 	1200.000000	0.0284066 	1200.000000	0.0280655 	1200.000000	0.0279385 	1200.000000	0.0284029 	1200.000000	3.70731e-06	
1220.000000	0.0271802 	1220.000000	0.0283394 	1220.000000	0.0279981 	1220.000000	0.0278714 	1220.000000	0.0283358 	1220.000000	3.65075e-06	
1240.000000	0.027115  	1240.000000	0.0282759 	1240.000000	0.0279336 	1240.000000	0.0278074 	1240.000000	0.0282723 	1240.000000	3.59595e-06	
1260.000000	0.0270537 	1260.000000	0.0282159 	1260.000000	0.0278721 	1260.000000	0.0277465 	1260.000000	0.0282124 	1260.000000	3.54282e-06	
1280.000000	0.0269962 	1280.000000	0.0281593 	1280.000000	0.0278134 	1280.000000	0.0276885 	1280.000000	0.0281558 	1280.000000	3.4913e-06	
1300.000000	0.0269422 	1300.000000	0.0281058 	1300.000000	0.0277576 	1300.000000	0.0276332 	1300.000000	0.0281024 	1300.000000	3.4413e-06	
1320.000000	0.0268916 	1320.000000	0.0280554 	1320.000000	0.0277046 	1320.000000	0.0275804 	1320.000000	0.028052  	1320.000000	3.39276e-06	
1340.000000	0.0268442 	1340.000000	0.0280079 	1340.000000	0.0276543 	1340.000000	0.0275302 	1340.000000	0.0280046 	1340.000000	3.34562e-06	
1360.000000	0.0268    	1360.000000	0.0279632 	1360.000000	0.0276065 	1360.000000	0.0274823 	1360.000000	0.0279599 	1360.000000	3.29981e-06	
1380.000000	0.0267588 	1380.000000	0.0279211 	1380.000000	0.0275609 	1380.000000	0.0274366 	1380.000000	0.0279179 	1380.000000	3.25528e-06	
1400.000000	0.0267204 	1400.000000	0.0278816 	1400.000000	0.0275175 	1400.000000	0.027393  	1400.000000	0.0278784 	1400.000000	3.21198e-06	
1420.000000	0.0266849 	1420.000000	0.0278446 	1420.000000	0.027476  	1420.000000	0.0273515 	1420.000000	0.0278414 	1420.000000	3.16985e-06	
1440.000000	0.0266519 	1440.000000	0.0278099 	1440.000000	0.0274364 	1440.000000	0.0273119 	1440.000000	0.0278068 	1440.000000	3.12885e-06	
1460.000000	0.0266216 	1460.000000	0.0277774 	1460.000000	0.0273985 	1460.000000	0.0272742 	1460.000000	0.0277744 	1460.000000	3.08893e-06	
1480.000000	0.0265937 	1480.000000	0.0277472 	1480.000000	0.0273622 	1480.000000	0.0272383 	1480.000000	0.0277441 	1480.000000	3.05005e-06	
1500.000000	0.0265682 	1500.000000	0.027719  	1500.000000	0.0273275 	1500.000000	0.027204  	1500.000000	0.0277159 	1500.000000	3.01217e-06	
1520.000000	0.0265449 	1520.000000	0.0276927 	1520.000000	0.0272944 	1520.000000	0.0271714 	1520.000000	0.0276898 	1520.000000	2.97525e-06	
1540.000000	0.0265239 	1540.000000	0.0276685 	1540.000000	0.0272629 	1540.000000	0.0271402 	1540.000000	0.0276655 	1540.000000	2.93925e-06	
1560.000000	0.026505  	1560.000000	0.027646  	1560.000000	0.0272329 	1560.000000	0.0271106 	1560.000000	0.0276431 	1560.000000	2.90414e-06	
1580.000000	0.0264882 	1580.000000	0.0276254 	1580.000000	0.0272044 	1580.000000	0.0270824 	1580.000000	0.0276225 	1580.000000	2.86989e-06	
1600.000000	0.0264733 	1600.000000	0.0276064 	1600.000000	0.0271773 	1600.000000	0.0270556 	1600.000000	0.0276036 	1600.000000	2.83647e-06	
1620.000000	0.0264603 	1620.000000	0.0275891 	1620.000000	0.0271517 	1620.000000	0.02703   	1620.000000	0.0275863 	1620.000000	2.80384e-06	
1640.000000	0.0264492 	1640.000000	0.0275734 	1640.000000	0.0271273 	1640.000000	0.0270057 	1640.000000	0.0275706 	1640.000000	2.77197e-06	
1660.000000	0.0264399 	1660.000000	0.0275592 	1660.000000	0.0271043 	1660.000000	0.0269826 	1660.000000	0.0275565 	1660.000000	2.74085e-06	
1680.000000	0.0264323 	1680.000000	0.0275465 	1680.000000	0.0270824 	1680.000000	0.0269606 	1680.000000	0.0275438 	1680.000000	2.71044e-06	
1700.000000	0.0264264 	1700.000000	0.0275352 	1700.000000	0.0270616 	1700.000000	0.0269397 	1700.000000	0.0275326 	1700.000000	2.68072e-06	
1750.000000	0.0264186 	1750.000000	0.027513  	1750.000000	0.0270141 	1750.000000	0.0268921 	1750.000000	0.0275104 	1750.000000	2.60929e-06	
1800.000000	0.0264202 	1800.000000	0.0274986 	1800.000000	0.0269723 	1800.000000	0.0268503 	1800.000000	0.0274961 	1800.000000	2.54168e-06	
1850.000000	0.0264305 	1850.000000	0.0274915 	1850.000000	0.0269356 	1850.000000	0.026814  	1850.000000	0.0274891 	1850.000000	2.4776e-06	
1900.000000	0.0264488 	1900.000000	0.0274912 	1900.000000	0.0269036 	1900.000000	0.0267826 	1900.000000	0.0274887 	1900.000000	2.41677e-06	
1950.000000	0.0264747 	1950.000000	0.027497  	1950.000000	0.0268761 	1950.000000	0.0267556 	1950.000000	0.0274946 	1950.000000	2.35895e-06	
2000.000000	0.0265075 	2000.000000	0.0275085 	2000.000000	0.0268526 	2000.000000	0.0267327 	2000.000000	0.0275062 	2000.000000	2.30391e-06	
2100.000000	0.0265924 	2100.000000	0.0275471 	2100.000000	0.0268167 	2100.000000	0.0266976 	2100.000000	0.0275449 	2100.000000	2.20144e-06	
2200.000000	0.0267003 	2200.000000	0.0276041 	2200.000000	0.0267935 	2200.000000	0.0266747 	2200.000000	0.027602  	2200.000000	2.10796e-06	
2300.000000	0.0268286 	2300.000000	0.027677  	2300.000000	0.0267809 	2300.000000	0.0266622 	2300.000000	0.027675  	2300.000000	2.02233e-06	
2400.000000	0.026975  	2400.000000	0.027764  	2400.000000	0.0267769 	2400.000000	0.0266584 	2400.000000	0.027762  	2400.000000	1.94358e-06	
2500.000000	0.0271377 	2500.000000	0.0278632 	2500.000000	0.0267803 	2500.000000	0.0266619 	2500.000000	0.0278613 	2500.000000	1.87092e-06	
2600.000000	0.027315  	2600.000000	0.0279733 	2600.000000	0.0267897 	2600.000000	0.0266716 	2600.000000	0.0279715 	2600.000000	1.80366e-06	
2700.000000	0.0275056 	2700.000000	0.028093  	2700.000000	0.0268043 	2700.000000	0.0266865 	2700.000000	0.0280913 	2700.000000	1.74121e-06	
2800.000000	0.0277083 	2800.000000	0.0282213 	2800.000000	0.0268234 	2800.000000	0.0267059 	2800.000000	0.0282196 	2800.000000	1.68307e-06	
2900.000000	0.0279221 	2900.000000	0.0283573 	2900.000000	0.0268462 	2900.000000	0.0267291 	2900.000000	0.0283557 	2900.000000	1.6288e-06	
3000.000000	0.0281461 	3000.000000	0.0285003 	3000.000000	0.0268722 	3000.000000	0.0267554 	3000.000000	0.0284987 	3000.000000	1.57803e-06	
3200.000000	0.0286215 	3200.000000	0.0288042 	3200.000000	0.026932  	3200.000000	0.026816  	3200.000000	0.0288027 	3200.000000	1.48568e-06	
3400.000000	0.0291293 	3400.000000	0.0291286 	3400.000000	0.0269998 	3400.000000	0.0268845 	3400.000000	0.0291272 	3400.000000	1.40384e-06	
3600.000000	0.0296655 	3600.000000	0.02947   	3600.000000	0.0270735 	3600.000000	0.0269586 	3600.000000	0.0294687 	3600.000000	1.33079e-06	
3800.000000	0.0302267 	3800.000000	0.0298255 	3800.000000	0.0271513 	3800.000000	0.0270366 	3800.000000	0.0298242 	3800.000000	1.26518e-06	
4000.000000	0.0308104 	4000.000000	0.030193  	4000.000000	0.0272319 	4000.000000	0.0271173 	4000.000000	0.0301918 	4000.000000	1.20592e-06	
4200.000000	0.0314144 	4200.000000	0.0305706 	4200.000000	0.0273142 	4200.000000	0.0271997 	4200.000000	0.0305694 	4200.000000	1.15211e-06	
4400.000000	0.032037  	4400.000000	0.0309569 	4400.000000	0.0273975 	4400.000000	0.027283  	4400.000000	0.0309558 	4400.000000	1.10303e-06	
4600.000000	0.0326765 	4600.000000	0.0313506 	4600.000000	0.0274811 	4600.000000	0.0273667 	4600.000000	0.0313495 	4600.000000	1.05808e-06	
4800.000000	0.0333319 	4800.000000	0.0317508 	4800.000000	0.0275648 	4800.000000	0.0274504 	4800.000000	0.0317498 	4800.000000	1.01676e-06	
5000.000000	0.0340021 	5000.000000	0.0321566 	5000.000000	0.027648  	5000.000000	0.0275337 	5000.000000	0.0321556 	5000.000000	9.78629e-07	
5250.000000	0.0348593 	5250.000000	0.0326706 	5250.000000	0.0277511 	5250.000000	0.0276369 	5250.000000	0.0326696 	5250.000000	9.34922e-07	
5500.000000	0.0357367 	5500.000000	0.0331911 	5500.000000	0.0278528 	5500.000000	0.0277387 	5500.000000	0.0331902 	5500.000000	8.95059e-07	
6000.000000	0.0375476 	6000.000000	0.0342478 	6000.000000	0.0280512 	6000.000000	0.0279375 	6000.000000	0.034247  	6000.000000	8.24986e-07	
6500.000000	0.0394274 	6500.000000	0.0353208 	6500.000000	0.0282422 	6500.000000	0.0281288 	6500.000000	0.0353201 	6500.000000	7.6536e-07	
7000.000000	0.0413704 	7000.000000	0.0364061 	7000.000000	0.0284254 	7000.000000	0.0283122 	7000.000000	0.0364053 	7000.000000	7.13988e-07	
7500.000000	0.0433728 	7500.000000	0.0375004 	7500.000000	0.0286007 	7500.000000	0.0284876 	7500.000000	0.0374997 	7500.000000	6.69254e-07	
8000.000000	0.0454314 	8000.000000	0.0386017 	8000.000000	0.0287685 	8000.000000	0.0286554 	8000.000000	0.0386011 	8000.000000	6.29937e-07	
8500.000000	0.047544  	8500.000000	0.0397082 	8500.000000	0.0289285 	8500.000000	0.0288158 	8500.000000	0.0397076 	8500.000000	5.95103e-07	
9000.000000	0.0497086 	9000.000000	0.0408187 	9000.000000	0.0290812 	9000.000000	0.0289693 	9000.000000	0.0408181 	9000.000000	5.64019e-07	
9500.000000	0.0519239 	9500.000000	0.0419321 	9500.000000	0.0292272 	9500.000000	0.0291161 	9500.000000	0.0419316 	9500.000000	5.36106e-07	
10000.000000	0.0541888 	10000.000000	0.0430477 	10000.000000	0.0293673 	10000.000000	0.0292568 	10000.000000	0.0430472 	10000.000000	5.10898e-07	
11000.000000	0.0588635 	11000.000000	0.0452833 	11000.000000	0.0296311 	11000.000000	0.0295212 	11000.000000	0.0452828 	11000.000000	4.67151e-07	
12000.000000	0.0637274 	12000.000000	0.0475218 	12000.000000	0.0298751 	12000.000000	0.0297653 	12000.000000	0.0475214 	12000.000000	4.30479e-07	
13000.000000	0.0687767 	13000.000000	0.049761  	13000.000000	0.030101  	13000.000000	0.0299916 	13000.000000	0.0497606 	13000.000000	3.99283e-07	
14000.000000	0.074009  	14000.000000	0.0519993 	14000.000000	0.0303107 	14000.000000	0.0302022 	14000.000000	0.0519989 	14000.000000	3.72411e-07	
15000.000000	0.0794228 	15000.000000	0.0542358 	15000.000000	0.0305061 	15000.000000	0.030399  	15000.000000	0.0542354 	15000.000000	3.49016e-07	
16000.000000	0.0850169 	16000.000000	0.0564696 	16000.000000	0.0306892 	16000.000000	0.0305834 	16000.000000	0.0564693 	16000.000000	3.28458e-07	
17000.000000	0.0907908 	17000.000000	0.0587005 	17000.000000	0.0308616 	17000.000000	0.0307568 	17000.000000	0.0587002 	17000.000000	3.10248e-07	
18000.000000	0.0967441 	18000.000000	0.0609281 	18000.000000	0.0310242 	18000.000000	0.0309204 	18000.000000	0.0609278 	18000.000000	2.94001e-07	
19000.000000	0.102877  	19000.000000	0.0631522 	19000.000000	0.0311782 	19000.000000	0.0310751 	19000.000000	0.063152  	19000.000000	2.79413e-07	
20000.000000	0.109189  	20000.000000	0.0653728 	20000.000000	0.0313243 	20000.000000	0.0312218 	20000.000000	0.0653725 	20000.000000	2.66241e-07	
21000.000000	0.115681  	21000.000000	0.0675896 	21000.000000	0.0314628 	21000.000000	0.0313612 	21000.000000	0.0675894 	21000.000000	2.54286e-07	
22000.000000	0.122353  	22000.000000	0.0698028 	22000.000000	0.0315936 	22000.000000	0.031494  	22000.000000	0.0698026 	22000.000000	2.43386e-07	
23000.000000	0.129205  	23000.000000	0.0720124 	23000.000000	0.0317192 	23000.000000	0.0316206 	23000.000000	0.0720121 	23000.000000	2.33406e-07	
24000.000000	0.136239  	24000.000000	0.0742183 	24000.000000	0.0318398 	24000.000000	0.0317417 	24000.000000	0.074218  	24000.000000	2.24233e-07	
25000.000000	0.143454  	25000.000000	0.0764206 	25000.000000	0.0319547 	25000.000000	0.0318577 	25000.000000	0.0764204 	25000.000000	2.15772e-07	
26000.000000	0.150852  	26000.000000	0.0786194 	26000.000000	0.0320645 	26000.000000	0.0319689 	26000.000000	0.0786191 	26000.000000	2.07943e-07	
27000.000000	0.158433  	27000.000000	0.0808147 	27000.000000	0.0321696 	27000.000000	0.0320757 	27000.000000	0.0808145 	27000.000000	2.00676e-07	
28000.000000	0.166197  	28000.000000	0.0830066 	28000.000000	0.0322706 	28000.000000	0.0321785 	28000.000000	0.0830064 	28000.000000	1.93914e-07	
29000.000000	0.174147  	29000.000000	0.0851951 	29000.000000	0.0323678 	29000.000000	0.0322775 	29000.000000	0.085195  	29000.000000	1.87604e-07	
30000.000000	0.182281  	30000.000000	0.0873804 	30000.000000	0.0324615 	30000.000000	0.0323729 	30000.000000	0.0873803 	30000.000000	1.81702e-07	
32000.000000	0.199111  	32000.000000	0.0917415 	32000.000000	0.0326393 	32000.000000	0.032554  	32000.000000	0.0917413 	32000.000000	1.70974e-07	
34000.000000	0.216693  	34000.000000	0.0960904 	34000.000000	0.0328056 	34000.000000	0.0327236 	34000.000000	0.0960902 	34000.000000	1.61472e-07	
36000.000000	0.235034  	36000.000000	0.100427  	36000.000000	0.0329611 	36000.000000	0.0328828 	36000.000000	0.100427  	36000.000000	1.52996e-07	
38000.000000	0.254143  	38000.000000	0.104753  	38000.000000	0.0331068 	38000.000000	0.0330329 	38000.000000	0.104753  	38000.000000	1.45386e-07	
40000.000000	0.274026  	40000.000000	0.109069  	40000.000000	0.0332441 	40000.000000	0.0331748 	40000.000000	0.109069  	40000.000000	1.38516e-07	
42000.000000	0.294693  	42000.000000	0.113374  	42000.000000	0.0333742 	42000.000000	0.0333093 	42000.000000	0.113374  	42000.000000	1.32282e-07	
44000.000000	0.316151  	44000.000000	0.117669  	44000.000000	0.033498  	44000.000000	0.0334372 	44000.000000	0.117669  	44000.000000	1.26598e-07	
46000.000000	0.338409  	46000.000000	0.121955  	46000.000000	0.0336161 	46000.000000	0.0335589 	46000.000000	0.121955  	46000.000000	1.21395e-07	
48000.000000	0.361474  	48000.000000	0.126231  	48000.000000	0.0337289 	48000.000000	0.0336751 	48000.000000	0.126231  	48000.000000	1.16613e-07	
50000.000000	0.385355  	50000.000000	0.130499  	50000.000000	0.0338362 	50000.000000	0.0337863 	50000.000000	0.130499  	50000.000000	1.12203e-07	
