0.001000	1.7558    	0.001000	1.58203   	0.001000	1.57883   	0.001000	1.57883   	0.001000	0.880708  	0.001000	0.701321  	
0.002000	1.93439   	0.002000	1.69609   	0.002000	1.69448   	0.002000	1.69448   	0.002000	1.154     	0.002000	0.542082  	
0.005000	2.35756   	0.005000	1.9911    	0.005000	1.99798   	0.005000	1.99798   	0.005000	1.65105   	0.005000	0.340042  	
0.008000	2.68781   	0.008000	2.24086   	0.008000	2.2572    	0.008000	2.2572    	0.008000	1.98487   	0.008000	0.255992  	
0.010000	2.87636   	0.010000	2.38822   	0.010000	2.41087   	0.010000	2.41087   	0.010000	2.16643   	0.010000	0.221789  	
0.015000	3.35329   	0.015000	2.70634   	0.015000	2.74567   	0.015000	2.74567   	0.015000	2.53751   	0.015000	0.168831  	
0.020000	3.73392   	0.020000	2.97518   	0.020000	3.08342   	0.020000	3.08342   	0.020000	2.83814   	0.020000	0.137042  	
0.025000	4.15357   	0.025000	3.28509   	0.025000	3.41448   	0.025000	3.41448   	0.025000	3.16871   	0.025000	0.116386  	
0.030000	4.50918   	0.030000	3.57705   	0.030000	3.70445   	0.030000	3.70445   	0.030000	3.47526   	0.030000	0.101795  	
0.035000	4.80149   	0.035000	3.85122   	0.035000	3.98121   	0.035000	3.98121   	0.035000	3.76048   	0.035000	0.090737  	
0.040000	5.03187   	0.040000	4.1079    	0.040000	4.245     	0.040000	4.245     	0.040000	4.02586   	0.040000	0.0820355 	
0.045000	5.20276   	0.045000	4.34732   	0.045000	4.49607   	0.045000	4.49607   	0.045000	4.27233   	0.045000	0.0749909 	
0.050000	5.31767   	0.050000	4.56969   	0.050000	4.73465   	0.050000	4.73465   	0.050000	4.50054   	0.050000	0.0691586 	
0.055000	5.54936   	0.055000	4.81459   	0.055000	4.96099   	0.055000	4.96099   	0.055000	4.75034   	0.055000	0.0642423 	
0.060000	5.7467    	0.060000	5.04628   	0.060000	5.17534   	0.060000	5.17534   	0.060000	4.98625   	0.060000	0.0600359 	
0.070000	6.04817   	0.070000	5.47028   	0.070000	5.56921   	0.070000	5.56921   	0.070000	5.41708   	0.070000	0.0532013 	
0.080000	6.3716    	0.080000	5.83673   	0.080000	5.91871   	0.080000	5.91871   	0.080000	5.78886   	0.080000	0.0478714 	
0.090000	6.62569   	0.090000	6.15713   	0.090000	6.22664   	0.090000	6.22664   	0.090000	6.11354   	0.090000	0.0435876 	
0.100000	6.82947   	0.100000	6.44097   	0.100000	6.49601   	0.100000	6.49601   	0.100000	6.40091   	0.100000	0.0400622 	
0.120000	6.95331   	0.120000	6.8979    	0.120000	6.93157   	0.120000	6.93157   	0.120000	6.86332   	0.120000	0.034587  	
0.140000	7.00255   	0.140000	7.21933   	0.140000	7.25029   	0.140000	7.25029   	0.140000	7.18881   	0.140000	0.030517  	
0.160000	7.02001   	0.160000	7.43089   	0.160000	7.47523   	0.160000	7.47523   	0.160000	7.40353   	0.160000	0.0273625 	
0.180000	7.01857   	0.180000	7.5403    	0.180000	7.6265    	0.180000	7.6265    	0.180000	7.51546   	0.180000	0.0248399 	
0.200000	7.03394   	0.200000	7.60502   	0.200000	7.72088   	0.200000	7.72088   	0.200000	7.58225   	0.200000	0.0227726 	
0.250000	6.90562   	0.250000	7.60722   	0.250000	7.79018   	0.250000	7.79018   	0.250000	7.5883    	0.250000	0.0189241 	
0.300000	6.93402   	0.300000	7.64668   	0.300000	7.72509   	0.300000	7.72509   	0.300000	7.63043   	0.300000	0.0162508 	
0.350000	6.98601   	0.350000	7.67925   	0.350000	7.60061   	0.350000	7.60061   	0.350000	7.66497   	0.350000	0.0142777 	
0.400000	6.97383   	0.400000	7.63661   	0.400000	7.46486   	0.400000	7.46486   	0.400000	7.62385   	0.400000	0.012757  	
0.450000	6.93535   	0.450000	7.57414   	0.450000	7.37316   	0.450000	7.37316   	0.450000	7.56259   	0.450000	0.0115466 	
0.500000	6.91593   	0.500000	7.54549   	0.500000	7.26498   	0.500000	7.26498   	0.500000	7.53493   	0.500000	0.0105586 	
0.600000	6.60862   	0.600000	7.30168   	0.600000	7.03153   	0.600000	7.03153   	0.600000	7.29264   	0.600000	0.00903923	
0.700000	6.26341   	0.700000	7.05682   	0.700000	6.78087   	0.700000	6.78087   	0.700000	7.0489    	0.700000	0.0079221 	
0.800000	6.13018   	0.800000	6.80911   	0.800000	6.54217   	0.800000	6.54217   	0.800000	6.80204   	0.800000	0.00706387	
0.900000	5.98299   	0.900000	6.56684   	0.900000	6.32054   	0.900000	6.32054   	0.900000	6.56046   	0.900000	0.00638252	
1.000000	5.82824   	1.000000	6.33125   	1.000000	6.11392   	1.000000	6.11392   	1.000000	6.32543   	1.000000	0.00582761	
1.250000	5.38642   	1.250000	5.88323   	1.250000	5.64356   	1.250000	5.64356   	1.250000	5.87842   	1.250000	0.0048033 	
1.500000	4.93151   	1.500000	5.42492   	1.500000	5.22267   	1.500000	5.22267   	1.500000	5.42082   	1.500000	0.00409889	
1.750000	4.54331   	1.750000	5.04022   	1.750000	4.86818   	1.750000	4.86818   	1.750000	5.03663   	1.750000	0.00358301	
2.000000	4.18212   	2.000000	4.6797    	2.000000	4.56166   	2.000000	4.56166   	2.000000	4.67652   	2.000000	0.00318795	
2.250000	3.88168   	2.250000	4.34811   	2.250000	4.29253   	2.250000	4.29253   	2.250000	4.34524   	2.250000	0.00287514	
2.500000	3.61506   	2.500000	4.06895   	2.500000	4.05379   	2.500000	4.05379   	2.500000	4.06633   	2.500000	0.00262096	
3.000000	3.22152   	3.000000	3.61904   	3.000000	3.64854   	3.000000	3.64854   	3.000000	3.61681   	3.000000	0.00223221	
3.500000	2.90887   	3.500000	3.26585   	3.500000	3.31761   	3.500000	3.31761   	3.500000	3.2639    	3.500000	0.00194816	
4.000000	2.65443   	4.000000	2.98018   	4.000000	3.04251   	4.000000	3.04251   	4.000000	2.97845   	4.000000	0.00173105	
4.500000	2.44324   	4.500000	2.74343   	4.500000	2.8104    	4.500000	2.8104    	4.500000	2.74187   	4.500000	0.00155941	
5.000000	2.26502   	5.000000	2.54321   	5.000000	2.61204   	5.000000	2.61204   	5.000000	2.54179   	5.000000	0.00142014	
5.500000	2.11254   	5.500000	2.37364   	5.500000	2.44061   	5.500000	2.44061   	5.500000	2.37234   	5.500000	0.00130474	
6.000000	1.98053   	6.000000	2.22629   	6.000000	2.291     	6.000000	2.291     	6.000000	2.22508   	6.000000	0.00120749	
6.500000	1.86508   	6.500000	2.09694   	6.500000	2.1593    	6.500000	2.1593    	6.500000	2.09582   	6.500000	0.00112434	
7.000000	1.76322   	7.000000	1.98243   	7.000000	2.04246   	7.000000	2.04246   	7.000000	1.98138   	7.000000	0.00105241	
7.500000	1.67266   	7.500000	1.88031   	7.500000	1.93809   	7.500000	1.93809   	7.500000	1.87932   	7.500000	0.000989524	
8.000000	1.59158   	8.000000	1.78864   	8.000000	1.8443    	8.000000	1.8443    	8.000000	1.78771   	8.000000	0.000934061	
8.500000	1.51855   	8.500000	1.70588   	8.500000	1.75953   	8.500000	1.75953   	8.500000	1.70499   	8.500000	0.000884758	
9.000000	1.45241   	9.000000	1.63077   	9.000000	1.68254   	9.000000	1.68254   	9.000000	1.62993   	9.000000	0.000840628	
9.500000	1.39222   	9.500000	1.56229   	9.500000	1.61229   	9.500000	1.61229   	9.500000	1.56149   	9.500000	0.000800886	
10.000000	1.33719   	10.000000	1.54548   	10.000000	1.54794   	10.000000	1.54794   	10.000000	1.54472   	10.000000	0.0007649 	
11.000000	1.24016   	11.000000	1.43452   	11.000000	1.43278   	11.000000	1.43376   	11.000000	1.43382   	11.000000	0.000702217	
12.000000	1.15727   	12.000000	1.33922   	12.000000	1.33435   	12.000000	1.33597   	12.000000	1.33857   	12.000000	0.000649435	
13.000000	1.0856    	13.000000	1.25649   	13.000000	1.24928   	13.000000	1.25131   	13.000000	1.25589   	13.000000	0.000604348	
14.000000	1.02299   	14.000000	1.18399   	14.000000	1.17504   	14.000000	1.17734   	14.000000	1.18342   	14.000000	0.000565368	
15.000000	0.967789  	15.000000	1.11993   	15.000000	1.1097    	15.000000	1.11217   	15.000000	1.1194    	15.000000	0.000531315	
16.000000	0.918748  	16.000000	1.06291   	16.000000	1.0518    	16.000000	1.05435   	16.000000	1.06241   	16.000000	0.000501299	
17.000000	0.874874  	17.000000	1.01183   	17.000000	1.00017   	17.000000	1.00272   	17.000000	1.01136   	17.000000	0.000474631	
18.000000	0.835377  	18.000000	0.965803  	18.000000	0.953812  	18.000000	0.956356  	18.000000	0.965352  	18.000000	0.000450775	
19.000000	0.799626  	19.000000	0.924105  	19.000000	0.911986  	19.000000	0.914509  	19.000000	0.923676  	19.000000	0.000429301	
20.000000	0.767103  	20.000000	0.886151  	20.000000	0.874105  	20.000000	0.876567  	20.000000	0.885741  	20.000000	0.000409864	
21.000000	0.737382  	21.000000	0.851455  	21.000000	0.839654  	21.000000	0.842023  	21.000000	0.851063  	21.000000	0.000392185	
22.000000	0.710112  	22.000000	0.819611  	22.000000	0.808182  	22.000000	0.810456  	22.000000	0.819235  	22.000000	0.000376031	
23.000000	0.684997  	23.000000	0.790279  	23.000000	0.779326  	23.000000	0.781509  	23.000000	0.789918  	23.000000	0.00036121	
24.000000	0.661786  	24.000000	0.763169  	24.000000	0.752785  	24.000000	0.754883  	24.000000	0.762822  	24.000000	0.000347563	
25.000000	0.640267  	25.000000	0.738037  	25.000000	0.728306  	25.000000	0.730321  	25.000000	0.737702  	25.000000	0.000334952	
27.000000	0.601606  	27.000000	0.692889  	27.000000	0.684717  	27.000000	0.686544  	27.000000	0.692576  	27.000000	0.000312395	
29.000000	0.567839  	29.000000	0.653468  	29.000000	0.647159  	29.000000	0.648756  	29.000000	0.653176  	29.000000	0.0002928 	
31.000000	0.538078  	31.000000	0.618741  	31.000000	0.613856  	31.000000	0.615164  	31.000000	0.618465  	31.000000	0.000275611	
33.000000	0.511639  	33.000000	0.587906  	33.000000	0.583712  	33.000000	0.584755  	33.000000	0.587645  	33.000000	0.000260406	
35.000000	0.487986  	35.000000	0.560337  	35.000000	0.556745  	35.000000	0.557554  	35.000000	0.56009   	35.000000	0.000246856	
38.000000	0.456822  	38.000000	0.524045  	38.000000	0.52121   	38.000000	0.521723  	38.000000	0.523816  	38.000000	0.000229079	
41.000000	0.429883  	41.000000	0.492706  	41.000000	0.490497  	41.000000	0.490755  	41.000000	0.492492  	41.000000	0.000213783	
44.000000	0.406349  	44.000000	0.465359  	44.000000	0.4636    	44.000000	0.463708  	44.000000	0.465158  	44.000000	0.000200477	
47.000000	0.385603  	47.000000	0.441279  	47.000000	0.439924  	47.000000	0.439871  	47.000000	0.44109   	47.000000	0.00018879	
50.000000	0.367168  	50.000000	0.419907  	50.000000	0.418876  	50.000000	0.418695  	50.000000	0.419728  	50.000000	0.000178442	
55.000000	0.340603  	55.000000	0.389157  	55.000000	0.388502  	55.000000	0.388193  	55.000000	0.388994  	55.000000	0.000163591	
60.000000	0.318163  	60.000000	0.363236  	60.000000	0.362851  	60.000000	0.362444  	60.000000	0.363085  	60.000000	0.000151105	
65.000000	0.298941  	65.000000	0.341077  	65.000000	0.340857  	65.000000	0.340405  	65.000000	0.340936  	65.000000	0.000140456	
70.000000	0.282278  	70.000000	0.321908  	70.000000	0.321853  	70.000000	0.321317  	70.000000	0.321776  	70.000000	0.000131261	
75.000000	0.267685  	75.000000	0.305155  	75.000000	0.305172  	75.000000	0.304617  	75.000000	0.305032  	75.000000	0.000123238	
80.000000	0.254792  	80.000000	0.290385  	80.000000	0.290484  	80.000000	0.28988   	80.000000	0.290269  	80.000000	0.000116173	
85.000000	0.243313  	85.000000	0.277262  	85.000000	0.277385  	85.000000	0.276774  	85.000000	0.277152  	85.000000	0.000109904	
90.000000	0.233021  	90.000000	0.265521  	90.000000	0.26569   	90.000000	0.265039  	90.000000	0.265417  	90.000000	0.0001043 	
95.000000	0.223739  	95.000000	0.254954  	95.000000	0.255122  	95.000000	0.25447   	95.000000	0.254855  	95.000000	9.92611e-05	
100.000000	0.21532   	100.000000	0.245391  	100.000000	0.245552  	100.000000	0.244898  	100.000000	0.245296  	100.000000	9.47038e-05	
105.000000	0.207647  	105.000000	0.236694  	105.000000	0.23684   	105.000000	0.236189  	105.000000	0.236604  	105.000000	9.05617e-05	
110.000000	0.200624  	110.000000	0.22875   	110.000000	0.228904  	110.000000	0.228229  	110.000000	0.228663  	110.000000	8.67798e-05	
115.000000	0.194168  	115.000000	0.221463  	115.000000	0.221608  	115.000000	0.220925  	115.000000	0.22138   	115.000000	8.33125e-05	
120.000000	0.188213  	120.000000	0.214756  	120.000000	0.214876  	120.000000	0.214198  	120.000000	0.214676  	120.000000	8.01217e-05	
125.000000	0.1827    	125.000000	0.20856   	125.000000	0.208659  	125.000000	0.207983  	125.000000	0.208483  	125.000000	7.71751e-05	
130.000000	0.177582  	130.000000	0.20282   	130.000000	0.202896  	130.000000	0.202222  	130.000000	0.202745  	130.000000	7.44455e-05	
135.000000	0.172815  	135.000000	0.197485  	135.000000	0.19754   	135.000000	0.196868  	135.000000	0.197414  	135.000000	7.19094e-05	
140.000000	0.168365  	140.000000	0.192516  	140.000000	0.192548  	140.000000	0.191878  	140.000000	0.192446  	140.000000	6.95467e-05	
145.000000	0.164199  	145.000000	0.187874  	145.000000	0.187884  	145.000000	0.187217  	145.000000	0.187807  	145.000000	6.734e-05 	
150.000000	0.160291  	150.000000	0.183529  	150.000000	0.183517  	150.000000	0.182853  	150.000000	0.183463  	150.000000	6.52741e-05	
155.000000	0.154789  	155.000000	0.179452  	155.000000	0.17942   	155.000000	0.178758  	155.000000	0.179389  	155.000000	6.33358e-05	
160.000000	0.151563  	160.000000	0.17562   	160.000000	0.175568  	160.000000	0.174909  	160.000000	0.175559  	160.000000	6.15135e-05	
165.000000	0.148522  	165.000000	0.172011  	165.000000	0.171939  	165.000000	0.171283  	165.000000	0.171951  	165.000000	5.9797e-05	
170.000000	0.145649  	170.000000	0.168606  	170.000000	0.168516  	170.000000	0.167862  	170.000000	0.168548  	170.000000	5.81772e-05	
175.000000	0.14293   	175.000000	0.165388  	175.000000	0.16528   	175.000000	0.164629  	175.000000	0.165331  	175.000000	5.6646e-05	
180.000000	0.140354  	180.000000	0.162342  	180.000000	0.162217  	180.000000	0.161569  	180.000000	0.162287  	180.000000	5.51963e-05	
185.000000	0.137908  	185.000000	0.159455  	185.000000	0.159314  	185.000000	0.158668  	185.000000	0.159401  	185.000000	5.38216e-05	
190.000000	0.135585  	190.000000	0.156714  	190.000000	0.156559  	190.000000	0.155915  	190.000000	0.156662  	190.000000	5.25163e-05	
195.000000	0.133373  	195.000000	0.154109  	195.000000	0.153939  	195.000000	0.153298  	195.000000	0.154058  	195.000000	5.12751e-05	
200.000000	0.131266  	200.000000	0.15163   	200.000000	0.151447  	200.000000	0.150808  	200.000000	0.15158   	200.000000	5.00934e-05	
210.000000	0.127336  	210.000000	0.147014  	210.000000	0.146806  	210.000000	0.146173  	210.000000	0.146966  	210.000000	4.78917e-05	
220.000000	0.123744  	220.000000	0.142804  	220.000000	0.142576  	220.000000	0.141947  	220.000000	0.142759  	220.000000	4.58821e-05	
230.000000	0.120448  	230.000000	0.13895   	230.000000	0.138704  	230.000000	0.138079  	230.000000	0.138906  	230.000000	4.40401e-05	
240.000000	0.117413  	240.000000	0.135409  	240.000000	0.135146  	240.000000	0.134526  	240.000000	0.135366  	240.000000	4.23454e-05	
250.000000	0.114608  	250.000000	0.132143  	250.000000	0.131869  	250.000000	0.131251  	250.000000	0.132102  	250.000000	4.07807e-05	
260.000000	0.112009  	260.000000	0.129122  	260.000000	0.128831  	260.000000	0.128224  	260.000000	0.129083  	260.000000	3.93316e-05	
270.000000	0.109593  	270.000000	0.12632   	270.000000	0.12601   	270.000000	0.125417  	270.000000	0.126282  	270.000000	3.79854e-05	
280.000000	0.107342  	280.000000	0.123715  	280.000000	0.123399  	280.000000	0.122809  	280.000000	0.123678  	280.000000	3.67315e-05	
290.000000	0.10524   	290.000000	0.121285  	290.000000	0.120965  	290.000000	0.120378  	290.000000	0.12125   	290.000000	3.55606e-05	
300.000000	0.103271  	300.000000	0.119015  	300.000000	0.118691  	300.000000	0.118108  	300.000000	0.118981  	300.000000	3.44647e-05	
310.000000	0.101425  	310.000000	0.11689   	310.000000	0.116564  	310.000000	0.115983  	310.000000	0.116856  	310.000000	3.34366e-05	
320.000000	0.0996896 	320.000000	0.114895  	320.000000	0.114569  	320.000000	0.113991  	320.000000	0.114863  	320.000000	3.24702e-05	
330.000000	0.0980555 	330.000000	0.113021  	330.000000	0.112695  	330.000000	0.11212   	330.000000	0.112989  	330.000000	3.156e-05 	
340.000000	0.0965143 	340.000000	0.111255  	340.000000	0.110931  	340.000000	0.110359  	340.000000	0.111225  	340.000000	3.07012e-05	
350.000000	0.0950584 	350.000000	0.109591  	350.000000	0.10927   	350.000000	0.1087    	350.000000	0.109561  	350.000000	2.98895e-05	
360.000000	0.0936809 	360.000000	0.108018  	360.000000	0.107697  	360.000000	0.107133  	360.000000	0.107989  	360.000000	2.91212e-05	
370.000000	0.0923759 	370.000000	0.10653   	370.000000	0.106198  	370.000000	0.105644  	370.000000	0.106502  	370.000000	2.83927e-05	
380.000000	0.0911379 	380.000000	0.105121  	380.000000	0.104784  	380.000000	0.104235  	380.000000	0.105093  	380.000000	2.7701e-05	
390.000000	0.089962  	390.000000	0.103784  	390.000000	0.103447  	390.000000	0.102899  	390.000000	0.103757  	390.000000	2.70434e-05	
400.000000	0.0888437 	400.000000	0.102515  	400.000000	0.102177  	400.000000	0.101631  	400.000000	0.102489  	400.000000	2.64174e-05	
410.000000	0.087779  	410.000000	0.101308  	410.000000	0.10097   	410.000000	0.100426  	410.000000	0.101282  	410.000000	2.58207e-05	
420.000000	0.0867644 	420.000000	0.10016   	420.000000	0.0998221 	420.000000	0.0992805 	420.000000	0.100134  	420.000000	2.52513e-05	
430.000000	0.0857964 	430.000000	0.0990653 	430.000000	0.0987294 	430.000000	0.0981895 	430.000000	0.0990406 	430.000000	2.47074e-05	
440.000000	0.084872  	440.000000	0.0980217 	440.000000	0.0976888 	440.000000	0.0971497 	440.000000	0.0979975 	440.000000	2.41872e-05	
450.000000	0.0839886 	450.000000	0.0970254 	450.000000	0.0966948 	450.000000	0.0961577 	450.000000	0.0970017 	450.000000	2.36892e-05	
460.000000	0.0831435 	460.000000	0.0960735 	460.000000	0.0957424 	460.000000	0.0952105 	460.000000	0.0960503 	460.000000	2.3212e-05	
470.000000	0.0823344 	470.000000	0.0951633 	470.000000	0.0948305 	470.000000	0.0943053 	470.000000	0.0951405 	470.000000	2.27543e-05	
480.000000	0.0815592 	480.000000	0.0942921 	480.000000	0.0939599 	480.000000	0.0934395 	480.000000	0.0942698 	480.000000	2.2315e-05	
490.000000	0.0808159 	490.000000	0.0934578 	490.000000	0.0931293 	490.000000	0.0926107 	490.000000	0.0934359 	490.000000	2.18928e-05	
500.000000	0.0801027 	500.000000	0.092658  	500.000000	0.0923348 	500.000000	0.0918168 	500.000000	0.0926365 	500.000000	2.14869e-05	
520.000000	0.0787599 	520.000000	0.0911547 	520.000000	0.0908412 	520.000000	0.0903256 	520.000000	0.0911339 	520.000000	2.07202e-05	
540.000000	0.077519  	540.000000	0.0897679 	540.000000	0.0894641 	540.000000	0.0889516 	540.000000	0.0897479 	540.000000	2.00081e-05	
560.000000	0.0763694 	560.000000	0.0884856 	560.000000	0.0881927 	560.000000	0.0876823 	560.000000	0.0884663 	560.000000	1.93449e-05	
580.000000	0.0753022 	580.000000	0.0872972 	580.000000	0.0870151 	580.000000	0.0865071 	580.000000	0.0872785 	580.000000	1.87257e-05	
600.000000	0.0743097 	600.000000	0.0861936 	600.000000	0.0859183 	600.000000	0.0854166 	600.000000	0.0861755 	600.000000	1.81462e-05	
620.000000	0.0733848 	620.000000	0.0851668 	620.000000	0.0848973 	620.000000	0.0844027 	620.000000	0.0851492 	620.000000	1.76026e-05	
640.000000	0.0725217 	640.000000	0.0842098 	640.000000	0.0839502 	640.000000	0.0834583 	640.000000	0.0841927 	640.000000	1.70918e-05	
660.000000	0.071715  	660.000000	0.0833164 	660.000000	0.0830679 	660.000000	0.0825771 	660.000000	0.0832998 	660.000000	1.66107e-05	
680.000000	0.07096   	680.000000	0.0824811 	680.000000	0.0822424 	680.000000	0.0817535 	680.000000	0.082465  	680.000000	1.61569e-05	
700.000000	0.0702524 	700.000000	0.0816991 	700.000000	0.0814701 	700.000000	0.0809826 	700.000000	0.0816834 	700.000000	1.5728e-05	
720.000000	0.0695886 	720.000000	0.080966  	720.000000	0.0807466 	720.000000	0.0802601 	720.000000	0.0809507 	720.000000	1.53221e-05	
740.000000	0.0689652 	740.000000	0.080278  	740.000000	0.0800659 	740.000000	0.0795818 	740.000000	0.0802631 	740.000000	1.49373e-05	
760.000000	0.0683791 	760.000000	0.0796316 	760.000000	0.0794234 	760.000000	0.0789445 	760.000000	0.0796171 	760.000000	1.4572e-05	
780.000000	0.0678277 	780.000000	0.0790237 	780.000000	0.0788187 	780.000000	0.0783448 	780.000000	0.0790095 	780.000000	1.42247e-05	
800.000000	0.0673084 	800.000000	0.0784515 	800.000000	0.0782512 	800.000000	0.07778   	800.000000	0.0784376 	800.000000	1.38941e-05	
820.000000	0.0668192 	820.000000	0.0779123 	820.000000	0.0777177 	820.000000	0.0772475 	820.000000	0.0778987 	820.000000	1.3579e-05	
840.000000	0.0663578 	840.000000	0.077404  	840.000000	0.0772145 	840.000000	0.0767448 	840.000000	0.0773907 	840.000000	1.32784e-05	
860.000000	0.0659226 	860.000000	0.0769244 	860.000000	0.0767385 	860.000000	0.07627   	860.000000	0.0769114 	860.000000	1.29912e-05	
880.000000	0.0655118 	880.000000	0.0764715 	880.000000	0.0762884 	880.000000	0.0758211 	880.000000	0.0764588 	880.000000	1.27166e-05	
900.000000	0.0651239 	900.000000	0.0760437 	900.000000	0.0758627 	900.000000	0.0753963 	900.000000	0.0760313 	900.000000	1.24538e-05	
920.000000	0.0647574 	920.000000	0.0756394 	920.000000	0.07546   	920.000000	0.074994  	920.000000	0.0756272 	920.000000	1.2202e-05	
940.000000	0.0644112 	940.000000	0.075257  	940.000000	0.0750778 	940.000000	0.0746127 	940.000000	0.0752451 	940.000000	1.19604e-05	
960.000000	0.0640839 	960.000000	0.0748953 	960.000000	0.0747145 	960.000000	0.0742511 	960.000000	0.0748836 	960.000000	1.17286e-05	
980.000000	0.0637746 	980.000000	0.074553  	980.000000	0.0743684 	980.000000	0.073908  	980.000000	0.0745415 	980.000000	1.15059e-05	
1000.000000	0.0634821 	1000.000000	0.074229  	1000.000000	0.0740393 	1000.000000	0.0735822 	1000.000000	0.0742177 	1000.000000	1.12918e-05	
1020.000000	0.0632057 	1020.000000	0.0739221 	1020.000000	0.0737268 	1020.000000	0.0732726 	1020.000000	0.0739111 	1020.000000	1.10857e-05	
1040.000000	0.0629443 	1040.000000	0.0736316 	1040.000000	0.0734306 	1040.000000	0.0729783 	1040.000000	0.0736207 	1040.000000	1.08873e-05	
1060.000000	0.0626972 	1060.000000	0.0733563 	1060.000000	0.0731497 	1060.000000	0.0726984 	1060.000000	0.0733456 	1060.000000	1.06961e-05	
1080.000000	0.0624636 	1080.000000	0.0730956 	1080.000000	0.0728829 	1080.000000	0.0724321 	1080.000000	0.0730851 	1080.000000	1.05117e-05	
1100.000000	0.0622429 	1100.000000	0.0728486 	1100.000000	0.072629  	1100.000000	0.0721785 	1100.000000	0.0728383 	1100.000000	1.03338e-05	
1120.000000	0.0620344 	1120.000000	0.0726146 	1120.000000	0.0723871 	1120.000000	0.0719371 	1120.000000	0.0726044 	1120.000000	1.0162e-05	
1140.000000	0.0618375 	1140.000000	0.072393  	1140.000000	0.0721564 	1140.000000	0.071707  	1140.000000	0.072383  	1140.000000	9.99598e-06	
1160.000000	0.0616517 	1160.000000	0.072183  	1160.000000	0.0719364 	1160.000000	0.0714877 	1160.000000	0.0721732 	1160.000000	9.83549e-06	
1180.000000	0.0614764 	1180.000000	0.0719842 	1180.000000	0.0717266 	1180.000000	0.0712785 	1180.000000	0.0719745 	1180.000000	9.68025e-06	
1200.000000	0.0613111 	1200.000000	0.071796  	1200.000000	0.0715266 	1200.000000	0.0710791 	1200.000000	0.0717865 	1200.000000	9.52999e-06	
1220.000000	0.0611554 	1220.000000	0.0716178 	1220.000000	0.071336  	1220.000000	0.0708888 	1220.000000	0.0716085 	1220.000000	9.38448e-06	
1240.000000	0.0610088 	1240.000000	0.0714493 	1240.000000	0.0711541 	1240.000000	0.0707072 	1240.000000	0.07144   	1240.000000	9.24349e-06	
1260.000000	0.0608709 	1260.000000	0.0712899 	1260.000000	0.0709805 	1260.000000	0.0705339 	1260.000000	0.0712808 	1260.000000	9.10681e-06	
1280.000000	0.0607414 	1280.000000	0.0711392 	1280.000000	0.0708145 	1280.000000	0.0703683 	1280.000000	0.0711302 	1280.000000	8.97425e-06	
1300.000000	0.0606199 	1300.000000	0.0709968 	1300.000000	0.0706557 	1300.000000	0.0702103 	1300.000000	0.070988  	1300.000000	8.84562e-06	
1320.000000	0.060506  	1320.000000	0.0708624 	1320.000000	0.0705036 	1320.000000	0.0700593 	1320.000000	0.0708537 	1320.000000	8.72074e-06	
1340.000000	0.0603995 	1340.000000	0.0707356 	1340.000000	0.0703579 	1340.000000	0.0699151 	1340.000000	0.070727  	1340.000000	8.59946e-06	
1360.000000	0.0603    	1360.000000	0.0706161 	1360.000000	0.0702184 	1360.000000	0.0697772 	1360.000000	0.0706076 	1360.000000	8.48161e-06	
1380.000000	0.0602072 	1380.000000	0.0705035 	1380.000000	0.0700851 	1380.000000	0.0696455 	1380.000000	0.0704952 	1380.000000	8.36706e-06	
1400.000000	0.060121  	1400.000000	0.0703976 	1400.000000	0.0699576 	1400.000000	0.0695197 	1400.000000	0.0703894 	1400.000000	8.25566e-06	
1420.000000	0.0600409 	1420.000000	0.0702981 	1420.000000	0.0698358 	1420.000000	0.0693994 	1420.000000	0.07029   	1420.000000	8.14728e-06	
1440.000000	0.0599669 	1440.000000	0.0702048 	1440.000000	0.0697196 	1440.000000	0.0692844 	1440.000000	0.0701967 	1440.000000	8.04181e-06	
1460.000000	0.0598986 	1460.000000	0.0701173 	1460.000000	0.0696088 	1460.000000	0.0691745 	1460.000000	0.0701093 	1460.000000	7.93912e-06	
1480.000000	0.0598358 	1480.000000	0.0700354 	1480.000000	0.0695031 	1480.000000	0.0690694 	1480.000000	0.0700276 	1480.000000	7.83911e-06	
1500.000000	0.0597784 	1500.000000	0.069959  	1500.000000	0.0694023 	1500.000000	0.068969  	1500.000000	0.0699513 	1500.000000	7.74166e-06	
1520.000000	0.0597261 	1520.000000	0.0698878 	1520.000000	0.069306  	1520.000000	0.068873  	1520.000000	0.0698802 	1520.000000	7.64669e-06	
1540.000000	0.0596788 	1540.000000	0.0698216 	1540.000000	0.0692141 	1540.000000	0.0687813 	1540.000000	0.0698141 	1540.000000	7.5541e-06	
1560.000000	0.0596363 	1560.000000	0.0697603 	1560.000000	0.0691262 	1560.000000	0.0686936 	1560.000000	0.0697528 	1560.000000	7.4638e-06	
1580.000000	0.0595984 	1580.000000	0.0697035 	1580.000000	0.0690423 	1580.000000	0.0686098 	1580.000000	0.0696962 	1580.000000	7.37569e-06	
1600.000000	0.0595649 	1600.000000	0.0696513 	1600.000000	0.068962  	1600.000000	0.0685297 	1600.000000	0.069644  	1600.000000	7.28972e-06	
1620.000000	0.0595358 	1620.000000	0.0696033 	1620.000000	0.0688853 	1620.000000	0.0684532 	1620.000000	0.0695961 	1620.000000	7.20579e-06	
1640.000000	0.0595108 	1640.000000	0.0695595 	1640.000000	0.068812  	1640.000000	0.0683801 	1640.000000	0.0695524 	1640.000000	7.12383e-06	
1660.000000	0.0594898 	1660.000000	0.0695197 	1660.000000	0.0687419 	1660.000000	0.0683103 	1660.000000	0.0695127 	1660.000000	7.04378e-06	
1680.000000	0.0594728 	1680.000000	0.0694838 	1680.000000	0.068675  	1680.000000	0.0682437 	1680.000000	0.0694768 	1680.000000	6.96556e-06	
1700.000000	0.0594595 	1700.000000	0.0694516 	1700.000000	0.0686111 	1700.000000	0.0681801 	1700.000000	0.0694447 	1700.000000	6.88912e-06	
1750.000000	0.059442  	1750.000000	0.0693865 	1750.000000	0.0684638 	1750.000000	0.0680335 	1750.000000	0.0693798 	1750.000000	6.70539e-06	
1800.000000	0.0594455 	1800.000000	0.0693421 	1800.000000	0.068333  	1800.000000	0.0679034 	1800.000000	0.0693355 	1800.000000	6.53151e-06	
1850.000000	0.0594686 	1850.000000	0.0693166 	1850.000000	0.0682174 	1850.000000	0.0677882 	1850.000000	0.0693102 	1850.000000	6.3667e-06	
1900.000000	0.0595099 	1900.000000	0.0693086 	1900.000000	0.0681153 	1900.000000	0.0676865 	1900.000000	0.0693024 	1900.000000	6.21025e-06	
1950.000000	0.059568  	1950.000000	0.0693168 	1950.000000	0.0680255 	1950.000000	0.0675972 	1950.000000	0.0693108 	1950.000000	6.06155e-06	
2000.000000	0.0596419 	2000.000000	0.0693399 	2000.000000	0.0679467 	2000.000000	0.0675192 	2000.000000	0.069334  	2000.000000	5.92003e-06	
2100.000000	0.0598329 	2100.000000	0.0694268 	2100.000000	0.0678183 	2100.000000	0.067393  	2100.000000	0.0694211 	2100.000000	5.6565e-06	
2200.000000	0.0600757 	2200.000000	0.0695616 	2200.000000	0.0677239 	2200.000000	0.0673014 	2200.000000	0.0695562 	2200.000000	5.41611e-06	
2300.000000	0.0603643 	2300.000000	0.0697381 	2300.000000	0.0676587 	2300.000000	0.0672387 	2300.000000	0.0697329 	2300.000000	5.19592e-06	
2400.000000	0.0606937 	2400.000000	0.0699512 	2400.000000	0.0676187 	2400.000000	0.0672006 	2400.000000	0.0699462 	2400.000000	4.99345e-06	
2500.000000	0.0610597 	2500.000000	0.0701963 	2500.000000	0.0676003 	2500.000000	0.0671833 	2500.000000	0.0701915 	2500.000000	4.80663e-06	
2600.000000	0.0614587 	2600.000000	0.0704698 	2600.000000	0.0676002 	2600.000000	0.0671837 	2600.000000	0.0704651 	2600.000000	4.63369e-06	
2700.000000	0.0618876 	2700.000000	0.0707684 	2700.000000	0.0676154 	2700.000000	0.0671993 	2700.000000	0.0707639 	2700.000000	4.47313e-06	
2800.000000	0.0623437 	2800.000000	0.0710895 	2800.000000	0.0676437 	2800.000000	0.0672278 	2800.000000	0.0710852 	2800.000000	4.32365e-06	
2900.000000	0.0628247 	2900.000000	0.0714307 	2900.000000	0.0676831 	2900.000000	0.0672673 	2900.000000	0.0714265 	2900.000000	4.18413e-06	
3000.000000	0.0633286 	3000.000000	0.07179   	3000.000000	0.067732  	3000.000000	0.0673165 	3000.000000	0.0717859 	3000.000000	4.0536e-06	
3200.000000	0.0643983 	3200.000000	0.0725557 	3200.000000	0.0678531 	3200.000000	0.0674381 	3200.000000	0.0725519 	3200.000000	3.8162e-06	
3400.000000	0.0655409 	3400.000000	0.0733749 	3400.000000	0.0679984 	3400.000000	0.0675841 	3400.000000	0.0733713 	3400.000000	3.60582e-06	
3600.000000	0.0667473 	3600.000000	0.0742384 	3600.000000	0.0681615 	3600.000000	0.067748  	3600.000000	0.0742349 	3600.000000	3.41806e-06	
3800.000000	0.0680102 	3800.000000	0.0751389 	3800.000000	0.0683376 	3800.000000	0.0679251 	3800.000000	0.0751356 	3800.000000	3.24941e-06	
4000.000000	0.0693235 	4000.000000	0.0760706 	4000.000000	0.0685231 	4000.000000	0.0681116 	4000.000000	0.0760675 	4000.000000	3.09709e-06	
4200.000000	0.0706825 	4200.000000	0.0770288 	4200.000000	0.0687152 	4200.000000	0.0683048 	4200.000000	0.0770259 	4200.000000	2.9588e-06	
4400.000000	0.0720832 	4400.000000	0.0780097 	4400.000000	0.068912  	4400.000000	0.0685025 	4400.000000	0.0780069 	4400.000000	2.83267e-06	
4600.000000	0.0735222 	4600.000000	0.0790102 	4600.000000	0.0691116 	4600.000000	0.068703  	4600.000000	0.0790074 	4600.000000	2.71715e-06	
4800.000000	0.0749969 	4800.000000	0.0800275 	4800.000000	0.0693128 	4800.000000	0.0689051 	4800.000000	0.0800248 	4800.000000	2.61095e-06	
5000.000000	0.0765048 	5000.000000	0.0810594 	5000.000000	0.0695147 	5000.000000	0.0691077 	5000.000000	0.0810569 	5000.000000	2.51297e-06	
5250.000000	0.0784334 	5250.000000	0.0823672 	5250.000000	0.0697666 	5250.000000	0.0693604 	5250.000000	0.0823648 	5250.000000	2.40066e-06	
5500.000000	0.0804076 	5500.000000	0.0836919 	5500.000000	0.070017  	5500.000000	0.0696116 	5500.000000	0.0836896 	5500.000000	2.29823e-06	
6000.000000	0.0844822 	6000.000000	0.0863826 	6000.000000	0.0705102 	6000.000000	0.070106  	6000.000000	0.0863805 	6000.000000	2.11818e-06	
6500.000000	0.0887116 	6500.000000	0.0891162 	6500.000000	0.0709898 	6500.000000	0.0705865 	6500.000000	0.0891142 	6500.000000	1.96498e-06	
7000.000000	0.0930835 	7000.000000	0.0918818 	7000.000000	0.0714534 	7000.000000	0.071051  	7000.000000	0.0918799 	7000.000000	1.833e-06 	
7500.000000	0.0975888 	7500.000000	0.0946714 	7500.000000	0.0719    	7500.000000	0.0714986 	7500.000000	0.0946697 	7500.000000	1.71808e-06	
8000.000000	0.102221  	8000.000000	0.0974794 	8000.000000	0.0723299 	8000.000000	0.0719294 	8000.000000	0.0974778 	8000.000000	1.61708e-06	
8500.000000	0.106974  	8500.000000	0.100301  	8500.000000	0.0727441 	8500.000000	0.0723436 	8500.000000	0.1003    	8500.000000	1.5276e-06	
9000.000000	0.111844  	9000.000000	0.103134  	9000.000000	0.0731427 	9000.000000	0.072742  	9000.000000	0.103132  	9000.000000	1.44776e-06	
9500.000000	0.116829  	9500.000000	0.105974  	9500.000000	0.0735246 	9500.000000	0.0731251 	9500.000000	0.105972  	9500.000000	1.37606e-06	
10000.000000	0.121925  	10000.000000	0.10882   	10000.000000	0.0738906 	10000.000000	0.0734937 	10000.000000	0.108819  	10000.000000	1.31132e-06	
11000.000000	0.132443  	11000.000000	0.114524  	11000.000000	0.0745839 	11000.000000	0.0741908 	11000.000000	0.114523  	11000.000000	1.19896e-06	
12000.000000	0.143387  	12000.000000	0.120237  	12000.000000	0.0752333 	12000.000000	0.0748393 	12000.000000	0.120236  	12000.000000	1.10478e-06	
13000.000000	0.154748  	13000.000000	0.125951  	13000.000000	0.0758386 	13000.000000	0.0754445 	13000.000000	0.12595   	13000.000000	1.02467e-06	
14000.000000	0.16652   	14000.000000	0.131664  	14000.000000	0.0764021 	14000.000000	0.0760114 	14000.000000	0.131663  	14000.000000	9.55665e-07	
15000.000000	0.178701  	15000.000000	0.137373  	15000.000000	0.0769291 	15000.000000	0.0765439 	15000.000000	0.137372  	15000.000000	8.95592e-07	
16000.000000	0.191288  	16000.000000	0.143076  	16000.000000	0.0774258 	16000.000000	0.0770457 	16000.000000	0.143075  	16000.000000	8.42808e-07	
17000.000000	0.204279  	17000.000000	0.148771  	17000.000000	0.0778962 	17000.000000	0.07752   	17000.000000	0.14877   	17000.000000	7.96052e-07	
18000.000000	0.217674  	18000.000000	0.154457  	18000.000000	0.0783433 	18000.000000	0.0779693 	18000.000000	0.154457  	18000.000000	7.54339e-07	
19000.000000	0.231473  	19000.000000	0.160136  	19000.000000	0.0787692 	19000.000000	0.0783962 	19000.000000	0.160135  	19000.000000	7.16888e-07	
20000.000000	0.245675  	20000.000000	0.165805  	20000.000000	0.0791756 	20000.000000	0.0788025 	20000.000000	0.165804  	20000.000000	6.83072e-07	
21000.000000	0.260282  	21000.000000	0.171465  	21000.000000	0.0795627 	21000.000000	0.0791901 	21000.000000	0.171464  	21000.000000	6.52383e-07	
22000.000000	0.275293  	22000.000000	0.177115  	22000.000000	0.079929  	22000.000000	0.0795606 	22000.000000	0.177115  	22000.000000	6.24402e-07	
23000.000000	0.290711  	23000.000000	0.182757  	23000.000000	0.0802795 	23000.000000	0.0799154 	23000.000000	0.182756  	23000.000000	5.98783e-07	
24000.000000	0.306537  	24000.000000	0.188389  	24000.000000	0.0806164 	24000.000000	0.0802557 	24000.000000	0.188388  	24000.000000	5.75236e-07	
25000.000000	0.322772  	25000.000000	0.194012  	25000.000000	0.0809399 	25000.000000	0.0805825 	25000.000000	0.194012  	25000.000000	5.53518e-07	
26000.000000	0.339416  	26000.000000	0.199626  	26000.000000	0.0812513 	26000.000000	0.080897  	26000.000000	0.199626  	26000.000000	5.33422e-07	
27000.000000	0.356473  	27000.000000	0.205232  	27000.000000	0.0815516 	27000.000000	0.0811999 	27000.000000	0.205231  	27000.000000	5.14772e-07	
28000.000000	0.373944  	28000.000000	0.210828  	28000.000000	0.0818411 	28000.000000	0.081492  	28000.000000	0.210828  	28000.000000	4.97414e-07	
29000.000000	0.39183   	29000.000000	0.216417  	29000.000000	0.0821202 	29000.000000	0.0817742 	29000.000000	0.216416  	29000.000000	4.81219e-07	
30000.000000	0.410133  	30000.000000	0.221997  	30000.000000	0.0823895 	30000.000000	0.0820469 	30000.000000	0.221996  	30000.000000	4.66072e-07	
32000.000000	0.447999  	32000.000000	0.233133  	32000.000000	0.0829015 	32000.000000	0.0825665 	32000.000000	0.233132  	32000.000000	4.38538e-07	
34000.000000	0.487558  	34000.000000	0.244237  	34000.000000	0.0833816 	34000.000000	0.0830551 	34000.000000	0.244237  	34000.000000	4.14152e-07	
36000.000000	0.528826  	36000.000000	0.255312  	36000.000000	0.0838327 	36000.000000	0.0835159 	36000.000000	0.255312  	36000.000000	3.924e-07 	
38000.000000	0.571821  	38000.000000	0.266359  	38000.000000	0.0842575 	38000.000000	0.083952  	38000.000000	0.266358  	38000.000000	3.72873e-07	
40000.000000	0.616559  	40000.000000	0.277378  	40000.000000	0.0846593 	40000.000000	0.0843658 	40000.000000	0.277377  	40000.000000	3.55243e-07	
42000.000000	0.66306   	42000.000000	0.288371  	42000.000000	0.0850412 	42000.000000	0.0847595 	42000.000000	0.28837   	42000.000000	3.39246e-07	
44000.000000	0.71134   	44000.000000	0.299339  	44000.000000	0.0854054 	44000.000000	0.0851349 	44000.000000	0.299339  	44000.000000	3.24662e-07	
46000.000000	0.76142   	46000.000000	0.310283  	46000.000000	0.0857538 	46000.000000	0.0854935 	46000.000000	0.310283  	46000.000000	3.11311e-07	
48000.000000	0.813316  	48000.000000	0.321204  	48000.000000	0.0860872 	48000.000000	0.0858369 	48000.000000	0.321204  	48000.000000	2.99041e-07	
50000.000000	0.86705   	50000.000000	0.332103  	50000.000000	0.086406  	50000.000000	0.0861662 	50000.000000	0.332103  	50000.000000	2.87725e-07	
