Energy (MeV/u)1	0 - [He-base] F.Hubert et al, AD&ND Tables 46(1990)1	Energy (MeV/u)2	1 - [H -base] J.F.Ziegler et al, Pergamon Press, NY (low energy)	Energy (MeV/u)3	2 - ATIMA 1.2  LS-theory (recommended for high energy)	Energy (MeV/u)4	3 - ATIMA 1.2  without LS-correction	Energy (MeV/u)5	4 - electrical component of [1] - J.F.Ziegler et al	Energy (MeV/u)6	5 - nuclear component of [1] - J.F.Ziegler et al	
0.001000	12.3098   	0.001000	9.02961   	0.001000	8.56782   	0.001000	8.56782   	0.001000	1.3518    	0.001000	7.67781   	
0.002000	12.7305   	0.002000	9.39974   	0.002000	8.78595   	0.002000	8.78595   	0.002000	1.87239   	0.002000	7.52735   	
0.005000	12.7218   	0.005000	9.26104   	0.005000	8.3707    	0.005000	8.3707    	0.005000	2.88023   	0.005000	6.38081   	
0.008000	12.7379   	0.008000	9.08385   	0.008000	8.0086    	0.008000	8.0086    	0.008000	3.59223   	0.008000	5.49162   	
0.010000	12.8139   	0.010000	9.02742   	0.010000	7.85202   	0.010000	7.85202   	0.010000	3.98944   	0.010000	5.03798   	
0.015000	13.1307   	0.015000	9.03668   	0.015000	7.65614   	0.015000	7.65614   	0.015000	4.82697   	0.015000	4.20971   	
0.020000	13.5315   	0.020000	9.17104   	0.020000	7.62481   	0.020000	7.62481   	0.020000	5.52581   	0.020000	3.64524   	
0.025000	13.9599   	0.025000	9.36906   	0.025000	7.68152   	0.025000	7.68152   	0.025000	6.13682   	0.025000	3.23224   	
0.030000	14.3932   	0.030000	9.6007    	0.030000	7.78875   	0.030000	7.78875   	0.030000	6.68588   	0.030000	2.91482   	
0.035000	14.8214   	0.035000	9.85022   	0.035000	7.92639   	0.035000	7.92639   	0.035000	7.18826   	0.035000	2.66196   	
0.040000	15.24     	0.040000	10.1088   	0.040000	8.0829    	0.040000	8.0829    	0.040000	7.65385   	0.040000	2.45499   	
0.045000	15.6472   	0.045000	10.3714   	0.045000	8.25123   	0.045000	8.25123   	0.045000	8.0895    	0.045000	2.28194   	
0.050000	16.0424   	0.050000	10.6349   	0.050000	8.42693   	0.050000	8.42693   	0.050000	8.50017   	0.050000	2.13475   	
0.055000	16.4257   	0.055000	10.8974   	0.055000	8.60706   	0.055000	8.60706   	0.055000	8.8896    	0.055000	2.00778   	
0.060000	16.8733   	0.060000	11.1576   	0.060000	8.78967   	0.060000	8.78967   	0.060000	9.26068   	0.060000	1.89694   	
0.070000	18.9778   	0.070000	12.2173   	0.070000	9.62595   	0.070000	9.62595   	0.070000	10.505    	0.070000	1.71233   	
0.080000	21.2115   	0.080000	13.4948   	0.080000	10.6663   	0.080000	10.6663   	0.080000	11.9306   	0.080000	1.56425   	
0.090000	23.2821   	0.090000	14.7418   	0.090000	11.6728   	0.090000	11.6728   	0.090000	13.2994   	0.090000	1.44245   	
0.100000	25.1873   	0.100000	15.9615   	0.100000	12.6404   	0.100000	12.6404   	0.100000	14.6213   	0.100000	1.34025   	
0.120000	27.8298   	0.120000	17.8895   	0.120000	14.4495   	0.120000	14.4495   	0.120000	16.7226   	0.120000	1.16695   	
0.140000	29.7389   	0.140000	19.4068   	0.140000	16.1334   	0.140000	16.1334   	0.140000	18.3623   	0.140000	1.04446   	
0.160000	31.4727   	0.160000	20.8279   	0.160000	17.7015   	0.160000	17.7015   	0.160000	19.8804   	0.160000	0.947424  	
0.180000	33.137    	0.180000	22.1694   	0.180000	19.1717   	0.180000	19.1717   	0.180000	21.3009   	0.180000	0.868436  	
0.200000	34.7824   	0.200000	23.4411   	0.200000	20.5569   	0.200000	20.5569   	0.200000	22.6384   	0.200000	0.802751  	
0.250000	37.6863   	0.250000	25.9749   	0.250000	23.7023   	0.250000	23.7023   	0.250000	25.2968   	0.250000	0.67805   	
0.300000	40.421    	0.300000	28.106    	0.300000	26.4621   	0.300000	26.4621   	0.300000	27.5166   	0.300000	0.58945   	
0.350000	42.9492   	0.350000	29.9013   	0.350000	28.8971   	0.350000	28.8971   	0.350000	29.3784   	0.350000	0.522932  	
0.400000	45.2504   	0.400000	31.4148   	0.400000	31.0546   	0.400000	31.0546   	0.400000	30.9438   	0.400000	0.470974  	
0.450000	47.5389   	0.450000	32.8001   	0.450000	32.9739   	0.450000	32.9739   	0.450000	32.371    	0.450000	0.429156  	
0.500000	50.1768   	0.500000	34.4256   	0.500000	34.6877   	0.500000	34.6877   	0.500000	34.0309   	0.500000	0.394704  	
0.600000	52.7346   	0.600000	37.5088   	0.600000	37.6055   	0.600000	37.6055   	0.600000	37.1677   	0.600000	0.341124  	
0.700000	54.076    	0.700000	39.8905   	0.700000	39.9899   	0.700000	39.9899   	0.700000	39.5893   	0.700000	0.301237  	
0.800000	56.7121   	0.800000	42.4085   	0.800000	42.5342   	0.800000	42.5342   	0.800000	42.1382   	0.800000	0.270286  	
0.900000	58.9265   	0.900000	44.6558   	0.900000	44.6236   	0.900000	44.6236   	0.900000	44.4103   	0.900000	0.245511  	
1.000000	60.7874   	1.000000	46.6856   	1.000000	46.3506   	1.000000	46.3506   	1.000000	46.4604   	1.000000	0.225191  	
1.250000	63.8357   	1.250000	49.8951   	1.250000	49.5036   	1.250000	49.5036   	1.250000	49.7078   	1.250000	0.187323  	
1.500000	65.491    	1.500000	52.0786   	1.500000	51.5168   	1.500000	51.5168   	1.500000	51.9176   	1.500000	0.160984  	
1.750000	65.4685   	1.750000	52.9376   	1.750000	52.7958   	1.750000	52.7958   	1.750000	52.7961   	1.750000	0.141524  	
2.000000	65.1385   	2.000000	53.5322   	2.000000	53.5814   	2.000000	53.5814   	2.000000	53.4057   	2.000000	0.126515  	
2.250000	64.7333   	2.250000	53.5628   	2.250000	54.0247   	2.250000	54.0247   	2.250000	53.4482   	2.250000	0.11456   	
2.500000	93.6651   	2.500000	53.4741   	2.500000	54.2244   	2.500000	54.2244   	2.500000	53.3693   	2.500000	0.104797  	
3.000000	90.6144   	3.000000	53.0563   	3.000000	54.1412   	3.000000	54.1412   	3.000000	52.9665   	3.000000	0.0897718 	
3.500000	87.3161   	3.500000	52.4386   	3.500000	53.664    	3.500000	53.664    	3.500000	52.3599   	3.500000	0.0787162 	
4.000000	84.0337   	4.000000	51.7082   	4.000000	52.9669   	4.000000	52.9669   	4.000000	51.6379   	4.000000	0.0702175 	
4.500000	80.88     	4.500000	50.9083   	4.500000	52.0819   	4.500000	52.0819   	4.500000	50.8449   	4.500000	0.0634668 	
5.000000	77.8995   	5.000000	50.0686   	5.000000	51.0353   	5.000000	51.0353   	5.000000	50.0106   	5.000000	0.0579664 	
5.500000	75.105    	5.500000	49.2247   	5.500000	50.0111   	5.500000	50.0111   	5.500000	49.1713   	5.500000	0.0533928 	
6.000000	72.4945   	6.000000	48.3929   	6.000000	49.015    	6.000000	49.015    	6.000000	48.3434   	6.000000	0.0495258 	
6.500000	70.0587   	6.500000	47.5723   	6.500000	48.05     	6.500000	48.05     	6.500000	47.5261   	6.500000	0.0462107 	
7.000000	67.7859   	7.000000	46.7649   	7.000000	47.1174   	7.000000	47.1174   	7.000000	46.7215   	7.000000	0.0433352 	
7.500000	65.6632   	7.500000	45.9689   	7.500000	46.2175   	7.500000	46.2175   	7.500000	45.9281   	7.500000	0.0408156 	
8.000000	63.6782   	8.000000	45.1777   	8.000000	45.3497   	8.000000	45.3497   	8.000000	45.1391   	8.000000	0.0385887 	
8.500000	61.8191   	8.500000	44.4175   	8.500000	44.5134   	8.500000	44.5134   	8.500000	44.3809   	8.500000	0.0366052 	
9.000000	60.0751   	9.000000	43.6855   	9.000000	43.7074   	9.000000	43.7074   	9.000000	43.6507   	9.000000	0.0348266 	
9.500000	58.4362   	9.500000	42.9794   	9.500000	42.9306   	9.500000	42.9306   	9.500000	42.9462   	9.500000	0.0332222 	
10.000000	56.8935   	10.000000	42.4993   	10.000000	42.1817   	10.000000	42.1817   	10.000000	42.4675   	10.000000	0.0317671 	
11.000000	54.065    	11.000000	41.3024   	11.000000	40.4824   	11.000000	41.0536   	11.000000	41.2731   	11.000000	0.0292272 	
12.000000	51.5344   	12.000000	40.1361   	12.000000	38.9224   	12.000000	39.9712   	12.000000	40.109    	12.000000	0.0270829 	
13.000000	49.2565   	13.000000	39.0119   	13.000000	37.4872   	13.000000	38.9376   	13.000000	38.9866   	13.000000	0.0252468 	
14.000000	47.195    	14.000000	37.935    	14.000000	36.1639   	14.000000	37.9532   	14.000000	37.9114   	14.000000	0.0236561 	
15.000000	45.32     	15.000000	36.9074   	15.000000	34.9406   	15.000000	37.0167   	15.000000	36.8852   	15.000000	0.0222638 	
16.000000	43.6066   	16.000000	35.929    	16.000000	33.8063   	16.000000	36.1264   	16.000000	35.9079   	16.000000	0.0210343 	
17.000000	42.0344   	17.000000	34.9983   	17.000000	32.7518   	17.000000	35.28     	17.000000	34.9784   	17.000000	0.0199402 	
18.000000	40.5863   	18.000000	34.1135   	18.000000	31.7695   	18.000000	34.4752   	18.000000	34.0945   	18.000000	0.01896   	
19.000000	39.2477   	19.000000	33.2723   	19.000000	30.853    	19.000000	33.7097   	19.000000	33.2542   	19.000000	0.0180764 	
20.000000	38.0063   	20.000000	32.4722   	20.000000	29.9966   	20.000000	32.981    	20.000000	32.4549   	20.000000	0.0172755 	
21.000000	36.8516   	21.000000	31.7109   	21.000000	29.1951   	21.000000	32.287    	21.000000	31.6944   	21.000000	0.0165462 	
22.000000	35.7747   	22.000000	30.986    	22.000000	28.4435   	22.000000	31.6256   	22.000000	30.9701   	22.000000	0.015879  	
23.000000	34.7676   	23.000000	30.2952   	23.000000	27.7377   	23.000000	30.9948   	23.000000	30.28     	23.000000	0.0152663 	
24.000000	33.8237   	24.000000	29.6365   	24.000000	27.0744   	24.000000	30.3929   	24.000000	29.6218   	24.000000	0.0147014 	
25.000000	32.9369   	25.000000	29.0077   	25.000000	26.4497   	25.000000	29.818    	25.000000	28.9935   	25.000000	0.0141789 	
27.000000	31.3148   	27.000000	27.8327   	27.000000	25.3013   	27.000000	28.7433   	27.000000	27.8194   	27.000000	0.0132431 	
29.000000	29.8665   	29.000000	26.7567   	29.000000	24.2764   	29.000000	27.7594   	29.000000	26.7443   	29.000000	0.0124288 	
31.000000	28.565    	31.000000	25.7681   	31.000000	23.4242   	31.000000	26.7562   	31.000000	25.7564   	31.000000	0.0117133 	
33.000000	27.3883   	33.000000	24.8569   	33.000000	22.6995   	33.000000	25.7416   	33.000000	24.8458   	33.000000	0.0110795 	
35.000000	26.3188   	35.000000	24.0145   	35.000000	22.0291   	35.000000	24.8102   	35.000000	24.004    	35.000000	0.0105139 	
38.000000	24.8848   	38.000000	22.8639   	38.000000	21.1      	38.000000	23.5473   	38.000000	22.8541   	38.000000	0.00977079	
41.000000	23.6216   	41.000000	21.8305   	41.000000	20.2596   	41.000000	22.4218   	41.000000	21.8214   	41.000000	0.00913029	
44.000000	22.4997   	44.000000	20.8974   	44.000000	19.4899   	44.000000	21.4118   	44.000000	20.8889   	44.000000	0.00857223	
47.000000	21.496    	47.000000	20.0507   	47.000000	18.7866   	47.000000	20.5002   	47.000000	20.0426   	47.000000	0.00808143	
50.000000	20.5922   	50.000000	19.2789   	50.000000	18.1406   	50.000000	19.673    	50.000000	19.2712   	50.000000	0.00764625	
55.000000	19.2698   	55.000000	18.1338   	55.000000	17.1709   	55.000000	18.4522   	55.000000	18.1268   	55.000000	0.00702074	
60.000000	18.1337   	60.000000	17.1358   	60.000000	16.3173   	60.000000	17.3941   	60.000000	17.1293   	60.000000	0.00649392	
65.000000	17.1463   	65.000000	16.2582   	65.000000	15.5578   	65.000000	16.4679   	65.000000	16.2521   	65.000000	0.00604385	
70.000000	16.2794   	70.000000	15.4804   	70.000000	14.879    	70.000000	15.6503   	70.000000	15.4748   	70.000000	0.00565466	
75.000000	15.5119   	75.000000	14.7863   	75.000000	14.2695   	75.000000	14.9233   	75.000000	14.781    	75.000000	0.00531463	
80.000000	14.827    	80.000000	14.1631   	80.000000	13.7179   	80.000000	14.2724   	80.000000	14.1581   	80.000000	0.00501487	
85.000000	14.2118   	85.000000	13.6004   	85.000000	13.2164   	85.000000	13.6864   	85.000000	13.5957   	85.000000	0.00474852	
90.000000	13.656    	90.000000	13.0899   	90.000000	12.7584   	90.000000	13.156    	90.000000	13.0853   	90.000000	0.00451022	
95.000000	13.151    	95.000000	12.6245   	95.000000	12.3384   	95.000000	12.6735   	95.000000	12.6202   	95.000000	0.0042957 	
100.000000	12.6902   	100.000000	12.1986   	100.000000	11.9534   	100.000000	12.2329   	100.000000	12.1945   	100.000000	0.00410152	
105.000000	12.2677   	105.000000	11.8074   	105.000000	11.5978   	105.000000	11.829    	105.000000	11.8034   	105.000000	0.00392487	
110.000000	11.8788   	110.000000	11.4467   	110.000000	11.2683   	110.000000	11.4572   	110.000000	11.443    	110.000000	0.00376345	
115.000000	11.5197   	115.000000	11.1132   	115.000000	10.9619   	115.000000	11.114    	115.000000	11.1096   	115.000000	0.00361535	
120.000000	11.1869   	120.000000	10.8039   	120.000000	10.6771   	120.000000	10.7961   	120.000000	10.8005   	120.000000	0.00347895	
125.000000	10.8775   	125.000000	10.5163   	125.000000	10.4118   	125.000000	10.501    	125.000000	10.513    	125.000000	0.00335291	
130.000000	10.5892   	130.000000	10.2482   	130.000000	10.1632   	130.000000	10.2262   	130.000000	10.245    	130.000000	0.00323607	
135.000000	10.3197   	135.000000	9.99762   	135.000000	9.93088   	135.000000	9.96971   	135.000000	9.9945    	135.000000	0.00312745	
140.000000	10.0672   	140.000000	9.76297   	140.000000	9.71267   	140.000000	9.7298    	140.000000	9.75994   	140.000000	0.00302618	
145.000000	9.8302    	145.000000	9.54276   	145.000000	9.50686   	145.000000	9.5049    	145.000000	9.53982   	145.000000	0.00293155	
150.000000	9.60718   	150.000000	9.33571   	150.000000	9.31266   	150.000000	9.29367   	150.000000	9.33286   	150.000000	0.00284291	
155.000000	9.28722   	155.000000	9.14068   	155.000000	9.12973   	155.000000	9.09491   	155.000000	9.13792   	155.000000	0.0027597 	
160.000000	9.1027    	160.000000	8.95666   	160.000000	8.9568    	160.000000	8.90754   	160.000000	8.95398   	160.000000	0.00268143	
165.000000	8.92829   	165.000000	8.78275   	165.000000	8.7927    	165.000000	8.73063   	165.000000	8.78014   	165.000000	0.00260767	
170.000000	8.76315   	170.000000	8.61815   	170.000000	8.63722   	170.000000	8.56334   	170.000000	8.61561   	170.000000	0.00253802	
175.000000	8.60657   	175.000000	8.46213   	175.000000	8.48991   	175.000000	8.4049    	175.000000	8.45965   	175.000000	0.00247216	
180.000000	8.45787   	180.000000	8.31404   	180.000000	8.35007   	180.000000	8.25464   	180.000000	8.31163   	180.000000	0.00240978	
185.000000	8.31648   	185.000000	8.1733    	185.000000	8.21694   	185.000000	8.11196   	185.000000	8.17095   	185.000000	0.00235059	
190.000000	8.18185   	190.000000	8.03939   	190.000000	8.08983   	190.000000	7.97629   	190.000000	8.0371    	190.000000	0.00229437	
195.000000	8.05352   	195.000000	7.91182   	195.000000	7.96819   	195.000000	7.84714   	195.000000	7.90957   	195.000000	0.00224089	
200.000000	7.93104   	200.000000	7.79015   	200.000000	7.85195   	200.000000	7.72406   	200.000000	7.78796   	200.000000	0.00218996	
210.000000	7.70211   	210.000000	7.56298   	210.000000	7.63598   	210.000000	7.4945    	210.000000	7.56088   	210.000000	0.002095  	
220.000000	7.49228   	220.000000	7.35511   	220.000000	7.43667   	220.000000	7.28471   	220.000000	7.3531    	220.000000	0.00200827	
230.000000	7.29926   	230.000000	7.1642    	230.000000	7.25404   	230.000000	7.0923    	230.000000	7.16227   	230.000000	0.00192872	
240.000000	7.12107   	240.000000	6.98829   	240.000000	7.08536   	240.000000	6.91522   	240.000000	6.98644   	240.000000	0.00185547	
250.000000	6.95608   	250.000000	6.82571   	250.000000	6.92915   	250.000000	6.75174   	250.000000	6.82392   	250.000000	0.00178781	
260.000000	6.80287   	260.000000	6.67501   	260.000000	6.7841    	260.000000	6.60039   	260.000000	6.67328   	260.000000	0.00172511	
270.000000	6.66021   	270.000000	6.53496   	270.000000	6.64878   	270.000000	6.4599    	270.000000	6.53329   	270.000000	0.00166683	
280.000000	6.52706   	280.000000	6.40449   	280.000000	6.52283   	280.000000	6.32916   	280.000000	6.40287   	280.000000	0.00161252	
290.000000	6.40249   	290.000000	6.28267   	290.000000	6.4053    	290.000000	6.20722   	290.000000	6.2811    	290.000000	0.00156177	
300.000000	6.28571   	300.000000	6.16868   	300.000000	6.29495   	300.000000	6.09324   	300.000000	6.16717   	300.000000	0.00151425	
310.000000	6.17602   	310.000000	6.06181   	310.000000	6.19122   	310.000000	5.98649   	310.000000	6.06035   	310.000000	0.00146966	
320.000000	6.07279   	320.000000	5.96144   	320.000000	6.09389   	320.000000	5.88633   	320.000000	5.96001   	320.000000	0.00142771	
330.000000	5.97548   	330.000000	5.86699   	330.000000	6.00231   	330.000000	5.79218   	330.000000	5.8656    	330.000000	0.00138819	
340.000000	5.8836    	340.000000	5.77798   	340.000000	5.91605   	340.000000	5.70353   	340.000000	5.77663   	340.000000	0.00135089	
350.000000	5.79671   	350.000000	5.69396   	350.000000	5.83468   	350.000000	5.61994   	350.000000	5.69264   	350.000000	0.00131562	
360.000000	5.71443   	360.000000	5.61453   	360.000000	5.75756   	360.000000	5.541     	360.000000	5.61325   	360.000000	0.00128222	
370.000000	5.6364    	370.000000	5.53935   	370.000000	5.68433   	370.000000	5.46634   	370.000000	5.5381    	370.000000	0.00125054	
380.000000	5.56232   	380.000000	5.46809   	380.000000	5.61494   	380.000000	5.39565   	380.000000	5.46687   	380.000000	0.00122045	
390.000000	5.49189   	390.000000	5.40047   	390.000000	5.54918   	390.000000	5.32863   	390.000000	5.39928   	390.000000	0.00119183	
400.000000	5.42487   	400.000000	5.33622   	400.000000	5.48678   	400.000000	5.26501   	400.000000	5.33506   	400.000000	0.00116458	
410.000000	5.36102   	410.000000	5.27511   	410.000000	5.42733   	410.000000	5.20455   	410.000000	5.27397   	410.000000	0.00113859	
420.000000	5.30012   	420.000000	5.21693   	420.000000	5.37048   	420.000000	5.14704   	420.000000	5.21582   	420.000000	0.00111379	
430.000000	5.24198   	430.000000	5.16147   	430.000000	5.31632   	430.000000	5.09227   	430.000000	5.16038   	430.000000	0.00109008	
440.000000	5.18644   	440.000000	5.10857   	440.000000	5.26492   	440.000000	5.04006   	440.000000	5.1075    	440.000000	0.00106741	
450.000000	5.13332   	450.000000	5.05805   	450.000000	5.21594   	450.000000	4.99026   	450.000000	5.05701   	450.000000	0.00104569	
460.000000	5.08247   	460.000000	5.00977   	460.000000	5.16899   	460.000000	4.9427    	460.000000	5.00875   	460.000000	0.00102488	
470.000000	5.03377   	470.000000	4.9636    	470.000000	5.12394   	470.000000	4.89725   	470.000000	4.96259   	470.000000	0.00100491	
480.000000	4.98709   	480.000000	4.91939   	480.000000	5.0808    	480.000000	4.85377   	480.000000	4.91841   	480.000000	0.000985736	
490.000000	4.9423    	490.000000	4.87705   	490.000000	5.03954   	490.000000	4.81216   	490.000000	4.87608   	490.000000	0.000967309	
500.000000	4.89931   	500.000000	4.83646   	500.000000	5.00003   	500.000000	4.7723    	500.000000	4.83551   	500.000000	0.000949586	
520.000000	4.81832   	520.000000	4.76014   	520.000000	4.92582   	520.000000	4.69743   	520.000000	4.75922   	520.000000	0.000916093	
540.000000	4.74341   	540.000000	4.68973   	540.000000	4.85705   	540.000000	4.62846   	540.000000	4.68884   	540.000000	0.00088497	
560.000000	4.67397   	560.000000	4.62461   	560.000000	4.79344   	560.000000	4.56475   	560.000000	4.62376   	560.000000	0.000855972	
580.000000	4.60946   	580.000000	4.56426   	580.000000	4.73486   	580.000000	4.50578   	580.000000	4.56343   	580.000000	0.000828886	
600.000000	4.54943   	600.000000	4.50822   	600.000000	4.68031   	600.000000	4.45107   	600.000000	4.50741   	600.000000	0.000803526	
620.000000	4.49346   	620.000000	4.45607   	620.000000	4.62936   	620.000000	4.40023   	620.000000	4.45529   	620.000000	0.00077973	
640.000000	4.4412    	640.000000	4.40748   	640.000000	4.58193   	640.000000	4.35288   	640.000000	4.40672   	640.000000	0.000757356	
660.000000	4.39233   	660.000000	4.36212   	660.000000	4.53769   	660.000000	4.30871   	660.000000	4.36138   	660.000000	0.000736278	
680.000000	4.34657   	680.000000	4.31972   	680.000000	4.49632   	680.000000	4.26745   	680.000000	4.319     	680.000000	0.000716386	
700.000000	4.30368   	700.000000	4.28003   	700.000000	4.45763   	700.000000	4.22884   	700.000000	4.27933   	700.000000	0.000697581	
720.000000	4.26342   	720.000000	4.24284   	720.000000	4.42138   	720.000000	4.19266   	720.000000	4.24216   	720.000000	0.000679775	
740.000000	4.22559   	740.000000	4.20794   	740.000000	4.38753   	740.000000	4.159     	740.000000	4.20727   	740.000000	0.00066289	
760.000000	4.19002   	760.000000	4.17516   	760.000000	4.35618   	760.000000	4.128     	760.000000	4.17451   	760.000000	0.000646855	
780.000000	4.15654   	780.000000	4.14434   	780.000000	4.32668   	780.000000	4.09884   	780.000000	4.14371   	780.000000	0.000631607	
800.000000	4.12501   	800.000000	4.11534   	800.000000	4.29904   	800.000000	4.07138   	800.000000	4.11472   	800.000000	0.000617087	
820.000000	4.09529   	820.000000	4.08803   	820.000000	4.27306   	820.000000	4.0455    	820.000000	4.08742   	820.000000	0.000603246	
840.000000	4.06726   	840.000000	4.06229   	840.000000	4.24849   	840.000000	4.02109   	840.000000	4.0617    	840.000000	0.000590035	
860.000000	4.04081   	860.000000	4.03801   	860.000000	4.22517   	860.000000	3.99804   	860.000000	4.03744   	860.000000	0.000577412	
880.000000	4.01584   	880.000000	4.0151    	880.000000	4.20307   	880.000000	3.97625   	880.000000	4.01454   	880.000000	0.000565339	
900.000000	3.99226   	900.000000	3.99348   	900.000000	4.18216   	900.000000	3.95565   	900.000000	3.99292   	900.000000	0.000553778	
920.000000	3.96998   	920.000000	3.97304   	920.000000	4.16238   	920.000000	3.93615   	920.000000	3.9725    	920.000000	0.000542699	
940.000000	3.94892   	940.000000	3.95373   	940.000000	4.14366   	940.000000	3.91768   	940.000000	3.9532    	940.000000	0.000532071	
960.000000	3.92902   	960.000000	3.93548   	960.000000	4.1259    	960.000000	3.90018   	960.000000	3.93495   	960.000000	0.000521867	
980.000000	3.9102    	980.000000	3.91821   	980.000000	4.10905   	980.000000	3.88359   	980.000000	3.9177    	980.000000	0.000512062	
1000.000000	3.89241   	1000.000000	3.90188   	1000.000000	4.09305   	1000.000000	3.86784   	1000.000000	3.90138   	1000.000000	0.000502632	
1020.000000	3.87559   	1020.000000	3.88642   	1020.000000	4.07787   	1020.000000	3.85289   	1020.000000	3.88593   	1020.000000	0.000493556	
1040.000000	3.85968   	1040.000000	3.8718    	1040.000000	4.06346   	1040.000000	3.8387    	1040.000000	3.87132   	1040.000000	0.000484815	
1060.000000	3.84464   	1060.000000	3.85796   	1060.000000	4.04977   	1060.000000	3.82521   	1060.000000	3.85748   	1060.000000	0.000476389	
1080.000000	3.83043   	1080.000000	3.84486   	1080.000000	4.03674   	1080.000000	3.81238   	1080.000000	3.84439   	1080.000000	0.000468262	
1100.000000	3.817     	1100.000000	3.83246   	1100.000000	4.02431   	1100.000000	3.80018   	1100.000000	3.832     	1100.000000	0.000460418	
1120.000000	3.80431   	1120.000000	3.82073   	1120.000000	4.01244   	1120.000000	3.78858   	1120.000000	3.82028   	1120.000000	0.000452843	
1140.000000	3.79232   	1140.000000	3.80963   	1140.000000	4.0011    	1140.000000	3.77754   	1140.000000	3.80918   	1140.000000	0.000445522	
1160.000000	3.78101   	1160.000000	3.79912   	1160.000000	3.99028   	1160.000000	3.76702   	1160.000000	3.79869   	1160.000000	0.000438443	
1180.000000	3.77034   	1180.000000	3.78919   	1180.000000	3.97999   	1180.000000	3.75701   	1180.000000	3.78876   	1180.000000	0.000431593	
1200.000000	3.76028   	1200.000000	3.77979   	1200.000000	3.9702    	1200.000000	3.74747   	1200.000000	3.77937   	1200.000000	0.000424962	
1220.000000	3.7508    	1220.000000	3.77091   	1220.000000	3.9609    	1220.000000	3.73838   	1220.000000	3.77049   	1220.000000	0.00041854	
1240.000000	3.74188   	1240.000000	3.76252   	1240.000000	3.95207   	1240.000000	3.72972   	1240.000000	3.76211   	1240.000000	0.000412316	
1260.000000	3.73349   	1260.000000	3.7546    	1260.000000	3.94366   	1260.000000	3.72146   	1260.000000	3.75419   	1260.000000	0.000406281	
1280.000000	3.72561   	1280.000000	3.74712   	1280.000000	3.93564   	1280.000000	3.71359   	1280.000000	3.74672   	1280.000000	0.000400427	
1300.000000	3.71821   	1300.000000	3.74007   	1300.000000	3.92797   	1300.000000	3.70608   	1300.000000	3.73968   	1300.000000	0.000394746	
1320.000000	3.71128   	1320.000000	3.73343   	1320.000000	3.92063   	1320.000000	3.69892   	1320.000000	3.73304   	1320.000000	0.00038923	
1340.000000	3.7048    	1340.000000	3.72717   	1340.000000	3.9136    	1340.000000	3.6921    	1340.000000	3.72679   	1340.000000	0.000383871	
1360.000000	3.69875   	1360.000000	3.72129   	1360.000000	3.90687   	1360.000000	3.68558   	1360.000000	3.72091   	1360.000000	0.000378663	
1380.000000	3.69311   	1380.000000	3.71576   	1380.000000	3.90044   	1380.000000	3.67937   	1380.000000	3.71539   	1380.000000	0.0003736 	
1400.000000	3.68786   	1400.000000	3.71057   	1400.000000	3.8943    	1400.000000	3.67345   	1400.000000	3.7102    	1400.000000	0.000368676	
1420.000000	3.68299   	1420.000000	3.70571   	1420.000000	3.88845   	1420.000000	3.66779   	1420.000000	3.70535   	1420.000000	0.000363884	
1440.000000	3.67849   	1440.000000	3.70117   	1440.000000	3.88288   	1440.000000	3.6624    	1440.000000	3.70081   	1440.000000	0.000359221	
1460.000000	3.67434   	1460.000000	3.69692   	1460.000000	3.87758   	1460.000000	3.65726   	1460.000000	3.69656   	1460.000000	0.000354679	
1480.000000	3.67053   	1480.000000	3.69296   	1480.000000	3.87254   	1480.000000	3.65235   	1480.000000	3.69261   	1480.000000	0.000350255	
1500.000000	3.66704   	1500.000000	3.68928   	1500.000000	3.86774   	1500.000000	3.64767   	1500.000000	3.68893   	1500.000000	0.000345945	
1520.000000	3.66387   	1520.000000	3.68587   	1520.000000	3.86316   	1520.000000	3.64321   	1520.000000	3.68552   	1520.000000	0.000341743	
1540.000000	3.661     	1540.000000	3.68271   	1540.000000	3.8588    	1540.000000	3.63895   	1540.000000	3.68237   	1540.000000	0.000337646	
1560.000000	3.65842   	1560.000000	3.6798    	1560.000000	3.85464   	1560.000000	3.6349    	1560.000000	3.67946   	1560.000000	0.000333649	
1580.000000	3.65613   	1580.000000	3.67712   	1580.000000	3.85066   	1580.000000	3.63103   	1580.000000	3.67679   	1580.000000	0.000329749	
1600.000000	3.6541    	1600.000000	3.67468   	1600.000000	3.84687   	1600.000000	3.62735   	1600.000000	3.67435   	1600.000000	0.000325943	
1620.000000	3.65234   	1620.000000	3.67245   	1620.000000	3.84324   	1620.000000	3.62384   	1620.000000	3.67213   	1620.000000	0.000322227	
1640.000000	3.65084   	1640.000000	3.67044   	1640.000000	3.83977   	1640.000000	3.6205    	1640.000000	3.67012   	1640.000000	0.000318598	
1660.000000	3.64958   	1660.000000	3.66863   	1660.000000	3.83646   	1660.000000	3.61732   	1660.000000	3.66831   	1660.000000	0.000315053	
1680.000000	3.64855   	1680.000000	3.66702   	1680.000000	3.83329   	1680.000000	3.61429   	1680.000000	3.6667    	1680.000000	0.000311589	
1700.000000	3.64776   	1700.000000	3.66559   	1700.000000	3.83028   	1700.000000	3.61141   	1700.000000	3.66529   	1700.000000	0.000308202	
1750.000000	3.64674   	1750.000000	3.66283   	1750.000000	3.82334   	1750.000000	3.60482   	1750.000000	3.66253   	1750.000000	0.000300062	
1800.000000	3.64701   	1800.000000	3.66112   	1800.000000	3.81721   	1800.000000	3.59903   	1800.000000	3.66083   	1800.000000	0.000292356	
1850.000000	3.64847   	1850.000000	3.66039   	1850.000000	3.81181   	1850.000000	3.59396   	1850.000000	3.6601    	1850.000000	0.000285049	
1900.000000	3.65105   	1900.000000	3.66054   	1900.000000	3.80709   	1900.000000	3.58956   	1900.000000	3.66026   	1900.000000	0.000278111	
1950.000000	3.65465   	1950.000000	3.66152   	1950.000000	3.80298   	1950.000000	3.58575   	1950.000000	3.66125   	1950.000000	0.000271515	
2000.000000	3.65922   	2000.000000	3.66327   	2000.000000	3.79944   	2000.000000	3.58248   	2000.000000	3.663     	2000.000000	0.000265236	
2100.000000	3.671     	2100.000000	3.66883   	2100.000000	3.79385   	2100.000000	3.5774    	2100.000000	3.66858   	2100.000000	0.000253539	
2200.000000	3.68594   	2200.000000	3.67685   	2200.000000	3.78998   	2200.000000	3.57398   	2200.000000	3.67661   	2200.000000	0.000242863	
2300.000000	3.70369   	2300.000000	3.687     	2300.000000	3.78755   	2300.000000	3.57195   	2300.000000	3.68677   	2300.000000	0.00023308	
2400.000000	3.72394   	2400.000000	3.69902   	2400.000000	3.78631   	2400.000000	3.5711    	2400.000000	3.69879   	2400.000000	0.000224081	
2500.000000	3.74643   	2500.000000	3.71267   	2500.000000	3.78607   	2500.000000	3.57123   	2500.000000	3.71246   	2500.000000	0.000215774	
2600.000000	3.77094   	2600.000000	3.72777   	2600.000000	3.78669   	2600.000000	3.57219   	2600.000000	3.72757   	2600.000000	0.00020808	
2700.000000	3.79728   	2700.000000	3.74416   	2700.000000	3.78805   	2700.000000	3.57387   	2700.000000	3.74396   	2700.000000	0.000200935	
2800.000000	3.82529   	2800.000000	3.7617    	2800.000000	3.79003   	2800.000000	3.57615   	2800.000000	3.76151   	2800.000000	0.000194281	
2900.000000	3.85483   	2900.000000	3.78026   	2900.000000	3.79254   	2900.000000	3.57895   	2900.000000	3.78008   	2900.000000	0.000188067	
3000.000000	3.88576   	3000.000000	3.79975   	3000.000000	3.79552   	3000.000000	3.58218   	3000.000000	3.79957   	3000.000000	0.000182252	
3200.000000	3.95142   	3200.000000	3.84113   	3200.000000	3.80257   	3200.000000	3.58971   	3200.000000	3.84096   	3200.000000	0.000171671	
3400.000000	4.02156   	3400.000000	3.88524   	3400.000000	3.81076   	3400.000000	3.59831   	3400.000000	3.88508   	3400.000000	0.000162289	
3600.000000	4.0956    	3600.000000	3.93161   	3600.000000	3.81976   	3600.000000	3.6077    	3600.000000	3.93146   	3600.000000	0.000153911	
3800.000000	4.1731    	3800.000000	3.97987   	3800.000000	3.82934   	3800.000000	3.61763   	3800.000000	3.97972   	3800.000000	0.000146382	
4000.000000	4.2537    	4000.000000	4.02972   	4000.000000	3.83931   	4000.000000	3.62794   	4000.000000	4.02958   	4000.000000	0.000139578	
4200.000000	4.3371    	4200.000000	4.08092   	4200.000000	3.84953   	4200.000000	3.63849   	4200.000000	4.08079   	4200.000000	0.000133398	
4400.000000	4.42305   	4400.000000	4.13328   	4400.000000	3.85991   	4400.000000	3.64918   	4400.000000	4.13315   	4400.000000	0.000127759	
4600.000000	4.51136   	4600.000000	4.18663   	4600.000000	3.87036   	4600.000000	3.65994   	4600.000000	4.18651   	4600.000000	0.000122592	
4800.000000	4.60185   	4800.000000	4.24084   	4800.000000	3.88082   	4800.000000	3.67071   	4800.000000	4.24072   	4800.000000	0.00011784	
5000.000000	4.69438   	5000.000000	4.2958    	5000.000000	3.89125   	5000.000000	3.68144   	5000.000000	4.29568   	5000.000000	0.000113455	
5250.000000	4.81273   	5250.000000	4.36539   	5250.000000	3.9042    	5250.000000	3.69475   	5250.000000	4.36529   	5250.000000	0.000108425	
5500.000000	4.93387   	5500.000000	4.43585   	5500.000000	3.917     	5500.000000	3.70789   	5500.000000	4.43575   	5500.000000	0.000103837	
6000.000000	5.1839    	6000.000000	4.57887   	6000.000000	3.94205   	6000.000000	3.73358   	6000.000000	4.57877   	6000.000000	9.5766e-05	
6500.000000	5.44343   	6500.000000	4.72406   	6500.000000	3.96628   	6500.000000	3.75832   	6500.000000	4.72397   	6500.000000	8.8894e-05	
7000.000000	5.7117    	7000.000000	4.87086   	7000.000000	3.98928   	7000.000000	3.78206   	7000.000000	4.87077   	7000.000000	8.29696e-05	
7500.000000	5.98815   	7500.000000	5.01887   	7500.000000	4.01142   	7500.000000	3.80478   	7500.000000	5.01879   	7500.000000	7.78078e-05	
8000.000000	6.27237   	8000.000000	5.1678    	8000.000000	4.03254   	8000.000000	3.82653   	8000.000000	5.16773   	8000.000000	7.32688e-05	
8500.000000	6.56403   	8500.000000	5.31742   	8500.000000	4.05263   	8500.000000	3.84732   	8500.000000	5.31735   	8500.000000	6.92453e-05	
9000.000000	6.86289   	9000.000000	5.46756   	9000.000000	4.07179   	9000.000000	3.86722   	9000.000000	5.4675    	9000.000000	6.56534e-05	
9500.000000	7.16875   	9500.000000	5.6181    	9500.000000	4.09014   	9500.000000	3.88627   	9500.000000	5.61804   	9500.000000	6.24266e-05	
10000.000000	7.48143   	10000.000000	5.76892   	10000.000000	4.10774   	10000.000000	3.90453   	10000.000000	5.76886   	10000.000000	5.95113e-05	
11000.000000	8.12684   	11000.000000	6.07113   	11000.000000	4.14064   	11000.000000	3.93884   	11000.000000	6.07107   	11000.000000	5.44491e-05	
12000.000000	8.79836   	12000.000000	6.3737    	12000.000000	4.17069   	12000.000000	3.97054   	12000.000000	6.37365   	12000.000000	5.02029e-05	
13000.000000	9.49548   	13000.000000	6.67635   	13000.000000	4.19844   	13000.000000	3.99993   	13000.000000	6.6763    	13000.000000	4.65885e-05	
14000.000000	10.2179   	14000.000000	6.97887   	14000.000000	4.22431   	14000.000000	4.02729   	14000.000000	6.97882   	14000.000000	4.34733e-05	
15000.000000	10.9653   	15000.000000	7.28112   	15000.000000	4.24842   	15000.000000	4.05286   	15000.000000	7.28108   	15000.000000	4.07598e-05	
16000.000000	11.7376   	16000.000000	7.58302   	16000.000000	4.27072   	16000.000000	4.07684   	16000.000000	7.58298   	16000.000000	3.83744e-05	
17000.000000	12.5348   	17000.000000	7.8845    	17000.000000	4.29135   	17000.000000	4.09939   	17000.000000	7.88447   	17000.000000	3.62603e-05	
18000.000000	13.3567   	18000.000000	8.18554   	18000.000000	4.31052   	18000.000000	4.12067   	18000.000000	8.1855    	18000.000000	3.43733e-05	
19000.000000	14.2034   	19000.000000	8.48609   	19000.000000	4.32841   	19000.000000	4.1408    	19000.000000	8.48606   	19000.000000	3.26785e-05	
20000.000000	15.0749   	20000.000000	8.78616   	20000.000000	4.34522   	20000.000000	4.15989   	20000.000000	8.78613   	20000.000000	3.11476e-05	
21000.000000	15.9712   	21000.000000	9.08573   	21000.000000	4.36114   	21000.000000	4.17804   	21000.000000	9.0857    	21000.000000	2.97577e-05	
22000.000000	16.8923   	22000.000000	9.38479   	22000.000000	4.37633   	22000.000000	4.19533   	22000.000000	9.38477   	22000.000000	2.849e-05 	
23000.000000	17.8384   	23000.000000	9.68337   	23000.000000	4.39054   	23000.000000	4.21183   	23000.000000	9.68334   	23000.000000	2.73289e-05	
24000.000000	18.8095   	24000.000000	9.98144   	24000.000000	4.40392   	24000.000000	4.2276    	24000.000000	9.98142   	24000.000000	2.62614e-05	
25000.000000	19.8056   	25000.000000	10.279    	25000.000000	4.41665   	25000.000000	4.24272   	25000.000000	10.279    	25000.000000	2.52766e-05	
26000.000000	20.827    	26000.000000	10.5761   	26000.000000	4.42871   	26000.000000	4.25721   	26000.000000	10.5761   	26000.000000	2.4365e-05	
27000.000000	21.8736   	27000.000000	10.8728   	27000.000000	4.44011   	27000.000000	4.27114   	27000.000000	10.8728   	27000.000000	2.35187e-05	
28000.000000	22.9456   	28000.000000	11.169    	28000.000000	4.45091   	28000.000000	4.28454   	28000.000000	11.1689   	28000.000000	2.27309e-05	
29000.000000	24.0431   	29000.000000	11.4647   	29000.000000	4.46119   	29000.000000	4.29745   	29000.000000	11.4647   	29000.000000	2.19957e-05	
30000.000000	25.1662   	30000.000000	11.76     	30000.000000	4.471     	30000.000000	4.30991   	30000.000000	11.76     	30000.000000	2.13079e-05	
32000.000000	27.4897   	32000.000000	12.3493   	32000.000000	4.48932   	32000.000000	4.33355   	32000.000000	12.3492   	32000.000000	2.00572e-05	
34000.000000	29.9171   	34000.000000	12.9369   	34000.000000	4.50605   	34000.000000	4.3557    	34000.000000	12.9368   	34000.000000	1.89489e-05	
36000.000000	32.4494   	36000.000000	13.5229   	36000.000000	4.52118   	36000.000000	4.3765    	36000.000000	13.5229   	36000.000000	1.796e-05 	
38000.000000	35.0876   	38000.000000	14.1074   	38000.000000	4.53487   	38000.000000	4.39613   	38000.000000	14.1074   	38000.000000	1.70719e-05	
40000.000000	37.8328   	40000.000000	14.6905   	40000.000000	4.54734   	40000.000000	4.41468   	40000.000000	14.6905   	40000.000000	1.62698e-05	
42000.000000	40.6861   	42000.000000	15.2722   	42000.000000	4.55883   	42000.000000	4.43228   	42000.000000	15.2722   	42000.000000	1.55417e-05	
44000.000000	43.6486   	44000.000000	15.8525   	44000.000000	4.56953   	44000.000000	4.44902   	44000.000000	15.8525   	44000.000000	1.48777e-05	
46000.000000	46.7215   	46000.000000	16.4316   	46000.000000	4.5796    	46000.000000	4.46496   	46000.000000	16.4316   	46000.000000	1.42697e-05	
48000.000000	49.906    	48000.000000	17.0095   	48000.000000	4.58905   	48000.000000	4.48019   	48000.000000	17.0095   	48000.000000	1.37107e-05	
50000.000000	53.2031   	50000.000000	17.5862   	50000.000000	4.59771   	50000.000000	4.49476   	50000.000000	17.5861   	50000.000000	1.31951e-05	
