Energy (MeV/u)1	0 - [He-base] F.Hubert et al, AD&ND Tables 46(1990)1	Energy (MeV/u)2	1 - [H -base] J.F.Ziegler et al, Pergamon Press, NY (low energy)	Energy (MeV/u)3	2 - ATIMA 1.2  LS-theory (recommended for high energy)	Energy (MeV/u)4	3 - ATIMA 1.2  without LS-correction	Energy (MeV/u)5	4 - electrical component of [1] - J.F.Ziegler et al	Energy (MeV/u)6	5 - nuclear component of [1] - J.F.Ziegler et al	
0.001000	0.566916  	0.001000	0.2764    	0.001000	0.341211  	0.001000	0.341211  	0.001000	0.148595  	0.001000	0.127805  	
0.002000	0.66329   	0.002000	0.318972  	0.002000	0.403216  	0.002000	0.403216  	0.002000	0.217556  	0.002000	0.101416  	
0.005000	0.933788  	0.005000	0.425537  	0.005000	0.542611  	0.005000	0.542611  	0.005000	0.360112  	0.005000	0.0654256 	
0.008000	1.1603    	0.008000	0.516144  	0.008000	0.653399  	0.008000	0.653399  	0.008000	0.466341  	0.008000	0.0498031 	
0.010000	1.295     	0.010000	0.570581  	0.010000	0.718187  	0.010000	0.718187  	0.010000	0.527234  	0.010000	0.0433462 	
0.015000	1.52091   	0.015000	0.699289  	0.015000	0.862662  	0.015000	0.862662  	0.015000	0.666053  	0.015000	0.0332367 	
0.020000	1.698     	0.020000	0.849557  	0.020000	1.00548   	0.020000	1.00548   	0.020000	0.822279  	0.020000	0.0272784 	
0.025000	1.89061   	0.025000	0.995072  	0.025000	1.14268   	0.025000	1.14268   	0.025000	0.971992  	0.025000	0.0230806 	
0.030000	2.04676   	0.030000	1.13121   	0.030000	1.2174    	0.030000	1.2174    	0.030000	1.11098   	0.030000	0.0202386 	
0.035000	2.17166   	0.035000	1.25437   	0.035000	1.29343   	0.035000	1.29343   	0.035000	1.2363    	0.035000	0.0180755 	
0.040000	2.26747   	0.040000	1.36674   	0.040000	1.36969   	0.040000	1.36969   	0.040000	1.35038   	0.040000	0.0163679 	
0.045000	2.33575   	0.045000	1.46842   	0.045000	1.44527   	0.045000	1.44527   	0.045000	1.45344   	0.045000	0.014982  	
0.050000	2.37844   	0.050000	1.55984   	0.050000	1.51944   	0.050000	1.51944   	0.050000	1.546     	0.050000	0.0138322 	
0.055000	2.47309   	0.055000	1.64158   	0.055000	1.59152   	0.055000	1.59152   	0.055000	1.62872   	0.055000	0.0128612 	
0.060000	2.5518    	0.060000	1.71436   	0.060000	1.66097   	0.060000	1.66097   	0.060000	1.70233   	0.060000	0.0120292 	
0.070000	2.66645   	0.070000	1.836     	0.070000	1.79018   	0.070000	1.79018   	0.070000	1.82533   	0.070000	0.0106748 	
0.080000	2.78936   	0.080000	1.93059   	0.080000	1.90433   	0.080000	1.90433   	0.080000	1.92097   	0.080000	0.00961638	
0.090000	2.87795   	0.090000	2.00334   	0.090000	2.00195   	0.090000	2.00195   	0.090000	1.99458   	0.090000	0.00876425	
0.100000	2.94334   	0.100000	2.05865   	0.100000	2.08268   	0.100000	2.08268   	0.100000	2.05059   	0.100000	0.00806201	
0.120000	2.98487   	0.120000	2.15661   	0.120000	2.19619   	0.120000	2.19619   	0.120000	2.14964   	0.120000	0.00696952	
0.140000	2.9921    	0.140000	2.21545   	0.140000	2.25535   	0.140000	2.25535   	0.140000	2.20929   	0.140000	0.00615591	
0.160000	2.99236   	0.160000	2.25257   	0.160000	2.2741    	0.160000	2.2741    	0.160000	2.24705   	0.160000	0.00552439	
0.180000	2.98871   	0.180000	2.26741   	0.180000	2.26551   	0.180000	2.26551   	0.180000	2.26239   	0.180000	0.00501875	
0.200000	2.99663   	0.200000	2.27845   	0.200000	2.23993   	0.200000	2.23993   	0.200000	2.27384   	0.200000	0.00460396	
0.250000	2.93531   	0.250000	2.27057   	0.250000	2.14425   	0.250000	2.14425   	0.250000	2.26674   	0.250000	0.00383073	
0.300000	2.92573   	0.300000	2.27398   	0.300000	2.05604   	0.300000	2.05604   	0.300000	2.27068   	0.300000	0.00329275	
0.350000	2.89172   	0.350000	2.24173   	0.350000	1.97699   	0.350000	1.97699   	0.350000	2.23884   	0.350000	0.00289517	
0.400000	2.84291   	0.400000	2.19318   	0.400000	1.90405   	0.400000	1.90405   	0.400000	2.19059   	0.400000	0.00258846	
0.450000	2.77866   	0.450000	2.13135   	0.450000	1.83621   	0.450000	1.83621   	0.450000	2.12901   	0.450000	0.00234413	
0.500000	2.7162    	0.500000	2.07229   	0.500000	1.77622   	0.500000	1.77622   	0.500000	2.07015   	0.500000	0.00214455	
0.600000	2.49273   	0.600000	1.95143   	0.600000	1.67382   	0.600000	1.67382   	0.600000	1.9496    	0.600000	0.00183736	
0.700000	2.26899   	0.700000	1.82942   	0.700000	1.58793   	0.700000	1.58793   	0.700000	1.82781   	0.700000	0.00161129	
0.800000	2.17012   	0.800000	1.74126   	0.800000	1.51333   	0.800000	1.51333   	0.800000	1.73982   	0.800000	0.00143747	
0.900000	2.06479   	0.900000	1.65109   	0.900000	1.44702   	0.900000	1.44702   	0.900000	1.64979   	0.900000	0.00129939	
1.000000	1.96024   	1.000000	1.56338   	1.000000	1.38358   	1.000000	1.38358   	1.000000	1.56219   	1.000000	0.00118687	
1.250000	1.72045   	1.250000	1.37115   	1.250000	1.25135   	1.250000	1.25135   	1.250000	1.37017   	1.250000	0.000979007	
1.500000	1.49373   	1.500000	1.18819   	1.500000	1.14475   	1.500000	1.14475   	1.500000	1.18736   	1.500000	0.000835934	
1.750000	1.32757   	1.750000	1.05895   	1.750000	1.05514   	1.750000	1.05514   	1.750000	1.05822   	1.750000	0.000731077	
2.000000	1.19909   	2.000000	0.961584  	2.000000	0.978346  	2.000000	0.978346  	2.000000	0.960933  	2.000000	0.00065073	
2.250000	1.09765   	2.250000	0.884721  	2.250000	0.911506  	2.250000	0.911506  	2.250000	0.884134  	2.250000	0.000587081	
2.500000	0.979644  	2.500000	0.82189   	2.500000	0.852951  	2.500000	0.852951  	2.500000	0.821355  	2.500000	0.00053534	
3.000000	0.860778  	3.000000	0.723968  	3.000000	0.755662  	3.000000	0.755662  	3.000000	0.723512  	3.000000	0.000456164	
3.500000	0.769179  	3.500000	0.650013  	3.500000	0.678575  	3.500000	0.678575  	3.500000	0.649614  	3.500000	0.000398279	
4.000000	0.696309  	4.000000	0.591561  	4.000000	0.616311  	4.000000	0.616311  	4.000000	0.591207  	4.000000	0.000354013	
4.500000	0.636875  	4.500000	0.543959  	4.500000	0.56513   	4.500000	0.56513   	4.500000	0.54364   	4.500000	0.000319006	
5.000000	0.587421  	5.000000	0.504342  	5.000000	0.522387  	5.000000	0.522387  	5.000000	0.504051  	5.000000	0.000290589	
5.500000	0.545589  	5.500000	0.470805  	5.500000	0.48618   	5.500000	0.48618   	5.500000	0.470538  	5.500000	0.000267036	
6.000000	0.509716  	6.000000	0.442017  	6.000000	0.455121  	6.000000	0.455121  	6.000000	0.44177   	6.000000	0.000247181	
6.500000	0.478593  	6.500000	0.41701   	6.500000	0.428179  	6.500000	0.428179  	6.500000	0.41678   	6.500000	0.000230203	
7.000000	0.45132   	7.000000	0.395066  	7.000000	0.404574  	7.000000	0.404574  	7.000000	0.394851  	7.000000	0.00021551	
7.500000	0.427213  	7.500000	0.375638  	7.500000	0.383712  	7.500000	0.383712  	7.500000	0.375436  	7.500000	0.000202663	
8.000000	0.405742  	8.000000	0.358303  	8.000000	0.365128  	8.000000	0.365128  	8.000000	0.358112  	8.000000	0.000191331	
8.500000	0.386489  	8.500000	0.342728  	8.500000	0.34846   	8.500000	0.34846   	8.500000	0.342547  	8.500000	0.000181255	
9.000000	0.369122  	9.000000	0.328648  	9.000000	0.333415  	9.000000	0.333415  	9.000000	0.328476  	9.000000	0.000172235	
9.500000	0.353373  	9.500000	0.31585   	9.500000	0.31976   	9.500000	0.31976   	9.500000	0.315685  	9.500000	0.000164111	
10.000000	0.339021  	10.000000	0.307084  	10.000000	0.307304  	10.000000	0.307304  	10.000000	0.306927  	10.000000	0.000156754	
11.000000	0.313814  	11.000000	0.285824  	11.000000	0.285164  	11.000000	0.285217  	11.000000	0.28568   	11.000000	0.000143936	
12.000000	0.29238   	12.000000	0.267502  	12.000000	0.266287  	12.000000	0.266373  	12.000000	0.267369  	12.000000	0.00013314	
13.000000	0.273919  	13.000000	0.251548  	13.000000	0.249978  	13.000000	0.250084  	13.000000	0.251424  	13.000000	0.000123916	
14.000000	0.257842  	14.000000	0.237526  	14.000000	0.235732  	14.000000	0.235846  	14.000000	0.23741   	14.000000	0.00011594	
15.000000	0.243709  	15.000000	0.225104  	15.000000	0.22317   	15.000000	0.223284  	15.000000	0.224995  	15.000000	0.000108971	
16.000000	0.231182  	16.000000	0.214019  	16.000000	0.211997  	16.000000	0.212109  	16.000000	0.213917  	16.000000	0.000102827	
17.000000	0.219996  	17.000000	0.204066  	17.000000	0.201988  	17.000000	0.202097  	17.000000	0.203968  	17.000000	9.73682e-05	
18.000000	0.209945  	18.000000	0.195076  	18.000000	0.19297   	18.000000	0.193072  	18.000000	0.194983  	18.000000	9.24839e-05	
19.000000	0.20086   	19.000000	0.186914  	19.000000	0.184797  	19.000000	0.184891  	19.000000	0.186826  	19.000000	8.80867e-05	
20.000000	0.192607  	20.000000	0.179471  	20.000000	0.177349  	20.000000	0.177439  	20.000000	0.179387  	20.000000	8.41064e-05	
21.000000	0.185075  	21.000000	0.172653  	21.000000	0.170534  	21.000000	0.170621  	21.000000	0.172573  	21.000000	8.04854e-05	
22.000000	0.17817   	22.000000	0.166385  	22.000000	0.164283  	22.000000	0.164359  	22.000000	0.166307  	22.000000	7.71766e-05	
23.000000	0.171818  	23.000000	0.160601  	23.000000	0.158526  	23.000000	0.158587  	23.000000	0.160526  	23.000000	7.41406e-05	
24.000000	0.165952  	24.000000	0.155246  	24.000000	0.153199  	24.000000	0.153249  	24.000000	0.155175  	24.000000	7.13446e-05	
25.000000	0.160518  	25.000000	0.150275  	25.000000	0.148255  	25.000000	0.148298  	25.000000	0.150206  	25.000000	6.87607e-05	
27.000000	0.150764  	27.000000	0.141325  	27.000000	0.139371  	27.000000	0.139401  	27.000000	0.14126   	27.000000	6.41386e-05	
29.000000	0.142255  	29.000000	0.133489  	29.000000	0.131622  	29.000000	0.131635  	29.000000	0.133429  	29.000000	6.01226e-05	
31.000000	0.134763  	31.000000	0.12657   	31.000000	0.124846  	31.000000	0.124842  	31.000000	0.126514  	31.000000	5.65994e-05	
33.000000	0.128112  	33.000000	0.120413  	33.000000	0.118861  	33.000000	0.118842  	33.000000	0.12036   	33.000000	5.34823e-05	
35.000000	0.122166  	35.000000	0.114898  	35.000000	0.113496  	35.000000	0.113464  	35.000000	0.114847  	35.000000	5.07041e-05	
38.000000	0.114338  	38.000000	0.107622  	38.000000	0.106412  	38.000000	0.106365  	38.000000	0.107575  	38.000000	4.7059e-05	
41.000000	0.107576  	41.000000	0.101323  	41.000000	0.100274  	41.000000	0.100213  	41.000000	0.10128   	41.000000	4.3922e-05	
44.000000	0.101671  	44.000000	0.0958163 	44.000000	0.0948995 	44.000000	0.0948287 	44.000000	0.0957751 	44.000000	4.11927e-05	
47.000000	0.0964691 	47.000000	0.0909583 	47.000000	0.0901552 	47.000000	0.0900735 	47.000000	0.0909195 	47.000000	3.87954e-05	
50.000000	0.0918481 	50.000000	0.0866396 	50.000000	0.0859224 	50.000000	0.0858415 	50.000000	0.0866029 	50.000000	3.66722e-05	
55.000000	0.0851919 	55.000000	0.0804143 	55.000000	0.0798175 	55.000000	0.0797323 	55.000000	0.0803807 	55.000000	3.36249e-05	
60.000000	0.0795716 	60.000000	0.0751559 	60.000000	0.0746543 	60.000000	0.0745627 	60.000000	0.0751248 	60.000000	3.10625e-05	
65.000000	0.0747588 	65.000000	0.0706528 	65.000000	0.0702173 	65.000000	0.0701283 	65.000000	0.070624  	65.000000	2.88767e-05	
70.000000	0.0705878 	70.000000	0.0667517 	70.000000	0.0663782 	70.000000	0.0662804 	70.000000	0.0667247 	70.000000	2.69891e-05	
75.000000	0.0669357 	75.000000	0.063338  	75.000000	0.0630012 	75.000000	0.0629084 	75.000000	0.0633127 	75.000000	2.53419e-05	
80.000000	0.0637096 	80.000000	0.060325  	80.000000	0.0600248 	80.000000	0.059928  	80.000000	0.0603011 	80.000000	2.38914e-05	
85.000000	0.0608375 	85.000000	0.0576451 	85.000000	0.0573659 	85.000000	0.0572739 	85.000000	0.0576225 	85.000000	2.26039e-05	
90.000000	0.0582629 	90.000000	0.0552456 	90.000000	0.05499   	90.000000	0.0548946 	90.000000	0.0552242 	90.000000	2.14532e-05	
95.000000	0.0559408 	95.000000	0.0530842 	95.000000	0.0528401 	95.000000	0.052749  	95.000000	0.0530638 	95.000000	2.04181e-05	
100.000000	0.0538351 	100.000000	0.0511268 	100.000000	0.0508981 	100.000000	0.050804  	100.000000	0.0511073 	100.000000	1.9482e-05	
105.000000	0.0519162 	105.000000	0.0493456 	105.000000	0.0491226 	105.000000	0.0490325 	105.000000	0.0493269 	105.000000	1.86311e-05	
110.000000	0.0501596 	110.000000	0.0477175 	110.000000	0.047504  	110.000000	0.0474119 	110.000000	0.0476996 	110.000000	1.78542e-05	
115.000000	0.0485451 	115.000000	0.0462235 	115.000000	0.0460138 	115.000000	0.0459237 	115.000000	0.0462063 	115.000000	1.71418e-05	
120.000000	0.0470558 	120.000000	0.0448475 	120.000000	0.0446412 	120.000000	0.044552  	120.000000	0.044831  	120.000000	1.64862e-05	
125.000000	0.0456773 	125.000000	0.043576  	125.000000	0.0433745 	125.000000	0.0432837 	125.000000	0.0435601 	125.000000	1.58807e-05	
130.000000	0.0443973 	130.000000	0.0423974 	130.000000	0.0421949 	130.000000	0.0421074 	130.000000	0.0423821 	130.000000	1.53198e-05	
135.000000	0.0432054 	135.000000	0.0413019 	135.000000	0.0410974 	135.000000	0.0410134 	135.000000	0.0412871 	135.000000	1.47986e-05	
140.000000	0.0420926 	140.000000	0.0402808 	140.000000	0.0400779 	140.000000	0.0399933 	140.000000	0.0402665 	140.000000	1.43131e-05	
145.000000	0.041051  	145.000000	0.0393268 	145.000000	0.0391253 	145.000000	0.0390398 	145.000000	0.0393129 	145.000000	1.38595e-05	
150.000000	0.0400739 	150.000000	0.0384335 	150.000000	0.0382293 	150.000000	0.0381467 	150.000000	0.03842   	150.000000	1.34349e-05	
155.000000	0.0386981 	155.000000	0.0375951 	155.000000	0.0373914 	155.000000	0.0373082 	155.000000	0.0375821 	155.000000	1.30365e-05	
160.000000	0.0378917 	160.000000	0.0368069 	160.000000	0.0366035 	160.000000	0.0365196 	160.000000	0.0367942 	160.000000	1.26619e-05	
165.000000	0.0371312 	165.000000	0.0360643 	165.000000	0.035858  	165.000000	0.0357765 	165.000000	0.036052  	165.000000	1.2309e-05	
170.000000	0.0364128 	170.000000	0.0353636 	170.000000	0.0351564 	170.000000	0.0350751 	170.000000	0.0353516 	170.000000	1.1976e-05	
175.000000	0.0357331 	175.000000	0.0347012 	175.000000	0.0344945 	175.000000	0.0344119 	175.000000	0.0346895 	175.000000	1.16613e-05	
180.000000	0.0350889 	180.000000	0.0340741 	180.000000	0.0338656 	180.000000	0.0337841 	180.000000	0.0340628 	180.000000	1.13632e-05	
185.000000	0.0344776 	185.000000	0.0334796 	185.000000	0.0332677 	185.000000	0.0331887 	185.000000	0.0334685 	185.000000	1.10806e-05	
190.000000	0.0338966 	190.000000	0.0329151 	190.000000	0.0327005 	190.000000	0.0326234 	190.000000	0.0329043 	190.000000	1.08122e-05	
195.000000	0.0333436 	195.000000	0.0323785 	195.000000	0.032163  	195.000000	0.0320859 	195.000000	0.0323679 	195.000000	1.0557e-05	
200.000000	0.0328168 	200.000000	0.0318677 	200.000000	0.0316525 	200.000000	0.0315743 	200.000000	0.0318573 	200.000000	1.0314e-05	
210.000000	0.0318343 	210.000000	0.0309164 	210.000000	0.0306974 	210.000000	0.0306215 	210.000000	0.0309066 	210.000000	9.86125e-06	
220.000000	0.0309363 	220.000000	0.0300488 	220.000000	0.0298292 	220.000000	0.0297525 	220.000000	0.0300393 	220.000000	9.44797e-06	
230.000000	0.0301123 	230.000000	0.0292542 	230.000000	0.0290321 	230.000000	0.0289567 	230.000000	0.0292451 	230.000000	9.06914e-06	
240.000000	0.0293534 	240.000000	0.0285238 	240.000000	0.0282977 	240.000000	0.0282255 	240.000000	0.028515  	240.000000	8.72057e-06	
250.000000	0.0286523 	250.000000	0.0278502 	250.000000	0.0276239 	250.000000	0.0275512 	250.000000	0.0278418 	250.000000	8.39874e-06	
260.000000	0.0280024 	260.000000	0.027227  	260.000000	0.0270001 	260.000000	0.0269277 	260.000000	0.0272189 	260.000000	8.10065e-06	
270.000000	0.0273984 	270.000000	0.0266489 	270.000000	0.0264203 	270.000000	0.0263495 	270.000000	0.0266411 	270.000000	7.82374e-06	
280.000000	0.0268357 	280.000000	0.0261112 	280.000000	0.0258837 	280.000000	0.0258119 	280.000000	0.0261036 	280.000000	7.56579e-06	
290.000000	0.02631   	290.000000	0.0256098 	290.000000	0.0253815 	290.000000	0.0253108 	290.000000	0.0256025 	290.000000	7.32491e-06	
300.000000	0.0258179 	300.000000	0.0251412 	300.000000	0.0249113 	300.000000	0.0248428 	300.000000	0.0251341 	300.000000	7.09943e-06	
310.000000	0.0253563 	310.000000	0.0247024 	310.000000	0.0244724 	310.000000	0.0244048 	310.000000	0.0246956 	310.000000	6.8879e-06	
320.000000	0.0249224 	320.000000	0.0242907 	320.000000	0.0240625 	320.000000	0.023994  	320.000000	0.024284  	320.000000	6.68905e-06	
330.000000	0.0245139 	330.000000	0.0239036 	330.000000	0.0236761 	330.000000	0.023608  	330.000000	0.0238971 	330.000000	6.50177e-06	
340.000000	0.0241286 	340.000000	0.0235391 	340.000000	0.0233112 	340.000000	0.0232448 	340.000000	0.0235328 	340.000000	6.32506e-06	
350.000000	0.0237646 	350.000000	0.0231953 	350.000000	0.0229674 	350.000000	0.0229025 	350.000000	0.0231892 	350.000000	6.15804e-06	
360.000000	0.0234203 	360.000000	0.0228705 	360.000000	0.0226441 	360.000000	0.0225793 	360.000000	0.0228645 	360.000000	5.99992e-06	
370.000000	0.023094  	370.000000	0.0225633 	370.000000	0.0223393 	370.000000	0.0222737 	370.000000	0.0225574 	370.000000	5.85e-06  	
380.000000	0.0227845 	380.000000	0.0222722 	380.000000	0.0220494 	380.000000	0.0219845 	380.000000	0.0222665 	380.000000	5.70765e-06	
390.000000	0.0224905 	390.000000	0.0219962 	390.000000	0.0217741 	390.000000	0.0217103 	390.000000	0.0219906 	390.000000	5.57231e-06	
400.000000	0.0222109 	400.000000	0.021734  	400.000000	0.0215141 	400.000000	0.0214501 	400.000000	0.0217286 	400.000000	5.44347e-06	
410.000000	0.0219448 	410.000000	0.0214847 	410.000000	0.0212675 	410.000000	0.0212029 	410.000000	0.0214794 	410.000000	5.32066e-06	
420.000000	0.0216911 	420.000000	0.0212475 	420.000000	0.0210319 	420.000000	0.0209678 	420.000000	0.0212423 	420.000000	5.20346e-06	
430.000000	0.0214491 	430.000000	0.0210214 	430.000000	0.0208069 	430.000000	0.020744  	430.000000	0.0210164 	430.000000	5.0915e-06	
440.000000	0.021218  	440.000000	0.0208059 	440.000000	0.0205925 	440.000000	0.0205306 	440.000000	0.0208009 	440.000000	4.98442e-06	
450.000000	0.0209972 	450.000000	0.0206001 	450.000000	0.0203883 	450.000000	0.0203271 	450.000000	0.0205952 	450.000000	4.88191e-06	
460.000000	0.0207859 	460.000000	0.0204035 	460.000000	0.0201941 	460.000000	0.0201328 	460.000000	0.0203987 	460.000000	4.78368e-06	
470.000000	0.0205836 	470.000000	0.0202154 	470.000000	0.0200089 	470.000000	0.0199472 	470.000000	0.0202107 	470.000000	4.68947e-06	
480.000000	0.0203898 	480.000000	0.0200355 	480.000000	0.0198314 	480.000000	0.0197696 	480.000000	0.0200309 	480.000000	4.59902e-06	
490.000000	0.020204  	490.000000	0.0198631 	490.000000	0.0196609 	490.000000	0.0195996 	490.000000	0.0198586 	490.000000	4.51212e-06	
500.000000	0.0200257 	500.000000	0.0196979 	500.000000	0.0194973 	500.000000	0.0194369 	500.000000	0.0196935 	500.000000	4.42856e-06	
520.000000	0.01969   	520.000000	0.0193874 	520.000000	0.01919   	520.000000	0.0191311 	520.000000	0.0193832 	520.000000	4.2707e-06	
540.000000	0.0193797 	540.000000	0.019101  	540.000000	0.0189085 	540.000000	0.0188495 	540.000000	0.0190969 	540.000000	4.12408e-06	
560.000000	0.0190924 	560.000000	0.0188362 	560.000000	0.0186487 	560.000000	0.0185894 	560.000000	0.0188322 	560.000000	3.98753e-06	
580.000000	0.0188256 	580.000000	0.0185908 	580.000000	0.0184068 	580.000000	0.0183486 	580.000000	0.0185869 	580.000000	3.86003e-06	
600.000000	0.0185774 	600.000000	0.0183629 	600.000000	0.0181833 	600.000000	0.0181253 	600.000000	0.0183592 	600.000000	3.7407e-06	
620.000000	0.0183462 	620.000000	0.0181509 	620.000000	0.0179762 	620.000000	0.0179177 	620.000000	0.0181473 	620.000000	3.62878e-06	
640.000000	0.0181304 	640.000000	0.0179534 	640.000000	0.0177824 	640.000000	0.0177243 	640.000000	0.0179499 	640.000000	3.52358e-06	
660.000000	0.0179288 	660.000000	0.017769  	660.000000	0.0176009 	660.000000	0.017544  	660.000000	0.0177656 	660.000000	3.42451e-06	
680.000000	0.01774   	680.000000	0.0175966 	680.000000	0.0174315 	680.000000	0.0173755 	680.000000	0.0175933 	680.000000	3.33105e-06	
700.000000	0.0175631 	700.000000	0.0174352 	700.000000	0.0172735 	700.000000	0.0172178 	700.000000	0.017432  	700.000000	3.24272e-06	
720.000000	0.0173972 	720.000000	0.017284  	720.000000	0.0171261 	720.000000	0.01707   	720.000000	0.0172809 	720.000000	3.15911e-06	
740.000000	0.0172413 	740.000000	0.0171421 	740.000000	0.0169891 	740.000000	0.0169328 	740.000000	0.017139  	740.000000	3.07985e-06	
760.000000	0.0170948 	760.000000	0.0170088 	760.000000	0.0168611 	760.000000	0.0168051 	760.000000	0.0170058 	760.000000	3.00461e-06	
780.000000	0.0169569 	780.000000	0.0168835 	780.000000	0.0167403 	780.000000	0.0166851 	780.000000	0.0168806 	780.000000	2.93307e-06	
800.000000	0.0168271 	800.000000	0.0167655 	800.000000	0.0166265 	800.000000	0.0165721 	800.000000	0.0167627 	800.000000	2.86498e-06	
820.000000	0.0167048 	820.000000	0.0166544 	820.000000	0.0165195 	820.000000	0.0164656 	820.000000	0.0166516 	820.000000	2.80008e-06	
840.000000	0.0165895 	840.000000	0.0165497 	840.000000	0.0164189 	840.000000	0.0163652 	840.000000	0.016547  	840.000000	2.73815e-06	
860.000000	0.0164807 	860.000000	0.0164509 	860.000000	0.0163244 	860.000000	0.0162704 	860.000000	0.0164483 	860.000000	2.679e-06 	
880.000000	0.016378  	880.000000	0.0163577 	880.000000	0.0162351 	880.000000	0.0161809 	880.000000	0.0163551 	880.000000	2.62243e-06	
900.000000	0.016281  	900.000000	0.0162697 	900.000000	0.0161505 	900.000000	0.0160962 	900.000000	0.0162671 	900.000000	2.56828e-06	
920.000000	0.0161894 	920.000000	0.0161865 	920.000000	0.0160701 	920.000000	0.0160161 	920.000000	0.016184  	920.000000	2.5164e-06	
940.000000	0.0161028 	940.000000	0.0161078 	940.000000	0.0159938 	940.000000	0.0159403 	940.000000	0.0161054 	940.000000	2.46664e-06	
960.000000	0.016021  	960.000000	0.0160335 	960.000000	0.0159214 	960.000000	0.0158684 	960.000000	0.0160311 	960.000000	2.41888e-06	
980.000000	0.0159436 	980.000000	0.0159631 	980.000000	0.0158528 	980.000000	0.0158003 	980.000000	0.0159608 	980.000000	2.37299e-06	
1000.000000	0.0158705 	1000.000000	0.0158966 	1000.000000	0.0157878 	1000.000000	0.0157357 	1000.000000	0.0158942 	1000.000000	2.32887e-06	
1020.000000	0.0158014 	1020.000000	0.0158336 	1020.000000	0.0157262 	1020.000000	0.0156743 	1020.000000	0.0158313 	1020.000000	2.28642e-06	
1040.000000	0.0157361 	1040.000000	0.0157739 	1040.000000	0.015668  	1040.000000	0.0156161 	1040.000000	0.0157717 	1040.000000	2.24553e-06	
1060.000000	0.0156743 	1060.000000	0.0157175 	1060.000000	0.0156129 	1060.000000	0.0155608 	1060.000000	0.0157153 	1060.000000	2.20614e-06	
1080.000000	0.0156159 	1080.000000	0.015664  	1080.000000	0.0155605 	1080.000000	0.0155082 	1080.000000	0.0156619 	1080.000000	2.16814e-06	
1100.000000	0.0155607 	1100.000000	0.0156134 	1100.000000	0.0155106 	1100.000000	0.0154582 	1100.000000	0.0156113 	1100.000000	2.13148e-06	
1120.000000	0.0155086 	1120.000000	0.0155655 	1120.000000	0.015463  	1120.000000	0.0154107 	1120.000000	0.0155634 	1120.000000	2.09608e-06	
1140.000000	0.0154594 	1140.000000	0.0155201 	1140.000000	0.0154175 	1140.000000	0.0153655 	1140.000000	0.0155181 	1140.000000	2.06187e-06	
1160.000000	0.0154129 	1160.000000	0.0154772 	1160.000000	0.0153742 	1160.000000	0.0153224 	1160.000000	0.0154752 	1160.000000	2.0288e-06	
1180.000000	0.0153691 	1180.000000	0.0154366 	1180.000000	0.0153329 	1180.000000	0.0152814 	1180.000000	0.0154346 	1180.000000	1.99681e-06	
1200.000000	0.0153278 	1200.000000	0.0153981 	1200.000000	0.0152937 	1200.000000	0.0152424 	1200.000000	0.0153962 	1200.000000	1.96584e-06	
1220.000000	0.0152888 	1220.000000	0.0153618 	1220.000000	0.0152565 	1220.000000	0.0152052 	1220.000000	0.0153599 	1220.000000	1.93586e-06	
1240.000000	0.0152522 	1240.000000	0.0153274 	1240.000000	0.0152211 	1240.000000	0.0151698 	1240.000000	0.0153255 	1240.000000	1.9068e-06	
1260.000000	0.0152177 	1260.000000	0.015295  	1260.000000	0.0151875 	1260.000000	0.0151361 	1260.000000	0.0152931 	1260.000000	1.87863e-06	
1280.000000	0.0151854 	1280.000000	0.0152643 	1280.000000	0.0151555 	1280.000000	0.0151039 	1280.000000	0.0152625 	1280.000000	1.85131e-06	
1300.000000	0.015155  	1300.000000	0.0152354 	1300.000000	0.015125  	1300.000000	0.0150733 	1300.000000	0.0152335 	1300.000000	1.8248e-06	
1320.000000	0.0151265 	1320.000000	0.0152081 	1320.000000	0.0150958 	1320.000000	0.015044  	1320.000000	0.0152063 	1320.000000	1.79907e-06	
1340.000000	0.0150999 	1340.000000	0.0151824 	1340.000000	0.0150678 	1340.000000	0.0150162 	1340.000000	0.0151806 	1340.000000	1.77407e-06	
1360.000000	0.015075  	1360.000000	0.0151582 	1360.000000	0.0150411 	1360.000000	0.0149896 	1360.000000	0.0151564 	1360.000000	1.74978e-06	
1380.000000	0.0150518 	1380.000000	0.0151354 	1380.000000	0.0150156 	1380.000000	0.0149643 	1380.000000	0.0151337 	1380.000000	1.72617e-06	
1400.000000	0.0150302 	1400.000000	0.015114  	1400.000000	0.0149913 	1400.000000	0.0149401 	1400.000000	0.0151123 	1400.000000	1.70321e-06	
1420.000000	0.0150102 	1420.000000	0.015094  	1420.000000	0.014968  	1420.000000	0.0149171 	1420.000000	0.0150923 	1420.000000	1.68087e-06	
1440.000000	0.0149917 	1440.000000	0.0150752 	1440.000000	0.0149458 	1440.000000	0.0148952 	1440.000000	0.0150735 	1440.000000	1.65913e-06	
1460.000000	0.0149746 	1460.000000	0.0150576 	1460.000000	0.0149247 	1460.000000	0.0148742 	1460.000000	0.015056  	1460.000000	1.63797e-06	
1480.000000	0.014959  	1480.000000	0.0150412 	1480.000000	0.0149045 	1480.000000	0.0148543 	1480.000000	0.0150396 	1480.000000	1.61735e-06	
1500.000000	0.0149446 	1500.000000	0.0150259 	1500.000000	0.0148853 	1500.000000	0.0148353 	1500.000000	0.0150244 	1500.000000	1.59727e-06	
1520.000000	0.0149315 	1520.000000	0.0150118 	1520.000000	0.014867  	1520.000000	0.0148171 	1520.000000	0.0150102 	1520.000000	1.57769e-06	
1540.000000	0.0149197 	1540.000000	0.0149986 	1540.000000	0.0148496 	1540.000000	0.0147999 	1540.000000	0.014997  	1540.000000	1.55861e-06	
1560.000000	0.0149091 	1560.000000	0.0149864 	1560.000000	0.014833  	1560.000000	0.0147834 	1560.000000	0.0149849 	1560.000000	1.53999e-06	
1580.000000	0.0148996 	1580.000000	0.0149753 	1580.000000	0.0148173 	1580.000000	0.0147678 	1580.000000	0.0149737 	1580.000000	1.52183e-06	
1600.000000	0.0148912 	1600.000000	0.014965  	1600.000000	0.0148024 	1600.000000	0.0147528 	1600.000000	0.0149635 	1600.000000	1.50411e-06	
1620.000000	0.0148839 	1620.000000	0.0149556 	1620.000000	0.0147882 	1620.000000	0.0147386 	1620.000000	0.0149541 	1620.000000	1.48681e-06	
1640.000000	0.0148777 	1640.000000	0.0149471 	1640.000000	0.0147747 	1640.000000	0.0147251 	1640.000000	0.0149456 	1640.000000	1.46991e-06	
1660.000000	0.0148725 	1660.000000	0.0149394 	1660.000000	0.0147619 	1660.000000	0.0147123 	1660.000000	0.014938  	1660.000000	1.45341e-06	
1680.000000	0.0148682 	1680.000000	0.0149325 	1680.000000	0.0147497 	1680.000000	0.0147    	1680.000000	0.0149311 	1680.000000	1.43728e-06	
1700.000000	0.0148649 	1700.000000	0.0149264 	1700.000000	0.0147382 	1700.000000	0.0146884 	1700.000000	0.014925  	1700.000000	1.42153e-06	
1750.000000	0.0148605 	1750.000000	0.0149143 	1750.000000	0.0147118 	1750.000000	0.0146619 	1750.000000	0.0149129 	1750.000000	1.38365e-06	
1800.000000	0.0148614 	1800.000000	0.0149065 	1800.000000	0.0146887 	1800.000000	0.0146387 	1800.000000	0.0149052 	1800.000000	1.3478e-06	
1850.000000	0.0148672 	1850.000000	0.0149026 	1850.000000	0.0146683 	1850.000000	0.0146184 	1850.000000	0.0149013 	1850.000000	1.31382e-06	
1900.000000	0.0148775 	1900.000000	0.0149024 	1900.000000	0.0146506 	1900.000000	0.0146009 	1900.000000	0.0149011 	1900.000000	1.28157e-06	
1950.000000	0.014892  	1950.000000	0.0149055 	1950.000000	0.0146353 	1950.000000	0.0145858 	1950.000000	0.0149042 	1950.000000	1.25091e-06	
2000.000000	0.0149105 	2000.000000	0.0149117 	2000.000000	0.0146222 	2000.000000	0.014573  	2000.000000	0.0149104 	2000.000000	1.22173e-06	
2100.000000	0.0149582 	2100.000000	0.0149325 	2100.000000	0.0146019 	2100.000000	0.0145532 	2100.000000	0.0149313 	2100.000000	1.16739e-06	
2200.000000	0.0150189 	2200.000000	0.0149632 	2200.000000	0.0145886 	2200.000000	0.0145403 	2200.000000	0.0149621 	2200.000000	1.11783e-06	
2300.000000	0.0150911 	2300.000000	0.0150026 	2300.000000	0.0145811 	2300.000000	0.0145331 	2300.000000	0.0150015 	2300.000000	1.07242e-06	
2400.000000	0.0151734 	2400.000000	0.0150495 	2400.000000	0.0145786 	2400.000000	0.0145307 	2400.000000	0.0150485 	2400.000000	1.03067e-06	
2500.000000	0.0152649 	2500.000000	0.0151031 	2500.000000	0.0145804 	2500.000000	0.0145324 	2500.000000	0.0151021 	2500.000000	9.92141e-07	
2600.000000	0.0153647 	2600.000000	0.0151625 	2600.000000	0.0145856 	2600.000000	0.0145375 	2600.000000	0.0151616 	2600.000000	9.56476e-07	
2700.000000	0.0154719 	2700.000000	0.0152272 	2700.000000	0.0145938 	2700.000000	0.0145455 	2700.000000	0.0152263 	2700.000000	9.23362e-07	
2800.000000	0.0155859 	2800.000000	0.0152965 	2800.000000	0.0146044 	2800.000000	0.014556  	2800.000000	0.0152957 	2800.000000	8.92532e-07	
2900.000000	0.0157062 	2900.000000	0.01537   	2900.000000	0.014617  	2900.000000	0.0145686 	2900.000000	0.0153692 	2900.000000	8.63755e-07	
3000.000000	0.0158322 	3000.000000	0.0154473 	3000.000000	0.0146313 	3000.000000	0.014583  	3000.000000	0.0154464 	3000.000000	8.36832e-07	
3200.000000	0.0160996 	3200.000000	0.0156115 	3200.000000	0.0146642 	3200.000000	0.0146161 	3200.000000	0.0156107 	3200.000000	7.87864e-07	
3400.000000	0.0163852 	3400.000000	0.0157868 	3400.000000	0.0147015 	3400.000000	0.0146537 	3400.000000	0.015786  	3400.000000	7.44467e-07	
3600.000000	0.0166868 	3600.000000	0.0159713 	3600.000000	0.0147419 	3600.000000	0.0146944 	3600.000000	0.0159706 	3600.000000	7.05733e-07	
3800.000000	0.0170025 	3800.000000	0.0161634 	3800.000000	0.0147847 	3800.000000	0.0147373 	3800.000000	0.0161627 	3800.000000	6.70941e-07	
4000.000000	0.0173309 	4000.000000	0.016362  	4000.000000	0.0148289 	4000.000000	0.0147818 	4000.000000	0.0163614 	4000.000000	6.39514e-07	
4200.000000	0.0176706 	4200.000000	0.0165661 	4200.000000	0.0148742 	4200.000000	0.0148272 	4200.000000	0.0165655 	4200.000000	6.10981e-07	
4400.000000	0.0180208 	4400.000000	0.0167748 	4400.000000	0.01492   	4400.000000	0.0148731 	4400.000000	0.0167743 	4400.000000	5.84957e-07	
4600.000000	0.0183806 	4600.000000	0.0169876 	4600.000000	0.0149661 	4600.000000	0.0149193 	4600.000000	0.0169871 	4600.000000	5.61122e-07	
4800.000000	0.0187492 	4800.000000	0.0172039 	4800.000000	0.0150122 	4800.000000	0.0149655 	4800.000000	0.0172034 	4800.000000	5.39208e-07	
5000.000000	0.0191262 	5000.000000	0.0174233 	5000.000000	0.0150582 	5000.000000	0.0150115 	5000.000000	0.0174227 	5000.000000	5.18989e-07	
5250.000000	0.0196083 	5250.000000	0.0177011 	5250.000000	0.0151151 	5250.000000	0.0150686 	5250.000000	0.0177006 	5250.000000	4.95812e-07	
5500.000000	0.0201019 	5500.000000	0.0179824 	5500.000000	0.0151714 	5500.000000	0.0151249 	5500.000000	0.0179819 	5500.000000	4.74673e-07	
6000.000000	0.0211206 	6000.000000	0.0185536 	6000.000000	0.0152812 	6000.000000	0.0152349 	6000.000000	0.0185532 	6000.000000	4.37515e-07	
6500.000000	0.0221779 	6500.000000	0.0191336 	6500.000000	0.015387  	6500.000000	0.0153408 	6500.000000	0.0191332 	6500.000000	4.05895e-07	
7000.000000	0.0232709 	7000.000000	0.0197202 	7000.000000	0.0154886 	7000.000000	0.0154425 	7000.000000	0.0197198 	7000.000000	3.78653e-07	
7500.000000	0.0243972 	7500.000000	0.0203117 	7500.000000	0.0155858 	7500.000000	0.0155398 	7500.000000	0.0203114 	7500.000000	3.5493e-07	
8000.000000	0.0255552 	8000.000000	0.020907  	8000.000000	0.015679  	8000.000000	0.0156329 	8000.000000	0.0209067 	8000.000000	3.34081e-07	
8500.000000	0.0267435 	8500.000000	0.0215051 	8500.000000	0.0157678 	8500.000000	0.0157219 	8500.000000	0.0215048 	8500.000000	3.15608e-07	
9000.000000	0.0279611 	9000.000000	0.0221054 	9000.000000	0.0158527 	9000.000000	0.0158072 	9000.000000	0.0221051 	9000.000000	2.99124e-07	
9500.000000	0.0292072 	9500.000000	0.0227073 	9500.000000	0.0159341 	9500.000000	0.0158888 	9500.000000	0.022707  	9500.000000	2.84322e-07	
10000.000000	0.0304812 	10000.000000	0.0233103 	10000.000000	0.0160124 	10000.000000	0.015967  	10000.000000	0.02331   	10000.000000	2.70954e-07	
11000.000000	0.0331107 	11000.000000	0.0245188 	11000.000000	0.0161593 	11000.000000	0.016114  	11000.000000	0.0245185 	11000.000000	2.47754e-07	
12000.000000	0.0358466 	12000.000000	0.0257288 	12000.000000	0.0162945 	12000.000000	0.0162499 	12000.000000	0.0257286 	12000.000000	2.28307e-07	
13000.000000	0.0386869 	13000.000000	0.0269392 	13000.000000	0.0164199 	13000.000000	0.0163759 	13000.000000	0.026939  	13000.000000	2.11763e-07	
14000.000000	0.0416301 	14000.000000	0.0281491 	14000.000000	0.016537  	14000.000000	0.0164932 	14000.000000	0.0281489 	14000.000000	1.97512e-07	
15000.000000	0.0446753 	15000.000000	0.0293581 	15000.000000	0.0166467 	15000.000000	0.0166029 	15000.000000	0.0293579 	15000.000000	1.85105e-07	
16000.000000	0.047822  	16000.000000	0.0305656 	16000.000000	0.0167495 	16000.000000	0.0167057 	16000.000000	0.0305655 	16000.000000	1.74203e-07	
17000.000000	0.0510698 	17000.000000	0.0317716 	17000.000000	0.0168459 	17000.000000	0.0168024 	17000.000000	0.0317714 	17000.000000	1.64545e-07	
18000.000000	0.0544185 	18000.000000	0.0329757 	18000.000000	0.0169367 	18000.000000	0.0168936 	18000.000000	0.0329756 	18000.000000	1.55928e-07	
19000.000000	0.0578682 	19000.000000	0.034178  	19000.000000	0.0170224 	19000.000000	0.0169799 	19000.000000	0.0341778 	19000.000000	1.48192e-07	
20000.000000	0.0614187 	20000.000000	0.0353783 	20000.000000	0.0171035 	20000.000000	0.0170618 	20000.000000	0.0353782 	20000.000000	1.41207e-07	
21000.000000	0.0650704 	21000.000000	0.0365767 	21000.000000	0.0171806 	21000.000000	0.0171396 	21000.000000	0.0365765 	21000.000000	1.34867e-07	
22000.000000	0.0688233 	22000.000000	0.0377731 	22000.000000	0.0172542 	22000.000000	0.0172136 	22000.000000	0.0377729 	22000.000000	1.29086e-07	
23000.000000	0.0726779 	23000.000000	0.0389675 	23000.000000	0.0173246 	23000.000000	0.0172843 	23000.000000	0.0389673 	23000.000000	1.23793e-07	
24000.000000	0.0766343 	24000.000000	0.0401599 	24000.000000	0.0173918 	24000.000000	0.0173519 	24000.000000	0.0401598 	24000.000000	1.18928e-07	
25000.000000	0.0806929 	25000.000000	0.0413504 	25000.000000	0.0174559 	25000.000000	0.0174167 	25000.000000	0.0413503 	25000.000000	1.14441e-07	
26000.000000	0.0848541 	26000.000000	0.042539  	26000.000000	0.0175173 	26000.000000	0.0174787 	26000.000000	0.0425389 	26000.000000	1.10289e-07	
27000.000000	0.0891183 	27000.000000	0.0437257 	27000.000000	0.0175762 	27000.000000	0.0175384 	27000.000000	0.0437256 	27000.000000	1.06435e-07	
28000.000000	0.0934859 	28000.000000	0.0449106 	28000.000000	0.0176328 	28000.000000	0.0175957 	28000.000000	0.0449105 	28000.000000	1.02848e-07	
29000.000000	0.0979574 	29000.000000	0.0460936 	29000.000000	0.0176873 	29000.000000	0.017651  	29000.000000	0.0460935 	29000.000000	9.9502e-08	
30000.000000	0.102533  	30000.000000	0.0472749 	30000.000000	0.0177398 	30000.000000	0.0177042 	30000.000000	0.0472748 	30000.000000	9.63721e-08	
32000.000000	0.112     	32000.000000	0.0496324 	32000.000000	0.0178394 	32000.000000	0.0178054 	32000.000000	0.0496323 	32000.000000	9.06823e-08	
34000.000000	0.12189   	34000.000000	0.0519832 	34000.000000	0.0179326 	34000.000000	0.0179    	34000.000000	0.0519831 	34000.000000	8.56428e-08	
36000.000000	0.132207  	36000.000000	0.0543277 	36000.000000	0.01802   	36000.000000	0.0179888 	36000.000000	0.0543276 	36000.000000	8.11473e-08	
38000.000000	0.142955  	38000.000000	0.0566662 	38000.000000	0.0181021 	38000.000000	0.0180726 	38000.000000	0.0566661 	38000.000000	7.71117e-08	
40000.000000	0.15414   	40000.000000	0.0589989 	40000.000000	0.0181795 	40000.000000	0.0181518 	40000.000000	0.0589988 	40000.000000	7.34681e-08	
42000.000000	0.165765  	42000.000000	0.061326  	42000.000000	0.0182526 	42000.000000	0.0182268 	42000.000000	0.0613259 	42000.000000	7.01616e-08	
44000.000000	0.177835  	44000.000000	0.0636478 	44000.000000	0.0183221 	44000.000000	0.0182981 	44000.000000	0.0636478 	44000.000000	6.71473e-08	
46000.000000	0.190355  	46000.000000	0.0659646 	46000.000000	0.0183881 	46000.000000	0.018366  	46000.000000	0.0659645 	46000.000000	6.43876e-08	
48000.000000	0.203329  	48000.000000	0.0682765 	48000.000000	0.018451  	48000.000000	0.0184307 	48000.000000	0.0682764 	48000.000000	6.18513e-08	
50000.000000	0.216762  	50000.000000	0.0705836 	50000.000000	0.0185109 	50000.000000	0.0184927 	50000.000000	0.0705836 	50000.000000	5.95123e-08	
