Energy (MeV/u)1	0 - [He-base] F.Hubert et al, AD&ND Tables 46(1990)1	Energy (MeV/u)2	1 - [H -base] J.F.Ziegler et al, Pergamon Press, NY (low energy)	Energy (MeV/u)3	2 - ATIMA 1.2  LS-theory (recommended for high energy)	Energy (MeV/u)4	3 - ATIMA 1.2  without LS-correction	Energy (MeV/u)5	4 - electrical component of [1] - J.F.Ziegler et al	Energy (MeV/u)6	5 - nuclear component of [1] - J.F.Ziegler et al	
0.001000	12.3098   	0.001000	12.3932   	0.001000	10.527    	0.001000	10.527    	0.001000	3.23712   	0.001000	9.15611   	
0.002000	12.7305   	0.002000	12.8947   	0.002000	10.6353   	0.002000	10.6353   	0.002000	4.19802   	0.002000	8.69671   	
0.005000	12.7218   	0.005000	12.9541   	0.005000	10.0997   	0.005000	10.0997   	0.005000	5.91932   	0.005000	7.03474   	
0.008000	12.7379   	0.008000	12.975    	0.008000	9.79172   	0.008000	9.79172   	0.008000	7.0602    	0.008000	5.91482   	
0.010000	12.8139   	0.010000	13.0466   	0.010000	9.70465   	0.010000	9.70465   	0.010000	7.67641   	0.010000	5.37018   	
0.015000	13.1307   	0.015000	13.347    	0.015000	9.7186    	0.015000	9.7186    	0.015000	8.93701   	0.015000	4.41003   	
0.020000	13.5315   	0.020000	13.7319   	0.020000	9.90656   	0.020000	9.90656   	0.020000	9.95507   	0.020000	3.77678   	
0.025000	13.9599   	0.025000	14.1468   	0.025000	10.1761   	0.025000	10.1761   	0.025000	10.8239   	0.025000	3.32282   	
0.030000	14.3932   	0.030000	14.5687   	0.030000	10.4862   	0.030000	10.4862   	0.030000	11.5899   	0.030000	2.97884   	
0.035000	14.8214   	0.035000	14.9873   	0.035000	10.8166   	0.035000	10.8166   	0.035000	12.2796   	0.035000	2.70773   	
0.040000	15.24     	0.040000	15.3978   	0.040000	11.1564   	0.040000	11.1564   	0.040000	12.9101   	0.040000	2.48767   	
0.045000	15.6472   	0.045000	15.798    	0.045000	11.4995   	0.045000	11.4995   	0.045000	13.4931   	0.045000	2.30491   	
0.050000	16.0424   	0.050000	16.1873   	0.050000	11.8423   	0.050000	11.8423   	0.050000	14.0369   	0.050000	2.15034   	
0.055000	16.4257   	0.055000	16.5653   	0.055000	12.1826   	0.055000	12.1826   	0.055000	14.5477   	0.055000	2.01764   	
0.060000	16.8733   	0.060000	16.9325   	0.060000	12.5193   	0.060000	12.5193   	0.060000	15.0302   	0.060000	1.90229   	
0.070000	18.9778   	0.070000	19.2776   	0.070000	14.5016   	0.070000	14.5016   	0.070000	17.5665   	0.070000	1.71112   	
0.080000	21.2115   	0.080000	21.5711   	0.080000	16.4994   	0.080000	16.4994   	0.080000	20.0125   	0.080000	1.55865   	
0.090000	23.2821   	0.090000	23.7342   	0.090000	18.4304   	0.090000	18.4304   	0.090000	22.3137   	0.090000	1.42049   	
0.100000	25.1873   	0.100000	25.7742   	0.100000	20.2938   	0.100000	20.2938   	0.100000	24.4568   	0.100000	1.31744   	
0.120000	27.8298   	0.120000	29.3014   	0.120000	23.7128   	0.120000	23.7128   	0.120000	28.1473   	0.120000	1.15409   	
0.140000	29.7389   	0.140000	31.9033   	0.140000	26.6938   	0.140000	26.6938   	0.140000	30.8733   	0.140000	1.02997   	
0.160000	31.4727   	0.160000	34.0547   	0.160000	29.2614   	0.160000	29.2614   	0.160000	33.1226   	0.160000	0.932112  	
0.180000	33.137    	0.180000	35.8435   	0.180000	31.4701   	0.180000	31.4701   	0.180000	34.9908   	0.180000	0.852761  	
0.200000	34.7824   	0.200000	37.3496   	0.200000	33.3814   	0.200000	33.3814   	0.200000	36.5626   	0.200000	0.786981  	
0.250000	37.6863   	0.250000	40.2772   	0.250000	37.2104   	0.250000	37.2104   	0.250000	39.6146   	0.250000	0.662618  	
0.300000	40.421    	0.300000	42.498    	0.300000	40.1612   	0.300000	40.1612   	0.300000	41.9233   	0.300000	0.574673  	
0.350000	42.9492   	0.350000	44.3444   	0.350000	42.5914   	0.350000	42.5914   	0.350000	43.8356   	0.350000	0.508877  	
0.400000	45.2504   	0.400000	45.9676   	0.400000	44.6831   	0.400000	44.6831   	0.400000	45.5099   	0.400000	0.457622  	
0.450000	47.5389   	0.450000	47.64     	0.450000	46.5305   	0.450000	46.5305   	0.450000	47.2235   	0.450000	0.416461  	
0.500000	50.1768   	0.500000	49.7576   	0.500000	48.1852   	0.500000	48.1852   	0.500000	49.375    	0.500000	0.382614  	
0.600000	52.7346   	0.600000	53.3197   	0.600000	51.0329   	0.600000	51.0329   	0.600000	52.9896   	0.600000	0.330091  	
0.700000	54.076    	0.700000	56.1807   	0.700000	53.4199   	0.700000	53.4199   	0.700000	55.8897   	0.700000	0.291085  	
0.800000	56.7121   	0.800000	58.4989   	0.800000	56.1304   	0.800000	56.1304   	0.800000	58.238    	0.800000	0.260876  	
0.900000	58.9265   	0.900000	60.499    	0.900000	58.3409   	0.900000	58.3409   	0.900000	60.2622   	0.900000	0.236733  	
1.000000	60.7874   	1.000000	62.2197   	1.000000	60.1492   	1.000000	60.1492   	1.000000	62.0027   	1.000000	0.216959  	
1.250000	63.8357   	1.250000	65.2582   	1.250000	63.3635   	1.250000	63.3635   	1.250000	65.078    	1.250000	0.180174  	
1.500000	65.491    	1.500000	67.0503   	1.500000	65.2891   	1.500000	65.2891   	1.500000	66.8957   	1.500000	0.154643  	
1.750000	65.4685   	1.750000	67.2033   	1.750000	66.3844   	1.750000	66.3844   	1.750000	67.0675   	1.750000	0.135811  	
2.000000	65.1385   	2.000000	67.074    	2.000000	66.9264   	2.000000	66.9264   	2.000000	66.9527   	2.000000	0.121306  	
2.250000	64.7333   	2.250000	66.7718   	2.250000	67.0901   	2.250000	67.0901   	2.250000	66.6621   	2.250000	0.109765  	
2.500000	93.6651   	2.500000	66.3483   	2.500000	66.9904   	2.500000	66.9904   	2.500000	66.2479   	2.500000	0.100348  	
3.000000	90.6144   	3.000000	65.2695   	3.000000	66.2867   	3.000000	66.2867   	3.000000	65.1837   	3.000000	0.0858725 	
3.500000	87.3161   	3.500000	64.018    	3.500000	65.195    	3.500000	65.195    	3.500000	63.9427   	3.500000	0.075235  	
4.000000	84.0337   	4.000000	62.6892   	4.000000	63.91     	4.000000	63.91     	4.000000	62.6222   	4.000000	0.0670661 	
4.500000	80.88     	4.500000	61.3276   	4.500000	62.458    	4.500000	62.458    	4.500000	61.2671   	4.500000	0.060583  	
5.000000	77.8995   	5.000000	59.9623   	5.000000	60.8663   	5.000000	60.8663   	5.000000	59.907    	5.000000	0.0553045 	
5.500000	75.105    	5.500000	58.6303   	5.500000	59.3429   	5.500000	59.3429   	5.500000	58.5794   	5.500000	0.0509182 	
6.000000	72.4945   	6.000000	57.346    	6.000000	57.8881   	6.000000	57.8881   	6.000000	57.2987   	6.000000	0.0472117 	
6.500000	70.0587   	6.500000	56.1039   	6.500000	56.5004   	6.500000	56.5004   	6.500000	56.0599   	6.500000	0.0440357 	
7.000000	67.7859   	7.000000	54.9031   	7.000000	55.1771   	7.000000	55.1771   	7.000000	54.8618   	7.000000	0.0412821 	
7.500000	65.6632   	7.500000	53.7384   	7.500000	53.9148   	7.500000	53.9148   	7.500000	53.6996   	7.500000	0.0388704 	
8.000000	63.6782   	8.000000	52.6002   	8.000000	52.7103   	8.000000	52.7103   	8.000000	52.5634   	8.000000	0.0367396 	
8.500000	61.8191   	8.500000	51.5164   	8.500000	51.56     	8.500000	51.56     	8.500000	51.4816   	8.500000	0.0348424 	
9.000000	60.0751   	9.000000	50.4818   	9.000000	50.4608   	9.000000	50.4608   	9.000000	50.4487   	9.000000	0.0331418 	
9.500000	58.4362   	9.500000	49.4919   	9.500000	49.4094   	9.500000	49.4094   	9.500000	49.4603   	9.500000	0.0316081 	
10.000000	56.8935   	10.000000	47.911    	10.000000	48.403    	10.000000	48.403    	10.000000	47.8807   	10.000000	0.0302175 	
11.000000	54.065    	11.000000	46.3173   	11.000000	46.1181   	11.000000	46.6663   	11.000000	46.2895   	11.000000	0.0277911 	
12.000000	51.5344   	12.000000	44.813    	12.000000	44.057    	12.000000	45.0638   	12.000000	44.7873   	12.000000	0.0257435 	
13.000000	49.2565   	13.000000	43.397    	13.000000	42.1904   	13.000000	43.5828   	13.000000	43.3731   	13.000000	0.0239911 	
14.000000	47.195    	14.000000	42.0655   	14.000000	40.4938   	14.000000	42.2114   	14.000000	42.0431   	14.000000	0.0224734 	
15.000000	45.32     	15.000000	40.8135   	15.000000	38.9461   	15.000000	40.939    	15.000000	40.7924   	15.000000	0.0211454 	
16.000000	43.6066   	16.000000	39.6356   	16.000000	37.5291   	16.000000	39.7561   	16.000000	39.6156   	16.000000	0.0199731 	
17.000000	42.0344   	17.000000	38.5264   	17.000000	36.2273   	17.000000	38.6543   	17.000000	38.5075   	17.000000	0.0189302 	
18.000000	40.5863   	18.000000	37.4807   	18.000000	35.0286   	18.000000	37.6259   	18.000000	37.4627   	18.000000	0.017996  	
19.000000	39.2477   	19.000000	36.4937   	19.000000	33.9223   	19.000000	36.6645   	19.000000	36.4765   	19.000000	0.0171542 	
20.000000	38.0063   	20.000000	35.5609   	20.000000	32.8994   	20.000000	35.7642   	20.000000	35.5445   	20.000000	0.0163914 	
21.000000	36.8516   	21.000000	34.6781   	21.000000	31.9517   	21.000000	34.9197   	21.000000	34.6624   	21.000000	0.0156968 	
22.000000	35.7747   	22.000000	33.8415   	22.000000	31.0719   	22.000000	34.1265   	22.000000	33.8264   	22.000000	0.0150616 	
23.000000	34.7676   	23.000000	33.0478   	23.000000	30.2539   	23.000000	33.3805   	23.000000	33.0333   	23.000000	0.0144783 	
24.000000	33.8237   	24.000000	32.2937   	24.000000	29.4924   	24.000000	32.6778   	24.000000	32.2797   	24.000000	0.0139406 	
25.000000	32.9369   	25.000000	31.5764   	25.000000	28.782    	25.000000	32.0153   	25.000000	31.5629   	25.000000	0.0134434 	
27.000000	31.3148   	27.000000	30.242    	27.000000	27.4948   	27.000000	30.7989   	27.000000	30.2295   	27.000000	0.0125531 	
29.000000	29.8665   	29.000000	29.0264   	29.000000	26.3675   	29.000000	29.7109   	29.000000	29.0147   	29.000000	0.0117786 	
31.000000	28.565    	31.000000	27.9145   	31.000000	25.4289   	31.000000	28.6274   	31.000000	27.9034   	31.000000	0.0110983 	
33.000000	27.3883   	33.000000	26.8934   	33.000000	24.6168   	33.000000	27.537    	33.000000	26.8829   	33.000000	0.0104958 	
35.000000	26.3188   	35.000000	25.9524   	35.000000	23.8657   	35.000000	26.5353   	35.000000	25.9424   	35.000000	0.00995823	
38.000000	24.8848   	38.000000	24.6714   	38.000000	22.827    	38.000000	25.1763   	38.000000	24.6622   	38.000000	0.00925215	
41.000000	23.6216   	41.000000	23.5251   	41.000000	21.8887   	41.000000	23.9642   	41.000000	23.5165   	41.000000	0.00864375	
44.000000	22.4997   	44.000000	22.493    	44.000000	21.0314   	44.000000	22.8762   	44.000000	22.4849   	44.000000	0.0081138 	
47.000000	21.496    	47.000000	21.5588   	47.000000	20.249    	47.000000	21.8939   	47.000000	21.5512   	47.000000	0.00764784	
50.000000	20.5922   	50.000000	20.7091   	50.000000	19.5315   	50.000000	21.0025   	50.000000	20.7019   	50.000000	0.00723476	
55.000000	19.2698   	55.000000	19.4516   	55.000000	18.4567   	55.000000	19.6867   	55.000000	19.4449   	55.000000	0.00664119	
60.000000	18.1337   	60.000000	18.3583   	60.000000	17.5125   	60.000000	18.5462   	60.000000	18.3522   	60.000000	0.00614143	
65.000000	17.1463   	65.000000	17.3991   	65.000000	16.6745   	65.000000	17.5481   	65.000000	17.3933   	65.000000	0.00571458	
70.000000	16.2794   	70.000000	16.5504   	70.000000	15.9267   	70.000000	16.6672   	70.000000	16.5451   	70.000000	0.00534558	
75.000000	15.5119   	75.000000	15.7942   	75.000000	15.2563   	75.000000	15.8839   	75.000000	15.7892   	75.000000	0.00502325	
80.000000	14.827    	80.000000	15.1161   	80.000000	14.6507   	80.000000	15.183    	80.000000	15.1114   	80.000000	0.00473916	
85.000000	14.2118   	85.000000	14.5046   	85.000000	14.1009   	85.000000	14.552    	85.000000	14.5001   	85.000000	0.00448678	
90.000000	13.656    	90.000000	13.9503   	90.000000	13.5994   	90.000000	13.981    	90.000000	13.9461   	90.000000	0.00426102	
95.000000	13.151    	95.000000	13.4455   	95.000000	13.1402   	95.000000	13.4619   	95.000000	13.4415   	95.000000	0.00405781	
100.000000	12.6902   	100.000000	12.9839   	100.000000	12.7196   	100.000000	12.9879   	100.000000	12.9801   	100.000000	0.00387391	
105.000000	12.2677   	105.000000	12.5602   	105.000000	12.3315   	105.000000	12.5534   	105.000000	12.5565   	105.000000	0.00370663	
110.000000	11.8788   	110.000000	12.1699   	110.000000	11.9723   	110.000000	12.1536   	110.000000	12.1663   	110.000000	0.0035538 	
115.000000	11.5197   	115.000000	11.8091   	115.000000	11.6386   	115.000000	11.7847   	115.000000	11.8057   	115.000000	0.00341359	
120.000000	11.1869   	120.000000	11.4748   	120.000000	11.3288   	120.000000	11.4431   	120.000000	11.4715   	120.000000	0.00328448	
125.000000	10.8775   	125.000000	11.164    	125.000000	11.0403   	125.000000	11.1259   	125.000000	11.1608   	125.000000	0.00316519	
130.000000	10.5892   	130.000000	10.8744   	130.000000	10.7703   	130.000000	10.8307   	130.000000	10.8713   	130.000000	0.00305462	
135.000000	10.3197   	135.000000	10.6038   	135.000000	10.518    	135.000000	10.5553   	135.000000	10.6009   	135.000000	0.00295183	
140.000000	10.0672   	140.000000	10.3506   	140.000000	10.2812   	140.000000	10.2976   	140.000000	10.3477   	140.000000	0.00285602	
145.000000	9.8302    	145.000000	10.113    	145.000000	10.0581   	145.000000	10.0562   	145.000000	10.1102   	145.000000	0.0027665 	
150.000000	9.60718   	150.000000	9.88971   	150.000000	9.84767   	150.000000	9.82944   	150.000000	9.88702   	150.000000	0.00268264	
155.000000	9.28722   	155.000000	9.67943   	155.000000	9.64954   	155.000000	9.61611   	155.000000	9.67683   	155.000000	0.00260394	
160.000000	9.1027    	160.000000	9.48109   	160.000000	9.46234   	160.000000	9.41506   	160.000000	9.47856   	160.000000	0.00252991	
165.000000	8.92829   	165.000000	9.29369   	165.000000	9.28483   	165.000000	9.22525   	165.000000	9.29123   	165.000000	0.00246014	
170.000000	8.76315   	170.000000	9.11637   	170.000000	9.1167    	170.000000	9.04578   	170.000000	9.11398   	170.000000	0.00239429	
175.000000	8.60657   	175.000000	8.94833   	175.000000	8.95744   	175.000000	8.87584   	175.000000	8.946     	175.000000	0.00233201	
180.000000	8.45787   	180.000000	8.78888   	180.000000	8.80629   	180.000000	8.71469   	180.000000	8.7866    	180.000000	0.00227302	
185.000000	8.31648   	185.000000	8.63736   	185.000000	8.66245   	185.000000	8.56168   	185.000000	8.63515   	185.000000	0.00221707	
190.000000	8.18185   	190.000000	8.49322   	190.000000	8.5252    	190.000000	8.41621   	190.000000	8.49106   	190.000000	0.00216392	
195.000000	8.05352   	195.000000	8.35594   	195.000000	8.39394   	195.000000	8.27774   	195.000000	8.35382   	195.000000	0.00211337	
200.000000	7.93104   	200.000000	8.22503   	200.000000	8.26855   	200.000000	8.1458    	200.000000	8.22296   	200.000000	0.00206522	
210.000000	7.70211   	210.000000	7.98066   	210.000000	8.03553   	210.000000	7.89972   	210.000000	7.97868   	210.000000	0.00197547	
220.000000	7.49228   	220.000000	7.75711   	220.000000	7.82074   	220.000000	7.67487   	220.000000	7.75522   	220.000000	0.0018935 	
230.000000	7.29926   	230.000000	7.55187   	230.000000	7.62393   	230.000000	7.46866   	230.000000	7.55005   	230.000000	0.00181833	
240.000000	7.12107   	240.000000	7.36279   	240.000000	7.44223   	240.000000	7.2789    	240.000000	7.36104   	240.000000	0.00174913	
250.000000	6.95608   	250.000000	7.18807   	250.000000	7.27403   	250.000000	7.10373   	250.000000	7.18639   	250.000000	0.00168521	
260.000000	6.80287   	260.000000	7.02616   	260.000000	7.1179    	260.000000	6.94155   	260.000000	7.02453   	260.000000	0.00162597	
270.000000	6.66021   	270.000000	6.87571   	270.000000	6.97232   	270.000000	6.79101   	270.000000	6.87414   	270.000000	0.00157092	
280.000000	6.52706   	280.000000	6.73558   	280.000000	6.83681   	280.000000	6.65091   	280.000000	6.73406   	280.000000	0.00151963	
290.000000	6.40249   	290.000000	6.60476   	290.000000	6.71037   	290.000000	6.52023   	290.000000	6.60329   	290.000000	0.0014717 	
300.000000	6.28571   	300.000000	6.48236   	300.000000	6.5917    	300.000000	6.39808   	300.000000	6.48094   	300.000000	0.00142683	
310.000000	6.17602   	310.000000	6.36762   	310.000000	6.48019   	310.000000	6.28366   	310.000000	6.36624   	310.000000	0.00138472	
320.000000	6.07279   	320.000000	6.25986   	320.000000	6.37552   	320.000000	6.17629   	320.000000	6.25852   	320.000000	0.00134512	
330.000000	5.97548   	330.000000	6.15848   	330.000000	6.27705   	330.000000	6.07534   	330.000000	6.15717   	330.000000	0.00130781	
340.000000	5.8836    	340.000000	6.06294   	340.000000	6.18428   	340.000000	5.98029   	340.000000	6.06166   	340.000000	0.00127259	
350.000000	5.79671   	350.000000	5.97276   	350.000000	6.09676   	350.000000	5.89063   	350.000000	5.97152   	350.000000	0.0012393 	
360.000000	5.71443   	360.000000	5.88752   	360.000000	6.01382   	360.000000	5.80594   	360.000000	5.88631   	360.000000	0.00120777	
370.000000	5.6364    	370.000000	5.80684   	370.000000	5.93509   	370.000000	5.72584   	370.000000	5.80566   	370.000000	0.00117787	
380.000000	5.56232   	380.000000	5.73037   	380.000000	5.86046   	380.000000	5.64996   	380.000000	5.72922   	380.000000	0.00114947	
390.000000	5.49189   	390.000000	5.65781   	390.000000	5.78971   	390.000000	5.578     	390.000000	5.65668   	390.000000	0.00112246	
400.000000	5.42487   	400.000000	5.58887   	400.000000	5.72256   	400.000000	5.50968   	400.000000	5.58777   	400.000000	0.00109674	
410.000000	5.36102   	410.000000	5.5233    	410.000000	5.65858   	410.000000	5.44473   	410.000000	5.52222   	410.000000	0.00107222	
420.000000	5.30012   	420.000000	5.46086   	420.000000	5.59742   	420.000000	5.38292   	420.000000	5.45982   	420.000000	0.00104881	
430.000000	5.24198   	430.000000	5.40136   	430.000000	5.53912   	430.000000	5.32405   	430.000000	5.40034   	430.000000	0.00102645	
440.000000	5.18644   	440.000000	5.3446    	440.000000	5.48337   	440.000000	5.26753   	440.000000	5.34359   	440.000000	0.00100505	
450.000000	5.13332   	450.000000	5.2904    	450.000000	5.42998   	450.000000	5.21335   	450.000000	5.28941   	450.000000	0.000984566	
460.000000	5.08247   	460.000000	5.23859   	460.000000	5.37881   	460.000000	5.1616    	460.000000	5.23763   	460.000000	0.000964931	
470.000000	5.03377   	470.000000	5.18905   	470.000000	5.32972   	470.000000	5.11211   	470.000000	5.1881    	470.000000	0.000946094	
480.000000	4.98709   	480.000000	5.14162   	480.000000	5.2827    	480.000000	5.06477   	480.000000	5.14069   	480.000000	0.000928006	
490.000000	4.9423    	490.000000	5.09619   	490.000000	5.23769   	490.000000	5.01943   	490.000000	5.09528   	490.000000	0.000910625	
500.000000	4.89931   	500.000000	5.05263   	500.000000	5.19459   	500.000000	4.97598   	500.000000	5.05174   	500.000000	0.000893908	
520.000000	4.81832   	520.000000	4.97073   	520.000000	5.11357   	520.000000	4.89433   	520.000000	4.96987   	520.000000	0.000862318	
540.000000	4.74341   	540.000000	4.89517   	540.000000	5.03847   	540.000000	4.81903   	540.000000	4.89434   	540.000000	0.000832967	
560.000000	4.67397   	560.000000	4.82529   	560.000000	4.96895   	560.000000	4.74943   	560.000000	4.82448   	560.000000	0.000805621	
580.000000	4.60946   	580.000000	4.76051   	580.000000	4.90483   	580.000000	4.68493   	580.000000	4.75973   	580.000000	0.000780081	
600.000000	4.54943   	600.000000	4.70035   	600.000000	4.84509   	600.000000	4.62504   	600.000000	4.6996    	600.000000	0.000756169	
620.000000	4.49346   	620.000000	4.64437   	620.000000	4.78927   	620.000000	4.56932   	620.000000	4.64364   	620.000000	0.000733734	
640.000000	4.4412    	640.000000	4.5922    	640.000000	4.73725   	640.000000	4.51737   	640.000000	4.59148   	640.000000	0.00071264	
660.000000	4.39233   	660.000000	4.54348   	660.000000	4.68867   	660.000000	4.46887   	660.000000	4.54279   	660.000000	0.000692771	
680.000000	4.34657   	680.000000	4.49794   	680.000000	4.6432    	680.000000	4.4235    	680.000000	4.49727   	680.000000	0.00067402	
700.000000	4.30368   	700.000000	4.45531   	700.000000	4.60062   	700.000000	4.381     	700.000000	4.45465   	700.000000	0.000656295	
720.000000	4.26342   	720.000000	4.41534   	720.000000	4.56069   	720.000000	4.34114   	720.000000	4.4147    	720.000000	0.000639512	
740.000000	4.22559   	740.000000	4.37783   	740.000000	4.52306   	740.000000	4.30369   	740.000000	4.37721   	740.000000	0.000623598	
760.000000	4.19002   	760.000000	4.34259   	760.000000	4.48751   	760.000000	4.26847   	760.000000	4.34198   	760.000000	0.000608487	
780.000000	4.15654   	780.000000	4.30946   	780.000000	4.45402   	780.000000	4.2353    	780.000000	4.30886   	780.000000	0.000594117	
800.000000	4.12501   	800.000000	4.27827   	800.000000	4.42257   	800.000000	4.20404   	800.000000	4.27769   	800.000000	0.000580435	
820.000000	4.09529   	820.000000	4.24888   	820.000000	4.39297   	820.000000	4.17453   	820.000000	4.24832   	820.000000	0.000567393	
840.000000	4.06726   	840.000000	4.22119   	840.000000	4.36494   	840.000000	4.14665   	840.000000	4.22063   	840.000000	0.000554945	
860.000000	4.04081   	860.000000	4.19505   	860.000000	4.33833   	860.000000	4.1203    	860.000000	4.19451   	860.000000	0.000543052	
880.000000	4.01584   	880.000000	4.17039   	880.000000	4.31309   	880.000000	4.09535   	880.000000	4.16985   	880.000000	0.000531677	
900.000000	3.99226   	900.000000	4.14709   	900.000000	4.28916   	900.000000	4.07173   	900.000000	4.14657   	900.000000	0.000520786	
920.000000	3.96998   	920.000000	4.12507   	920.000000	4.26649   	920.000000	4.04933   	920.000000	4.12456   	920.000000	0.000510348	
940.000000	3.94892   	940.000000	4.10425   	940.000000	4.24499   	940.000000	4.02808   	940.000000	4.10375   	940.000000	0.000500337	
960.000000	3.92902   	960.000000	4.08456   	960.000000	4.22457   	960.000000	4.0079    	960.000000	4.08407   	960.000000	0.000490725	
980.000000	3.9102    	980.000000	4.06593   	980.000000	4.20516   	980.000000	3.98874   	980.000000	4.06545   	980.000000	0.000481488	
1000.000000	3.89241   	1000.000000	4.0483    	1000.000000	4.1867    	1000.000000	3.97051   	1000.000000	4.04783   	1000.000000	0.000472606	
1020.000000	3.87559   	1020.000000	4.03161   	1020.000000	4.16914   	1020.000000	3.95318   	1020.000000	4.03115   	1020.000000	0.000464058	
1040.000000	3.85968   	1040.000000	4.01581   	1040.000000	4.15244   	1040.000000	3.93668   	1040.000000	4.01536   	1040.000000	0.000455825	
1060.000000	3.84464   	1060.000000	4.00085   	1060.000000	4.13654   	1060.000000	3.92097   	1060.000000	4.0004    	1060.000000	0.000447889	
1080.000000	3.83043   	1080.000000	3.98668   	1080.000000	4.12137   	1080.000000	3.906     	1080.000000	3.98624   	1080.000000	0.000440236	
1100.000000	3.817     	1100.000000	3.97326   	1100.000000	4.10687   	1100.000000	3.89173   	1100.000000	3.97283   	1100.000000	0.000432849	
1120.000000	3.80431   	1120.000000	3.96055   	1120.000000	4.093     	1120.000000	3.87812   	1120.000000	3.96013   	1120.000000	0.000425715	
1140.000000	3.79232   	1140.000000	3.94852   	1140.000000	4.07973   	1140.000000	3.86513   	1140.000000	3.9481    	1140.000000	0.000418821	
1160.000000	3.78101   	1160.000000	3.93712   	1160.000000	4.06704   	1160.000000	3.85273   	1160.000000	3.93671   	1160.000000	0.000412154	
1180.000000	3.77034   	1180.000000	3.92634   	1180.000000	4.05493   	1180.000000	3.84089   	1180.000000	3.92593   	1180.000000	0.000405705	
1200.000000	3.76028   	1200.000000	3.91613   	1200.000000	4.04338   	1200.000000	3.82958   	1200.000000	3.91573   	1200.000000	0.000399462	
1220.000000	3.7508    	1220.000000	3.90648   	1220.000000	4.03237   	1220.000000	3.81877   	1220.000000	3.90608   	1220.000000	0.000393414	
1240.000000	3.74188   	1240.000000	3.89735   	1240.000000	4.02187   	1240.000000	3.80843   	1240.000000	3.89696   	1240.000000	0.000387554	
1260.000000	3.73349   	1260.000000	3.88871   	1260.000000	4.01184   	1260.000000	3.79855   	1260.000000	3.88833   	1260.000000	0.000381873	
1280.000000	3.72561   	1280.000000	3.88056   	1280.000000	4.00224   	1280.000000	3.78909   	1280.000000	3.88018   	1280.000000	0.000376361	
1300.000000	3.71821   	1300.000000	3.87286   	1300.000000	3.99304   	1300.000000	3.78005   	1300.000000	3.87249   	1300.000000	0.000371012	
1320.000000	3.71128   	1320.000000	3.8656    	1320.000000	3.98421   	1320.000000	3.77139   	1320.000000	3.86523   	1320.000000	0.000365819	
1340.000000	3.7048    	1340.000000	3.85875   	1340.000000	3.97572   	1340.000000	3.7631    	1340.000000	3.85839   	1340.000000	0.000360774	
1360.000000	3.69875   	1360.000000	3.8523    	1360.000000	3.96758   	1360.000000	3.75516   	1360.000000	3.85194   	1360.000000	0.000355872	
1380.000000	3.69311   	1380.000000	3.84623   	1380.000000	3.95977   	1380.000000	3.74756   	1380.000000	3.84588   	1380.000000	0.000351106	
1400.000000	3.68786   	1400.000000	3.84052   	1400.000000	3.95228   	1400.000000	3.74028   	1400.000000	3.84018   	1400.000000	0.000346471	
1420.000000	3.68299   	1420.000000	3.83517   	1420.000000	3.94512   	1420.000000	3.7333    	1420.000000	3.83482   	1420.000000	0.00034196	
1440.000000	3.67849   	1440.000000	3.83015   	1440.000000	3.93826   	1440.000000	3.72662   	1440.000000	3.82981   	1440.000000	0.00033757	
1460.000000	3.67434   	1460.000000	3.82545   	1460.000000	3.9317    	1460.000000	3.72021   	1460.000000	3.82511   	1460.000000	0.000333296	
1480.000000	3.67053   	1480.000000	3.82106   	1480.000000	3.92543   	1480.000000	3.71407   	1480.000000	3.82073   	1480.000000	0.000329132	
1500.000000	3.66704   	1500.000000	3.81696   	1500.000000	3.91943   	1500.000000	3.70818   	1500.000000	3.81664   	1500.000000	0.000325075	
1520.000000	3.66387   	1520.000000	3.81316   	1520.000000	3.91368   	1520.000000	3.70254   	1520.000000	3.81283   	1520.000000	0.00032112	
1540.000000	3.661     	1540.000000	3.80962   	1540.000000	3.90817   	1540.000000	3.69713   	1540.000000	3.8093    	1540.000000	0.000317264	
1560.000000	3.65842   	1560.000000	3.80635   	1560.000000	3.90288   	1560.000000	3.69194   	1560.000000	3.80604   	1560.000000	0.000313502	
1580.000000	3.65613   	1580.000000	3.80333   	1580.000000	3.8978    	1580.000000	3.68697   	1580.000000	3.80302   	1580.000000	0.000309832	
1600.000000	3.6541    	1600.000000	3.80056   	1600.000000	3.89292   	1600.000000	3.6822    	1600.000000	3.80025   	1600.000000	0.00030625	
1620.000000	3.65234   	1620.000000	3.79802   	1620.000000	3.88823   	1620.000000	3.67763   	1620.000000	3.79772   	1620.000000	0.000302753	
1640.000000	3.65084   	1640.000000	3.79571   	1640.000000	3.88373   	1640.000000	3.67324   	1640.000000	3.79541   	1640.000000	0.000299338	
1660.000000	3.64958   	1660.000000	3.79362   	1660.000000	3.8794    	1660.000000	3.66904   	1660.000000	3.79332   	1660.000000	0.000296002	
1680.000000	3.64855   	1680.000000	3.79174   	1680.000000	3.87524   	1680.000000	3.66501   	1680.000000	3.79145   	1680.000000	0.000292742	
1700.000000	3.64776   	1700.000000	3.79006   	1700.000000	3.87124   	1700.000000	3.66115   	1700.000000	3.78977   	1700.000000	0.000289555	
1750.000000	3.64674   	1750.000000	3.78672   	1750.000000	3.86194   	1750.000000	3.65217   	1750.000000	3.78643   	1750.000000	0.000281895	
1800.000000	3.64701   	1800.000000	3.7845    	1800.000000	3.85354   	1800.000000	3.64411   	1800.000000	3.78422   	1800.000000	0.000274644	
1850.000000	3.64847   	1850.000000	3.78332   	1850.000000	3.84598   	1850.000000	3.63686   	1850.000000	3.78305   	1850.000000	0.000267769	
1900.000000	3.65105   	1900.000000	3.78309   	1900.000000	3.83918   	1900.000000	3.63036   	1900.000000	3.78283   	1900.000000	0.000261242	
1950.000000	3.65465   	1950.000000	3.78375   	1950.000000	3.83307   	1950.000000	3.62455   	1950.000000	3.7835    	1950.000000	0.000255037	
2000.000000	3.65922   	2000.000000	3.78523   	2000.000000	3.82761   	2000.000000	3.61935   	2000.000000	3.78498   	2000.000000	0.000249129	
2100.000000	3.671     	2100.000000	3.7904    	2100.000000	3.81839   	2100.000000	3.61062   	2100.000000	3.79016   	2100.000000	0.000238126	
2200.000000	3.68594   	2200.000000	3.79819   	2200.000000	3.81114   	2200.000000	3.6038    	2200.000000	3.79796   	2200.000000	0.000228085	
2300.000000	3.70369   	2300.000000	3.80826   	2300.000000	3.80554   	2300.000000	3.59859   	2300.000000	3.80804   	2300.000000	0.000218883	
2400.000000	3.72394   	2400.000000	3.82033   	2400.000000	3.80133   	2400.000000	3.59475   	2400.000000	3.82012   	2400.000000	0.000210419	
2500.000000	3.74643   	2500.000000	3.83415   	2500.000000	3.7983    	2500.000000	3.59207   	2500.000000	3.83395   	2500.000000	0.000202607	
2600.000000	3.77094   	2600.000000	3.84953   	2600.000000	3.79628   	2600.000000	3.59038   	2600.000000	3.84933   	2600.000000	0.000195373	
2700.000000	3.79728   	2700.000000	3.86627   	2700.000000	3.79513   	2700.000000	3.58954   	2700.000000	3.86609   	2700.000000	0.000188654	
2800.000000	3.82529   	2800.000000	3.88425   	2800.000000	3.79473   	2800.000000	3.58943   	2800.000000	3.88407   	2800.000000	0.000182397	
2900.000000	3.85483   	2900.000000	3.90332   	2900.000000	3.79499   	2900.000000	3.58996   	2900.000000	3.90315   	2900.000000	0.000176555	
3000.000000	3.88576   	3000.000000	3.92339   	3000.000000	3.7958    	3000.000000	3.59102   	3000.000000	3.92321   	3000.000000	0.000171088	
3200.000000	3.95142   	3200.000000	3.96609   	3200.000000	3.79883   	3200.000000	3.59449   	3200.000000	3.96593   	3200.000000	0.000161142	
3400.000000	4.02156   	3400.000000	4.01171   	3400.000000	3.8033    	3400.000000	3.59937   	3400.000000	4.01156   	3400.000000	0.000152323	
3600.000000	4.0956    	3600.000000	4.05975   	3600.000000	3.80887   	3600.000000	3.60531   	3600.000000	4.05961   	3600.000000	0.000144448	
3800.000000	4.1731    	3800.000000	4.10982   	3800.000000	3.81526   	3800.000000	3.61204   	3800.000000	4.10968   	3800.000000	0.000137372	
4000.000000	4.2537    	4000.000000	4.16159   	4000.000000	3.82225   	4000.000000	3.61935   	4000.000000	4.16146   	4000.000000	0.000130978	
4200.000000	4.3371    	4200.000000	4.21481   	4200.000000	3.82968   	4200.000000	3.6271    	4200.000000	4.21469   	4200.000000	0.000125171	
4400.000000	4.42305   	4400.000000	4.26927   	4400.000000	3.83744   	4400.000000	3.63515   	4400.000000	4.26915   	4400.000000	0.000119872	
4600.000000	4.51136   	4600.000000	4.32479   	4600.000000	3.84541   	4600.000000	3.64342   	4600.000000	4.32468   	4600.000000	0.000115018	
4800.000000	4.60185   	4800.000000	4.38123   	4800.000000	3.85353   	4800.000000	3.65184   	4800.000000	4.38112   	4800.000000	0.000110554	
5000.000000	4.69438   	5000.000000	4.43848   	5000.000000	3.86173   	5000.000000	3.66033   	5000.000000	4.43837   	5000.000000	0.000106434	
5250.000000	4.81273   	5250.000000	4.511     	5250.000000	3.87205   	5250.000000	3.671     	5250.000000	4.5109    	5250.000000	0.00010171	
5500.000000	4.93387   	5500.000000	4.58445   	5500.000000	3.88238   	5500.000000	3.68166   	5500.000000	4.58436   	5500.000000	9.73994e-05	
6000.000000	5.1839    	6000.000000	4.73361   	6000.000000	3.90287   	6000.000000	3.70275   	6000.000000	4.73352   	6000.000000	8.98195e-05	
6500.000000	5.44343   	6500.000000	4.88509   	6500.000000	3.92298   	6500.000000	3.72336   	6500.000000	4.88501   	6500.000000	8.3366e-05	
7000.000000	5.7117    	7000.000000	5.03832   	7000.000000	3.94225   	7000.000000	3.74333   	7000.000000	5.03824   	7000.000000	7.78031e-05	
7500.000000	5.98815   	7500.000000	5.19286   	7500.000000	3.96096   	7500.000000	3.76261   	7500.000000	5.19279   	7500.000000	7.29567e-05	
8000.000000	6.27237   	8000.000000	5.34839   	8000.000000	3.97891   	8000.000000	3.78116   	8000.000000	5.34832   	8000.000000	6.86955e-05	
8500.000000	6.56403   	8500.000000	5.50467   	8500.000000	3.99607   	8500.000000	3.799     	8500.000000	5.50461   	8500.000000	6.49185e-05	
9000.000000	6.86289   	9000.000000	5.66153   	9000.000000	4.0125    	9000.000000	3.81614   	9000.000000	5.66147   	9000.000000	6.1547e-05	
9500.000000	7.16875   	9500.000000	5.81881   	9500.000000	4.0283    	9500.000000	3.83261   	9500.000000	5.81875   	9500.000000	5.85183e-05	
10000.000000	7.48143   	10000.000000	5.97641   	10000.000000	4.0435    	10000.000000	3.84843   	10000.000000	5.97635   	10000.000000	5.57822e-05	
11000.000000	8.12684   	11000.000000	6.29223   	11000.000000	4.072     	11000.000000	3.87829   	11000.000000	6.29218   	11000.000000	5.10318e-05	
12000.000000	8.79836   	12000.000000	6.60849   	12000.000000	4.09811   	12000.000000	3.90598   	12000.000000	6.60844   	12000.000000	4.70475e-05	
13000.000000	9.49548   	13000.000000	6.92485   	13000.000000	4.12228   	13000.000000	3.93172   	13000.000000	6.92481   	13000.000000	4.36563e-05	
14000.000000	10.2179   	14000.000000	7.24111   	14000.000000	4.14487   	14000.000000	3.95575   	14000.000000	7.24107   	14000.000000	4.07339e-05	
15000.000000	10.9653   	15000.000000	7.55711   	15000.000000	4.16596   	15000.000000	3.97824   	15000.000000	7.55707   	15000.000000	3.81885e-05	
16000.000000	11.7376   	16000.000000	7.87276   	16000.000000	4.18548   	16000.000000	3.99936   	16000.000000	7.87272   	16000.000000	3.5951e-05	
17000.000000	12.5348   	17000.000000	8.18799   	17000.000000	4.20352   	17000.000000	4.01925   	17000.000000	8.18795   	17000.000000	3.39682e-05	
18000.000000	13.3567   	18000.000000	8.50275   	18000.000000	4.22027   	18000.000000	4.03804   	18000.000000	8.50272   	18000.000000	3.21986e-05	
19000.000000	14.2034   	19000.000000	8.81704   	19000.000000	4.23591   	19000.000000	4.05582   	19000.000000	8.817     	19000.000000	3.06093e-05	
20000.000000	15.0749   	20000.000000	9.13081   	20000.000000	4.2506    	20000.000000	4.0727    	20000.000000	9.13078   	20000.000000	2.91737e-05	
21000.000000	15.9712   	21000.000000	9.44408   	21000.000000	4.26451   	21000.000000	4.08875   	21000.000000	9.44405   	21000.000000	2.78705e-05	
22000.000000	16.8923   	22000.000000	9.75682   	22000.000000	4.27779   	22000.000000	4.10405   	22000.000000	9.7568    	22000.000000	2.66819e-05	
23000.000000	17.8384   	23000.000000	10.0691   	23000.000000	4.2902    	23000.000000	4.11865   	23000.000000	10.069    	23000.000000	2.55933e-05	
24000.000000	18.8095   	24000.000000	10.3808   	24000.000000	4.30186   	24000.000000	4.13262   	24000.000000	10.3808   	24000.000000	2.45926e-05	
25000.000000	19.8056   	25000.000000	10.692    	25000.000000	4.31296   	25000.000000	4.146     	25000.000000	10.692    	25000.000000	2.36693e-05	
26000.000000	20.827    	26000.000000	11.0027   	26000.000000	4.32347   	26000.000000	4.15884   	26000.000000	11.0027   	26000.000000	2.28148e-05	
27000.000000	21.8736   	27000.000000	11.3129   	27000.000000	4.33338   	27000.000000	4.17118   	27000.000000	11.3129   	27000.000000	2.20215e-05	
28000.000000	22.9456   	28000.000000	11.6227   	28000.000000	4.34276   	28000.000000	4.18306   	28000.000000	11.6227   	28000.000000	2.12831e-05	
29000.000000	24.0431   	29000.000000	11.932    	29000.000000	4.35167   	29000.000000	4.1945    	29000.000000	11.932    	29000.000000	2.0594e-05	
30000.000000	25.1662   	30000.000000	12.2408   	30000.000000	4.36017   	30000.000000	4.20553   	30000.000000	12.2408   	30000.000000	1.99493e-05	
32000.000000	27.4897   	32000.000000	12.8571   	32000.000000	4.37601   	32000.000000	4.22649   	32000.000000	12.8571   	32000.000000	1.87771e-05	
34000.000000	29.9171   	34000.000000	13.4717   	34000.000000	4.39044   	34000.000000	4.24612   	34000.000000	13.4716   	34000.000000	1.77386e-05	
36000.000000	32.4494   	36000.000000	14.0846   	36000.000000	4.40344   	36000.000000	4.26456   	36000.000000	14.0846   	36000.000000	1.68119e-05	
38000.000000	35.0876   	38000.000000	14.6959   	38000.000000	4.41514   	38000.000000	4.28195   	38000.000000	14.6959   	38000.000000	1.59797e-05	
40000.000000	37.8328   	40000.000000	15.3057   	40000.000000	4.42574   	40000.000000	4.2984    	40000.000000	15.3057   	40000.000000	1.52282e-05	
42000.000000	40.6861   	42000.000000	15.9141   	42000.000000	4.43548   	42000.000000	4.31401   	42000.000000	15.9141   	42000.000000	1.4546e-05	
44000.000000	43.6486   	44000.000000	16.5211   	44000.000000	4.44452   	44000.000000	4.32884   	44000.000000	16.5211   	44000.000000	1.3924e-05	
46000.000000	46.7215   	46000.000000	17.1268   	46000.000000	4.45302   	46000.000000	4.34298   	46000.000000	17.1268   	46000.000000	1.33543e-05	
48000.000000	49.906    	48000.000000	17.7312   	48000.000000	4.46098   	48000.000000	4.35648   	48000.000000	17.7312   	48000.000000	1.28307e-05	
50000.000000	53.2031   	50000.000000	18.3343   	50000.000000	4.46822   	50000.000000	4.3694    	50000.000000	18.3343   	50000.000000	1.23477e-05	
