Energy (MeV/u)1	0 - [He-base] F.Hubert et al, AD&ND Tables 46(1990)1	Energy (MeV/u)2	1 - [H -base] J.F.Ziegler et al, Pergamon Press, NY (low energy)	Energy (MeV/u)3	2 - ATIMA 1.2  LS-theory (recommended for high energy)	Energy (MeV/u)4	3 - ATIMA 1.2  without LS-correction	Energy (MeV/u)5	4 - electrical component of [1] - J.F.Ziegler et al	Energy (MeV/u)6	5 - nuclear component of [1] - J.F.Ziegler et al	
0.001000	3.43698   	0.001000	3.43698   	0.001000	2.93398   	0.001000	2.93398   	0.001000	1.86656   	0.001000	1.57042   	
0.002000	3.55404   	0.002000	3.55404   	0.002000	3.06175   	0.002000	3.06175   	0.002000	2.42063   	0.002000	1.13341   	
0.005000	4.07523   	0.005000	4.07523   	0.005000	3.71102   	0.005000	3.71102   	0.005000	3.41315   	0.005000	0.662078  	
0.008000	4.55566   	0.008000	4.55566   	0.008000	4.3413    	0.008000	4.3413    	0.008000	4.07099   	0.008000	0.484666  	
0.010000	4.8414    	0.010000	4.8414    	0.010000	4.72694   	0.010000	4.72694   	0.010000	4.42631   	0.010000	0.415097  	
0.015000	5.82991   	0.015000	5.82991   	0.015000	5.4744    	0.015000	5.4744    	0.015000	5.52246   	0.015000	0.307448  	
0.020000	7.0653    	0.020000	7.0653    	0.020000	6.13356   	0.020000	6.13356   	0.020000	6.81694   	0.020000	0.248362  	
0.025000	8.28246   	0.025000	8.28246   	0.025000	6.78231   	0.025000	6.78231   	0.025000	8.07274   	0.025000	0.209721  	
0.030000	9.47294   	0.030000	9.47294   	0.030000	7.62027   	0.030000	7.62027   	0.030000	9.29067   	0.030000	0.182278  	
0.035000	10.4012   	0.035000	10.4012   	0.035000	8.42436   	0.035000	8.42436   	0.035000	10.2396   	0.035000	0.161681  	
0.040000	11.2344   	0.040000	11.2344   	0.040000	9.19262   	0.040000	9.19262   	0.040000	11.0888   	0.040000	0.145597  	
0.045000	12.0167   	0.045000	12.0167   	0.045000	9.92366   	0.045000	9.92366   	0.045000	11.884    	0.045000	0.132654  	
0.050000	12.7475   	0.050000	12.7475   	0.050000	10.6166   	0.050000	10.6166   	0.050000	12.6255   	0.050000	0.121993  	
0.055000	13.4262   	0.055000	13.4262   	0.055000	11.2708   	0.055000	11.2708   	0.055000	13.3131   	0.055000	0.113044  	
0.060000	14.0521   	0.060000	14.0521   	0.060000	11.8864   	0.060000	11.8864   	0.060000	13.9467   	0.060000	0.105416  	
0.070000	15.149    	0.070000	15.149    	0.070000	13.0028   	0.070000	13.0028   	0.070000	15.0559   	0.070000	0.0930779 	
0.080000	16.2163   	0.080000	16.2163   	0.080000	13.9714   	0.080000	13.9714   	0.080000	16.1328   	0.080000	0.083506  	
0.090000	17.0666   	0.090000	17.0666   	0.090000	14.8012   	0.090000	14.8012   	0.090000	16.9907   	0.090000	0.0758449 	
0.100000	17.718    	0.100000	17.718    	0.100000	15.5035   	0.100000	15.5035   	0.100000	17.6484   	0.100000	0.0695625 	
0.120000	18.5214   	0.120000	18.5214   	0.120000	16.5752   	0.120000	16.5752   	0.120000	18.4615   	0.120000	0.0598464 	
0.140000	18.8313   	0.140000	18.8313   	0.140000	17.2848   	0.140000	17.2848   	0.140000	18.7787   	0.140000	0.0526577 	
0.160000	18.8305   	0.160000	18.8305   	0.160000	17.7208   	0.160000	17.7208   	0.160000	18.7834   	0.160000	0.0471068 	
0.180000	18.6544   	0.180000	18.6544   	0.180000	17.9556   	0.180000	17.9556   	0.180000	18.6117   	0.180000	0.0426814 	
0.200000	18.3923   	0.200000	18.3923   	0.200000	18.046    	0.200000	18.046    	0.200000	18.3532   	0.200000	0.0390643 	
0.250000	17.7101   	0.250000	17.7101   	0.250000	17.893    	0.250000	17.893    	0.250000	17.6778   	0.250000	0.0323545 	
0.300000	17.1684   	0.300000	17.1684   	0.300000	17.484    	0.300000	17.484    	0.300000	17.1407   	0.300000	0.0277132 	
0.350000	16.7079   	0.350000	16.7079   	0.350000	16.999    	0.350000	16.999    	0.350000	16.6836   	0.350000	0.0242984 	
0.400000	16.3209   	0.400000	16.3209   	0.400000	16.5121   	0.400000	16.5121   	0.400000	16.2993   	0.400000	0.0216737 	
0.450000	16.0501   	0.450000	16.0501   	0.450000	16.1114   	0.450000	16.1114   	0.450000	16.0305   	0.450000	0.019589  	
0.500000	15.7907   	0.500000	15.7907   	0.500000	15.8095   	0.500000	15.8095   	0.500000	15.7728   	0.500000	0.0178905 	
0.600000	15.3485   	0.600000	15.3485   	0.600000	15.2005   	0.600000	15.2005   	0.600000	15.3332   	0.600000	0.0152843 	
0.700000	14.9109   	0.700000	14.9109   	0.700000	14.6123   	0.700000	14.6123   	0.700000	14.8975   	0.700000	0.013373  	
0.800000	14.4882   	0.800000	14.4882   	0.800000	14.0206   	0.800000	14.0206   	0.800000	14.4763   	0.800000	0.0119076 	
0.900000	14.0546   	0.900000	14.0546   	0.900000	13.4843   	0.900000	13.4843   	0.900000	14.0439   	0.900000	0.0107463 	
1.000000	13.6207   	1.000000	13.6207   	1.000000	12.9942   	1.000000	12.9942   	1.000000	13.6109   	1.000000	0.00980186	
1.250000	12.5758   	1.250000	12.5758   	1.250000	11.9277   	1.250000	11.9277   	1.250000	12.5677   	1.250000	0.00806211	
1.500000	11.6236   	1.500000	11.6236   	1.500000	10.9766   	1.500000	10.9766   	1.500000	11.6167   	1.500000	0.00686864	
1.750000	10.7747   	1.750000	10.7747   	1.750000	10.1933   	1.750000	10.1933   	1.750000	10.7687   	1.750000	0.00599626	
2.000000	9.99913   	2.000000	9.99913   	2.000000	9.52844   	2.000000	9.52844   	2.000000	9.9938    	2.000000	0.00532924	
2.250000	9.32112   	2.250000	9.32112   	2.250000	8.95285   	2.250000	8.95285   	2.250000	9.31632   	2.250000	0.0048018 	
2.500000	9.12005   	2.500000	8.72537   	2.500000	8.44766   	2.500000	8.44766   	2.500000	8.721     	2.500000	0.0043737 	
3.000000	8.07964   	3.000000	7.70376   	3.000000	7.59899   	3.000000	7.59899   	3.000000	7.70004   	3.000000	0.00371986	
3.500000	7.25814   	3.500000	6.8927    	3.500000	6.91158   	3.500000	6.91158   	3.500000	6.88946   	3.500000	0.00324288	
4.000000	6.59324   	4.000000	6.23851   	4.000000	6.34227   	4.000000	6.34227   	4.000000	6.23563   	4.000000	0.00287877	
4.500000	6.04404   	4.500000	5.69775   	4.500000	5.86249   	4.500000	5.86249   	4.500000	5.69516   	4.500000	0.00259126	
5.000000	5.58269   	5.000000	5.24174   	5.000000	5.45239   	5.000000	5.45239   	5.000000	5.23938   	5.000000	0.00235817	
5.500000	5.18957   	5.500000	4.85232   	5.500000	5.09765   	5.500000	5.09765   	5.500000	4.85015   	5.500000	0.00216521	
6.000000	4.85053   	6.000000	4.51586   	6.000000	4.78765   	6.000000	4.78765   	6.000000	4.51386   	6.000000	0.0020027 	
6.500000	4.55506   	6.500000	4.22211   	6.500000	4.51434   	6.500000	4.51434   	6.500000	4.22025   	6.500000	0.00186386	
7.000000	4.29523   	7.000000	3.96338   	7.000000	4.27152   	7.000000	4.27152   	7.000000	3.96163   	7.000000	0.00174381	
7.500000	4.06491   	7.500000	3.73373   	7.500000	4.0543    	7.500000	4.0543    	7.500000	3.73209   	7.500000	0.00163893	
8.000000	3.85931   	8.000000	3.52853   	8.000000	3.85881   	8.000000	3.85881   	8.000000	3.52698   	8.000000	0.00154646	
8.500000	3.67462   	8.500000	3.34409   	8.500000	3.68191   	8.500000	3.68191   	8.500000	3.34263   	8.500000	0.00146431	
9.000000	3.50779   	9.000000	3.17744   	9.000000	3.52104   	9.000000	3.52104   	9.000000	3.17604   	9.000000	0.00139081	
9.500000	3.35633   	9.500000	3.02612   	9.500000	3.37411   	9.500000	3.37411   	9.500000	3.0248    	9.500000	0.00132464	
10.000000	3.21818   	10.000000	2.91642   	10.000000	3.23936   	10.000000	3.23936   	10.000000	2.91516   	10.000000	0.00126475	
11.000000	2.97535   	11.000000	2.73056   	11.000000	2.99569   	11.000000	2.99854   	11.000000	2.72939   	11.000000	0.00116048	
12.000000	2.76872   	12.000000	2.56729   	12.000000	2.78701   	12.000000	2.7918    	12.000000	2.56622   	12.000000	0.00107273	
13.000000	2.5907    	13.000000	2.42292   	13.000000	2.60633   	13.000000	2.61244   	13.000000	2.42192   	13.000000	0.000997825	
14.000000	2.43569   	14.000000	2.29445   	14.000000	2.44842   	14.000000	2.45539   	14.000000	2.29352   	14.000000	0.000933093	
15.000000	2.29945   	15.000000	2.17946   	15.000000	2.30926   	15.000000	2.31678   	15.000000	2.17858   	15.000000	0.000876571	
16.000000	2.17875   	16.000000	2.07597   	16.000000	2.18573   	16.000000	2.19358   	16.000000	2.07514   	16.000000	0.000826771	
17.000000	2.07104   	17.000000	1.98236   	17.000000	2.07538   	17.000000	2.0834    	17.000000	1.98157   	17.000000	0.000782544	
18.000000	1.97432   	18.000000	1.8973    	18.000000	1.97627   	18.000000	1.98431   	18.000000	1.89655   	18.000000	0.000742994	
19.000000	1.88696   	19.000000	1.81968   	19.000000	1.88678   	19.000000	1.89475   	19.000000	1.81897   	19.000000	0.000707406	
20.000000	1.80766   	20.000000	1.74857   	20.000000	1.80558   	20.000000	1.81345   	20.000000	1.74789   	20.000000	0.000675205	
21.000000	1.73534   	21.000000	1.68319   	21.000000	1.7316    	21.000000	1.73933   	21.000000	1.68254   	21.000000	0.000645924	
22.000000	1.6691    	22.000000	1.62287   	22.000000	1.66395   	22.000000	1.67152   	22.000000	1.62226   	22.000000	0.000619177	
23.000000	1.6082    	23.000000	1.56706   	23.000000	1.6019    	23.000000	1.60928   	23.000000	1.56646   	23.000000	0.000594644	
24.000000	1.55201   	24.000000	1.51526   	24.000000	1.54484   	24.000000	1.55196   	24.000000	1.51469   	24.000000	0.000572059	
25.000000	1.50001   	25.000000	1.46705   	25.000000	1.49219   	25.000000	1.49903   	25.000000	1.4665    	25.000000	0.000551195	
27.000000	1.40677   	27.000000	1.38003   	27.000000	1.39829   	27.000000	1.40454   	27.000000	1.37951   	27.000000	0.000513888	
29.000000	1.32556   	29.000000	1.3036    	29.000000	1.31712   	29.000000	1.32281   	29.000000	1.30312   	29.000000	0.000481493	
31.000000	1.25415   	31.000000	1.23595   	31.000000	1.24641   	31.000000	1.25134   	31.000000	1.23549   	31.000000	0.000453087	
33.000000	1.19086   	33.000000	1.17562   	33.000000	1.18382   	33.000000	1.18793   	33.000000	1.17519   	33.000000	0.000427969	
35.000000	1.13435   	35.000000	1.12149   	35.000000	1.12789   	35.000000	1.13128   	35.000000	1.12109   	35.000000	0.000405591	
38.000000	1.06007   	38.000000	1.04996   	38.000000	1.05433   	38.000000	1.05678   	38.000000	1.04959   	38.000000	0.000376245	
41.000000	0.996014  	41.000000	0.987951  	41.000000	0.990738  	41.000000	0.992514  	41.000000	0.9876    	41.000000	0.000351006	
44.000000	0.940186  	44.000000	0.933663  	44.000000	0.935239  	44.000000	0.936484  	44.000000	0.933334  	44.000000	0.000329057	
47.000000	0.891071  	47.000000	0.885728  	47.000000	0.886412  	47.000000	0.887185  	47.000000	0.885418  	47.000000	0.000309788	
50.000000	0.847508  	50.000000	0.843082  	50.000000	0.843026  	50.000000	0.843458  	50.000000	0.842789  	50.000000	0.00029273	
55.000000	0.784868  	55.000000	0.781561  	55.000000	0.78057   	55.000000	0.780591  	55.000000	0.781292  	55.000000	0.000268259	
60.000000	0.732085  	60.000000	0.729554  	60.000000	0.727949  	60.000000	0.727637  	60.000000	0.729306  	60.000000	0.000247697	
65.000000	0.686965  	65.000000	0.684993  	65.000000	0.682993  	65.000000	0.682399  	65.000000	0.684763  	65.000000	0.000230165	
70.000000	0.647926  	70.000000	0.646371  	70.000000	0.644041  	70.000000	0.643288  	70.000000	0.646156  	70.000000	0.000215033	
75.000000	0.613796  	75.000000	0.612564  	75.000000	0.610057  	75.000000	0.609128  	75.000000	0.612362  	75.000000	0.000201834	
80.000000	0.583686  	80.000000	0.582715  	80.000000	0.580049  	80.000000	0.579024  	80.000000	0.582524  	80.000000	0.000190217	
85.000000	0.556912  	85.000000	0.556161  	85.000000	0.553389  	85.000000	0.552289  	85.000000	0.555981  	85.000000	0.000179909	
90.000000	0.532939  	90.000000	0.53238   	90.000000	0.529546  	90.000000	0.528382  	90.000000	0.532209  	90.000000	0.000170699	
95.000000	0.51134   	95.000000	0.510955  	95.000000	0.508092  	95.000000	0.506874  	95.000000	0.510792  	95.000000	0.000162418	
100.000000	0.491771  	100.000000	0.491549  	100.000000	0.488682  	100.000000	0.487418  	100.000000	0.491394  	100.000000	0.000154931	
105.000000	0.473954  	105.000000	0.473888  	105.000000	0.471035  	105.000000	0.469731  	105.000000	0.47374   	105.000000	0.000148128	
110.000000	0.457658  	110.000000	0.457744  	110.000000	0.454921  	110.000000	0.453581  	110.000000	0.457602  	110.000000	0.000141917	
115.000000	0.442692  	115.000000	0.442928  	115.000000	0.440143  	115.000000	0.438775  	115.000000	0.442792  	115.000000	0.000136225	
120.000000	0.428895  	120.000000	0.429281  	120.000000	0.426551  	120.000000	0.425151  	120.000000	0.42915   	120.000000	0.000130987	
125.000000	0.416134  	125.000000	0.41667   	125.000000	0.413985  	125.000000	0.412572  	125.000000	0.416544  	125.000000	0.000126151	
130.000000	0.404292  	130.000000	0.404979  	130.000000	0.40232   	130.000000	0.400922  	130.000000	0.404858  	130.000000	0.000121672	
135.000000	0.393271  	135.000000	0.394111  	135.000000	0.391513  	135.000000	0.390102  	135.000000	0.393994  	135.000000	0.000117511	
140.000000	0.382987  	140.000000	0.383982  	140.000000	0.381461  	140.000000	0.380024  	140.000000	0.383869  	140.000000	0.000113635	
145.000000	0.373366  	145.000000	0.374518  	145.000000	0.372059  	145.000000	0.370616  	145.000000	0.374408  	145.000000	0.000110016	
150.000000	0.364345  	150.000000	0.365656  	150.000000	0.36324   	150.000000	0.361813  	150.000000	0.365549  	150.000000	0.000106628	
155.000000	0.351713  	155.000000	0.357338  	155.000000	0.354992  	155.000000	0.353558  	155.000000	0.357235  	155.000000	0.00010345	
160.000000	0.344268  	160.000000	0.349518  	160.000000	0.347244  	160.000000	0.345801  	160.000000	0.349417  	160.000000	0.000100462	
165.000000	0.33725   	165.000000	0.34215   	165.000000	0.339927  	165.000000	0.338499  	165.000000	0.342053  	165.000000	9.76483e-05	
170.000000	0.330623  	170.000000	0.335198  	170.000000	0.333041  	170.000000	0.331613  	170.000000	0.335103  	170.000000	9.49933e-05	
175.000000	0.324354  	175.000000	0.328626  	175.000000	0.326547  	175.000000	0.325108  	175.000000	0.328533  	175.000000	9.2484e-05	
180.000000	0.318416  	180.000000	0.322404  	180.000000	0.320387  	180.000000	0.318954  	180.000000	0.322314  	180.000000	9.01084e-05	
185.000000	0.312781  	185.000000	0.316505  	185.000000	0.314539  	185.000000	0.313124  	185.000000	0.316417  	185.000000	8.7856e-05	
190.000000	0.307428  	190.000000	0.310904  	190.000000	0.308994  	190.000000	0.307591  	190.000000	0.310818  	190.000000	8.57175e-05	
195.000000	0.302334  	195.000000	0.30558   	195.000000	0.303737  	195.000000	0.302335  	195.000000	0.305496  	195.000000	8.36842e-05	
200.000000	0.297483  	200.000000	0.300512  	200.000000	0.298745  	200.000000	0.297335  	200.000000	0.30043   	200.000000	8.17486e-05	
210.000000	0.288438  	210.000000	0.291074  	210.000000	0.289431  	210.000000	0.288033  	210.000000	0.290996  	210.000000	7.81429e-05	
220.000000	0.280175  	220.000000	0.282465  	220.000000	0.280933  	220.000000	0.279559  	220.000000	0.28239   	220.000000	7.48523e-05	
230.000000	0.272596  	230.000000	0.274582  	230.000000	0.273189  	230.000000	0.271807  	230.000000	0.27451   	230.000000	7.18367e-05	
240.000000	0.265619  	240.000000	0.267336  	240.000000	0.266063  	240.000000	0.264691  	240.000000	0.267267  	240.000000	6.90626e-05	
250.000000	0.259174  	250.000000	0.260653  	250.000000	0.25949   	250.000000	0.258136  	250.000000	0.260587  	250.000000	6.65019e-05	
260.000000	0.253202  	260.000000	0.254472  	260.000000	0.253416  	260.000000	0.252079  	260.000000	0.254408  	260.000000	6.41306e-05	
270.000000	0.247653  	270.000000	0.248738  	270.000000	0.247795  	270.000000	0.246467  	270.000000	0.248676  	270.000000	6.19281e-05	
280.000000	0.242484  	280.000000	0.243404  	280.000000	0.242586  	280.000000	0.241252  	280.000000	0.243344  	280.000000	5.98769e-05	
290.000000	0.237657  	290.000000	0.238432  	290.000000	0.237719  	290.000000	0.236396  	290.000000	0.238374  	290.000000	5.79617e-05	
300.000000	0.233139  	300.000000	0.233785  	300.000000	0.233171  	300.000000	0.231863  	300.000000	0.233729  	300.000000	5.61693e-05	
310.000000	0.228901  	310.000000	0.229434  	310.000000	0.22892   	310.000000	0.227622  	310.000000	0.22938   	310.000000	5.44881e-05	
320.000000	0.224919  	320.000000	0.225352  	320.000000	0.224934  	320.000000	0.223647  	320.000000	0.225299  	320.000000	5.2908e-05	
330.000000	0.22117   	330.000000	0.221514  	330.000000	0.221188  	330.000000	0.219915  	330.000000	0.221463  	330.000000	5.142e-05 	
340.000000	0.217634  	340.000000	0.217901  	340.000000	0.21767   	340.000000	0.216404  	340.000000	0.217851  	340.000000	5.00161e-05	
350.000000	0.214293  	350.000000	0.214494  	350.000000	0.214366  	350.000000	0.213096  	350.000000	0.214445  	350.000000	4.86895e-05	
360.000000	0.211134  	360.000000	0.211275  	360.000000	0.211243  	360.000000	0.209974  	360.000000	0.211227  	360.000000	4.74337e-05	
370.000000	0.20814   	370.000000	0.20823   	370.000000	0.208282  	370.000000	0.207024  	370.000000	0.208184  	370.000000	4.62432e-05	
380.000000	0.2053    	380.000000	0.205347  	380.000000	0.20548   	380.000000	0.204233  	380.000000	0.205302  	380.000000	4.5113e-05	
390.000000	0.202603  	390.000000	0.202612  	390.000000	0.202827  	390.000000	0.201587  	390.000000	0.202568  	390.000000	4.40386e-05	
400.000000	0.200038  	400.000000	0.200015  	400.000000	0.20031   	400.000000	0.199078  	400.000000	0.199972  	400.000000	4.30158e-05	
410.000000	0.197595  	410.000000	0.197546  	410.000000	0.197918  	410.000000	0.196694  	410.000000	0.197504  	410.000000	4.20411e-05	
420.000000	0.195268  	420.000000	0.195197  	420.000000	0.195644  	420.000000	0.194428  	420.000000	0.195156  	420.000000	4.1111e-05	
430.000000	0.193047  	430.000000	0.192959  	430.000000	0.19348   	430.000000	0.19227   	430.000000	0.192919  	430.000000	4.02226e-05	
440.000000	0.190926  	440.000000	0.190825  	440.000000	0.191417  	440.000000	0.190214  	440.000000	0.190786  	440.000000	3.9373e-05	
450.000000	0.1889    	450.000000	0.188788  	450.000000	0.18945   	450.000000	0.188254  	450.000000	0.18875   	450.000000	3.85598e-05	
460.000000	0.18696   	460.000000	0.186843  	460.000000	0.187571  	460.000000	0.186382  	460.000000	0.186805  	460.000000	3.77806e-05	
470.000000	0.185104  	470.000000	0.184982  	470.000000	0.185776  	470.000000	0.184594  	470.000000	0.184945  	470.000000	3.70333e-05	
480.000000	0.183325  	480.000000	0.183202  	480.000000	0.184063  	480.000000	0.182884  	480.000000	0.183166  	480.000000	3.63159e-05	
490.000000	0.181619  	490.000000	0.181498  	490.000000	0.182429  	490.000000	0.181248  	490.000000	0.181462  	490.000000	3.56268e-05	
500.000000	0.179981  	500.000000	0.179864  	500.000000	0.180863  	500.000000	0.17968   	500.000000	0.179829  	500.000000	3.49642e-05	
520.000000	0.176899  	520.000000	0.176795  	520.000000	0.177912  	520.000000	0.176738  	520.000000	0.176761  	520.000000	3.37126e-05	
540.000000	0.174048  	540.000000	0.173965  	540.000000	0.17519   	540.000000	0.174027  	540.000000	0.173932  	540.000000	3.25504e-05	
560.000000	0.171407  	560.000000	0.171349  	560.000000	0.172678  	560.000000	0.171525  	560.000000	0.171318  	560.000000	3.14681e-05	
580.000000	0.168954  	580.000000	0.168927  	580.000000	0.170353  	580.000000	0.169209  	580.000000	0.168896  	580.000000	3.04578e-05	
600.000000	0.166672  	600.000000	0.166678  	600.000000	0.168197  	600.000000	0.16706   	600.000000	0.166649  	600.000000	2.95124e-05	
620.000000	0.164544  	620.000000	0.164588  	620.000000	0.166192  	620.000000	0.165063  	620.000000	0.164559  	620.000000	2.86257e-05	
640.000000	0.162558  	640.000000	0.162641  	640.000000	0.164325  	640.000000	0.163204  	640.000000	0.162613  	640.000000	2.77925e-05	
660.000000	0.1607    	660.000000	0.160824  	660.000000	0.162584  	660.000000	0.16147   	660.000000	0.160797  	660.000000	2.70079e-05	
680.000000	0.15896   	680.000000	0.159127  	680.000000	0.160958  	680.000000	0.15985   	680.000000	0.159101  	680.000000	2.62678e-05	
700.000000	0.157328  	700.000000	0.15754   	700.000000	0.159435  	700.000000	0.158334  	700.000000	0.157514  	700.000000	2.55685e-05	
720.000000	0.155796  	720.000000	0.156053  	720.000000	0.158009  	720.000000	0.156913  	720.000000	0.156028  	720.000000	2.49066e-05	
740.000000	0.154356  	740.000000	0.154658  	740.000000	0.15667   	740.000000	0.15558   	740.000000	0.154634  	740.000000	2.42792e-05	
760.000000	0.153002  	760.000000	0.15335   	760.000000	0.155413  	760.000000	0.154328  	760.000000	0.153326  	760.000000	2.36836e-05	
780.000000	0.151726  	780.000000	0.15212   	780.000000	0.15423   	780.000000	0.15315   	780.000000	0.152097  	780.000000	2.31175e-05	
800.000000	0.150524  	800.000000	0.150964  	800.000000	0.153117  	800.000000	0.152041  	800.000000	0.150941  	800.000000	2.25787e-05	
820.000000	0.14939   	820.000000	0.149876  	820.000000	0.152067  	820.000000	0.150996  	820.000000	0.149854  	820.000000	2.20652e-05	
840.000000	0.14832   	840.000000	0.148851  	840.000000	0.151076  	840.000000	0.15001   	840.000000	0.148829  	840.000000	2.15753e-05	
860.000000	0.147309  	860.000000	0.147885  	860.000000	0.150141  	860.000000	0.149079  	860.000000	0.147864  	860.000000	2.11074e-05	
880.000000	0.146354  	880.000000	0.146974  	880.000000	0.149257  	880.000000	0.148199  	880.000000	0.146954  	880.000000	2.06599e-05	
900.000000	0.145451  	900.000000	0.146115  	900.000000	0.14842   	900.000000	0.147366  	900.000000	0.146095  	900.000000	2.02317e-05	
920.000000	0.144597  	920.000000	0.145304  	920.000000	0.147629  	920.000000	0.146578  	920.000000	0.145285  	920.000000	1.98214e-05	
940.000000	0.143788  	940.000000	0.144539  	940.000000	0.146878  	940.000000	0.145831  	940.000000	0.144519  	940.000000	1.94279e-05	
960.000000	0.143024  	960.000000	0.143816  	960.000000	0.146167  	960.000000	0.145123  	960.000000	0.143797  	960.000000	1.90503e-05	
980.000000	0.142299  	980.000000	0.143132  	980.000000	0.145493  	980.000000	0.144452  	980.000000	0.143114  	980.000000	1.86875e-05	
1000.000000	0.141614  	1000.000000	0.142487  	1000.000000	0.144852  	1000.000000	0.143814  	1000.000000	0.142468  	1000.000000	1.83387e-05	
1020.000000	0.140964  	1020.000000	0.141876  	1020.000000	0.144244  	1020.000000	0.143209  	1020.000000	0.141858  	1020.000000	1.80031e-05	
1040.000000	0.140349  	1040.000000	0.141299  	1040.000000	0.143666  	1040.000000	0.142634  	1040.000000	0.141282  	1040.000000	1.768e-05 	
1060.000000	0.139766  	1060.000000	0.140754  	1060.000000	0.143116  	1060.000000	0.142087  	1060.000000	0.140737  	1060.000000	1.73686e-05	
1080.000000	0.139214  	1080.000000	0.140239  	1080.000000	0.142594  	1080.000000	0.141567  	1080.000000	0.140222  	1080.000000	1.70684e-05	
1100.000000	0.138692  	1100.000000	0.139751  	1100.000000	0.142096  	1100.000000	0.141072  	1100.000000	0.139735  	1100.000000	1.67786e-05	
1120.000000	0.138197  	1120.000000	0.139291  	1120.000000	0.141623  	1120.000000	0.140601  	1120.000000	0.139275  	1120.000000	1.64989e-05	
1140.000000	0.137728  	1140.000000	0.138856  	1140.000000	0.141172  	1140.000000	0.140152  	1140.000000	0.13884   	1140.000000	1.62286e-05	
1160.000000	0.137285  	1160.000000	0.138445  	1160.000000	0.140742  	1160.000000	0.139725  	1160.000000	0.138429  	1160.000000	1.59674e-05	
1180.000000	0.136865  	1180.000000	0.138057  	1180.000000	0.140332  	1180.000000	0.139318  	1180.000000	0.138041  	1180.000000	1.57146e-05	
1200.000000	0.136468  	1200.000000	0.137691  	1200.000000	0.139942  	1200.000000	0.138929  	1200.000000	0.137675  	1200.000000	1.547e-05 	
1220.000000	0.136093  	1220.000000	0.137345  	1220.000000	0.13957   	1220.000000	0.138559  	1220.000000	0.13733   	1220.000000	1.52332e-05	
1240.000000	0.135739  	1240.000000	0.137019  	1240.000000	0.139215  	1240.000000	0.138206  	1240.000000	0.137004  	1240.000000	1.50037e-05	
1260.000000	0.135404  	1260.000000	0.136712  	1260.000000	0.138876  	1260.000000	0.137869  	1260.000000	0.136698  	1260.000000	1.47812e-05	
1280.000000	0.135089  	1280.000000	0.136423  	1280.000000	0.138553  	1280.000000	0.137548  	1280.000000	0.136409  	1280.000000	1.45655e-05	
1300.000000	0.134791  	1300.000000	0.136152  	1300.000000	0.138244  	1300.000000	0.137241  	1300.000000	0.136137  	1300.000000	1.43561e-05	
1320.000000	0.134511  	1320.000000	0.135896  	1320.000000	0.13795   	1320.000000	0.136948  	1320.000000	0.135882  	1320.000000	1.41529e-05	
1340.000000	0.134248  	1340.000000	0.135656  	1340.000000	0.137668  	1340.000000	0.136669  	1340.000000	0.135642  	1340.000000	1.39555e-05	
1360.000000	0.134     	1360.000000	0.135431  	1360.000000	0.1374    	1360.000000	0.136402  	1360.000000	0.135417  	1360.000000	1.37638e-05	
1380.000000	0.133768  	1380.000000	0.135221  	1380.000000	0.137143  	1380.000000	0.136147  	1380.000000	0.135207  	1380.000000	1.35774e-05	
1400.000000	0.13355   	1400.000000	0.135024  	1400.000000	0.136899  	1400.000000	0.135904  	1400.000000	0.13501   	1400.000000	1.33961e-05	
1420.000000	0.133347  	1420.000000	0.13484   	1420.000000	0.136665  	1420.000000	0.135671  	1420.000000	0.134827  	1420.000000	1.32198e-05	
1440.000000	0.133157  	1440.000000	0.134669  	1440.000000	0.136441  	1440.000000	0.13545   	1440.000000	0.134656  	1440.000000	1.30482e-05	
1460.000000	0.13298   	1460.000000	0.13451   	1460.000000	0.136228  	1460.000000	0.135238  	1460.000000	0.134497  	1460.000000	1.28811e-05	
1480.000000	0.132816  	1480.000000	0.134363  	1480.000000	0.136024  	1480.000000	0.135035  	1480.000000	0.13435   	1480.000000	1.27184e-05	
1500.000000	0.132664  	1500.000000	0.134226  	1500.000000	0.13583   	1500.000000	0.134842  	1500.000000	0.134214  	1500.000000	1.25599e-05	
1520.000000	0.132523  	1520.000000	0.134101  	1520.000000	0.135644  	1520.000000	0.134658  	1520.000000	0.134089  	1520.000000	1.24054e-05	
1540.000000	0.132394  	1540.000000	0.133986  	1540.000000	0.135467  	1540.000000	0.134481  	1540.000000	0.133973  	1540.000000	1.22548e-05	
1560.000000	0.132275  	1560.000000	0.13388   	1560.000000	0.135297  	1560.000000	0.134313  	1560.000000	0.133868  	1560.000000	1.21079e-05	
1580.000000	0.132167  	1580.000000	0.133785  	1580.000000	0.135136  	1580.000000	0.134153  	1580.000000	0.133773  	1580.000000	1.19646e-05	
1600.000000	0.132069  	1600.000000	0.133698  	1600.000000	0.134981  	1600.000000	0.134     	1600.000000	0.133686  	1600.000000	1.18247e-05	
1620.000000	0.131981  	1620.000000	0.133621  	1620.000000	0.134834  	1620.000000	0.133854  	1620.000000	0.133609  	1620.000000	1.16882e-05	
1640.000000	0.131902  	1640.000000	0.133551  	1640.000000	0.134694  	1640.000000	0.133714  	1640.000000	0.13354   	1640.000000	1.15549e-05	
1660.000000	0.131832  	1660.000000	0.133491  	1660.000000	0.13456   	1660.000000	0.133581  	1660.000000	0.133479  	1660.000000	1.14247e-05	
1680.000000	0.131771  	1680.000000	0.133438  	1680.000000	0.134432  	1680.000000	0.133455  	1680.000000	0.133426  	1680.000000	1.12975e-05	
1700.000000	0.131719  	1700.000000	0.133392  	1700.000000	0.13431   	1700.000000	0.133334  	1700.000000	0.133381  	1700.000000	1.11732e-05	
1750.000000	0.131623  	1750.000000	0.133311  	1750.000000	0.134031  	1750.000000	0.133057  	1750.000000	0.1333    	1750.000000	1.08745e-05	
1800.000000	0.131575  	1800.000000	0.133272  	1800.000000	0.133784  	1800.000000	0.132812  	1800.000000	0.133261  	1800.000000	1.05917e-05	
1850.000000	0.131571  	1850.000000	0.133272  	1850.000000	0.133566  	1850.000000	0.132596  	1850.000000	0.133262  	1850.000000	1.03238e-05	
1900.000000	0.131607  	1900.000000	0.133308  	1900.000000	0.133375  	1900.000000	0.132408  	1900.000000	0.133298  	1900.000000	1.00694e-05	
1950.000000	0.131682  	1950.000000	0.133377  	1950.000000	0.133209  	1950.000000	0.132243  	1950.000000	0.133367  	1950.000000	9.82771e-06	
2000.000000	0.131792  	2000.000000	0.133477  	2000.000000	0.133065  	2000.000000	0.132101  	2000.000000	0.133468  	2000.000000	9.59767e-06	
2100.000000	0.13211   	2100.000000	0.133761  	2100.000000	0.132836  	2100.000000	0.131876  	2100.000000	0.133752  	2100.000000	9.16935e-06	
2200.000000	0.132543  	2200.000000	0.134143  	2200.000000	0.132676  	2200.000000	0.131718  	2200.000000	0.134134  	2200.000000	8.77869e-06	
2300.000000	0.133079  	2300.000000	0.13461   	2300.000000	0.132573  	2300.000000	0.131618  	2300.000000	0.134602  	2300.000000	8.42089e-06	
2400.000000	0.133707  	2400.000000	0.135153  	2400.000000	0.132518  	2400.000000	0.131566  	2400.000000	0.135145  	2400.000000	8.09194e-06	
2500.000000	0.134416  	2500.000000	0.135762  	2500.000000	0.132505  	2500.000000	0.131555  	2500.000000	0.135754  	2500.000000	7.78844e-06	
2600.000000	0.135198  	2600.000000	0.136428  	2600.000000	0.132527  	2600.000000	0.131579  	2600.000000	0.136421  	2600.000000	7.50753e-06	
2700.000000	0.136047  	2700.000000	0.137147  	2700.000000	0.132579  	2700.000000	0.131632  	2700.000000	0.13714   	2700.000000	7.24674e-06	
2800.000000	0.136956  	2800.000000	0.137912  	2800.000000	0.132657  	2800.000000	0.131711  	2800.000000	0.137905  	2800.000000	7.00398e-06	
2900.000000	0.137921  	2900.000000	0.138717  	2900.000000	0.132756  	2900.000000	0.131813  	2900.000000	0.138711  	2900.000000	6.77742e-06	
3000.000000	0.138935  	3000.000000	0.13956   	3000.000000	0.132875  	3000.000000	0.131932  	3000.000000	0.139554  	3000.000000	6.56547e-06	
3200.000000	0.141101  	3200.000000	0.141343  	3200.000000	0.133158  	3200.000000	0.132218  	3200.000000	0.141336  	3200.000000	6.18006e-06	
3400.000000	0.143426  	3400.000000	0.143235  	3400.000000	0.13349   	3400.000000	0.132552  	3400.000000	0.143229  	3400.000000	5.83856e-06	
3600.000000	0.145889  	3600.000000	0.145217  	3600.000000	0.133857  	3600.000000	0.132921  	3600.000000	0.145212  	3600.000000	5.53382e-06	
3800.000000	0.148475  	3800.000000	0.147275  	3800.000000	0.13425   	3800.000000	0.133315  	3800.000000	0.14727   	3800.000000	5.26015e-06	
4000.000000	0.151169  	4000.000000	0.149397  	4000.000000	0.134661  	4000.000000	0.133728  	4000.000000	0.149392  	4000.000000	5.01299e-06	
4200.000000	0.153961  	4200.000000	0.151574  	4200.000000	0.135086  	4200.000000	0.134154  	4200.000000	0.151569  	4200.000000	4.78863e-06	
4400.000000	0.156842  	4400.000000	0.153796  	4400.000000	0.135519  	4400.000000	0.134589  	4400.000000	0.153791  	4400.000000	4.58403e-06	
4600.000000	0.159803  	4600.000000	0.156058  	4600.000000	0.135958  	4600.000000	0.135029  	4600.000000	0.156054  	4600.000000	4.39667e-06	
4800.000000	0.162839  	4800.000000	0.158354  	4800.000000	0.136399  	4800.000000	0.135472  	4800.000000	0.15835   	4800.000000	4.22443e-06	
5000.000000	0.165945  	5000.000000	0.160681  	5000.000000	0.136842  	5000.000000	0.135915  	5000.000000	0.160676  	5000.000000	4.06554e-06	
5250.000000	0.169917  	5250.000000	0.163624  	5250.000000	0.137393  	5250.000000	0.136468  	5250.000000	0.16362   	5250.000000	3.88343e-06	
5500.000000	0.173984  	5500.000000	0.166602  	5500.000000	0.137941  	5500.000000	0.137017  	5500.000000	0.166599  	5500.000000	3.71736e-06	
6000.000000	0.182374  	6000.000000	0.172642  	6000.000000	0.139019  	6000.000000	0.138098  	6000.000000	0.172638  	6000.000000	3.42551e-06	
6500.000000	0.191077  	6500.000000	0.178767  	6500.000000	0.140069  	6500.000000	0.13915   	6500.000000	0.178764  	6500.000000	3.17722e-06	
7000.000000	0.200064  	7000.000000	0.184956  	7000.000000	0.141085  	7000.000000	0.140168  	7000.000000	0.184953  	7000.000000	2.96336e-06	
7500.000000	0.209316  	7500.000000	0.191193  	7500.000000	0.142066  	7500.000000	0.141151  	7500.000000	0.19119   	7500.000000	2.77717e-06	
8000.000000	0.218815  	8000.000000	0.197466  	8000.000000	0.143013  	8000.000000	0.142098  	8000.000000	0.197463  	8000.000000	2.61357e-06	
8500.000000	0.22855   	8500.000000	0.203766  	8500.000000	0.143923  	8500.000000	0.14301   	8500.000000	0.203763  	8500.000000	2.46865e-06	
9000.000000	0.238512  	9000.000000	0.210085  	9000.000000	0.144798  	9000.000000	0.143889  	9000.000000	0.210083  	9000.000000	2.33935e-06	
9500.000000	0.248693  	9500.000000	0.21642   	9500.000000	0.145641  	9500.000000	0.144736  	9500.000000	0.216418  	9500.000000	2.22326e-06	
10000.000000	0.259087  	10000.000000	0.222765  	10000.000000	0.146455  	10000.000000	0.145552  	10000.000000	0.222763  	10000.000000	2.11843e-06	
11000.000000	0.280494  	11000.000000	0.235476  	11000.000000	0.148001  	11000.000000	0.1471    	11000.000000	0.235475  	11000.000000	1.93656e-06	
12000.000000	0.302704  	12000.000000	0.2482    	12000.000000	0.149442  	12000.000000	0.148545  	12000.000000	0.248198  	12000.000000	1.78414e-06	
13000.000000	0.325696  	13000.000000	0.260923  	13000.000000	0.15079   	13000.000000	0.149898  	13000.000000	0.260922  	13000.000000	1.65451e-06	
14000.000000	0.349457  	14000.000000	0.273639  	14000.000000	0.152052  	14000.000000	0.151169  	14000.000000	0.273638  	14000.000000	1.54287e-06	
15000.000000	0.373975  	15000.000000	0.286342  	15000.000000	0.15324   	15000.000000	0.152367  	15000.000000	0.286341  	15000.000000	1.44569e-06	
16000.000000	0.399244  	16000.000000	0.299029  	16000.000000	0.154364  	16000.000000	0.153499  	16000.000000	0.299028  	16000.000000	1.36032e-06	
17000.000000	0.425257  	17000.000000	0.311698  	17000.000000	0.15543   	17000.000000	0.154571  	17000.000000	0.311696  	17000.000000	1.28471e-06	
18000.000000	0.452013  	18000.000000	0.324346  	18000.000000	0.156444  	18000.000000	0.15559   	18000.000000	0.324345  	18000.000000	1.21726e-06	
19000.000000	0.479507  	19000.000000	0.336974  	19000.000000	0.157411  	19000.000000	0.156559  	19000.000000	0.336973  	19000.000000	1.15671e-06	
20000.000000	0.507738  	20000.000000	0.34958   	20000.000000	0.158335  	20000.000000	0.157485  	20000.000000	0.349579  	20000.000000	1.10205e-06	
21000.000000	0.536707  	21000.000000	0.362165  	21000.000000	0.159217  	21000.000000	0.158369  	21000.000000	0.362164  	21000.000000	1.05244e-06	
22000.000000	0.566411  	22000.000000	0.374729  	22000.000000	0.160054  	22000.000000	0.159216  	22000.000000	0.374728  	22000.000000	1.00722e-06	
23000.000000	0.596853  	23000.000000	0.387271  	23000.000000	0.160859  	23000.000000	0.160029  	23000.000000	0.38727   	23000.000000	9.65812e-07	
24000.000000	0.628031  	24000.000000	0.399792  	24000.000000	0.161634  	24000.000000	0.16081   	24000.000000	0.399791  	24000.000000	9.27761e-07	
25000.000000	0.659948  	25000.000000	0.412292  	25000.000000	0.162376  	25000.000000	0.161561  	25000.000000	0.412291  	25000.000000	8.92669e-07	
26000.000000	0.692603  	26000.000000	0.424772  	26000.000000	0.16309   	26000.000000	0.162286  	26000.000000	0.424771  	26000.000000	8.602e-07 	
27000.000000	0.726     	27000.000000	0.437231  	27000.000000	0.163778  	27000.000000	0.162984  	27000.000000	0.43723   	27000.000000	8.30068e-07	
28000.000000	0.760139  	28000.000000	0.449671  	28000.000000	0.164442  	28000.000000	0.163659  	28000.000000	0.449671  	28000.000000	8.02028e-07	
29000.000000	0.795023  	29000.000000	0.462092  	29000.000000	0.165085  	29000.000000	0.164312  	29000.000000	0.462091  	29000.000000	7.75867e-07	
30000.000000	0.830653  	30000.000000	0.474494  	30000.000000	0.165708  	30000.000000	0.164943  	30000.000000	0.474493  	30000.000000	7.51401e-07	
32000.000000	0.904159  	32000.000000	0.499244  	32000.000000	0.166895  	32000.000000	0.166149  	32000.000000	0.499243  	32000.000000	7.06931e-07	
34000.000000	0.980677  	34000.000000	0.523923  	34000.000000	0.168013  	34000.000000	0.167286  	34000.000000	0.523922  	34000.000000	6.67551e-07	
36000.000000	1.06023   	36000.000000	0.548535  	36000.000000	0.169067  	36000.000000	0.168361  	36000.000000	0.548534  	36000.000000	6.32427e-07	
38000.000000	1.14283   	38000.000000	0.573083  	38000.000000	0.170062  	38000.000000	0.16938   	38000.000000	0.573082  	38000.000000	6.00899e-07	
40000.000000	1.2285    	40000.000000	0.59757   	40000.000000	0.171005  	40000.000000	0.170349  	40000.000000	0.597569  	40000.000000	5.72439e-07	
42000.000000	1.31727   	42000.000000	0.621998  	42000.000000	0.171902  	42000.000000	0.171272  	42000.000000	0.621997  	42000.000000	5.46616e-07	
44000.000000	1.40916   	44000.000000	0.64637   	44000.000000	0.172756  	44000.000000	0.172154  	44000.000000	0.64637   	44000.000000	5.23076e-07	
46000.000000	1.5042    	46000.000000	0.670689  	46000.000000	0.173573  	46000.000000	0.172998  	46000.000000	0.670688  	46000.000000	5.01528e-07	
48000.000000	1.6024    	48000.000000	0.694956  	48000.000000	0.174355  	48000.000000	0.173808  	48000.000000	0.694955  	48000.000000	4.81727e-07	
50000.000000	1.70379   	50000.000000	0.719173  	50000.000000	0.175103  	50000.000000	0.174585  	50000.000000	0.719173  	50000.000000	4.63467e-07	
