Energy (MeV/u)1	0 - [He-base] F.Hubert et al, AD&ND Tables 46(1990)1	Energy (MeV/u)2	1 - [H -base] J.F.Ziegler et al, Pergamon Press, NY (low energy)	Energy (MeV/u)3	2 - ATIMA 1.2  LS-theory (recommended for high energy)	Energy (MeV/u)4	3 - ATIMA 1.2  without LS-correction	Energy (MeV/u)5	4 - electrical component of [1] - J.F.Ziegler et al	Energy (MeV/u)6	5 - nuclear component of [1] - J.F.Ziegler et al	
0.001000	1.09814   	0.001000	1.09814   	0.001000	1.12296   	0.001000	1.12296   	0.001000	0.489648  	0.001000	0.608497  	
0.002000	1.19638   	0.002000	1.19638   	0.002000	1.24572   	0.002000	1.24572   	0.002000	0.678216  	0.002000	0.518161  	
0.005000	1.40596   	0.005000	1.40596   	0.005000	1.51305   	0.005000	1.51305   	0.005000	1.04328   	0.005000	0.362685  	
0.008000	1.58674   	0.008000	1.58674   	0.008000	1.74066   	0.008000	1.74066   	0.008000	1.30118   	0.008000	0.28556   	
0.010000	1.69711   	0.010000	1.69711   	0.010000	1.87891   	0.010000	1.87891   	0.010000	1.44505   	0.010000	0.252056  	
0.015000	1.98559   	0.015000	1.98559   	0.015000	2.20685   	0.015000	2.20685   	0.015000	1.78791   	0.015000	0.197676  	
0.020000	2.43096   	0.020000	2.43096   	0.020000	2.58772   	0.020000	2.58772   	0.020000	2.26645   	0.020000	0.164504  	
0.025000	2.88229   	0.025000	2.88229   	0.025000	2.9706    	0.025000	2.9706    	0.025000	2.74044   	0.025000	0.14185   	
0.030000	3.32268   	0.030000	3.32268   	0.030000	3.2035    	0.030000	3.2035    	0.030000	3.19742   	0.030000	0.125256  	
0.035000	3.68743   	0.035000	3.68743   	0.035000	3.44386   	0.035000	3.44386   	0.035000	3.57492   	0.035000	0.112505  	
0.040000	3.97949   	0.040000	3.97949   	0.040000	3.68728   	0.040000	3.68728   	0.040000	3.87808   	0.040000	0.101406  	
0.045000	4.24575   	0.045000	4.24575   	0.045000	3.93299   	0.045000	3.93299   	0.045000	4.15254   	0.045000	0.0932158 	
0.050000	4.48688   	0.050000	4.48688   	0.050000	4.17755   	0.050000	4.17755   	0.050000	4.40051   	0.050000	0.0863715 	
0.055000	4.70484   	0.055000	4.70484   	0.055000	4.41889   	0.055000	4.41889   	0.055000	4.62429   	0.055000	0.0805568 	
0.060000	4.90171   	0.060000	4.90171   	0.060000	4.65518   	0.060000	4.65518   	0.060000	4.82616   	0.060000	0.0755486 	
0.070000	5.24011   	0.070000	5.24011   	0.070000	5.10647   	0.070000	5.10647   	0.070000	5.17276   	0.070000	0.0673448 	
0.080000	5.57352   	0.080000	5.57352   	0.080000	5.52137   	0.080000	5.52137   	0.080000	5.51263   	0.080000	0.060889  	
0.090000	5.85645   	0.090000	5.85645   	0.090000	5.89333   	0.090000	5.89333   	0.090000	5.80079   	0.090000	0.0556621 	
0.100000	6.09168   	0.100000	6.09168   	0.100000	6.21912   	0.100000	6.21912   	0.100000	6.04035   	0.100000	0.0513345 	
0.120000	6.45224   	0.120000	6.45224   	0.120000	6.7325    	0.120000	6.7325    	0.120000	6.40768   	0.120000	0.0445649 	
0.140000	6.70702   	0.140000	6.70702   	0.140000	7.08019   	0.140000	7.08019   	0.140000	6.66753   	0.140000	0.039493  	
0.160000	6.88958   	0.160000	6.88958   	0.160000	7.29642   	0.160000	7.29642   	0.160000	6.85404   	0.160000	0.0355375 	
0.180000	7.02164   	0.180000	7.02164   	0.180000	7.417     	0.180000	7.417     	0.180000	6.98928   	0.180000	0.0323581 	
0.200000	7.11748   	0.200000	7.11748   	0.200000	7.47236   	0.200000	7.47236   	0.200000	7.08774   	0.200000	0.0297417 	
0.250000	7.27413   	0.250000	7.27413   	0.250000	7.46047   	0.250000	7.46047   	0.250000	7.24929   	0.250000	0.0248427 	
0.300000	7.36719   	0.300000	7.36719   	0.300000	7.37092   	0.300000	7.37092   	0.300000	7.34578   	0.300000	0.0214167 	
0.350000	7.39141   	0.350000	7.39141   	0.350000	7.27281   	0.350000	7.27281   	0.350000	7.37253   	0.350000	0.0188749 	
0.400000	7.37449   	0.400000	7.37449   	0.400000	7.18371   	0.400000	7.18371   	0.400000	7.35758   	0.400000	0.016908  	
0.450000	7.36232   	0.450000	7.36232   	0.450000	7.13047   	0.450000	7.13047   	0.450000	7.34698   	0.450000	0.0153371 	
0.500000	7.32511   	0.500000	7.32511   	0.500000	7.11771   	0.500000	7.11771   	0.500000	7.31105   	0.500000	0.0140511 	
0.600000	7.2336    	0.600000	7.2336    	0.600000	7.06265   	0.600000	7.06265   	0.600000	7.22153   	0.600000	0.0120665 	
0.700000	7.10915   	0.700000	7.10915   	0.700000	6.9765    	0.700000	6.9765    	0.700000	7.09855   	0.700000	0.0106016 	
0.800000	6.97593   	0.800000	6.97593   	0.800000	6.85006   	0.800000	6.85006   	0.800000	6.96646   	0.800000	0.00947261	
0.900000	6.82879   	0.900000	6.82879   	0.900000	6.71892   	0.900000	6.71892   	0.900000	6.82022   	0.900000	0.00857395	
1.000000	6.67587   	1.000000	6.67587   	1.000000	6.58541   	1.000000	6.58541   	1.000000	6.66803   	1.000000	0.00784042	
1.250000	6.29497   	1.250000	6.29497   	1.250000	6.25247   	1.250000	6.25247   	1.250000	6.28848   	1.250000	0.0064822 	
1.500000	5.93762   	1.500000	5.93762   	1.500000	5.90182   	1.500000	5.90182   	1.500000	5.93208   	1.500000	0.00554473	
1.750000	5.61208   	1.750000	5.61208   	1.750000	5.59212   	1.750000	5.59212   	1.750000	5.60723   	1.750000	0.00485618	
2.000000	5.30518   	2.000000	5.30518   	2.000000	5.31467   	2.000000	5.31467   	2.000000	5.30085   	2.000000	0.00432765	
2.250000	5.03286   	2.250000	5.03286   	2.250000	5.06408   	2.250000	5.06408   	2.250000	5.02895   	2.250000	0.00390834	
2.500000	4.97233   	2.500000	4.79014   	2.500000	4.83651   	2.500000	4.83651   	2.500000	4.78657   	2.500000	0.00356705	
3.000000	4.54946   	3.000000	4.36108   	3.000000	4.43891   	3.000000	4.43891   	3.000000	4.35804   	3.000000	0.00304399	
3.500000	4.19023   	3.500000	4.01183   	3.500000	4.1035    	3.500000	4.1035    	3.500000	4.00917   	3.500000	0.00266091	
4.000000	3.88344   	4.000000	3.72416   	4.000000	3.81704   	4.000000	3.81704   	4.000000	3.72179   	4.000000	0.00236754	
4.500000	3.61931   	4.500000	3.48125   	4.500000	3.56968   	4.500000	3.56968   	4.500000	3.47912   	4.500000	0.00213525	
5.000000	3.38993   	5.000000	3.272     	5.000000	3.35399   	5.000000	3.35399   	5.000000	3.27005   	5.000000	0.0019465 	
5.500000	3.18907   	5.500000	3.08973   	5.500000	3.16426   	5.500000	3.16426   	5.500000	3.08794   	5.500000	0.00178992	
6.000000	3.01181   	6.000000	2.92929   	6.000000	2.99605   	6.000000	2.99605   	6.000000	2.92763   	6.000000	0.00165781	
6.500000	2.85426   	6.500000	2.78672   	6.500000	2.84587   	6.500000	2.84587   	6.500000	2.78517   	6.500000	0.00154476	
7.000000	2.71334   	7.000000	2.65901   	7.000000	2.71095   	7.000000	2.71095   	7.000000	2.65756   	7.000000	0.00144687	
7.500000	2.58654   	7.500000	2.54384   	7.500000	2.58904   	7.500000	2.58904   	7.500000	2.54248   	7.500000	0.00136122	
8.000000	2.47185   	8.000000	2.43936   	8.000000	2.47832   	8.000000	2.47832   	8.000000	2.43808   	8.000000	0.00128563	
8.500000	2.36761   	8.500000	2.3441    	8.500000	2.37731   	8.500000	2.37731   	8.500000	2.34288   	8.500000	0.00121839	
9.000000	2.27243   	9.000000	2.25684   	9.000000	2.28476   	9.000000	2.28476   	9.000000	2.25568   	9.000000	0.00115817	
9.500000	2.18519   	9.500000	2.17658   	9.500000	2.19963   	9.500000	2.19963   	9.500000	2.17548   	9.500000	0.0011039 	
10.000000	2.10492   	10.000000	2.12271   	10.000000	2.12105   	10.000000	2.12105   	10.000000	2.12165   	10.000000	0.00105474	
11.000000	1.96218   	11.000000	1.98588   	11.000000	1.97936   	11.000000	1.98214   	11.000000	1.98491   	11.000000	0.00096904	
12.000000	1.83905   	12.000000	1.86607   	12.000000	1.85636   	12.000000	1.86104   	12.000000	1.86517   	12.000000	0.000896811	
13.000000	1.7317    	13.000000	1.76039   	13.000000	1.74856   	13.000000	1.75452   	13.000000	1.75956   	13.000000	0.000835064	
14.000000	1.63727   	14.000000	1.66655   	14.000000	1.65331   	14.000000	1.66011   	14.000000	1.66577   	14.000000	0.00078164	
15.000000	1.55351   	15.000000	1.58269   	15.000000	1.56851   	15.000000	1.57584   	15.000000	1.58196   	15.000000	0.000734938	
16.000000	1.47871   	16.000000	1.50733   	16.000000	1.49252   	16.000000	1.50017   	16.000000	1.50664   	16.000000	0.000693746	
17.000000	1.41147   	17.000000	1.43925   	17.000000	1.42403   	17.000000	1.43185   	17.000000	1.4386    	17.000000	0.00065713	
18.000000	1.35068   	18.000000	1.37746   	18.000000	1.36201   	18.000000	1.36985   	18.000000	1.37683   	18.000000	0.000624356	
19.000000	1.29546   	19.000000	1.32112   	19.000000	1.30557   	19.000000	1.31334   	19.000000	1.32053   	19.000000	0.00059484	
20.000000	1.24505   	20.000000	1.26955   	20.000000	1.25396   	20.000000	1.26163   	20.000000	1.26898   	20.000000	0.000568113	
21.000000	1.19885   	21.000000	1.22217   	21.000000	1.20659   	21.000000	1.21413   	21.000000	1.22163   	21.000000	0.000543792	
22.000000	1.15633   	22.000000	1.17849   	22.000000	1.16297   	22.000000	1.17035   	22.000000	1.17797   	22.000000	0.00052156	
23.000000	1.11708   	23.000000	1.1381    	23.000000	1.1227    	23.000000	1.12989   	23.000000	1.13759   	23.000000	0.000501156	
24.000000	1.08072   	24.000000	1.10062   	24.000000	1.08543   	24.000000	1.09237   	24.000000	1.10014   	24.000000	0.000482359	
25.000000	1.04693   	25.000000	1.06577   	25.000000	1.05084   	25.000000	1.0575    	25.000000	1.06531   	25.000000	0.000464984	
27.000000	0.986052  	27.000000	1.00289   	27.000000	0.988587  	27.000000	0.994682  	27.000000	1.00246   	27.000000	0.000433892	
29.000000	0.932691  	29.000000	0.947711  	29.000000	0.934131  	29.000000	0.939684  	29.000000	0.947304  	29.000000	0.000406865	
31.000000	0.885513  	31.000000	0.898894  	31.000000	0.886434  	31.000000	0.891247  	31.000000	0.898511  	31.000000	0.000383145	
33.000000	0.843484  	33.000000	0.855392  	33.000000	0.844222  	33.000000	0.848228  	33.000000	0.85503   	33.000000	0.000362151	
35.000000	0.805791  	35.000000	0.816377  	35.000000	0.806376  	35.000000	0.80968   	35.000000	0.816034  	35.000000	0.000343433	
38.000000	0.75599   	38.000000	0.764848  	38.000000	0.756412  	38.000000	0.758803  	38.000000	0.764529  	38.000000	0.000318864	
41.000000	0.712812  	41.000000	0.7202    	41.000000	0.713006  	41.000000	0.714739  	41.000000	0.719903  	41.000000	0.000297712	
44.000000	0.674994  	44.000000	0.681132  	44.000000	0.674969  	44.000000	0.676184  	44.000000	0.680853  	44.000000	0.0002793 	
47.000000	0.641576  	47.000000	0.64665   	47.000000	0.641395  	47.000000	0.642149  	47.000000	0.646386  	47.000000	0.000263122	
50.000000	0.611819  	50.000000	0.615983  	50.000000	0.611449  	50.000000	0.61187   	50.000000	0.615734  	50.000000	0.00024879	
55.000000	0.568831  	55.000000	0.57176   	55.000000	0.568159  	55.000000	0.56818   	55.000000	0.571532  	55.000000	0.00022821	
60.000000	0.532418  	60.000000	0.534393  	60.000000	0.531532  	60.000000	0.531227  	60.000000	0.534182  	60.000000	0.000210897	
65.000000	0.50115   	65.000000	0.502387  	65.000000	0.500124  	65.000000	0.499544  	65.000000	0.502191  	65.000000	0.000196122	
70.000000	0.473986  	70.000000	0.474655  	70.000000	0.472797  	70.000000	0.472063  	70.000000	0.474472  	70.000000	0.000183358	
75.000000	0.450152  	75.000000	0.450386  	75.000000	0.448894  	75.000000	0.447988  	75.000000	0.450214  	75.000000	0.000172215	
80.000000	0.429057  	80.000000	0.428964  	80.000000	0.427715  	80.000000	0.426715  	80.000000	0.428802  	80.000000	0.0001624 	
85.000000	0.410244  	85.000000	0.40991   	85.000000	0.408848  	85.000000	0.407776  	85.000000	0.409756  	85.000000	0.000153686	
90.000000	0.393354  	90.000000	0.392849  	90.000000	0.391936  	90.000000	0.390801  	90.000000	0.392703  	90.000000	0.000145894	
95.000000	0.378099  	95.000000	0.37748   	95.000000	0.376686  	95.000000	0.375498  	95.000000	0.377341  	95.000000	0.000138885	
100.000000	0.364247  	100.000000	0.363561  	100.000000	0.362861  	100.000000	0.361628  	100.000000	0.363429  	100.000000	0.000132544	
105.000000	0.351608  	105.000000	0.350895  	105.000000	0.350269  	105.000000	0.348996  	105.000000	0.350768  	105.000000	0.000126778	
110.000000	0.340025  	110.000000	0.339318  	110.000000	0.33875   	110.000000	0.337443  	110.000000	0.339197  	110.000000	0.000121513	
115.000000	0.329369  	115.000000	0.328695  	115.000000	0.328169  	115.000000	0.326835  	115.000000	0.328578  	115.000000	0.000116684	
120.000000	0.319529  	120.000000	0.31891   	120.000000	0.318423  	120.000000	0.317058  	120.000000	0.318798  	120.000000	0.000112239	
125.000000	0.310413  	125.000000	0.309869  	125.000000	0.309397  	125.000000	0.30802   	125.000000	0.309761  	125.000000	0.000108134	
130.000000	0.301941  	130.000000	0.301488  	130.000000	0.301001  	130.000000	0.299638  	130.000000	0.301384  	130.000000	0.000104329	
135.000000	0.294045  	135.000000	0.293698  	135.000000	0.293219  	135.000000	0.291843  	135.000000	0.293597  	135.000000	0.000100794	
140.000000	0.286668  	140.000000	0.286437  	140.000000	0.285976  	140.000000	0.284575  	140.000000	0.286339  	140.000000	9.74995e-05	
145.000000	0.279759  	145.000000	0.279653  	145.000000	0.279189  	145.000000	0.277782  	145.000000	0.279559  	145.000000	9.44219e-05	
150.000000	0.273272  	150.000000	0.273301  	150.000000	0.272811  	150.000000	0.27142   	150.000000	0.273209  	150.000000	9.15402e-05	
155.000000	0.263974  	155.000000	0.267339  	155.000000	0.266846  	155.000000	0.265447  	155.000000	0.26725   	155.000000	8.8836e-05	
160.000000	0.258607  	160.000000	0.261734  	160.000000	0.261237  	160.000000	0.25983   	160.000000	0.261648  	160.000000	8.62932e-05	
165.000000	0.253543  	165.000000	0.256454  	165.000000	0.25593   	165.000000	0.254538  	165.000000	0.25637   	165.000000	8.38975e-05	
170.000000	0.248756  	170.000000	0.251471  	170.000000	0.250935  	170.000000	0.249542  	170.000000	0.251389  	170.000000	8.16363e-05	
175.000000	0.244225  	175.000000	0.246761  	175.000000	0.246223  	175.000000	0.24482   	175.000000	0.246681  	175.000000	7.94986e-05	
180.000000	0.239928  	180.000000	0.242301  	180.000000	0.241745  	180.000000	0.240349  	180.000000	0.242224  	180.000000	7.74743e-05	
185.000000	0.235848  	185.000000	0.238074  	185.000000	0.237489  	185.000000	0.236109  	185.000000	0.237998  	185.000000	7.55545e-05	
190.000000	0.231969  	190.000000	0.23406   	190.000000	0.233451  	190.000000	0.232084  	190.000000	0.233986  	190.000000	7.37312e-05	
195.000000	0.228276  	195.000000	0.230244  	195.000000	0.229624  	195.000000	0.228257  	195.000000	0.230172  	195.000000	7.19973e-05	
200.000000	0.224756  	200.000000	0.226611  	200.000000	0.225989  	200.000000	0.224614  	200.000000	0.226541  	200.000000	7.03462e-05	
210.000000	0.218187  	210.000000	0.219847  	210.000000	0.219194  	210.000000	0.217831  	210.000000	0.21978   	210.000000	6.72695e-05	
220.000000	0.212179  	220.000000	0.213677  	220.000000	0.212985  	220.000000	0.211644  	220.000000	0.213613  	220.000000	6.44604e-05	
230.000000	0.206662  	230.000000	0.208027  	230.000000	0.207326  	230.000000	0.205979  	230.000000	0.207965  	230.000000	6.1885e-05	
240.000000	0.201578  	240.000000	0.202833  	240.000000	0.202112  	240.000000	0.200774  	240.000000	0.202774  	240.000000	5.95149e-05	
250.000000	0.196878  	250.000000	0.198043  	250.000000	0.197295  	250.000000	0.195974  	250.000000	0.197986  	250.000000	5.73263e-05	
260.000000	0.192519  	260.000000	0.193612  	260.000000	0.192841  	260.000000	0.191536  	260.000000	0.193557  	260.000000	5.52988e-05	
270.000000	0.188466  	270.000000	0.189501  	270.000000	0.188716  	270.000000	0.187421  	270.000000	0.189448  	270.000000	5.3415e-05	
280.000000	0.184688  	280.000000	0.185677  	280.000000	0.184896  	280.000000	0.183594  	280.000000	0.185626  	280.000000	5.166e-05 	
290.000000	0.181158  	290.000000	0.182112  	290.000000	0.181319  	290.000000	0.180028  	290.000000	0.182062  	290.000000	5.00209e-05	
300.000000	0.177851  	300.000000	0.17878   	300.000000	0.177974  	300.000000	0.176698  	300.000000	0.178732  	300.000000	4.84864e-05	
310.000000	0.174748  	310.000000	0.17566   	310.000000	0.174846  	310.000000	0.17358   	310.000000	0.175613  	310.000000	4.70466e-05	
320.000000	0.171831  	320.000000	0.172732  	320.000000	0.171912  	320.000000	0.170657  	320.000000	0.172686  	320.000000	4.56931e-05	
330.000000	0.169083  	330.000000	0.16998   	330.000000	0.169153  	330.000000	0.167911  	330.000000	0.169935  	330.000000	4.44181e-05	
340.000000	0.166491  	340.000000	0.167388  	340.000000	0.166561  	340.000000	0.165326  	340.000000	0.167344  	340.000000	4.32149e-05	
350.000000	0.164041  	350.000000	0.164943  	350.000000	0.164128  	350.000000	0.16289   	350.000000	0.164901  	350.000000	4.20775e-05	
360.000000	0.161723  	360.000000	0.162633  	360.000000	0.161827  	360.000000	0.16059   	360.000000	0.162592  	360.000000	4.10007e-05	
370.000000	0.159526  	370.000000	0.160448  	370.000000	0.159642  	370.000000	0.158416  	370.000000	0.160408  	370.000000	3.99796e-05	
380.000000	0.157442  	380.000000	0.158379  	380.000000	0.157574  	380.000000	0.156357  	380.000000	0.15834   	380.000000	3.901e-05 	
390.000000	0.155461  	390.000000	0.156416  	390.000000	0.155616  	390.000000	0.154407  	390.000000	0.156378  	390.000000	3.80881e-05	
400.000000	0.153577  	400.000000	0.154551  	400.000000	0.153757  	400.000000	0.152555  	400.000000	0.154514  	400.000000	3.72103e-05	
410.000000	0.151784  	410.000000	0.152779  	410.000000	0.15199   	410.000000	0.150797  	410.000000	0.152742  	410.000000	3.63735e-05	
420.000000	0.150074  	420.000000	0.151092  	420.000000	0.15031   	420.000000	0.149124  	420.000000	0.151056  	420.000000	3.55749e-05	
430.000000	0.148443  	430.000000	0.149484  	430.000000	0.148711  	430.000000	0.147531  	430.000000	0.14945   	430.000000	3.4812e-05	
440.000000	0.146885  	440.000000	0.147951  	440.000000	0.147187  	440.000000	0.146013  	440.000000	0.147917  	440.000000	3.40822e-05	
450.000000	0.145396  	450.000000	0.146488  	450.000000	0.145732  	450.000000	0.144565  	450.000000	0.146455  	450.000000	3.33835e-05	
460.000000	0.143971  	460.000000	0.14509   	460.000000	0.144342  	460.000000	0.143183  	460.000000	0.145057  	460.000000	3.2714e-05	
470.000000	0.142607  	470.000000	0.143753  	470.000000	0.143015  	470.000000	0.141862  	470.000000	0.143721  	470.000000	3.20717e-05	
480.000000	0.1413    	480.000000	0.142473  	480.000000	0.141749  	480.000000	0.140599  	480.000000	0.142442  	480.000000	3.14551e-05	
490.000000	0.140047  	490.000000	0.141248  	490.000000	0.140542  	490.000000	0.139389  	490.000000	0.141217  	490.000000	3.08627e-05	
500.000000	0.138844  	500.000000	0.140073  	500.000000	0.139385  	500.000000	0.138231  	500.000000	0.140043  	500.000000	3.02929e-05	
520.000000	0.13658   	520.000000	0.137865  	520.000000	0.137201  	520.000000	0.136056  	520.000000	0.137836  	520.000000	2.92165e-05	
540.000000	0.134487  	540.000000	0.135828  	540.000000	0.135186  	540.000000	0.134052  	540.000000	0.1358    	540.000000	2.82165e-05	
560.000000	0.132548  	560.000000	0.133945  	560.000000	0.133327  	560.000000	0.132202  	560.000000	0.133918  	560.000000	2.72851e-05	
580.000000	0.130748  	580.000000	0.1322    	580.000000	0.131606  	580.000000	0.130489  	580.000000	0.132174  	580.000000	2.64154e-05	
600.000000	0.129075  	600.000000	0.13058   	600.000000	0.130009  	600.000000	0.1289    	600.000000	0.130554  	600.000000	2.56013e-05	
620.000000	0.127516  	620.000000	0.129072  	620.000000	0.128524  	620.000000	0.127423  	620.000000	0.129048  	620.000000	2.48376e-05	
640.000000	0.126061  	640.000000	0.127668  	640.000000	0.127142  	640.000000	0.126048  	640.000000	0.127643  	640.000000	2.41198e-05	
660.000000	0.124701  	660.000000	0.126356  	660.000000	0.125852  	660.000000	0.124765  	660.000000	0.126333  	660.000000	2.34437e-05	
680.000000	0.123429  	680.000000	0.125131  	680.000000	0.124647  	680.000000	0.123566  	680.000000	0.125108  	680.000000	2.28058e-05	
700.000000	0.122237  	700.000000	0.123983  	700.000000	0.123519  	700.000000	0.122444  	700.000000	0.123961  	700.000000	2.22029e-05	
720.000000	0.121119  	720.000000	0.122908  	720.000000	0.122462  	720.000000	0.121393  	720.000000	0.122886  	720.000000	2.16321e-05	
740.000000	0.12007   	740.000000	0.121899  	740.000000	0.12148   	740.000000	0.120417  	740.000000	0.121878  	740.000000	2.1091e-05	
760.000000	0.119084  	760.000000	0.120951  	760.000000	0.120567  	760.000000	0.119509  	760.000000	0.12093   	760.000000	2.05772e-05	
780.000000	0.118156  	780.000000	0.12006   	780.000000	0.119708  	780.000000	0.118655  	780.000000	0.12004   	780.000000	2.00888e-05	
800.000000	0.117284  	800.000000	0.119221  	800.000000	0.1189    	800.000000	0.117851  	800.000000	0.119201  	800.000000	1.96237e-05	
820.000000	0.116462  	820.000000	0.118431  	820.000000	0.118138  	820.000000	0.117094  	820.000000	0.118412  	820.000000	1.91805e-05	
840.000000	0.115687  	840.000000	0.117686  	840.000000	0.11742   	840.000000	0.11638   	840.000000	0.117667  	840.000000	1.87576e-05	
860.000000	0.114957  	860.000000	0.116984  	860.000000	0.116741  	860.000000	0.115705  	860.000000	0.116965  	860.000000	1.83535e-05	
880.000000	0.114268  	880.000000	0.116321  	880.000000	0.116101  	880.000000	0.115068  	880.000000	0.116303  	880.000000	1.79671e-05	
900.000000	0.113618  	900.000000	0.115695  	900.000000	0.115495  	900.000000	0.114466  	900.000000	0.115677  	900.000000	1.75972e-05	
920.000000	0.113005  	920.000000	0.115103  	920.000000	0.114921  	920.000000	0.113896  	920.000000	0.115086  	920.000000	1.72427e-05	
940.000000	0.112426  	940.000000	0.114544  	940.000000	0.114378  	940.000000	0.113357  	940.000000	0.114527  	940.000000	1.69028e-05	
960.000000	0.111879  	960.000000	0.114015  	960.000000	0.113864  	960.000000	0.112846  	960.000000	0.113999  	960.000000	1.65764e-05	
980.000000	0.111363  	980.000000	0.113515  	980.000000	0.113376  	980.000000	0.112361  	980.000000	0.113499  	980.000000	1.62628e-05	
1000.000000	0.110875  	1000.000000	0.113042  	1000.000000	0.112914  	1000.000000	0.111901  	1000.000000	0.113026  	1000.000000	1.59613e-05	
1020.000000	0.110415  	1020.000000	0.112594  	1020.000000	0.112474  	1020.000000	0.111465  	1020.000000	0.112578  	1020.000000	1.56712e-05	
1040.000000	0.10998   	1040.000000	0.11217   	1040.000000	0.112057  	1040.000000	0.111051  	1040.000000	0.112154  	1040.000000	1.53918e-05	
1060.000000	0.10957   	1060.000000	0.111768  	1060.000000	0.111661  	1060.000000	0.110658  	1060.000000	0.111753  	1060.000000	1.51225e-05	
1080.000000	0.109182  	1080.000000	0.111388  	1080.000000	0.111285  	1080.000000	0.110284  	1080.000000	0.111373  	1080.000000	1.48628e-05	
1100.000000	0.108817  	1100.000000	0.111028  	1100.000000	0.110927  	1100.000000	0.109928  	1100.000000	0.111014  	1100.000000	1.46122e-05	
1120.000000	0.108472  	1120.000000	0.110687  	1120.000000	0.110586  	1120.000000	0.10959   	1120.000000	0.110673  	1120.000000	1.43701e-05	
1140.000000	0.108148  	1140.000000	0.110365  	1140.000000	0.110262  	1140.000000	0.109268  	1140.000000	0.110351  	1140.000000	1.41363e-05	
1160.000000	0.107842  	1160.000000	0.11006   	1160.000000	0.109954  	1160.000000	0.108962  	1160.000000	0.110046  	1160.000000	1.39102e-05	
1180.000000	0.107554  	1180.000000	0.109771  	1180.000000	0.10966   	1180.000000	0.10867   	1180.000000	0.109757  	1180.000000	1.36915e-05	
1200.000000	0.107283  	1200.000000	0.109497  	1200.000000	0.10938   	1200.000000	0.108393  	1200.000000	0.109484  	1200.000000	1.34797e-05	
1220.000000	0.107028  	1220.000000	0.109239  	1220.000000	0.109114  	1220.000000	0.108128  	1220.000000	0.109226  	1220.000000	1.32747e-05	
1240.000000	0.106789  	1240.000000	0.108995  	1240.000000	0.10886   	1240.000000	0.107876  	1240.000000	0.108982  	1240.000000	1.3076e-05	
1260.000000	0.106565  	1260.000000	0.108764  	1260.000000	0.108618  	1260.000000	0.107636  	1260.000000	0.108751  	1260.000000	1.28834e-05	
1280.000000	0.106355  	1280.000000	0.108546  	1280.000000	0.108388  	1280.000000	0.107408  	1280.000000	0.108533  	1280.000000	1.26965e-05	
1300.000000	0.106159  	1300.000000	0.10834   	1300.000000	0.108168  	1300.000000	0.10719   	1300.000000	0.108327  	1300.000000	1.25152e-05	
1320.000000	0.105976  	1320.000000	0.108146  	1320.000000	0.107958  	1320.000000	0.106982  	1320.000000	0.108134  	1320.000000	1.23392e-05	
1340.000000	0.105806  	1340.000000	0.107963  	1340.000000	0.107758  	1340.000000	0.106784  	1340.000000	0.107951  	1340.000000	1.21682e-05	
1360.000000	0.105647  	1360.000000	0.107791  	1360.000000	0.107568  	1360.000000	0.106595  	1360.000000	0.107779  	1360.000000	1.20021e-05	
1380.000000	0.1055    	1380.000000	0.107629  	1380.000000	0.107386  	1380.000000	0.106414  	1380.000000	0.107617  	1380.000000	1.18406e-05	
1400.000000	0.105365  	1400.000000	0.107477  	1400.000000	0.107213  	1400.000000	0.106243  	1400.000000	0.107465  	1400.000000	1.16835e-05	
1420.000000	0.105239  	1420.000000	0.107334  	1420.000000	0.107048  	1420.000000	0.106079  	1420.000000	0.107323  	1420.000000	1.15307e-05	
1440.000000	0.105124  	1440.000000	0.107201  	1440.000000	0.10689   	1440.000000	0.105923  	1440.000000	0.10719   	1440.000000	1.1382e-05	
1460.000000	0.105019  	1460.000000	0.107076  	1460.000000	0.10674   	1460.000000	0.105774  	1460.000000	0.107065  	1460.000000	1.12371e-05	
1480.000000	0.104924  	1480.000000	0.106959  	1480.000000	0.106597  	1480.000000	0.105632  	1480.000000	0.106948  	1480.000000	1.10961e-05	
1500.000000	0.104837  	1500.000000	0.106851  	1500.000000	0.10646   	1500.000000	0.105497  	1500.000000	0.10684   	1500.000000	1.09587e-05	
1520.000000	0.10476   	1520.000000	0.10675   	1520.000000	0.10633   	1520.000000	0.105368  	1520.000000	0.106739  	1520.000000	1.08247e-05	
1540.000000	0.104691  	1540.000000	0.106656  	1540.000000	0.106206  	1540.000000	0.105245  	1540.000000	0.106646  	1540.000000	1.06941e-05	
1560.000000	0.10463   	1560.000000	0.10657   	1560.000000	0.106088  	1560.000000	0.105128  	1560.000000	0.106559  	1560.000000	1.05667e-05	
1580.000000	0.104577  	1580.000000	0.10649   	1580.000000	0.105975  	1580.000000	0.105016  	1580.000000	0.10648   	1580.000000	1.04425e-05	
1600.000000	0.104532  	1600.000000	0.106417  	1600.000000	0.105868  	1600.000000	0.10491   	1600.000000	0.106407  	1600.000000	1.03212e-05	
1620.000000	0.104494  	1620.000000	0.106351  	1620.000000	0.105766  	1620.000000	0.104809  	1620.000000	0.10634   	1620.000000	1.02028e-05	
1640.000000	0.104463  	1640.000000	0.10629   	1640.000000	0.105669  	1640.000000	0.104713  	1640.000000	0.10628   	1640.000000	1.00871e-05	
1660.000000	0.104439  	1660.000000	0.106235  	1660.000000	0.105576  	1660.000000	0.104622  	1660.000000	0.106225  	1660.000000	9.97419e-06	
1680.000000	0.104422  	1680.000000	0.106186  	1680.000000	0.105488  	1680.000000	0.104535  	1680.000000	0.106177  	1680.000000	9.86383e-06	
1700.000000	0.104412  	1700.000000	0.106143  	1700.000000	0.105405  	1700.000000	0.104452  	1700.000000	0.106133  	1700.000000	9.75597e-06	
1750.000000	0.104412  	1750.000000	0.106057  	1750.000000	0.105213  	1750.000000	0.104263  	1750.000000	0.106048  	1750.000000	9.4967e-06	
1800.000000	0.104449  	1800.000000	0.106002  	1800.000000	0.105046  	1800.000000	0.104098  	1800.000000	0.105992  	1800.000000	9.2513e-06	
1850.000000	0.104519  	1850.000000	0.105974  	1850.000000	0.1049    	1850.000000	0.103954  	1850.000000	0.105965  	1850.000000	9.01868e-06	
1900.000000	0.104621  	1900.000000	0.105972  	1900.000000	0.104773  	1900.000000	0.103829  	1900.000000	0.105963  	1900.000000	8.79785e-06	
1950.000000	0.104752  	1950.000000	0.105994  	1950.000000	0.104664  	1950.000000	0.103722  	1950.000000	0.105986  	1950.000000	8.58792e-06	
2000.000000	0.10491   	2000.000000	0.106038  	2000.000000	0.104571  	2000.000000	0.103631  	2000.000000	0.10603   	2000.000000	8.3881e-06	
2100.000000	0.105301  	2100.000000	0.106186  	2100.000000	0.104427  	2100.000000	0.10349   	2100.000000	0.106178  	2100.000000	8.01598e-06	
2200.000000	0.105782  	2200.000000	0.106405  	2200.000000	0.104333  	2200.000000	0.103398  	2200.000000	0.106397  	2200.000000	7.67648e-06	
2300.000000	0.106343  	2300.000000	0.106685  	2300.000000	0.104279  	2300.000000	0.103347  	2300.000000	0.106677  	2300.000000	7.36544e-06	
2400.000000	0.106974  	2400.000000	0.107018  	2400.000000	0.104259  	2400.000000	0.10333   	2400.000000	0.107011  	2400.000000	7.0794e-06	
2500.000000	0.107669  	2500.000000	0.107399  	2500.000000	0.104269  	2500.000000	0.103342  	2500.000000	0.107393  	2500.000000	6.81542e-06	
2600.000000	0.108422  	2600.000000	0.107822  	2600.000000	0.104304  	2600.000000	0.103378  	2600.000000	0.107816  	2600.000000	6.57102e-06	
2700.000000	0.109228  	2700.000000	0.108282  	2700.000000	0.104359  	2700.000000	0.103435  	2700.000000	0.108276  	2700.000000	6.34408e-06	
2800.000000	0.110081  	2800.000000	0.108775  	2800.000000	0.104432  	2800.000000	0.10351   	2800.000000	0.108769  	2800.000000	6.13278e-06	
2900.000000	0.110978  	2900.000000	0.109298  	2900.000000	0.10452   	2900.000000	0.103599  	2900.000000	0.109292  	2900.000000	5.93553e-06	
3000.000000	0.111915  	3000.000000	0.109847  	3000.000000	0.104621  	3000.000000	0.103702  	3000.000000	0.109841  	3000.000000	5.75096e-06	
3200.000000	0.113899  	3200.000000	0.111015  	3200.000000	0.104854  	3200.000000	0.103937  	3200.000000	0.111009  	3200.000000	5.41524e-06	
3400.000000	0.116013  	3400.000000	0.112261  	3400.000000	0.105119  	3400.000000	0.104204  	3400.000000	0.112256  	3400.000000	5.11765e-06	
3600.000000	0.118241  	3600.000000	0.113573  	3600.000000	0.105407  	3600.000000	0.104494  	3600.000000	0.113568  	3600.000000	4.85201e-06	
3800.000000	0.120571  	3800.000000	0.11494   	3800.000000	0.10571   	3800.000000	0.104799  	3800.000000	0.114935  	3800.000000	4.61336e-06	
4000.000000	0.122992  	4000.000000	0.116352  	4000.000000	0.106025  	4000.000000	0.105115  	4000.000000	0.116347  	4000.000000	4.39777e-06	
4200.000000	0.125495  	4200.000000	0.117803  	4200.000000	0.106347  	4200.000000	0.105438  	4200.000000	0.117799  	4200.000000	4.20201e-06	
4400.000000	0.128075  	4400.000000	0.119288  	4400.000000	0.106672  	4400.000000	0.105764  	4400.000000	0.119284  	4400.000000	4.02344e-06	
4600.000000	0.130726  	4600.000000	0.120801  	4600.000000	0.107     	4600.000000	0.106093  	4600.000000	0.120797  	4600.000000	3.85987e-06	
4800.000000	0.133442  	4800.000000	0.122339  	4800.000000	0.107327  	4800.000000	0.106421  	4800.000000	0.122335  	4800.000000	3.70946e-06	
5000.000000	0.13622   	5000.000000	0.123899  	5000.000000	0.107653  	5000.000000	0.106749  	5000.000000	0.123895  	5000.000000	3.57068e-06	
5250.000000	0.139775  	5250.000000	0.125874  	5250.000000	0.108057  	5250.000000	0.107154  	5250.000000	0.125871  	5250.000000	3.41158e-06	
5500.000000	0.143415  	5500.000000	0.127875  	5500.000000	0.108456  	5500.000000	0.107555  	5500.000000	0.127872  	5500.000000	3.26645e-06	
6000.000000	0.150933  	6000.000000	0.131937  	6000.000000	0.109236  	6000.000000	0.108337  	6000.000000	0.131934  	6000.000000	3.01129e-06	
6500.000000	0.158747  	6500.000000	0.136061  	6500.000000	0.109987  	6500.000000	0.10909   	6500.000000	0.136058  	6500.000000	2.79413e-06	
7000.000000	0.166835  	7000.000000	0.140232  	7000.000000	0.110708  	7000.000000	0.109813  	7000.000000	0.14023   	7000.000000	2.607e-06 	
7500.000000	0.175182  	7500.000000	0.144439  	7500.000000	0.111399  	7500.000000	0.110505  	7500.000000	0.144436  	7500.000000	2.44401e-06	
8000.000000	0.183776  	8000.000000	0.148672  	8000.000000	0.11206   	8000.000000	0.111167  	8000.000000	0.14867   	8000.000000	2.30075e-06	
8500.000000	0.192609  	8500.000000	0.152925  	8500.000000	0.112691  	8500.000000	0.1118    	8500.000000	0.152923  	8500.000000	2.17379e-06	
9000.000000	0.201673  	9000.000000	0.157194  	9000.000000	0.113293  	9000.000000	0.112407  	9000.000000	0.157192  	9000.000000	2.06049e-06	
9500.000000	0.210963  	9500.000000	0.161474  	9500.000000	0.113869  	9500.000000	0.112987  	9500.000000	0.161472  	9500.000000	1.95874e-06	
10000.000000	0.220476  	10000.000000	0.165762  	10000.000000	0.114424  	10000.000000	0.113543  	10000.000000	0.16576   	10000.000000	1.86683e-06	
11000.000000	0.240154  	11000.000000	0.174356  	11000.000000	0.115467  	11000.000000	0.114589  	11000.000000	0.174354  	11000.000000	1.7073e-06	
12000.000000	0.260688  	12000.000000	0.18296   	12000.000000	0.116431  	12000.000000	0.115555  	12000.000000	0.182959  	12000.000000	1.57355e-06	
13000.000000	0.282066  	13000.000000	0.191568  	13000.000000	0.117322  	13000.000000	0.116451  	13000.000000	0.191566  	13000.000000	1.45975e-06	
14000.000000	0.30428   	14000.000000	0.200172  	14000.000000	0.118148  	14000.000000	0.117285  	14000.000000	0.20017   	14000.000000	1.3617e-06	
15000.000000	0.327327  	15000.000000	0.208769  	15000.000000	0.118918  	15000.000000	0.118065  	15000.000000	0.208767  	15000.000000	1.27633e-06	
16000.000000	0.351203  	16000.000000	0.217356  	16000.000000	0.119641  	16000.000000	0.118796  	16000.000000	0.217354  	16000.000000	1.2013e-06	
17000.000000	0.375909  	17000.000000	0.225931  	17000.000000	0.120322  	17000.000000	0.119484  	17000.000000	0.22593   	17000.000000	1.13483e-06	
18000.000000	0.401445  	18000.000000	0.234494  	18000.000000	0.120967  	18000.000000	0.120132  	18000.000000	0.234493  	18000.000000	1.07552e-06	
19000.000000	0.427814  	19000.000000	0.243044  	19000.000000	0.121579  	19000.000000	0.120746  	19000.000000	0.243042  	19000.000000	1.02226e-06	
20000.000000	0.455017  	20000.000000	0.251579  	20000.000000	0.12216   	20000.000000	0.121328  	20000.000000	0.251578  	20000.000000	9.74159e-07	
21000.000000	0.483058  	21000.000000	0.260101  	21000.000000	0.122711  	21000.000000	0.121881  	21000.000000	0.2601    	21000.000000	9.30502e-07	
22000.000000	0.511941  	22000.000000	0.268608  	22000.000000	0.123229  	22000.000000	0.122408  	22000.000000	0.268607  	22000.000000	8.90692e-07	
23000.000000	0.541669  	23000.000000	0.277102  	23000.000000	0.123724  	23000.000000	0.122911  	23000.000000	0.277101  	23000.000000	8.54238e-07	
24000.000000	0.572246  	24000.000000	0.285581  	24000.000000	0.124199  	24000.000000	0.123392  	24000.000000	0.285581  	24000.000000	8.2073e-07	
25000.000000	0.603678  	25000.000000	0.294047  	25000.000000	0.12465   	25000.000000	0.123852  	25000.000000	0.294046  	25000.000000	7.8982e-07	
26000.000000	0.635969  	26000.000000	0.302499  	26000.000000	0.125081  	26000.000000	0.124293  	26000.000000	0.302499  	26000.000000	7.61216e-07	
27000.000000	0.669123  	27000.000000	0.310938  	27000.000000	0.125496  	27000.000000	0.124717  	27000.000000	0.310937  	27000.000000	7.34666e-07	
28000.000000	0.703147  	28000.000000	0.319364  	28000.000000	0.125895  	28000.000000	0.125125  	28000.000000	0.319363  	28000.000000	7.09955e-07	
29000.000000	0.738044  	29000.000000	0.327777  	29000.000000	0.126278  	29000.000000	0.125518  	29000.000000	0.327776  	29000.000000	6.86896e-07	
30000.000000	0.773822  	30000.000000	0.336177  	30000.000000	0.126648  	30000.000000	0.125897  	30000.000000	0.336177  	30000.000000	6.65328e-07	
32000.000000	0.848037  	32000.000000	0.352941  	32000.000000	0.127349  	32000.000000	0.126616  	32000.000000	0.352941  	32000.000000	6.26116e-07	
34000.000000	0.925837  	34000.000000	0.369658  	34000.000000	0.128005  	34000.000000	0.127289  	34000.000000	0.369658  	34000.000000	5.91382e-07	
36000.000000	1.00727   	36000.000000	0.38633   	36000.000000	0.128618  	36000.000000	0.127921  	36000.000000	0.38633   	36000.000000	5.60394e-07	
38000.000000	1.09238   	38000.000000	0.40296   	38000.000000	0.129192  	38000.000000	0.128516  	38000.000000	0.402959  	38000.000000	5.32572e-07	
40000.000000	1.18121   	40000.000000	0.419548  	40000.000000	0.12973   	40000.000000	0.129079  	40000.000000	0.419547  	40000.000000	5.07451e-07	
42000.000000	1.27382   	42000.000000	0.436096  	42000.000000	0.130238  	42000.000000	0.129613  	42000.000000	0.436096  	42000.000000	4.84653e-07	
44000.000000	1.37026   	44000.000000	0.452607  	44000.000000	0.130719  	44000.000000	0.13012   	44000.000000	0.452606  	44000.000000	4.63866e-07	
46000.000000	1.47056   	46000.000000	0.469082  	46000.000000	0.131176  	46000.000000	0.130602  	46000.000000	0.469081  	46000.000000	4.44834e-07	
48000.000000	1.5748    	48000.000000	0.485521  	48000.000000	0.131611  	48000.000000	0.131063  	48000.000000	0.485521  	48000.000000	4.27342e-07	
50000.000000	1.68301   	50000.000000	0.501928  	50000.000000	0.132025  	50000.000000	0.131504  	50000.000000	0.501927  	50000.000000	4.11208e-07	
