Energy (MeV/u)1	0 - [He-base] F.Hubert et al, AD&ND Tables 46(1990)1	Energy (MeV/u)2	1 - [H -base] J.F.Ziegler et al, Pergamon Press, NY (low energy)	Energy (MeV/u)3	2 - ATIMA 1.2  LS-theory (recommended for high energy)	Energy (MeV/u)4	3 - ATIMA 1.2  without LS-correction	Energy (MeV/u)5	4 - electrical component of [1] - J.F.Ziegler et al	Energy (MeV/u)6	5 - nuclear component of [1] - J.F.Ziegler et al	
0.001000	12.755    	0.001000	4.08696   	0.001000	3.83176   	0.001000	3.83176   	0.001000	0.711272  	0.001000	3.37569   	
0.002000	13.1901   	0.002000	4.52466   	0.002000	4.18443   	0.002000	4.18443   	0.002000	0.985189  	0.002000	3.53947   	
0.005000	13.0959   	0.005000	4.85133   	0.005000	4.35556   	0.005000	4.35556   	0.005000	1.51548   	0.005000	3.33584   	
0.008000	13.0191   	0.008000	4.93004   	0.008000	4.32976   	0.008000	4.32976   	0.008000	1.89011   	0.008000	3.03993   	
0.010000	13.0419   	0.010000	4.96276   	0.010000	4.30571   	0.010000	4.30571   	0.010000	2.09911   	0.010000	2.86365   	
0.015000	13.2518   	0.015000	5.04442   	0.015000	4.27077   	0.015000	4.27077   	0.015000	2.53979   	0.015000	2.50463   	
0.020000	13.5712   	0.020000	5.14197   	0.020000	4.27382   	0.020000	4.27382   	0.020000	2.9075    	0.020000	2.23447   	
0.025000	13.9348   	0.025000	5.25329   	0.025000	4.30434   	0.025000	4.30434   	0.025000	3.229     	0.025000	2.0243    	
0.030000	14.3145   	0.030000	5.37358   	0.030000	4.35334   	0.030000	4.35334   	0.030000	3.51789   	0.030000	1.85568   	
0.035000	14.697    	0.035000	5.49922   	0.035000	4.41476   	0.035000	4.41476   	0.035000	3.78223   	0.035000	1.71699   	
0.040000	15.0758   	0.040000	5.62778   	0.040000	4.48461   	0.040000	4.48461   	0.040000	4.02721   	0.040000	1.60057   	
0.045000	15.4478   	0.045000	5.75766   	0.045000	4.56021   	0.045000	4.56021   	0.045000	4.25643   	0.045000	1.50123   	
0.050000	15.8114   	0.050000	5.88781   	0.050000	4.63974   	0.050000	4.63974   	0.050000	4.47251   	0.050000	1.41529   	
0.055000	16.1661   	0.055000	6.0175    	0.055000	4.72191   	0.055000	4.72191   	0.055000	4.67742   	0.055000	1.34009   	
0.060000	16.5116   	0.060000	6.14629   	0.060000	4.80581   	0.060000	4.80581   	0.060000	4.87267   	0.060000	1.27362   	
0.070000	17.6786   	0.070000	6.39999   	0.070000	4.9764    	0.070000	4.9764    	0.070000	5.2388    	0.070000	1.1612    	
0.080000	19.7101   	0.080000	6.81108   	0.080000	5.32797   	0.080000	5.32797   	0.080000	5.74162   	0.080000	1.06945   	
0.090000	21.5781   	0.090000	7.41677   	0.090000	5.91766   	0.090000	5.91766   	0.090000	6.42384   	0.090000	0.992929  	
0.100000	23.3219   	0.100000	7.99538   	0.100000	6.49903   	0.100000	6.49903   	0.100000	7.06741   	0.100000	0.927975  	
0.120000	25.8758   	0.120000	9.06394   	0.120000	7.61193   	0.120000	7.61193   	0.120000	8.24066   	0.120000	0.823288  	
0.140000	28.0655   	0.140000	10.0157   	0.140000	8.63972   	0.140000	8.63972   	0.140000	9.27351   	0.140000	0.74223   	
0.160000	30.065    	0.160000	10.8621   	0.160000	9.57799   	0.160000	9.57799   	0.160000	10.1847   	0.160000	0.677346  	
0.180000	31.9762   	0.180000	11.6183   	0.180000	10.4326   	0.180000	10.4326   	0.180000	10.9943   	0.180000	0.624068  	
0.200000	33.851    	0.200000	12.2971   	0.200000	11.2105   	0.200000	11.2105   	0.200000	11.7203   	0.200000	0.576721  	
0.250000	37.4092   	0.250000	13.7934   	0.250000	12.9026   	0.250000	12.9026   	0.250000	13.3041   	0.250000	0.48935   	
0.300000	40.7155   	0.300000	15.0707   	0.300000	14.3293   	0.300000	14.3293   	0.300000	14.6424   	0.300000	0.428355  	
0.350000	43.728    	0.350000	16.1835   	0.350000	15.5724   	0.350000	15.5724   	0.350000	15.8014   	0.350000	0.382064  	
0.400000	46.4464   	0.400000	17.18     	0.400000	16.6815   	0.400000	16.6815   	0.400000	16.8343   	0.400000	0.345602  	
0.450000	48.8844   	0.450000	18.0873   	0.450000	17.6859   	0.450000	17.6859   	0.450000	17.7712   	0.450000	0.316058  	
0.500000	51.5194   	0.500000	19.0309   	0.500000	18.6042   	0.500000	18.6042   	0.500000	18.7393   	0.500000	0.291582  	
0.600000	54.9356   	0.600000	21.1884   	0.600000	20.2296   	0.600000	20.2296   	0.600000	20.9352   	0.600000	0.253267  	
0.700000	56.9223   	0.700000	22.9962   	0.700000	21.6255   	0.700000	21.6255   	0.700000	22.7717   	0.700000	0.224537  	
0.800000	60.1661   	0.800000	24.5284   	0.800000	22.9492   	0.800000	22.9492   	0.800000	24.3263   	0.800000	0.202118  	
0.900000	62.7788   	0.900000	25.8382   	0.900000	24.2917   	0.900000	24.2917   	0.900000	25.6541   	0.900000	0.184089  	
1.000000	64.6133   	1.000000	26.8548   	1.000000	25.4507   	1.000000	25.4507   	1.000000	26.6855   	1.000000	0.169245  	
1.250000	67.4868   	1.250000	28.7561   	1.250000	27.7306   	1.250000	27.7306   	1.250000	28.6146   	1.250000	0.141436  	
1.500000	69.0473   	1.500000	30.1231   	1.500000	29.3701   	1.500000	29.3701   	1.500000	30.0011   	1.500000	0.121976  	
1.750000	69.4966   	1.750000	30.9927   	1.750000	30.5682   	1.750000	30.5682   	1.750000	30.8852   	1.750000	0.107531  	
2.000000	69.2176   	2.000000	31.4837   	2.000000	31.451    	2.000000	31.451    	2.000000	31.3874   	2.000000	0.0963492 	
2.250000	68.8629   	2.250000	31.8555   	2.250000	32.102    	2.250000	32.102    	2.250000	31.7681   	2.250000	0.087415  	
2.500000	101.77    	2.500000	32.1331   	2.500000	32.5787   	2.500000	32.5787   	2.500000	32.053    	2.500000	0.0800995 	
3.000000	98.7303   	3.000000	32.4847   	3.000000	33.1607   	3.000000	33.1607   	3.000000	32.4159   	3.000000	0.0688059 	
3.500000	95.3501   	3.500000	32.6398   	3.500000	33.4094   	3.500000	33.4094   	3.500000	32.5793   	3.500000	0.0604668 	
4.000000	91.937    	4.000000	32.649    	4.000000	33.4453   	4.000000	33.4453   	4.000000	32.595    	4.000000	0.054038  	
4.500000	88.6274   	4.500000	32.5572   	4.500000	33.341    	4.500000	33.341    	4.500000	32.5083   	4.500000	0.0489194 	
5.000000	85.4795   	5.000000	32.3941   	5.000000	33.0773   	5.000000	33.0773   	5.000000	32.3494   	5.000000	0.0447405 	
5.500000	82.5137   	5.500000	32.1803   	5.500000	32.7246   	5.500000	32.7246   	5.500000	32.1391   	5.500000	0.0412595 	
6.000000	79.7324   	6.000000	31.9303   	6.000000	32.3546   	6.000000	32.3546   	6.000000	31.8919   	6.000000	0.0383119 	
6.500000	77.1292   	6.500000	31.6506   	6.500000	31.9744   	6.500000	31.9744   	6.500000	31.6148   	6.500000	0.0357815 	
7.000000	74.6937   	7.000000	31.3531   	7.000000	31.5891   	7.000000	31.5891   	7.000000	31.3195   	7.000000	0.0335839 	
7.500000	72.4139   	7.500000	31.0448   	7.500000	31.2023   	7.500000	31.2023   	7.500000	31.0131   	7.500000	0.0316562 	
8.000000	70.2777   	8.000000	30.7295   	8.000000	30.8166   	8.000000	30.8166   	8.000000	30.6996   	8.000000	0.0299507 	
8.500000	68.2736   	8.500000	30.4023   	8.500000	30.434    	8.500000	30.434    	8.500000	30.3739   	8.500000	0.0284302 	
9.000000	66.3905   	9.000000	30.0768   	9.000000	30.0557   	9.000000	30.0557   	9.000000	30.0497   	9.000000	0.0270657 	
9.500000	64.6184   	9.500000	29.7545   	9.500000	29.6829   	9.500000	29.6829   	9.500000	29.7286   	9.500000	0.0258337 	
10.000000	62.9482   	10.000000	29.6308   	10.000000	29.3162   	10.000000	29.3162   	10.000000	29.606    	10.000000	0.0247156 	
11.000000	59.8807   	11.000000	29.1866   	11.000000	28.637    	11.000000	29.1989   	11.000000	29.1639   	11.000000	0.0227619 	
12.000000	57.1306   	12.000000	28.6832   	12.000000	27.9588   	12.000000	28.9932   	12.000000	28.6621   	12.000000	0.0211104 	
13.000000	54.6509   	13.000000	28.1463   	13.000000	27.2953   	13.000000	28.729    	13.000000	28.1266   	13.000000	0.0196949 	
14.000000	52.4033   	14.000000	27.5941   	14.000000	26.6498   	14.000000	28.4227   	14.000000	27.5756   	14.000000	0.0184672 	
15.000000	50.3561   	15.000000	27.0385   	15.000000	26.0243   	15.000000	28.0868   	15.000000	27.0211   	15.000000	0.0173917 	
16.000000	48.4831   	16.000000	26.4874   	16.000000	25.4204   	16.000000	27.7308   	16.000000	26.4709   	16.000000	0.0164412 	
17.000000	46.7625   	17.000000	25.9457   	17.000000	24.8393   	17.000000	27.3618   	17.000000	25.9301   	17.000000	0.0155947 	
18.000000	45.1761   	18.000000	25.4167   	18.000000	24.2817   	18.000000	26.9851   	18.000000	25.4018   	18.000000	0.0148358 	
19.000000	43.7082   	19.000000	24.9023   	19.000000	23.7465   	19.000000	26.6045   	19.000000	24.8881   	19.000000	0.0141513 	
20.000000	42.3458   	20.000000	24.4037   	20.000000	23.2314   	20.000000	26.2232   	20.000000	24.3901   	20.000000	0.0135305 	
21.000000	41.0775   	21.000000	23.9213   	21.000000	22.7127   	21.000000	25.8194   	21.000000	23.9084   	21.000000	0.0129648 	
22.000000	39.8937   	22.000000	23.4555   	22.000000	22.2144   	22.000000	25.4178   	22.000000	23.443    	22.000000	0.012447  	
23.000000	38.7859   	23.000000	23.006    	23.000000	21.7634   	23.000000	25.0473   	23.000000	22.994    	23.000000	0.0119712 	
24.000000	37.7469   	24.000000	22.5724   	24.000000	21.3317   	24.000000	24.6833   	24.000000	22.5609   	24.000000	0.0115324 	
25.000000	36.7702   	25.000000	22.1545   	25.000000	20.9179   	25.000000	24.3264   	25.000000	22.1434   	25.000000	0.0111264 	
27.000000	34.9819   	27.000000	21.3635   	27.000000	20.1421   	27.000000	23.6351   	27.000000	21.3531   	27.000000	0.0103987 	
29.000000	33.3838   	29.000000	20.6282   	29.000000	19.431    	29.000000	22.9754   	29.000000	20.6185   	29.000000	0.0097649 	
31.000000	31.946    	31.000000	19.9443   	31.000000	18.7992   	31.000000	22.1989   	31.000000	19.9351   	31.000000	0.0092077 	
33.000000	30.6451   	33.000000	19.3072   	33.000000	18.2352   	33.000000	21.3443   	33.000000	19.2985   	33.000000	0.00871376	
35.000000	29.4617   	35.000000	18.7128   	35.000000	17.7107   	35.000000	20.5636   	35.000000	18.7045   	35.000000	0.00827272	
38.000000	27.8736   	38.000000	17.8929   	38.000000	16.9912   	38.000000	19.5103   	38.000000	17.8852   	38.000000	0.00769283	
41.000000	26.4732   	41.000000	17.1492   	41.000000	16.3423   	41.000000	18.5759   	41.000000	17.142    	41.000000	0.00719265	
44.000000	25.2283   	44.000000	16.472    	44.000000	15.7498   	44.000000	17.7405   	44.000000	16.4652   	44.000000	0.00675655	
47.000000	24.1137   	47.000000	15.8529   	47.000000	15.2082   	47.000000	16.9886   	47.000000	15.8465   	47.000000	0.00637277	
50.000000	23.1094   	50.000000	15.285    	50.000000	14.7089   	50.000000	16.308    	50.000000	15.279    	50.000000	0.00603227	
55.000000	21.6385   	55.000000	14.4364   	55.000000	13.9627   	55.000000	15.3056   	55.000000	14.4309   	55.000000	0.00554252	
60.000000	20.3736   	60.000000	13.6911   	60.000000	13.3022   	60.000000	14.4385   	60.000000	13.6859   	60.000000	0.00512971	
65.000000	19.2732   	65.000000	13.0314   	65.000000	12.7163   	65.000000	13.6805   	65.000000	13.0266   	65.000000	0.00477679	
70.000000	18.3065   	70.000000	12.4436   	70.000000	12.1912   	70.000000	13.0119   	70.000000	12.4391   	70.000000	0.00447141	
75.000000	17.4498   	75.000000	11.9164   	75.000000	11.7163   	75.000000	12.4176   	75.000000	11.9122   	75.000000	0.00420444	
80.000000	16.685    	80.000000	11.4412   	80.000000	11.288    	80.000000	11.8858   	80.000000	11.4372   	80.000000	0.00396896	
85.000000	15.9976   	85.000000	11.0105   	85.000000	10.8958   	85.000000	11.4068   	85.000000	11.0067   	85.000000	0.00375963	
90.000000	15.3762   	90.000000	10.6184   	90.000000	10.5386   	90.000000	10.9733   	90.000000	10.6148   	90.000000	0.00357225	
95.000000	14.8114   	95.000000	10.2599   	95.000000	10.2101   	95.000000	10.579    	95.000000	10.2565   	95.000000	0.00340349	
100.000000	14.2957   	100.000000	9.93102   	100.000000	9.90701   	100.000000	10.2188   	100.000000	9.92776   	100.000000	0.00325067	
105.000000	13.8227   	105.000000	9.62813   	105.000000	9.62786   	105.000000	9.88835   	105.000000	9.62502   	105.000000	0.0031116 	
110.000000	13.3872   	110.000000	9.34832   	110.000000	9.36872   	110.000000	9.58421   	110.000000	9.34534   	110.000000	0.00298447	
115.000000	12.9849   	115.000000	9.08905   	115.000000	9.12736   	115.000000	9.30331   	115.000000	9.08618   	115.000000	0.00286779	
120.000000	12.6119   	120.000000	8.84815   	120.000000	8.90185   	120.000000	9.0431    	120.000000	8.84539   	120.000000	0.0027603 	
125.000000	12.2651   	125.000000	8.62375   	125.000000	8.69119   	125.000000	8.80137   	125.000000	8.62109   	125.000000	0.00266094	
130.000000	11.9417   	130.000000	8.41421   	130.000000	8.49445   	130.000000	8.57622   	130.000000	8.41164   	130.000000	0.00256881	
135.000000	11.6394   	135.000000	8.21811   	135.000000	8.30933   	135.000000	8.36602   	135.000000	8.21563   	135.000000	0.00248312	
140.000000	11.3561   	140.000000	8.03421   	140.000000	8.13561   	140.000000	8.16932   	140.000000	8.03181   	140.000000	0.00240323	
145.000000	11.0901   	145.000000	7.86142   	145.000000	7.97212   	145.000000	7.98487   	145.000000	7.85909   	145.000000	0.00232855	
150.000000	10.8398   	150.000000	7.69875   	150.000000	7.81744   	150.000000	7.81157   	150.000000	7.69649   	150.000000	0.00225858	
155.000000	10.4799   	155.000000	7.54536   	155.000000	7.67157   	155.000000	7.64844   	155.000000	7.54317   	155.000000	0.00219288	
160.000000	10.2727   	160.000000	7.40048   	160.000000	7.53364   	160.000000	7.49462   	160.000000	7.39834   	160.000000	0.00213107	
165.000000	10.0769   	165.000000	7.26342   	165.000000	7.40253   	165.000000	7.34934   	165.000000	7.26134   	165.000000	0.0020728 	
170.000000	9.89139   	170.000000	7.13357   	170.000000	7.27777   	170.000000	7.21192   	170.000000	7.13155   	170.000000	0.00201778	
175.000000	9.71548   	175.000000	7.01038   	175.000000	7.15913   	175.000000	7.08174   	175.000000	7.00842   	175.000000	0.00196573	
180.000000	9.54841   	180.000000	6.89337   	180.000000	7.04642   	180.000000	6.95825   	180.000000	6.89145   	180.000000	0.00191642	
185.000000	9.38952   	185.000000	6.78207   	185.000000	6.9393    	185.000000	6.84095   	185.000000	6.7802    	185.000000	0.00186964	
190.000000	9.23822   	190.000000	6.67609   	190.000000	6.83728   	190.000000	6.7294    	190.000000	6.67426   	190.000000	0.00182519	
195.000000	9.09396   	195.000000	6.57505   	195.000000	6.73973   	195.000000	6.62318   	195.000000	6.57327   	195.000000	0.00178289	
200.000000	8.95626   	200.000000	6.47863   	200.000000	6.64629   	200.000000	6.52193   	200.000000	6.47689   	200.000000	0.0017426 	
210.000000	8.69883   	210.000000	6.29844   	210.000000	6.47123   	210.000000	6.33304   	210.000000	6.29677   	210.000000	0.00166748	
220.000000	8.46282   	220.000000	6.13336   	220.000000	6.3108    	220.000000	6.16036   	220.000000	6.13176   	220.000000	0.00159884	
230.000000	8.24566   	230.000000	5.98159   	230.000000	6.16304   	230.000000	6.00193   	230.000000	5.98006   	230.000000	0.00153587	
240.000000	8.04515   	240.000000	5.84162   	240.000000	6.026     	240.000000	5.85609   	240.000000	5.84014   	240.000000	0.00147788	
250.000000	7.85945   	250.000000	5.71213   	250.000000	5.89902   	250.000000	5.72143   	250.000000	5.7107    	250.000000	0.00142429	
260.000000	7.68697   	260.000000	5.59201   	260.000000	5.78131   	260.000000	5.59674   	260.000000	5.59064   	260.000000	0.00137461	
270.000000	7.52634   	270.000000	5.4803    	270.000000	5.67187   	270.000000	5.48099   	270.000000	5.47897   	270.000000	0.00132843	
280.000000	7.3764    	280.000000	5.37616   	280.000000	5.56987   	280.000000	5.37326   	280.000000	5.37488   	280.000000	0.00128538	
290.000000	7.2361    	290.000000	5.27887   	290.000000	5.47418   	290.000000	5.27277   	290.000000	5.27762   	290.000000	0.00124515	
300.000000	7.10455   	300.000000	5.18778   	300.000000	5.38403   	300.000000	5.17885   	300.000000	5.18657   	300.000000	0.00120747	
310.000000	6.98097   	310.000000	5.10234   	310.000000	5.2995    	310.000000	5.09089   	310.000000	5.10116   	310.000000	0.0011721 	
320.000000	6.86466   	320.000000	5.02204   	320.000000	5.22056   	320.000000	5.00836   	320.000000	5.0209    	320.000000	0.00113883	
330.000000	6.755     	330.000000	4.94645   	330.000000	5.146     	330.000000	4.93079   	330.000000	4.94535   	330.000000	0.00110747	
340.000000	6.65144   	340.000000	4.87519   	340.000000	5.07546   	340.000000	4.85777   	340.000000	4.87411   	340.000000	0.00107787	
350.000000	6.5535    	350.000000	4.80789   	350.000000	5.00895   	350.000000	4.78892   	350.000000	4.80684   	350.000000	0.00104988	
360.000000	6.46075   	360.000000	4.74425   	360.000000	4.94618   	360.000000	4.72391   	360.000000	4.74323   	360.000000	0.00102336	
370.000000	6.37278   	370.000000	4.68399   	370.000000	4.88673   	370.000000	4.66245   	370.000000	4.68299   	370.000000	0.000998207	
380.000000	6.28925   	380.000000	4.62686   	380.000000	4.83016   	380.000000	4.60427   	380.000000	4.62588   	380.000000	0.000974313	
390.000000	6.20984   	390.000000	4.57262   	390.000000	4.77635   	390.000000	4.54912   	390.000000	4.57167   	390.000000	0.000951584	
400.000000	6.13426   	400.000000	4.52108   	400.000000	4.72528   	400.000000	4.49679   	400.000000	4.52015   	400.000000	0.000929936	
410.000000	6.06224   	410.000000	4.47205   	410.000000	4.67675   	410.000000	4.44708   	410.000000	4.47114   	410.000000	0.000909293	
420.000000	5.99356   	420.000000	4.42535   	420.000000	4.63056   	420.000000	4.3998    	420.000000	4.42446   	420.000000	0.000889584	
430.000000	5.92798   	430.000000	4.38083   	430.000000	4.58658   	430.000000	4.35481   	430.000000	4.37996   	430.000000	0.000870748	
440.000000	5.86532   	440.000000	4.33835   	440.000000	4.54469   	440.000000	4.31193   	440.000000	4.33749   	440.000000	0.000852726	
450.000000	5.8054    	450.000000	4.29778   	450.000000	4.50468   	450.000000	4.27105   	450.000000	4.29694   	450.000000	0.000835466	
460.000000	5.74804   	460.000000	4.259     	460.000000	4.46632   	460.000000	4.23203   	460.000000	4.25818   	460.000000	0.000818921	
470.000000	5.69309   	470.000000	4.2219    	470.000000	4.42954   	470.000000	4.19476   	470.000000	4.22109   	470.000000	0.000803045	
480.000000	5.64041   	480.000000	4.18638   	480.000000	4.39444   	480.000000	4.15922   	480.000000	4.18559   	480.000000	0.000787799	
490.000000	5.58988   	490.000000	4.15235   	490.000000	4.36096   	490.000000	4.1253    	490.000000	4.15158   	490.000000	0.000773146	
500.000000	5.54137   	500.000000	4.11973   	500.000000	4.3289    	500.000000	4.09282   	500.000000	4.11897   	500.000000	0.00075905	
520.000000	5.44997   	520.000000	4.05837   	520.000000	4.26864   	520.000000	4.03186   	520.000000	4.05764   	520.000000	0.000732408	
540.000000	5.36542   	540.000000	4.00176   	540.000000	4.21319   	540.000000	3.97573   	540.000000	4.00105   	540.000000	0.000707646	
560.000000	5.28704   	560.000000	3.94939   	560.000000	4.16184   	560.000000	3.92394   	560.000000	3.9487    	560.000000	0.000684571	
580.000000	5.21422   	580.000000	3.90085   	580.000000	4.11402   	580.000000	3.87605   	580.000000	3.90018   	580.000000	0.000663012	
600.000000	5.14644   	600.000000	3.85576   	600.000000	4.06992   	600.000000	3.83168   	600.000000	3.85512   	600.000000	0.000642823	
620.000000	5.08325   	620.000000	3.81381   	620.000000	4.02909   	620.000000	3.79049   	620.000000	3.81319   	620.000000	0.000623877	
640.000000	5.02425   	640.000000	3.77471   	640.000000	3.99086   	640.000000	3.75218   	640.000000	3.77411   	640.000000	0.000606059	
660.000000	4.96907   	660.000000	3.73822   	660.000000	3.9551    	660.000000	3.7165    	660.000000	3.73763   	660.000000	0.000589271	
680.000000	4.9174    	680.000000	3.7041    	680.000000	3.92177   	680.000000	3.68322   	680.000000	3.70352   	680.000000	0.000573425	
700.000000	4.86895   	700.000000	3.67216   	700.000000	3.89068   	700.000000	3.65214   	700.000000	3.6716    	700.000000	0.000558443	
720.000000	4.82348   	720.000000	3.64223   	720.000000	3.86159   	720.000000	3.62307   	720.000000	3.64168   	720.000000	0.000544254	
740.000000	4.78077   	740.000000	3.61415   	740.000000	3.83423   	740.000000	3.59585   	740.000000	3.61361   	740.000000	0.000530798	
760.000000	4.74059   	760.000000	3.58777   	760.000000	3.80842   	760.000000	3.57033   	760.000000	3.58725   	760.000000	0.000518017	
780.000000	4.70278   	780.000000	3.56297   	780.000000	3.78418   	780.000000	3.54639   	780.000000	3.56247   	780.000000	0.000505861	
800.000000	4.66717   	800.000000	3.53964   	800.000000	3.76154   	800.000000	3.5239    	800.000000	3.53914   	800.000000	0.000494285	
820.000000	4.6336    	820.000000	3.51767   	820.000000	3.74033   	820.000000	3.50275   	820.000000	3.51718   	820.000000	0.000483248	
840.000000	4.60194   	840.000000	3.49696   	840.000000	3.72032   	840.000000	3.48286   	840.000000	3.49649   	840.000000	0.000472713	
860.000000	4.57206   	860.000000	3.47743   	860.000000	3.70136   	860.000000	3.46412   	860.000000	3.47697   	860.000000	0.000462646	
880.000000	4.54385   	880.000000	3.45901   	880.000000	3.68342   	880.000000	3.44647   	880.000000	3.45856   	880.000000	0.000453015	
900.000000	4.51721   	900.000000	3.44162   	900.000000	3.66649   	900.000000	3.42982   	900.000000	3.44117   	900.000000	0.000443793	
920.000000	4.49204   	920.000000	3.42519   	920.000000	3.65053   	920.000000	3.41411   	920.000000	3.42475   	920.000000	0.000434954	
940.000000	4.46825   	940.000000	3.40966   	940.000000	3.63547   	940.000000	3.39928   	940.000000	3.40924   	940.000000	0.000426473	
960.000000	4.44577   	960.000000	3.39499   	960.000000	3.62124   	960.000000	3.38527   	960.000000	3.39457   	960.000000	0.000418331	
980.000000	4.42451   	980.000000	3.38111   	980.000000	3.60777   	980.000000	3.37203   	980.000000	3.3807    	980.000000	0.000410505	
1000.000000	4.40441   	1000.000000	3.36799   	1000.000000	3.59503   	1000.000000	3.35952   	1000.000000	3.36759   	1000.000000	0.000402979	
1020.000000	4.3854    	1020.000000	3.35558   	1020.000000	3.58298   	1020.000000	3.34768   	1020.000000	3.35518   	1020.000000	0.000395734	
1040.000000	4.36743   	1040.000000	3.34383   	1040.000000	3.57157   	1040.000000	3.33648   	1040.000000	3.34344   	1040.000000	0.000388755	
1060.000000	4.35044   	1060.000000	3.33272   	1060.000000	3.56077   	1060.000000	3.32587   	1060.000000	3.33234   	1060.000000	0.000382028	
1080.000000	4.33438   	1080.000000	3.32221   	1080.000000	3.55053   	1080.000000	3.31583   	1080.000000	3.32183   	1080.000000	0.00037554	
1100.000000	4.31921   	1100.000000	3.31226   	1100.000000	3.54083   	1100.000000	3.30633   	1100.000000	3.31189   	1100.000000	0.000369276	
1120.000000	4.30487   	1120.000000	3.30285   	1120.000000	3.53161   	1120.000000	3.29732   	1120.000000	3.30248   	1120.000000	0.000363226	
1140.000000	4.29133   	1140.000000	3.29394   	1140.000000	3.52286   	1140.000000	3.28879   	1140.000000	3.29359   	1140.000000	0.000357379	
1160.000000	4.27855   	1160.000000	3.28552   	1160.000000	3.51455   	1160.000000	3.28071   	1160.000000	3.28517   	1160.000000	0.000351725	
1180.000000	4.26649   	1180.000000	3.27756   	1180.000000	3.50667   	1180.000000	3.27305   	1180.000000	3.27722   	1180.000000	0.000346253	
1200.000000	4.25513   	1200.000000	3.27004   	1200.000000	3.49919   	1200.000000	3.26579   	1200.000000	3.2697    	1200.000000	0.000340956	
1220.000000	4.24442   	1220.000000	3.26293   	1220.000000	3.4921    	1220.000000	3.25891   	1220.000000	3.26259   	1220.000000	0.000335825	
1240.000000	4.23434   	1240.000000	3.25622   	1240.000000	3.48538   	1240.000000	3.25239   	1240.000000	3.25589   	1240.000000	0.000330853	
1260.000000	4.22486   	1260.000000	3.24988   	1260.000000	3.47901   	1260.000000	3.24621   	1260.000000	3.24955   	1260.000000	0.000326031	
1280.000000	4.21595   	1280.000000	3.2439    	1280.000000	3.47297   	1280.000000	3.24036   	1280.000000	3.24358   	1280.000000	0.000321353	
1300.000000	4.2076    	1300.000000	3.23827   	1300.000000	3.46724   	1300.000000	3.23481   	1300.000000	3.23796   	1300.000000	0.000316812	
1320.000000	4.19977   	1320.000000	3.23297   	1320.000000	3.46182   	1320.000000	3.22956   	1320.000000	3.23266   	1320.000000	0.000312404	
1340.000000	4.19245   	1340.000000	3.22798   	1340.000000	3.45667   	1340.000000	3.22458   	1340.000000	3.22767   	1340.000000	0.000308121	
1360.000000	4.18561   	1360.000000	3.22329   	1360.000000	3.4518    	1360.000000	3.21987   	1360.000000	3.22299   	1360.000000	0.000303958	
1380.000000	4.17924   	1380.000000	3.21889   	1380.000000	3.44718   	1380.000000	3.21542   	1380.000000	3.21859   	1380.000000	0.000299911	
1400.000000	4.17332   	1400.000000	3.21476   	1400.000000	3.4428    	1400.000000	3.2112    	1400.000000	3.21446   	1400.000000	0.000295974	
1420.000000	4.16782   	1420.000000	3.2109    	1420.000000	3.43865   	1420.000000	3.20721   	1420.000000	3.21061   	1420.000000	0.000292143	
1440.000000	4.16274   	1440.000000	3.20729   	1440.000000	3.43472   	1440.000000	3.20344   	1440.000000	3.207     	1440.000000	0.000288414	
1460.000000	4.15805   	1460.000000	3.20392   	1460.000000	3.43099   	1460.000000	3.19987   	1460.000000	3.20364   	1460.000000	0.000284783	
1480.000000	4.15375   	1480.000000	3.20079   	1480.000000	3.42746   	1480.000000	3.19651   	1480.000000	3.20051   	1480.000000	0.000281246	
1500.000000	4.14981   	1500.000000	3.19788   	1500.000000	3.42412   	1500.000000	3.19333   	1500.000000	3.1976    	1500.000000	0.000277799	
1520.000000	4.14623   	1520.000000	3.19518   	1520.000000	3.42096   	1520.000000	3.19034   	1520.000000	3.19491   	1520.000000	0.000274438	
1540.000000	4.14299   	1540.000000	3.1927    	1540.000000	3.41798   	1540.000000	3.18751   	1540.000000	3.19242   	1540.000000	0.000271161	
1560.000000	4.14008   	1560.000000	3.19041   	1560.000000	3.41517   	1560.000000	3.18486   	1560.000000	3.19014   	1560.000000	0.000267965	
1580.000000	4.13749   	1580.000000	3.18831   	1580.000000	3.41251   	1580.000000	3.18236   	1580.000000	3.18805   	1580.000000	0.000264846	
1600.000000	4.13521   	1600.000000	3.1864    	1600.000000	3.41002   	1600.000000	3.18001   	1600.000000	3.18614   	1600.000000	0.000261801	
1620.000000	4.13322   	1620.000000	3.18466   	1620.000000	3.40768   	1620.000000	3.17781   	1620.000000	3.1844    	1620.000000	0.000258829	
1640.000000	4.13153   	1640.000000	3.1831    	1640.000000	3.40548   	1640.000000	3.17574   	1640.000000	3.18284   	1640.000000	0.000255925	
1660.000000	4.13011   	1660.000000	3.1817    	1660.000000	3.40341   	1660.000000	3.17381   	1660.000000	3.18145   	1660.000000	0.000253089	
1680.000000	4.12896   	1680.000000	3.18046   	1680.000000	3.40148   	1680.000000	3.17201   	1680.000000	3.18021   	1680.000000	0.000250317	
1700.000000	4.12807   	1700.000000	3.17938   	1700.000000	3.39967   	1700.000000	3.17033   	1700.000000	3.17913   	1700.000000	0.000247608	
1750.000000	4.12693   	1750.000000	3.17731   	1750.000000	3.39566   	1750.000000	3.16662   	1750.000000	3.17707   	1750.000000	0.000241094	
1800.000000	4.12725   	1800.000000	3.17609   	1800.000000	3.39231   	1800.000000	3.16357   	1800.000000	3.17585   	1800.000000	0.000234926	
1850.000000	4.12891   	1850.000000	3.17565   	1850.000000	3.38955   	1850.000000	3.16112   	1850.000000	3.17543   	1850.000000	0.000229078	
1900.000000	4.13184   	1900.000000	3.17594   	1900.000000	3.38734   	1900.000000	3.15921   	1900.000000	3.17572   	1900.000000	0.000223525	
1950.000000	4.13593   	1950.000000	3.1769    	1950.000000	3.38562   	1950.000000	3.15778   	1950.000000	3.17668   	1950.000000	0.000218244	
2000.000000	4.14111   	2000.000000	3.17847   	2000.000000	3.38436   	2000.000000	3.15679   	2000.000000	3.17825   	2000.000000	0.000213216	
2100.000000	4.15445   	2100.000000	3.18329   	2100.000000	3.38305   	2100.000000	3.15597   	2100.000000	3.18308   	2100.000000	0.000203849	
2200.000000	4.17138   	2200.000000	3.19009   	2200.000000	3.38312   	2200.000000	3.15647   	2200.000000	3.1899    	2200.000000	0.000195299	
2300.000000	4.19149   	2300.000000	3.19862   	2300.000000	3.38432   	2300.000000	3.15807   	2300.000000	3.19843   	2300.000000	0.000187461	
2400.000000	4.21441   	2400.000000	3.20865   	2400.000000	3.38646   	2400.000000	3.16058   	2400.000000	3.20847   	2400.000000	0.000180251	
2500.000000	4.23988   	2500.000000	3.22001   	2500.000000	3.38943   	2500.000000	3.1639    	2500.000000	3.21984   	2500.000000	0.000173593	
2600.000000	4.26762   	2600.000000	3.23254   	2600.000000	3.39339   	2600.000000	3.1682    	2600.000000	3.23238   	2600.000000	0.000167427	
2700.000000	4.29744   	2700.000000	3.24612   	2700.000000	3.39789   	2700.000000	3.17301   	2700.000000	3.24595   	2700.000000	0.000161699	
2800.000000	4.32914   	2800.000000	3.26062   	2800.000000	3.40283   	2800.000000	3.17825   	2800.000000	3.26046   	2800.000000	0.000156363	
2900.000000	4.36257   	2900.000000	3.27594   	2900.000000	3.40816   	2900.000000	3.18384   	2900.000000	3.27579   	2900.000000	0.000151381	
3000.000000	4.39759   	3000.000000	3.29202   	3000.000000	3.4138    	3000.000000	3.18974   	3000.000000	3.29187   	3000.000000	0.000146717	
3200.000000	4.47191   	3200.000000	3.32612   	3200.000000	3.42581   	3200.000000	3.20221   	3200.000000	3.32598   	3200.000000	0.00013823	
3400.000000	4.55129   	3400.000000	3.36242   	3400.000000	3.43851   	3400.000000	3.21534   	3400.000000	3.36229   	3400.000000	0.000130702	
3600.000000	4.63509   	3600.000000	3.40055   	3600.000000	3.45163   	3600.000000	3.2289    	3600.000000	3.40043   	3600.000000	0.000123978	
3800.000000	4.72281   	3800.000000	3.44021   	3800.000000	3.46502   	3800.000000	3.2427    	3800.000000	3.44009   	3800.000000	0.000117934	
4000.000000	4.81403   	4000.000000	3.48116   	4000.000000	3.47852   	4000.000000	3.25661   	4000.000000	3.48104   	4000.000000	0.000112471	
4200.000000	4.90842   	4200.000000	3.52319   	4200.000000	3.49207   	4200.000000	3.27055   	4200.000000	3.52309   	4200.000000	0.000107509	
4400.000000	5.0057    	4400.000000	3.56617   	4400.000000	3.50559   	4400.000000	3.28443   	4400.000000	3.56606   	4400.000000	0.00010298	
4600.000000	5.10564   	4600.000000	3.60994   	4600.000000	3.51903   	4600.000000	3.29821   	4600.000000	3.60984   	4600.000000	9.88293e-05	
4800.000000	5.20805   	4800.000000	3.65441   	4800.000000	3.53235   	4800.000000	3.31184   	4800.000000	3.65431   	4800.000000	9.50115e-05	
5000.000000	5.31278   	5000.000000	3.69948   	5000.000000	3.54552   	5000.000000	3.3253    	5000.000000	3.69939   	5000.000000	9.14872e-05	
5250.000000	5.44672   	5250.000000	3.75655   	5250.000000	3.56174   	5250.000000	3.34184   	5250.000000	3.75646   	5250.000000	8.74452e-05	
5500.000000	5.58382   	5500.000000	3.81431   	5500.000000	3.57766   	5500.000000	3.35806   	5500.000000	3.81423   	5500.000000	8.37566e-05	
6000.000000	5.86679   	6000.000000	3.93153   	6000.000000	3.60846   	6000.000000	3.38943   	6000.000000	3.93145   	6000.000000	7.72676e-05	
6500.000000	6.1605    	6500.000000	4.0505    	6500.000000	3.63752   	6500.000000	3.41938   	6500.000000	4.05043   	6500.000000	7.17406e-05	
7000.000000	6.46411   	7000.000000	4.17077   	7000.000000	3.66547   	7000.000000	3.44792   	7000.000000	4.17071   	7000.000000	6.69745e-05	
7500.000000	6.77699   	7500.000000	4.29202   	7500.000000	3.69193   	7500.000000	3.4751    	7500.000000	4.29196   	7500.000000	6.28208e-05	
8000.000000	7.09865   	8000.000000	4.41401   	8000.000000	3.71705   	8000.000000	3.50101   	8000.000000	4.41395   	8000.000000	5.91674e-05	
8500.000000	7.42874   	8500.000000	4.53655   	8500.000000	3.74101   	8500.000000	3.52571   	8500.000000	4.53649   	8500.000000	5.59283e-05	
9000.000000	7.76696   	9000.000000	4.65951   	9000.000000	3.76389   	9000.000000	3.54929   	9000.000000	4.65946   	9000.000000	5.30361e-05	
9500.000000	8.11311   	9500.000000	4.78278   	9500.000000	3.78571   	9500.000000	3.57183   	9500.000000	4.78273   	9500.000000	5.04373e-05	
10000.000000	8.46699   	10000.000000	4.90628   	10000.000000	3.80653   	10000.000000	3.59339   	10000.000000	4.90623   	10000.000000	4.8089e-05	
11000.000000	9.19742   	11000.000000	5.15373   	11000.000000	3.84541   	11000.000000	3.63386   	11000.000000	5.15368   	11000.000000	4.40104e-05	
12000.000000	9.9574    	12000.000000	5.40146   	12000.000000	3.88103   	12000.000000	3.67117   	12000.000000	5.40142   	12000.000000	4.05882e-05	
13000.000000	10.7464   	13000.000000	5.64924   	13000.000000	3.91376   	13000.000000	3.70574   	13000.000000	5.6492    	13000.000000	3.76744e-05	
14000.000000	11.5639   	14000.000000	5.8969    	14000.000000	3.94399   	14000.000000	3.73789   	14000.000000	5.89686   	14000.000000	3.51625e-05	
15000.000000	12.4098   	15000.000000	6.14433   	15000.000000	3.97202   	15000.000000	3.76792   	15000.000000	6.1443    	15000.000000	3.2974e-05	
16000.000000	13.2839   	16000.000000	6.39147   	16000.000000	3.99807   	16000.000000	3.79607   	16000.000000	6.39144   	16000.000000	3.10496e-05	
17000.000000	14.1861   	17000.000000	6.63827   	17000.000000	4.02237   	17000.000000	3.82254   	17000.000000	6.63824   	17000.000000	2.93438e-05	
18000.000000	15.1163   	18000.000000	6.88469   	18000.000000	4.04515   	18000.000000	3.8475    	18000.000000	6.88466   	18000.000000	2.7821e-05	
19000.000000	16.0745   	19000.000000	7.13072   	19000.000000	4.06661   	19000.000000	3.87111   	19000.000000	7.13069   	19000.000000	2.6453e-05	
20000.000000	17.0608   	20000.000000	7.37634   	20000.000000	4.0869    	20000.000000	3.8935    	20000.000000	7.37632   	20000.000000	2.52172e-05	
21000.000000	18.0751   	21000.000000	7.62155   	21000.000000	4.10601   	21000.000000	3.91477   	21000.000000	7.62153   	21000.000000	2.4095e-05	
22000.000000	19.1176   	22000.000000	7.86635   	22000.000000	4.12374   	22000.000000	3.93504   	22000.000000	7.86633   	22000.000000	2.30713e-05	
23000.000000	20.1883   	23000.000000	8.11075   	23000.000000	4.14053   	23000.000000	3.95437   	23000.000000	8.11072   	23000.000000	2.21336e-05	
24000.000000	21.2873   	24000.000000	8.35473   	24000.000000	4.15652   	24000.000000	3.97285   	24000.000000	8.35471   	24000.000000	2.12714e-05	
25000.000000	22.4147   	25000.000000	8.59832   	25000.000000	4.17168   	25000.000000	3.99055   	25000.000000	8.5983    	25000.000000	2.04758e-05	
26000.000000	23.5706   	26000.000000	8.84151   	26000.000000	4.18603   	26000.000000	4.00753   	26000.000000	8.84149   	26000.000000	1.97393e-05	
27000.000000	24.7551   	27000.000000	9.08432   	27000.000000	4.19963   	27000.000000	4.02383   	27000.000000	9.0843    	27000.000000	1.90555e-05	
28000.000000	25.9683   	28000.000000	9.32674   	28000.000000	4.21254   	28000.000000	4.03952   	28000.000000	9.32673   	28000.000000	1.84189e-05	
29000.000000	27.2104   	29000.000000	9.5688    	29000.000000	4.22484   	29000.000000	4.05462   	29000.000000	9.56878   	29000.000000	1.78247e-05	
30000.000000	28.4815   	30000.000000	9.81049   	30000.000000	4.23658   	30000.000000	4.06919   	30000.000000	9.81047   	30000.000000	1.72688e-05	
32000.000000	31.1111   	32000.000000	10.2928   	32000.000000	4.25846   	32000.000000	4.09683   	32000.000000	10.2928   	32000.000000	1.62577e-05	
34000.000000	33.8582   	34000.000000	10.7738   	34000.000000	4.27845   	34000.000000	4.1227    	34000.000000	10.7738   	34000.000000	1.53617e-05	
36000.000000	36.724    	36000.000000	11.2534   	36000.000000	4.29667   	36000.000000	4.14699   	36000.000000	11.2534   	36000.000000	1.4562e-05	
38000.000000	39.7098   	38000.000000	11.7319   	38000.000000	4.31333   	38000.000000	4.16988   	38000.000000	11.7319   	38000.000000	1.38437e-05	
40000.000000	42.8166   	40000.000000	12.2091   	40000.000000	4.32864   	40000.000000	4.19152   	40000.000000	12.2091   	40000.000000	1.31949e-05	
42000.000000	46.0458   	42000.000000	12.6852   	42000.000000	4.34278   	42000.000000	4.21202   	42000.000000	12.6852   	42000.000000	1.26059e-05	
44000.000000	49.3986   	44000.000000	13.1602   	44000.000000	4.35591   	44000.000000	4.23149   	44000.000000	13.1602   	44000.000000	1.20687e-05	
46000.000000	52.8764   	46000.000000	13.6342   	46000.000000	4.36822   	46000.000000	4.25004   	46000.000000	13.6342   	46000.000000	1.15767e-05	
48000.000000	56.4803   	48000.000000	14.1072   	48000.000000	4.37974   	48000.000000	4.26773   	48000.000000	14.1071   	48000.000000	1.11243e-05	
50000.000000	60.2118   	50000.000000	14.5792   	50000.000000	4.39036   	50000.000000	4.28464   	50000.000000	14.5791   	50000.000000	1.0707e-05	
