Energy (MeV/u)1	0 - [He-base] F.Hubert et al, AD&ND Tables 46(1990)1	Energy (MeV/u)2	1 - [H -base] J.F.Ziegler et al, Pergamon Press, NY (low energy)	Energy (MeV/u)3	2 - ATIMA 1.2  LS-theory (recommended for high energy)	Energy (MeV/u)4	3 - ATIMA 1.2  without LS-correction	Energy (MeV/u)5	4 - electrical component of [1] - J.F.Ziegler et al	Energy (MeV/u)6	5 - nuclear component of [1] - J.F.Ziegler et al	
0.001000	2.57233   	0.001000	0.451457  	0.001000	0.412639  	0.001000	0.412639  	0.001000	0.248764  	0.001000	0.202693  	
0.002000	2.63201   	0.002000	0.548759  	0.002000	0.501101  	0.002000	0.501101  	0.002000	0.344565  	0.002000	0.204195  	
0.005000	2.89375   	0.005000	0.710531  	0.005000	0.649945  	0.005000	0.649945  	0.005000	0.530033  	0.005000	0.180498  	
0.008000	3.16228   	0.008000	0.819836  	0.008000	0.752586  	0.008000	0.752586  	0.008000	0.661057  	0.008000	0.158779  	
0.010000	3.32882   	0.010000	0.881272  	0.010000	0.811015  	0.010000	0.811015  	0.010000	0.734153  	0.010000	0.147119  	
0.015000	3.92579   	0.015000	1.01331   	0.015000	0.938129  	0.015000	0.938129  	0.015000	0.888279  	0.015000	0.125027  	
0.020000	4.5025    	0.020000	1.12633   	0.020000	1.04834   	0.020000	1.04834   	0.020000	1.01688   	0.020000	0.109448  	
0.025000	5.16148   	0.025000	1.2579    	0.025000	1.17276   	0.025000	1.17276   	0.025000	1.1601    	0.025000	0.0978058 	
0.030000	5.76567   	0.030000	1.44489   	0.030000	1.43676   	0.030000	1.43676   	0.030000	1.35616   	0.030000	0.0887236 	
0.035000	6.30257   	0.035000	1.63075   	0.035000	1.63818   	0.035000	1.63818   	0.035000	1.54934   	0.035000	0.081408  	
0.040000	6.764     	0.040000	1.8117    	0.040000	1.80133   	0.040000	1.80133   	0.040000	1.73633   	0.040000	0.0753676 	
0.045000	7.14142   	0.045000	1.98565   	0.045000	1.94631   	0.045000	1.94631   	0.045000	1.91537   	0.045000	0.0702814 	
0.050000	7.37468   	0.050000	2.15159   	0.050000	2.08207   	0.050000	2.08207   	0.050000	2.08566   	0.050000	0.0659297 	
0.055000	7.76968   	0.055000	2.3064    	0.055000	2.21163   	0.055000	2.21163   	0.055000	2.24424   	0.055000	0.0621571 	
0.060000	8.1192    	0.060000	2.43058   	0.060000	2.33578   	0.060000	2.33578   	0.060000	2.37173   	0.060000	0.0588499 	
0.070000	8.68986   	0.070000	2.65187   	0.070000	2.56792   	0.070000	2.56792   	0.070000	2.59856   	0.070000	0.0533116 	
0.080000	9.29418   	0.080000	2.84774   	0.080000	2.77819   	0.080000	2.77819   	0.080000	2.7989    	0.080000	0.0488426 	
0.090000	9.7903    	0.090000	3.02088   	0.090000	2.96696   	0.090000	2.96696   	0.090000	2.97573   	0.090000	0.045149  	
0.100000	10.1771   	0.100000	3.17378   	0.100000	3.13544   	0.100000	3.13544   	0.100000	3.13175   	0.100000	0.0420374 	
0.120000	10.4394   	0.120000	3.39076   	0.120000	3.41821   	0.120000	3.41821   	0.120000	3.3537    	0.120000	0.0370675 	
0.140000	10.6161   	0.140000	3.54603   	0.140000	3.64041   	0.140000	3.64041   	0.140000	3.51293   	0.140000	0.0331025 	
0.160000	10.7755   	0.160000	3.67172   	0.160000	3.81542   	0.160000	3.81542   	0.160000	3.64176   	0.160000	0.029955  	
0.180000	10.9457   	0.180000	3.77507   	0.180000	3.95436   	0.180000	3.95436   	0.180000	3.74756   	0.180000	0.0275123 	
0.200000	11.2145   	0.200000	3.87696   	0.200000	4.0658    	0.200000	4.0658    	0.200000	3.85148   	0.200000	0.025474  	
0.250000	11.5143   	0.250000	4.0992    	0.250000	4.26386   	0.250000	4.26386   	0.250000	4.07761   	0.250000	0.0215873 	
0.300000	11.7814   	0.300000	4.24618   	0.300000	4.39291   	0.300000	4.39291   	0.300000	4.22737   	0.300000	0.018812  	
0.350000	12.0698   	0.350000	4.36978   	0.350000	4.48375   	0.350000	4.48375   	0.350000	4.35305   	0.350000	0.0167206 	
0.400000	12.3126   	0.400000	4.47841   	0.400000	4.57209   	0.400000	4.57209   	0.400000	4.46333   	0.400000	0.0150824 	
0.450000	12.4814   	0.450000	4.55861   	0.450000	4.68818   	0.450000	4.68818   	0.450000	4.54484   	0.450000	0.0137608 	
0.500000	12.5891   	0.500000	4.61813   	0.500000	4.77681   	0.500000	4.77681   	0.500000	4.60546   	0.500000	0.0126699 	
0.600000	12.2942   	0.600000	4.71128   	0.600000	4.8946    	0.600000	4.8946    	0.600000	4.70031   	0.600000	0.0109696 	
0.700000	11.8798   	0.700000	4.77455   	0.700000	4.95685   	0.700000	4.95685   	0.700000	4.76485   	0.700000	0.00970053	
0.800000	11.8311   	0.800000	4.80274   	0.800000	4.95402   	0.800000	4.95402   	0.800000	4.79403   	0.800000	0.00871387	
0.900000	11.7185   	0.900000	4.80619   	0.900000	4.92772   	0.900000	4.92772   	0.900000	4.79827   	0.900000	0.00792279	
1.000000	11.5845   	1.000000	4.79992   	1.000000	4.88951   	1.000000	4.88951   	1.000000	4.79265   	1.000000	0.00727311	
1.250000	11.1231   	1.250000	4.73992   	1.250000	4.76269   	1.250000	4.76269   	1.250000	4.73386   	1.250000	0.0060601 	
1.500000	10.5396   	1.500000	4.603     	1.500000	4.57881   	1.500000	4.57881   	1.500000	4.59779   	1.500000	0.0052146 	
1.750000	9.97282   	1.750000	4.45462   	1.750000	4.40994   	1.750000	4.40994   	1.750000	4.45003   	1.750000	0.00458887	
2.000000	9.43384   	2.000000	4.30053   	2.000000	4.25292   	2.000000	4.25292   	2.000000	4.29643   	2.000000	0.00410563	
2.250000	8.95703   	2.250000	4.15396   	2.250000	4.10627   	2.250000	4.10627   	2.250000	4.15024   	2.250000	0.0037203 	
2.500000	8.86159   	2.500000	4.0119    	2.500000	3.96907   	2.500000	3.96907   	2.500000	4.00849   	2.500000	0.00340531	
3.000000	8.03384   	3.000000	3.75077   	3.000000	3.72019   	3.000000	3.72019   	3.000000	3.74785   	3.000000	0.00292001	
3.500000	7.3506    	3.500000	3.52593   	3.500000	3.50114   	3.500000	3.50114   	3.500000	3.52337   	3.500000	0.00256248	
4.000000	6.77846   	4.000000	3.32629   	4.000000	3.30745   	4.000000	3.30745   	4.000000	3.32401   	4.000000	0.00228735	
4.500000	6.29282   	4.500000	3.15158   	4.500000	3.13526   	4.500000	3.13526   	4.500000	3.14951   	4.500000	0.00206863	
5.000000	5.87556   	5.000000	2.99728   	5.000000	2.98133   	5.000000	2.98133   	5.000000	2.99539   	5.000000	0.00189028	
5.500000	5.51317   	5.500000	2.85959   	5.500000	2.84296   	5.500000	2.84296   	5.500000	2.85785   	5.500000	0.00174189	
6.000000	5.19544   	6.000000	2.73571   	6.000000	2.71794   	6.000000	2.71794   	6.000000	2.73409   	6.000000	0.00161636	
6.500000	4.91455   	6.500000	2.6234    	6.500000	2.60442   	6.500000	2.60442   	6.500000	2.6219    	6.500000	0.0015087 	
7.000000	4.66439   	7.000000	2.52107   	7.000000	2.50087   	7.000000	2.50087   	7.000000	2.51966   	7.000000	0.00141526	
7.500000	4.44011   	7.500000	2.42746   	7.500000	2.40602   	7.500000	2.40602   	7.500000	2.42612   	7.500000	0.00133336	
8.000000	4.23786   	8.000000	2.34142   	8.000000	2.31881   	8.000000	2.31881   	8.000000	2.34016   	8.000000	0.00126094	
8.500000	4.0545    	8.500000	2.26203   	8.500000	2.23833   	8.500000	2.23833   	8.500000	2.26083   	8.500000	0.00119642	
9.000000	3.88747   	9.000000	2.18851   	9.000000	2.16382   	9.000000	2.16382   	9.000000	2.18738   	9.000000	0.00113855	
9.500000	3.73466   	9.500000	2.12022   	9.500000	2.09462   	9.500000	2.09462   	9.500000	2.11913   	9.500000	0.00108633	
10.000000	3.59429   	10.000000	2.07021   	10.000000	2.03018   	10.000000	2.03018   	10.000000	2.06917   	10.000000	0.00103896	
11.000000	3.34522   	11.000000	1.96683   	11.000000	1.92125   	11.000000	1.92678   	11.000000	1.96587   	11.000000	0.000956233	
12.000000	3.13086   	12.000000	1.87176   	12.000000	1.82447   	12.000000	1.83381   	12.000000	1.87087   	12.000000	0.000886361	
13.000000	2.94436   	13.000000	1.78462   	13.000000	1.73796   	13.000000	1.74993   	13.000000	1.78379   	13.000000	0.000826513	
14.000000	2.78054   	14.000000	1.7048    	14.000000	1.66013   	14.000000	1.67389   	14.000000	1.70403   	14.000000	0.000774641	
15.000000	2.63544   	15.000000	1.63165   	15.000000	1.58966   	15.000000	1.60466   	15.000000	1.63092   	15.000000	0.000729223	
16.000000	2.506     	16.000000	1.5645    	16.000000	1.52564   	16.000000	1.5414    	16.000000	1.56381   	16.000000	0.000689106	
17.000000	2.38976   	17.000000	1.50272   	17.000000	1.46725   	17.000000	1.48338   	17.000000	1.50207   	17.000000	0.000653397	
18.000000	2.28479   	18.000000	1.44577   	18.000000	1.41367   	18.000000	1.42997   	18.000000	1.44515   	18.000000	0.000621395	
19.000000	2.18949   	19.000000	1.39314   	19.000000	1.36431   	19.000000	1.38065   	19.000000	1.39254   	19.000000	0.000592542	
20.000000	2.10257   	20.000000	1.34438   	20.000000	1.31871   	20.000000	1.33498   	20.000000	1.34382   	20.000000	0.000566386	
21.000000	2.02296   	21.000000	1.29911   	21.000000	1.27618   	21.000000	1.29226   	21.000000	1.29857   	21.000000	0.000542559	
22.000000	1.94975   	22.000000	1.25699   	22.000000	1.23666   	22.000000	1.25246   	22.000000	1.25647   	22.000000	0.00052076	
23.000000	1.88219   	23.000000	1.2177    	23.000000	1.20016   	23.000000	1.21562   	23.000000	1.2172    	23.000000	0.000500734	
24.000000	1.81964   	24.000000	1.18098   	24.000000	1.1661    	24.000000	1.18115   	24.000000	1.1805    	24.000000	0.00048227	
25.000000	1.76156   	25.000000	1.14659   	25.000000	1.13423   	25.000000	1.14885   	25.000000	1.14613   	25.000000	0.000465189	
27.000000	1.65699   	27.000000	1.08399   	27.000000	1.07628   	27.000000	1.08996   	27.000000	1.08356   	27.000000	0.000434589	
29.000000	1.56541   	29.000000	1.02848   	29.000000	1.02494   	29.000000	1.03763   	29.000000	1.02807   	29.000000	0.000407952	
31.000000	1.48452   	31.000000	0.978933  	31.000000	0.977413  	31.000000	0.988575  	31.000000	0.978549  	31.000000	0.000384544	
33.000000	1.41253   	33.000000	0.934445  	33.000000	0.933212  	33.000000	0.94259   	33.000000	0.934081  	33.000000	0.000363803	
35.000000	1.34801   	35.000000	0.894281  	35.000000	0.893366  	35.000000	0.90131   	35.000000	0.893936  	35.000000	0.000345289	
38.000000	1.26285   	38.000000	0.840864  	38.000000	0.840589  	38.000000	0.846707  	38.000000	0.840544  	38.000000	0.000320959	
41.000000	1.18909   	41.000000	0.794251  	41.000000	0.794568  	41.000000	0.799296  	41.000000	0.793951  	41.000000	0.000299982	
44.000000	1.12456   	44.000000	0.753216  	44.000000	0.75413   	44.000000	0.757712  	44.000000	0.752935  	44.000000	0.000281701	
47.000000	1.0676    	47.000000	0.716814  	47.000000	0.718217  	47.000000	0.72092   	47.000000	0.716548  	47.000000	0.00026562	
50.000000	1.01693   	50.000000	0.684298  	50.000000	0.686144  	50.000000	0.688119  	50.000000	0.684046  	50.000000	0.000251357	
55.000000	0.943812  	55.000000	0.63718   	55.000000	0.639567  	55.000000	0.640666  	55.000000	0.636949  	55.000000	0.000230852	
60.000000	0.881971  	60.000000	0.597161  	60.000000	0.600097  	60.000000	0.60041   	60.000000	0.596948  	60.000000	0.000213577	
65.000000	0.828939  	65.000000	0.56274   	65.000000	0.566021  	65.000000	0.5658    	65.000000	0.562541  	65.000000	0.000198815	
70.000000	0.782928  	70.000000	0.532811  	70.000000	0.536286  	70.000000	0.535706  	70.000000	0.532624  	70.000000	0.000186047	
75.000000	0.742605  	75.000000	0.50654   	75.000000	0.51022   	75.000000	0.509282  	75.000000	0.506366  	75.000000	0.000174889	
80.000000	0.706957  	80.000000	0.483292  	80.000000	0.487057  	80.000000	0.485886  	80.000000	0.483127  	80.000000	0.00016505	
85.000000	0.6752    	85.000000	0.462569  	85.000000	0.466378  	85.000000	0.465017  	85.000000	0.462412  	85.000000	0.000156307	
90.000000	0.646717  	90.000000	0.443976  	90.000000	0.447805  	90.000000	0.44628   	90.000000	0.443828  	90.000000	0.000148482	
95.000000	0.621016  	95.000000	0.427199  	95.000000	0.431027  	95.000000	0.429361  	95.000000	0.427058  	95.000000	0.000141438	
100.000000	0.5977    	100.000000	0.411982  	100.000000	0.415791  	100.000000	0.414003  	100.000000	0.411847  	100.000000	0.00013506	
105.000000	0.576445  	105.000000	0.398116  	105.000000	0.401898  	105.000000	0.399997  	105.000000	0.397986  	105.000000	0.000129258	
110.000000	0.556983  	110.000000	0.385426  	110.000000	0.38911   	110.000000	0.38717   	110.000000	0.385302  	110.000000	0.000123955	
115.000000	0.53909   	115.000000	0.373768  	115.000000	0.377389  	115.000000	0.375378  	115.000000	0.373649  	115.000000	0.000119089	
120.000000	0.522581  	120.000000	0.36302   	120.000000	0.36657   	120.000000	0.364499  	120.000000	0.362906  	120.000000	0.000114607	
125.000000	0.507296  	125.000000	0.353079  	125.000000	0.356512  	125.000000	0.354431  	125.000000	0.352968  	125.000000	0.000110464	
130.000000	0.493102  	130.000000	0.343856  	130.000000	0.347186  	130.000000	0.345084  	130.000000	0.34375   	130.000000	0.000106624	
135.000000	0.479882  	135.000000	0.335277  	135.000000	0.338544  	135.000000	0.336384  	135.000000	0.335173  	135.000000	0.000103053	
140.000000	0.467538  	140.000000	0.327274  	140.000000	0.330457  	140.000000	0.328265  	140.000000	0.327175  	140.000000	9.97244e-05	
145.000000	0.455982  	145.000000	0.319793  	145.000000	0.322868  	145.000000	0.320671  	145.000000	0.319696  	145.000000	9.66132e-05	
150.000000	0.44514   	150.000000	0.312782  	150.000000	0.315758  	150.000000	0.313553  	150.000000	0.312689  	150.000000	9.36987e-05	
155.000000	0.429868  	155.000000	0.3062    	155.000000	0.30908   	155.000000	0.306866  	155.000000	0.306109  	155.000000	9.09624e-05	
160.000000	0.420919  	160.000000	0.300007  	160.000000	0.302792  	160.000000	0.300572  	160.000000	0.299919  	160.000000	8.83884e-05	
165.000000	0.412479  	165.000000	0.294171  	165.000000	0.296864  	165.000000	0.294639  	165.000000	0.294085  	165.000000	8.59624e-05	
170.000000	0.404506  	170.000000	0.28866   	170.000000	0.291264  	170.000000	0.289035  	170.000000	0.288576  	170.000000	8.36718e-05	
175.000000	0.396961  	175.000000	0.283449  	175.000000	0.285967  	175.000000	0.283735  	175.000000	0.283367  	175.000000	8.15053e-05	
180.000000	0.38981   	180.000000	0.278513  	180.000000	0.280949  	180.000000	0.278714  	180.000000	0.278433  	180.000000	7.94531e-05	
185.000000	0.383024  	185.000000	0.273831  	185.000000	0.276187  	185.000000	0.27395   	185.000000	0.273754  	185.000000	7.75062e-05	
190.000000	0.376573  	190.000000	0.269385  	190.000000	0.271662  	190.000000	0.269425  	190.000000	0.269309  	190.000000	7.56565e-05	
195.000000	0.370434  	195.000000	0.265156  	195.000000	0.267362  	195.000000	0.265121  	195.000000	0.265082  	195.000000	7.38969e-05	
200.000000	0.364585  	200.000000	0.26113   	200.000000	0.263266  	200.000000	0.261023  	200.000000	0.261058  	200.000000	7.22208e-05	
210.000000	0.353675  	210.000000	0.253628  	210.000000	0.255594  	210.000000	0.253387  	210.000000	0.253559  	210.000000	6.90962e-05	
220.000000	0.343703  	220.000000	0.246782  	220.000000	0.248617  	220.000000	0.246418  	220.000000	0.246716  	220.000000	6.62416e-05	
230.000000	0.334552  	230.000000	0.240508  	230.000000	0.242231  	230.000000	0.240033  	230.000000	0.240445  	230.000000	6.36232e-05	
240.000000	0.326125  	240.000000	0.234739  	240.000000	0.236362  	240.000000	0.234162  	240.000000	0.234678  	240.000000	6.12122e-05	
250.000000	0.318337  	250.000000	0.229417  	250.000000	0.230923  	250.000000	0.228747  	250.000000	0.229358  	250.000000	5.89847e-05	
260.000000	0.31112   	260.000000	0.224491  	260.000000	0.22589   	260.000000	0.223737  	260.000000	0.224434  	260.000000	5.69202e-05	
270.000000	0.304411  	270.000000	0.219919  	270.000000	0.221246  	270.000000	0.21909   	270.000000	0.219864  	270.000000	5.50013e-05	
280.000000	0.29816   	280.000000	0.215665  	280.000000	0.216921  	280.000000	0.214769  	280.000000	0.215612  	280.000000	5.32127e-05	
290.000000	0.292321  	290.000000	0.211698  	290.000000	0.212865  	290.000000	0.210741  	290.000000	0.211646  	290.000000	5.15416e-05	
300.000000	0.286855  	300.000000	0.207989  	300.000000	0.20909   	300.000000	0.206978  	300.000000	0.207939  	300.000000	4.99765e-05	
310.000000	0.281727  	310.000000	0.204515  	310.000000	0.205562  	310.000000	0.203455  	310.000000	0.204467  	310.000000	4.85075e-05	
320.000000	0.276908  	320.000000	0.201255  	320.000000	0.202234  	320.000000	0.200151  	320.000000	0.201208  	320.000000	4.71259e-05	
330.000000	0.272369  	330.000000	0.198189  	330.000000	0.199117  	330.000000	0.197048  	330.000000	0.198143  	330.000000	4.58241e-05	
340.000000	0.268089  	340.000000	0.195302  	340.000000	0.196198  	340.000000	0.194127  	340.000000	0.195257  	340.000000	4.45951e-05	
350.000000	0.264045  	350.000000	0.192577  	350.000000	0.193444  	350.000000	0.191374  	350.000000	0.192534  	350.000000	4.34331e-05	
360.000000	0.26022   	360.000000	0.190004  	360.000000	0.190831  	360.000000	0.188775  	360.000000	0.189961  	360.000000	4.23325e-05	
370.000000	0.256595  	370.000000	0.187569  	370.000000	0.188355  	370.000000	0.186319  	370.000000	0.187527  	370.000000	4.12886e-05	
380.000000	0.253157  	380.000000	0.185261  	380.000000	0.186024  	380.000000	0.183995  	380.000000	0.185221  	380.000000	4.02971e-05	
390.000000	0.249891  	390.000000	0.183073  	390.000000	0.183818  	390.000000	0.181792  	390.000000	0.183033  	390.000000	3.9354e-05	
400.000000	0.246785  	400.000000	0.180994  	400.000000	0.181714  	400.000000	0.179702  	400.000000	0.180956  	400.000000	3.84558e-05	
410.000000	0.243828  	410.000000	0.179018  	410.000000	0.179712  	410.000000	0.177717  	410.000000	0.17898   	410.000000	3.75993e-05	
420.000000	0.241009  	420.000000	0.177136  	420.000000	0.177818  	420.000000	0.175829  	420.000000	0.177099  	420.000000	3.67818e-05	
430.000000	0.238321  	430.000000	0.175343  	430.000000	0.176018  	430.000000	0.174033  	430.000000	0.175307  	430.000000	3.60004e-05	
440.000000	0.235753  	440.000000	0.173634  	440.000000	0.174298  	440.000000	0.172322  	440.000000	0.173598  	440.000000	3.5253e-05	
450.000000	0.233299  	450.000000	0.172001  	450.000000	0.172653  	450.000000	0.17069   	450.000000	0.171967  	450.000000	3.45372e-05	
460.000000	0.230952  	460.000000	0.170442  	460.000000	0.171081  	460.000000	0.169133  	460.000000	0.170408  	460.000000	3.3851e-05	
470.000000	0.228705  	470.000000	0.16895   	470.000000	0.16958   	470.000000	0.167645  	470.000000	0.168917  	470.000000	3.31927e-05	
480.000000	0.226552  	480.000000	0.167523  	480.000000	0.168155  	480.000000	0.166228  	480.000000	0.16749   	480.000000	3.25606e-05	
490.000000	0.224487  	490.000000	0.166155  	490.000000	0.166801  	490.000000	0.164875  	490.000000	0.166123  	490.000000	3.1953e-05	
500.000000	0.222506  	500.000000	0.164845  	500.000000	0.165503  	500.000000	0.163579  	500.000000	0.164814  	500.000000	3.13686e-05	
520.000000	0.218776  	520.000000	0.162381  	520.000000	0.163049  	520.000000	0.161147  	520.000000	0.162351  	520.000000	3.02642e-05	
540.000000	0.215329  	540.000000	0.160109  	540.000000	0.1608    	540.000000	0.158909  	540.000000	0.16008   	540.000000	2.92379e-05	
560.000000	0.212136  	560.000000	0.158008  	560.000000	0.15873   	560.000000	0.156843  	560.000000	0.15798   	560.000000	2.82816e-05	
580.000000	0.209172  	580.000000	0.156061  	580.000000	0.156803  	580.000000	0.154934  	580.000000	0.156034  	580.000000	2.73883e-05	
600.000000	0.206415  	600.000000	0.154254  	600.000000	0.155013  	600.000000	0.153164  	600.000000	0.154227  	600.000000	2.65518e-05	
620.000000	0.203846  	620.000000	0.152572  	620.000000	0.153357  	620.000000	0.151522  	620.000000	0.152546  	620.000000	2.57669e-05	
640.000000	0.201449  	640.000000	0.151005  	640.000000	0.151827  	640.000000	0.149995  	640.000000	0.15098   	640.000000	2.50288e-05	
660.000000	0.199208  	660.000000	0.149543  	660.000000	0.1504    	660.000000	0.148572  	660.000000	0.149519  	660.000000	2.43335e-05	
680.000000	0.197111  	680.000000	0.148176  	680.000000	0.149059  	680.000000	0.147246  	680.000000	0.148152  	680.000000	2.36772e-05	
700.000000	0.195145  	700.000000	0.146897  	700.000000	0.147809  	700.000000	0.146007  	700.000000	0.146874  	700.000000	2.30568e-05	
720.000000	0.193301  	720.000000	0.145698  	720.000000	0.146647  	720.000000	0.144848  	720.000000	0.145676  	720.000000	2.24692e-05	
740.000000	0.19157   	740.000000	0.144574  	740.000000	0.14556   	740.000000	0.143763  	740.000000	0.144552  	740.000000	2.19121e-05	
760.000000	0.189942  	760.000000	0.143518  	760.000000	0.144534  	760.000000	0.142746  	760.000000	0.143496  	760.000000	2.13829e-05	
780.000000	0.18841   	780.000000	0.142525  	780.000000	0.143567  	780.000000	0.141791  	780.000000	0.142504  	780.000000	2.08797e-05	
800.000000	0.186968  	800.000000	0.141591  	800.000000	0.142659  	800.000000	0.140895  	800.000000	0.14157   	800.000000	2.04006e-05	
820.000000	0.185609  	820.000000	0.140711  	820.000000	0.141806  	820.000000	0.140052  	820.000000	0.140691  	820.000000	1.99438e-05	
840.000000	0.184327  	840.000000	0.139882  	840.000000	0.141007  	840.000000	0.139259  	840.000000	0.139863  	840.000000	1.95077e-05	
860.000000	0.183118  	860.000000	0.139101  	860.000000	0.140259  	860.000000	0.138512  	860.000000	0.139082  	860.000000	1.90911e-05	
880.000000	0.181977  	880.000000	0.138364  	880.000000	0.139554  	880.000000	0.137809  	880.000000	0.138345  	880.000000	1.86926e-05	
900.000000	0.1809    	900.000000	0.137667  	900.000000	0.138887  	900.000000	0.137145  	900.000000	0.137649  	900.000000	1.8311e-05	
920.000000	0.179882  	920.000000	0.13701   	920.000000	0.138255  	920.000000	0.136519  	920.000000	0.136992  	920.000000	1.79452e-05	
940.000000	0.17892   	940.000000	0.136389  	940.000000	0.137656  	940.000000	0.135928  	940.000000	0.136371  	940.000000	1.75944e-05	
960.000000	0.178011  	960.000000	0.135802  	960.000000	0.137089  	960.000000	0.13537   	960.000000	0.135784  	960.000000	1.72575e-05	
980.000000	0.177152  	980.000000	0.135246  	980.000000	0.136554  	980.000000	0.134842  	980.000000	0.135229  	980.000000	1.69338e-05	
1000.000000	0.176339  	1000.000000	0.134721  	1000.000000	0.136048  	1000.000000	0.134344  	1000.000000	0.134705  	1000.000000	1.66225e-05	
1020.000000	0.175571  	1020.000000	0.134225  	1020.000000	0.135571  	1020.000000	0.133872  	1020.000000	0.134208  	1020.000000	1.63228e-05	
1040.000000	0.174845  	1040.000000	0.133755  	1040.000000	0.135122  	1040.000000	0.133425  	1040.000000	0.133739  	1040.000000	1.60342e-05	
1060.000000	0.174159  	1060.000000	0.13331   	1060.000000	0.134698  	1060.000000	0.133003  	1060.000000	0.133294  	1060.000000	1.5756e-05	
1080.000000	0.17351   	1080.000000	0.132889  	1080.000000	0.134297  	1080.000000	0.132603  	1080.000000	0.132874  	1080.000000	1.54876e-05	
1100.000000	0.172897  	1100.000000	0.132491  	1100.000000	0.133917  	1100.000000	0.132224  	1100.000000	0.132476  	1100.000000	1.52286e-05	
1120.000000	0.172318  	1120.000000	0.132115  	1120.000000	0.133556  	1120.000000	0.131865  	1120.000000	0.1321    	1120.000000	1.49784e-05	
1140.000000	0.171771  	1140.000000	0.131759  	1140.000000	0.133212  	1140.000000	0.131525  	1140.000000	0.131744  	1140.000000	1.47367e-05	
1160.000000	0.171255  	1160.000000	0.131422  	1160.000000	0.132886  	1160.000000	0.131203  	1160.000000	0.131407  	1160.000000	1.45029e-05	
1180.000000	0.170768  	1180.000000	0.131103  	1180.000000	0.132575  	1180.000000	0.130898  	1180.000000	0.131089  	1180.000000	1.42767e-05	
1200.000000	0.170309  	1200.000000	0.130802  	1200.000000	0.132281  	1200.000000	0.130609  	1200.000000	0.130788  	1200.000000	1.40577e-05	
1220.000000	0.169876  	1220.000000	0.130518  	1220.000000	0.132002  	1220.000000	0.130335  	1220.000000	0.130504  	1220.000000	1.38456e-05	
1240.000000	0.169469  	1240.000000	0.130249  	1240.000000	0.131737  	1240.000000	0.130075  	1240.000000	0.130236  	1240.000000	1.364e-05 	
1260.000000	0.169086  	1260.000000	0.129996  	1260.000000	0.131487  	1260.000000	0.129829  	1260.000000	0.129982  	1260.000000	1.34407e-05	
1280.000000	0.168726  	1280.000000	0.129757  	1280.000000	0.13125   	1280.000000	0.129596  	1280.000000	0.129744  	1280.000000	1.32473e-05	
1300.000000	0.168389  	1300.000000	0.129531  	1300.000000	0.131026  	1300.000000	0.129375  	1300.000000	0.129518  	1300.000000	1.30597e-05	
1320.000000	0.168072  	1320.000000	0.129319  	1320.000000	0.130815  	1320.000000	0.129166  	1320.000000	0.129306  	1320.000000	1.28774e-05	
1340.000000	0.167776  	1340.000000	0.12912   	1340.000000	0.130615  	1340.000000	0.128968  	1340.000000	0.129107  	1340.000000	1.27004e-05	
1360.000000	0.1675    	1360.000000	0.128932  	1360.000000	0.130427  	1360.000000	0.12878   	1360.000000	0.12892   	1360.000000	1.25284e-05	
1380.000000	0.167242  	1380.000000	0.128756  	1380.000000	0.130248  	1380.000000	0.128603  	1380.000000	0.128744  	1380.000000	1.23612e-05	
1400.000000	0.167003  	1400.000000	0.128591  	1400.000000	0.130079  	1400.000000	0.128435  	1400.000000	0.128579  	1400.000000	1.21985e-05	
1420.000000	0.16678   	1420.000000	0.128436  	1420.000000	0.129919  	1420.000000	0.128276  	1420.000000	0.128424  	1420.000000	1.20402e-05	
1440.000000	0.166575  	1440.000000	0.128292  	1440.000000	0.129768  	1440.000000	0.128126  	1440.000000	0.12828   	1440.000000	1.18861e-05	
1460.000000	0.166385  	1460.000000	0.128157  	1460.000000	0.129624  	1460.000000	0.127984  	1460.000000	0.128146  	1460.000000	1.17361e-05	
1480.000000	0.166211  	1480.000000	0.128032  	1480.000000	0.129489  	1480.000000	0.12785   	1480.000000	0.12802   	1480.000000	1.15899e-05	
1500.000000	0.166051  	1500.000000	0.127915  	1500.000000	0.12936   	1500.000000	0.127724  	1500.000000	0.127904  	1500.000000	1.14475e-05	
1520.000000	0.165906  	1520.000000	0.127808  	1520.000000	0.129238  	1520.000000	0.127605  	1520.000000	0.127796  	1520.000000	1.13087e-05	
1540.000000	0.165774  	1540.000000	0.127708  	1540.000000	0.129124  	1540.000000	0.127493  	1540.000000	0.127697  	1540.000000	1.11733e-05	
1560.000000	0.165656  	1560.000000	0.127617  	1560.000000	0.129015  	1560.000000	0.127387  	1560.000000	0.127606  	1560.000000	1.10412e-05	
1580.000000	0.165551  	1580.000000	0.127533  	1580.000000	0.128914  	1580.000000	0.127288  	1580.000000	0.127522  	1580.000000	1.09124e-05	
1600.000000	0.165458  	1600.000000	0.127456  	1600.000000	0.128818  	1600.000000	0.127194  	1600.000000	0.127445  	1600.000000	1.07866e-05	
1620.000000	0.165377  	1620.000000	0.127387  	1620.000000	0.128728  	1620.000000	0.127107  	1620.000000	0.127376  	1620.000000	1.06638e-05	
1640.000000	0.165308  	1640.000000	0.127324  	1640.000000	0.128644  	1640.000000	0.127025  	1640.000000	0.127314  	1640.000000	1.05439e-05	
1660.000000	0.16525   	1660.000000	0.127268  	1660.000000	0.128565  	1660.000000	0.126948  	1660.000000	0.127258  	1660.000000	1.04268e-05	
1680.000000	0.165202  	1680.000000	0.127219  	1680.000000	0.128491  	1680.000000	0.126876  	1680.000000	0.127209  	1680.000000	1.03123e-05	
1700.000000	0.165165  	1700.000000	0.127176  	1700.000000	0.128423  	1700.000000	0.126809  	1700.000000	0.127165  	1700.000000	1.02004e-05	
1750.000000	0.165117  	1750.000000	0.127093  	1750.000000	0.128271  	1750.000000	0.126662  	1750.000000	0.127083  	1750.000000	9.93136e-06	
1800.000000	0.165126  	1800.000000	0.127044  	1800.000000	0.128145  	1800.000000	0.126541  	1800.000000	0.127034  	1800.000000	9.67667e-06	
1850.000000	0.165191  	1850.000000	0.127026  	1850.000000	0.128043  	1850.000000	0.126444  	1850.000000	0.127017  	1850.000000	9.43519e-06	
1900.000000	0.165305  	1900.000000	0.127038  	1900.000000	0.127963  	1900.000000	0.126369  	1900.000000	0.127029  	1900.000000	9.20589e-06	
1950.000000	0.165467  	1950.000000	0.127076  	1950.000000	0.127902  	1950.000000	0.126312  	1950.000000	0.127067  	1950.000000	8.98787e-06	
2000.000000	0.165672  	2000.000000	0.127139  	2000.000000	0.12786   	2000.000000	0.126273  	2000.000000	0.12713   	2000.000000	8.78031e-06	
2100.000000	0.166202  	2100.000000	0.127332  	2100.000000	0.127825  	2100.000000	0.126242  	2100.000000	0.127323  	2100.000000	8.39364e-06	
2200.000000	0.166877  	2200.000000	0.127604  	2200.000000	0.127844  	2200.000000	0.126264  	2200.000000	0.127596  	2200.000000	8.04073e-06	
2300.000000	0.167679  	2300.000000	0.127945  	2300.000000	0.127908  	2300.000000	0.126329  	2300.000000	0.127937  	2300.000000	7.71729e-06	
2400.000000	0.168594  	2400.000000	0.128346  	2400.000000	0.128007  	2400.000000	0.12643   	2400.000000	0.128339  	2400.000000	7.41974e-06	
2500.000000	0.16961   	2500.000000	0.128801  	2500.000000	0.128138  	2500.000000	0.126564  	2500.000000	0.128794  	2500.000000	7.14505e-06	
2600.000000	0.170719  	2600.000000	0.129302  	2600.000000	0.128307  	2600.000000	0.126736  	2600.000000	0.129295  	2600.000000	6.89066e-06	
2700.000000	0.17191   	2700.000000	0.129845  	2700.000000	0.128496  	2700.000000	0.12693   	2700.000000	0.129838  	2700.000000	6.65437e-06	
2800.000000	0.173177  	2800.000000	0.130425  	2800.000000	0.128703  	2800.000000	0.12714   	2800.000000	0.130418  	2800.000000	6.43429e-06	
2900.000000	0.174513  	2900.000000	0.131038  	2900.000000	0.128924  	2900.000000	0.127364  	2900.000000	0.131032  	2900.000000	6.2288e-06	
3000.000000	0.175913  	3000.000000	0.131681  	3000.000000	0.129158  	3000.000000	0.1276    	3000.000000	0.131675  	3000.000000	6.03647e-06	
3200.000000	0.178884  	3200.000000	0.133045  	3200.000000	0.129652  	3200.000000	0.1281    	3200.000000	0.133039  	3200.000000	5.68648e-06	
3400.000000	0.182058  	3400.000000	0.134497  	3400.000000	0.130174  	3400.000000	0.128626  	3400.000000	0.134492  	3400.000000	5.37612e-06	
3600.000000	0.185409  	3600.000000	0.136022  	3600.000000	0.130713  	3600.000000	0.129169  	3600.000000	0.136017  	3600.000000	5.09893e-06	
3800.000000	0.188917  	3800.000000	0.137609  	3800.000000	0.131263  	3800.000000	0.129722  	3800.000000	0.137604  	3800.000000	4.84983e-06	
4000.000000	0.192565  	4000.000000	0.139246  	4000.000000	0.131818  	4000.000000	0.130279  	4000.000000	0.139242  	4000.000000	4.62469e-06	
4200.000000	0.19634   	4200.000000	0.140928  	4200.000000	0.132373  	4200.000000	0.130837  	4200.000000	0.140923  	4200.000000	4.42019e-06	
4400.000000	0.200231  	4400.000000	0.142647  	4400.000000	0.132927  	4400.000000	0.131393  	4400.000000	0.142643  	4400.000000	4.23358e-06	
4600.000000	0.204228  	4600.000000	0.144398  	4600.000000	0.133476  	4600.000000	0.131944  	4600.000000	0.144394  	4600.000000	4.06259e-06	
4800.000000	0.208325  	4800.000000	0.146176  	4800.000000	0.13402   	4800.000000	0.13249   	4800.000000	0.146173  	4800.000000	3.90532e-06	
5000.000000	0.212513  	5000.000000	0.147979  	5000.000000	0.134556  	5000.000000	0.133028  	5000.000000	0.147975  	5000.000000	3.76016e-06	
5250.000000	0.217871  	5250.000000	0.150262  	5250.000000	0.135216  	5250.000000	0.13369   	5250.000000	0.150258  	5250.000000	3.59368e-06	
5500.000000	0.223354  	5500.000000	0.152573  	5500.000000	0.135863  	5500.000000	0.134339  	5500.000000	0.152569  	5500.000000	3.44178e-06	
6000.000000	0.234673  	6000.000000	0.157261  	6000.000000	0.137114  	6000.000000	0.135595  	6000.000000	0.157258  	6000.000000	3.17459e-06	
6500.000000	0.246421  	6500.000000	0.16202   	6500.000000	0.138308  	6500.000000	0.136793  	6500.000000	0.162017  	6500.000000	2.94706e-06	
7000.000000	0.258565  	7000.000000	0.166831  	7000.000000	0.139447  	7000.000000	0.137935  	7000.000000	0.166828  	7000.000000	2.75088e-06	
7500.000000	0.27108   	7500.000000	0.171681  	7500.000000	0.140532  	7500.000000	0.139023  	7500.000000	0.171678  	7500.000000	2.57994e-06	
8000.000000	0.283946  	8000.000000	0.17656   	8000.000000	0.141568  	8000.000000	0.140059  	8000.000000	0.176558  	8000.000000	2.42961e-06	
8500.000000	0.29715   	8500.000000	0.181462  	8500.000000	0.142553  	8500.000000	0.141047  	8500.000000	0.18146   	8500.000000	2.29635e-06	
9000.000000	0.310679  	9000.000000	0.18638   	9000.000000	0.143489  	9000.000000	0.141991  	9000.000000	0.186378  	9000.000000	2.17737e-06	
9500.000000	0.324525  	9500.000000	0.191311  	9500.000000	0.144385  	9500.000000	0.142892  	9500.000000	0.191309  	9500.000000	2.07047e-06	
10000.000000	0.33868   	10000.000000	0.196251  	10000.000000	0.145245  	10000.000000	0.143755  	10000.000000	0.196249  	10000.000000	1.97389e-06	
11000.000000	0.367897  	11000.000000	0.206149  	11000.000000	0.146862  	11000.000000	0.145374  	11000.000000	0.206147  	11000.000000	1.80617e-06	
12000.000000	0.398296  	12000.000000	0.216058  	12000.000000	0.148352  	12000.000000	0.146867  	12000.000000	0.216057  	12000.000000	1.66547e-06	
13000.000000	0.429854  	13000.000000	0.22597   	13000.000000	0.149729  	13000.000000	0.14825   	13000.000000	0.225968  	13000.000000	1.54569e-06	
14000.000000	0.462557  	14000.000000	0.235876  	14000.000000	0.151004  	14000.000000	0.149536  	14000.000000	0.235874  	14000.000000	1.44245e-06	
15000.000000	0.496393  	15000.000000	0.245773  	15000.000000	0.152191  	15000.000000	0.150738  	15000.000000	0.245772  	15000.000000	1.35251e-06	
16000.000000	0.531356  	16000.000000	0.255659  	16000.000000	0.153305  	16000.000000	0.151864  	16000.000000	0.255658  	16000.000000	1.27344e-06	
17000.000000	0.567442  	17000.000000	0.265531  	17000.000000	0.154354  	17000.000000	0.152923  	17000.000000	0.26553   	17000.000000	1.20336e-06	
18000.000000	0.604651  	18000.000000	0.275388  	18000.000000	0.155344  	18000.000000	0.153921  	18000.000000	0.275386  	18000.000000	1.1408e-06	
19000.000000	0.64298   	19000.000000	0.285229  	19000.000000	0.156283  	19000.000000	0.154866  	19000.000000	0.285228  	19000.000000	1.08461e-06	
20000.000000	0.68243   	20000.000000	0.295054  	20000.000000	0.157175  	20000.000000	0.155762  	20000.000000	0.295053  	20000.000000	1.03385e-06	
21000.000000	0.723004  	21000.000000	0.304862  	21000.000000	0.158022  	21000.000000	0.156613  	21000.000000	0.304861  	21000.000000	9.87767e-07	
22000.000000	0.764704  	22000.000000	0.314654  	22000.000000	0.158825  	22000.000000	0.157423  	22000.000000	0.314653  	22000.000000	9.4573e-07	
23000.000000	0.807532  	23000.000000	0.32443   	23000.000000	0.159582  	23000.000000	0.158197  	23000.000000	0.324429  	23000.000000	9.07227e-07	
24000.000000	0.851492  	24000.000000	0.334189  	24000.000000	0.160306  	24000.000000	0.158936  	24000.000000	0.334188  	24000.000000	8.71826e-07	
25000.000000	0.896588  	25000.000000	0.343933  	25000.000000	0.161006  	25000.000000	0.159644  	25000.000000	0.343932  	25000.000000	8.39163e-07	
26000.000000	0.942823  	26000.000000	0.35366   	26000.000000	0.161677  	26000.000000	0.160323  	26000.000000	0.35366   	26000.000000	8.08929e-07	
27000.000000	0.990203  	27000.000000	0.363373  	27000.000000	0.162315  	27000.000000	0.160976  	27000.000000	0.363372  	27000.000000	7.80861e-07	
28000.000000	1.03873   	28000.000000	0.37307   	28000.000000	0.162926  	28000.000000	0.161603  	28000.000000	0.373069  	28000.000000	7.54731e-07	
29000.000000	1.08842   	29000.000000	0.382752  	29000.000000	0.163516  	29000.000000	0.162207  	29000.000000	0.382751  	29000.000000	7.30344e-07	
30000.000000	1.13926   	30000.000000	0.39242   	30000.000000	0.164086  	30000.000000	0.16279   	30000.000000	0.392419  	30000.000000	7.07528e-07	
32000.000000	1.24444   	32000.000000	0.411713  	32000.000000	0.165167  	32000.000000	0.163896  	32000.000000	0.411712  	32000.000000	6.66037e-07	
34000.000000	1.35433   	34000.000000	0.430951  	34000.000000	0.166173  	34000.000000	0.164931  	34000.000000	0.430951  	34000.000000	6.29272e-07	
36000.000000	1.46896   	36000.000000	0.450138  	36000.000000	0.167112  	36000.000000	0.165903  	36000.000000	0.450137  	36000.000000	5.96461e-07	
38000.000000	1.58839   	38000.000000	0.469275  	38000.000000	0.167991  	38000.000000	0.166818  	38000.000000	0.469274  	38000.000000	5.66994e-07	
40000.000000	1.71266   	40000.000000	0.488364  	40000.000000	0.168818  	40000.000000	0.167684  	40000.000000	0.488364  	40000.000000	5.4038e-07	
42000.000000	1.84183   	42000.000000	0.507408  	42000.000000	0.169599  	42000.000000	0.168504  	42000.000000	0.507408  	42000.000000	5.1622e-07	
44000.000000	1.97595   	44000.000000	0.526409  	44000.000000	0.170339  	44000.000000	0.169283  	44000.000000	0.526408  	44000.000000	4.94187e-07	
46000.000000	2.11505   	46000.000000	0.545367  	46000.000000	0.171043  	46000.000000	0.170025  	46000.000000	0.545367  	46000.000000	4.74008e-07	
48000.000000	2.25921   	48000.000000	0.564286  	48000.000000	0.171713  	48000.000000	0.170733  	48000.000000	0.564286  	48000.000000	4.55458e-07	
50000.000000	2.40847   	50000.000000	0.583166  	50000.000000	0.172349  	50000.000000	0.171409  	50000.000000	0.583166  	50000.000000	4.38345e-07	
