Energy (MeV/u)1	0 - [He-base] F.Hubert et al, AD&ND Tables 46(1990)1	Energy (MeV/u)2	1 - [H -base] J.F.Ziegler et al, Pergamon Press, NY (low energy)	Energy (MeV/u)3	2 - ATIMA 1.2  LS-theory (recommended for high energy)	Energy (MeV/u)4	3 - ATIMA 1.2  without LS-correction	Energy (MeV/u)5	4 - electrical component of [1] - J.F.Ziegler et al	Energy (MeV/u)6	5 - nuclear component of [1] - J.F.Ziegler et al	
0.001000	4.52178   	0.001000	0.925222  	0.001000	0.891819  	0.001000	0.891819  	0.001000	0.267214  	0.001000	0.658008  	
0.002000	4.57727   	0.002000	1.02271   	0.002000	0.983244  	0.002000	0.983244  	0.002000	0.37012   	0.002000	0.652593  	
0.005000	4.83689   	0.005000	1.14506   	0.005000	1.10292   	0.005000	1.10292   	0.005000	0.582054  	0.005000	0.563004  	
0.008000	5.16161   	0.008000	1.23893   	0.008000	1.18991   	0.008000	1.18991   	0.008000	0.749979  	0.008000	0.488955  	
0.010000	5.37669   	0.010000	1.30256   	0.010000	1.25059   	0.010000	1.25059   	0.010000	0.852156  	0.010000	0.450405  	
0.015000	6.10342   	0.015000	1.44651   	0.015000	1.41566   	0.015000	1.41566   	0.015000	1.06754   	0.015000	0.378969  	
0.020000	6.76645   	0.020000	1.60408   	0.020000	1.59747   	0.020000	1.59747   	0.020000	1.27446   	0.020000	0.329615  	
0.025000	7.54616   	0.025000	1.77157   	0.025000	1.79287   	0.025000	1.79287   	0.025000	1.47837   	0.025000	0.293196  	
0.030000	8.24631   	0.030000	1.94643   	0.030000	1.94209   	0.030000	1.94209   	0.030000	1.68139   	0.030000	0.265038  	
0.035000	8.86383   	0.035000	2.13084   	0.035000	2.09462   	0.035000	2.09462   	0.035000	1.88833   	0.035000	0.242507  	
0.040000	9.40662   	0.040000	2.32076   	0.040000	2.24891   	0.040000	2.24891   	0.040000	2.09676   	0.040000	0.224     	
0.045000	9.85704   	0.045000	2.5138    	0.045000	2.40372   	0.045000	2.40372   	0.045000	2.30531   	0.045000	0.208483  	
0.050000	10.208    	0.050000	2.70887   	0.050000	2.55809   	0.050000	2.55809   	0.050000	2.51362   	0.050000	0.195253  	
0.055000	10.7836   	0.055000	2.87395   	0.055000	2.71134   	0.055000	2.71134   	0.055000	2.69013   	0.055000	0.183818  	
0.060000	11.3006   	0.060000	3.03544   	0.060000	2.86295   	0.060000	2.86295   	0.060000	2.86162   	0.060000	0.173819  	
0.070000	12.1659   	0.070000	3.34621   	0.070000	3.15976   	0.070000	3.15976   	0.070000	3.18908   	0.070000	0.157129  	
0.080000	13.0871   	0.080000	3.6009    	0.080000	3.44633   	0.080000	3.44633   	0.080000	3.45719   	0.080000	0.143709  	
0.090000	13.8646   	0.090000	3.83021   	0.090000	3.72135   	0.090000	3.72135   	0.090000	3.69756   	0.090000	0.132649  	
0.100000	14.5119   	0.100000	4.02691   	0.100000	3.98409   	0.100000	3.98409   	0.100000	3.90355   	0.100000	0.123354  	
0.120000	15.1846   	0.120000	4.48498   	0.120000	4.47165   	0.120000	4.47165   	0.120000	4.37643   	0.120000	0.108552  	
0.140000	15.6897   	0.140000	4.88373   	0.140000	4.90827   	0.140000	4.90827   	0.140000	4.78738   	0.140000	0.0963528 	
0.160000	16.1359   	0.160000	5.23093   	0.160000	5.29834   	0.160000	5.29834   	0.160000	5.14344   	0.160000	0.0874856 	
0.180000	16.5737   	0.180000	5.53209   	0.180000	5.64459   	0.180000	5.64459   	0.180000	5.45184   	0.180000	0.0802558 	
0.200000	17.118    	0.200000	5.84016   	0.200000	5.95122   	0.200000	5.95122   	0.200000	5.76592   	0.200000	0.0742355 	
0.250000	18.1725   	0.250000	6.55074   	0.250000	6.57207   	0.250000	6.57207   	0.250000	6.48795   	0.250000	0.0627861 	
0.300000	19.0584   	0.300000	7.07583   	0.300000	7.03155   	0.300000	7.03155   	0.300000	7.02119   	0.300000	0.0546351 	
0.350000	19.7999   	0.350000	7.49137   	0.350000	7.37636   	0.350000	7.37636   	0.350000	7.44287   	0.350000	0.0485066 	
0.400000	20.8256   	0.400000	7.95887   	0.400000	7.72682   	0.400000	7.72682   	0.400000	7.91516   	0.400000	0.0437141 	
0.450000	21.6558   	0.450000	8.34068   	0.450000	8.12587   	0.450000	8.12587   	0.450000	8.30082   	0.450000	0.0398533 	
0.500000	22.3204   	0.500000	8.65691   	0.500000	8.45058   	0.500000	8.45058   	0.500000	8.62024   	0.500000	0.0366701 	
0.600000	22.4781   	0.600000	9.15885   	0.600000	8.93558   	0.600000	8.93558   	0.600000	9.12714   	0.600000	0.0317151 	
0.700000	21.8535   	0.700000	9.38193   	0.700000	9.10893   	0.700000	9.10893   	0.700000	9.35391   	0.700000	0.0280226 	
0.800000	21.9001   	0.800000	9.52949   	0.800000	9.21794   	0.800000	9.21794   	0.800000	9.50433   	0.800000	0.0251552 	
0.900000	21.8355   	0.900000	9.63339   	0.900000	9.28373   	0.900000	9.28373   	0.900000	9.61053   	0.900000	0.0228583 	
1.000000	21.6944   	1.000000	9.70459   	1.000000	9.31875   	1.000000	9.31875   	1.000000	9.68361   	1.000000	0.0209735 	
1.250000	20.9784   	1.250000	9.5859    	1.250000	9.21737   	1.250000	9.21737   	1.250000	9.56844   	1.250000	0.0174584 	
1.500000	20.1447   	1.500000	9.38406   	1.500000	9.08225   	1.500000	9.08225   	1.500000	9.36905   	1.500000	0.0150113 	
1.750000	19.3186   	1.750000	9.15297   	1.750000	8.93207   	1.750000	8.93207   	1.750000	9.13977   	1.750000	0.0132022 	
2.000000	18.4684   	2.000000	8.88222   	2.000000	8.77285   	2.000000	8.77285   	2.000000	8.87042   	2.000000	0.011806  	
2.250000	17.7324   	2.250000	8.65463   	2.250000	8.60907   	2.250000	8.60907   	2.250000	8.64394   	2.250000	0.0106935 	
2.500000	19.0766   	2.500000	8.43963   	2.500000	8.44395   	2.500000	8.44395   	2.500000	8.42984   	2.500000	0.00978459	
3.000000	17.6349   	3.000000	8.03415   	3.000000	8.11791   	3.000000	8.11791   	3.000000	8.02576   	3.000000	0.00838516	
3.500000	16.3837   	3.500000	7.65901   	3.500000	7.80517   	3.500000	7.80517   	3.500000	7.65166   	3.500000	0.00735494	
4.000000	15.2972   	4.000000	7.30919   	4.000000	7.50997   	4.000000	7.50997   	4.000000	7.30262   	4.000000	0.00656264	
4.500000	14.3487   	4.500000	6.98249   	4.500000	7.23351   	4.500000	7.23351   	4.500000	6.97655   	4.500000	0.00593309	
5.000000	13.5151   	5.000000	6.67668   	5.000000	6.9755    	5.000000	6.9755    	5.000000	6.67126   	5.000000	0.00542   	
5.500000	12.7776   	5.500000	6.49927   	5.500000	6.73498   	5.500000	6.73498   	5.500000	6.49428   	5.500000	0.00499324	
6.000000	12.1206   	6.000000	6.33461   	6.000000	6.51073   	6.000000	6.51073   	6.000000	6.32997   	6.000000	0.00463233	
6.500000	11.5319   	6.500000	6.18137   	6.500000	6.30144   	6.500000	6.30144   	6.500000	6.17704   	6.500000	0.00432288	
7.000000	11.0014   	7.000000	6.03838   	7.000000	6.10586   	7.000000	6.10586   	7.000000	6.03433   	7.000000	0.0040544 	
7.500000	10.5208   	7.500000	5.87003   	7.500000	5.92279   	7.500000	5.92279   	7.500000	5.86621   	7.500000	0.00381912	
8.000000	10.0833   	8.000000	5.71204   	8.000000	5.75113   	8.000000	5.75113   	8.000000	5.70843   	8.000000	0.00361114	
8.500000	9.6834    	8.500000	5.56356   	8.500000	5.58991   	8.500000	5.58991   	8.500000	5.56014   	8.500000	0.00342587	
9.000000	9.31635   	9.000000	5.42381   	9.000000	5.43821   	9.000000	5.43821   	9.000000	5.42055   	9.000000	0.00325972	
9.500000	8.97823   	9.500000	5.29207   	9.500000	5.29524   	9.500000	5.29524   	9.500000	5.28896   	9.500000	0.00310982	
10.000000	8.6657    	10.000000	5.20263   	10.000000	5.16027   	10.000000	5.16027   	10.000000	5.19966   	10.000000	0.00297385	
11.000000	8.10649   	11.000000	4.97564   	11.000000	4.92032   	11.000000	4.94985   	11.000000	4.97291   	11.000000	0.00273648	
12.000000	7.62046   	12.000000	4.76256   	12.000000	4.70219   	12.000000	4.75334   	12.000000	4.76002   	12.000000	0.00253604	
13.000000	7.19396   	13.000000	4.56392   	13.000000	4.50303   	13.000000	4.57005   	13.000000	4.56156   	13.000000	0.0023644 	
14.000000	6.81652   	14.000000	4.37937   	14.000000	4.32046   	14.000000	4.3991    	14.000000	4.37715   	14.000000	0.00221566	
15.000000	6.48002   	15.000000	4.20812   	15.000000	4.15252   	15.000000	4.23958   	15.000000	4.20603   	15.000000	0.00208546	
16.000000	6.17804   	16.000000	4.04919   	16.000000	3.9976    	16.000000	4.09055   	16.000000	4.04722   	16.000000	0.00197048	
17.000000	5.90545   	17.000000	3.9016    	17.000000	3.8542    	17.000000	3.95114   	17.000000	3.89973   	17.000000	0.00186814	
18.000000	5.65809   	18.000000	3.76436   	18.000000	3.72095   	18.000000	3.82052   	18.000000	3.76258   	18.000000	0.00177644	
19.000000	5.43257   	19.000000	3.63656   	19.000000	3.59456   	19.000000	3.69573   	19.000000	3.63486   	19.000000	0.00169378	
20.000000	5.22606   	20.000000	3.51735   	20.000000	3.47865   	20.000000	3.5806    	20.000000	3.51573   	20.000000	0.00161885	
21.000000	5.03623   	21.000000	3.40597   	21.000000	3.37022   	21.000000	3.47227   	21.000000	3.40442   	21.000000	0.00155061	
22.000000	4.86109   	22.000000	3.30172   	22.000000	3.26861   	22.000000	3.37016   	22.000000	3.30023   	22.000000	0.00148817	
23.000000	4.69898   	23.000000	3.20398   	23.000000	3.17317   	23.000000	3.27378   	23.000000	3.20255   	23.000000	0.00143083	
24.000000	4.54847   	24.000000	3.11219   	24.000000	3.08334   	24.000000	3.18264   	24.000000	3.11082   	24.000000	0.00137796	
25.000000	4.40835   	25.000000	3.02585   	25.000000	2.99861   	25.000000	3.09635   	25.000000	3.02452   	25.000000	0.00132906	
27.000000	4.15515   	27.000000	2.86773   	27.000000	2.84279   	27.000000	2.93685   	27.000000	2.86649   	27.000000	0.00124146	
29.000000	3.93249   	29.000000	2.72654   	29.000000	2.70263   	29.000000	2.79269   	29.000000	2.72537   	29.000000	0.00116522	
31.000000	3.73507   	31.000000	2.59974   	31.000000	2.57769   	31.000000	2.65939   	31.000000	2.59864   	31.000000	0.00109823	
33.000000	3.55877   	33.000000	2.48529   	33.000000	2.46665   	33.000000	2.53727   	33.000000	2.48425   	33.000000	0.00103889	
35.000000	3.40031   	35.000000	2.38149   	35.000000	2.36583   	35.000000	2.42734   	35.000000	2.3805    	35.000000	0.000985921	
38.000000	3.19049   	38.000000	2.24276   	38.000000	2.23116   	38.000000	2.28153   	38.000000	2.24184   	38.000000	0.000916323	
41.000000	3.00815   	41.000000	2.12109   	41.000000	2.11314   	41.000000	2.15456   	41.000000	2.12023   	41.000000	0.00085633	
44.000000	2.84815   	44.000000	2.01353   	44.000000	2.00867   	44.000000	2.04295   	44.000000	2.01273   	44.000000	0.000804053	
47.000000	2.70655   	47.000000	1.91778   	47.000000	1.91587   	47.000000	1.94403   	47.000000	1.91702   	47.000000	0.000758073	
50.000000	2.58029   	50.000000	1.832     	50.000000	1.83242   	50.000000	1.85572   	50.000000	1.83128   	50.000000	0.000717299	
55.000000	2.39765   	55.000000	1.7073    	55.000000	1.71084   	55.000000	1.72777   	55.000000	1.70664   	55.000000	0.000658686	
60.000000	2.24274   	60.000000	1.60105   	60.000000	1.60696   	60.000000	1.61909   	60.000000	1.60044   	60.000000	0.000609316	
65.000000	2.1096    	65.000000	1.50943   	65.000000	1.51725   	65.000000	1.52557   	65.000000	1.50887   	65.000000	0.000567133	
70.000000	1.99385   	70.000000	1.42962   	70.000000	1.43883   	70.000000	1.4442    	70.000000	1.42909   	70.000000	0.000530654	
75.000000	1.89224   	75.000000	1.35945   	75.000000	1.36988   	75.000000	1.37273   	75.000000	1.35895   	75.000000	0.000498778	
80.000000	1.80229   	80.000000	1.29728   	80.000000	1.30849   	80.000000	1.30942   	80.000000	1.29681   	80.000000	0.000470676	
85.000000	1.72205   	85.000000	1.24181   	85.000000	1.25342   	85.000000	1.25295   	85.000000	1.24137   	85.000000	0.000445704	
90.000000	1.65      	90.000000	1.19201   	90.000000	1.20413   	90.000000	1.20224   	90.000000	1.19159   	90.000000	0.00042336	
95.000000	1.58493   	95.000000	1.14704   	95.000000	1.15937   	95.000000	1.15644   	95.000000	1.14664   	95.000000	0.000403244	
100.000000	1.52584   	100.000000	1.10624   	100.000000	1.11854   	100.000000	1.11488   	100.000000	1.10585   	100.000000	0.000385035	
105.000000	1.47194   	105.000000	1.06904   	105.000000	1.08145   	105.000000	1.07697   	105.000000	1.06867   	105.000000	0.000368468	
110.000000	1.42255   	110.000000	1.03498   	110.000000	1.04734   	110.000000	1.04225   	110.000000	1.03463   	110.000000	0.00035333	
115.000000	1.37711   	115.000000	1.00369   	115.000000	1.01592   	115.000000	1.01034   	115.000000	1.00335   	115.000000	0.000339439	
120.000000	1.33516   	120.000000	0.974836  	120.000000	0.986932  	120.000000	0.980894  	120.000000	0.974509  	120.000000	0.000326646	
125.000000	1.29631   	125.000000	0.948142  	125.000000	0.960099  	125.000000	0.953645  	125.000000	0.947827  	125.000000	0.000314823	
130.000000	1.26021   	130.000000	0.923375  	130.000000	0.935171  	130.000000	0.928351  	130.000000	0.923071  	130.000000	0.000303863	
135.000000	1.22658   	135.000000	0.900332  	135.000000	0.911847  	135.000000	0.904808  	135.000000	0.900038  	135.000000	0.000293673	
140.000000	1.19516   	140.000000	0.878838  	140.000000	0.890141  	140.000000	0.882839  	140.000000	0.878554  	140.000000	0.000284173	
145.000000	1.16574   	145.000000	0.858742  	145.000000	0.869865  	145.000000	0.862291  	145.000000	0.858467  	145.000000	0.000275295	
150.000000	1.13812   	150.000000	0.839911  	150.000000	0.850761  	150.000000	0.843029  	150.000000	0.839644  	150.000000	0.000266979	
155.000000	1.09917   	155.000000	0.822228  	155.000000	0.832804  	155.000000	0.824935  	155.000000	0.821969  	155.000000	0.000259172	
160.000000	1.07637   	160.000000	0.805592  	160.000000	0.815912  	160.000000	0.807907  	160.000000	0.80534   	160.000000	0.000251829	
165.000000	1.05486   	165.000000	0.789912  	165.000000	0.799978  	165.000000	0.791853  	165.000000	0.789667  	165.000000	0.000244907	
170.000000	1.03453   	170.000000	0.775108  	170.000000	0.784926  	170.000000	0.776691  	170.000000	0.77487   	170.000000	0.000238373	
175.000000	1.0153    	175.000000	0.761108  	175.000000	0.770685  	175.000000	0.762349  	175.000000	0.760876  	175.000000	0.000232192	
180.000000	0.997063  	180.000000	0.747848  	180.000000	0.757186  	180.000000	0.748763  	180.000000	0.747622  	180.000000	0.000226338	
185.000000	0.979753  	185.000000	0.735272  	185.000000	0.744388  	185.000000	0.735874  	185.000000	0.735051  	185.000000	0.000220785	
190.000000	0.963297  	190.000000	0.723327  	190.000000	0.73223   	190.000000	0.72363   	190.000000	0.723111  	190.000000	0.000215509	
195.000000	0.947634  	195.000000	0.711967  	195.000000	0.720619  	195.000000	0.711984  	195.000000	0.711756  	195.000000	0.00021049	
200.000000	0.932707  	200.000000	0.70115   	200.000000	0.709529  	200.000000	0.700894  	200.000000	0.700945  	200.000000	0.00020571	
210.000000	0.904862  	210.000000	0.680999  	210.000000	0.688968  	210.000000	0.680229  	210.000000	0.680802  	210.000000	0.000196799	
220.000000	0.879403  	220.000000	0.662607  	220.000000	0.670124  	220.000000	0.661366  	220.000000	0.662418  	220.000000	0.000188658	
230.000000	0.856036  	230.000000	0.645755  	230.000000	0.652875  	230.000000	0.644082  	230.000000	0.645574  	230.000000	0.000181191	
240.000000	0.834511  	240.000000	0.630259  	240.000000	0.637022  	240.000000	0.628189  	240.000000	0.630084  	240.000000	0.000174317	
250.000000	0.814618  	250.000000	0.615961  	250.000000	0.622357  	250.000000	0.613526  	250.000000	0.615793  	250.000000	0.000167966	
260.000000	0.796177  	260.000000	0.60273   	260.000000	0.608773  	260.000000	0.599959  	260.000000	0.602568  	260.000000	0.00016208	
270.000000	0.779035  	270.000000	0.590451  	270.000000	0.59617   	270.000000	0.587371  	270.000000	0.590294  	270.000000	0.000156609	
280.000000	0.763059  	280.000000	0.579026  	280.000000	0.584443  	280.000000	0.575662  	280.000000	0.578875  	280.000000	0.00015151	
290.000000	0.748135  	290.000000	0.56837   	290.000000	0.573507  	290.000000	0.564744  	290.000000	0.568224  	290.000000	0.000146746	
300.000000	0.734162  	300.000000	0.55841   	300.000000	0.563287  	300.000000	0.554542  	300.000000	0.558267  	300.000000	0.000142285	
310.000000	0.721053  	310.000000	0.549079  	310.000000	0.553714  	310.000000	0.54499   	310.000000	0.548941  	310.000000	0.000138097	
320.000000	0.708731  	320.000000	0.540323  	320.000000	0.544733  	320.000000	0.536028  	320.000000	0.540188  	320.000000	0.00013416	
330.000000	0.697127  	330.000000	0.532089  	330.000000	0.536291  	330.000000	0.527606  	330.000000	0.531958  	330.000000	0.000130449	
340.000000	0.686182  	340.000000	0.524334  	340.000000	0.528341  	340.000000	0.519677  	340.000000	0.524207  	340.000000	0.000126947	
350.000000	0.675841  	350.000000	0.517018  	350.000000	0.520843  	350.000000	0.512201  	350.000000	0.516894  	350.000000	0.000123635	
360.000000	0.666057  	360.000000	0.510106  	360.000000	0.513769  	360.000000	0.505141  	360.000000	0.509985  	360.000000	0.000120498	
370.000000	0.656787  	370.000000	0.503566  	370.000000	0.507074  	370.000000	0.498465  	370.000000	0.503448  	370.000000	0.000117524	
380.000000	0.647993  	380.000000	0.497369  	380.000000	0.500702  	380.000000	0.492144  	380.000000	0.497255  	380.000000	0.000114698	
390.000000	0.639639  	390.000000	0.491492  	390.000000	0.49465   	390.000000	0.486151  	390.000000	0.49138   	390.000000	0.000112011	
400.000000	0.631694  	400.000000	0.485909  	400.000000	0.488933  	400.000000	0.480462  	400.000000	0.4858    	400.000000	0.000109451	
410.000000	0.624129  	410.000000	0.480601  	410.000000	0.483515  	410.000000	0.475056  	410.000000	0.480494  	410.000000	0.000107011	
420.000000	0.61692   	420.000000	0.475548  	420.000000	0.478354  	420.000000	0.469914  	420.000000	0.475443  	420.000000	0.000104681	
430.000000	0.610042  	430.000000	0.470734  	430.000000	0.473438  	430.000000	0.465016  	430.000000	0.470631  	430.000000	0.000102455	
440.000000	0.603474  	440.000000	0.466142  	440.000000	0.468758  	440.000000	0.460348  	440.000000	0.466041  	440.000000	0.000100326	
450.000000	0.597196  	450.000000	0.461758  	450.000000	0.464286  	450.000000	0.455894  	450.000000	0.461659  	450.000000	9.82863e-05	
460.000000	0.59119   	460.000000	0.457569  	460.000000	0.459994  	460.000000	0.451641  	460.000000	0.457473  	460.000000	9.63315e-05	
470.000000	0.58544   	470.000000	0.453563  	470.000000	0.455882  	470.000000	0.447576  	470.000000	0.453469  	470.000000	9.44561e-05	
480.000000	0.579931  	480.000000	0.449729  	480.000000	0.451962  	480.000000	0.443688  	480.000000	0.449636  	480.000000	9.26552e-05	
490.000000	0.574648  	490.000000	0.446057  	490.000000	0.448227  	490.000000	0.439965  	490.000000	0.445966  	490.000000	9.09245e-05	
500.000000	0.56958   	500.000000	0.442537  	500.000000	0.444671  	500.000000	0.436424  	500.000000	0.442448  	500.000000	8.92598e-05	
520.000000	0.560036  	520.000000	0.43592   	520.000000	0.438012  	520.000000	0.42984   	520.000000	0.435834  	520.000000	8.61138e-05	
540.000000	0.551216  	540.000000	0.429817  	540.000000	0.431903  	540.000000	0.423775  	540.000000	0.429734  	540.000000	8.31905e-05	
560.000000	0.543045  	560.000000	0.424174  	560.000000	0.426275  	560.000000	0.418176  	560.000000	0.424093  	560.000000	8.04666e-05	
580.000000	0.535459  	580.000000	0.418944  	580.000000	0.421028  	580.000000	0.412995  	580.000000	0.418866  	580.000000	7.79222e-05	
600.000000	0.528403  	600.000000	0.414088  	600.000000	0.416189  	600.000000	0.408192  	600.000000	0.414013  	600.000000	7.55399e-05	
620.000000	0.521829  	620.000000	0.409571  	620.000000	0.411707  	620.000000	0.403731  	620.000000	0.409497  	620.000000	7.33044e-05	
640.000000	0.515693  	640.000000	0.405361  	640.000000	0.407504  	640.000000	0.399579  	640.000000	0.40529   	640.000000	7.12025e-05	
660.000000	0.509959  	660.000000	0.401432  	660.000000	0.403588  	660.000000	0.39571   	660.000000	0.401363  	660.000000	6.92223e-05	
680.000000	0.504591  	680.000000	0.39776   	680.000000	0.399957  	680.000000	0.392098  	680.000000	0.397692  	680.000000	6.73535e-05	
700.000000	0.499561  	700.000000	0.394322  	700.000000	0.396561  	700.000000	0.388722  	700.000000	0.394257  	700.000000	6.55867e-05	
720.000000	0.494841  	720.000000	0.391101  	720.000000	0.393362  	720.000000	0.385562  	720.000000	0.391037  	720.000000	6.39138e-05	
740.000000	0.490409  	740.000000	0.388079  	740.000000	0.390353  	740.000000	0.382601  	740.000000	0.388016  	740.000000	6.23273e-05	
760.000000	0.486243  	760.000000	0.38524   	760.000000	0.387531  	760.000000	0.379822  	760.000000	0.385179  	760.000000	6.08207e-05	
780.000000	0.482322  	780.000000	0.382571  	780.000000	0.384889  	780.000000	0.377213  	780.000000	0.382512  	780.000000	5.9388e-05	
800.000000	0.47863   	800.000000	0.380061  	800.000000	0.382416  	800.000000	0.374759  	800.000000	0.380002  	800.000000	5.80238e-05	
820.000000	0.475152  	820.000000	0.377696  	820.000000	0.380096  	820.000000	0.37245   	820.000000	0.377639  	820.000000	5.67232e-05	
840.000000	0.471872  	840.000000	0.375467  	840.000000	0.377905  	840.000000	0.370275  	840.000000	0.375412  	840.000000	5.54818e-05	
860.000000	0.468777  	860.000000	0.373366  	860.000000	0.375829  	860.000000	0.368226  	860.000000	0.373312  	860.000000	5.42957e-05	
880.000000	0.465857  	880.000000	0.371383  	880.000000	0.373863  	880.000000	0.366292  	880.000000	0.37133   	880.000000	5.31611e-05	
900.000000	0.463098  	900.000000	0.36951   	900.000000	0.372005  	900.000000	0.364466  	900.000000	0.369458  	900.000000	5.20748e-05	
920.000000	0.460493  	920.000000	0.367742  	920.000000	0.37025   	920.000000	0.362741  	920.000000	0.367691  	920.000000	5.10337e-05	
940.000000	0.458031  	940.000000	0.36607   	940.000000	0.368594  	940.000000	0.361111  	940.000000	0.36602   	940.000000	5.0035e-05	
960.000000	0.455704  	960.000000	0.36449   	960.000000	0.367034  	960.000000	0.359569  	960.000000	0.364441  	960.000000	4.90761e-05	
980.000000	0.453505  	980.000000	0.362996  	980.000000	0.365563  	980.000000	0.35811   	980.000000	0.362948  	980.000000	4.81546e-05	
1000.000000	0.451425  	1000.000000	0.361583  	1000.000000	0.364174  	1000.000000	0.356728  	1000.000000	0.361536  	1000.000000	4.72684e-05	
1020.000000	0.44946   	1020.000000	0.360246  	1020.000000	0.362856  	1020.000000	0.355419  	1020.000000	0.360199  	1020.000000	4.64155e-05	
1040.000000	0.447601  	1040.000000	0.358981  	1040.000000	0.361602  	1040.000000	0.354179  	1040.000000	0.358935  	1040.000000	4.5594e-05	
1060.000000	0.445844  	1060.000000	0.357783  	1060.000000	0.360409  	1060.000000	0.353004  	1060.000000	0.357738  	1060.000000	4.48021e-05	
1080.000000	0.444183  	1080.000000	0.35665   	1080.000000	0.359274  	1080.000000	0.351889  	1080.000000	0.356606  	1080.000000	4.40383e-05	
1100.000000	0.442614  	1100.000000	0.355578  	1100.000000	0.358194  	1100.000000	0.350831  	1100.000000	0.355535  	1100.000000	4.33011e-05	
1120.000000	0.441132  	1120.000000	0.354563  	1120.000000	0.35717   	1120.000000	0.349828  	1120.000000	0.354521  	1120.000000	4.25891e-05	
1140.000000	0.439732  	1140.000000	0.353603  	1140.000000	0.356197  	1140.000000	0.348875  	1140.000000	0.353561  	1140.000000	4.1901e-05	
1160.000000	0.43841   	1160.000000	0.352695  	1160.000000	0.355275  	1160.000000	0.347971  	1160.000000	0.352654  	1160.000000	4.12357e-05	
1180.000000	0.437164  	1180.000000	0.351836  	1180.000000	0.354401  	1180.000000	0.347112  	1180.000000	0.351795  	1180.000000	4.05919e-05	
1200.000000	0.435988  	1200.000000	0.351024  	1200.000000	0.353573  	1200.000000	0.346297  	1200.000000	0.350984  	1200.000000	3.99687e-05	
1220.000000	0.434881  	1220.000000	0.350257  	1220.000000	0.35279   	1220.000000	0.345523  	1220.000000	0.350217  	1220.000000	3.9365e-05	
1240.000000	0.433839  	1240.000000	0.349532  	1240.000000	0.352048  	1240.000000	0.344787  	1240.000000	0.349493  	1240.000000	3.878e-05 	
1260.000000	0.432859  	1260.000000	0.348847  	1260.000000	0.351344  	1260.000000	0.344089  	1260.000000	0.348809  	1260.000000	3.82128e-05	
1280.000000	0.431938  	1280.000000	0.348202  	1280.000000	0.350676  	1280.000000	0.343425  	1280.000000	0.348164  	1280.000000	3.76626e-05	
1300.000000	0.431074  	1300.000000	0.347593  	1300.000000	0.350039  	1300.000000	0.342795  	1300.000000	0.347556  	1300.000000	3.71286e-05	
1320.000000	0.430264  	1320.000000	0.347019  	1320.000000	0.349432  	1320.000000	0.342196  	1320.000000	0.346983  	1320.000000	3.661e-05 	
1340.000000	0.429507  	1340.000000	0.346479  	1340.000000	0.348854  	1340.000000	0.341628  	1340.000000	0.346443  	1340.000000	3.61063e-05	
1360.000000	0.428799  	1360.000000	0.345972  	1360.000000	0.348302  	1360.000000	0.341088  	1360.000000	0.345936  	1360.000000	3.56168e-05	
1380.000000	0.42814   	1380.000000	0.345495  	1380.000000	0.347777  	1380.000000	0.340575  	1380.000000	0.34546   	1380.000000	3.51409e-05	
1400.000000	0.427526  	1400.000000	0.345048  	1400.000000	0.347278  	1400.000000	0.340088  	1400.000000	0.345013  	1400.000000	3.4678e-05	
1420.000000	0.426957  	1420.000000	0.344629  	1420.000000	0.346804  	1420.000000	0.339626  	1420.000000	0.344595  	1420.000000	3.42276e-05	
1440.000000	0.42643   	1440.000000	0.344237  	1440.000000	0.346353  	1440.000000	0.339187  	1440.000000	0.344203  	1440.000000	3.37892e-05	
1460.000000	0.425945  	1460.000000	0.343871  	1460.000000	0.345926  	1460.000000	0.338772  	1460.000000	0.343838  	1460.000000	3.33623e-05	
1480.000000	0.425498  	1480.000000	0.343531  	1480.000000	0.345521  	1480.000000	0.338377  	1480.000000	0.343498  	1480.000000	3.29465e-05	
1500.000000	0.42509   	1500.000000	0.343214  	1500.000000	0.345137  	1500.000000	0.338003  	1500.000000	0.343182  	1500.000000	3.25412e-05	
1520.000000	0.424718  	1520.000000	0.342921  	1520.000000	0.344774  	1520.000000	0.337649  	1520.000000	0.342889  	1520.000000	3.21462e-05	
1540.000000	0.424382  	1540.000000	0.34265   	1540.000000	0.344429  	1540.000000	0.337314  	1540.000000	0.342618  	1540.000000	3.17611e-05	
1560.000000	0.42408   	1560.000000	0.3424    	1560.000000	0.344103  	1560.000000	0.336996  	1560.000000	0.342368  	1560.000000	3.13853e-05	
1580.000000	0.42381   	1580.000000	0.34217   	1580.000000	0.343794  	1580.000000	0.336696  	1580.000000	0.342139  	1580.000000	3.10188e-05	
1600.000000	0.423572  	1600.000000	0.341961  	1600.000000	0.343502  	1600.000000	0.336412  	1600.000000	0.34193   	1600.000000	3.06609e-05	
1620.000000	0.423365  	1620.000000	0.341771  	1620.000000	0.343226  	1620.000000	0.336144  	1620.000000	0.34174   	1620.000000	3.03116e-05	
1640.000000	0.423187  	1640.000000	0.341599  	1640.000000	0.342965  	1640.000000	0.335891  	1640.000000	0.341569  	1640.000000	2.99704e-05	
1660.000000	0.423038  	1660.000000	0.341444  	1660.000000	0.342719  	1660.000000	0.335653  	1660.000000	0.341415  	1660.000000	2.96371e-05	
1680.000000	0.422917  	1680.000000	0.341307  	1680.000000	0.342487  	1680.000000	0.335428  	1680.000000	0.341278  	1680.000000	2.93115e-05	
1700.000000	0.422823  	1700.000000	0.341187  	1700.000000	0.342269  	1700.000000	0.335217  	1700.000000	0.341158  	1700.000000	2.89931e-05	
1750.000000	0.422698  	1750.000000	0.340954  	1750.000000	0.341777  	1750.000000	0.334744  	1750.000000	0.340926  	1750.000000	2.82278e-05	
1800.000000	0.422723  	1800.000000	0.340812  	1800.000000	0.341358  	1800.000000	0.334342  	1800.000000	0.340785  	1800.000000	2.75033e-05	
1850.000000	0.422888  	1850.000000	0.340755  	1850.000000	0.341005  	1850.000000	0.334006  	1850.000000	0.340728  	1850.000000	2.68163e-05	
1900.000000	0.423181  	1900.000000	0.340775  	1900.000000	0.340711  	1900.000000	0.333728  	1900.000000	0.340749  	1900.000000	2.6164e-05	
1950.000000	0.423595  	1950.000000	0.340867  	1950.000000	0.340473  	1950.000000	0.333504  	1950.000000	0.340842  	1950.000000	2.55439e-05	
2000.000000	0.42412   	2000.000000	0.341026  	2000.000000	0.340285  	2000.000000	0.333329  	2000.000000	0.341001  	2000.000000	2.49535e-05	
2100.000000	0.425478  	2100.000000	0.341522  	2100.000000	0.340044  	2100.000000	0.333107  	2100.000000	0.341498  	2100.000000	2.38536e-05	
2200.000000	0.427205  	2200.000000	0.342231  	2200.000000	0.339955  	2200.000000	0.333032  	2200.000000	0.342209  	2200.000000	2.28499e-05	
2300.000000	0.429257  	2300.000000	0.343126  	2300.000000	0.33999   	2300.000000	0.33308   	2300.000000	0.343104  	2300.000000	2.193e-05 	
2400.000000	0.4316    	2400.000000	0.344182  	2400.000000	0.340128  	2400.000000	0.333231  	2400.000000	0.344161  	2400.000000	2.10837e-05	
2500.000000	0.434202  	2500.000000	0.34538   	2500.000000	0.340351  	2500.000000	0.333468  	2500.000000	0.34536   	2500.000000	2.03025e-05	
2600.000000	0.43704   	2600.000000	0.346705  	2600.000000	0.340645  	2600.000000	0.333777  	2600.000000	0.346685  	2600.000000	1.95791e-05	
2700.000000	0.44009   	2700.000000	0.34814   	2700.000000	0.341001  	2700.000000	0.334147  	2700.000000	0.348122  	2700.000000	1.89071e-05	
2800.000000	0.443333  	2800.000000	0.349676  	2800.000000	0.34141   	2800.000000	0.334569  	2800.000000	0.349658  	2800.000000	1.82813e-05	
2900.000000	0.446754  	2900.000000	0.3513    	2900.000000	0.341862  	2900.000000	0.335034  	2900.000000	0.351283  	2900.000000	1.7697e-05	
3000.000000	0.450337  	3000.000000	0.353005  	3000.000000	0.342353  	3000.000000	0.335535  	3000.000000	0.352988  	3000.000000	1.71501e-05	
3200.000000	0.457943  	3200.000000	0.356623  	3200.000000	0.343422  	3200.000000	0.336624  	3200.000000	0.356607  	3200.000000	1.6155e-05	
3400.000000	0.466069  	3400.000000	0.360479  	3400.000000	0.344581  	3400.000000	0.337798  	3400.000000	0.360464  	3400.000000	1.52726e-05	
3600.000000	0.474648  	3600.000000	0.364531  	3600.000000	0.345801  	3600.000000	0.339031  	3600.000000	0.364516  	3600.000000	1.44846e-05	
3800.000000	0.483628  	3800.000000	0.368746  	3800.000000	0.347062  	3800.000000	0.340303  	3800.000000	0.368732  	3800.000000	1.37764e-05	
4000.000000	0.492967  	4000.000000	0.3731    	4000.000000	0.348346  	4000.000000	0.341597  	4000.000000	0.373087  	4000.000000	1.31364e-05	
4200.000000	0.502631  	4200.000000	0.377571  	4200.000000	0.349644  	4200.000000	0.342903  	4200.000000	0.377559  	4200.000000	1.2555e-05	
4400.000000	0.512591  	4400.000000	0.382143  	4400.000000	0.350944  	4400.000000	0.344213  	4400.000000	0.382131  	4400.000000	1.20246e-05	
4600.000000	0.522825  	4600.000000	0.3868    	4600.000000	0.352241  	4600.000000	0.345519  	4600.000000	0.386789  	4600.000000	1.15386e-05	
4800.000000	0.533311  	4800.000000	0.391533  	4800.000000	0.35353   	4800.000000	0.346817  	4800.000000	0.391522  	4800.000000	1.10916e-05	
5000.000000	0.544034  	5000.000000	0.39633   	5000.000000	0.354807  	5000.000000	0.348102  	5000.000000	0.396319  	5000.000000	1.0679e-05	
5250.000000	0.557749  	5250.000000	0.402404  	5250.000000	0.356382  	5250.000000	0.349689  	5250.000000	0.402394  	5250.000000	1.02058e-05	
5500.000000	0.571787  	5500.000000	0.408554  	5500.000000	0.357931  	5500.000000	0.351249  	5500.000000	0.408544  	5500.000000	9.77412e-06	
6000.000000	0.600762  	6000.000000	0.421035  	6000.000000	0.360942  	6000.000000	0.35428   	6000.000000	0.421026  	6000.000000	9.01481e-06	
6500.000000	0.630838  	6500.000000	0.433704  	6500.000000	0.36383   	6500.000000	0.357185  	6500.000000	0.433696  	6500.000000	8.36824e-06	
7000.000000	0.661927  	7000.000000	0.446514  	7000.000000	0.366581  	7000.000000	0.359963  	7000.000000	0.446506  	7000.000000	7.81081e-06	
7500.000000	0.693965  	7500.000000	0.459428  	7500.000000	0.369224  	7500.000000	0.362616  	7500.000000	0.459421  	7500.000000	7.32511e-06	
8000.000000	0.726903  	8000.000000	0.472422  	8000.000000	0.371751  	8000.000000	0.36515   	8000.000000	0.472415  	8000.000000	6.89799e-06	
8500.000000	0.760704  	8500.000000	0.485476  	8500.000000	0.374162  	8500.000000	0.367571  	8500.000000	0.48547   	8500.000000	6.51938e-06	
9000.000000	0.795338  	9000.000000	0.498575  	9000.000000	0.376465  	9000.000000	0.369885  	9000.000000	0.498569  	9000.000000	6.18137e-06	
9500.000000	0.830783  	9500.000000	0.511708  	9500.000000	0.378667  	9500.000000	0.3721    	9500.000000	0.511702  	9500.000000	5.8777e-06	
10000.000000	0.867021  	10000.000000	0.524866  	10000.000000	0.380775  	10000.000000	0.374222  	10000.000000	0.524861  	10000.000000	5.60334e-06	
11000.000000	0.941816  	11000.000000	0.55123   	11000.000000	0.384733  	11000.000000	0.378211  	11000.000000	0.551225  	11000.000000	5.12693e-06	
12000.000000	1.01964   	12000.000000	0.577626  	12000.000000	0.388383  	12000.000000	0.381895  	12000.000000	0.577621  	12000.000000	4.72728e-06	
13000.000000	1.10043   	13000.000000	0.604028  	13000.000000	0.391765  	13000.000000	0.385313  	13000.000000	0.604023  	13000.000000	4.38708e-06	
14000.000000	1.18414   	14000.000000	0.630417  	14000.000000	0.394912  	14000.000000	0.388496  	14000.000000	0.630413  	14000.000000	4.09387e-06	
15000.000000	1.27076   	15000.000000	0.656784  	15000.000000	0.397852  	15000.000000	0.391472  	15000.000000	0.65678   	15000.000000	3.83845e-06	
16000.000000	1.36027   	16000.000000	0.683119  	16000.000000	0.400605  	16000.000000	0.394264  	16000.000000	0.683116  	16000.000000	3.6139e-06	
17000.000000	1.45265   	17000.000000	0.709418  	17000.000000	0.403191  	17000.000000	0.396892  	17000.000000	0.709415  	17000.000000	3.4149e-06	
18000.000000	1.54791   	18000.000000	0.735678  	18000.000000	0.405629  	18000.000000	0.399373  	18000.000000	0.735675  	18000.000000	3.23727e-06	
19000.000000	1.64603   	19000.000000	0.761896  	19000.000000	0.407934  	19000.000000	0.40172   	19000.000000	0.761893  	19000.000000	3.07772e-06	
20000.000000	1.74702   	20000.000000	0.788071  	20000.000000	0.410119  	20000.000000	0.403947  	20000.000000	0.788068  	20000.000000	2.93359e-06	
21000.000000	1.85089   	21000.000000	0.814202  	21000.000000	0.412193  	21000.000000	0.406065  	21000.000000	0.814199  	21000.000000	2.80274e-06	
22000.000000	1.95764   	22000.000000	0.84029   	22000.000000	0.414158  	22000.000000	0.408083  	22000.000000	0.840287  	22000.000000	2.6834e-06	
23000.000000	2.06728   	23000.000000	0.866334  	23000.000000	0.416033  	23000.000000	0.410009  	23000.000000	0.866331  	23000.000000	2.57408e-06	
24000.000000	2.17982   	24000.000000	0.892335  	24000.000000	0.417823  	24000.000000	0.411852  	24000.000000	0.892333  	24000.000000	2.47358e-06	
25000.000000	2.29526   	25000.000000	0.918294  	25000.000000	0.41953   	25000.000000	0.413618  	25000.000000	0.918292  	25000.000000	2.38085e-06	
26000.000000	2.41363   	26000.000000	0.944211  	26000.000000	0.421164  	26000.000000	0.415312  	26000.000000	0.944208  	26000.000000	2.29502e-06	
27000.000000	2.53492   	27000.000000	0.970086  	27000.000000	0.422732  	27000.000000	0.416939  	27000.000000	0.970084  	27000.000000	2.21534e-06	
28000.000000	2.65916   	28000.000000	0.995922  	28000.000000	0.424239  	28000.000000	0.418506  	28000.000000	0.99592   	28000.000000	2.14117e-06	
29000.000000	2.78634   	29000.000000	1.02172   	29000.000000	0.425689  	29000.000000	0.420015  	29000.000000	1.02172   	29000.000000	2.07194e-06	
30000.000000	2.9165    	30000.000000	1.04747   	30000.000000	0.427085  	30000.000000	0.42147   	30000.000000	1.04747   	30000.000000	2.00718e-06	
32000.000000	3.18577   	32000.000000	1.09888   	32000.000000	0.429722  	32000.000000	0.424234  	32000.000000	1.09887   	32000.000000	1.88941e-06	
34000.000000	3.46708   	34000.000000	1.15013   	34000.000000	0.432169  	34000.000000	0.426822  	34000.000000	1.15013   	34000.000000	1.78505e-06	
36000.000000	3.76054   	36000.000000	1.20125   	36000.000000	0.434446  	36000.000000	0.429255  	36000.000000	1.20125   	36000.000000	1.69193e-06	
38000.000000	4.06628   	38000.000000	1.25224   	38000.000000	0.436574  	38000.000000	0.431548  	38000.000000	1.25224   	38000.000000	1.60829e-06	
40000.000000	4.38442   	40000.000000	1.3031    	40000.000000	0.438571  	40000.000000	0.433716  	40000.000000	1.3031    	40000.000000	1.53276e-06	
42000.000000	4.71509   	42000.000000	1.35384   	42000.000000	0.440453  	42000.000000	0.435771  	42000.000000	1.35384   	42000.000000	1.46419e-06	
44000.000000	5.05842   	44000.000000	1.40446   	44000.000000	0.442235  	44000.000000	0.437725  	44000.000000	1.40446   	44000.000000	1.40166e-06	
46000.000000	5.41454   	46000.000000	1.45497   	46000.000000	0.443929  	46000.000000	0.439586  	46000.000000	1.45497   	46000.000000	1.3444e-06	
48000.000000	5.78358   	48000.000000	1.50538   	48000.000000	0.445537  	48000.000000	0.441363  	48000.000000	1.50538   	48000.000000	1.29176e-06	
50000.000000	6.16569   	50000.000000	1.55568   	50000.000000	0.447058  	50000.000000	0.443062  	50000.000000	1.55568   	50000.000000	1.2432e-06	
