Energy (MeV/u)1	0 - [He-base] F.Hubert et al, AD&ND Tables 46(1990)1	Energy (MeV/u)2	1 - [H -base] J.F.Ziegler et al, Pergamon Press, NY (low energy)	Energy (MeV/u)3	2 - ATIMA 1.2  LS-theory (recommended for high energy)	Energy (MeV/u)4	3 - ATIMA 1.2  without LS-correction	Energy (MeV/u)5	4 - electrical component of [1] - J.F.Ziegler et al	Energy (MeV/u)6	5 - nuclear component of [1] - J.F.Ziegler et al	
0.001000	0.566916  	0.001000	0.341127  	0.001000	0.47912   	0.001000	0.47912   	0.001000	0.17162   	0.001000	0.169507  	
0.002000	0.66329   	0.002000	0.379819  	0.002000	0.537365  	0.002000	0.537365  	0.002000	0.251266  	0.002000	0.128554  	
0.005000	0.933788  	0.005000	0.495093  	0.005000	0.671745  	0.005000	0.671745  	0.005000	0.415911  	0.005000	0.0791821 	
0.008000	1.1603    	0.008000	0.597808  	0.008000	0.777293  	0.008000	0.777293  	0.008000	0.5386    	0.008000	0.0592081 	
0.010000	1.295     	0.010000	0.660087  	0.010000	0.838153  	0.010000	0.838153  	0.010000	0.608929  	0.010000	0.0511578 	
0.015000	1.52091   	0.015000	0.801369  	0.015000	0.982105  	0.015000	0.982105  	0.015000	0.762748  	0.015000	0.0386216 	
0.020000	1.698     	0.020000	0.961401  	0.020000	1.1455    	0.020000	1.1455    	0.020000	0.929924  	0.020000	0.0314771 	
0.025000	1.89061   	0.025000	1.11637   	0.025000	1.30283   	0.025000	1.30283   	0.025000	1.08976   	0.025000	0.026611  	
0.030000	2.04676   	0.030000	1.26269   	0.030000	1.42225   	0.030000	1.42225   	0.030000	1.23945   	0.030000	0.0232425 	
0.035000	2.17166   	0.035000	1.39839   	0.035000	1.53264   	0.035000	1.53264   	0.035000	1.37769   	0.035000	0.0206951 	
0.040000	2.26747   	0.040000	1.52468   	0.040000	1.63448   	0.040000	1.63448   	0.040000	1.50599   	0.040000	0.0186941 	
0.045000	2.33575   	0.045000	1.64106   	0.045000	1.7282    	0.045000	1.7282    	0.045000	1.62398   	0.045000	0.0170764 	
0.050000	2.37844   	0.050000	1.74729   	0.050000	1.81419   	0.050000	1.81419   	0.050000	1.73155   	0.050000	0.0157386 	
0.055000	2.47309   	0.055000	1.84346   	0.055000	1.89283   	0.055000	1.89283   	0.055000	1.82885   	0.055000	0.014612  	
0.060000	2.5518    	0.060000	1.92985   	0.060000	1.96452   	0.060000	1.96452   	0.060000	1.9162    	0.060000	0.0136488 	
0.070000	2.66645   	0.070000	2.07519   	0.070000	2.08867   	0.070000	2.08867   	0.070000	2.0631    	0.070000	0.0120855 	
0.080000	2.78936   	0.080000	2.18801   	0.080000	2.18989   	0.080000	2.18989   	0.080000	2.17714   	0.080000	0.0108678 	
0.090000	2.87795   	0.090000	2.27358   	0.090000	2.27137   	0.090000	2.27137   	0.090000	2.26369   	0.090000	0.00988994	
0.100000	2.94334   	0.100000	2.33744   	0.100000	2.33607   	0.100000	2.33607   	0.100000	2.32835   	0.100000	0.00908587	
0.120000	2.98487   	0.120000	2.44466   	0.120000	2.42539   	0.120000	2.42539   	0.120000	2.43682   	0.120000	0.00783822	
0.140000	2.9921    	0.140000	2.50361   	0.140000	2.47512   	0.140000	2.47512   	0.140000	2.4967    	0.140000	0.00691173	
0.160000	2.99236   	0.160000	2.53665   	0.160000	2.49768   	0.160000	2.49768   	0.160000	2.53045   	0.160000	0.00619424	
0.180000	2.98871   	0.180000	2.54645   	0.180000	2.50165   	0.180000	2.50165   	0.180000	2.54083   	0.180000	0.00562084	
0.200000	2.99663   	0.200000	2.55287   	0.200000	2.49293   	0.200000	2.49293   	0.200000	2.54772   	0.200000	0.00515122	
0.250000	2.93531   	0.250000	2.53869   	0.250000	2.43919   	0.250000	2.43919   	0.250000	2.53441   	0.250000	0.00427763	
0.300000	2.92573   	0.300000	2.54212   	0.300000	2.38029   	0.300000	2.38029   	0.300000	2.53845   	0.300000	0.00367136	
0.350000	2.89172   	0.350000	2.51079   	0.350000	2.31398   	0.350000	2.31398   	0.350000	2.50756   	0.350000	0.00322418	
0.400000	2.84291   	0.400000	2.46281   	0.400000	2.24136   	0.400000	2.24136   	0.400000	2.45993   	0.400000	0.00287975	
0.450000	2.77866   	0.450000	2.40051   	0.450000	2.16621   	0.450000	2.16621   	0.450000	2.3979    	0.450000	0.00260572	
0.500000	2.7162    	0.500000	2.34075   	0.500000	2.09523   	0.500000	2.09523   	0.500000	2.33837   	0.500000	0.00238213	
0.600000	2.49273   	0.600000	2.21517   	0.600000	1.96744   	0.600000	1.96744   	0.600000	2.21313   	0.600000	0.00203844	
0.700000	2.26899   	0.700000	2.08529   	0.700000	1.85716   	0.700000	1.85716   	0.700000	2.08351   	0.700000	0.00178589	
0.800000	2.17012   	0.800000	1.98984   	0.800000	1.76125   	0.800000	1.76125   	0.800000	1.98825   	0.800000	0.00159195	
0.900000	2.06479   	0.900000	1.89047   	0.900000	1.67678   	0.900000	1.67678   	0.900000	1.88903   	0.900000	0.00143803	
1.000000	1.96024   	1.000000	1.79288   	1.000000	1.59735   	1.000000	1.59735   	1.000000	1.79157   	1.000000	0.00131272	
1.250000	1.72045   	1.250000	1.57627   	1.250000	1.43477   	1.250000	1.43477   	1.250000	1.57519   	1.250000	0.00108151	
1.500000	1.49373   	1.500000	1.36954   	1.500000	1.30641   	1.500000	1.30641   	1.500000	1.36862   	1.500000	0.000922591	
1.750000	1.32757   	1.750000	1.22135   	1.750000	1.20011   	1.750000	1.20011   	1.750000	1.22055   	1.750000	0.000806252	
2.000000	1.19909   	2.000000	1.10852   	2.000000	1.10992   	2.000000	1.10992   	2.000000	1.1078    	2.000000	0.000717189	
2.250000	1.09765   	2.250000	1.01878   	2.250000	1.03197   	2.250000	1.03197   	2.250000	1.01814   	2.250000	0.000646689	
2.500000	0.979644  	2.500000	0.94506   	2.500000	0.964027  	2.500000	0.964027  	2.500000	0.94447   	2.500000	0.000589417	
3.000000	0.860778  	3.000000	0.829678  	3.000000	0.851707  	3.000000	0.851707  	3.000000	0.829176  	3.000000	0.000501848	
3.500000	0.769179  	3.500000	0.742318  	3.500000	0.763118  	3.500000	0.763118  	3.500000	0.74188   	3.500000	0.000437885	
4.000000	0.696309  	4.000000	0.67324   	4.000000	0.691783  	4.000000	0.691783  	4.000000	0.672851  	4.000000	0.000389009	
4.500000	0.636875  	4.500000	0.617008  	4.500000	0.633276  	4.500000	0.633276  	4.500000	0.616658  	4.500000	0.000350379	
5.000000	0.587421  	5.000000	0.57025   	5.000000	0.584501  	5.000000	0.584501  	5.000000	0.569931  	5.000000	0.00031904	
5.500000	0.545589  	5.500000	0.530713  	5.500000	0.543246  	5.500000	0.543246  	5.500000	0.53042   	5.500000	0.000293078	
6.000000	0.509716  	6.000000	0.496816  	6.000000	0.507902  	6.000000	0.507902  	6.000000	0.496545  	6.000000	0.0002712 	
6.500000	0.478593  	6.500000	0.467411  	6.500000	0.477278  	6.500000	0.477278  	6.500000	0.467159  	6.500000	0.0002525 	
7.000000	0.45132   	7.000000	0.441643  	7.000000	0.450478  	7.000000	0.450478  	7.000000	0.441407  	7.000000	0.000236322	
7.500000	0.427213  	7.500000	0.418862  	7.500000	0.426815  	7.500000	0.426815  	7.500000	0.41864   	7.500000	0.000222182	
8.000000	0.405742  	8.000000	0.398563  	8.000000	0.405758  	8.000000	0.405758  	8.000000	0.398354  	8.000000	0.000209711	
8.500000	0.386489  	8.500000	0.380352  	8.500000	0.386888  	8.500000	0.386888  	8.500000	0.380153  	8.500000	0.000198627	
9.000000	0.369122  	9.000000	0.363913  	9.000000	0.369871  	9.000000	0.369871  	9.000000	0.363724  	9.000000	0.000188707	
9.500000	0.353373  	9.500000	0.348991  	9.500000	0.35444   	9.500000	0.35444   	9.500000	0.348811  	9.500000	0.000179774	
10.000000	0.339021  	10.000000	0.33766   	10.000000	0.340375  	10.000000	0.340375  	10.000000	0.337488  	10.000000	0.000171686	
11.000000	0.313814  	11.000000	0.313697  	11.000000	0.315249  	11.000000	0.315304  	11.000000	0.31354   	11.000000	0.000157599	
12.000000	0.29238   	12.000000	0.293133  	12.000000	0.293863  	12.000000	0.293952  	12.000000	0.292988  	12.000000	0.000145738	
13.000000	0.273919  	13.000000	0.275287  	13.000000	0.275417  	13.000000	0.275526  	13.000000	0.275152  	13.000000	0.000135608	
14.000000	0.257842  	14.000000	0.259649  	14.000000	0.25933   	14.000000	0.259447  	14.000000	0.259522  	14.000000	0.000126851	
15.000000	0.243709  	15.000000	0.245828  	15.000000	0.245165  	15.000000	0.245282  	15.000000	0.245709  	15.000000	0.000119201	
16.000000	0.231182  	16.000000	0.233521  	16.000000	0.232585  	16.000000	0.2327    	16.000000	0.233409  	16.000000	0.000112459	
17.000000	0.219996  	17.000000	0.222489  	17.000000	0.22133   	17.000000	0.221443  	17.000000	0.222383  	17.000000	0.00010647	
18.000000	0.209945  	18.000000	0.212542  	18.000000	0.211203  	18.000000	0.211309  	18.000000	0.212441  	18.000000	0.000101112	
19.000000	0.20086   	19.000000	0.203524  	19.000000	0.202037  	19.000000	0.202134  	19.000000	0.203428  	19.000000	9.629e-05 	
20.000000	0.192607  	20.000000	0.19531   	20.000000	0.193694  	20.000000	0.193787  	20.000000	0.195218  	20.000000	9.19256e-05	
21.000000	0.185075  	21.000000	0.187795  	21.000000	0.186069  	21.000000	0.186159  	21.000000	0.187707  	21.000000	8.7956e-05	
22.000000	0.17817   	22.000000	0.180892  	22.000000	0.179082  	22.000000	0.17916   	22.000000	0.180807  	22.000000	8.43291e-05	
23.000000	0.171818  	23.000000	0.174528  	23.000000	0.172653  	23.000000	0.172716  	23.000000	0.174447  	23.000000	8.10019e-05	
24.000000	0.165952  	24.000000	0.168642  	24.000000	0.166711  	24.000000	0.166762  	24.000000	0.168564  	24.000000	7.7938e-05	
25.000000	0.160518  	25.000000	0.163181  	25.000000	0.161201  	25.000000	0.161246  	25.000000	0.163106  	25.000000	7.51071e-05	
27.000000	0.150764  	27.000000	0.153361  	27.000000	0.151315  	27.000000	0.151346  	27.000000	0.15329   	27.000000	7.00439e-05	
29.000000	0.142255  	29.000000	0.144773  	29.000000	0.142705  	29.000000	0.142718  	29.000000	0.144708  	29.000000	6.56458e-05	
31.000000	0.134763  	31.000000	0.137198  	31.000000	0.135234  	31.000000	0.13523   	31.000000	0.137136  	31.000000	6.17881e-05	
33.000000	0.128112  	33.000000	0.130464  	33.000000	0.128685  	33.000000	0.128666  	33.000000	0.130405  	33.000000	5.83759e-05	
35.000000	0.122166  	35.000000	0.124436  	35.000000	0.122819  	35.000000	0.122787  	35.000000	0.12438   	35.000000	5.53352e-05	
38.000000	0.114338  	38.000000	0.11649   	38.000000	0.11508   	38.000000	0.115031  	38.000000	0.116439  	38.000000	5.13465e-05	
41.000000	0.107576  	41.000000	0.109618  	41.000000	0.10838   	41.000000	0.108317  	41.000000	0.10957   	41.000000	4.79147e-05	
44.000000	0.101671  	44.000000	0.103615  	44.000000	0.102518  	44.000000	0.102445  	44.000000	0.10357   	44.000000	4.49295e-05	
47.000000	0.0964691 	47.000000	0.098322  	47.000000	0.0973474 	47.000000	0.0972632 	47.000000	0.0982797 	47.000000	4.2308e-05	
50.000000	0.0918481 	50.000000	0.0936198 	50.000000	0.0927377 	50.000000	0.0926543 	50.000000	0.0935798 	50.000000	3.99867e-05	
55.000000	0.0851919 	55.000000	0.0868462 	55.000000	0.086094  	55.000000	0.0860062 	55.000000	0.0868096 	55.000000	3.66557e-05	
60.000000	0.0795716 	60.000000	0.0811287 	60.000000	0.0804798 	60.000000	0.0803854 	60.000000	0.0810949 	60.000000	3.38556e-05	
65.000000	0.0747588 	65.000000	0.0762355 	65.000000	0.0756595 	65.000000	0.0755677 	65.000000	0.0762041 	65.000000	3.14674e-05	
70.000000	0.0705878 	70.000000	0.0719985 	70.000000	0.0714908 	70.000000	0.0713901 	70.000000	0.0719691 	70.000000	2.94056e-05	
75.000000	0.0669357 	75.000000	0.0682927 	75.000000	0.067827  	75.000000	0.0677313 	75.000000	0.0682651 	75.000000	2.76067e-05	
80.000000	0.0637096 	80.000000	0.0650229 	80.000000	0.064599  	80.000000	0.0644993 	80.000000	0.0649969 	80.000000	2.60228e-05	
85.000000	0.0608375 	85.000000	0.0621158 	85.000000	0.0617173 	85.000000	0.0616224 	85.000000	0.0620912 	85.000000	2.46173e-05	
90.000000	0.0582629 	90.000000	0.0595136 	90.000000	0.0591431 	90.000000	0.0590447 	90.000000	0.0594902 	90.000000	2.33611e-05	
95.000000	0.0559408 	95.000000	0.0571702 	95.000000	0.056815  	95.000000	0.0567212 	95.000000	0.057148  	95.000000	2.22315e-05	
100.000000	0.0538351 	100.000000	0.0550485 	100.000000	0.0547127 	100.000000	0.0546158 	100.000000	0.0550273 	100.000000	2.12099e-05	
105.000000	0.0519162 	105.000000	0.0531181 	105.000000	0.0527916 	105.000000	0.0526987 	105.000000	0.0530979 	105.000000	2.02815e-05	
110.000000	0.0501596 	110.000000	0.0513541 	110.000000	0.0510406 	110.000000	0.0509457 	110.000000	0.0513347 	110.000000	1.94338e-05	
115.000000	0.0485451 	115.000000	0.0497357 	115.000000	0.0494292 	115.000000	0.0493363 	115.000000	0.0497171 	115.000000	1.86567e-05	
120.000000	0.0470558 	120.000000	0.0482454 	120.000000	0.0479453 	120.000000	0.0478534 	120.000000	0.0482275 	120.000000	1.79416e-05	
125.000000	0.0456773 	125.000000	0.0468684 	125.000000	0.0465762 	125.000000	0.0464826 	125.000000	0.0468511 	125.000000	1.72812e-05	
130.000000	0.0443973 	130.000000	0.0455923 	130.000000	0.0453017 	130.000000	0.0452116 	130.000000	0.0455756 	130.000000	1.66695e-05	
135.000000	0.0432054 	135.000000	0.0444061 	135.000000	0.0441163 	135.000000	0.0440298 	135.000000	0.04439   	135.000000	1.61012e-05	
140.000000	0.0420926 	140.000000	0.0433008 	140.000000	0.0430153 	140.000000	0.0429281 	140.000000	0.0432852 	140.000000	1.55718e-05	
145.000000	0.041051  	145.000000	0.0422682 	145.000000	0.0419866 	145.000000	0.0418986 	145.000000	0.0422531 	145.000000	1.50773e-05	
150.000000	0.0400739 	150.000000	0.0413014 	150.000000	0.0410196 	150.000000	0.0409344 	150.000000	0.0412868 	150.000000	1.46144e-05	
155.000000	0.0386981 	155.000000	0.0403942 	155.000000	0.0401151 	155.000000	0.0400294 	155.000000	0.04038   	155.000000	1.41801e-05	
160.000000	0.0378917 	160.000000	0.0395412 	160.000000	0.0392649 	160.000000	0.0391784 	160.000000	0.0395274 	160.000000	1.37718e-05	
165.000000	0.0371312 	165.000000	0.0387378 	165.000000	0.0384607 	165.000000	0.0383767 	165.000000	0.0387244 	165.000000	1.33872e-05	
170.000000	0.0364128 	170.000000	0.0379796 	170.000000	0.0377039 	170.000000	0.0376201 	170.000000	0.0379666 	170.000000	1.30243e-05	
175.000000	0.0357331 	175.000000	0.0372631 	175.000000	0.03699   	175.000000	0.0369049 	175.000000	0.0372504 	175.000000	1.26812e-05	
180.000000	0.0350889 	180.000000	0.0365847 	180.000000	0.0363118 	180.000000	0.0362278 	180.000000	0.0365724 	180.000000	1.23564e-05	
185.000000	0.0344776 	185.000000	0.0359416 	185.000000	0.0356673 	185.000000	0.0355858 	185.000000	0.0359296 	185.000000	1.20485e-05	
190.000000	0.0338966 	190.000000	0.0353311 	190.000000	0.0350559 	190.000000	0.0349764 	190.000000	0.0353193 	190.000000	1.1756e-05	
195.000000	0.0333436 	195.000000	0.0347507 	195.000000	0.0344765 	195.000000	0.0343971 	195.000000	0.0347392 	195.000000	1.1478e-05	
200.000000	0.0328168 	200.000000	0.0341983 	200.000000	0.0339263 	200.000000	0.0338457 	200.000000	0.0341871 	200.000000	1.12132e-05	
210.000000	0.0318343 	210.000000	0.0331697 	210.000000	0.0328973 	210.000000	0.0328191 	210.000000	0.0331589 	210.000000	1.07201e-05	
220.000000	0.0309363 	220.000000	0.0322315 	220.000000	0.031962  	220.000000	0.031883  	220.000000	0.0322212 	220.000000	1.02699e-05	
230.000000	0.0301123 	230.000000	0.0313724 	230.000000	0.0311036 	230.000000	0.0310259 	230.000000	0.0313625 	230.000000	9.85729e-06	
240.000000	0.0293534 	240.000000	0.0305827 	240.000000	0.030313  	240.000000	0.0302385 	240.000000	0.0305733 	240.000000	9.4777e-06	
250.000000	0.0286523 	250.000000	0.0298546 	250.000000	0.0295876 	250.000000	0.0295127 	250.000000	0.0298454 	250.000000	9.12725e-06	
260.000000	0.0280024 	260.000000	0.029181  	260.000000	0.0289162 	260.000000	0.0288416 	260.000000	0.0291722 	260.000000	8.80268e-06	
270.000000	0.0273984 	270.000000	0.0285562 	270.000000	0.0282923 	270.000000	0.0282194 	270.000000	0.0285477 	270.000000	8.50118e-06	
280.000000	0.0268357 	280.000000	0.027975  	280.000000	0.027715  	280.000000	0.027641  	280.000000	0.0279668 	280.000000	8.22037e-06	
290.000000	0.02631   	290.000000	0.0274331 	290.000000	0.0271748 	290.000000	0.027102  	290.000000	0.0274252 	290.000000	7.95814e-06	
300.000000	0.0258179 	300.000000	0.0269268 	300.000000	0.0266692 	300.000000	0.0265986 	300.000000	0.026919  	300.000000	7.71271e-06	
310.000000	0.0253563 	310.000000	0.0264526 	310.000000	0.0261973 	310.000000	0.0261276 	310.000000	0.0264451 	310.000000	7.48247e-06	
320.000000	0.0249224 	320.000000	0.0260077 	320.000000	0.0257565 	320.000000	0.0256859 	320.000000	0.0260004 	320.000000	7.26606e-06	
330.000000	0.0245139 	330.000000	0.0255894 	330.000000	0.0253412 	330.000000	0.0252711 	330.000000	0.0255823 	330.000000	7.06224e-06	
340.000000	0.0241286 	340.000000	0.0251956 	340.000000	0.0249491 	340.000000	0.0248807 	340.000000	0.0251887 	340.000000	6.86994e-06	
350.000000	0.0237646 	350.000000	0.0248241 	350.000000	0.0245796 	350.000000	0.0245128 	350.000000	0.0248174 	350.000000	6.68819e-06	
360.000000	0.0234203 	360.000000	0.0244732 	360.000000	0.0242323 	360.000000	0.0241655 	360.000000	0.0244667 	360.000000	6.51614e-06	
370.000000	0.023094  	370.000000	0.0241413 	370.000000	0.0239048 	370.000000	0.0238372 	370.000000	0.0241349 	370.000000	6.35303e-06	
380.000000	0.0227845 	380.000000	0.0238268 	380.000000	0.0235934 	380.000000	0.0235265 	380.000000	0.0238206 	380.000000	6.19816e-06	
390.000000	0.0224905 	390.000000	0.0235286 	390.000000	0.0232978 	390.000000	0.0232321 	390.000000	0.0235225 	390.000000	6.05092e-06	
400.000000	0.0222109 	400.000000	0.0232453 	400.000000	0.0230186 	400.000000	0.0229527 	400.000000	0.0232394 	400.000000	5.91076e-06	
410.000000	0.0219448 	410.000000	0.0229761 	410.000000	0.0227538 	410.000000	0.0226873 	410.000000	0.0229703 	410.000000	5.77717e-06	
420.000000	0.0216911 	420.000000	0.0227198 	420.000000	0.0225009 	420.000000	0.0224349 	420.000000	0.0227141 	420.000000	5.64968e-06	
430.000000	0.0214491 	430.000000	0.0224756 	430.000000	0.0222595 	430.000000	0.0221946 	430.000000	0.0224701 	430.000000	5.5279e-06	
440.000000	0.021218  	440.000000	0.0222427 	440.000000	0.0220294 	440.000000	0.0219656 	440.000000	0.0222373 	440.000000	5.41144e-06	
450.000000	0.0209972 	450.000000	0.0220204 	450.000000	0.0218103 	450.000000	0.0217473 	450.000000	0.0220151 	450.000000	5.29995e-06	
460.000000	0.0207859 	460.000000	0.0218081 	460.000000	0.0216019 	460.000000	0.0215388 	460.000000	0.0218029 	460.000000	5.19312e-06	
470.000000	0.0205836 	470.000000	0.021605  	470.000000	0.0214032 	470.000000	0.0213397 	470.000000	0.0215999 	470.000000	5.09066e-06	
480.000000	0.0203898 	480.000000	0.0214106 	480.000000	0.0212129 	480.000000	0.0211492 	480.000000	0.0214056 	480.000000	4.9923e-06	
490.000000	0.020204  	490.000000	0.0212244 	490.000000	0.0210301 	490.000000	0.0209669 	490.000000	0.0212195 	490.000000	4.8978e-06	
500.000000	0.0200257 	500.000000	0.021046  	500.000000	0.0208546 	500.000000	0.0207924 	500.000000	0.0210412 	500.000000	4.80694e-06	
520.000000	0.01969   	520.000000	0.0207106 	520.000000	0.0205253 	520.000000	0.0204647 	520.000000	0.020706  	520.000000	4.63529e-06	
540.000000	0.0193797 	540.000000	0.0204013 	540.000000	0.0202237 	540.000000	0.0201629 	540.000000	0.0203968 	540.000000	4.47588e-06	
560.000000	0.0190924 	560.000000	0.0201153 	560.000000	0.0199454 	560.000000	0.0198843 	560.000000	0.0201109 	560.000000	4.32743e-06	
580.000000	0.0188256 	580.000000	0.0198502 	580.000000	0.0196864 	580.000000	0.0196265 	580.000000	0.019846  	580.000000	4.18882e-06	
600.000000	0.0185774 	600.000000	0.0196041 	600.000000	0.0194472 	600.000000	0.0193874 	600.000000	0.0196001 	600.000000	4.05911e-06	
620.000000	0.0183462 	620.000000	0.0193752 	620.000000	0.0192256 	620.000000	0.0191653 	620.000000	0.0193712 	620.000000	3.93746e-06	
640.000000	0.0181304 	640.000000	0.0191618 	640.000000	0.0190184 	640.000000	0.0189586 	640.000000	0.019158  	640.000000	3.82312e-06	
660.000000	0.0179288 	660.000000	0.0189627 	660.000000	0.0188245 	660.000000	0.0187658 	660.000000	0.0189589 	660.000000	3.71545e-06	
680.000000	0.01774   	680.000000	0.0187765 	680.000000	0.0186435 	680.000000	0.0185858 	680.000000	0.0187729 	680.000000	3.61388e-06	
700.000000	0.0175631 	700.000000	0.0186022 	700.000000	0.0184748 	700.000000	0.0184174 	700.000000	0.0185987 	700.000000	3.51789e-06	
720.000000	0.0173972 	720.000000	0.0184389 	720.000000	0.0183175 	720.000000	0.0182597 	720.000000	0.0184355 	720.000000	3.42704e-06	
740.000000	0.0172413 	740.000000	0.0182857 	740.000000	0.0181699 	740.000000	0.0181118 	740.000000	0.0182823 	740.000000	3.34092e-06	
760.000000	0.0170948 	760.000000	0.0181417 	760.000000	0.0180306 	760.000000	0.0179729 	760.000000	0.0181384 	760.000000	3.25916e-06	
780.000000	0.0169569 	780.000000	0.0180063 	780.000000	0.0178993 	780.000000	0.0178424 	780.000000	0.0180032 	780.000000	3.18143e-06	
800.000000	0.0168271 	800.000000	0.017879  	800.000000	0.0177757 	800.000000	0.0177196 	800.000000	0.0178758 	800.000000	3.10745e-06	
820.000000	0.0167048 	820.000000	0.017759  	820.000000	0.0176597 	820.000000	0.0176042 	820.000000	0.0177559 	820.000000	3.03694e-06	
840.000000	0.0165895 	840.000000	0.0176459 	840.000000	0.0175523 	840.000000	0.0174969 	840.000000	0.0176429 	840.000000	2.96967e-06	
860.000000	0.0164807 	860.000000	0.0175392 	860.000000	0.0174513 	860.000000	0.0173958 	860.000000	0.0175363 	860.000000	2.90541e-06	
880.000000	0.016378  	880.000000	0.0174385 	880.000000	0.0173561 	880.000000	0.0173002 	880.000000	0.0174356 	880.000000	2.84396e-06	
900.000000	0.016281  	900.000000	0.0173434 	900.000000	0.0172658 	900.000000	0.0172099 	900.000000	0.0173406 	900.000000	2.78515e-06	
920.000000	0.0161894 	920.000000	0.0172535 	920.000000	0.0171801 	920.000000	0.0171245 	920.000000	0.0172508 	920.000000	2.72879e-06	
940.000000	0.0161028 	940.000000	0.0171686 	940.000000	0.0170988 	940.000000	0.0170436 	940.000000	0.0171659 	940.000000	2.67475e-06	
960.000000	0.016021  	960.000000	0.0170883 	960.000000	0.0170217 	960.000000	0.0169671 	960.000000	0.0170856 	960.000000	2.62288e-06	
980.000000	0.0159436 	980.000000	0.0170123 	980.000000	0.0169486 	980.000000	0.0168946 	980.000000	0.0170097 	980.000000	2.57304e-06	
1000.000000	0.0158705 	1000.000000	0.0169404 	1000.000000	0.0168795 	1000.000000	0.0168258 	1000.000000	0.0169378 	1000.000000	2.52513e-06	
1020.000000	0.0158014 	1020.000000	0.0168723 	1020.000000	0.016814  	1020.000000	0.0167606 	1020.000000	0.0168698 	1020.000000	2.47902e-06	
1040.000000	0.0157361 	1040.000000	0.0168079 	1040.000000	0.0167521 	1040.000000	0.0166987 	1040.000000	0.0168055 	1040.000000	2.43462e-06	
1060.000000	0.0156743 	1060.000000	0.0167469 	1060.000000	0.0166935 	1060.000000	0.0166399 	1060.000000	0.0167445 	1060.000000	2.39184e-06	
1080.000000	0.0156159 	1080.000000	0.0166891 	1080.000000	0.0166379 	1080.000000	0.0165841 	1080.000000	0.0166868 	1080.000000	2.35059e-06	
1100.000000	0.0155607 	1100.000000	0.0166345 	1100.000000	0.016585  	1100.000000	0.016531  	1100.000000	0.0166322 	1100.000000	2.31078e-06	
1120.000000	0.0155086 	1120.000000	0.0165827 	1120.000000	0.0165345 	1120.000000	0.0164806 	1120.000000	0.0165804 	1120.000000	2.27234e-06	
1140.000000	0.0154594 	1140.000000	0.0165337 	1140.000000	0.0164863 	1140.000000	0.0164326 	1140.000000	0.0165314 	1140.000000	2.2352e-06	
1160.000000	0.0154129 	1160.000000	0.0164873 	1160.000000	0.0164404 	1160.000000	0.016387  	1160.000000	0.0164851 	1160.000000	2.19929e-06	
1180.000000	0.0153691 	1180.000000	0.0164434 	1180.000000	0.0163967 	1180.000000	0.0163437 	1180.000000	0.0164412 	1180.000000	2.16456e-06	
1200.000000	0.0153278 	1200.000000	0.0164019 	1200.000000	0.0163552 	1200.000000	0.0163024 	1200.000000	0.0163997 	1200.000000	2.13094e-06	
1220.000000	0.0152888 	1220.000000	0.0163626 	1220.000000	0.0163158 	1220.000000	0.0162631 	1220.000000	0.0163605 	1220.000000	2.09838e-06	
1240.000000	0.0152522 	1240.000000	0.0163254 	1240.000000	0.0162785 	1240.000000	0.0162257 	1240.000000	0.0163234 	1240.000000	2.06684e-06	
1260.000000	0.0152177 	1260.000000	0.0162903 	1260.000000	0.0162431 	1260.000000	0.0161901 	1260.000000	0.0162883 	1260.000000	2.03626e-06	
1280.000000	0.0151854 	1280.000000	0.0162572 	1280.000000	0.0162093 	1280.000000	0.0161562 	1280.000000	0.0162552 	1280.000000	2.0066e-06	
1300.000000	0.015155  	1300.000000	0.0162259 	1300.000000	0.0161771 	1300.000000	0.0161239 	1300.000000	0.0162239 	1300.000000	1.97783e-06	
1320.000000	0.0151265 	1320.000000	0.0161964 	1320.000000	0.0161464 	1320.000000	0.0160931 	1320.000000	0.0161944 	1320.000000	1.94989e-06	
1340.000000	0.0150999 	1340.000000	0.0161686 	1340.000000	0.016117  	1340.000000	0.0160638 	1340.000000	0.0161667 	1340.000000	1.92276e-06	
1360.000000	0.015075  	1360.000000	0.0161424 	1360.000000	0.016089  	1360.000000	0.0160359 	1360.000000	0.0161405 	1360.000000	1.89639e-06	
1380.000000	0.0150518 	1380.000000	0.0161178 	1380.000000	0.0160622 	1380.000000	0.0160093 	1380.000000	0.0161159 	1380.000000	1.87076e-06	
1400.000000	0.0150302 	1400.000000	0.0160947 	1400.000000	0.0160367 	1400.000000	0.015984  	1400.000000	0.0160928 	1400.000000	1.84584e-06	
1420.000000	0.0150102 	1420.000000	0.016073  	1420.000000	0.0160124 	1420.000000	0.0159599 	1420.000000	0.0160712 	1420.000000	1.8216e-06	
1440.000000	0.0149917 	1440.000000	0.0160527 	1440.000000	0.0159892 	1440.000000	0.015937  	1440.000000	0.0160509 	1440.000000	1.798e-06 	
1460.000000	0.0149746 	1460.000000	0.0160336 	1460.000000	0.0159671 	1460.000000	0.0159151 	1460.000000	0.0160319 	1460.000000	1.77503e-06	
1480.000000	0.014959  	1480.000000	0.0160159 	1480.000000	0.0159461 	1480.000000	0.0158943 	1480.000000	0.0160141 	1480.000000	1.75266e-06	
1500.000000	0.0149446 	1500.000000	0.0159994 	1500.000000	0.0159261 	1500.000000	0.0158745 	1500.000000	0.0159976 	1500.000000	1.73086e-06	
1520.000000	0.0149315 	1520.000000	0.015984  	1520.000000	0.015907  	1520.000000	0.0158557 	1520.000000	0.0159823 	1520.000000	1.70961e-06	
1540.000000	0.0149197 	1540.000000	0.0159697 	1540.000000	0.015889  	1540.000000	0.0158377 	1540.000000	0.015968  	1540.000000	1.6889e-06	
1560.000000	0.0149091 	1560.000000	0.0159566 	1560.000000	0.0158718 	1560.000000	0.0158207 	1560.000000	0.0159549 	1560.000000	1.6687e-06	
1580.000000	0.0148996 	1580.000000	0.0159444 	1580.000000	0.0158555 	1580.000000	0.0158045 	1580.000000	0.0159428 	1580.000000	1.64899e-06	
1600.000000	0.0148912 	1600.000000	0.0159333 	1600.000000	0.0158401 	1600.000000	0.0157891 	1600.000000	0.0159317 	1600.000000	1.62976e-06	
1620.000000	0.0148839 	1620.000000	0.0159231 	1620.000000	0.0158255 	1620.000000	0.0157745 	1620.000000	0.0159215 	1620.000000	1.61099e-06	
1640.000000	0.0148777 	1640.000000	0.0159139 	1640.000000	0.0158116 	1640.000000	0.0157606 	1640.000000	0.0159123 	1640.000000	1.59265e-06	
1660.000000	0.0148725 	1660.000000	0.0159055 	1660.000000	0.0157985 	1660.000000	0.0157474 	1660.000000	0.015904  	1660.000000	1.57475e-06	
1680.000000	0.0148682 	1680.000000	0.0158981 	1680.000000	0.0157861 	1680.000000	0.0157349 	1680.000000	0.0158965 	1680.000000	1.55725e-06	
1700.000000	0.0148649 	1700.000000	0.0158914 	1700.000000	0.0157743 	1700.000000	0.015723  	1700.000000	0.0158899 	1700.000000	1.54015e-06	
1750.000000	0.0148605 	1750.000000	0.0158782 	1750.000000	0.0157475 	1750.000000	0.0156961 	1750.000000	0.0158767 	1750.000000	1.49905e-06	
1800.000000	0.0148614 	1800.000000	0.0158697 	1800.000000	0.0157242 	1800.000000	0.0156726 	1800.000000	0.0158682 	1800.000000	1.46016e-06	
1850.000000	0.0148672 	1850.000000	0.0158654 	1850.000000	0.0157039 	1850.000000	0.0156524 	1850.000000	0.015864  	1850.000000	1.4233e-06	
1900.000000	0.0148775 	1900.000000	0.015865  	1900.000000	0.0156864 	1900.000000	0.0156351 	1900.000000	0.0158636 	1900.000000	1.3883e-06	
1950.000000	0.014892  	1950.000000	0.0158682 	1950.000000	0.0156714 	1950.000000	0.0156204 	1950.000000	0.0158668 	1950.000000	1.35505e-06	
2000.000000	0.0149105 	2000.000000	0.0158747 	2000.000000	0.0156589 	2000.000000	0.0156082 	2000.000000	0.0158734 	2000.000000	1.32339e-06	
2100.000000	0.0149582 	2100.000000	0.0158969 	2100.000000	0.0156402 	2100.000000	0.01559   	2100.000000	0.0158957 	2100.000000	1.26445e-06	
2200.000000	0.0150189 	2200.000000	0.0159298 	2200.000000	0.0156289 	2200.000000	0.0155792 	2200.000000	0.0159286 	2200.000000	1.21069e-06	
2300.000000	0.0150911 	2300.000000	0.0159721 	2300.000000	0.0156239 	2300.000000	0.0155744 	2300.000000	0.0159709 	2300.000000	1.16144e-06	
2400.000000	0.0151734 	2400.000000	0.0160225 	2400.000000	0.0156242 	2400.000000	0.0155749 	2400.000000	0.0160214 	2400.000000	1.11616e-06	
2500.000000	0.0152649 	2500.000000	0.0160801 	2500.000000	0.0156291 	2500.000000	0.0155796 	2500.000000	0.016079  	2500.000000	1.07438e-06	
2600.000000	0.0153647 	2600.000000	0.016144  	2600.000000	0.0156377 	2600.000000	0.0155881 	2600.000000	0.016143  	2600.000000	1.0357e-06	
2700.000000	0.0154719 	2700.000000	0.0162135 	2700.000000	0.0156494 	2700.000000	0.0155996 	2700.000000	0.0162125 	2700.000000	9.99798e-07	
2800.000000	0.0155859 	2800.000000	0.0162881 	2800.000000	0.0156637 	2800.000000	0.0156138 	2800.000000	0.0162871 	2800.000000	9.66371e-07	
2900.000000	0.0157062 	2900.000000	0.0163672 	2900.000000	0.0156801 	2900.000000	0.0156303 	2900.000000	0.0163662 	2900.000000	9.35171e-07	
3000.000000	0.0158322 	3000.000000	0.0164503 	3000.000000	0.0156984 	3000.000000	0.0156487 	3000.000000	0.0164493 	3000.000000	9.05982e-07	
3200.000000	0.0160996 	3200.000000	0.016627  	3200.000000	0.0157396 	3200.000000	0.01569   	3200.000000	0.0166261 	3200.000000	8.52898e-07	
3400.000000	0.0163852 	3400.000000	0.0168157 	3400.000000	0.0157853 	3400.000000	0.0157361 	3400.000000	0.0168149 	3400.000000	8.05857e-07	
3600.000000	0.0166868 	3600.000000	0.0170143 	3600.000000	0.0158345 	3600.000000	0.0157855 	3600.000000	0.0170135 	3600.000000	7.63874e-07	
3800.000000	0.0170025 	3800.000000	0.0172211 	3800.000000	0.0158859 	3800.000000	0.0158372 	3800.000000	0.0172204 	3800.000000	7.26167e-07	
4000.000000	0.0173309 	4000.000000	0.0174349 	4000.000000	0.015939  	4000.000000	0.0158904 	4000.000000	0.0174342 	4000.000000	6.9211e-07	
4200.000000	0.0176706 	4200.000000	0.0176547 	4200.000000	0.0159932 	4200.000000	0.0159447 	4200.000000	0.017654  	4200.000000	6.61191e-07	
4400.000000	0.0180208 	4400.000000	0.0178795 	4400.000000	0.0160478 	4400.000000	0.0159995 	4400.000000	0.0178789 	4400.000000	6.32992e-07	
4600.000000	0.0183806 	4600.000000	0.0181086 	4600.000000	0.0161027 	4600.000000	0.0160545 	4600.000000	0.018108  	4600.000000	6.07167e-07	
4800.000000	0.0187492 	4800.000000	0.0183416 	4800.000000	0.0161576 	4800.000000	0.0161094 	4800.000000	0.018341  	4800.000000	5.83425e-07	
5000.000000	0.0191262 	5000.000000	0.0185778 	5000.000000	0.0162122 	5000.000000	0.0161641 	5000.000000	0.0185772 	5000.000000	5.61521e-07	
5250.000000	0.0196083 	5250.000000	0.018877  	5250.000000	0.0162798 	5250.000000	0.0162319 	5250.000000	0.0188764 	5250.000000	5.36413e-07	
5500.000000	0.0201019 	5500.000000	0.01918   	5500.000000	0.0163467 	5500.000000	0.0162988 	5500.000000	0.0191794 	5500.000000	5.13515e-07	
6000.000000	0.0211206 	6000.000000	0.0197951 	6000.000000	0.0164772 	6000.000000	0.0164295 	6000.000000	0.0197947 	6000.000000	4.73267e-07	
6500.000000	0.0221779 	6500.000000	0.0204198 	6500.000000	0.0166031 	6500.000000	0.0165555 	6500.000000	0.0204194 	6500.000000	4.39023e-07	
7000.000000	0.0232709 	7000.000000	0.0210517 	7000.000000	0.0167241 	7000.000000	0.0166766 	7000.000000	0.0210512 	7000.000000	4.09523e-07	
7500.000000	0.0243972 	7500.000000	0.0216888 	7500.000000	0.0168402 	7500.000000	0.0167927 	7500.000000	0.0216884 	7500.000000	3.83836e-07	
8000.000000	0.0255552 	8000.000000	0.02233   	8000.000000	0.0169515 	8000.000000	0.016904  	8000.000000	0.0223296 	8000.000000	3.61262e-07	
8500.000000	0.0267435 	8500.000000	0.0229743 	8500.000000	0.017058  	8500.000000	0.0170107 	8500.000000	0.0229739 	8500.000000	3.41263e-07	
9000.000000	0.0279611 	9000.000000	0.0236208 	9000.000000	0.0171599 	9000.000000	0.017113  	9000.000000	0.0236205 	9000.000000	3.23419e-07	
9500.000000	0.0292072 	9500.000000	0.0242691 	9500.000000	0.0172579 	9500.000000	0.0172112 	9500.000000	0.0242688 	9500.000000	3.07396e-07	
10000.000000	0.0304812 	10000.000000	0.0249187 	10000.000000	0.0173522 	10000.000000	0.0173055 	10000.000000	0.0249185 	10000.000000	2.92926e-07	
11000.000000	0.0331107 	11000.000000	0.0262205 	11000.000000	0.0175299 	11000.000000	0.0174832 	11000.000000	0.0262202 	11000.000000	2.67817e-07	
12000.000000	0.0358466 	12000.000000	0.0275239 	12000.000000	0.0176941 	12000.000000	0.0176481 	12000.000000	0.0275237 	12000.000000	2.46772e-07	
13000.000000	0.0386869 	13000.000000	0.0288278 	13000.000000	0.017847  	13000.000000	0.0178016 	13000.000000	0.0288275 	13000.000000	2.2887e-07	
14000.000000	0.0416301 	14000.000000	0.0301311 	14000.000000	0.0179902 	14000.000000	0.0179451 	14000.000000	0.0301309 	14000.000000	2.13451e-07	
15000.000000	0.0446753 	15000.000000	0.0314334 	15000.000000	0.0181248 	15000.000000	0.0180796 	15000.000000	0.0314332 	15000.000000	2.00028e-07	
16000.000000	0.047822  	16000.000000	0.0327342 	16000.000000	0.0182514 	16000.000000	0.0182062 	16000.000000	0.032734  	16000.000000	1.88234e-07	
17000.000000	0.0510698 	17000.000000	0.0340333 	17000.000000	0.0183706 	17000.000000	0.0183257 	17000.000000	0.0340331 	17000.000000	1.77788e-07	
18000.000000	0.0544185 	18000.000000	0.0353304 	18000.000000	0.0184832 	18000.000000	0.0184388 	18000.000000	0.0353303 	18000.000000	1.68468e-07	
19000.000000	0.0578682 	19000.000000	0.0366255 	19000.000000	0.0185899 	19000.000000	0.0185461 	19000.000000	0.0366254 	19000.000000	1.60101e-07	
20000.000000	0.0614187 	20000.000000	0.0379186 	20000.000000	0.0186911 	20000.000000	0.0186481 	20000.000000	0.0379184 	20000.000000	1.52546e-07	
21000.000000	0.0650704 	21000.000000	0.0392095 	21000.000000	0.0187876 	21000.000000	0.0187453 	21000.000000	0.0392093 	21000.000000	1.4569e-07	
22000.000000	0.0688233 	22000.000000	0.0404983 	22000.000000	0.01888   	22000.000000	0.0188382 	22000.000000	0.0404981 	22000.000000	1.39438e-07	
23000.000000	0.0726779 	23000.000000	0.0417849 	23000.000000	0.0189686 	23000.000000	0.018927  	23000.000000	0.0417848 	23000.000000	1.33715e-07	
24000.000000	0.0766343 	24000.000000	0.0430694 	24000.000000	0.0190533 	24000.000000	0.0190122 	24000.000000	0.0430693 	24000.000000	1.28455e-07	
25000.000000	0.0806929 	25000.000000	0.0443519 	25000.000000	0.0191344 	25000.000000	0.0190939 	25000.000000	0.0443518 	25000.000000	1.23603e-07	
26000.000000	0.0848541 	26000.000000	0.0456323 	26000.000000	0.0192122 	26000.000000	0.0191725 	26000.000000	0.0456322 	26000.000000	1.19114e-07	
27000.000000	0.0891183 	27000.000000	0.0469107 	27000.000000	0.0192871 	27000.000000	0.0192482 	27000.000000	0.0469105 	27000.000000	1.14948e-07	
28000.000000	0.0934859 	28000.000000	0.048187  	28000.000000	0.0193593 	28000.000000	0.0193211 	28000.000000	0.0481869 	28000.000000	1.1107e-07	
29000.000000	0.0979574 	29000.000000	0.0494615 	29000.000000	0.0194289 	29000.000000	0.0193915 	29000.000000	0.0494614 	29000.000000	1.07453e-07	
30000.000000	0.102533  	30000.000000	0.050734  	30000.000000	0.0194961 	30000.000000	0.0194595 	30000.000000	0.0507339 	30000.000000	1.04069e-07	
32000.000000	0.112     	32000.000000	0.0532736 	32000.000000	0.019624  	32000.000000	0.0195889 	32000.000000	0.0532735 	32000.000000	9.7919e-08	
34000.000000	0.12189   	34000.000000	0.055806  	34000.000000	0.0197441 	34000.000000	0.0197105 	34000.000000	0.0558059 	34000.000000	9.2472e-08	
36000.000000	0.132207  	36000.000000	0.0583316 	36000.000000	0.0198572 	36000.000000	0.0198252 	36000.000000	0.0583315 	36000.000000	8.76134e-08	
38000.000000	0.142955  	38000.000000	0.0608507 	38000.000000	0.0199639 	38000.000000	0.0199335 	38000.000000	0.0608506 	38000.000000	8.32519e-08	
40000.000000	0.15414   	40000.000000	0.0633636 	40000.000000	0.0200648 	40000.000000	0.0200363 	40000.000000	0.0633635 	40000.000000	7.93143e-08	
42000.000000	0.165765  	42000.000000	0.0658705 	42000.000000	0.0201606 	42000.000000	0.020134  	42000.000000	0.0658704 	42000.000000	7.57413e-08	
44000.000000	0.177835  	44000.000000	0.0683717 	44000.000000	0.0202518 	44000.000000	0.020227  	44000.000000	0.0683716 	44000.000000	7.24841e-08	
46000.000000	0.190355  	46000.000000	0.0708674 	46000.000000	0.0203387 	46000.000000	0.0203159 	46000.000000	0.0708673 	46000.000000	6.95022e-08	
48000.000000	0.203329  	48000.000000	0.0733578 	48000.000000	0.0204218 	48000.000000	0.0204009 	48000.000000	0.0733578 	48000.000000	6.67619e-08	
50000.000000	0.216762  	50000.000000	0.0758432 	50000.000000	0.0205013 	50000.000000	0.0204825 	50000.000000	0.0758432 	50000.000000	6.42348e-08	
