0.001000	0.486895  	0.001000	0.156152  	0.001000	0.18302   	0.001000	0.18302   	0.001000	0.0778281 	0.001000	0.0783237 	
0.002000	0.598653  	0.002000	0.193826  	0.002000	0.240319  	0.002000	0.240319  	0.002000	0.134682  	0.002000	0.0591431 	
0.005000	0.91479   	0.005000	0.300013  	0.005000	0.391089  	0.005000	0.391089  	0.005000	0.263833  	0.005000	0.0361796 	
0.008000	1.1575    	0.008000	0.388336  	0.008000	0.513081  	0.008000	0.513081  	0.008000	0.361371  	0.008000	0.0269649 	
0.010000	1.29146   	0.010000	0.439537  	0.010000	0.583234  	0.010000	0.583234  	0.010000	0.416271  	0.010000	0.0232655 	
0.015000	1.67443   	0.015000	0.594695  	0.015000	0.733441  	0.015000	0.733441  	0.015000	0.577102  	0.015000	0.0175929 	
0.020000	2.0001    	0.020000	0.733793  	0.020000	0.8606    	0.020000	0.8606    	0.020000	0.719605  	0.020000	0.0141878 	
0.025000	2.28558   	0.025000	0.858328  	0.025000	0.973964  	0.025000	0.973964  	0.025000	0.846283  	0.025000	0.0120451 	
0.030000	2.54013   	0.030000	0.969075  	0.030000	1.06238   	0.030000	1.06238   	0.030000	0.958564  	0.030000	0.0105106 	
0.035000	2.76912   	0.035000	1.06681   	0.035000	1.13878   	0.035000	1.13878   	0.035000	1.05745   	0.035000	0.00935198	
0.040000	2.97579   	0.040000	1.15227   	0.040000	1.20504   	0.040000	1.20504   	0.040000	1.14382   	0.040000	0.00844285	
0.045000	3.1622    	0.045000	1.22624   	0.045000	1.26255   	0.045000	1.26255   	0.045000	1.21853   	0.045000	0.00770851	
0.050000	3.32976   	0.050000	1.28959   	0.050000	1.31238   	0.050000	1.31238   	0.050000	1.28249   	0.050000	0.0071017 	
0.055000	3.47948   	0.055000	1.34322   	0.055000	1.3554    	0.055000	1.3554    	0.055000	1.33663   	0.055000	0.00659099	
0.060000	3.6122    	0.060000	1.38806   	0.060000	1.39233   	0.060000	1.39233   	0.060000	1.38191   	0.060000	0.00615463	
0.070000	3.82968   	0.070000	1.45515   	0.070000	1.45047   	0.070000	1.45047   	0.070000	1.4497    	0.070000	0.00544683	
0.080000	3.98839   	0.080000	1.49797   	0.080000	1.49114   	0.080000	1.49114   	0.080000	1.49307   	0.080000	0.00489591	
0.090000	4.09504   	0.090000	1.52269   	0.090000	1.51789   	0.090000	1.51789   	0.090000	1.51824   	0.090000	0.0044538 	
0.100000	4.15693   	0.100000	1.53433   	0.100000	1.53366   	0.100000	1.53366   	0.100000	1.53024   	0.100000	0.00409044	
0.120000	4.17595   	0.120000	1.53273   	0.120000	1.54144   	0.120000	1.54144   	0.120000	1.5292    	0.120000	0.00352697	
0.140000	4.10014   	0.140000	1.51321   	0.140000	1.52874   	0.140000	1.52874   	0.140000	1.5101    	0.140000	0.00310883	
0.160000	3.97216   	0.160000	1.48594   	0.160000	1.5046    	0.160000	1.5046    	0.160000	1.48315   	0.160000	0.0027852 	
0.180000	3.82092   	0.180000	1.45574   	0.180000	1.47456   	0.180000	1.47456   	0.180000	1.45321   	0.180000	0.00252667	
0.200000	3.66398   	0.200000	1.42482   	0.200000	1.44187   	0.200000	1.44187   	0.200000	1.42251   	0.200000	0.00231501	
0.250000	3.29824   	0.250000	1.3494    	0.250000	1.35886   	0.250000	1.35886   	0.250000	1.34748   	0.250000	0.00192149	
0.300000	2.9959    	0.300000	1.27889   	0.300000	1.28127   	0.300000	1.28127   	0.300000	1.27724   	0.300000	0.00164855	
0.350000	2.75083   	0.350000	1.21354   	0.350000	1.21116   	0.350000	1.21116   	0.350000	1.2121    	0.350000	0.00144733	
0.400000	2.549     	0.400000	1.1532    	0.400000	1.14811   	0.400000	1.14811   	0.400000	1.15191   	0.400000	0.0012924 	
0.450000	2.37905   	0.450000	1.09765   	0.450000	1.09134   	0.450000	1.09134   	0.450000	1.09648   	0.450000	0.00116918	
0.500000	2.23311   	0.500000	1.04667   	0.500000	1.04006   	0.500000	1.04006   	0.500000	1.0456    	0.500000	0.00106866	
0.600000	1.99329   	0.600000	0.957131  	0.600000	0.951346  	0.600000	0.951346  	0.600000	0.956217  	0.600000	0.000914208	
0.700000	1.80277   	0.700000	0.8819    	0.700000	0.877607  	0.700000	0.877607  	0.700000	0.881099  	0.700000	0.00080075	
0.800000	1.64693   	0.800000	0.818317  	0.800000	0.815545  	0.800000	0.815545  	0.800000	0.817604  	0.800000	0.00071365	
0.900000	1.51675   	0.900000	0.764096  	0.900000	0.762662  	0.900000	0.762662  	0.900000	0.763452  	0.900000	0.000644543	
1.000000	1.4062    	1.000000	0.717389  	1.000000	0.717067  	1.000000	0.717067  	1.000000	0.716801  	1.000000	0.000588291	
1.250000	1.19064   	1.250000	0.624759  	1.250000	0.626348  	1.250000	0.626348  	1.250000	0.624275  	1.250000	0.000484529	
1.500000	1.03304   	1.500000	0.555717  	1.500000	0.558349  	1.500000	0.558349  	1.500000	0.555304  	1.500000	0.000413236	
1.750000	0.912411  	1.750000	0.501981  	1.750000	0.505148  	1.750000	0.505148  	1.750000	0.50162   	1.750000	0.00036106	
2.000000	0.816935  	2.000000	0.458779  	2.000000	0.462187  	2.000000	0.462187  	2.000000	0.458458  	2.000000	0.000321125	
2.250000	0.739422  	2.250000	0.423178  	2.250000	0.426656  	2.250000	0.426656  	2.250000	0.422888  	2.250000	0.000289519	
2.500000	0.64996   	2.500000	0.39327   	2.500000	0.396719  	2.500000	0.396719  	2.500000	0.393006  	2.500000	0.000263848	
3.000000	0.56092   	3.000000	0.345698  	3.000000	0.34894   	3.000000	0.34894   	3.000000	0.345474  	3.000000	0.000224604	
3.500000	0.494496  	3.500000	0.309446  	3.500000	0.312408  	3.500000	0.312408  	3.500000	0.30925   	3.500000	0.000195947	
4.000000	0.44292   	4.000000	0.280832  	4.000000	0.283504  	4.000000	0.283504  	4.000000	0.280658  	4.000000	0.000174052	
4.500000	0.401644  	4.500000	0.257627  	4.500000	0.260025  	4.500000	0.260025  	4.500000	0.257471  	4.500000	0.00015675	
5.000000	0.367819  	5.000000	0.238398  	5.000000	0.240545  	5.000000	0.240545  	5.000000	0.238255  	5.000000	0.000142716	
5.500000	0.339565  	5.500000	0.222178  	5.500000	0.224099  	5.500000	0.224099  	5.500000	0.222047  	5.500000	0.000131091	
6.000000	0.315592  	6.000000	0.208294  	6.000000	0.210012  	6.000000	0.210012  	6.000000	0.208172  	6.000000	0.000121295	
6.500000	0.294981  	6.500000	0.196259  	6.500000	0.197796  	6.500000	0.197796  	6.500000	0.196146  	6.500000	0.000112924	
7.000000	0.277061  	7.000000	0.185715  	7.000000	0.187089  	7.000000	0.187089  	7.000000	0.18561   	7.000000	0.000105682	
7.500000	0.26133   	7.500000	0.176392  	7.500000	0.17762   	7.500000	0.17762   	7.500000	0.176293  	7.500000	9.93524e-05	
8.000000	0.247404  	8.000000	0.168081  	8.000000	0.169178  	8.000000	0.169178  	8.000000	0.167987  	8.000000	9.37708e-05	
8.500000	0.234984  	8.500000	0.16062   	8.500000	0.161598  	8.500000	0.161598  	8.500000	0.160531  	8.500000	8.88101e-05	
9.000000	0.223836  	9.000000	0.153879  	9.000000	0.15475   	9.000000	0.15475   	9.000000	0.153795  	9.000000	8.43706e-05	
9.500000	0.213771  	9.500000	0.147755  	9.500000	0.148529  	9.500000	0.148529  	9.500000	0.147675  	9.500000	8.03731e-05	
10.000000	0.204636  	10.000000	0.142804  	10.000000	0.142848  	10.000000	0.142848  	10.000000	0.142727  	10.000000	7.67538e-05	
11.000000	0.188677  	11.000000	0.132831  	11.000000	0.132611  	11.000000	0.13262   	11.000000	0.132761  	11.000000	7.04506e-05	
12.000000	0.175193  	12.000000	0.124252  	12.000000	0.123854  	12.000000	0.123868  	12.000000	0.124187  	12.000000	6.51442e-05	
13.000000	0.163641  	13.000000	0.116791  	13.000000	0.116267  	13.000000	0.116283  	13.000000	0.11673   	13.000000	6.06124e-05	
14.000000	0.15363   	14.000000	0.110241  	14.000000	0.109621  	14.000000	0.109637  	14.000000	0.110185  	14.000000	5.6695e-05	
15.000000	0.144866  	15.000000	0.104444  	15.000000	0.103743  	15.000000	0.103758  	15.000000	0.10439   	15.000000	5.32734e-05	
16.000000	0.137126  	16.000000	0.099274  	16.000000	0.0985012 	16.000000	0.0985163 	16.000000	0.0992238 	16.000000	5.02578e-05	
17.000000	0.130239  	17.000000	0.0946346 	17.000000	0.093796  	17.000000	0.0938091 	17.000000	0.094587  	17.000000	4.75791e-05	
18.000000	0.124069  	18.000000	0.0904466 	18.000000	0.0895458 	18.000000	0.0895558 	18.000000	0.0904014 	18.000000	4.5183e-05	
19.000000	0.118508  	19.000000	0.0866465 	19.000000	0.0856841 	19.000000	0.0856913 	19.000000	0.0866034 	19.000000	4.30265e-05	
20.000000	0.113469  	20.000000	0.0831819 	20.000000	0.0821557 	20.000000	0.082163  	20.000000	0.0831409 	20.000000	4.10748e-05	
21.000000	0.108881  	21.000000	0.0800098 	21.000000	0.0789193 	21.000000	0.0789273 	21.000000	0.0799705 	21.000000	3.92997e-05	
22.000000	0.104684  	22.000000	0.0770942 	22.000000	0.0759422 	22.000000	0.0759482 	22.000000	0.0770565 	22.000000	3.7678e-05	
23.000000	0.10083   	23.000000	0.0744046 	23.000000	0.0731938 	23.000000	0.0731956 	23.000000	0.0743684 	23.000000	3.61903e-05	
24.000000	0.0972785 	24.000000	0.0719155 	24.000000	0.0706463 	24.000000	0.0706439 	24.000000	0.0718806 	24.000000	3.48204e-05	
25.000000	0.0939941 	25.000000	0.0696048 	25.000000	0.0682776 	25.000000	0.0682714 	25.000000	0.0695713 	25.000000	3.35547e-05	
27.000000	0.088113  	27.000000	0.0654465 	27.000000	0.0640078 	27.000000	0.0639921 	27.000000	0.0654152 	27.000000	3.1291e-05	
29.000000	0.0829972 	29.000000	0.0618075 	29.000000	0.0602569 	29.000000	0.0602374 	29.000000	0.0617782 	29.000000	2.93249e-05	
31.000000	0.0785044 	31.000000	0.0585951 	31.000000	0.0570576 	31.000000	0.057037  	31.000000	0.0585675 	31.000000	2.76004e-05	
33.000000	0.0745255 	33.000000	0.0557374 	33.000000	0.0543284 	33.000000	0.0543015 	33.000000	0.0557113 	33.000000	2.60751e-05	
35.000000	0.0709759 	35.000000	0.053178  	35.000000	0.0518747 	35.000000	0.0518492 	35.000000	0.0531533 	35.000000	2.4716e-05	
38.000000	0.0663135 	38.000000	0.0498023 	38.000000	0.0486403 	38.000000	0.0486106 	38.000000	0.0497794 	38.000000	2.29332e-05	
41.000000	0.0622962 	41.000000	0.0468813 	41.000000	0.0458342 	41.000000	0.0458039 	41.000000	0.0468599 	41.000000	2.13994e-05	
44.000000	0.0587967 	44.000000	0.0443278 	44.000000	0.0433734 	44.000000	0.0433465 	44.000000	0.0443077 	44.000000	2.00653e-05	
47.000000	0.0557195 	47.000000	0.0420757 	47.000000	0.0412065 	47.000000	0.041176  	47.000000	0.0420568 	47.000000	1.88938e-05	
50.000000	0.0529911 	50.000000	0.040074  	50.000000	0.0392747 	50.000000	0.0392439 	50.000000	0.0400561 	50.000000	1.78565e-05	
55.000000	0.0490695 	55.000000	0.0371892 	55.000000	0.0364879 	55.000000	0.0364544 	55.000000	0.0371728 	55.000000	1.63681e-05	
60.000000	0.0457661 	60.000000	0.034753  	60.000000	0.0341242 	60.000000	0.0340934 	60.000000	0.0347379 	60.000000	1.5117e-05	
65.000000	0.0429432 	65.000000	0.0326672 	65.000000	0.0320995 	65.000000	0.0320678 	65.000000	0.0326531 	65.000000	1.405e-05 	
70.000000	0.0405013 	70.000000	0.0308604 	70.000000	0.0303421 	70.000000	0.0303099 	70.000000	0.0308473 	70.000000	1.31288e-05	
75.000000	0.0383666 	75.000000	0.0292797 	75.000000	0.0287989 	75.000000	0.0287693 	75.000000	0.0292674 	75.000000	1.23252e-05	
80.000000	0.0364837 	80.000000	0.0278846 	80.000000	0.0274396 	80.000000	0.0274075 	80.000000	0.027873  	80.000000	1.16177e-05	
85.000000	0.0348096 	85.000000	0.026644  	85.000000	0.0262251 	85.000000	0.0261946 	85.000000	0.026633  	85.000000	1.09898e-05	
90.000000	0.0333107 	90.000000	0.0255332 	90.000000	0.0251364 	90.000000	0.0251072 	90.000000	0.0255228 	90.000000	1.04287e-05	
95.000000	0.0319604 	95.000000	0.0245327 	95.000000	0.0241579 	95.000000	0.0241267 	95.000000	0.0245228 	95.000000	9.92412e-06	
100.000000	0.030737  	100.000000	0.0236268 	100.000000	0.0232676 	100.000000	0.0232377 	100.000000	0.0236173 	100.000000	9.46784e-06	
105.000000	0.0296232 	105.000000	0.0228024 	105.000000	0.0224566 	105.000000	0.022428  	105.000000	0.0227933 	105.000000	9.05317e-06	
110.000000	0.0286045 	110.000000	0.0220489 	110.000000	0.0217145 	110.000000	0.0216872 	110.000000	0.0220403 	110.000000	8.67458e-06	
115.000000	0.0276689 	115.000000	0.0213576 	115.000000	0.0210351 	115.000000	0.0210069 	115.000000	0.0213493 	115.000000	8.32752e-06	
120.000000	0.0268065 	120.000000	0.0207209 	120.000000	0.0204087 	120.000000	0.0203799 	120.000000	0.0207129 	120.000000	8.00815e-06	
125.000000	0.0260088 	125.000000	0.0201326 	125.000000	0.0198274 	125.000000	0.0198001 	125.000000	0.0201248 	125.000000	7.71324e-06	
130.000000	0.0252686 	130.000000	0.0195872 	130.000000	0.0192889 	130.000000	0.0192624 	130.000000	0.0195798 	130.000000	7.44006e-06	
135.000000	0.0245798 	135.000000	0.0190804 	135.000000	0.0187899 	135.000000	0.0187622 	135.000000	0.0190732 	135.000000	7.18627e-06	
140.000000	0.023937  	140.000000	0.0186079 	140.000000	0.0183237 	140.000000	0.0182959 	140.000000	0.018601  	140.000000	6.94984e-06	
145.000000	0.0233356 	145.000000	0.0181666 	145.000000	0.0178867 	145.000000	0.0178599 	145.000000	0.0181599 	145.000000	6.72903e-06	
150.000000	0.0227718 	150.000000	0.0177533 	150.000000	0.0174777 	150.000000	0.0174516 	150.000000	0.0177468 	150.000000	6.52232e-06	
155.000000	0.0219822 	155.000000	0.0173655 	155.000000	0.0170935 	155.000000	0.0170682 	155.000000	0.0173592 	155.000000	6.32839e-06	
160.000000	0.0215169 	160.000000	0.0170009 	160.000000	0.0167327 	160.000000	0.0167077 	160.000000	0.0169947 	160.000000	6.14608e-06	
165.000000	0.0210783 	165.000000	0.0166574 	165.000000	0.0163939 	165.000000	0.0163679 	165.000000	0.0166514 	165.000000	5.97435e-06	
170.000000	0.020664  	170.000000	0.0163332 	170.000000	0.0160733 	170.000000	0.0160472 	170.000000	0.0163274 	170.000000	5.8123e-06	
175.000000	0.0202722 	175.000000	0.0160269 	175.000000	0.0157693 	175.000000	0.0157441 	175.000000	0.0160212 	175.000000	5.65913e-06	
180.000000	0.0199011 	180.000000	0.0157368 	180.000000	0.0154817 	180.000000	0.015457  	180.000000	0.0157313 	180.000000	5.51412e-06	
185.000000	0.0195489 	185.000000	0.0154618 	185.000000	0.0152089 	185.000000	0.0151847 	185.000000	0.0154564 	185.000000	5.37662e-06	
190.000000	0.0192143 	190.000000	0.0152007 	190.000000	0.0149498 	190.000000	0.0149263 	190.000000	0.0151955 	190.000000	5.24605e-06	
195.000000	0.018896  	195.000000	0.0149525 	195.000000	0.0147041 	195.000000	0.0146805 	195.000000	0.0149474 	195.000000	5.12191e-06	
200.000000	0.0185927 	200.000000	0.0147163 	200.000000	0.0144709 	200.000000	0.0144466 	200.000000	0.0147113 	200.000000	5.00372e-06	
210.000000	0.0180274 	210.000000	0.0142763 	210.000000	0.0140349 	210.000000	0.014011  	210.000000	0.0142716 	210.000000	4.78353e-06	
220.000000	0.017511  	220.000000	0.0138751 	220.000000	0.0136367 	220.000000	0.0136136 	220.000000	0.0138705 	220.000000	4.58256e-06	
230.000000	0.0170373 	230.000000	0.0135076 	230.000000	0.0132719 	230.000000	0.0132498 	230.000000	0.0135032 	230.000000	4.39836e-06	
240.000000	0.0166012 	240.000000	0.0131698 	240.000000	0.0129382 	240.000000	0.0129154 	240.000000	0.0131656 	240.000000	4.2289e-06	
250.000000	0.0161984 	250.000000	0.0128583 	250.000000	0.0126299 	250.000000	0.0126071 	250.000000	0.0128542 	250.000000	4.07246e-06	
260.000000	0.0158251 	260.000000	0.0125702 	260.000000	0.0123441 	260.000000	0.0123221 	260.000000	0.0125662 	260.000000	3.92757e-06	
270.000000	0.0154783 	270.000000	0.0123028 	270.000000	0.0120791 	270.000000	0.0120577 	270.000000	0.012299  	270.000000	3.79298e-06	
280.000000	0.0151553 	280.000000	0.0120542 	280.000000	0.0118328 	280.000000	0.0118119 	280.000000	0.0120505 	280.000000	3.66763e-06	
290.000000	0.0148536 	290.000000	0.0118223 	290.000000	0.0116043 	290.000000	0.0115828 	290.000000	0.0118188 	290.000000	3.55058e-06	
300.000000	0.0145712 	300.000000	0.0116057 	300.000000	0.0113904 	300.000000	0.0113688 	300.000000	0.0116022 	300.000000	3.44102e-06	
310.000000	0.0143063 	310.000000	0.0114028 	310.000000	0.0111896 	310.000000	0.0111686 	310.000000	0.0113995 	310.000000	3.33826e-06	
320.000000	0.0140574 	320.000000	0.0112124 	320.000000	0.0110014 	320.000000	0.0109808 	320.000000	0.0112092 	320.000000	3.24166e-06	
330.000000	0.0138231 	330.000000	0.0110334 	330.000000	0.0108244 	330.000000	0.0108043 	330.000000	0.0110303 	330.000000	3.15069e-06	
340.000000	0.0136021 	340.000000	0.0108649 	340.000000	0.0106582 	340.000000	0.0106383 	340.000000	0.0108618 	340.000000	3.06485e-06	
350.000000	0.0133933 	350.000000	0.010706  	350.000000	0.0105021 	350.000000	0.0104818 	350.000000	0.010703  	350.000000	2.98373e-06	
360.000000	0.0131958 	360.000000	0.0105558 	360.000000	0.0103545 	360.000000	0.010334  	360.000000	0.0105529 	360.000000	2.90694e-06	
370.000000	0.0130087 	370.000000	0.0104137 	370.000000	0.0102145 	370.000000	0.0101943 	370.000000	0.0104109 	370.000000	2.83414e-06	
380.000000	0.0128313 	380.000000	0.0102792 	380.000000	0.0100819 	380.000000	0.0100621 	380.000000	0.0102764 	380.000000	2.76502e-06	
390.000000	0.0126627 	390.000000	0.0101515 	390.000000	0.00995628	390.000000	0.0099368 	390.000000	0.0101488 	390.000000	2.69931e-06	
400.000000	0.0125023 	400.000000	0.0100303 	400.000000	0.00983696	400.000000	0.00981788	400.000000	0.0100277 	400.000000	2.63675e-06	
410.000000	0.0123497 	410.000000	0.00991509	410.000000	0.00972379	410.000000	0.00970489	410.000000	0.00991251	410.000000	2.57713e-06	
420.000000	0.0122042 	420.000000	0.0098054 	420.000000	0.00961662	420.000000	0.00959744	420.000000	0.00980288	420.000000	2.52024e-06	
430.000000	0.0120654 	430.000000	0.0097009 	430.000000	0.00951465	430.000000	0.00949514	430.000000	0.00969844	430.000000	2.46589e-06	
440.000000	0.0119329 	440.000000	0.00960124	440.000000	0.00941708	440.000000	0.00939765	440.000000	0.00959882	440.000000	2.41391e-06	
450.000000	0.0118062 	450.000000	0.0095061 	450.000000	0.00932376	450.000000	0.00930465	450.000000	0.00950374	450.000000	2.36416e-06	
460.000000	0.011685  	460.000000	0.0094152 	460.000000	0.00923471	460.000000	0.00921586	460.000000	0.00941289	460.000000	2.31648e-06	
470.000000	0.011569  	470.000000	0.00932828	470.000000	0.00914968	470.000000	0.00913102	470.000000	0.00932601	470.000000	2.27076e-06	
480.000000	0.0114578 	480.000000	0.00924509	480.000000	0.0090683 	480.000000	0.00904989	480.000000	0.00924287	480.000000	2.22686e-06	
490.000000	0.0113512 	490.000000	0.00916542	490.000000	0.00899037	490.000000	0.00897223	490.000000	0.00916324	490.000000	2.18469e-06	
500.000000	0.0112488 	500.000000	0.00908906	500.000000	0.00891587	500.000000	0.00889786	500.000000	0.00908691	500.000000	2.14415e-06	
520.000000	0.0110562 	520.000000	0.00894551	520.000000	0.00877665	520.000000	0.0087582 	520.000000	0.00894344	520.000000	2.06755e-06	
540.000000	0.010878  	540.000000	0.00881311	540.000000	0.00864805	540.000000	0.00862955	540.000000	0.00881111	540.000000	1.99641e-06	
560.000000	0.0107129 	560.000000	0.00869069	560.000000	0.00852882	560.000000	0.00851076	560.000000	0.00868876	560.000000	1.93017e-06	
580.000000	0.0105596 	580.000000	0.00857725	580.000000	0.0084186 	580.000000	0.00840082	580.000000	0.00857539	580.000000	1.86832e-06	
600.000000	0.010417  	600.000000	0.00847192	600.000000	0.00831626	600.000000	0.00829884	600.000000	0.00847011	600.000000	1.81044e-06	
620.000000	0.010284  	620.000000	0.00837393	620.000000	0.00822128	620.000000	0.00820406	620.000000	0.00837218	620.000000	1.75616e-06	
640.000000	0.0101598 	640.000000	0.00828261	640.000000	0.00813333	640.000000	0.00811582	640.000000	0.00828091	640.000000	1.70514e-06	
660.000000	0.0100437 	660.000000	0.00819738	660.000000	0.00805126	660.000000	0.00803352	660.000000	0.00819572	660.000000	1.6571e-06	
680.000000	0.00993498	680.000000	0.0081177 	680.000000	0.00797418	680.000000	0.00795664	680.000000	0.00811609	680.000000	1.61178e-06	
700.000000	0.009833  	700.000000	0.00804312	700.000000	0.00790196	700.000000	0.00788471	700.000000	0.00804155	700.000000	1.56895e-06	
720.000000	0.00973726	720.000000	0.00797322	720.000000	0.00783439	720.000000	0.00781732	720.000000	0.00797169	720.000000	1.52841e-06	
740.000000	0.00964727	740.000000	0.00790763	740.000000	0.00777097	740.000000	0.0077541 	740.000000	0.00790614	740.000000	1.48999e-06	
760.000000	0.00956261	760.000000	0.00784602	760.000000	0.00771133	760.000000	0.00769471	760.000000	0.00784457	760.000000	1.45351e-06	
780.000000	0.00948289	780.000000	0.0077881 	780.000000	0.00765534	780.000000	0.00763886	780.000000	0.00778668	780.000000	1.41883e-06	
800.000000	0.00940775	800.000000	0.00773358	800.000000	0.00760288	800.000000	0.00758628	800.000000	0.0077322 	800.000000	1.38583e-06	
820.000000	0.00933688	820.000000	0.00768223	820.000000	0.00755381	820.000000	0.00753698	820.000000	0.00768088	820.000000	1.35437e-06	
840.000000	0.00926999	840.000000	0.00763384	840.000000	0.00750858	840.000000	0.00749162	840.000000	0.00763251	840.000000	1.32436e-06	
860.000000	0.00920682	860.000000	0.00758818	860.000000	0.00746568	860.000000	0.00744881	860.000000	0.00758689	860.000000	1.29569e-06	
880.000000	0.00914712	880.000000	0.0075451 	880.000000	0.00742505	880.000000	0.00740836	880.000000	0.00754383	880.000000	1.26827e-06	
900.000000	0.00909068	900.000000	0.00750441	900.000000	0.00738662	900.000000	0.00737012	900.000000	0.00750316	900.000000	1.24203e-06	
920.000000	0.00903729	920.000000	0.00746596	920.000000	0.0073503 	920.000000	0.00733393	920.000000	0.00746474	920.000000	1.21689e-06	
940.000000	0.00898678	940.000000	0.00742962	940.000000	0.00731594	940.000000	0.00729968	940.000000	0.00742842	940.000000	1.19278e-06	
960.000000	0.00893897	960.000000	0.00739525	960.000000	0.00728339	960.000000	0.00726722	960.000000	0.00739408	960.000000	1.16964e-06	
980.000000	0.00889371	980.000000	0.00736274	980.000000	0.00725253	980.000000	0.00723645	980.000000	0.00736159	980.000000	1.14741e-06	
1000.000000	0.00885084	1000.000000	0.00733198	1000.000000	0.00722326	1000.000000	0.00720727	1000.000000	0.00733086	1000.000000	1.12603e-06	
1020.000000	0.00881025	1020.000000	0.00730287	1020.000000	0.00719545	1020.000000	0.00717958	1020.000000	0.00730176	1020.000000	1.10546e-06	
1040.000000	0.0087718 	1040.000000	0.00727531	1040.000000	0.00716902	1040.000000	0.00715328	1040.000000	0.00727423	1040.000000	1.08566e-06	
1060.000000	0.00873539	1060.000000	0.00724922	1060.000000	0.00714391	1060.000000	0.0071283 	1060.000000	0.00724816	1060.000000	1.06657e-06	
1080.000000	0.00870089	1080.000000	0.00722452	1080.000000	0.00712007	1080.000000	0.00710457	1080.000000	0.00722348	1080.000000	1.04817e-06	
1100.000000	0.00866823	1100.000000	0.00720114	1100.000000	0.00709745	1100.000000	0.007082  	1100.000000	0.00720011	1100.000000	1.03041e-06	
1120.000000	0.0086373 	1120.000000	0.007179  	1120.000000	0.00707602	1120.000000	0.00706054	1120.000000	0.00717799	1120.000000	1.01326e-06	
1140.000000	0.00860801	1140.000000	0.00715804	1140.000000	0.00705569	1140.000000	0.00704012	1140.000000	0.00715704	1140.000000	9.96694e-07	
1160.000000	0.0085803 	1160.000000	0.0071382 	1160.000000	0.00703638	1160.000000	0.00702069	1160.000000	0.00713722	1160.000000	9.80677e-07	
1180.000000	0.00855407	1180.000000	0.00711943	1180.000000	0.00701799	1180.000000	0.00700219	1180.000000	0.00711847	1180.000000	9.65183e-07	
1200.000000	0.00852927	1200.000000	0.00710168	1200.000000	0.00700044	1200.000000	0.00698458	1200.000000	0.00710073	1200.000000	9.50187e-07	
1220.000000	0.00850583	1220.000000	0.00708488	1220.000000	0.00698367	1220.000000	0.0069678 	1220.000000	0.00708395	1220.000000	9.35665e-07	
1240.000000	0.00848369	1240.000000	0.00706901	1240.000000	0.00696765	1240.000000	0.00695182	1240.000000	0.00706809	1240.000000	9.21594e-07	
1260.000000	0.00846278	1260.000000	0.00705401	1260.000000	0.00695235	1260.000000	0.00693659	1260.000000	0.0070531 	1260.000000	9.07954e-07	
1280.000000	0.00844305	1280.000000	0.00703984	1280.000000	0.00693776	1280.000000	0.00692208	1280.000000	0.00703895	1280.000000	8.94725e-07	
1300.000000	0.00842446	1300.000000	0.00702648	1300.000000	0.00692384	1300.000000	0.00690826	1300.000000	0.0070256 	1300.000000	8.81889e-07	
1320.000000	0.00840695	1320.000000	0.00701387	1320.000000	0.00691059	1320.000000	0.00689508	1320.000000	0.007013  	1320.000000	8.69427e-07	
1340.000000	0.00839048	1340.000000	0.007002  	1340.000000	0.00689796	1340.000000	0.00688251	1340.000000	0.00700114	1340.000000	8.57324e-07	
1360.000000	0.00837501	1360.000000	0.00699082	1360.000000	0.00688593	1360.000000	0.00687053	1360.000000	0.00698997	1360.000000	8.45565e-07	
1380.000000	0.0083605 	1380.000000	0.0069803 	1380.000000	0.00687447	1380.000000	0.00685911	1380.000000	0.00697947	1380.000000	8.34133e-07	
1400.000000	0.0083469 	1400.000000	0.00697043	1400.000000	0.00686354	1400.000000	0.00684823	1400.000000	0.00696961	1400.000000	8.23017e-07	
1420.000000	0.00833418	1420.000000	0.00696117	1420.000000	0.00685311	1420.000000	0.00683785	1420.000000	0.00696036	1420.000000	8.12203e-07	
1440.000000	0.00832231	1440.000000	0.00695249	1440.000000	0.00684316	1440.000000	0.00682796	1440.000000	0.00695169	1440.000000	8.01679e-07	
1460.000000	0.00831126	1460.000000	0.00694438	1460.000000	0.00683367	1460.000000	0.00681853	1460.000000	0.00694359	1460.000000	7.91432e-07	
1480.000000	0.00830099	1480.000000	0.00693681	1480.000000	0.00682462	1480.000000	0.00680954	1480.000000	0.00693603	1480.000000	7.81453e-07	
1500.000000	0.00829148	1500.000000	0.00692976	1500.000000	0.00681599	1500.000000	0.00680097	1500.000000	0.00692899	1500.000000	7.7173e-07	
1520.000000	0.00828269	1520.000000	0.00692321	1520.000000	0.00680777	1520.000000	0.00679281	1520.000000	0.00692244	1520.000000	7.62254e-07	
1540.000000	0.0082746 	1540.000000	0.00691713	1540.000000	0.00679995	1540.000000	0.00678504	1540.000000	0.00691638	1540.000000	7.53015e-07	
1560.000000	0.00826719	1560.000000	0.00691152	1560.000000	0.00679251	1560.000000	0.00677763	1560.000000	0.00691078	1560.000000	7.44005e-07	
1580.000000	0.00826044	1580.000000	0.00690636	1580.000000	0.00678544	1580.000000	0.00677058	1580.000000	0.00690562	1580.000000	7.35215e-07	
1600.000000	0.00825431	1600.000000	0.00690162	1600.000000	0.00677873	1600.000000	0.00676387	1600.000000	0.00690089	1600.000000	7.26637e-07	
1620.000000	0.00824879	1620.000000	0.00689729	1620.000000	0.00677236	1620.000000	0.00675748	1620.000000	0.00689657	1620.000000	7.18263e-07	
1640.000000	0.00824386	1640.000000	0.00689336	1640.000000	0.00676632	1640.000000	0.0067514 	1640.000000	0.00689265	1640.000000	7.10086e-07	
1660.000000	0.0082395 	1660.000000	0.00688982	1660.000000	0.00676059	1660.000000	0.00674562	1660.000000	0.00688912	1660.000000	7.02099e-07	
1680.000000	0.00823569	1680.000000	0.00688664	1680.000000	0.00675515	1680.000000	0.00674013	1680.000000	0.00688595	1680.000000	6.94296e-07	
1700.000000	0.00823241	1700.000000	0.00688383	1700.000000	0.00674998	1700.000000	0.00673491	1700.000000	0.00688314	1700.000000	6.8667e-07	
1750.000000	0.00822643	1750.000000	0.00687826	1750.000000	0.00673818	1750.000000	0.006723  	1750.000000	0.00687759	1750.000000	6.6834e-07	
1800.000000	0.00822342	1800.000000	0.00687467	1800.000000	0.00672782	1800.000000	0.00671257	1800.000000	0.00687402	1800.000000	6.50993e-07	
1850.000000	0.00822316	1850.000000	0.0068729 	1850.000000	0.00671873	1850.000000	0.00670349	1850.000000	0.00687226	1850.000000	6.34552e-07	
1900.000000	0.00822545	1900.000000	0.0068728 	1900.000000	0.00671081	1900.000000	0.00669564	1900.000000	0.00687218	1900.000000	6.18946e-07	
1950.000000	0.00823012	1950.000000	0.00687425	1950.000000	0.00670399	1950.000000	0.00668889	1950.000000	0.00687365	1950.000000	6.04112e-07	
2000.000000	0.00823701	2000.000000	0.00687713	2000.000000	0.00669817	2000.000000	0.00668316	2000.000000	0.00687654	2000.000000	5.89995e-07	
2100.000000	0.00825684	2100.000000	0.00688678	2100.000000	0.00668924	2100.000000	0.00667438	2100.000000	0.00688622	2100.000000	5.63709e-07	
2200.000000	0.00828394	2200.000000	0.00690103	2200.000000	0.00668344	2200.000000	0.00666868	2200.000000	0.00690049	2200.000000	5.39732e-07	
2300.000000	0.00831746	2300.000000	0.00691927	2300.000000	0.00668024	2300.000000	0.00666555	2300.000000	0.00691875	2300.000000	5.1777e-07	
2400.000000	0.00835668	2400.000000	0.006941  	2400.000000	0.00667921	2400.000000	0.0066646 	2400.000000	0.0069405 	2400.000000	4.97576e-07	
2500.000000	0.00840099	2500.000000	0.00696581	2500.000000	0.00668   	2500.000000	0.00666547	2500.000000	0.00696533	2500.000000	4.78944e-07	
2600.000000	0.0084499 	2600.000000	0.00699333	2600.000000	0.00668235	2600.000000	0.00666789	2600.000000	0.00699287	2600.000000	4.61698e-07	
2700.000000	0.00850295	2700.000000	0.00702326	2700.000000	0.00668602	2700.000000	0.00667163	2700.000000	0.00702281	2700.000000	4.45686e-07	
2800.000000	0.00855978	2800.000000	0.00705534	2800.000000	0.00669082	2800.000000	0.00667647	2800.000000	0.00705491	2800.000000	4.3078e-07	
2900.000000	0.00862004	2900.000000	0.00708935	2900.000000	0.00669658	2900.000000	0.00668226	2900.000000	0.00708893	2900.000000	4.16867e-07	
3000.000000	0.00868346	3000.000000	0.00712508	3000.000000	0.00670316	3000.000000	0.00668886	3000.000000	0.00712467	3000.000000	4.03851e-07	
3200.000000	0.00881879	3200.000000	0.00720106	3200.000000	0.00671829	3200.000000	0.006704  	3200.000000	0.00720068	3200.000000	3.80181e-07	
3400.000000	0.0089641 	3400.000000	0.00728217	3400.000000	0.00673541	3400.000000	0.00672111	3400.000000	0.00728181	3400.000000	3.59205e-07	
3600.000000	0.00911809	3600.000000	0.0073675 	3600.000000	0.00675393	3600.000000	0.00673964	3600.000000	0.00736716	3600.000000	3.40485e-07	
3800.000000	0.0092797 	3800.000000	0.00745639	3800.000000	0.00677342	3800.000000	0.00675915	3800.000000	0.00745606	3800.000000	3.23673e-07	
4000.000000	0.00944809	4000.000000	0.00754825	4000.000000	0.00679356	4000.000000	0.00677932	4000.000000	0.00754794	4000.000000	3.08487e-07	
4200.000000	0.00962258	4200.000000	0.00764265	4200.000000	0.00681412	4200.000000	0.00679992	4200.000000	0.00764236	4200.000000	2.94702e-07	
4400.000000	0.00980261	4400.000000	0.00773922	4400.000000	0.00683492	4400.000000	0.00682075	4400.000000	0.00773894	4400.000000	2.82129e-07	
4600.000000	0.0099877 	4600.000000	0.00783766	4600.000000	0.00685581	4600.000000	0.00684168	4600.000000	0.00783739	4600.000000	2.70615e-07	
4800.000000	0.0101775 	4800.000000	0.0079377 	4800.000000	0.00687669	4800.000000	0.0068626 	4800.000000	0.00793744	4800.000000	2.6003e-07	
5000.000000	0.0103715 	5000.000000	0.00803914	5000.000000	0.00689749	5000.000000	0.00688342	5000.000000	0.00803889	5000.000000	2.50264e-07	
5250.000000	0.0106198 	5250.000000	0.00816765	5250.000000	0.00692326	5250.000000	0.00690922	5250.000000	0.00816741	5250.000000	2.3907e-07	
5500.000000	0.010874  	5500.000000	0.00829777	5500.000000	0.00694869	5500.000000	0.00693469	5500.000000	0.00829754	5500.000000	2.28862e-07	
6000.000000	0.0113984 	6000.000000	0.00856195	6000.000000	0.00699834	6000.000000	0.00698437	6000.000000	0.00856174	6000.000000	2.10919e-07	
6500.000000	0.0119423 	6500.000000	0.00883022	6500.000000	0.00704613	6500.000000	0.0070322 	6500.000000	0.00883002	6500.000000	1.95653e-07	
7000.000000	0.012504  	7000.000000	0.00910152	7000.000000	0.00709195	7000.000000	0.00707804	7000.000000	0.00910134	7000.000000	1.82502e-07	
7500.000000	0.0130822 	7500.000000	0.00937511	7500.000000	0.00713579	7500.000000	0.00712191	7500.000000	0.00937494	7500.000000	1.71051e-07	
8000.000000	0.0136759 	8000.000000	0.00965042	8000.000000	0.00717775	8000.000000	0.00716386	8000.000000	0.00965026	8000.000000	1.60988e-07	
8500.000000	0.0142844 	8500.000000	0.00992705	8500.000000	0.00721779	8500.000000	0.00720396	8500.000000	0.0099269 	8500.000000	1.52074e-07	
9000.000000	0.014907  	9000.000000	0.0102047 	9000.000000	0.00725601	9000.000000	0.00724232	9000.000000	0.0102045 	9000.000000	1.4412e-07	
9500.000000	0.0155433 	9500.000000	0.010483  	9500.000000	0.00729261	9500.000000	0.00727904	9500.000000	0.0104829 	9500.000000	1.36977e-07	
10000.000000	0.0161929 	10000.000000	0.0107619 	10000.000000	0.00732775	10000.000000	0.00731421	10000.000000	0.0107618 	10000.000000	1.30528e-07	
11000.000000	0.0175309 	11000.000000	0.0113208 	11000.000000	0.00739386	11000.000000	0.00738031	11000.000000	0.0113207 	11000.000000	1.19336e-07	
12000.000000	0.018919  	12000.000000	0.0118805 	12000.000000	0.00745486	12000.000000	0.00744133	12000.000000	0.0118803 	12000.000000	1.09956e-07	
13000.000000	0.020356  	13000.000000	0.0124403 	13000.000000	0.00751128	13000.000000	0.0074979 	13000.000000	0.0124402 	13000.000000	1.01977e-07	
14000.000000	0.0218411 	14000.000000	0.0129998 	14000.000000	0.00756364	14000.000000	0.00755056	14000.000000	0.0129997 	14000.000000	9.51051e-08	
15000.000000	0.0233734 	15000.000000	0.0135589 	15000.000000	0.00761249	15000.000000	0.00759974	15000.000000	0.0135589 	15000.000000	8.91228e-08	
16000.000000	0.0249527 	16000.000000	0.0141174 	16000.000000	0.00765831	16000.000000	0.00764585	16000.000000	0.0141173 	16000.000000	8.38666e-08	
17000.000000	0.0265786 	17000.000000	0.0146751 	17000.000000	0.00770148	17000.000000	0.00768921	17000.000000	0.0146751 	17000.000000	7.92109e-08	
18000.000000	0.0282508 	18000.000000	0.015232  	18000.000000	0.00774227	18000.000000	0.00773011	18000.000000	0.015232  	18000.000000	7.50575e-08	
19000.000000	0.0299692 	19000.000000	0.0157881 	19000.000000	0.00778091	19000.000000	0.00776879	19000.000000	0.015788  	19000.000000	7.13286e-08	
20000.000000	0.0317337 	20000.000000	0.0163432 	20000.000000	0.00781761	20000.000000	0.00780546	20000.000000	0.0163431 	20000.000000	6.79618e-08	
21000.000000	0.0335442 	21000.000000	0.0168974 	21000.000000	0.00785245	21000.000000	0.00784031	21000.000000	0.0168973 	21000.000000	6.49064e-08	
22000.000000	0.0354007 	22000.000000	0.0174507 	22000.000000	0.00788541	22000.000000	0.00787349	22000.000000	0.0174506 	22000.000000	6.21207e-08	
23000.000000	0.0373033 	23000.000000	0.0180031 	23000.000000	0.00791662	23000.000000	0.00790516	23000.000000	0.018003  	23000.000000	5.95703e-08	
24000.000000	0.0392519 	24000.000000	0.0185546 	24000.000000	0.00794659	24000.000000	0.00793544	24000.000000	0.0185545 	24000.000000	5.72262e-08	
25000.000000	0.0412467 	25000.000000	0.0191051 	25000.000000	0.00797561	25000.000000	0.00796443	25000.000000	0.0191051 	25000.000000	5.50643e-08	
26000.000000	0.0432877 	26000.000000	0.0196548 	26000.000000	0.00800337	26000.000000	0.00799223	26000.000000	0.0196548 	26000.000000	5.30639e-08	
27000.000000	0.045375  	27000.000000	0.0202037 	27000.000000	0.00802974	27000.000000	0.00801894	27000.000000	0.0202036 	27000.000000	5.12074e-08	
28000.000000	0.0475087 	28000.000000	0.0207516 	28000.000000	0.008055  	28000.000000	0.00804462	28000.000000	0.0207516 	28000.000000	4.94796e-08	
29000.000000	0.0496889 	29000.000000	0.0212988 	29000.000000	0.00807937	29000.000000	0.00806937	29000.000000	0.0212987 	29000.000000	4.78676e-08	
30000.000000	0.0519158 	30000.000000	0.0218451 	30000.000000	0.00810294	30000.000000	0.00809322	30000.000000	0.0218451 	30000.000000	4.636e-08 	
32000.000000	0.05651   	32000.000000	0.0229354 	32000.000000	0.00814769	32000.000000	0.00813851	32000.000000	0.0229353 	32000.000000	4.36195e-08	
34000.000000	0.0612923 	34000.000000	0.0240226 	34000.000000	0.00818946	34000.000000	0.00818089	34000.000000	0.0240225 	34000.000000	4.11925e-08	
36000.000000	0.0662642 	36000.000000	0.0251069 	36000.000000	0.00822863	36000.000000	0.00822071	36000.000000	0.0251068 	36000.000000	3.90276e-08	
38000.000000	0.0714267 	38000.000000	0.0261884 	38000.000000	0.00826554	38000.000000	0.00825823	38000.000000	0.0261883 	38000.000000	3.70843e-08	
40000.000000	0.0767814 	40000.000000	0.0272672 	40000.000000	0.0083004 	40000.000000	0.00829371	40000.000000	0.0272671 	40000.000000	3.53299e-08	
42000.000000	0.0823296 	42000.000000	0.0283434 	42000.000000	0.00833335	42000.000000	0.00832733	42000.000000	0.0283434 	42000.000000	3.37379e-08	
44000.000000	0.0880727 	44000.000000	0.0294172 	44000.000000	0.00836457	44000.000000	0.00835929	44000.000000	0.0294172 	44000.000000	3.22867e-08	
46000.000000	0.0940123 	46000.000000	0.0304887 	46000.000000	0.00839422	46000.000000	0.00838973	46000.000000	0.0304886 	46000.000000	3.09582e-08	
48000.000000	0.10015   	48000.000000	0.0315578 	48000.000000	0.00842244	48000.000000	0.00841879	48000.000000	0.0315578 	48000.000000	2.97373e-08	
50000.000000	0.106487  	50000.000000	0.0326248 	50000.000000	0.00844933	50000.000000	0.00844657	50000.000000	0.0326248 	50000.000000	2.86113e-08	
