Energy (MeV/u)1	0 - [He-base] F.Hubert et al, AD&ND Tables 46(1990)1	Energy (MeV/u)2	1 - [H -base] J.F.Ziegler et al, Pergamon Press, NY (low energy)	Energy (MeV/u)3	2 - ATIMA 1.2  LS-theory (recommended for high energy)	Energy (MeV/u)4	3 - ATIMA 1.2  without LS-correction	Energy (MeV/u)5	4 - electrical component of [1] - J.F.Ziegler et al	Energy (MeV/u)6	5 - nuclear component of [1] - J.F.Ziegler et al	
0.001000	0.441633  	0.001000	0.441633  	0.001000	0.363259  	0.001000	0.363259  	0.001000	0.30196   	0.001000	0.139673  	
0.002000	0.557839  	0.002000	0.557839  	0.002000	0.455788  	0.002000	0.455788  	0.002000	0.418248  	0.002000	0.139591  	
0.005000	0.765244  	0.005000	0.765244  	0.005000	0.621816  	0.005000	0.621816  	0.005000	0.643377  	0.005000	0.121867  	
0.008000	0.908919  	0.008000	0.908919  	0.008000	0.738889  	0.008000	0.738889  	0.008000	0.80242   	0.008000	0.106499  	
0.010000	0.989528  	0.010000	0.989528  	0.010000	0.805414  	0.010000	0.805414  	0.010000	0.891147  	0.010000	0.0983813 	
0.015000	1.16141   	0.015000	1.16141   	0.015000	0.949112  	0.015000	0.949112  	0.015000	1.07823   	0.015000	0.0831781 	
0.020000	1.30691   	0.020000	1.30691   	0.020000	1.07246   	0.020000	1.07246   	0.020000	1.23434   	0.020000	0.0725711 	
0.025000	1.46009   	0.025000	1.46009   	0.025000	1.19635   	0.025000	1.19635   	0.025000	1.3954    	0.025000	0.0646964 	
0.030000	1.63821   	0.030000	1.63821   	0.030000	1.44447   	0.030000	1.44447   	0.030000	1.57963   	0.030000	0.058582  	
0.035000	1.80983   	0.035000	1.80983   	0.035000	1.62148   	0.035000	1.62148   	0.035000	1.75616   	0.035000	0.0536739 	
0.040000	1.96744   	0.040000	1.96744   	0.040000	1.75694   	0.040000	1.75694   	0.040000	1.91781   	0.040000	0.0496324 	
0.045000	2.05996   	0.045000	2.05996   	0.045000	1.87315   	0.045000	1.87315   	0.045000	2.01372   	0.045000	0.0462369 	
0.050000	2.13586   	0.050000	2.13586   	0.050000	1.97978   	0.050000	1.97978   	0.050000	2.09253   	0.050000	0.043337  	
0.055000	2.20646   	0.055000	2.20646   	0.055000	2.08016   	0.055000	2.08016   	0.055000	2.16563   	0.055000	0.0408269 	
0.060000	2.27224   	0.060000	2.27224   	0.060000	2.17525   	0.060000	2.17525   	0.060000	2.23361   	0.060000	0.0386295 	
0.070000	2.39112   	0.070000	2.39112   	0.070000	2.35035   	0.070000	2.35035   	0.070000	2.35617   	0.070000	0.0349557 	
0.080000	2.49963   	0.080000	2.49963   	0.080000	2.50574   	0.080000	2.50574   	0.080000	2.46763   	0.080000	0.0319967 	
0.090000	2.62543   	0.090000	2.62543   	0.090000	2.64243   	0.090000	2.64243   	0.090000	2.59587   	0.090000	0.0295548 	
0.100000	2.73446   	0.100000	2.73446   	0.100000	2.76195   	0.100000	2.76195   	0.100000	2.70696   	0.100000	0.0275003 	
0.120000	2.91066   	0.120000	2.91066   	0.120000	2.95643   	0.120000	2.95643   	0.120000	2.88643   	0.120000	0.0242237 	
0.140000	3.04249   	0.140000	3.04249   	0.140000	3.10253   	0.140000	3.10253   	0.140000	3.02098   	0.140000	0.0215149 	
0.160000	3.14165   	0.160000	3.14165   	0.160000	3.21241   	0.160000	3.21241   	0.160000	3.1221    	0.160000	0.0195485 	
0.180000	3.21652   	0.180000	3.21652   	0.180000	3.29515   	0.180000	3.29515   	0.180000	3.19858   	0.180000	0.0179432 	
0.200000	3.2736    	0.200000	3.2736    	0.200000	3.3579    	0.200000	3.3579    	0.200000	3.257     	0.200000	0.0166052 	
0.250000	3.37192   	0.250000	3.37192   	0.250000	3.45867   	0.250000	3.45867   	0.250000	3.35786   	0.250000	0.0140573 	
0.300000	3.44882   	0.300000	3.44882   	0.300000	3.51418   	0.300000	3.51418   	0.300000	3.43658   	0.300000	0.0122409 	
0.350000	3.49447   	0.350000	3.49447   	0.350000	3.54666   	0.350000	3.54666   	0.350000	3.48359   	0.350000	0.0108737 	
0.400000	3.52196   	0.400000	3.52196   	0.400000	3.56594   	0.400000	3.56594   	0.400000	3.51215   	0.400000	0.00980364	
0.450000	3.55116   	0.450000	3.55116   	0.450000	3.58457   	0.450000	3.58457   	0.450000	3.54221   	0.450000	0.00894107	
0.500000	3.57046   	0.500000	3.57046   	0.500000	3.62166   	0.500000	3.62166   	0.500000	3.56223   	0.500000	0.00822949	
0.600000	3.5962    	0.600000	3.5962    	0.600000	3.65916   	0.600000	3.65916   	0.600000	3.58908   	0.600000	0.00712112	
0.700000	3.59936   	0.700000	3.59936   	0.700000	3.66346   	0.700000	3.66346   	0.700000	3.59307   	0.700000	0.00629457	
0.800000	3.59123   	0.800000	3.59123   	0.800000	3.63283   	0.800000	3.63283   	0.800000	3.58557   	0.800000	0.00565234	
0.900000	3.56789   	0.900000	3.56789   	0.900000	3.59269   	0.900000	3.59269   	0.900000	3.56275   	0.900000	0.00513766	
1.000000	3.53418   	1.000000	3.53418   	1.000000	3.54636   	1.000000	3.54636   	1.000000	3.52946   	1.000000	0.00471516	
1.250000	3.42401   	1.250000	3.42401   	1.250000	3.41649   	1.250000	3.41649   	1.250000	3.42009   	1.250000	0.00392676	
1.500000	3.29784   	1.500000	3.29784   	1.500000	3.262     	1.500000	3.262     	1.500000	3.29446   	1.500000	0.00337759	
1.750000	3.16915   	1.750000	3.16915   	1.750000	3.12084   	1.750000	3.12084   	1.750000	3.16618   	1.750000	0.00297137	
2.000000	3.03558   	2.000000	3.03558   	2.000000	2.99122   	2.000000	2.99122   	2.000000	3.03292   	2.000000	0.00265779	
2.250000	2.91139   	2.250000	2.91139   	2.250000	2.87168   	2.250000	2.87168   	2.250000	2.90898   	2.250000	0.00240782	
2.500000	2.74317   	2.500000	2.79691   	2.500000	2.76119   	2.500000	2.76119   	2.500000	2.79471   	2.500000	0.00220354	
3.000000	2.5719    	3.000000	2.58422   	3.000000	2.56406   	3.000000	2.56406   	3.000000	2.58233   	3.000000	0.00188893	
3.500000	2.41483   	3.500000	2.40507   	3.500000	2.39402   	3.500000	2.39402   	3.500000	2.40341   	3.500000	0.00165723	
4.000000	2.27342   	4.000000	2.25422   	4.000000	2.24628   	4.000000	2.24628   	4.000000	2.25274   	4.000000	0.001479  	
4.500000	2.14679   	4.500000	2.12437   	4.500000	2.11692   	4.500000	2.11692   	4.500000	2.12303   	4.500000	0.00133734	
5.000000	2.03338   	5.000000	2.01063   	5.000000	2.00282   	5.000000	2.00282   	5.000000	2.00941   	5.000000	0.00122185	
5.500000	1.93156   	5.500000	1.91017   	5.500000	1.90146   	5.500000	1.90146   	5.500000	1.90904   	5.500000	0.00112579	
6.000000	1.83982   	6.000000	1.82069   	6.000000	1.81082   	6.000000	1.81082   	6.000000	1.81965   	6.000000	0.00104453	
6.500000	1.75684   	6.500000	1.74036   	6.500000	1.72928   	6.500000	1.72928   	6.500000	1.73938   	6.500000	0.000974852	
7.000000	1.68148   	7.000000	1.66774   	7.000000	1.65551   	7.000000	1.65551   	7.000000	1.66682   	7.000000	0.00091439	
7.500000	1.61277   	7.500000	1.60172   	7.500000	1.58844   	7.500000	1.58844   	7.500000	1.60086   	7.500000	0.000861399	
8.000000	1.54988   	8.000000	1.54141   	8.000000	1.52718   	8.000000	1.52718   	8.000000	1.54059   	8.000000	0.00081455	
8.500000	1.49212   	8.500000	1.48605   	8.500000	1.47099   	8.500000	1.47099   	8.500000	1.48528   	8.500000	0.000772813	
9.000000	1.43889   	9.000000	1.43505   	9.000000	1.41925   	9.000000	1.41925   	9.000000	1.43432   	9.000000	0.00073538	
9.500000	1.38967   	9.500000	1.38789   	9.500000	1.37144   	9.500000	1.37144   	9.500000	1.38719   	9.500000	0.000701606	
10.000000	1.34403   	10.000000	1.35304   	10.000000	1.32712   	10.000000	1.32712   	10.000000	1.35237   	10.000000	0.000670969	
11.000000	1.26204   	11.000000	1.28197   	11.000000	1.25224   	11.000000	1.25463   	11.000000	1.28136   	11.000000	0.000617477	
12.000000	1.19044   	12.000000	1.21721   	12.000000	1.18623   	12.000000	1.19025   	12.000000	1.21664   	12.000000	0.000572301	
13.000000	1.12735   	13.000000	1.15829   	13.000000	1.12762   	13.000000	1.13273   	13.000000	1.15776   	13.000000	0.000533612	
14.000000	1.07134   	14.000000	1.10466   	14.000000	1.07521   	14.000000	1.08105   	14.000000	1.10416   	14.000000	0.000500082	
15.000000	1.02125   	15.000000	1.05576   	15.000000	1.02804   	15.000000	1.03434   	15.000000	1.05529   	15.000000	0.000470727	
16.000000	0.976186  	16.000000	1.01107   	16.000000	0.985355  	16.000000	0.991926  	16.000000	1.01062   	16.000000	0.000444801	
17.000000	0.935408  	17.000000	0.970114  	17.000000	0.946529  	17.000000	0.95324   	17.000000	0.969693  	17.000000	0.000421725	
18.000000	0.898324  	18.000000	0.932484  	18.000000	0.911075  	18.000000	0.917808  	18.000000	0.932083  	18.000000	0.000401046	
19.000000	0.864445  	19.000000	0.897812  	19.000000	0.878559  	19.000000	0.885232  	19.000000	0.89743   	19.000000	0.000382404	
20.000000	0.833364  	20.000000	0.865779  	20.000000	0.848594  	20.000000	0.855177  	20.000000	0.865413  	20.000000	0.000365505	
21.000000	0.804743  	21.000000	0.836105  	21.000000	0.820734  	21.000000	0.827207  	21.000000	0.835755  	21.000000	0.000350113	
22.000000	0.778293  	22.000000	0.808547  	22.000000	0.794889  	22.000000	0.801229  	22.000000	0.808211  	22.000000	0.00033603	
23.000000	0.753773  	23.000000	0.782893  	23.000000	0.771029  	23.000000	0.777201  	23.000000	0.78257   	23.000000	0.000323094	
24.000000	0.730972  	24.000000	0.758956  	24.000000	0.748819  	24.000000	0.754781  	24.000000	0.758645  	24.000000	0.000311168	
25.000000	0.709713  	25.000000	0.736572  	25.000000	0.72809   	25.000000	0.733811  	25.000000	0.736272  	25.000000	0.000300136	
27.000000	0.671221  	27.000000	0.695902  	27.000000	0.690454  	27.000000	0.695686  	27.000000	0.695622  	27.000000	0.000280372	
29.000000	0.637282  	29.000000	0.659919  	29.000000	0.65715   	29.000000	0.661916  	29.000000	0.659656  	29.000000	0.000263171	
31.000000	0.607115  	31.000000	0.62786   	31.000000	0.626387  	31.000000	0.630518  	31.000000	0.627612  	31.000000	0.000248056	
33.000000	0.580111  	33.000000	0.599119  	33.000000	0.597831  	33.000000	0.601269  	33.000000	0.598885  	33.000000	0.000234663	
35.000000	0.555786  	35.000000	0.573206  	35.000000	0.572177  	35.000000	0.575013  	35.000000	0.572983  	35.000000	0.00022271	
38.000000	0.523489  	38.000000	0.538787  	38.000000	0.538231  	38.000000	0.540283  	38.000000	0.53858   	38.000000	0.000207002	
41.000000	0.495336  	41.000000	0.50879   	41.000000	0.508637  	41.000000	0.510124  	41.000000	0.508596  	41.000000	0.000193461	
44.000000	0.470558  	44.000000	0.48241   	44.000000	0.482625  	44.000000	0.483668  	44.000000	0.482228  	44.000000	0.000181661	
47.000000	0.44857   	47.000000	0.459027  	47.000000	0.459609  	47.000000	0.460256  	47.000000	0.458856  	47.000000	0.000171281	
50.000000	0.428912  	50.000000	0.438154  	50.000000	0.439018  	50.000000	0.439379  	50.000000	0.437992  	50.000000	0.000162076	
55.000000	0.400382  	55.000000	0.407927  	55.000000	0.409151  	55.000000	0.409169  	55.000000	0.407778  	55.000000	0.000148843	
60.000000	0.376088  	60.000000	0.382271  	60.000000	0.383794  	60.000000	0.383532  	60.000000	0.382133  	60.000000	0.000137696	
65.000000	0.355129  	65.000000	0.360213  	65.000000	0.361981  	65.000000	0.361483  	65.000000	0.360084  	65.000000	0.00012817	
70.000000	0.336847  	70.000000	0.341039  	70.000000	0.342935  	70.000000	0.342305  	70.000000	0.340919  	70.000000	0.000119932	
75.000000	0.320746  	75.000000	0.324214  	75.000000	0.32624   	75.000000	0.325462  	75.000000	0.324101  	75.000000	0.000112734	
80.000000	0.306447  	80.000000	0.309327  	80.000000	0.311403  	80.000000	0.310545  	80.000000	0.30922   	80.000000	0.000106387	
85.000000	0.293657  	85.000000	0.296058  	85.000000	0.298157  	85.000000	0.297236  	85.000000	0.295957  	85.000000	0.000100746	
90.000000	0.282141  	90.000000	0.284155  	90.000000	0.286258  	90.000000	0.285284  	90.000000	0.284059  	90.000000	9.56995e-05	
95.000000	0.271713  	95.000000	0.273415  	95.000000	0.275509  	95.000000	0.27449   	95.000000	0.273324  	95.000000	9.11556e-05	
100.000000	0.262221  	100.000000	0.263674  	100.000000	0.265748  	100.000000	0.264689  	100.000000	0.263587  	100.000000	8.70422e-05	
105.000000	0.253541  	105.000000	0.254798  	105.000000	0.256843  	105.000000	0.255751  	105.000000	0.254715  	105.000000	8.32998e-05	
110.000000	0.245571  	110.000000	0.246676  	110.000000	0.248685  	110.000000	0.247564  	110.000000	0.246596  	110.000000	7.98798e-05	
115.000000	0.238224  	115.000000	0.239214  	115.000000	0.241181  	115.000000	0.240036  	115.000000	0.239137  	115.000000	7.67416e-05	
120.000000	0.231427  	120.000000	0.232335  	120.000000	0.234262  	120.000000	0.23309   	120.000000	0.232261  	120.000000	7.38512e-05	
125.000000	0.225119  	125.000000	0.225972  	125.000000	0.227843  	125.000000	0.226661  	125.000000	0.225901  	125.000000	7.11801e-05	
130.000000	0.219248  	130.000000	0.220069  	130.000000	0.221862  	130.000000	0.220692  	130.000000	0.220001  	130.000000	6.87037e-05	
135.000000	0.213768  	135.000000	0.214578  	135.000000	0.216317  	135.000000	0.215136  	135.000000	0.214512  	135.000000	6.64013e-05	
140.000000	0.208641  	140.000000	0.209456  	140.000000	0.211153  	140.000000	0.20995   	140.000000	0.209392  	140.000000	6.42548e-05	
145.000000	0.203832  	145.000000	0.204668  	145.000000	0.206307  	145.000000	0.2051    	145.000000	0.204606  	145.000000	6.22488e-05	
150.000000	0.199311  	150.000000	0.200181  	150.000000	0.201747  	150.000000	0.200552  	150.000000	0.200121  	150.000000	6.03696e-05	
155.000000	0.192346  	155.000000	0.195969  	155.000000	0.197481  	155.000000	0.19628   	155.000000	0.19591   	155.000000	5.86054e-05	
160.000000	0.188598  	160.000000	0.192005  	160.000000	0.193467  	160.000000	0.19226   	160.000000	0.191948  	160.000000	5.69459e-05	
165.000000	0.185057  	165.000000	0.18827   	165.000000	0.189664  	165.000000	0.188468  	165.000000	0.188214  	165.000000	5.53818e-05	
170.000000	0.181706  	170.000000	0.184743  	170.000000	0.186083  	170.000000	0.184888  	170.000000	0.184689  	170.000000	5.3905e-05	
175.000000	0.178531  	175.000000	0.181407  	175.000000	0.182705  	175.000000	0.181501  	175.000000	0.181355  	175.000000	5.25084e-05	
180.000000	0.175518  	180.000000	0.178249  	180.000000	0.179491  	180.000000	0.178292  	180.000000	0.178197  	180.000000	5.11854e-05	
185.000000	0.172655  	185.000000	0.175252  	185.000000	0.176433  	185.000000	0.175248  	185.000000	0.175202  	185.000000	4.99303e-05	
190.000000	0.169929  	190.000000	0.172407  	190.000000	0.17353   	190.000000	0.172356  	190.000000	0.172358  	190.000000	4.87379e-05	
195.000000	0.167333  	195.000000	0.1697    	195.000000	0.170779  	195.000000	0.169606  	195.000000	0.169653  	195.000000	4.76036e-05	
200.000000	0.164855  	200.000000	0.167123  	200.000000	0.168167  	200.000000	0.166986  	200.000000	0.167077  	200.000000	4.65232e-05	
210.000000	0.160227  	210.000000	0.162322  	210.000000	0.163276  	210.000000	0.162106  	210.000000	0.162278  	210.000000	4.4509e-05	
220.000000	0.155988  	220.000000	0.157941  	220.000000	0.158802  	220.000000	0.157651  	220.000000	0.157898  	220.000000	4.2669e-05	
230.000000	0.152091  	230.000000	0.153926  	230.000000	0.154725  	230.000000	0.153569  	230.000000	0.153885  	230.000000	4.09813e-05	
240.000000	0.148495  	240.000000	0.150233  	240.000000	0.150965  	240.000000	0.149816  	240.000000	0.150194  	240.000000	3.94273e-05	
250.000000	0.145166  	250.000000	0.146827  	250.000000	0.147488  	250.000000	0.146354  	250.000000	0.146789  	250.000000	3.79917e-05	
260.000000	0.142076  	260.000000	0.143674  	260.000000	0.144271  	260.000000	0.143151  	260.000000	0.143638  	260.000000	3.66611e-05	
270.000000	0.1392    	270.000000	0.140748  	270.000000	0.141292  	270.000000	0.14018   	270.000000	0.140713  	270.000000	3.54244e-05	
280.000000	0.136516  	280.000000	0.138026  	280.000000	0.138534  	280.000000	0.137417  	280.000000	0.137992  	280.000000	3.42717e-05	
290.000000	0.134006  	290.000000	0.135487  	290.000000	0.135949  	290.000000	0.134841  	290.000000	0.135454  	290.000000	3.31948e-05	
300.000000	0.131653  	300.000000	0.133113  	300.000000	0.13353   	300.000000	0.132435  	300.000000	0.133081  	300.000000	3.21862e-05	
310.000000	0.129444  	310.000000	0.13089   	310.000000	0.131269  	310.000000	0.130182  	310.000000	0.130859  	310.000000	3.12395e-05	
320.000000	0.127365  	320.000000	0.128803  	320.000000	0.129147  	320.000000	0.12807   	320.000000	0.128773  	320.000000	3.03492e-05	
330.000000	0.125405  	330.000000	0.126841  	330.000000	0.127151  	330.000000	0.126085  	330.000000	0.126812  	330.000000	2.95103e-05	
340.000000	0.123555  	340.000000	0.124993  	340.000000	0.125277  	340.000000	0.124217  	340.000000	0.124964  	340.000000	2.87184e-05	
350.000000	0.121806  	350.000000	0.12325   	350.000000	0.12352   	350.000000	0.122457  	350.000000	0.123222  	350.000000	2.79696e-05	
360.000000	0.12015   	360.000000	0.121603  	360.000000	0.121857  	360.000000	0.120795  	360.000000	0.121575  	360.000000	2.72605e-05	
370.000000	0.118579  	370.000000	0.120044  	370.000000	0.120277  	370.000000	0.119224  	370.000000	0.120017  	370.000000	2.65879e-05	
380.000000	0.117088  	380.000000	0.118567  	380.000000	0.118782  	380.000000	0.117737  	380.000000	0.118541  	380.000000	2.5949e-05	
390.000000	0.115671  	390.000000	0.117167  	390.000000	0.117366  	390.000000	0.116328  	390.000000	0.117141  	390.000000	2.53413e-05	
400.000000	0.114322  	400.000000	0.115836  	400.000000	0.116023  	400.000000	0.114991  	400.000000	0.115812  	400.000000	2.47626e-05	
410.000000	0.113038  	410.000000	0.114571  	410.000000	0.114747  	410.000000	0.113722  	410.000000	0.114547  	410.000000	2.42108e-05	
420.000000	0.111812  	420.000000	0.113367  	420.000000	0.113533  	420.000000	0.112515  	420.000000	0.113344  	420.000000	2.36841e-05	
430.000000	0.110643  	430.000000	0.11222   	430.000000	0.112378  	430.000000	0.111366  	430.000000	0.112197  	430.000000	2.31807e-05	
440.000000	0.109526  	440.000000	0.111126  	440.000000	0.111278  	440.000000	0.110271  	440.000000	0.111103  	440.000000	2.26991e-05	
450.000000	0.108458  	450.000000	0.110081  	450.000000	0.110229  	450.000000	0.109227  	450.000000	0.110059  	450.000000	2.22379e-05	
460.000000	0.107435  	460.000000	0.109083  	460.000000	0.109227  	460.000000	0.108231  	460.000000	0.109061  	460.000000	2.17959e-05	
470.000000	0.106456  	470.000000	0.108128  	470.000000	0.10827   	470.000000	0.10728   	470.000000	0.108107  	470.000000	2.13718e-05	
480.000000	0.105517  	480.000000	0.107215  	480.000000	0.107361  	480.000000	0.106373  	480.000000	0.107194  	480.000000	2.09645e-05	
490.000000	0.104617  	490.000000	0.10634   	490.000000	0.106497  	490.000000	0.105508  	490.000000	0.106319  	490.000000	2.05731e-05	
500.000000	0.103753  	500.000000	0.105501  	500.000000	0.105669  	500.000000	0.104679  	500.000000	0.105481  	500.000000	2.01967e-05	
520.000000	0.102126  	520.000000	0.103924  	520.000000	0.104106  	520.000000	0.103123  	520.000000	0.103905  	520.000000	1.94852e-05	
540.000000	0.100621  	540.000000	0.10247   	540.000000	0.102665  	540.000000	0.101692  	540.000000	0.102451  	540.000000	1.88241e-05	
560.000000	0.0992271 	560.000000	0.101125  	560.000000	0.101336  	560.000000	0.100371  	560.000000	0.101107  	560.000000	1.8208e-05	
580.000000	0.0979325 	580.000000	0.0998793 	580.000000	0.100107  	580.000000	0.0991489 	580.000000	0.0998617 	580.000000	1.76326e-05	
600.000000	0.0967282 	600.000000	0.0987225 	600.000000	0.0989685 	600.000000	0.0980171 	600.000000	0.0987054 	600.000000	1.70938e-05	
620.000000	0.095606  	620.000000	0.0976463 	620.000000	0.0979113 	620.000000	0.0969664 	620.000000	0.0976297 	620.000000	1.65882e-05	
640.000000	0.0945588 	640.000000	0.0966435 	640.000000	0.0969283 	640.000000	0.0959895 	640.000000	0.0966274 	640.000000	1.61128e-05	
660.000000	0.0935801 	660.000000	0.0957076 	660.000000	0.0960126 	660.000000	0.0950796 	660.000000	0.0956919 	660.000000	1.56649e-05	
680.000000	0.0926644 	680.000000	0.0948328 	680.000000	0.0951584 	680.000000	0.0942309 	680.000000	0.0948176 	680.000000	1.52422e-05	
700.000000	0.0918065 	700.000000	0.0940141 	700.000000	0.0943606 	700.000000	0.0934382 	700.000000	0.0939993 	700.000000	1.48426e-05	
720.000000	0.091002  	720.000000	0.093247  	720.000000	0.0936143 	720.000000	0.0926969 	720.000000	0.0932325 	720.000000	1.44642e-05	
740.000000	0.0902468 	740.000000	0.0925272 	740.000000	0.0929155 	740.000000	0.0920027 	740.000000	0.0925131 	740.000000	1.41053e-05	
760.000000	0.0895373 	760.000000	0.0918513 	760.000000	0.0922604 	760.000000	0.091352  	760.000000	0.0918376 	760.000000	1.37645e-05	
780.000000	0.0888703 	780.000000	0.091216  	780.000000	0.0916456 	780.000000	0.0907414 	780.000000	0.0912025 	780.000000	1.34404e-05	
800.000000	0.0882427 	800.000000	0.0906182 	800.000000	0.0910681 	800.000000	0.0901679 	800.000000	0.090605  	800.000000	1.31318e-05	
820.000000	0.0876518 	820.000000	0.0900553 	820.000000	0.0905251 	820.000000	0.0896288 	820.000000	0.0900424 	820.000000	1.28376e-05	
840.000000	0.0870953 	840.000000	0.0895248 	840.000000	0.0900142 	840.000000	0.0891215 	840.000000	0.0895123 	840.000000	1.25568e-05	
860.000000	0.0865708 	860.000000	0.0890246 	860.000000	0.089533  	860.000000	0.0886438 	860.000000	0.0890124 	860.000000	1.22885e-05	
880.000000	0.0860764 	880.000000	0.0885527 	880.000000	0.0890795 	880.000000	0.0881936 	880.000000	0.0885407 	880.000000	1.20318e-05	
900.000000	0.0856101 	900.000000	0.0881072 	900.000000	0.0886519 	900.000000	0.0877692 	900.000000	0.0880954 	900.000000	1.17861e-05	
920.000000	0.0851704 	920.000000	0.0876864 	920.000000	0.0882483 	920.000000	0.0873687 	920.000000	0.0876749 	920.000000	1.15506e-05	
940.000000	0.0847555 	940.000000	0.0872888 	940.000000	0.0878673 	940.000000	0.0869906 	940.000000	0.0872775 	940.000000	1.13246e-05	
960.000000	0.0843641 	960.000000	0.086913  	960.000000	0.0875074 	960.000000	0.0866334 	960.000000	0.0869019 	960.000000	1.11077e-05	
980.000000	0.0839948 	980.000000	0.0865577 	980.000000	0.0871672 	980.000000	0.0862959 	980.000000	0.0865468 	980.000000	1.08992e-05	
1000.000000	0.0836464 	1000.000000	0.0862217 	1000.000000	0.0868455 	1000.000000	0.0859768 	1000.000000	0.086211  	1000.000000	1.06987e-05	
1020.000000	0.0833178 	1020.000000	0.0859038 	1020.000000	0.0865412 	1020.000000	0.0856749 	1020.000000	0.0858933 	1020.000000	1.05058e-05	
1040.000000	0.0830078 	1040.000000	0.085603  	1040.000000	0.0862532 	1040.000000	0.0853894 	1040.000000	0.0855927 	1040.000000	1.03199e-05	
1060.000000	0.0827156 	1060.000000	0.0853185 	1060.000000	0.0859806 	1060.000000	0.0851191 	1060.000000	0.0853083 	1060.000000	1.01408e-05	
1080.000000	0.0824402 	1080.000000	0.0850493 	1080.000000	0.0857225 	1080.000000	0.0848632 	1080.000000	0.0850393 	1080.000000	9.96797e-06	
1100.000000	0.0821808 	1100.000000	0.0847945 	1100.000000	0.085478  	1100.000000	0.0846208 	1100.000000	0.0847847 	1100.000000	9.80119e-06	
1120.000000	0.0819365 	1120.000000	0.0845535 	1120.000000	0.0852465 	1120.000000	0.0843913 	1120.000000	0.0845439 	1120.000000	9.6401e-06	
1140.000000	0.0817067 	1140.000000	0.0843256 	1140.000000	0.085027  	1140.000000	0.0841738 	1140.000000	0.0843161 	1140.000000	9.48443e-06	
1160.000000	0.0814906 	1160.000000	0.08411   	1160.000000	0.0848191 	1160.000000	0.0839678 	1160.000000	0.0841007 	1160.000000	9.33389e-06	
1180.000000	0.0812876 	1180.000000	0.0839062 	1180.000000	0.084622  	1180.000000	0.0837726 	1180.000000	0.083897  	1180.000000	9.18823e-06	
1200.000000	0.0810971 	1200.000000	0.0837135 	1200.000000	0.0844353 	1200.000000	0.0835876 	1200.000000	0.0837045 	1200.000000	9.04723e-06	
1220.000000	0.0809185 	1220.000000	0.0835315 	1220.000000	0.0842583 	1220.000000	0.0834123 	1220.000000	0.0835226 	1220.000000	8.91065e-06	
1240.000000	0.0807513 	1240.000000	0.0833596 	1240.000000	0.0840905 	1240.000000	0.0832462 	1240.000000	0.0833508 	1240.000000	8.77829e-06	
1260.000000	0.0805951 	1260.000000	0.0831974 	1260.000000	0.0839315 	1260.000000	0.0830888 	1260.000000	0.0831887 	1260.000000	8.64995e-06	
1280.000000	0.0804493 	1280.000000	0.0830444 	1280.000000	0.0837808 	1280.000000	0.0829396 	1280.000000	0.0830359 	1280.000000	8.52545e-06	
1300.000000	0.0803135 	1300.000000	0.0829002 	1300.000000	0.083638  	1300.000000	0.0827983 	1300.000000	0.0828918 	1300.000000	8.40462e-06	
1320.000000	0.0801872 	1320.000000	0.0827644 	1320.000000	0.0835027 	1320.000000	0.0826645 	1320.000000	0.0827561 	1320.000000	8.2873e-06	
1340.000000	0.0800702 	1340.000000	0.0826366 	1340.000000	0.0833746 	1340.000000	0.0825378 	1340.000000	0.0826285 	1340.000000	8.17333e-06	
1360.000000	0.0799619 	1360.000000	0.0825166 	1360.000000	0.0832532 	1360.000000	0.0824178 	1360.000000	0.0825085 	1360.000000	8.06257e-06	
1380.000000	0.0798621 	1380.000000	0.0824039 	1380.000000	0.0831383 	1380.000000	0.0823042 	1380.000000	0.0823959 	1380.000000	7.95488e-06	
1400.000000	0.0797705 	1400.000000	0.0822982 	1400.000000	0.0830296 	1400.000000	0.0821968 	1400.000000	0.0822904 	1400.000000	7.85014e-06	
1420.000000	0.0796867 	1420.000000	0.0821993 	1420.000000	0.0829268 	1420.000000	0.0820952 	1420.000000	0.0821916 	1420.000000	7.74823e-06	
1440.000000	0.0796104 	1440.000000	0.0821069 	1440.000000	0.0828295 	1440.000000	0.0819991 	1440.000000	0.0820992 	1440.000000	7.64903e-06	
1460.000000	0.0795414 	1460.000000	0.0820207 	1460.000000	0.0827376 	1460.000000	0.0819084 	1460.000000	0.0820131 	1460.000000	7.55243e-06	
1480.000000	0.0794793 	1480.000000	0.0819405 	1480.000000	0.0826508 	1480.000000	0.0818227 	1480.000000	0.081933  	1480.000000	7.45834e-06	
1500.000000	0.079424  	1500.000000	0.081866  	1500.000000	0.0825689 	1500.000000	0.0817419 	1500.000000	0.0818586 	1500.000000	7.36664e-06	
1520.000000	0.0793752 	1520.000000	0.081797  	1520.000000	0.0824916 	1520.000000	0.0816657 	1520.000000	0.0817897 	1520.000000	7.27726e-06	
1540.000000	0.0793326 	1540.000000	0.0817333 	1540.000000	0.0824187 	1540.000000	0.0815939 	1540.000000	0.0817261 	1540.000000	7.19011e-06	
1560.000000	0.0792961 	1560.000000	0.0816747 	1560.000000	0.0823501 	1560.000000	0.0815263 	1560.000000	0.0816676 	1560.000000	7.10509e-06	
1580.000000	0.0792654 	1580.000000	0.081621  	1580.000000	0.0822856 	1580.000000	0.0814627 	1580.000000	0.081614  	1580.000000	7.02214e-06	
1600.000000	0.0792403 	1600.000000	0.081572  	1600.000000	0.0822249 	1600.000000	0.081403  	1600.000000	0.0815651 	1600.000000	6.94117e-06	
1620.000000	0.0792207 	1620.000000	0.0815276 	1620.000000	0.0821679 	1620.000000	0.081347  	1620.000000	0.0815208 	1620.000000	6.86212e-06	
1640.000000	0.0792064 	1640.000000	0.0814876 	1640.000000	0.0821146 	1640.000000	0.0812945 	1640.000000	0.0814808 	1640.000000	6.78491e-06	
1660.000000	0.0791971 	1660.000000	0.0814518 	1660.000000	0.0820646 	1660.000000	0.0812454 	1660.000000	0.0814451 	1660.000000	6.70949e-06	
1680.000000	0.0791929 	1680.000000	0.0814201 	1680.000000	0.0820179 	1680.000000	0.0811996 	1680.000000	0.0814135 	1680.000000	6.63579e-06	
1700.000000	0.0791933 	1700.000000	0.0813924 	1700.000000	0.0819743 	1700.000000	0.0811569 	1700.000000	0.0813858 	1700.000000	6.56375e-06	
1750.000000	0.0792146 	1750.000000	0.0813393 	1750.000000	0.0818782 	1750.000000	0.0810628 	1750.000000	0.0813329 	1750.000000	6.39057e-06	
1800.000000	0.0792626 	1800.000000	0.0813081 	1800.000000	0.0817991 	1800.000000	0.0809855 	1800.000000	0.0813019 	1800.000000	6.22661e-06	
1850.000000	0.0793356 	1850.000000	0.081297  	1850.000000	0.0817352 	1850.000000	0.0809234 	1850.000000	0.0812909 	1850.000000	6.07115e-06	
1900.000000	0.0794318 	1900.000000	0.0813043 	1900.000000	0.0816851 	1900.000000	0.080875  	1900.000000	0.0812984 	1900.000000	5.92354e-06	
1950.000000	0.0795496 	1950.000000	0.0813287 	1950.000000	0.0816475 	1950.000000	0.080839  	1950.000000	0.0813229 	1950.000000	5.78319e-06	
2000.000000	0.0796876 	2000.000000	0.081369  	2000.000000	0.0816213 	2000.000000	0.0808142 	2000.000000	0.0813633 	2000.000000	5.64958e-06	
2100.000000	0.0800192 	2100.000000	0.0814924 	2100.000000	0.0815986 	2100.000000	0.0807942 	2100.000000	0.081487  	2100.000000	5.40068e-06	
2200.000000	0.0804177 	2200.000000	0.0816665 	2200.000000	0.0816099 	2200.000000	0.080808  	2200.000000	0.0816613 	2200.000000	5.17351e-06	
2300.000000	0.0808756 	2300.000000	0.0818848 	2300.000000	0.0816495 	2300.000000	0.0808498 	2300.000000	0.0818798 	2300.000000	4.96531e-06	
2400.000000	0.0813867 	2400.000000	0.0821417 	2400.000000	0.0817124 	2400.000000	0.0809147 	2400.000000	0.0821369 	2400.000000	4.77379e-06	
2500.000000	0.0819457 	2500.000000	0.0824325 	2500.000000	0.0817963 	2500.000000	0.0810003 	2500.000000	0.0824279 	2500.000000	4.59698e-06	
2600.000000	0.082548  	2600.000000	0.0827533 	2600.000000	0.0819052 	2600.000000	0.0811109 	2600.000000	0.0827488 	2600.000000	4.43324e-06	
2700.000000	0.0831899 	2700.000000	0.0831007 	2700.000000	0.0820273 	2700.000000	0.0812345 	2700.000000	0.0830964 	2700.000000	4.28115e-06	
2800.000000	0.0838678 	2800.000000	0.0834719 	2800.000000	0.0821604 	2800.000000	0.081369  	2800.000000	0.0834677 	2800.000000	4.13951e-06	
2900.000000	0.084579  	2900.000000	0.0838643 	2900.000000	0.0823028 	2900.000000	0.0815127 	2900.000000	0.0838603 	2900.000000	4.00725e-06	
3000.000000	0.085321  	3000.000000	0.0842758 	3000.000000	0.0824528 	3000.000000	0.0816639 	3000.000000	0.0842719 	3000.000000	3.88346e-06	
3200.000000	0.0868883 	3200.000000	0.0851487 	3200.000000	0.0827706 	3200.000000	0.0819839 	3200.000000	0.085145  	3200.000000	3.65821e-06	
3400.000000	0.0885552 	3400.000000	0.0860781 	3400.000000	0.0831056 	3400.000000	0.0823206 	3400.000000	0.0860746 	3400.000000	3.45847e-06	
3600.000000	0.0903099 	3600.000000	0.0870542 	3600.000000	0.0834516 	3600.000000	0.0826681 	3600.000000	0.087051  	3600.000000	3.28009e-06	
3800.000000	0.0921432 	3800.000000	0.0880695 	3800.000000	0.0838041 	3800.000000	0.0830218 	3800.000000	0.0880664 	3800.000000	3.11977e-06	
4000.000000	0.0940477 	4000.000000	0.0891177 	4000.000000	0.0841597 	4000.000000	0.0833784 	4000.000000	0.0891147 	4000.000000	2.97489e-06	
4200.000000	0.0960171 	4200.000000	0.0901939 	4200.000000	0.0845159 	4200.000000	0.0837355 	4200.000000	0.090191  	4200.000000	2.84329e-06	
4400.000000	0.0980467 	4400.000000	0.0912939 	4400.000000	0.0848707 	4400.000000	0.0840911 	4400.000000	0.0912912 	4400.000000	2.72321e-06	
4600.000000	0.100132  	4600.000000	0.0924145 	4600.000000	0.0852227 	4600.000000	0.0844441 	4600.000000	0.0924119 	4600.000000	2.61318e-06	
4800.000000	0.10227   	4800.000000	0.0935529 	4800.000000	0.085571  	4800.000000	0.0847932 	4800.000000	0.0935504 	4800.000000	2.51198e-06	
5000.000000	0.104457  	5000.000000	0.0947067 	5000.000000	0.0859148 	5000.000000	0.0851379 	5000.000000	0.0947043 	5000.000000	2.41857e-06	
5250.000000	0.107256  	5250.000000	0.0961677 	5250.000000	0.0863374 	5250.000000	0.0855617 	5250.000000	0.0961654 	5250.000000	2.31145e-06	
5500.000000	0.110125  	5500.000000	0.0976464 	5500.000000	0.0867516 	5500.000000	0.085977  	5500.000000	0.0976442 	5500.000000	2.21371e-06	
6000.000000	0.116056  	6000.000000	0.100647  	6000.000000	0.0875529 	6000.000000	0.0867806 	6000.000000	0.100645  	6000.000000	2.0418e-06	
6500.000000	0.122229  	6500.000000	0.103693  	6500.000000	0.088318  	6500.000000	0.0875475 	6500.000000	0.103691  	6500.000000	1.8954e-06	
7000.000000	0.128629  	7000.000000	0.106772  	7000.000000	0.0890472 	7000.000000	0.0882783 	7000.000000	0.10677   	7000.000000	1.76919e-06	
7500.000000	0.135244  	7500.000000	0.109876  	7500.000000	0.089742  	7500.000000	0.0889744 	7500.000000	0.109874  	7500.000000	1.65921e-06	
8000.000000	0.142066  	8000.000000	0.112999  	8000.000000	0.0904051 	8000.000000	0.0896377 	8000.000000	0.112997  	8000.000000	1.5625e-06	
8500.000000	0.149089  	8500.000000	0.116136  	8500.000000	0.0910356 	8500.000000	0.0902703 	8500.000000	0.116134  	8500.000000	1.47676e-06	
9000.000000	0.156308  	9000.000000	0.119283  	9000.000000	0.0916352 	9000.000000	0.0908741 	9000.000000	0.119282  	9000.000000	1.40022e-06	
9500.000000	0.16372   	9500.000000	0.122439  	9500.000000	0.0922088 	9500.000000	0.0914512 	9500.000000	0.122438  	9500.000000	1.33146e-06	
10000.000000	0.17132   	10000.000000	0.125601  	10000.000000	0.0927592 	10000.000000	0.0920033 	10000.000000	0.1256    	10000.000000	1.26933e-06	
11000.000000	0.187081  	11000.000000	0.131935  	11000.000000	0.0937943 	11000.000000	0.0930394 	11000.000000	0.131934  	11000.000000	1.16144e-06	
12000.000000	0.203579  	12000.000000	0.138277  	12000.000000	0.0947484 	12000.000000	0.0939949 	12000.000000	0.138276  	12000.000000	1.07093e-06	
13000.000000	0.220806  	13000.000000	0.14462   	13000.000000	0.0956292 	13000.000000	0.0948799 	13000.000000	0.144619  	13000.000000	9.93888e-07	
14000.000000	0.23876   	14000.000000	0.150961  	14000.000000	0.0964452 	14000.000000	0.0957032 	14000.000000	0.15096   	14000.000000	9.27481e-07	
15000.000000	0.25744   	15000.000000	0.157295  	15000.000000	0.0972055 	15000.000000	0.0964721 	15000.000000	0.157294  	15000.000000	8.69633e-07	
16000.000000	0.276846  	16000.000000	0.163622  	16000.000000	0.0979188 	16000.000000	0.0971928 	16000.000000	0.163621  	16000.000000	8.18775e-07	
17000.000000	0.29698   	17000.000000	0.16994   	17000.000000	0.0985913 	17000.000000	0.0978705 	17000.000000	0.169939  	17000.000000	7.73701e-07	
18000.000000	0.317845  	18000.000000	0.176248  	18000.000000	0.0992273 	18000.000000	0.0985097 	18000.000000	0.176247  	18000.000000	7.33468e-07	
19000.000000	0.339446  	19000.000000	0.182546  	19000.000000	0.0998305 	19000.000000	0.0991142 	19000.000000	0.182546  	19000.000000	6.97329e-07	
20000.000000	0.361785  	20000.000000	0.188834  	20000.000000	0.100404  	20000.000000	0.0996874 	20000.000000	0.188834  	20000.000000	6.64684e-07	
21000.000000	0.384868  	21000.000000	0.195112  	21000.000000	0.100947  	21000.000000	0.100232  	21000.000000	0.195111  	21000.000000	6.35045e-07	
22000.000000	0.408699  	22000.000000	0.201379  	22000.000000	0.101458  	22000.000000	0.100751  	22000.000000	0.201378  	22000.000000	6.08011e-07	
23000.000000	0.433285  	23000.000000	0.207635  	23000.000000	0.101948  	23000.000000	0.101246  	23000.000000	0.207635  	23000.000000	5.8325e-07	
24000.000000	0.458629  	24000.000000	0.213881  	24000.000000	0.102416  	24000.000000	0.101719  	24000.000000	0.213881  	24000.000000	5.60484e-07	
25000.000000	0.484739  	25000.000000	0.220117  	25000.000000	0.102861  	25000.000000	0.102172  	25000.000000	0.220116  	25000.000000	5.39479e-07	
26000.000000	0.51162   	26000.000000	0.226343  	26000.000000	0.103287  	26000.000000	0.102607  	26000.000000	0.226342  	26000.000000	5.20037e-07	
27000.000000	0.539277  	27000.000000	0.232559  	27000.000000	0.103697  	27000.000000	0.103024  	27000.000000	0.232558  	27000.000000	5.01987e-07	
28000.000000	0.567718  	28000.000000	0.238765  	28000.000000	0.104091  	28000.000000	0.103426  	28000.000000	0.238764  	28000.000000	4.85184e-07	
29000.000000	0.596948  	29000.000000	0.244961  	29000.000000	0.10447   	29000.000000	0.103813  	29000.000000	0.244961  	29000.000000	4.69501e-07	
30000.000000	0.626974  	30000.000000	0.251149  	30000.000000	0.104835  	30000.000000	0.104186  	30000.000000	0.251148  	30000.000000	4.5483e-07	
32000.000000	0.689438  	32000.000000	0.263496  	32000.000000	0.105528  	32000.000000	0.104893  	32000.000000	0.263496  	32000.000000	4.2815e-07	
34000.000000	0.755163  	34000.000000	0.275809  	34000.000000	0.106177  	34000.000000	0.105556  	34000.000000	0.275808  	34000.000000	4.0451e-07	
36000.000000	0.824203  	36000.000000	0.288088  	36000.000000	0.106784  	36000.000000	0.106178  	36000.000000	0.288088  	36000.000000	3.83412e-07	
38000.000000	0.896611  	38000.000000	0.300336  	38000.000000	0.107352  	38000.000000	0.106764  	38000.000000	0.300336  	38000.000000	3.64465e-07	
40000.000000	0.972443  	40000.000000	0.312553  	40000.000000	0.107886  	40000.000000	0.107318  	40000.000000	0.312553  	40000.000000	3.47353e-07	
42000.000000	1.05175   	42000.000000	0.324741  	42000.000000	0.10839   	42000.000000	0.107843  	42000.000000	0.324741  	42000.000000	3.31818e-07	
44000.000000	1.1346    	44000.000000	0.336902  	44000.000000	0.108867  	44000.000000	0.108341  	44000.000000	0.336901  	44000.000000	3.17651e-07	
46000.000000	1.22104   	46000.000000	0.349035  	46000.000000	0.10932   	46000.000000	0.108816  	46000.000000	0.349035  	46000.000000	3.04678e-07	
48000.000000	1.31113   	48000.000000	0.361143  	48000.000000	0.109752  	48000.000000	0.109269  	48000.000000	0.361143  	48000.000000	2.92751e-07	
50000.000000	1.40492   	50000.000000	0.373226  	50000.000000	0.110163  	50000.000000	0.109702  	50000.000000	0.373226  	50000.000000	2.81748e-07	
