0.001000	0.292351  	0.001000	0.319472  	0.001000	0.381481  	0.001000	0.381481  	0.001000	0.205096  	0.001000	0.114376  	
0.002000	0.363394  	0.002000	0.409099  	0.002000	0.480338  	0.002000	0.480338  	0.002000	0.331153  	0.002000	0.0779463 	
0.005000	0.553642  	0.005000	0.634947  	0.005000	0.699305  	0.005000	0.699305  	0.005000	0.591907  	0.005000	0.0430406 	
0.008000	0.698326  	0.008000	0.804064  	0.008000	0.84879   	0.008000	0.84879   	0.008000	0.773507  	0.008000	0.0305563 	
0.010000	0.778396  	0.010000	0.897299  	0.010000	0.927343  	0.010000	0.927343  	0.010000	0.871359  	0.010000	0.0259404 	
0.015000	0.992136  	0.015000	1.07977   	0.015000	1.08168   	0.015000	1.08168   	0.015000	1.06066   	0.015000	0.0191051 	
0.020000	1.17113   	0.020000	1.22399   	0.020000	1.20142   	0.020000	1.20142   	0.020000	1.2087    	0.020000	0.0152927 	
0.025000	1.32383   	0.025000	1.34383   	0.025000	1.30199   	0.025000	1.30199   	0.025000	1.331     	0.025000	0.0128323 	
0.030000	1.45476   	0.030000	1.44641   	0.030000	1.40632   	0.030000	1.40632   	0.030000	1.43531   	0.030000	0.0111009 	
0.035000	1.56668   	0.035000	1.53583   	0.035000	1.49783   	0.035000	1.49783   	0.035000	1.52602   	0.035000	0.0098102 	
0.040000	1.66151   	0.040000	1.61464   	0.040000	1.57895   	0.040000	1.57895   	0.040000	1.60583   	0.040000	0.00880764	
0.045000	1.74076   	0.045000	1.68455   	0.045000	1.65129   	0.045000	1.65129   	0.045000	1.67655   	0.045000	0.00800442	
0.050000	1.80582   	0.050000	1.74676   	0.050000	1.71597   	0.050000	1.71597   	0.050000	1.73941   	0.050000	0.00734519	
0.055000	1.85802   	0.055000	1.80214   	0.055000	1.77383   	0.055000	1.77383   	0.055000	1.79535   	0.055000	0.00679357	
0.060000	1.8987    	0.060000	1.85138   	0.060000	1.82551   	0.060000	1.82551   	0.060000	1.84506   	0.060000	0.00632463	
0.070000	1.95071   	0.070000	1.93355   	0.070000	1.91236   	0.070000	1.91236   	0.070000	1.92798   	0.070000	0.00556868	
0.080000	1.97197   	0.080000	1.99675   	0.080000	1.97987   	0.080000	1.97987   	0.080000	1.99176   	0.080000	0.00498445	
0.090000	1.97142   	0.090000	2.04373   	0.090000	2.03074   	0.090000	2.03074   	0.090000	2.03921   	0.090000	0.00451833	
0.100000	1.95641   	0.100000	2.07685   	0.100000	2.06729   	0.100000	2.06729   	0.100000	2.07271   	0.100000	0.0041371 	
0.120000	1.90378   	0.120000	2.10954   	0.120000	2.10554   	0.120000	2.10554   	0.120000	2.10599   	0.120000	0.0035494 	
0.140000	1.84164   	0.140000	2.10883   	0.140000	2.1089    	0.140000	2.1089    	0.140000	2.10572   	0.140000	0.00311613	
0.160000	1.78172   	0.160000	2.08565   	0.160000	2.08864   	0.160000	2.08864   	0.160000	2.08287   	0.160000	0.00278255	
0.180000	1.72773   	0.180000	2.04814   	0.180000	2.05321   	0.180000	2.05321   	0.180000	2.04562   	0.180000	0.00251722	
0.200000	1.67993   	0.200000	2.00213   	0.200000	2.00868   	0.200000	2.00868   	0.200000	1.99983   	0.200000	0.00230081	
0.250000	1.58126   	0.250000	1.87316   	0.250000	1.88183   	0.250000	1.88183   	0.250000	1.87126   	0.250000	0.00190046	
0.300000	1.50069   	0.300000	1.74612   	0.300000	1.75568   	0.300000	1.75568   	0.300000	1.74449   	0.300000	0.00162444	
0.350000	1.42966   	0.350000	1.63102   	0.350000	1.64084   	0.350000	1.64084   	0.350000	1.6296    	0.350000	0.0014219 	
0.400000	1.3646    	0.400000	1.52937   	0.400000	1.53908   	0.400000	1.53908   	0.400000	1.5281    	0.400000	0.00126653	
0.450000	1.30418   	0.450000	1.44002   	0.450000	1.4494    	0.450000	1.4494    	0.450000	1.43888   	0.450000	0.00114334	
0.500000	1.2479    	0.500000	1.36126   	0.500000	1.37019   	0.500000	1.37019   	0.500000	1.36022   	0.500000	0.00104313	
0.600000	1.14676   	0.600000	1.22921   	0.600000	1.23706   	0.600000	1.23706   	0.600000	1.22832   	0.600000	0.00088964	
0.700000	1.05944   	0.700000	1.12296   	0.700000	1.1297    	0.700000	1.1297    	0.700000	1.12218   	0.700000	0.000777306	
0.800000	0.984052  	0.800000	1.03554   	0.800000	1.04126   	0.800000	1.04126   	0.800000	1.03485   	0.800000	0.000691328	
0.900000	0.918706  	0.900000	0.962239  	0.900000	0.967046  	0.900000	0.967046  	0.900000	0.961615  	0.900000	0.000623284	
1.000000	0.861706  	1.000000	0.89976   	1.000000	0.903773  	1.000000	0.903773  	1.000000	0.899192  	1.000000	0.000568017	
1.250000	0.747004  	1.250000	0.777078  	1.250000	0.779539  	1.250000	0.779539  	1.250000	0.776612  	1.250000	0.000466376	
1.500000	0.660395  	1.500000	0.686307  	1.500000	0.687681  	1.500000	0.687681  	1.500000	0.68591   	1.500000	0.000396792	
1.750000	0.592563  	1.750000	0.615921  	1.750000	0.616521  	1.750000	0.616521  	1.750000	0.615575  	1.750000	0.000346011	
2.000000	0.537894  	2.000000	0.559483  	2.000000	0.559518  	2.000000	0.559518  	2.000000	0.559175  	2.000000	0.000307234	
2.250000	0.492836  	2.250000	0.513086  	2.250000	0.512703  	2.250000	0.512703  	2.250000	0.512809  	2.250000	0.000276605	
2.500000	0.447396  	2.500000	0.4742    	2.500000	0.473503  	2.500000	0.473503  	2.500000	0.473948  	2.500000	0.000251768	
3.000000	0.390509  	3.000000	0.412569  	3.000000	0.411447  	3.000000	0.411447  	3.000000	0.412355  	3.000000	0.00021388	
3.500000	0.347387  	3.500000	0.365835  	3.500000	0.364459  	3.500000	0.364459  	3.500000	0.365649  	3.500000	0.000186277	
4.000000	0.313472  	4.000000	0.329132  	4.000000	0.3276    	4.000000	0.3276    	4.000000	0.328967  	4.000000	0.00016523	
4.500000	0.286041  	4.500000	0.299514  	4.500000	0.297886  	4.500000	0.297886  	4.500000	0.299365  	4.500000	0.000148625	
5.000000	0.263359  	5.000000	0.275088  	5.000000	0.273404  	5.000000	0.273404  	5.000000	0.274952  	5.000000	0.000135174	
5.500000	0.244266  	5.500000	0.254582  	5.500000	0.252866  	5.500000	0.252866  	5.500000	0.254458  	5.500000	0.000124047	
6.000000	0.227956  	6.000000	0.237108  	6.000000	0.235379  	6.000000	0.235379  	6.000000	0.236994  	6.000000	0.000114682	
6.500000	0.213849  	6.500000	0.22203   	6.500000	0.220298  	6.500000	0.220298  	6.500000	0.221923  	6.500000	0.000106685	
7.000000	0.201518  	7.000000	0.208877  	7.000000	0.20715   	7.000000	0.20715   	7.000000	0.208777  	7.000000	9.97744e-05	
7.500000	0.190642  	7.500000	0.197295  	7.500000	0.195579  	7.500000	0.195579  	7.500000	0.197201  	7.500000	9.37392e-05	
8.000000	0.180971  	8.000000	0.187013  	8.000000	0.185312  	8.000000	0.185312  	8.000000	0.186924  	8.000000	8.84211e-05	
8.500000	0.172313  	8.500000	0.177818  	8.500000	0.176135  	8.500000	0.176135  	8.500000	0.177734  	8.500000	8.36978e-05	
9.000000	0.164512  	9.000000	0.169543  	9.000000	0.167879  	9.000000	0.167879  	9.000000	0.169464  	9.000000	7.94736e-05	
9.500000	0.157445  	9.500000	0.162054  	9.500000	0.16041   	9.500000	0.16041   	9.500000	0.161978  	9.500000	7.56722e-05	
10.000000	0.151012  	10.000000	0.153219  	10.000000	0.153617  	10.000000	0.153617  	10.000000	0.153147  	10.000000	7.22323e-05	
11.000000	0.139725  	11.000000	0.141983  	11.000000	0.141615  	11.000000	0.141623  	11.000000	0.141917  	11.000000	6.62464e-05	
12.000000	0.13014   	12.000000	0.132396  	12.000000	0.131485  	12.000000	0.131499  	12.000000	0.132335  	12.000000	6.12117e-05	
13.000000	0.121893  	13.000000	0.124115  	13.000000	0.122822  	13.000000	0.122837  	13.000000	0.124058  	13.000000	5.69158e-05	
14.000000	0.114716  	14.000000	0.116885  	14.000000	0.115329  	14.000000	0.115344  	14.000000	0.116832  	14.000000	5.32051e-05	
15.000000	0.108411  	15.000000	0.110517  	15.000000	0.108783  	15.000000	0.108797  	15.000000	0.110467  	15.000000	4.99663e-05	
16.000000	0.102825  	16.000000	0.104861  	16.000000	0.103017  	16.000000	0.103031  	16.000000	0.104814  	16.000000	4.71137e-05	
17.000000	0.0978401 	17.000000	0.099804  	17.000000	0.0979016 	17.000000	0.0979138 	17.000000	0.0997594 	17.000000	4.45813e-05	
18.000000	0.0933617 	18.000000	0.0952531 	18.000000	0.0933348 	18.000000	0.0933441 	18.000000	0.0952108 	18.000000	4.23174e-05	
19.000000	0.0893154 	19.000000	0.0911352 	19.000000	0.0892331 	19.000000	0.0892399 	19.000000	0.0910949 	19.000000	4.02809e-05	
20.000000	0.0856404 	20.000000	0.0873903 	20.000000	0.0855284 	20.000000	0.0855352 	20.000000	0.0873519 	20.000000	3.84387e-05	
21.000000	0.0822869 	21.000000	0.0839692 	21.000000	0.0821685 	21.000000	0.0821759 	21.000000	0.0839324 	21.000000	3.6764e-05	
22.000000	0.0792136 	22.000000	0.0808309 	22.000000	0.0791118 	22.000000	0.0791174 	22.000000	0.0807957 	22.000000	3.52346e-05	
23.000000	0.0763863 	23.000000	0.0779414 	23.000000	0.0763209 	23.000000	0.0763225 	23.000000	0.0779076 	23.000000	3.38322e-05	
24.000000	0.073776  	24.000000	0.0752716 	24.000000	0.0737623 	24.000000	0.07376   	24.000000	0.0752391 	24.000000	3.25413e-05	
25.000000	0.0713582 	25.000000	0.0727971 	25.000000	0.0714093 	25.000000	0.0714035 	25.000000	0.0727658 	25.000000	3.13491e-05	
27.000000	0.0670193 	27.000000	0.068353  	27.000000	0.0672358 	27.000000	0.0672212 	27.000000	0.0683237 	27.000000	2.9218e-05	
29.000000	0.0632345 	29.000000	0.0644732 	29.000000	0.0636486 	29.000000	0.0636304 	29.000000	0.0644458 	29.000000	2.73681e-05	
31.000000	0.0599024 	31.000000	0.0610553 	31.000000	0.060417  	31.000000	0.0603979 	31.000000	0.0610295 	31.000000	2.57465e-05	
33.000000	0.0569449 	33.000000	0.0580204 	33.000000	0.0574467 	33.000000	0.0574217 	33.000000	0.0579961 	33.000000	2.43131e-05	
35.000000	0.0543011 	35.000000	0.0553067 	35.000000	0.0547825 	35.000000	0.0547587 	35.000000	0.0552836 	35.000000	2.30365e-05	
38.000000	0.0508205 	38.000000	0.0517336 	38.000000	0.0512771 	38.000000	0.0512495 	38.000000	0.0517122 	38.000000	2.13628e-05	
41.000000	0.047814  	41.000000	0.0486474 	41.000000	0.0482436 	41.000000	0.0482154 	41.000000	0.0486274 	41.000000	1.99239e-05	
44.000000	0.0451893 	44.000000	0.0459536 	44.000000	0.0455895 	44.000000	0.0455646 	44.000000	0.045935  	44.000000	1.8673e-05	
47.000000	0.0428767 	47.000000	0.0435811 	47.000000	0.0432558 	47.000000	0.0432275 	47.000000	0.0435635 	47.000000	1.75751e-05	
50.000000	0.0408226 	50.000000	0.0414748 	50.000000	0.0411794 	50.000000	0.0411508 	50.000000	0.0414582 	50.000000	1.66036e-05	
55.000000	0.0378639 	55.000000	0.0384434 	55.000000	0.0381896 	55.000000	0.0381585 	55.000000	0.0384282 	55.000000	1.52103e-05	
60.000000	0.0353657 	60.000000	0.0358871 	60.000000	0.0356603 	60.000000	0.0356317 	60.000000	0.035873  	60.000000	1.40399e-05	
65.000000	0.0332265 	65.000000	0.0337011 	65.000000	0.0334975 	65.000000	0.0334681 	65.000000	0.033688  	65.000000	1.30425e-05	
70.000000	0.0313726 	70.000000	0.0318095 	70.000000	0.0316236 	70.000000	0.0315938 	70.000000	0.0317973 	70.000000	1.21818e-05	
75.000000	0.0297494 	75.000000	0.0301561 	75.000000	0.0299812 	75.000000	0.0299537 	75.000000	0.0301446 	75.000000	1.14313e-05	
80.000000	0.0283156 	80.000000	0.0286979 	80.000000	0.0285358 	80.000000	0.028506  	80.000000	0.0286872 	80.000000	1.07709e-05	
85.000000	0.027039  	85.000000	0.0274021 	85.000000	0.0272466 	85.000000	0.0272183 	85.000000	0.0273919 	85.000000	1.01852e-05	
90.000000	0.0258947 	90.000000	0.0262426 	90.000000	0.0260923 	90.000000	0.0260652 	90.000000	0.026233  	90.000000	9.66187e-06	
95.000000	0.0248627 	95.000000	0.0251989 	95.000000	0.0250554 	95.000000	0.0250264 	95.000000	0.0251897 	95.000000	9.19149e-06	
100.000000	0.0239268 	100.000000	0.0242542 	100.000000	0.0241134 	100.000000	0.0240856 	100.000000	0.0242454 	100.000000	8.76629e-06	
105.000000	0.0230739 	105.000000	0.0233949 	105.000000	0.0232561 	105.000000	0.0232295 	105.000000	0.0233865 	105.000000	8.37999e-06	
110.000000	0.0222932 	110.000000	0.0226099 	110.000000	0.0224721 	110.000000	0.0224469 	110.000000	0.0226019 	110.000000	8.02742e-06	
115.000000	0.0215756 	115.000000	0.0218899 	115.000000	0.0217549 	115.000000	0.0217287 	115.000000	0.0218822 	115.000000	7.70431e-06	
120.000000	0.0209137 	120.000000	0.021227  	120.000000	0.021094  	120.000000	0.0210672 	120.000000	0.0212196 	120.000000	7.40706e-06	
125.000000	0.020301  	125.000000	0.0206146 	125.000000	0.0204814 	125.000000	0.020456  	125.000000	0.0206075 	125.000000	7.13266e-06	
130.000000	0.0197322 	130.000000	0.0200472 	130.000000	0.0199141 	130.000000	0.0198894 	130.000000	0.0200403 	130.000000	6.87855e-06	
135.000000	0.0192024 	135.000000	0.0195199 	135.000000	0.0193885 	135.000000	0.0193628 	135.000000	0.0195132 	135.000000	6.64252e-06	
140.000000	0.0187078 	140.000000	0.0190286 	140.000000	0.0188978 	140.000000	0.018872  	140.000000	0.0190221 	140.000000	6.4227e-06	
145.000000	0.0182449 	145.000000	0.0185697 	145.000000	0.0184383 	145.000000	0.0184135 	145.000000	0.0185634 	145.000000	6.21744e-06	
150.000000	0.0178106 	150.000000	0.01814   	150.000000	0.0180083 	150.000000	0.0179841 	150.000000	0.018134  	150.000000	6.02534e-06	
155.000000	0.0171992 	155.000000	0.017737  	155.000000	0.0176046 	155.000000	0.0175812 	155.000000	0.0177311 	155.000000	5.84515e-06	
160.000000	0.0168407 	160.000000	0.017358  	160.000000	0.0172257 	160.000000	0.0172025 	160.000000	0.0173524 	160.000000	5.67579e-06	
165.000000	0.0165028 	165.000000	0.0170012 	165.000000	0.0168698 	165.000000	0.0168457 	165.000000	0.0169956 	165.000000	5.51629e-06	
170.000000	0.0161835 	170.000000	0.0166644 	170.000000	0.0165332 	170.000000	0.0165091 	170.000000	0.0166591 	170.000000	5.36582e-06	
175.000000	0.0158814 	175.000000	0.0163462 	175.000000	0.0162143 	175.000000	0.0161909 	175.000000	0.016341  	175.000000	5.22361e-06	
180.000000	0.0155951 	180.000000	0.016045  	180.000000	0.0159126 	180.000000	0.0158897 	180.000000	0.0160399 	180.000000	5.089e-06 	
185.000000	0.0153234 	185.000000	0.0157594 	185.000000	0.0156266 	185.000000	0.0156042 	185.000000	0.0157545 	185.000000	4.96138e-06	
190.000000	0.0150651 	190.000000	0.0154884 	190.000000	0.015355  	190.000000	0.0153332 	190.000000	0.0154835 	190.000000	4.84022e-06	
195.000000	0.0148194 	195.000000	0.0152307 	195.000000	0.0150976 	195.000000	0.0150757 	195.000000	0.015226  	195.000000	4.72504e-06	
200.000000	0.0145852 	200.000000	0.0149855 	200.000000	0.0148531 	200.000000	0.0148305 	200.000000	0.0149809 	200.000000	4.6154e-06	
210.000000	0.0141486 	210.000000	0.0145289 	210.000000	0.0143963 	210.000000	0.0143742 	210.000000	0.0145245 	210.000000	4.41119e-06	
220.000000	0.0137495 	220.000000	0.0141125 	220.000000	0.0139795 	220.000000	0.0139581 	220.000000	0.0141083 	220.000000	4.22485e-06	
230.000000	0.0133832 	230.000000	0.0137313 	230.000000	0.0135977 	230.000000	0.0135772 	230.000000	0.0137272 	230.000000	4.05411e-06	
240.000000	0.013046  	240.000000	0.0133809 	240.000000	0.0132484 	240.000000	0.0132273 	240.000000	0.013377  	240.000000	3.89708e-06	
250.000000	0.0127343 	250.000000	0.0130578 	250.000000	0.0129259 	250.000000	0.0129047 	250.000000	0.0130541 	250.000000	3.75214e-06	
260.000000	0.0124455 	260.000000	0.012759  	260.000000	0.0126269 	260.000000	0.0126065 	260.000000	0.0127554 	260.000000	3.61793e-06	
270.000000	0.0121771 	270.000000	0.0124818 	270.000000	0.0123499 	270.000000	0.01233   	270.000000	0.0124783 	270.000000	3.4933e-06	
280.000000	0.011927  	280.000000	0.012224  	280.000000	0.0120923 	280.000000	0.0120729 	280.000000	0.0122206 	280.000000	3.37724e-06	
290.000000	0.0116933 	290.000000	0.0119837 	290.000000	0.0118534 	290.000000	0.0118334 	290.000000	0.0119804 	290.000000	3.2689e-06	
300.000000	0.0114746 	300.000000	0.0117591 	300.000000	0.0116297 	300.000000	0.0116096 	300.000000	0.0117559 	300.000000	3.16751e-06	
310.000000	0.0112695 	310.000000	0.0115488 	310.000000	0.0114197 	310.000000	0.0114002 	310.000000	0.0115457 	310.000000	3.07242e-06	
320.000000	0.0110766 	320.000000	0.0113515 	320.000000	0.011223  	320.000000	0.0112038 	320.000000	0.0113485 	320.000000	2.98305e-06	
330.000000	0.0108951 	330.000000	0.011166  	330.000000	0.011038  	330.000000	0.0110193 	330.000000	0.0111631 	330.000000	2.89891e-06	
340.000000	0.0107238 	340.000000	0.0109914 	340.000000	0.0108641 	340.000000	0.0108457 	340.000000	0.0109886 	340.000000	2.81953e-06	
350.000000	0.0105621 	350.000000	0.0108267 	350.000000	0.0107009 	350.000000	0.010682  	350.000000	0.0108239 	350.000000	2.74452e-06	
360.000000	0.010409  	360.000000	0.0106711 	360.000000	0.0105465 	360.000000	0.0105274 	360.000000	0.0106684 	360.000000	2.67353e-06	
370.000000	0.010264  	370.000000	0.0105239 	370.000000	0.0104    	370.000000	0.0103813 	370.000000	0.0105213 	370.000000	2.60623e-06	
380.000000	0.0101264 	380.000000	0.0103845 	380.000000	0.0102613 	380.000000	0.010243  	380.000000	0.0103819 	380.000000	2.54235e-06	
390.000000	0.00999578	390.000000	0.0102522 	390.000000	0.0101299 	390.000000	0.0101118 	390.000000	0.0102498 	390.000000	2.48163e-06	
400.000000	0.00987153	400.000000	0.0101267 	400.000000	0.010005  	400.000000	0.00998731	400.000000	0.0101242 	400.000000	2.42383e-06	
410.000000	0.00975323	410.000000	0.0100073 	410.000000	0.00988652	410.000000	0.009869  	410.000000	0.0100049 	410.000000	2.36875e-06	
420.000000	0.00964049	420.000000	0.00989366	420.000000	0.00977424	420.000000	0.00975644	420.000000	0.00989134	420.000000	2.31619e-06	
430.000000	0.00953294	430.000000	0.00978541	430.000000	0.00966736	430.000000	0.00964925	430.000000	0.00978314	430.000000	2.26599e-06	
440.000000	0.00943023	440.000000	0.00968217	440.000000	0.00956442	440.000000	0.00954638	440.000000	0.00967995	440.000000	2.218e-06 	
450.000000	0.00933207	450.000000	0.00958362	450.000000	0.00946554	450.000000	0.0094478 	450.000000	0.00958145	450.000000	2.17205e-06	
460.000000	0.00923817	460.000000	0.00948946	460.000000	0.00937114	460.000000	0.00935365	460.000000	0.00948733	460.000000	2.12804e-06	
470.000000	0.00914827	470.000000	0.00939943	470.000000	0.00928096	470.000000	0.00926365	470.000000	0.00939734	470.000000	2.08583e-06	
480.000000	0.00906213	480.000000	0.00931326	480.000000	0.00919464	480.000000	0.00917755	480.000000	0.00931121	480.000000	2.04531e-06	
490.000000	0.00897954	490.000000	0.00923073	490.000000	0.00911194	490.000000	0.00909512	490.000000	0.00922873	490.000000	2.00639e-06	
500.000000	0.0089003 	500.000000	0.00915163	500.000000	0.00903284	500.000000	0.00901613	500.000000	0.00914966	500.000000	1.96897e-06	
520.000000	0.00875111	520.000000	0.00900295	520.000000	0.00888484	520.000000	0.00886773	520.000000	0.00900105	520.000000	1.89829e-06	
540.000000	0.00861322	540.000000	0.00886581	540.000000	0.00874807	540.000000	0.00873091	540.000000	0.00886398	540.000000	1.83267e-06	
560.000000	0.00848549	560.000000	0.00873901	560.000000	0.00862122	560.000000	0.00860447	560.000000	0.00873723	560.000000	1.77157e-06	
580.000000	0.00836692	580.000000	0.0086215 	580.000000	0.00850383	580.000000	0.00848733	580.000000	0.00861979	580.000000	1.71454e-06	
600.000000	0.00825663	600.000000	0.00851239	600.000000	0.00839474	600.000000	0.00837858	600.000000	0.00851073	600.000000	1.66117e-06	
620.000000	0.00815387	620.000000	0.00841088	620.000000	0.00829338	620.000000	0.00827741	620.000000	0.00840927	620.000000	1.61113e-06	
640.000000	0.00805797	640.000000	0.00831628	640.000000	0.00819936	640.000000	0.00818312	640.000000	0.00831472	640.000000	1.56411e-06	
660.000000	0.00796833	660.000000	0.00822798	660.000000	0.00811154	660.000000	0.00809508	660.000000	0.00822646	660.000000	1.51983e-06	
680.000000	0.00788444	680.000000	0.00814542	680.000000	0.00802903	680.000000	0.00801275	680.000000	0.00814395	680.000000	1.47807e-06	
700.000000	0.00780583	700.000000	0.00806815	700.000000	0.00795164	700.000000	0.00793564	700.000000	0.00806671	700.000000	1.43862e-06	
720.000000	0.00773207	720.000000	0.00799572	720.000000	0.00787914	720.000000	0.0078633 	720.000000	0.00799432	720.000000	1.40128e-06	
740.000000	0.0076628 	740.000000	0.00792775	740.000000	0.00781102	740.000000	0.00779536	740.000000	0.00792638	740.000000	1.36589e-06	
760.000000	0.00759768	760.000000	0.0078639 	760.000000	0.00774689	760.000000	0.00773147	760.000000	0.00786257	760.000000	1.3323e-06	
780.000000	0.00753641	780.000000	0.00780386	780.000000	0.0076866 	780.000000	0.00767131	780.000000	0.00780256	780.000000	1.30037e-06	
800.000000	0.00747872	800.000000	0.00774735	800.000000	0.00763   	800.000000	0.0076146 	800.000000	0.00774608	800.000000	1.26998e-06	
820.000000	0.00742435	820.000000	0.00769412	820.000000	0.0075767 	820.000000	0.00756108	820.000000	0.00769288	820.000000	1.24102e-06	
840.000000	0.00737309	840.000000	0.00764394	840.000000	0.00752626	840.000000	0.00751053	840.000000	0.00764272	840.000000	1.21339e-06	
860.000000	0.00732473	860.000000	0.0075966 	860.000000	0.00747839	860.000000	0.00746274	860.000000	0.00759541	860.000000	1.18701e-06	
880.000000	0.00727909	880.000000	0.00755191	880.000000	0.00743299	880.000000	0.0074175 	880.000000	0.00755075	880.000000	1.16178e-06	
900.000000	0.00723599	900.000000	0.0075097 	900.000000	0.00738997	900.000000	0.00737466	900.000000	0.00750857	900.000000	1.13764e-06	
920.000000	0.00719527	920.000000	0.00746982	920.000000	0.00734923	920.000000	0.00733404	920.000000	0.0074687 	920.000000	1.11451e-06	
940.000000	0.0071568 	940.000000	0.00743211	940.000000	0.0073106 	940.000000	0.00729551	940.000000	0.00743102	940.000000	1.09233e-06	
960.000000	0.00712044	960.000000	0.00739645	960.000000	0.00727394	960.000000	0.00725894	960.000000	0.00739538	960.000000	1.07104e-06	
980.000000	0.00708607	980.000000	0.00736271	980.000000	0.00723911	980.000000	0.00722419	980.000000	0.00736166	980.000000	1.05059e-06	
1000.000000	0.00705357	1000.000000	0.00733077	1000.000000	0.00720598	1000.000000	0.00719115	1000.000000	0.00732974	1000.000000	1.03094e-06	
1020.000000	0.00702285	1020.000000	0.00730054	1020.000000	0.00717446	1020.000000	0.00715973	1020.000000	0.00729953	1020.000000	1.01202e-06	
1040.000000	0.00699381	1040.000000	0.00727192	1040.000000	0.00714443	1040.000000	0.00712982	1040.000000	0.00727093	1040.000000	9.93811e-07	
1060.000000	0.00696635	1060.000000	0.00724482	1060.000000	0.00711582	1060.000000	0.00710134	1060.000000	0.00724385	1060.000000	9.76264e-07	
1080.000000	0.0069404 	1080.000000	0.00721916	1080.000000	0.00708858	1080.000000	0.0070742 	1080.000000	0.0072182 	1080.000000	9.59345e-07	
1100.000000	0.00691588	1100.000000	0.00719485	1100.000000	0.00706267	1100.000000	0.00704833	1100.000000	0.00719391	1100.000000	9.43021e-07	
1120.000000	0.00689271	1120.000000	0.00717184	1120.000000	0.00703802	1120.000000	0.00702366	1120.000000	0.00717091	1120.000000	9.27259e-07	
1140.000000	0.00687084	1140.000000	0.00715004	1140.000000	0.00701456	1140.000000	0.00700011	1140.000000	0.00714913	1140.000000	9.12032e-07	
1160.000000	0.00685019	1160.000000	0.00712941	1160.000000	0.0069922 	1160.000000	0.00697764	1160.000000	0.00712851	1160.000000	8.97312e-07	
1180.000000	0.00683071	1180.000000	0.00710987	1180.000000	0.00697083	1180.000000	0.00695618	1180.000000	0.00710899	1180.000000	8.83074e-07	
1200.000000	0.00681234	1200.000000	0.00709139	1200.000000	0.00695039	1200.000000	0.00693567	1200.000000	0.00709052	1200.000000	8.69295e-07	
1220.000000	0.00679504	1220.000000	0.0070739 	1220.000000	0.00693081	1220.000000	0.00691608	1220.000000	0.00707304	1220.000000	8.55952e-07	
1240.000000	0.00677875	1240.000000	0.00705736	1240.000000	0.00691204	1240.000000	0.00689735	1240.000000	0.00705652	1240.000000	8.43025e-07	
1260.000000	0.00676344	1260.000000	0.00704173	1260.000000	0.00689406	1260.000000	0.00687943	1260.000000	0.0070409 	1260.000000	8.30495e-07	
1280.000000	0.00674905	1280.000000	0.00702696	1280.000000	0.00687684	1280.000000	0.0068623 	1280.000000	0.00702614	1280.000000	8.18343e-07	
1300.000000	0.00673554	1300.000000	0.00701302	1300.000000	0.00686036	1300.000000	0.0068459 	1300.000000	0.00701221	1300.000000	8.06552e-07	
1320.000000	0.00672289	1320.000000	0.00699986	1320.000000	0.0068446 	1320.000000	0.00683021	1320.000000	0.00699906	1320.000000	7.95107e-07	
1340.000000	0.00671106	1340.000000	0.00698746	1340.000000	0.00682952	1340.000000	0.00681518	1340.000000	0.00698667	1340.000000	7.83991e-07	
1360.000000	0.0067    	1360.000000	0.00697577	1360.000000	0.00681508	1360.000000	0.0068008 	1360.000000	0.006975  	1360.000000	7.73192e-07	
1380.000000	0.00668969	1380.000000	0.00696478	1380.000000	0.00680126	1380.000000	0.00678702	1380.000000	0.00696402	1380.000000	7.62695e-07	
1400.000000	0.00668011	1400.000000	0.00695445	1400.000000	0.00678803	1400.000000	0.00677382	1400.000000	0.00695369	1400.000000	7.52489e-07	
1420.000000	0.00667121	1420.000000	0.00694475	1420.000000	0.00677534	1420.000000	0.00676118	1420.000000	0.006944  	1420.000000	7.42559e-07	
1440.000000	0.00666299	1440.000000	0.00693565	1440.000000	0.00676317	1440.000000	0.00674906	1440.000000	0.00693492	1440.000000	7.32897e-07	
1460.000000	0.0066554 	1460.000000	0.00692714	1460.000000	0.0067515 	1460.000000	0.00673745	1460.000000	0.00692642	1460.000000	7.2349e-07	
1480.000000	0.00664842	1480.000000	0.00691919	1480.000000	0.00674032	1480.000000	0.00672632	1480.000000	0.00691848	1480.000000	7.1433e-07	
1500.000000	0.00664204	1500.000000	0.00691178	1500.000000	0.00672959	1500.000000	0.00671566	1500.000000	0.00691107	1500.000000	7.05405e-07	
1520.000000	0.00663624	1520.000000	0.00690488	1520.000000	0.00671931	1520.000000	0.00670543	1520.000000	0.00690418	1520.000000	6.96707e-07	
1540.000000	0.00663098	1540.000000	0.00689848	1540.000000	0.00670946	1540.000000	0.00669562	1540.000000	0.00689779	1540.000000	6.88228e-07	
1560.000000	0.00662625	1560.000000	0.00689255	1560.000000	0.00670003	1560.000000	0.00668622	1560.000000	0.00689187	1560.000000	6.79959e-07	
1580.000000	0.00662204	1580.000000	0.00688709	1580.000000	0.006691  	1580.000000	0.00667721	1580.000000	0.00688642	1580.000000	6.71892e-07	
1600.000000	0.00661832	1600.000000	0.00688207	1600.000000	0.00668236	1600.000000	0.00666857	1600.000000	0.0068814 	1600.000000	6.6402e-07	
1620.000000	0.00661509	1620.000000	0.00687747	1620.000000	0.00667409	1620.000000	0.00666028	1620.000000	0.00687681	1620.000000	6.56336e-07	
1640.000000	0.00661231	1640.000000	0.00687328	1640.000000	0.00666618	1640.000000	0.00665233	1640.000000	0.00687264	1640.000000	6.48834e-07	
1660.000000	0.00660998	1660.000000	0.0068695 	1660.000000	0.0066586 	1660.000000	0.00664472	1660.000000	0.00686885	1660.000000	6.41506e-07	
1680.000000	0.00660809	1680.000000	0.00686609	1680.000000	0.00665135	1680.000000	0.00663741	1680.000000	0.00686545	1680.000000	6.34346e-07	
1700.000000	0.00660661	1700.000000	0.00686305	1700.000000	0.00664439	1700.000000	0.00663041	1700.000000	0.00686242	1700.000000	6.2735e-07	
1750.000000	0.00660466	1750.000000	0.00685699	1750.000000	0.00662823	1750.000000	0.00661415	1750.000000	0.00685638	1750.000000	6.10536e-07	
1800.000000	0.00660506	1800.000000	0.00685297	1800.000000	0.00661367	1800.000000	0.00659953	1800.000000	0.00685237	1800.000000	5.94625e-07	
1850.000000	0.00660763	1850.000000	0.00685083	1850.000000	0.00660053	1850.000000	0.0065864 	1850.000000	0.00685025	1850.000000	5.79547e-07	
1900.000000	0.00661221	1900.000000	0.00685042	1900.000000	0.0065887 	1900.000000	0.00657462	1900.000000	0.00684985	1900.000000	5.65236e-07	
1950.000000	0.00661867	1950.000000	0.00685161	1950.000000	0.00657808	1950.000000	0.00656408	1950.000000	0.00685106	1950.000000	5.51636e-07	
2000.000000	0.00662688	2000.000000	0.00685428	2000.000000	0.00656859	2000.000000	0.00655466	2000.000000	0.00685374	2000.000000	5.38693e-07	
2100.000000	0.0066481 	2100.000000	0.00686363	2100.000000	0.00655263	2100.000000	0.00653884	2100.000000	0.00686312	2100.000000	5.14598e-07	
2200.000000	0.00667507	2200.000000	0.00687774	2200.000000	0.00654017	2200.000000	0.00652647	2200.000000	0.00687725	2200.000000	4.92624e-07	
2300.000000	0.00670714	2300.000000	0.00689598	2300.000000	0.00653065	2300.000000	0.00651703	2300.000000	0.00689551	2300.000000	4.72501e-07	
2400.000000	0.00674375	2400.000000	0.00691783	2400.000000	0.00652361	2400.000000	0.00651006	2400.000000	0.00691737	2400.000000	4.54002e-07	
2500.000000	0.00678441	2500.000000	0.00694285	2500.000000	0.00651868	2500.000000	0.00650519	2500.000000	0.00694242	2500.000000	4.36936e-07	
2600.000000	0.00682875	2600.000000	0.00697069	2600.000000	0.00651554	2600.000000	0.00650213	2600.000000	0.00697027	2600.000000	4.21142e-07	
2700.000000	0.0068764 	2700.000000	0.00700101	2700.000000	0.00651396	2700.000000	0.0065006 	2700.000000	0.00700061	2700.000000	4.06481e-07	
2800.000000	0.00692708	2800.000000	0.00703356	2800.000000	0.00651371	2800.000000	0.0065004 	2800.000000	0.00703317	2800.000000	3.92834e-07	
2900.000000	0.00698053	2900.000000	0.0070681 	2900.000000	0.00651462	2900.000000	0.00650134	2900.000000	0.00706772	2900.000000	3.80099e-07	
3000.000000	0.00703652	3000.000000	0.00710442	3000.000000	0.00651653	3000.000000	0.00650326	3000.000000	0.00710406	3000.000000	3.68186e-07	
3200.000000	0.00715537	3200.000000	0.00718174	3200.000000	0.0065228 	3200.000000	0.00650953	3200.000000	0.0071814 	3200.000000	3.46526e-07	
3400.000000	0.00728233	3400.000000	0.00726435	3400.000000	0.00653163	3400.000000	0.00651837	3400.000000	0.00726403	3400.000000	3.27337e-07	
3600.000000	0.00741637	3600.000000	0.00735135	3600.000000	0.00654237	3600.000000	0.00652911	3600.000000	0.00735104	3600.000000	3.10216e-07	
3800.000000	0.00755668	3800.000000	0.007442  	3800.000000	0.00655453	3800.000000	0.00654129	3800.000000	0.00744171	3800.000000	2.94842e-07	
4000.000000	0.00770261	4000.000000	0.00753575	4000.000000	0.00656774	4000.000000	0.00655453	4000.000000	0.00753547	4000.000000	2.80959e-07	
4200.000000	0.00785361	4200.000000	0.00763211	4200.000000	0.00658173	4200.000000	0.00656855	4200.000000	0.00763184	4200.000000	2.68359e-07	
4400.000000	0.00800924	4400.000000	0.00773072	4400.000000	0.00659628	4400.000000	0.00658314	4400.000000	0.00773046	4400.000000	2.56869e-07	
4600.000000	0.00816914	4600.000000	0.00783126	4600.000000	0.00661122	4600.000000	0.00659811	4600.000000	0.00783101	4600.000000	2.46349e-07	
4800.000000	0.00833299	4800.000000	0.00793346	4800.000000	0.00662642	4800.000000	0.00661334	4800.000000	0.00793323	4800.000000	2.36678e-07	
5000.000000	0.00850053	5000.000000	0.00803712	5000.000000	0.00664177	5000.000000	0.00662872	5000.000000	0.00803689	5000.000000	2.27758e-07	
5250.000000	0.00871482	5250.000000	0.00816844	5250.000000	0.00666105	5250.000000	0.00664803	5250.000000	0.00816822	5250.000000	2.17535e-07	
5500.000000	0.00893418	5500.000000	0.00830144	5500.000000	0.00668032	5500.000000	0.00666733	5500.000000	0.00830123	5500.000000	2.08214e-07	
6000.000000	0.00938691	6000.000000	0.00857152	6000.000000	0.00671848	6000.000000	0.00670553	6000.000000	0.00857133	6000.000000	1.91835e-07	
6500.000000	0.00985685	6500.000000	0.00884583	6500.000000	0.00675576	6500.000000	0.00674284	6500.000000	0.00884565	6500.000000	1.77904e-07	
7000.000000	0.0103426 	7000.000000	0.00912329	7000.000000	0.0067919 	7000.000000	0.006779  	7000.000000	0.00912312	7000.000000	1.65906e-07	
7500.000000	0.0108432 	7500.000000	0.00940312	7500.000000	0.00682678	7500.000000	0.00681391	7500.000000	0.00940297	7500.000000	1.55462e-07	
8000.000000	0.0113579 	8000.000000	0.00968475	8000.000000	0.00686039	8000.000000	0.0068475 	8000.000000	0.0096846 	8000.000000	1.46286e-07	
8500.000000	0.011886  	8500.000000	0.00996774	8500.000000	0.00689263	8500.000000	0.0068798 	8500.000000	0.0099676 	8500.000000	1.38159e-07	
9000.000000	0.0124272 	9000.000000	0.0102518 	9000.000000	0.00692354	9000.000000	0.00691084	9000.000000	0.0102516 	9000.000000	1.30909e-07	
9500.000000	0.012981  	9500.000000	0.0105366 	9500.000000	0.00695326	9500.000000	0.00694066	9500.000000	0.0105364 	9500.000000	1.244e-07 	
10000.000000	0.0135472 	10000.000000	0.0108219 	10000.000000	0.00698188	10000.000000	0.00696932	10000.000000	0.0108218 	10000.000000	1.18524e-07	
11000.000000	0.0147159 	11000.000000	0.0113938 	11000.000000	0.00703596	11000.000000	0.00702339	11000.000000	0.0113937 	11000.000000	1.0833e-07	
12000.000000	0.0159318 	12000.000000	0.0119665 	12000.000000	0.00708607	12000.000000	0.00707352	12000.000000	0.0119664 	12000.000000	9.97883e-08	
13000.000000	0.0171942 	13000.000000	0.0125394 	13000.000000	0.00713255	13000.000000	0.00712014	13000.000000	0.0125393 	13000.000000	9.25249e-08	
14000.000000	0.0185023 	14000.000000	0.013112  	14000.000000	0.0071758 	14000.000000	0.00716365	14000.000000	0.0131119 	14000.000000	8.62707e-08	
15000.000000	0.0198557 	15000.000000	0.0136842 	15000.000000	0.00721621	15000.000000	0.00720438	15000.000000	0.0136841 	15000.000000	8.08276e-08	
16000.000000	0.0212542 	16000.000000	0.0142558 	16000.000000	0.00725419	16000.000000	0.00724263	16000.000000	0.0142557 	16000.000000	7.60462e-08	
17000.000000	0.0226977 	17000.000000	0.0148266 	17000.000000	0.00729003	17000.000000	0.00727865	17000.000000	0.0148265 	17000.000000	7.18119e-08	
18000.000000	0.024186  	18000.000000	0.0153966 	18000.000000	0.00732395	18000.000000	0.00731267	18000.000000	0.0153965 	18000.000000	6.80351e-08	
19000.000000	0.0257192 	19000.000000	0.0159657 	19000.000000	0.00735612	19000.000000	0.00734487	19000.000000	0.0159656 	19000.000000	6.4645e-08	
20000.000000	0.0272972 	20000.000000	0.0165338 	20000.000000	0.0073867 	20000.000000	0.00737543	20000.000000	0.0165338 	20000.000000	6.15846e-08	
21000.000000	0.0289202 	21000.000000	0.0171011 	21000.000000	0.00741577	21000.000000	0.0074045 	21000.000000	0.017101  	21000.000000	5.88077e-08	
22000.000000	0.0305881 	22000.000000	0.0176674 	22000.000000	0.00744325	22000.000000	0.0074322 	22000.000000	0.0176674 	22000.000000	5.62764e-08	
23000.000000	0.0323013 	23000.000000	0.0182328 	23000.000000	0.00746928	23000.000000	0.00745865	23000.000000	0.0182327 	23000.000000	5.39591e-08	
24000.000000	0.0340597 	24000.000000	0.0187973 	24000.000000	0.00749429	24000.000000	0.00748394	24000.000000	0.0187972 	24000.000000	5.18296e-08	
25000.000000	0.0358635 	25000.000000	0.0193608 	25000.000000	0.00751856	25000.000000	0.00750818	25000.000000	0.0193607 	25000.000000	4.98659e-08	
26000.000000	0.0377129 	26000.000000	0.0199234 	26000.000000	0.00754177	26000.000000	0.00753143	26000.000000	0.0199234 	26000.000000	4.8049e-08	
27000.000000	0.0396081 	27000.000000	0.0204852 	27000.000000	0.00756381	27000.000000	0.00755378	27000.000000	0.0204851 	27000.000000	4.63631e-08	
28000.000000	0.0415493 	28000.000000	0.0210461 	28000.000000	0.00758491	28000.000000	0.00757528	28000.000000	0.021046  	28000.000000	4.47943e-08	
29000.000000	0.0435366 	29000.000000	0.0216061 	29000.000000	0.00760528	29000.000000	0.007596  	29000.000000	0.0216061 	29000.000000	4.33308e-08	
30000.000000	0.0455703 	30000.000000	0.0221653 	30000.000000	0.007625  	30000.000000	0.00761598	30000.000000	0.0221653 	30000.000000	4.19622e-08	
32000.000000	0.0497777 	32000.000000	0.0232813 	32000.000000	0.00766246	32000.000000	0.00765394	32000.000000	0.0232813 	32000.000000	3.94747e-08	
34000.000000	0.0541731 	34000.000000	0.0243941 	34000.000000	0.00769742	34000.000000	0.00768947	34000.000000	0.0243941 	34000.000000	3.72721e-08	
36000.000000	0.0587585 	36000.000000	0.025504  	36000.000000	0.00773023	36000.000000	0.00772288	36000.000000	0.025504  	36000.000000	3.53079e-08	
38000.000000	0.0635357 	38000.000000	0.026611  	38000.000000	0.00776116	38000.000000	0.00775437	38000.000000	0.026611  	38000.000000	3.35449e-08	
40000.000000	0.0685066 	40000.000000	0.0277152 	40000.000000	0.00779037	40000.000000	0.00778416	40000.000000	0.0277152 	40000.000000	3.19536e-08	
42000.000000	0.0736733 	42000.000000	0.0288169 	42000.000000	0.007818  	42000.000000	0.00781242	42000.000000	0.0288169 	42000.000000	3.05098e-08	
44000.000000	0.0790378 	44000.000000	0.029916  	44000.000000	0.00784418	44000.000000	0.00783928	44000.000000	0.029916  	44000.000000	2.91939e-08	
46000.000000	0.0846022 	46000.000000	0.0310127 	46000.000000	0.00786905	46000.000000	0.00786489	46000.000000	0.0310127 	46000.000000	2.79893e-08	
48000.000000	0.0903685 	48000.000000	0.0321072 	48000.000000	0.00789272	48000.000000	0.00788933	48000.000000	0.0321071 	48000.000000	2.68825e-08	
50000.000000	0.0963389 	50000.000000	0.0331993 	50000.000000	0.00791528	50000.000000	0.00791273	50000.000000	0.0331993 	50000.000000	2.58619e-08	
