Energy (MeV/u)1	0 - [He-base] F.Hubert et al, AD&ND Tables 46(1990)1	Energy (MeV/u)2	1 - [H -base] J.F.Ziegler et al, Pergamon Press, NY (low energy)	Energy (MeV/u)3	2 - ATIMA 1.2  LS-theory (recommended for high energy)	Energy (MeV/u)4	3 - ATIMA 1.2  without LS-correction	Energy (MeV/u)5	4 - electrical component of [1] - J.F.Ziegler et al	Energy (MeV/u)6	5 - nuclear component of [1] - J.F.Ziegler et al	
0.001000	5.77745   	0.001000	4.05737   	0.001000	4.14809   	0.001000	4.14809   	0.001000	0.794847  	0.001000	3.26253   	
0.002000	5.81175   	0.002000	3.97436   	0.002000	4.12574   	0.002000	4.12574   	0.002000	1.10095   	0.002000	2.87341   	
0.005000	5.99486   	0.005000	3.79231   	0.005000	4.07882   	0.005000	4.07882   	0.005000	1.69355   	0.005000	2.09876   	
0.008000	6.29698   	0.008000	3.79579   	0.008000	4.18816   	0.008000	4.18816   	0.008000	2.1122    	0.008000	1.68359   	
0.010000	6.51161   	0.010000	3.84362   	0.010000	4.29806   	0.010000	4.29806   	0.010000	2.34576   	0.010000	1.49786   	
0.015000	7.3569    	0.015000	4.07174   	0.015000	4.64449   	0.015000	4.64449   	0.015000	2.88187   	0.015000	1.18988   	
0.020000	8.16941   	0.020000	4.62337   	0.020000	5.25292   	0.020000	5.25292   	0.020000	3.62527   	0.020000	0.998107  	
0.025000	9.13777   	0.025000	5.23086   	0.025000	5.92666   	0.025000	5.92666   	0.025000	4.3654    	0.025000	0.865456  	
0.030000	10.0278   	0.030000	5.86407   	0.030000	6.49097   	0.030000	6.49097   	0.030000	5.09665   	0.030000	0.767418  	
0.035000	10.8131   	0.035000	6.50437   	0.035000	7.05747   	0.035000	7.05747   	0.035000	5.81279   	0.035000	0.691576  	
0.040000	11.4927   	0.040000	7.13941   	0.040000	7.61825   	0.040000	7.61825   	0.040000	6.5085    	0.040000	0.630909  	
0.045000	12.0534   	0.045000	7.75768   	0.045000	8.1652    	0.045000	8.1652    	0.045000	7.17957   	0.045000	0.578114  	
0.050000	12.4939   	0.050000	8.35971   	0.050000	8.70122   	0.050000	8.70122   	0.050000	7.823     	0.050000	0.536711  	
0.055000	13.2077   	0.055000	8.93835   	0.055000	9.22066   	0.055000	9.22066   	0.055000	8.43691   	0.055000	0.501436  	
0.060000	13.8509   	0.060000	9.4894    	0.060000	9.72012   	0.060000	9.72012   	0.060000	9.0204    	0.060000	0.469007  	
0.070000	14.9323   	0.070000	10.5155   	0.070000	10.6663   	0.070000	10.6663   	0.070000	10.0963   	0.070000	0.419206  	
0.080000	16.0824   	0.080000	11.4361   	0.080000	11.5357   	0.080000	11.5357   	0.080000	11.0563   	0.080000	0.379843  	
0.090000	17.0566   	0.090000	12.259    	0.090000	12.3306   	0.090000	12.3306   	0.090000	11.9111   	0.090000	0.34786   	
0.100000	17.8911   	0.100000	12.9946   	0.100000	13.0556   	0.100000	13.0556   	0.100000	12.6733   	0.100000	0.321303  	
0.120000	18.8191   	0.120000	14.2472   	0.120000	14.3194   	0.120000	14.3194   	0.120000	13.9675   	0.120000	0.27962   	
0.140000	19.5443   	0.140000	15.2827   	0.140000	15.3737   	0.140000	15.3737   	0.140000	15.0344   	0.140000	0.248274  	
0.160000	20.2084   	0.160000	16.1745   	0.160000	16.2597   	0.160000	16.2597   	0.160000	15.9508   	0.160000	0.223758  	
0.180000	20.8424   	0.180000	16.9264   	0.180000	17.0105   	0.180000	17.0105   	0.180000	16.7224   	0.180000	0.204007  	
0.200000	21.4757   	0.200000	17.5687   	0.200000	17.652    	0.200000	17.652    	0.200000	17.381    	0.200000	0.187721  	
0.250000	22.3618   	0.250000	18.8298   	0.250000	18.898    	0.250000	18.898    	0.250000	18.6727   	0.250000	0.157148  	
0.300000	23.5113   	0.300000	20.003    	0.300000	19.788    	0.300000	19.788    	0.300000	19.8673   	0.300000	0.135704  	
0.350000	24.5839   	0.350000	20.9855   	0.350000	20.4462   	0.350000	20.4462   	0.350000	20.8657   	0.350000	0.119758  	
0.400000	25.4764   	0.400000	21.7471   	0.400000	21.1657   	0.400000	21.1657   	0.400000	21.6397   	0.400000	0.107395  	
0.450000	26.2089   	0.450000	22.3475   	0.450000	22.444    	0.450000	22.444    	0.450000	22.25     	0.450000	0.0975069 	
0.500000	26.9918   	0.500000	22.9741   	0.500000	23.2537   	0.500000	23.2537   	0.500000	22.8847   	0.500000	0.089402  	
0.600000	27.5028   	0.600000	24.1959   	0.600000	23.9211   	0.600000	23.9211   	0.600000	24.119    	0.600000	0.0768751 	
0.700000	27.4363   	0.700000	25.0206   	0.700000	24.3348   	0.700000	24.3348   	0.700000	24.953    	0.700000	0.067613  	
0.800000	28.0692   	0.800000	25.5676   	0.800000	24.5849   	0.800000	24.5849   	0.800000	25.5071   	0.800000	0.060465  	
0.900000	28.319    	0.900000	25.7883   	0.900000	24.7218   	0.900000	24.7218   	0.900000	25.7335   	0.900000	0.0547689 	
1.000000	28.3922   	1.000000	25.8609   	1.000000	24.7764   	1.000000	24.7764   	1.000000	25.8108   	1.000000	0.0501149 	
1.250000	28.1009   	1.250000	25.7206   	1.250000	24.6731   	1.250000	24.6731   	1.250000	25.6791   	1.250000	0.0414863 	
1.500000	27.3459   	1.500000	25.184    	1.500000	24.2505   	1.500000	24.2505   	1.500000	25.1485   	1.500000	0.0355212 	
1.750000	26.3874   	1.750000	24.459    	1.750000	23.668    	1.750000	23.668    	1.750000	24.4279   	1.750000	0.0311348 	
2.000000	25.3487   	2.000000	23.6537   	2.000000	23.0959   	2.000000	23.0959   	2.000000	23.626    	2.000000	0.0277644 	
2.250000	24.4212   	2.250000	22.9043   	2.250000	22.5375   	2.250000	22.5375   	2.250000	22.8792   	2.250000	0.0250884 	
2.500000	26.9801   	2.500000	22.1396   	2.500000	21.9956   	2.500000	21.9956   	2.500000	22.1167   	2.500000	0.0229087 	
3.000000	25.1836   	3.000000	20.805    	3.000000	20.9675   	3.000000	20.9675   	3.000000	20.7854   	3.000000	0.0195653 	
3.500000	23.5776   	3.500000	19.7997   	3.500000	20.0169   	3.500000	20.0169   	3.500000	19.7826   	3.500000	0.0171142 	
4.000000	22.1535   	4.000000	18.9243   	4.000000	19.1418   	4.000000	19.1418   	4.000000	18.909    	4.000000	0.0152357 	
4.500000	20.8907   	4.500000	18.133    	4.500000	18.3369   	4.500000	18.3369   	4.500000	18.1193   	4.500000	0.0137473 	
5.000000	19.767    	5.000000	17.4092   	5.000000	17.596    	5.000000	17.596    	5.000000	17.3966   	5.000000	0.0125371 	
5.500000	18.7625   	5.500000	16.7419   	5.500000	16.9128   	5.500000	16.9128   	5.500000	16.7304   	5.500000	0.0115327 	
6.000000	17.8602   	6.000000	16.1254   	6.000000	16.2814   	6.000000	16.2814   	6.000000	16.1147   	6.000000	0.0106849 	
6.500000	17.0456   	6.500000	15.554    	6.500000	15.6966   	6.500000	15.6966   	6.500000	15.544    	6.500000	0.00995921	
7.000000	16.3067   	7.000000	15.0229   	7.000000	15.1535   	7.000000	15.1535   	7.000000	15.0135   	7.000000	0.00933053	
7.500000	15.6336   	7.500000	14.5282   	7.500000	14.6479   	7.500000	14.6479   	7.500000	14.5194   	7.500000	0.00878034	
8.000000	15.0178   	8.000000	14.0665   	8.000000	14.1762   	8.000000	14.1762   	8.000000	14.0582   	8.000000	0.00829458	
8.500000	14.4524   	8.500000	13.6346   	8.500000	13.7351   	8.500000	13.7351   	8.500000	13.6268   	8.500000	0.00786237	
9.000000	13.9312   	9.000000	13.2299   	9.000000	13.3217   	9.000000	13.3217   	9.000000	13.2224   	9.000000	0.00747518	
9.500000	13.4493   	9.500000	12.8497   	9.500000	12.9334   	9.500000	12.9334   	9.500000	12.8426   	9.500000	0.0071262 	
10.000000	13.0024   	10.000000	12.5795   	10.000000	12.5681   	10.000000	12.5681   	10.000000	12.5727   	10.000000	0.00680995	
11.000000	12.199    	11.000000	11.9202   	11.000000	11.8585   	11.000000	11.9262   	11.000000	11.914    	11.000000	0.00625854	
12.000000	11.497    	12.000000	11.3267   	12.000000	11.2274   	12.000000	11.3463   	12.000000	11.3209   	12.000000	0.00579363	
13.000000	10.878    	13.000000	10.7902   	13.000000	10.6628   	13.000000	10.8203   	13.000000	10.7848   	13.000000	0.00539606	
14.000000	10.3279   	14.000000	10.3035   	14.000000	10.1546   	14.000000	10.3413   	14.000000	10.2984   	14.000000	0.00505197	
15.000000	9.83564   	15.000000	9.86007   	15.000000	9.69466   	15.000000	9.90345   	15.000000	9.85532   	15.000000	0.0047511 	
16.000000	9.39241   	16.000000	9.45465   	16.000000	9.27645   	16.000000	9.50178   	16.000000	9.45017   	16.000000	0.00448566	
17.000000	8.9911    	17.000000	9.08266   	17.000000	8.89465   	17.000000	9.13211   	17.000000	9.07841   	17.000000	0.00424965	
18.000000	8.62594   	18.000000	8.7402    	18.000000	8.54481   	18.000000	8.79087   	18.000000	8.73616   	18.000000	0.00403836	
19.000000	8.29218   	19.000000	8.42395   	19.000000	8.22315   	19.000000	8.47497   	19.000000	8.4201    	19.000000	0.00384804	
20.000000	7.98585   	20.000000	8.13104   	20.000000	7.9264    	20.000000	8.18179   	20.000000	8.12736   	20.000000	0.00367567	
21.000000	7.70366   	21.000000	7.85901   	21.000000	7.65185   	21.000000	7.90903   	21.000000	7.85549   	21.000000	0.00351879	
22.000000	7.44281   	22.000000	7.60572   	22.000000	7.39714   	22.000000	7.6547    	22.000000	7.60234   	22.000000	0.00337536	
23.000000	7.20092   	23.000000	7.36932   	23.000000	7.16019   	23.000000	7.41708   	23.000000	7.36607   	23.000000	0.0032437 	
24.000000	6.97596   	24.000000	7.14818   	24.000000	6.93913   	24.000000	7.19463   	24.000000	7.14506   	24.000000	0.0031224 	
25.000000	6.76619   	25.000000	6.94088   	25.000000	6.73259   	25.000000	6.98602   	25.000000	6.93787   	25.000000	0.00301025	
27.000000	6.38633   	27.000000	6.56293   	27.000000	6.35884   	27.000000	6.60567   	27.000000	6.56012   	27.000000	0.00280954	
29.000000	6.05141   	29.000000	6.22707   	29.000000	6.0294    	29.000000	6.26805   	29.000000	6.22443   	29.000000	0.00263502	
31.000000	5.75376   	31.000000	5.92666   	31.000000	5.74348   	31.000000	5.96277   	31.000000	5.92418   	31.000000	0.00248182	
33.000000	5.48739   	33.000000	5.65639   	33.000000	5.4928    	33.000000	5.68519   	33.000000	5.65405   	33.000000	0.00234621	
35.000000	5.24754   	35.000000	5.41194   	35.000000	5.26557   	35.000000	5.43485   	35.000000	5.40972   	35.000000	0.00222527	
38.000000	4.92928   	38.000000	5.08615   	38.000000	4.96197   	38.000000	5.1022    	38.000000	5.08408   	38.000000	0.00206649	
41.000000	4.65209   	41.000000	4.80122   	41.000000	4.69503   	41.000000	4.81214   	41.000000	4.79929   	41.000000	0.00192976	
44.000000	4.40837   	44.000000	4.54991   	44.000000	4.45797   	44.000000	4.55695   	44.000000	4.5481    	44.000000	0.00181072	
47.000000	4.19231   	47.000000	4.32662   	47.000000	4.24702   	47.000000	4.33067   	47.000000	4.32492   	47.000000	0.00170611	
50.000000	3.99937   	50.000000	4.12691   	50.000000	4.05801   	50.000000	4.12862   	50.000000	4.12529   	50.000000	0.00161341	
55.000000	3.71976   	55.000000	3.83711   	55.000000	3.78252   	55.000000	3.83597   	55.000000	3.83563   	55.000000	0.00148027	
60.000000	3.48215   	60.000000	3.59067   	60.000000	3.54706   	60.000000	3.58754   	60.000000	3.5893    	60.000000	0.00136824	
65.000000	3.27758   	65.000000	3.37852   	65.000000	3.34363   	65.000000	3.37397   	65.000000	3.37725   	65.000000	0.00127261	
70.000000	3.09949   	70.000000	3.19397   	70.000000	3.16621   	70.000000	3.18835   	70.000000	3.19278   	70.000000	0.00118998	
75.000000	2.94296   	75.000000	3.03194   	75.000000	3.00964   	75.000000	3.0255    	75.000000	3.03082   	75.000000	0.00111783	
80.000000	2.80422   	80.000000	2.88854   	80.000000	2.8709    	80.000000	2.88146   	80.000000	2.88748   	80.000000	0.00105427	
85.000000	2.68035   	85.000000	2.76073   	85.000000	2.74673   	85.000000	2.75312   	85.000000	2.75973   	85.000000	0.000997821	
90.000000	2.56904   	90.000000	2.64608   	90.000000	2.63526   	90.000000	2.63803   	90.000000	2.64514   	90.000000	0.000947347	
95.000000	2.46842   	95.000000	2.54267   	95.000000	2.53463   	95.000000	2.53423   	95.000000	2.54177   	95.000000	0.000901932	
100.000000	2.377     	100.000000	2.4489    	100.000000	2.443     	100.000000	2.44013   	100.000000	2.44804   	100.000000	0.000860842	
105.000000	2.29354   	105.000000	2.3635    	105.000000	2.35949   	105.000000	2.35442   	105.000000	2.36267   	105.000000	0.000823479	
110.000000	2.21703   	110.000000	2.28537   	110.000000	2.28281   	110.000000	2.27603   	110.000000	2.28458   	110.000000	0.000789351	
115.000000	2.1466    	115.000000	2.21363   	115.000000	2.2123    	115.000000	2.20404   	115.000000	2.21287   	115.000000	0.00075805	
120.000000	2.08156   	120.000000	2.14752   	120.000000	2.14731   	120.000000	2.1377    	120.000000	2.14679   	120.000000	0.000729235	
125.000000	2.02129   	125.000000	2.08641   	125.000000	2.0872    	125.000000	2.07637   	125.000000	2.08571   	125.000000	0.000702616	
130.000000	1.96526   	130.000000	2.02974   	130.000000	2.03142   	130.000000	2.01951   	130.000000	2.02906   	130.000000	0.000677949	
135.000000	1.91305   	135.000000	1.97704   	135.000000	1.97933   	135.000000	1.96663   	135.000000	1.97639   	135.000000	0.000655023	
140.000000	1.86425   	140.000000	1.92792   	140.000000	1.93085   	140.000000	1.91733   	140.000000	1.92728   	140.000000	0.000633659	
145.000000	1.81854   	145.000000	1.88201   	145.000000	1.88562   	145.000000	1.87126   	145.000000	1.8814    	145.000000	0.000613699	
150.000000	1.77564   	150.000000	1.83902   	150.000000	1.84308   	150.000000	1.82812   	150.000000	1.83842   	150.000000	0.000595007	
155.000000	1.71501   	155.000000	1.79866   	155.000000	1.80297   	155.000000	1.78762   	155.000000	1.79809   	155.000000	0.000577466	
160.000000	1.67957   	160.000000	1.76072   	160.000000	1.76528   	160.000000	1.74955   	160.000000	1.76015   	160.000000	0.00056097	
165.000000	1.64613   	165.000000	1.72496   	165.000000	1.72989   	165.000000	1.71368   	165.000000	1.72442   	165.000000	0.000545427	
170.000000	1.61452   	170.000000	1.69122   	170.000000	1.69638   	170.000000	1.67983   	170.000000	1.69069   	170.000000	0.000530757	
175.000000	1.5846    	175.000000	1.65933   	175.000000	1.66464   	175.000000	1.64783   	175.000000	1.65881   	175.000000	0.000516886	
180.000000	1.55623   	180.000000	1.62913   	180.000000	1.63471   	180.000000	1.61754   	180.000000	1.62863   	180.000000	0.000503751	
185.000000	1.5293    	185.000000	1.6005    	185.000000	1.60632   	185.000000	1.58882   	185.000000	1.60001   	185.000000	0.000491293	
190.000000	1.50369   	190.000000	1.57332   	190.000000	1.57926   	190.000000	1.56156   	190.000000	1.57284   	190.000000	0.00047946	
195.000000	1.47931   	195.000000	1.54748   	195.000000	1.55352   	195.000000	1.53565   	195.000000	1.54701   	195.000000	0.000468207	
200.000000	1.45607   	200.000000	1.52288   	200.000000	1.52903   	200.000000	1.51099   	200.000000	1.52242   	200.000000	0.00045749	
210.000000	1.41272   	210.000000	1.47707   	210.000000	1.48343   	210.000000	1.46507   	210.000000	1.47663   	210.000000	0.00043752	
220.000000	1.37307   	220.000000	1.43529   	220.000000	1.44185   	220.000000	1.42321   	220.000000	1.43487   	220.000000	0.000419284	
230.000000	1.33667   	230.000000	1.39702   	230.000000	1.4036    	230.000000	1.38489   	230.000000	1.39662   	230.000000	0.000402564	
240.000000	1.30313   	240.000000	1.36185   	240.000000	1.36857   	240.000000	1.34969   	240.000000	1.36146   	240.000000	0.000387176	
250.000000	1.27213   	250.000000	1.32941   	250.000000	1.33623   	250.000000	1.31724   	250.000000	1.32904   	250.000000	0.000372964	
260.000000	1.24339   	260.000000	1.29941   	260.000000	1.30623   	260.000000	1.28724   	260.000000	1.29905   	260.000000	0.000359797	
270.000000	1.21666   	270.000000	1.27158   	270.000000	1.27848   	270.000000	1.25943   	270.000000	1.27123   	270.000000	0.000347563	
280.000000	1.19176   	280.000000	1.24569   	280.000000	1.25274   	280.000000	1.23358   	280.000000	1.24535   	280.000000	0.000336165	
290.000000	1.16849   	290.000000	1.22155   	290.000000	1.22866   	290.000000	1.20949   	290.000000	1.22122   	290.000000	0.000325518	
300.000000	1.1467    	300.000000	1.19899   	300.000000	1.20616   	300.000000	1.187     	300.000000	1.19867   	300.000000	0.00031555	
310.000000	1.12625   	310.000000	1.17787   	310.000000	1.1851    	310.000000	1.16596   	310.000000	1.17756   	310.000000	0.000306197	
320.000000	1.10703   	320.000000	1.15804   	320.000000	1.16536   	320.000000	1.14622   	320.000000	1.15775   	320.000000	0.000297403	
330.000000	1.08893   	330.000000	1.13941   	330.000000	1.14681   	330.000000	1.12769   	330.000000	1.13912   	330.000000	0.00028912	
340.000000	1.07185   	340.000000	1.12187   	340.000000	1.12935   	340.000000	1.11025   	340.000000	1.12158   	340.000000	0.000281302	
350.000000	1.05572   	350.000000	1.10532   	350.000000	1.11289   	350.000000	1.09382   	350.000000	1.10504   	350.000000	0.000273911	
360.000000	1.04046   	360.000000	1.08968   	360.000000	1.09737   	360.000000	1.07831   	360.000000	1.08942   	360.000000	0.000266914	
370.000000	1.02599   	370.000000	1.07489   	370.000000	1.08269   	370.000000	1.06365   	370.000000	1.07463   	370.000000	0.000260279	
380.000000	1.01227   	380.000000	1.06089   	380.000000	1.06873   	380.000000	1.04977   	380.000000	1.06063   	380.000000	0.000253977	
390.000000	0.999229  	390.000000	1.0476    	390.000000	1.05549   	390.000000	1.03662   	390.000000	1.04735   	390.000000	0.000247985	
400.000000	0.98683   	400.000000	1.03498   	400.000000	1.04297   	400.000000	1.02415   	400.000000	1.03474   	400.000000	0.00024228	
410.000000	0.975024  	410.000000	1.02298   	410.000000	1.03111   	410.000000	1.0123    	410.000000	1.02274   	410.000000	0.000236841	
420.000000	0.963771  	420.000000	1.01156   	420.000000	1.01983   	420.000000	1.00103   	420.000000	1.01133   	420.000000	0.00023165	
430.000000	0.953035  	430.000000	1.00068   	430.000000	1.00907   	430.000000	0.990303  	430.000000	1.00046   	430.000000	0.00022669	
440.000000	0.942783  	440.000000	0.990308  	440.000000	0.998774  	440.000000	0.980083  	440.000000	0.990086  	440.000000	0.000221946	
450.000000	0.932983  	450.000000	0.980403  	450.000000	0.988947  	450.000000	0.970336  	450.000000	0.980186  	450.000000	0.000217404	
460.000000	0.923607  	460.000000	0.97094   	460.000000	0.979604  	460.000000	0.961032  	460.000000	0.970727  	460.000000	0.000213051	
470.000000	0.914631  	470.000000	0.96189   	470.000000	0.970699  	470.000000	0.952143  	470.000000	0.961681  	470.000000	0.000208876	
480.000000	0.90603   	480.000000	0.953229  	480.000000	0.962161  	480.000000	0.943643  	480.000000	0.953024  	480.000000	0.000204867	
490.000000	0.897783  	490.000000	0.944934  	490.000000	0.953955  	490.000000	0.93551   	490.000000	0.944733  	490.000000	0.000201014	
500.000000	0.889869  	500.000000	0.936983  	500.000000	0.946099  	500.000000	0.927722  	500.000000	0.936786  	500.000000	0.00019731	
520.000000	0.874969  	520.000000	0.922037  	520.000000	0.931428  	520.000000	0.9131    	520.000000	0.921847  	520.000000	0.00019031	
540.000000	0.861196  	540.000000	0.908251  	540.000000	0.917892  	540.000000	0.899637  	540.000000	0.908067  	540.000000	0.000183807	
560.000000	0.848437  	560.000000	0.895504  	560.000000	0.905334  	560.000000	0.887209  	560.000000	0.895326  	560.000000	0.00017775	
580.000000	0.836592  	580.000000	0.883691  	580.000000	0.893723  	580.000000	0.875712  	580.000000	0.883518  	580.000000	0.000172093	
600.000000	0.825574  	600.000000	0.872721  	600.000000	0.88301   	600.000000	0.865051  	600.000000	0.872554  	600.000000	0.000166798	
620.000000	0.815307  	620.000000	0.862515  	620.000000	0.873071  	620.000000	0.855148  	620.000000	0.862353  	620.000000	0.000161831	
640.000000	0.805725  	640.000000	0.853003  	640.000000	0.863774  	640.000000	0.845932  	640.000000	0.852846  	640.000000	0.000157161	
660.000000	0.796768  	660.000000	0.844124  	660.000000	0.855086  	660.000000	0.83734   	660.000000	0.843971  	660.000000	0.000152763	
680.000000	0.788385  	680.000000	0.835823  	680.000000	0.84698   	680.000000	0.829317  	680.000000	0.835675  	680.000000	0.000148613	
700.000000	0.780529  	700.000000	0.828052  	700.000000	0.839404  	700.000000	0.821815  	700.000000	0.827908  	700.000000	0.00014469	
720.000000	0.773158  	720.000000	0.820769  	720.000000	0.832306  	720.000000	0.81479   	720.000000	0.820628  	720.000000	0.000140976	
740.000000	0.766235  	740.000000	0.813933  	740.000000	0.825647  	740.000000	0.808203  	740.000000	0.813796  	740.000000	0.000137455	
760.000000	0.759727  	760.000000	0.807512  	760.000000	0.819394  	760.000000	0.802019  	760.000000	0.807378  	760.000000	0.000134112	
780.000000	0.753604  	780.000000	0.801474  	780.000000	0.813527  	780.000000	0.796208  	780.000000	0.801343  	780.000000	0.000130934	
800.000000	0.747837  	800.000000	0.79579   	800.000000	0.808024  	800.000000	0.79074   	800.000000	0.795662  	800.000000	0.000127907	
820.000000	0.742404  	820.000000	0.790436  	820.000000	0.802861  	820.000000	0.785602  	820.000000	0.790311  	820.000000	0.000125023	
840.000000	0.73728   	840.000000	0.785389  	840.000000	0.798038  	840.000000	0.780812  	840.000000	0.785266  	840.000000	0.00012227	
860.000000	0.732447  	860.000000	0.780627  	860.000000	0.79347   	860.000000	0.776294  	860.000000	0.780507  	860.000000	0.00011964	
880.000000	0.727884  	880.000000	0.776132  	880.000000	0.789148  	880.000000	0.772028  	880.000000	0.776015  	880.000000	0.000117125	
900.000000	0.723576  	900.000000	0.771886  	900.000000	0.785063  	900.000000	0.767997  	900.000000	0.771771  	900.000000	0.000114718	
920.000000	0.719506  	920.000000	0.767873  	920.000000	0.781204  	920.000000	0.764186  	920.000000	0.767761  	920.000000	0.00011241	
940.000000	0.71566   	940.000000	0.76408   	940.000000	0.777553  	940.000000	0.76058   	940.000000	0.76397   	940.000000	0.000110197	
960.000000	0.712026  	960.000000	0.760492  	960.000000	0.774096  	960.000000	0.757166  	960.000000	0.760384  	960.000000	0.000108073	
980.000000	0.70859   	980.000000	0.757097  	980.000000	0.77082   	980.000000	0.753932  	980.000000	0.756991  	980.000000	0.000106032	
1000.000000	0.705341  	1000.000000	0.753884  	1000.000000	0.767713  	1000.000000	0.750866  	1000.000000	0.75378   	1000.000000	0.000104069	
1020.000000	0.70227   	1020.000000	0.750842  	1020.000000	0.764767  	1020.000000	0.747959  	1020.000000	0.75074   	1020.000000	0.00010218	
1040.000000	0.699367  	1040.000000	0.747962  	1040.000000	0.761971  	1040.000000	0.745201  	1040.000000	0.747861  	1040.000000	0.000100361	
1060.000000	0.696622  	1060.000000	0.745234  	1060.000000	0.759317  	1060.000000	0.742583  	1060.000000	0.745136  	1060.000000	9.86075e-05	
1080.000000	0.694028  	1080.000000	0.742651  	1080.000000	0.756796  	1080.000000	0.740097  	1080.000000	0.742554  	1080.000000	9.69166e-05	
1100.000000	0.691577  	1100.000000	0.740205  	1100.000000	0.754401  	1100.000000	0.737736  	1100.000000	0.74011   	1100.000000	9.52847e-05	
1120.000000	0.689261  	1120.000000	0.737888  	1120.000000	0.752125  	1120.000000	0.735492  	1120.000000	0.737795  	1120.000000	9.37089e-05	
1140.000000	0.687074  	1140.000000	0.735694  	1140.000000	0.749961  	1140.000000	0.73336   	1140.000000	0.735602  	1140.000000	9.21861e-05	
1160.000000	0.68501   	1160.000000	0.733617  	1160.000000	0.747903  	1160.000000	0.731332  	1160.000000	0.733526  	1160.000000	9.07138e-05	
1180.000000	0.683062  	1180.000000	0.731651  	1180.000000	0.745945  	1180.000000	0.729403  	1180.000000	0.731561  	1180.000000	8.92895e-05	
1200.000000	0.681226  	1200.000000	0.72979   	1200.000000	0.744082  	1200.000000	0.727569  	1200.000000	0.729702  	1200.000000	8.79107e-05	
1220.000000	0.679496  	1220.000000	0.728029  	1220.000000	0.74231   	1220.000000	0.725824  	1220.000000	0.727942  	1220.000000	8.65754e-05	
1240.000000	0.677868  	1240.000000	0.726363  	1240.000000	0.740623  	1240.000000	0.724163  	1240.000000	0.726278  	1240.000000	8.52814e-05	
1260.000000	0.676337  	1260.000000	0.724789  	1260.000000	0.739017  	1260.000000	0.722583  	1260.000000	0.724705  	1260.000000	8.40269e-05	
1280.000000	0.674898  	1280.000000	0.723301  	1280.000000	0.737488  	1280.000000	0.721078  	1280.000000	0.723219  	1280.000000	8.28101e-05	
1300.000000	0.673548  	1300.000000	0.721897  	1300.000000	0.736032  	1300.000000	0.719646  	1300.000000	0.721815  	1300.000000	8.16292e-05	
1320.000000	0.672283  	1320.000000	0.720572  	1320.000000	0.734645  	1320.000000	0.718283  	1320.000000	0.720491  	1320.000000	8.04828e-05	
1340.000000	0.6711    	1340.000000	0.719322  	1340.000000	0.733324  	1340.000000	0.716986  	1340.000000	0.719243  	1340.000000	7.93692e-05	
1360.000000	0.669995  	1360.000000	0.718145  	1360.000000	0.732066  	1360.000000	0.71575   	1360.000000	0.718066  	1360.000000	7.82871e-05	
1380.000000	0.668964  	1380.000000	0.717037  	1380.000000	0.730869  	1380.000000	0.714575  	1380.000000	0.71696   	1380.000000	7.72351e-05	
1400.000000	0.668006  	1400.000000	0.715995  	1400.000000	0.729729  	1400.000000	0.713455  	1400.000000	0.715919  	1400.000000	7.6212e-05	
1420.000000	0.667117  	1420.000000	0.715017  	1420.000000	0.728644  	1420.000000	0.71239   	1420.000000	0.714942  	1420.000000	7.52166e-05	
1440.000000	0.666294  	1440.000000	0.714101  	1440.000000	0.727612  	1440.000000	0.711377  	1440.000000	0.714026  	1440.000000	7.42478e-05	
1460.000000	0.665536  	1460.000000	0.713242  	1460.000000	0.72663   	1460.000000	0.710412  	1460.000000	0.713169  	1460.000000	7.33045e-05	
1480.000000	0.664838  	1480.000000	0.71244   	1480.000000	0.725697  	1480.000000	0.709495  	1480.000000	0.712368  	1480.000000	7.23857e-05	
1500.000000	0.664201  	1500.000000	0.711692  	1500.000000	0.724808  	1500.000000	0.708622  	1500.000000	0.711621  	1500.000000	7.14905e-05	
1520.000000	0.66362   	1520.000000	0.710996  	1520.000000	0.723963  	1520.000000	0.707792  	1520.000000	0.710926  	1520.000000	7.06179e-05	
1540.000000	0.663095  	1540.000000	0.71035   	1540.000000	0.723158  	1540.000000	0.707004  	1540.000000	0.71028   	1540.000000	6.97671e-05	
1560.000000	0.662622  	1560.000000	0.709752  	1560.000000	0.722391  	1560.000000	0.706254  	1560.000000	0.709683  	1560.000000	6.89372e-05	
1580.000000	0.662201  	1580.000000	0.7092    	1580.000000	0.721661  	1580.000000	0.705542  	1580.000000	0.709132  	1580.000000	6.81276e-05	
1600.000000	0.661829  	1600.000000	0.708692  	1600.000000	0.720966  	1600.000000	0.704867  	1600.000000	0.708625  	1600.000000	6.73374e-05	
1620.000000	0.661506  	1620.000000	0.708228  	1620.000000	0.720303  	1620.000000	0.704225  	1620.000000	0.708161  	1620.000000	6.65659e-05	
1640.000000	0.661228  	1640.000000	0.707804  	1640.000000	0.719673  	1640.000000	0.703617  	1640.000000	0.707739  	1640.000000	6.58126e-05	
1660.000000	0.660996  	1660.000000	0.707421  	1660.000000	0.719074  	1660.000000	0.70304   	1660.000000	0.707356  	1660.000000	6.50767e-05	
1680.000000	0.660806  	1680.000000	0.707076  	1680.000000	0.718506  	1680.000000	0.702494  	1680.000000	0.707012  	1680.000000	6.43577e-05	
1700.000000	0.660659  	1700.000000	0.706768  	1700.000000	0.717966  	1700.000000	0.701977  	1700.000000	0.706704  	1700.000000	6.36549e-05	
1750.000000	0.660464  	1750.000000	0.706152  	1750.000000	0.716742  	1750.000000	0.700805  	1750.000000	0.70609   	1750.000000	6.19656e-05	
1800.000000	0.660504  	1800.000000	0.705742  	1800.000000	0.715684  	1800.000000	0.69979   	1800.000000	0.705682  	1800.000000	6.03665e-05	
1850.000000	0.660761  	1850.000000	0.70552   	1850.000000	0.714778  	1850.000000	0.698919  	1850.000000	0.705462  	1850.000000	5.88507e-05	
1900.000000	0.66122   	1900.000000	0.705473  	1900.000000	0.714009  	1900.000000	0.698178  	1900.000000	0.705416  	1900.000000	5.74116e-05	
1950.000000	0.661866  	1950.000000	0.705587  	1950.000000	0.713362  	1950.000000	0.697554  	1950.000000	0.705531  	1950.000000	5.60436e-05	
2000.000000	0.662687  	2000.000000	0.705849  	2000.000000	0.712825  	2000.000000	0.697039  	2000.000000	0.705794  	2000.000000	5.47413e-05	
2100.000000	0.664809  	2100.000000	0.706778  	2100.000000	0.712037  	2100.000000	0.696292  	2100.000000	0.706726  	2100.000000	5.23161e-05	
2200.000000	0.667507  	2200.000000	0.708184  	2200.000000	0.711577  	2200.000000	0.695872  	2200.000000	0.708134  	2200.000000	5.01032e-05	
2300.000000	0.670713  	2300.000000	0.710006  	2300.000000	0.711394  	2300.000000	0.695726  	2300.000000	0.709958  	2300.000000	4.80758e-05	
2400.000000	0.674374  	2400.000000	0.712192  	2400.000000	0.711447  	2400.000000	0.69581   	2400.000000	0.712145  	2400.000000	4.62111e-05	
2500.000000	0.678441  	2500.000000	0.714696  	2500.000000	0.711699  	2500.000000	0.696088  	2500.000000	0.714652  	2500.000000	4.44902e-05	
2600.000000	0.682874  	2600.000000	0.717483  	2600.000000	0.712117  	2600.000000	0.69653   	2600.000000	0.71744   	2600.000000	4.28969e-05	
2700.000000	0.68764   	2700.000000	0.720521  	2700.000000	0.712675  	2700.000000	0.697112  	2700.000000	0.72048   	2700.000000	4.14173e-05	
2800.000000	0.692708  	2800.000000	0.723782  	2800.000000	0.71335   	2800.000000	0.697811  	2800.000000	0.723742  	2800.000000	4.00396e-05	
2900.000000	0.698052  	2900.000000	0.727244  	2900.000000	0.714124  	2900.000000	0.698611  	2900.000000	0.727205  	2900.000000	3.87534e-05	
3000.000000	0.703651  	3000.000000	0.730885  	3000.000000	0.714982  	3000.000000	0.699495  	3000.000000	0.730847  	3000.000000	3.75499e-05	
3200.000000	0.715536  	3200.000000	0.738637  	3200.000000	0.716904  	3200.000000	0.70147   	3200.000000	0.738601  	3200.000000	3.53605e-05	
3400.000000	0.728232  	3400.000000	0.746921  	3400.000000	0.719041  	3400.000000	0.703652  	3400.000000	0.746888  	3400.000000	3.34198e-05	
3600.000000	0.741637  	3600.000000	0.755646  	3600.000000	0.721332  	3600.000000	0.705983  	3600.000000	0.755614  	3600.000000	3.16871e-05	
3800.000000	0.755668  	3800.000000	0.76474   	3800.000000	0.723735  	3800.000000	0.708416  	3800.000000	0.764709  	3800.000000	3.01305e-05	
4000.000000	0.770261  	4000.000000	0.774144  	4000.000000	0.726212  	4000.000000	0.710917  	4000.000000	0.774115  	4000.000000	2.87242e-05	
4200.000000	0.785361  	4200.000000	0.783812  	4200.000000	0.728734  	4200.000000	0.71346   	4200.000000	0.783784  	4200.000000	2.74471e-05	
4400.000000	0.800924  	4400.000000	0.793705  	4400.000000	0.731281  	4400.000000	0.716026  	4400.000000	0.793679  	4400.000000	2.62821e-05	
4600.000000	0.816913  	4600.000000	0.803793  	4600.000000	0.733836  	4600.000000	0.718599  	4600.000000	0.803768  	4600.000000	2.52148e-05	
4800.000000	0.833299  	4800.000000	0.814048  	4800.000000	0.736387  	4800.000000	0.721168  	4800.000000	0.814024  	4800.000000	2.42335e-05	
5000.000000	0.850053  	5000.000000	0.82445   	5000.000000	0.738925  	5000.000000	0.723724  	5000.000000	0.824426  	5000.000000	2.33279e-05	
5250.000000	0.871482  	5250.000000	0.837628  	5250.000000	0.74207   	5250.000000	0.72689   	5250.000000	0.837606  	5250.000000	2.22896e-05	
5500.000000	0.893418  	5500.000000	0.850975  	5500.000000	0.745174  	5500.000000	0.730016  	5500.000000	0.850954  	5500.000000	2.13425e-05	
6000.000000	0.938691  	6000.000000	0.87808   	6000.000000	0.751237  	6000.000000	0.736122  	6000.000000	0.87806   	6000.000000	1.96773e-05	
6500.000000	0.985685  	6500.000000	0.90561   	6500.000000	0.757089  	6500.000000	0.742009  	6500.000000	0.905592  	6500.000000	1.82598e-05	
7000.000000	1.03426   	7000.000000	0.933458  	7000.000000	0.762714  	7000.000000	0.747668  	7000.000000	0.933441  	7000.000000	1.70382e-05	
7500.000000	1.08432   	7500.000000	0.961544  	7500.000000	0.768072  	7500.000000	0.753097  	7500.000000	0.961528  	7500.000000	1.59742e-05	
8000.000000	1.13579   	8000.000000	0.989812  	8000.000000	0.773256  	8000.000000	0.758304  	8000.000000	0.989797  	8000.000000	1.50388e-05	
8500.000000	1.1886    	8500.000000	1.01822   	8500.000000	0.778226  	8500.000000	0.763297  	8500.000000	1.0182    	8500.000000	1.42099e-05	
9000.000000	1.24272   	9000.000000	1.04673   	9000.000000	0.78297   	9000.000000	0.768087  	9000.000000	1.04671   	9000.000000	1.34701e-05	
9500.000000	1.2981    	9500.000000	1.07531   	9500.000000	0.787531  	9500.000000	0.772686  	9500.000000	1.0753    	9500.000000	1.28056e-05	
10000.000000	1.35472   	10000.000000	1.10396   	10000.000000	0.791929  	10000.000000	0.777104  	10000.000000	1.10395   	10000.000000	1.22053e-05	
11000.000000	1.47159   	11000.000000	1.16136   	11000.000000	0.800208  	11000.000000	0.785444  	11000.000000	1.16135   	11000.000000	1.11634e-05	
12000.000000	1.59318   	12000.000000	1.21885   	12000.000000	0.807837  	12000.000000	0.793188  	12000.000000	1.21884   	12000.000000	1.02898e-05	
13000.000000	1.71942   	13000.000000	1.27635   	13000.000000	0.814952  	13000.000000	0.800405  	13000.000000	1.27634   	13000.000000	9.54636e-06	
14000.000000	1.85023   	14000.000000	1.33384   	14000.000000	0.821643  	14000.000000	0.807157  	14000.000000	1.33383   	14000.000000	8.90582e-06	
15000.000000	1.98557   	15000.000000	1.39127   	15000.000000	0.827941  	15000.000000	0.813496  	15000.000000	1.39127   	15000.000000	8.34802e-06	
16000.000000	2.12542   	16000.000000	1.44865   	16000.000000	0.833849  	16000.000000	0.819465  	16000.000000	1.44864   	16000.000000	7.85778e-06	
17000.000000	2.26977   	17000.000000	1.50595   	17000.000000	0.839391  	17000.000000	0.825104  	17000.000000	1.50594   	17000.000000	7.42341e-06	
18000.000000	2.4186    	18000.000000	1.56317   	18000.000000	0.844604  	18000.000000	0.830445  	18000.000000	1.56316   	18000.000000	7.0358e-06	
19000.000000	2.57192   	19000.000000	1.62029   	19000.000000	0.849524  	19000.000000	0.835516  	19000.000000	1.62029   	19000.000000	6.68772e-06	
20000.000000	2.72972   	20000.000000	1.67733   	20000.000000	0.854184  	20000.000000	0.840342  	20000.000000	1.67732   	20000.000000	6.37337e-06	
21000.000000	2.89202   	21000.000000	1.73427   	21000.000000	0.858636  	21000.000000	0.844946  	21000.000000	1.73427   	21000.000000	6.08802e-06	
22000.000000	3.05881   	22000.000000	1.79112   	22000.000000	0.862938  	22000.000000	0.849345  	22000.000000	1.79112   	22000.000000	5.82781e-06	
23000.000000	3.23013   	23000.000000	1.84788   	23000.000000	0.86702   	23000.000000	0.853556  	23000.000000	1.84787   	23000.000000	5.58952e-06	
24000.000000	3.40597   	24000.000000	1.90454   	24000.000000	0.870903  	24000.000000	0.857595  	24000.000000	1.90454   	24000.000000	5.37047e-06	
25000.000000	3.58635   	25000.000000	1.96111   	25000.000000	0.874637  	25000.000000	0.861475  	25000.000000	1.96111   	25000.000000	5.16841e-06	
26000.000000	3.77129   	26000.000000	2.01759   	26000.000000	0.87822   	26000.000000	0.865207  	26000.000000	2.01759   	26000.000000	4.98141e-06	
27000.000000	3.96081   	27000.000000	2.07399   	27000.000000	0.881654  	27000.000000	0.868801  	27000.000000	2.07398   	27000.000000	4.80783e-06	
28000.000000	4.15493   	28000.000000	2.13029   	28000.000000	0.884953  	28000.000000	0.872268  	28000.000000	2.13029   	28000.000000	4.64626e-06	
29000.000000	4.35366   	29000.000000	2.18651   	29000.000000	0.88813   	29000.000000	0.875616  	29000.000000	2.18651   	29000.000000	4.4955e-06	
30000.000000	4.55703   	30000.000000	2.24265   	30000.000000	0.891194  	30000.000000	0.878852  	30000.000000	2.24264   	30000.000000	4.35448e-06	
32000.000000	4.97777   	32000.000000	2.35467   	32000.000000	0.897012  	32000.000000	0.885017  	32000.000000	2.35467   	32000.000000	4.09807e-06	
34000.000000	5.41731   	34000.000000	2.46639   	34000.000000	0.902455  	34000.000000	0.890813  	34000.000000	2.46638   	34000.000000	3.87094e-06	
36000.000000	5.87585   	36000.000000	2.5778    	36000.000000	0.907543  	36000.000000	0.896281  	36000.000000	2.5778    	36000.000000	3.66829e-06	
38000.000000	6.35357   	38000.000000	2.68893   	38000.000000	0.912308  	38000.000000	0.901454  	38000.000000	2.68893   	38000.000000	3.48633e-06	
40000.000000	6.85066   	40000.000000	2.79978   	40000.000000	0.916786  	40000.000000	0.906363  	40000.000000	2.79978   	40000.000000	3.32203e-06	
42000.000000	7.36733   	42000.000000	2.91037   	42000.000000	0.921016  	42000.000000	0.911032  	42000.000000	2.91037   	42000.000000	3.17291e-06	
44000.000000	7.90378   	44000.000000	3.02071   	44000.000000	0.925027  	44000.000000	0.915485  	44000.000000	3.02071   	44000.000000	3.03695e-06	
46000.000000	8.46022   	46000.000000	3.1308    	46000.000000	0.928847  	46000.000000	0.919739  	46000.000000	3.1308    	46000.000000	2.91245e-06	
48000.000000	9.03685   	48000.000000	3.24067   	48000.000000	0.932486  	48000.000000	0.923811  	48000.000000	3.24067   	48000.000000	2.79803e-06	
50000.000000	9.63389   	50000.000000	3.35031   	50000.000000	0.935936  	50000.000000	0.927717  	50000.000000	3.35031   	50000.000000	2.69248e-06	
