Energy (MeV/u)1	0 - [He-base] F.Hubert et al, AD&ND Tables 46(1990)1	Energy (MeV/u)2	1 - [H -base] J.F.Ziegler et al, Pergamon Press, NY (low energy)	Energy (MeV/u)3	2 - ATIMA 1.2  LS-theory (recommended for high energy)	Energy (MeV/u)4	3 - ATIMA 1.2  without LS-correction	Energy (MeV/u)5	4 - electrical component of [1] - J.F.Ziegler et al	Energy (MeV/u)6	5 - nuclear component of [1] - J.F.Ziegler et al	
0.001000	2.59054   	0.001000	8.67055   	0.001000	8.05085   	0.001000	8.05085   	0.001000	3.26739   	0.001000	5.40316   	
0.002000	2.64346   	0.002000	8.60207   	0.002000	8.10913   	0.002000	8.10913   	0.002000	4.23728   	0.002000	4.36479   	
0.005000	2.89916   	0.005000	8.84713   	0.005000	8.79267   	0.005000	8.79267   	0.005000	5.97467   	0.005000	2.87245   	
0.008000	3.16581   	0.008000	9.33051   	0.008000	9.6928    	0.008000	9.6928    	0.008000	7.12622   	0.008000	2.20429   	
0.010000	3.3317    	0.010000	9.67313   	0.010000	10.2973   	0.010000	10.2973   	0.010000	7.74819   	0.010000	1.92493   	
0.015000	3.92774   	0.015000	11.256    	0.015000	11.633    	0.015000	11.633    	0.015000	9.77215   	0.015000	1.4839    	
0.020000	4.50398   	0.020000	13.5919   	0.020000	13.0033   	0.020000	13.0033   	0.020000	12.37     	0.020000	1.22189   	
0.025000	5.16267   	0.025000	16.0205   	0.025000	14.4246   	0.025000	14.4246   	0.025000	14.9746   	0.025000	1.04587   	
0.030000	5.76665   	0.030000	18.4802   	0.030000	16.2746   	0.030000	16.2746   	0.030000	17.5702   	0.030000	0.910047  	
0.035000	6.30341   	0.035000	20.9473   	0.035000	18.1059   	0.035000	18.1059   	0.035000	20.1333   	0.035000	0.813991  	
0.040000	6.76474   	0.040000	23.3792   	0.040000	19.8924   	0.040000	19.8924   	0.040000	22.6412   	0.040000	0.737976  	
0.045000	7.14208   	0.045000	25.7493   	0.045000	21.6228   	0.045000	21.6228   	0.045000	25.0731   	0.045000	0.676155  	
0.050000	7.37527   	0.050000	27.8126   	0.050000	23.2888   	0.050000	23.2888   	0.050000	27.1878   	0.050000	0.624783  	
0.055000	7.77022   	0.055000	29.7312   	0.055000	24.8847   	0.055000	24.8847   	0.055000	29.1498   	0.055000	0.581343  	
0.060000	8.11969   	0.060000	31.5385   	0.060000	26.4062   	0.060000	26.4062   	0.060000	30.9945   	0.060000	0.544077  	
0.070000	8.69028   	0.070000	34.794    	0.070000	29.2177   	0.070000	29.2177   	0.070000	34.3106   	0.070000	0.483327  	
0.080000	9.29455   	0.080000	37.5504   	0.080000	31.7163   	0.080000	31.7163   	0.080000	37.1146   	0.080000	0.435778  	
0.090000	9.79063   	0.090000	39.8127   	0.090000	33.9093   	0.090000	33.9093   	0.090000	39.4152   	0.090000	0.397447  	
0.100000	10.1774   	0.100000	41.5427   	0.100000	35.8127   	0.100000	35.8127   	0.100000	41.1769   	0.100000	0.365824  	
0.120000	10.4396   	0.120000	43.3721   	0.120000	38.8389   	0.120000	38.8389   	0.120000	43.0556   	0.120000	0.316566  	
0.140000	10.6163   	0.140000	44.1637   	0.140000	40.9891   	0.140000	40.9891   	0.140000	43.8838   	0.140000	0.27983   	
0.160000	10.7757   	0.160000	44.3014   	0.160000	42.4545   	0.160000	42.4545   	0.160000	44.0501   	0.160000	0.251284  	
0.180000	10.9459   	0.180000	44.0707   	0.180000	43.4008   	0.180000	43.4008   	0.180000	43.8423   	0.180000	0.228408  	
0.200000	11.2146   	0.200000	43.9593   	0.200000	43.9616   	0.200000	43.9616   	0.200000	43.7496   	0.200000	0.209628  	
0.250000	11.5145   	0.250000	43.248    	0.250000	44.2995   	0.250000	44.2995   	0.250000	43.0734   	0.250000	0.174583  	
0.300000	11.7815   	0.300000	42.4299   	0.300000	43.8453   	0.300000	43.8453   	0.300000	42.2797   	0.300000	0.150171  	
0.350000	12.0699   	0.350000	41.9634   	0.350000	43.0828   	0.350000	43.0828   	0.350000	41.8313   	0.350000	0.132113  	
0.400000	12.3127   	0.400000	41.6308   	0.400000	42.5225   	0.400000	42.5225   	0.400000	41.5127   	0.400000	0.118172  	
0.450000	12.4815   	0.450000	41.2821   	0.450000	42.1829   	0.450000	42.1829   	0.450000	41.1751   	0.450000	0.10706   	
0.500000	12.5892   	0.500000	40.9142   	0.500000	41.7289   	0.500000	41.7289   	0.500000	40.8162   	0.500000	0.097978  	
0.600000	12.2943   	0.600000	40.2784   	0.600000	40.6683   	0.600000	40.6683   	0.600000	40.1944   	0.600000	0.0839908 	
0.700000	11.8798   	0.700000	39.6016   	0.700000	39.544    	0.700000	39.544    	0.700000	39.5279   	0.700000	0.0736897 	
0.800000	11.8312   	0.800000	38.7958   	0.800000	38.2164   	0.800000	38.2164   	0.800000	38.73     	0.800000	0.0657651 	
0.900000	11.7185   	0.900000	37.9105   	0.900000	36.9712   	0.900000	36.9712   	0.900000	37.851    	0.900000	0.0594667 	
1.000000	11.5845   	1.000000	37.0466   	1.000000	35.8161   	1.000000	35.8161   	1.000000	36.9923   	1.000000	0.0543322 	
1.250000	11.1231   	1.250000	34.8364   	1.250000	33.2366   	1.250000	33.2366   	1.250000	34.7916   	1.250000	0.0448419 	
1.500000	10.5396   	1.500000	32.4773   	1.500000	30.8186   	1.500000	30.8186   	1.500000	32.439    	1.500000	0.0383052 	
1.750000	9.97284   	1.750000	30.3249   	1.750000	28.8164   	1.750000	28.8164   	1.750000	30.2914   	1.750000	0.0335121 	
2.000000	9.43386   	2.000000	28.3642   	2.000000	27.1056   	2.000000	27.1056   	2.000000	28.3343   	2.000000	0.0298377 	
2.250000	8.95704   	2.250000	26.6253   	2.250000	25.6141   	2.250000	25.6141   	2.250000	26.5983   	2.250000	0.026926  	
2.500000	8.86159   	2.500000	25.0543   	2.500000	24.2955   	2.500000	24.2955   	2.500000	25.0297   	2.500000	0.0245582 	
3.000000	8.03384   	3.000000	22.3741   	3.000000	22.057    	3.000000	22.057    	3.000000	22.3531   	3.000000	0.0209337 	
3.500000	7.3506    	3.500000	20.2122   	3.500000	20.2189   	3.500000	20.2189   	3.500000	20.1939   	3.500000	0.0182827 	
4.000000	6.77846   	4.000000	18.4105   	4.000000	18.6776   	4.000000	18.6776   	4.000000	18.3942   	4.000000	0.0162547 	
4.500000	6.29282   	4.500000	16.9039   	4.500000	17.364    	4.500000	17.364    	4.500000	16.8892   	4.500000	0.0146504 	
5.000000	5.87556   	5.000000	15.6251   	5.000000	16.2297   	5.000000	16.2297   	5.000000	15.6118   	5.000000	0.0133478 	
5.500000	5.51317   	5.500000	14.5245   	5.500000	15.2397   	5.500000	15.2397   	5.500000	14.5123   	5.500000	0.0122679 	
6.000000	5.19544   	6.000000	13.5665   	6.000000	14.3674   	6.000000	14.3674   	6.000000	13.5552   	6.000000	0.0113574 	
6.500000	4.91455   	6.500000	12.7243   	6.500000	13.5928   	6.500000	13.5928   	6.500000	12.7137   	6.500000	0.0105787 	
7.000000	4.66439   	7.000000	11.9779   	7.000000	12.9      	7.000000	12.9      	7.000000	11.968    	7.000000	0.00990466	
7.500000	4.44011   	7.500000	11.3123   	7.500000	12.2766   	7.500000	12.2766   	7.500000	11.303    	7.500000	0.00931526	
8.000000	4.23786   	8.000000	10.7149   	8.000000	11.7124   	8.000000	11.7124   	8.000000	10.7061   	8.000000	0.00879524	
8.500000	4.0545    	8.500000	10.1757   	8.500000	11.1994   	8.500000	11.1994   	8.500000	10.1674   	8.500000	0.00833286	
9.000000	3.88747   	9.000000	9.68662   	9.000000	10.7308   	9.000000	10.7308   	9.000000	9.6787    	9.000000	0.00791888	
9.500000	3.73466   	9.500000	9.24099   	9.500000	10.3009   	9.500000	10.3009   	9.500000	9.23345   	9.500000	0.00754597	
10.000000	3.59429   	10.000000	8.91974   	10.000000	9.90524   	10.000000	9.90524   	10.000000	8.91253   	10.000000	0.00720821	
11.000000	3.34522   	11.000000	8.37383   	11.000000	9.18336   	11.000000	9.19655   	11.000000	8.36721   	11.000000	0.00661971	
12.000000	3.13086   	12.000000	7.89105   	12.000000	8.56189   	12.000000	8.5842    	12.000000	7.88492   	12.000000	0.00612396	
13.000000	2.94436   	13.000000	7.46165   	13.000000	8.02136   	13.000000	8.04991   	13.000000	7.45595   	13.000000	0.00570035	
14.000000	2.78054   	14.000000	7.07763   	14.000000	7.54695   	14.000000	7.57979   	14.000000	7.0723    	14.000000	0.00533399	
15.000000	2.63544   	15.000000	6.73239   	15.000000	7.12724   	15.000000	7.16304   	15.000000	6.72738   	15.000000	0.00501384	
16.000000	2.506     	16.000000	6.42051   	16.000000	6.7536    	16.000000	6.79121   	16.000000	6.41578   	16.000000	0.00473157	
17.000000	2.38976   	17.000000	6.13747   	17.000000	6.41903   	17.000000	6.45753   	17.000000	6.13299   	17.000000	0.00448074	
18.000000	2.28479   	18.000000	5.87952   	18.000000	6.11763   	18.000000	6.15653   	18.000000	5.87527   	18.000000	0.00425628	
19.000000	2.18949   	19.000000	5.64352   	19.000000	5.84474   	19.000000	5.88374   	19.000000	5.63946   	19.000000	0.00405421	
20.000000	2.10257   	20.000000	5.42681   	20.000000	5.59667   	20.000000	5.63549   	20.000000	5.42294   	20.000000	0.00387127	
21.000000	2.02296   	21.000000	5.22714   	21.000000	5.37032   	21.000000	5.4087    	21.000000	5.22343   	21.000000	0.00370483	
22.000000	1.94975   	22.000000	5.0426    	22.000000	5.16309   	22.000000	5.20081   	22.000000	5.03904   	22.000000	0.00355273	
23.000000	1.88219   	23.000000	4.87153   	23.000000	4.97273   	23.000000	5.00962   	23.000000	4.86812   	23.000000	0.00341316	
24.000000	1.81964   	24.000000	4.71253   	24.000000	4.79736   	24.000000	4.83329   	24.000000	4.70924   	24.000000	0.00328462	
25.000000	1.76156   	25.000000	4.56436   	25.000000	4.63534   	25.000000	4.67022   	25.000000	4.5612    	25.000000	0.00316582	
27.000000	1.65699   	27.000000	4.29639   	27.000000	4.34595   	27.000000	4.37859   	27.000000	4.29344   	27.000000	0.00295329	
29.000000	1.56541   	29.000000	4.06058   	29.000000	4.09548   	29.000000	4.12578   	29.000000	4.05781   	29.000000	0.00276861	
31.000000	1.48452   	31.000000	3.85146   	31.000000	3.87746   	31.000000	3.9041    	31.000000	3.84885   	31.000000	0.00260657	
33.000000	1.41253   	33.000000	3.66473   	33.000000	3.68457   	33.000000	3.70695   	33.000000	3.66227   	33.000000	0.0024632 	
35.000000	1.34801   	35.000000	3.49698   	35.000000	3.51175   	35.000000	3.53071   	35.000000	3.49465   	35.000000	0.00233541	
38.000000	1.26285   	38.000000	3.27503   	38.000000	3.28416   	38.000000	3.29876   	38.000000	3.27286   	38.000000	0.00216771	
41.000000	1.18909   	41.000000	3.08238   	41.000000	3.08725   	41.000000	3.09853   	41.000000	3.08035   	41.000000	0.00202339	
44.000000	1.12456   	44.000000	2.91356   	44.000000	2.91532   	44.000000	2.92387   	44.000000	2.91166   	44.000000	0.0018978 	
47.000000	1.0676    	47.000000	2.76438   	47.000000	2.76368   	47.000000	2.77013   	47.000000	2.76259   	47.000000	0.00178748	
50.000000	1.01693   	50.000000	2.63158   	50.000000	2.62901   	50.000000	2.63372   	50.000000	2.62989   	50.000000	0.00168977	
55.000000	0.943812  	55.000000	2.43988   	55.000000	2.43492   	55.000000	2.43754   	55.000000	2.43834   	55.000000	0.00154952	
60.000000	0.881971  	60.000000	2.27774   	60.000000	2.27151   	60.000000	2.27226   	60.000000	2.27631   	60.000000	0.00143157	
65.000000	0.828939  	65.000000	2.13875   	65.000000	2.13155   	65.000000	2.13103   	65.000000	2.13742   	65.000000	0.00133094	
70.000000	0.782928  	70.000000	2.01825   	70.000000	2.0103    	70.000000	2.00891   	70.000000	2.017     	70.000000	0.00124403	
75.000000	0.742605  	75.000000	1.91274   	75.000000	1.90448   	75.000000	1.90224   	75.000000	1.91157   	75.000000	0.00116819	
80.000000	0.706957  	80.000000	1.81957   	80.000000	1.81103   	80.000000	1.80824   	80.000000	1.81847   	80.000000	0.0011014 	
85.000000	0.6752    	85.000000	1.73668   	85.000000	1.72799   	85.000000	1.72474   	85.000000	1.73564   	85.000000	0.00104211	
90.000000	0.646717  	90.000000	1.66244   	90.000000	1.65372   	90.000000	1.65008   	90.000000	1.66145   	90.000000	0.000989108	
95.000000	0.621016  	95.000000	1.59554   	95.000000	1.58689   	95.000000	1.58291   	95.000000	1.5946    	95.000000	0.000941437	
100.000000	0.5977    	100.000000	1.53495   	100.000000	1.52642   	100.000000	1.52215   	100.000000	1.53406   	100.000000	0.000898319	
105.000000	0.576445  	105.000000	1.47981   	105.000000	1.47145   	105.000000	1.46691   	105.000000	1.47895   	105.000000	0.000859124	
110.000000	0.556983  	110.000000	1.4294    	110.000000	1.4211    	110.000000	1.41647   	110.000000	1.42857   	110.000000	0.000823333	
115.000000	0.53909   	115.000000	1.38313   	115.000000	1.37503   	115.000000	1.37023   	115.000000	1.38234   	115.000000	0.000790516	
120.000000	0.522581  	120.000000	1.34052   	120.000000	1.33262   	120.000000	1.32768   	120.000000	1.33976   	120.000000	0.000760311	
125.000000	0.507296  	125.000000	1.30113   	125.000000	1.29336   	125.000000	1.28839   	125.000000	1.3004    	125.000000	0.000732416	
130.000000	0.493102  	130.000000	1.26463   	130.000000	1.25703   	130.000000	1.25201   	130.000000	1.26392   	130.000000	0.000706572	
135.000000	0.479882  	135.000000	1.23069   	135.000000	1.22337   	135.000000	1.21821   	135.000000	1.23001   	135.000000	0.000682558	
140.000000	0.467538  	140.000000	1.19906   	140.000000	1.19197   	140.000000	1.18674   	140.000000	1.1984    	140.000000	0.000660183	
145.000000	0.455982  	145.000000	1.1695    	145.000000	1.1626    	145.000000	1.15736   	145.000000	1.16886   	145.000000	0.000639284	
150.000000	0.44514   	150.000000	1.14183   	150.000000	1.13513   	150.000000	1.12986   	150.000000	1.14121   	150.000000	0.000619717	
155.000000	0.429868  	155.000000	1.11585   	155.000000	1.10937   	155.000000	1.10408   	155.000000	1.11525   	155.000000	0.000601357	
160.000000	0.420919  	160.000000	1.09143   	160.000000	1.08515   	160.000000	1.07986   	160.000000	1.09085   	160.000000	0.000584094	
165.000000	0.412479  	165.000000	1.06842   	165.000000	1.06236   	165.000000	1.05705   	165.000000	1.06785   	165.000000	0.000567832	
170.000000	0.404506  	170.000000	1.04671   	170.000000	1.04086   	170.000000	1.03555   	170.000000	1.04616   	170.000000	0.000552484	
175.000000	0.396961  	175.000000	1.02619   	175.000000	1.02056   	175.000000	1.01523   	175.000000	1.02565   	175.000000	0.000537976	
180.000000	0.38981   	180.000000	1.00676   	180.000000	1.00134   	180.000000	0.99601   	180.000000	1.00623   	180.000000	0.000524239	
185.000000	0.383024  	185.000000	0.988333  	185.000000	0.983137  	185.000000	0.9778    	185.000000	0.987822  	185.000000	0.000511212	
190.000000	0.376573  	190.000000	0.970843  	190.000000	0.96586   	190.000000	0.960521  	190.000000	0.970344  	190.000000	0.000498841	
195.000000	0.370434  	195.000000	0.954215  	195.000000	0.949454  	195.000000	0.944106  	195.000000	0.953728  	195.000000	0.000487077	
200.000000	0.364585  	200.000000	0.938388  	200.000000	0.933844  	200.000000	0.928491  	200.000000	0.937912  	200.000000	0.000475876	
210.000000	0.353675  	210.000000	0.908914  	210.000000	0.904706  	210.000000	0.899439  	210.000000	0.908459  	210.000000	0.000455006	
220.000000	0.343703  	220.000000	0.88203   	220.000000	0.878221  	220.000000	0.872973  	220.000000	0.881594  	220.000000	0.000435954	
230.000000	0.334552  	230.000000	0.857411  	230.000000	0.854011  	230.000000	0.848764  	230.000000	0.856992  	230.000000	0.000418489	
240.000000	0.326125  	240.000000	0.834782  	240.000000	0.83179   	240.000000	0.826539  	240.000000	0.834379  	240.000000	0.000402419	
250.000000	0.318337  	250.000000	0.813913  	250.000000	0.811261  	250.000000	0.806067  	250.000000	0.813526  	250.000000	0.000387581	
260.000000	0.31112   	260.000000	0.794609  	260.000000	0.792289  	260.000000	0.787151  	260.000000	0.794235  	260.000000	0.000373837	
270.000000	0.304411  	270.000000	0.776702  	270.000000	0.774768  	270.000000	0.769622  	270.000000	0.776341  	270.000000	0.000361069	
280.000000	0.29816   	280.000000	0.760046  	280.000000	0.758473  	280.000000	0.753337  	280.000000	0.759697  	280.000000	0.000349175	
290.000000	0.292321  	290.000000	0.744517  	290.000000	0.743239  	290.000000	0.73817   	290.000000	0.744179  	290.000000	0.000338067	
300.000000	0.286855  	300.000000	0.730007  	300.000000	0.729054  	300.000000	0.724013  	300.000000	0.729679  	300.000000	0.000327669	
310.000000	0.281727  	310.000000	0.716418  	310.000000	0.715798  	310.000000	0.710769  	310.000000	0.7161    	310.000000	0.000317915	
320.000000	0.276908  	320.000000	0.703669  	320.000000	0.703326  	320.000000	0.698356  	320.000000	0.703361  	320.000000	0.000308745	
330.000000	0.272369  	330.000000	0.691686  	330.000000	0.691638  	330.000000	0.686699  	330.000000	0.691385  	330.000000	0.000300107	
340.000000	0.268089  	340.000000	0.680402  	340.000000	0.680676  	340.000000	0.675734  	340.000000	0.68011   	340.000000	0.000291958	
350.000000	0.264045  	350.000000	0.66976   	350.000000	0.670343  	350.000000	0.665403  	350.000000	0.669476  	350.000000	0.000284254	
360.000000	0.26022   	360.000000	0.659708  	360.000000	0.66056   	360.000000	0.655654  	360.000000	0.659431  	360.000000	0.000276962	
370.000000	0.256595  	370.000000	0.6502    	370.000000	0.651299  	370.000000	0.646441  	370.000000	0.64993   	370.000000	0.000270047	
380.000000	0.253157  	380.000000	0.641194  	380.000000	0.642564  	380.000000	0.637722  	380.000000	0.640931  	380.000000	0.000263482	
390.000000	0.249891  	390.000000	0.632653  	390.000000	0.634298  	390.000000	0.62946   	390.000000	0.632396  	390.000000	0.000257239	
400.000000	0.246785  	400.000000	0.624544  	400.000000	0.626426  	400.000000	0.621623  	400.000000	0.624292  	400.000000	0.000251296	
410.000000	0.243828  	410.000000	0.616834  	410.000000	0.618941  	410.000000	0.614178  	410.000000	0.616589  	410.000000	0.000245631	
420.000000	0.241009  	420.000000	0.609498  	420.000000	0.611843  	420.000000	0.6071    	420.000000	0.609257  	420.000000	0.000240225	
430.000000	0.238321  	430.000000	0.602509  	430.000000	0.605095  	430.000000	0.600361  	430.000000	0.602274  	430.000000	0.00023506	
440.000000	0.235753  	440.000000	0.595844  	440.000000	0.598656  	440.000000	0.593941  	440.000000	0.595614  	440.000000	0.000230121	
450.000000	0.233299  	450.000000	0.589483  	450.000000	0.592503  	450.000000	0.587818  	450.000000	0.589258  	450.000000	0.000225392	
460.000000	0.230952  	460.000000	0.583407  	460.000000	0.586622  	460.000000	0.581973  	460.000000	0.583186  	460.000000	0.00022086	
470.000000	0.228705  	470.000000	0.577597  	470.000000	0.581005  	470.000000	0.576388  	470.000000	0.577381  	470.000000	0.000216514	
480.000000	0.226552  	480.000000	0.572039  	480.000000	0.575648  	480.000000	0.571048  	480.000000	0.571826  	480.000000	0.000212341	
490.000000	0.224487  	490.000000	0.566715  	490.000000	0.570534  	490.000000	0.565937  	490.000000	0.566507  	490.000000	0.000208332	
500.000000	0.222506  	500.000000	0.561614  	500.000000	0.565634  	500.000000	0.561042  	500.000000	0.56141   	500.000000	0.000204477	
520.000000	0.218776  	520.000000	0.552028  	520.000000	0.556392  	520.000000	0.551852  	520.000000	0.551831  	520.000000	0.000197194	
540.000000	0.215329  	540.000000	0.54319   	540.000000	0.547901  	540.000000	0.543388  	540.000000	0.542999  	540.000000	0.000190429	
560.000000	0.212136  	560.000000	0.535021  	560.000000	0.540075  	560.000000	0.535572  	560.000000	0.534837  	560.000000	0.000184129	
580.000000	0.209172  	580.000000	0.527456  	580.000000	0.532799  	580.000000	0.528338  	580.000000	0.527277  	580.000000	0.000178246	
600.000000	0.206415  	600.000000	0.520434  	600.000000	0.52604   	600.000000	0.521628  	600.000000	0.520261  	600.000000	0.00017274	
620.000000	0.203846  	620.000000	0.513905  	620.000000	0.519772  	620.000000	0.515392  	620.000000	0.513737  	620.000000	0.000167575	
640.000000	0.201449  	640.000000	0.507824  	640.000000	0.513958  	640.000000	0.509585  	640.000000	0.507661  	640.000000	0.000162721	
660.000000	0.199208  	660.000000	0.50215   	660.000000	0.508529  	660.000000	0.504169  	660.000000	0.501992  	660.000000	0.00015815	
680.000000	0.197111  	680.000000	0.496851  	680.000000	0.503435  	680.000000	0.499108  	680.000000	0.496697  	680.000000	0.000153836	
700.000000	0.195145  	700.000000	0.491893  	700.000000	0.498674  	700.000000	0.494373  	700.000000	0.491743  	700.000000	0.00014976	
720.000000	0.193301  	720.000000	0.487249  	720.000000	0.494231  	720.000000	0.489937  	720.000000	0.487103  	720.000000	0.000145902	
740.000000	0.19157   	740.000000	0.482894  	740.000000	0.490062  	740.000000	0.485774  	740.000000	0.482752  	740.000000	0.000142244	
760.000000	0.189942  	760.000000	0.478807  	760.000000	0.486131  	760.000000	0.481863  	760.000000	0.478668  	760.000000	0.000138771	
780.000000	0.18841   	780.000000	0.474967  	780.000000	0.482423  	780.000000	0.478185  	780.000000	0.474831  	780.000000	0.00013547	
800.000000	0.186968  	800.000000	0.471356  	800.000000	0.478931  	800.000000	0.474721  	800.000000	0.471223  	800.000000	0.000132327	
820.000000	0.185609  	820.000000	0.467957  	820.000000	0.475643  	820.000000	0.471457  	820.000000	0.467828  	820.000000	0.000129332	
840.000000	0.184327  	840.000000	0.464757  	840.000000	0.472549  	840.000000	0.468377  	840.000000	0.46463   	840.000000	0.000126473	
860.000000	0.183118  	860.000000	0.46174   	860.000000	0.469636  	860.000000	0.465468  	860.000000	0.461617  	860.000000	0.000123743	
880.000000	0.181977  	880.000000	0.458896  	880.000000	0.466884  	880.000000	0.462719  	880.000000	0.458775  	880.000000	0.000121132	
900.000000	0.1809    	900.000000	0.456213  	900.000000	0.464275  	900.000000	0.460118  	900.000000	0.456094  	900.000000	0.000118633	
920.000000	0.179882  	920.000000	0.45368   	920.000000	0.461799  	920.000000	0.457657  	920.000000	0.453564  	920.000000	0.000116238	
940.000000	0.17892   	940.000000	0.451289  	940.000000	0.459448  	940.000000	0.455324  	940.000000	0.451175  	940.000000	0.000113941	
960.000000	0.178011  	960.000000	0.44903   	960.000000	0.457217  	960.000000	0.453114  	960.000000	0.448918  	960.000000	0.000111737	
980.000000	0.177152  	980.000000	0.446896  	980.000000	0.4551    	980.000000	0.451016  	980.000000	0.446786  	980.000000	0.000109618	
1000.000000	0.176339  	1000.000000	0.444879  	1000.000000	0.453093  	1000.000000	0.449026  	1000.000000	0.444772  	1000.000000	0.000107582	
1020.000000	0.175571  	1020.000000	0.442973  	1020.000000	0.451191  	1020.000000	0.447135  	1020.000000	0.442867  	1020.000000	0.000105622	
1040.000000	0.174845  	1040.000000	0.441171  	1040.000000	0.449387  	1040.000000	0.445338  	1040.000000	0.441067  	1040.000000	0.000103735	
1060.000000	0.174159  	1060.000000	0.439468  	1060.000000	0.447677  	1060.000000	0.443631  	1060.000000	0.439366  	1060.000000	0.000101916	
1080.000000	0.17351   	1080.000000	0.437858  	1080.000000	0.44605   	1080.000000	0.442006  	1080.000000	0.437758  	1080.000000	0.000100162	
1100.000000	0.172897  	1100.000000	0.436336  	1100.000000	0.444501  	1100.000000	0.44046   	1100.000000	0.436238  	1100.000000	9.84695e-05	
1120.000000	0.172318  	1120.000000	0.434898  	1120.000000	0.443024  	1120.000000	0.438989  	1120.000000	0.434801  	1120.000000	9.68351e-05	
1140.000000	0.171771  	1140.000000	0.433539  	1140.000000	0.441613  	1140.000000	0.437587  	1140.000000	0.433444  	1140.000000	9.5256e-05	
1160.000000	0.171255  	1160.000000	0.432256  	1160.000000	0.440267  	1160.000000	0.436252  	1160.000000	0.432162  	1160.000000	9.37292e-05	
1180.000000	0.170768  	1180.000000	0.431043  	1180.000000	0.438982  	1180.000000	0.43498   	1180.000000	0.430951  	1180.000000	9.22522e-05	
1200.000000	0.170309  	1200.000000	0.429899  	1200.000000	0.437757  	1200.000000	0.433767  	1200.000000	0.429809  	1200.000000	9.08227e-05	
1220.000000	0.169876  	1220.000000	0.42882   	1220.000000	0.436589  	1220.000000	0.432611  	1220.000000	0.428731  	1220.000000	8.94382e-05	
1240.000000	0.169469  	1240.000000	0.427802  	1240.000000	0.435474  	1240.000000	0.431508  	1240.000000	0.427714  	1240.000000	8.80968e-05	
1260.000000	0.169086  	1260.000000	0.426843  	1260.000000	0.434412  	1260.000000	0.430455  	1260.000000	0.426757  	1260.000000	8.67963e-05	
1280.000000	0.168726  	1280.000000	0.42594   	1280.000000	0.433399  	1280.000000	0.429451  	1280.000000	0.425855  	1280.000000	8.55349e-05	
1300.000000	0.168389  	1300.000000	0.425091  	1300.000000	0.432434  	1300.000000	0.428493  	1300.000000	0.425007  	1300.000000	8.43109e-05	
1320.000000	0.168072  	1320.000000	0.424293  	1320.000000	0.431513  	1320.000000	0.427578  	1320.000000	0.42421   	1320.000000	8.31227e-05	
1340.000000	0.167776  	1340.000000	0.423543  	1340.000000	0.430636  	1340.000000	0.426705  	1340.000000	0.423461  	1340.000000	8.19685e-05	
1360.000000	0.1675    	1360.000000	0.422841  	1360.000000	0.429799  	1360.000000	0.425871  	1360.000000	0.42276   	1360.000000	8.08471e-05	
1380.000000	0.167242  	1380.000000	0.422183  	1380.000000	0.429     	1380.000000	0.425075  	1380.000000	0.422103  	1380.000000	7.97569e-05	
1400.000000	0.167003  	1400.000000	0.421568  	1400.000000	0.428237  	1400.000000	0.424315  	1400.000000	0.421489  	1400.000000	7.86968e-05	
1420.000000	0.16678   	1420.000000	0.420994  	1420.000000	0.427509  	1420.000000	0.423589  	1420.000000	0.420916  	1420.000000	7.76654e-05	
1440.000000	0.166575  	1440.000000	0.420459  	1440.000000	0.426812  	1440.000000	0.422896  	1440.000000	0.420382  	1440.000000	7.66616e-05	
1460.000000	0.166385  	1460.000000	0.419962  	1460.000000	0.426146  	1460.000000	0.422234  	1460.000000	0.419887  	1460.000000	7.56842e-05	
1480.000000	0.166211  	1480.000000	0.419502  	1480.000000	0.425509  	1480.000000	0.421602  	1480.000000	0.419427  	1480.000000	7.47323e-05	
1500.000000	0.166051  	1500.000000	0.419076  	1500.000000	0.424901  	1500.000000	0.420998  	1500.000000	0.419002  	1500.000000	7.38049e-05	
1520.000000	0.165906  	1520.000000	0.418684  	1520.000000	0.424319  	1520.000000	0.420422  	1520.000000	0.418611  	1520.000000	7.2901e-05	
1540.000000	0.165774  	1540.000000	0.418324  	1540.000000	0.423763  	1540.000000	0.419872  	1540.000000	0.418252  	1540.000000	7.20196e-05	
1560.000000	0.165656  	1560.000000	0.417995  	1560.000000	0.423232  	1560.000000	0.419346  	1560.000000	0.417924  	1560.000000	7.11601e-05	
1580.000000	0.165551  	1580.000000	0.417696  	1580.000000	0.422726  	1580.000000	0.418845  	1580.000000	0.417625  	1580.000000	7.03214e-05	
1600.000000	0.165458  	1600.000000	0.417425  	1600.000000	0.422242  	1600.000000	0.418367  	1600.000000	0.417356  	1600.000000	6.9503e-05	
1620.000000	0.165377  	1620.000000	0.417182  	1620.000000	0.42178   	1620.000000	0.41791   	1620.000000	0.417114  	1620.000000	6.87041e-05	
1640.000000	0.165308  	1640.000000	0.416966  	1640.000000	0.421339  	1640.000000	0.417475  	1640.000000	0.416898  	1640.000000	6.79239e-05	
1660.000000	0.16525   	1660.000000	0.416776  	1660.000000	0.420919  	1660.000000	0.417059  	1660.000000	0.416709  	1660.000000	6.71618e-05	
1680.000000	0.165202  	1680.000000	0.41661   	1680.000000	0.420519  	1680.000000	0.416664  	1680.000000	0.416544  	1680.000000	6.64172e-05	
1700.000000	0.165165  	1700.000000	0.416468  	1700.000000	0.420136  	1700.000000	0.416286  	1700.000000	0.416403  	1700.000000	6.56895e-05	
1750.000000	0.165117  	1750.000000	0.416213  	1750.000000	0.419258  	1750.000000	0.41542   	1750.000000	0.416149  	1750.000000	6.39404e-05	
1800.000000	0.165126  	1800.000000	0.416091  	1800.000000	0.418482  	1800.000000	0.414655  	1800.000000	0.416029  	1800.000000	6.22849e-05	
1850.000000	0.165191  	1850.000000	0.41609   	1850.000000	0.417797  	1850.000000	0.413982  	1850.000000	0.41603   	1850.000000	6.07157e-05	
1900.000000	0.165305  	1900.000000	0.416202  	1900.000000	0.417196  	1900.000000	0.413392  	1900.000000	0.416143  	1900.000000	5.92261e-05	
1950.000000	0.165467  	1950.000000	0.416418  	1950.000000	0.416673  	1950.000000	0.412878  	1950.000000	0.41636   	1950.000000	5.78102e-05	
2000.000000	0.165672  	2000.000000	0.416729  	2000.000000	0.41622   	2000.000000	0.412433  	2000.000000	0.416673  	2000.000000	5.64625e-05	
2100.000000	0.166202  	2100.000000	0.417613  	2100.000000	0.415504  	2100.000000	0.411728  	2100.000000	0.417559  	2100.000000	5.39529e-05	
2200.000000	0.166877  	2200.000000	0.418804  	2200.000000	0.415005  	2200.000000	0.411235  	2200.000000	0.418753  	2200.000000	5.16635e-05	
2300.000000	0.167679  	2300.000000	0.420263  	2300.000000	0.414686  	2300.000000	0.410921  	2300.000000	0.420214  	2300.000000	4.95662e-05	
2400.000000	0.168594  	2400.000000	0.421957  	2400.000000	0.414518  	2400.000000	0.410757  	2400.000000	0.421909  	2400.000000	4.76377e-05	
2500.000000	0.16961   	2500.000000	0.423856  	2500.000000	0.414476  	2500.000000	0.410722  	2500.000000	0.42381   	2500.000000	4.5858e-05	
2600.000000	0.170719  	2600.000000	0.425937  	2600.000000	0.414542  	2600.000000	0.410796  	2600.000000	0.425893  	2600.000000	4.42106e-05	
2700.000000	0.17191   	2700.000000	0.428179  	2700.000000	0.414701  	2700.000000	0.410963  	2700.000000	0.428137  	2700.000000	4.26809e-05	
2800.000000	0.173177  	2800.000000	0.430566  	2800.000000	0.41494   	2800.000000	0.41121   	2800.000000	0.430524  	2800.000000	4.12567e-05	
2900.000000	0.174513  	2900.000000	0.433081  	2900.000000	0.415248  	2900.000000	0.411525  	2900.000000	0.433041  	2900.000000	3.99273e-05	
3000.000000	0.175913  	3000.000000	0.435711  	3000.000000	0.415615  	3000.000000	0.411898  	3000.000000	0.435672  	3000.000000	3.86835e-05	
3200.000000	0.178884  	3200.000000	0.441275  	3200.000000	0.416494  	3200.000000	0.412789  	3200.000000	0.441238  	3200.000000	3.64213e-05	
3400.000000	0.182058  	3400.000000	0.44718   	3400.000000	0.417524  	3400.000000	0.41383   	3400.000000	0.447146  	3400.000000	3.44163e-05	
3600.000000	0.185409  	3600.000000	0.453369  	3600.000000	0.418666  	3600.000000	0.414981  	3600.000000	0.453336  	3600.000000	3.26267e-05	
3800.000000	0.188917  	3800.000000	0.459794  	3800.000000	0.41989   	3800.000000	0.416212  	3800.000000	0.459763  	3800.000000	3.10192e-05	
4000.000000	0.192565  	4000.000000	0.466418  	4000.000000	0.421172  	4000.000000	0.417501  	4000.000000	0.466388  	4000.000000	2.95671e-05	
4200.000000	0.19634   	4200.000000	0.473211  	4200.000000	0.422495  	4200.000000	0.41883   	4200.000000	0.473183  	4200.000000	2.82486e-05	
4400.000000	0.200231  	4400.000000	0.480148  	4400.000000	0.423846  	4400.000000	0.420186  	4400.000000	0.480121  	4400.000000	2.70461e-05	
4600.000000	0.204228  	4600.000000	0.48721   	4600.000000	0.425214  	4600.000000	0.421559  	4600.000000	0.487184  	4600.000000	2.59447e-05	
4800.000000	0.208325  	4800.000000	0.494378  	4800.000000	0.42659   	4800.000000	0.422941  	4800.000000	0.494353  	4800.000000	2.4932e-05	
5000.000000	0.212513  	5000.000000	0.50164   	5000.000000	0.427969  	5000.000000	0.424324  	5000.000000	0.501616  	5000.000000	2.39977e-05	
5250.000000	0.217871  	5250.000000	0.510829  	5250.000000	0.429689  	5250.000000	0.42605   	5250.000000	0.510806  	5250.000000	2.29266e-05	
5500.000000	0.223354  	5500.000000	0.520126  	5500.000000	0.431398  	5500.000000	0.427764  	5500.000000	0.520104  	5500.000000	2.19496e-05	
6000.000000	0.234673  	6000.000000	0.538979  	6000.000000	0.434762  	6000.000000	0.431139  	6000.000000	0.538959  	6000.000000	2.02323e-05	
6500.000000	0.246421  	6500.000000	0.558102  	6500.000000	0.438036  	6500.000000	0.434422  	6500.000000	0.558083  	6500.000000	1.87709e-05	
7000.000000	0.258565  	7000.000000	0.577423  	7000.000000	0.441206  	7000.000000	0.437599  	7000.000000	0.577406  	7000.000000	1.75117e-05	
7500.000000	0.27108   	7500.000000	0.596894  	7500.000000	0.444267  	7500.000000	0.440666  	7500.000000	0.596877  	7500.000000	1.64152e-05	
8000.000000	0.283946  	8000.000000	0.616476  	8000.000000	0.447221  	8000.000000	0.443623  	8000.000000	0.616461  	8000.000000	1.54514e-05	
8500.000000	0.29715   	8500.000000	0.636143  	8500.000000	0.450061  	8500.000000	0.446471  	8500.000000	0.636128  	8500.000000	1.45975e-05	
9000.000000	0.310679  	9000.000000	0.655872  	9000.000000	0.452789  	9000.000000	0.449214  	9000.000000	0.655858  	9000.000000	1.38355e-05	
9500.000000	0.324525  	9500.000000	0.675648  	9500.000000	0.45542   	9500.000000	0.451858  	9500.000000	0.675635  	9500.000000	1.31512e-05	
10000.000000	0.33868   	10000.000000	0.695457  	10000.000000	0.457962  	10000.000000	0.454406  	10000.000000	0.695445  	10000.000000	1.25332e-05	
11000.000000	0.367897  	11000.000000	0.735139  	11000.000000	0.462787  	11000.000000	0.459238  	11000.000000	0.735128  	11000.000000	1.14606e-05	
12000.000000	0.398296  	12000.000000	0.77486   	12000.000000	0.467288  	12000.000000	0.463748  	12000.000000	0.774849  	12000.000000	1.05614e-05	
13000.000000	0.429854  	13000.000000	0.814581  	13000.000000	0.471495  	13000.000000	0.467972  	13000.000000	0.814571  	13000.000000	9.79647e-06	
14000.000000	0.462557  	14000.000000	0.854279  	14000.000000	0.475437  	14000.000000	0.471939  	14000.000000	0.85427   	14000.000000	9.13752e-06	
15000.000000	0.496393  	15000.000000	0.893936  	15000.000000	0.479147  	15000.000000	0.475678  	15000.000000	0.893928  	15000.000000	8.56381e-06	
16000.000000	0.531356  	16000.000000	0.933543  	16000.000000	0.482652  	16000.000000	0.479211  	16000.000000	0.933535  	16000.000000	8.05967e-06	
17000.000000	0.567442  	17000.000000	0.973093  	17000.000000	0.485976  	17000.000000	0.482558  	17000.000000	0.973085  	17000.000000	7.61306e-06	
18000.000000	0.604651  	18000.000000	1.01258   	18000.000000	0.489135  	18000.000000	0.485738  	18000.000000	1.01257   	18000.000000	7.21459e-06	
19000.000000	0.64298   	19000.000000	1.052     	19000.000000	0.492146  	19000.000000	0.488766  	19000.000000	1.052     	19000.000000	6.85681e-06	
20000.000000	0.68243   	20000.000000	1.09136   	20000.000000	0.49502   	20000.000000	0.491654  	20000.000000	1.09135   	20000.000000	6.53374e-06	
21000.000000	0.723004  	21000.000000	1.13065   	21000.000000	0.497768  	21000.000000	0.494416  	21000.000000	1.13064   	21000.000000	6.24052e-06	
22000.000000	0.764704  	22000.000000	1.16987   	22000.000000	0.500393  	22000.000000	0.49706   	22000.000000	1.16986   	22000.000000	5.97316e-06	
23000.000000	0.807532  	23000.000000	1.20902   	23000.000000	0.502893  	23000.000000	0.499597  	23000.000000	1.20902   	23000.000000	5.72836e-06	
24000.000000	0.851492  	24000.000000	1.24811   	24000.000000	0.505294  	24000.000000	0.502035  	24000.000000	1.24811   	24000.000000	5.50334e-06	
25000.000000	0.896588  	25000.000000	1.28714   	25000.000000	0.507618  	25000.000000	0.504381  	25000.000000	1.28713   	25000.000000	5.2958e-06	
26000.000000	0.942823  	26000.000000	1.3261    	26000.000000	0.509855  	26000.000000	0.506642  	26000.000000	1.32609   	26000.000000	5.10374e-06	
27000.000000	0.990203  	27000.000000	1.36499   	27000.000000	0.512002  	27000.000000	0.508822  	27000.000000	1.36499   	27000.000000	4.92549e-06	
28000.000000	1.03873   	28000.000000	1.40383   	28000.000000	0.514071  	28000.000000	0.510929  	28000.000000	1.40383   	28000.000000	4.75959e-06	
29000.000000	1.08842   	29000.000000	1.44261   	29000.000000	0.516073  	29000.000000	0.512967  	29000.000000	1.4426    	29000.000000	4.6048e-06	
30000.000000	1.13926   	30000.000000	1.48133   	30000.000000	0.518012  	30000.000000	0.514939  	30000.000000	1.48132   	30000.000000	4.46001e-06	
32000.000000	1.24444   	32000.000000	1.55859   	32000.000000	0.521713  	32000.000000	0.518704  	32000.000000	1.55859   	32000.000000	4.19681e-06	
34000.000000	1.35433   	34000.000000	1.63564   	34000.000000	0.525192  	34000.000000	0.522252  	34000.000000	1.63563   	34000.000000	3.96368e-06	
36000.000000	1.46896   	36000.000000	1.71247   	36000.000000	0.528467  	36000.000000	0.525607  	36000.000000	1.71247   	36000.000000	3.75572e-06	
38000.000000	1.58839   	38000.000000	1.78911   	38000.000000	0.531559  	38000.000000	0.528789  	38000.000000	1.78911   	38000.000000	3.56902e-06	
40000.000000	1.71266   	40000.000000	1.86555   	40000.000000	0.534488  	40000.000000	0.531814  	40000.000000	1.86555   	40000.000000	3.40045e-06	
42000.000000	1.84183   	42000.000000	1.94182   	42000.000000	0.537273  	42000.000000	0.534696  	42000.000000	1.94181   	42000.000000	3.24748e-06	
44000.000000	1.97595   	44000.000000	2.0179    	44000.000000	0.53993   	44000.000000	0.53745   	44000.000000	2.0179    	44000.000000	3.10802e-06	
46000.000000	2.11505   	46000.000000	2.09382   	46000.000000	0.542471  	46000.000000	0.540085  	46000.000000	2.09382   	46000.000000	2.98034e-06	
48000.000000	2.25921   	48000.000000	2.16958   	48000.000000	0.544906  	48000.000000	0.542611  	48000.000000	2.16958   	48000.000000	2.86299e-06	
50000.000000	2.40847   	50000.000000	2.24519   	50000.000000	0.547234  	50000.000000	0.545038  	50000.000000	2.24519   	50000.000000	2.75476e-06	
