0.001000	10.0292   	0.001000	7.84449   	0.001000	7.55385   	0.001000	7.55385   	0.001000	1.29336   	0.001000	6.55113   	
0.002000	10.2545   	0.002000	7.97425   	0.002000	7.6008    	0.002000	7.6008    	0.002000	1.79144   	0.002000	6.18281   	
0.005000	10.3048   	0.005000	7.71275   	0.005000	7.19897   	0.005000	7.19897   	0.005000	2.75571   	0.005000	4.95704   	
0.008000	10.4734   	0.008000	7.58747   	0.008000	6.98634   	0.008000	6.98634   	0.008000	3.43693   	0.008000	4.15054   	
0.010000	10.6366   	0.010000	7.5785    	0.010000	6.93204   	0.010000	6.93204   	0.010000	3.81696   	0.010000	3.76154   	
0.015000	11.116    	0.015000	7.69813   	0.015000	6.96287   	0.015000	6.96287   	0.015000	4.61829   	0.015000	3.07985   	
0.020000	11.6232   	0.020000	7.91963   	0.020000	7.11642   	0.020000	7.11642   	0.020000	5.28691   	0.020000	2.63272   	
0.025000	12.1237   	0.025000	8.18477   	0.025000	7.32618   	0.025000	7.32618   	0.025000	5.87151   	0.025000	2.31326   	
0.030000	12.6067   	0.030000	8.4686    	0.030000	7.56314   	0.030000	7.56314   	0.030000	6.39683   	0.030000	2.07177   	
0.035000	13.0697   	0.035000	8.75926   	0.035000	7.81311   	0.035000	7.81311   	0.035000	6.87749   	0.035000	1.88177   	
0.040000	13.613    	0.040000	9.0507    	0.040000	8.06862   	0.040000	8.06862   	0.040000	7.32295   	0.040000	1.72775   	
0.045000	14.1903   	0.045000	9.6415    	0.045000	8.69343   	0.045000	8.69343   	0.045000	8.04151   	0.045000	1.59999   	
0.050000	14.6532   	0.050000	10.2631   	0.050000	9.37776   	0.050000	9.37776   	0.050000	8.77104   	0.050000	1.49202   	
0.055000	15.4356   	0.055000	10.8732   	0.055000	10.0695   	0.055000	10.0695   	0.055000	9.4738    	0.055000	1.3994    	
0.060000	16.1435   	0.060000	11.4676   	0.060000	10.762    	0.060000	10.762    	0.060000	10.1487   	0.060000	1.31895   	
0.070000	17.39     	0.070000	12.5999   	0.070000	12.1306   	0.070000	12.1306   	0.070000	11.4142   	0.070000	1.18572   	
0.080000	18.7546   	0.080000	13.6455   	0.080000	13.451    	0.080000	13.451    	0.080000	12.5714   	0.080000	1.07409   	
0.090000	19.9546   	0.090000	14.6129   	0.090000	14.7156   	0.090000	14.7156   	0.090000	13.6293   	0.090000	0.983571  	
0.100000	21.0229   	0.100000	15.5111   	0.100000	15.9201   	0.100000	15.9201   	0.100000	14.5992   	0.100000	0.911877  	
0.120000	22.3627   	0.120000	17.1164   	0.120000	18.1285   	0.120000	18.1285   	0.120000	16.3181   	0.120000	0.798347  	
0.140000	23.766    	0.140000	18.6697   	0.140000	20.0824   	0.140000	20.0824   	0.140000	17.9575   	0.140000	0.712162  	
0.160000	25.4405   	0.160000	20.4373   	0.160000	21.8096   	0.160000	21.8096   	0.160000	19.793    	0.160000	0.644261  	
0.180000	27.0189   	0.180000	22.0113   	0.180000	23.3404   	0.180000	23.3404   	0.180000	21.422    	0.180000	0.589236  	
0.200000	28.5496   	0.200000	23.421    	0.200000	24.7026   	0.200000	24.7026   	0.200000	22.8774   	0.200000	0.543644  	
0.250000	31.2623   	0.250000	26.3807   	0.250000	27.5188   	0.250000	27.5188   	0.250000	25.9232   	0.250000	0.457503  	
0.300000	33.7125   	0.300000	28.7471   	0.300000	29.707    	0.300000	29.707    	0.300000	28.3505   	0.300000	0.396632  	
0.350000	35.9836   	0.350000	30.7618   	0.350000	31.4563   	0.350000	31.4563   	0.350000	30.4106   	0.350000	0.351116  	
0.400000	37.9929   	0.400000	32.4653   	0.400000	32.8929   	0.400000	32.8929   	0.400000	32.1496   	0.400000	0.315675  	
0.450000	39.7546   	0.450000	33.9228   	0.450000	34.1014   	0.450000	34.1014   	0.450000	33.6355   	0.450000	0.287223  	
0.500000	41.2935   	0.500000	35.1845   	0.500000	35.1391   	0.500000	35.1391   	0.500000	34.9206   	0.500000	0.263834  	
0.600000	42.4171   	0.600000	37.3034   	0.600000	37.5303   	0.600000	37.5303   	0.600000	37.0759   	0.600000	0.227551  	
0.700000	43.2715   	0.700000	39.431    	0.700000	39.466    	0.700000	39.466    	0.700000	39.2304   	0.700000	0.200617  	
0.800000	45.1534   	0.800000	41.0863   	0.800000	40.9895   	0.800000	40.9895   	0.800000	40.9066   	0.800000	0.179764  	
0.900000	46.6011   	0.900000	42.3839   	0.900000	42.2055   	0.900000	42.2055   	0.900000	42.2208   	0.900000	0.163102  	
1.000000	47.7121   	1.000000	43.4047   	1.000000	43.1829   	1.000000	43.1829   	1.000000	43.2553   	1.000000	0.149458  	
1.250000	49.1543   	1.250000	44.9359   	1.250000	44.8704   	1.250000	44.8704   	1.250000	44.8118   	1.250000	0.124084  	
1.500000	49.6609   	1.500000	45.6818   	1.500000	45.8196   	1.500000	45.8196   	1.500000	45.5754   	1.500000	0.106479  	
1.750000	49.6504   	1.750000	45.9826   	1.750000	46.2934   	1.750000	46.2934   	1.750000	45.8891   	1.750000	0.093497  	
2.000000	49.1534   	2.000000	45.84     	2.000000	46.4497   	2.000000	46.4497   	2.000000	45.7565   	2.000000	0.0834995 	
2.250000	48.5629   	2.250000	45.5286   	2.250000	46.3891   	2.250000	46.3891   	2.250000	45.4531   	2.250000	0.0755465 	
2.500000	64.5389   	2.500000	45.1406   	2.500000	46.1781   	2.500000	46.1781   	2.500000	45.0716   	2.500000	0.0690584 	
3.000000	61.7401   	3.000000	44.2286   	3.000000	45.4728   	3.000000	45.4728   	3.000000	44.1695   	3.000000	0.0590866 	
3.500000	58.9564   	3.500000	43.1485   	3.500000	44.3236   	3.500000	44.3236   	3.500000	43.0968   	3.500000	0.0517602 	
4.000000	56.3128   	4.000000	42.0861   	4.000000	43.1602   	4.000000	43.1602   	4.000000	42.04     	4.000000	0.046135  	
4.500000	53.8501   	4.500000	41.0844   	4.500000	42.0276   	4.500000	42.0276   	4.500000	41.0428   	4.500000	0.0416713 	
5.000000	51.5744   	5.000000	40.0995   	5.000000	40.935    	5.000000	40.935    	5.000000	40.0614   	5.000000	0.0380374 	
5.500000	49.4775   	5.500000	39.1344   	5.500000	39.8869   	5.500000	39.8869   	5.500000	39.0993   	5.500000	0.035018  	
6.000000	47.5458   	6.000000	38.2023   	6.000000	38.8845   	6.000000	38.8845   	6.000000	38.1699   	6.000000	0.0324668 	
6.500000	45.7642   	6.500000	37.3093   	6.500000	37.9272   	6.500000	37.9272   	6.500000	37.279    	6.500000	0.030281  	
7.000000	44.1182   	7.000000	36.4539   	7.000000	37.0139   	7.000000	37.0139   	7.000000	36.4256   	7.000000	0.028386  	
7.500000	42.594    	7.500000	35.6348   	7.500000	36.1426   	7.500000	36.1426   	7.500000	35.608    	7.500000	0.0267264 	
8.000000	41.1795   	8.000000	34.8517   	8.000000	35.3112   	8.000000	35.3112   	8.000000	34.8264   	8.000000	0.0252601 	
8.500000	39.8635   	8.500000	34.1026   	8.500000	34.5175   	8.500000	34.5175   	8.500000	34.0787   	8.500000	0.0239547 	
9.000000	38.6364   	9.000000	33.3858   	9.000000	33.7594   	9.000000	33.7594   	9.000000	33.363    	9.000000	0.0227846 	
9.500000	37.4896   	9.500000	32.6991   	9.500000	33.0348   	9.500000	33.0348   	9.500000	32.6774   	9.500000	0.0217295 	
10.000000	36.4155   	10.000000	32.2647   	10.000000	32.3416   	10.000000	32.3416   	10.000000	32.2439   	10.000000	0.0207728 	
11.000000	34.4592   	11.000000	31.0182   	11.000000	30.8398   	11.000000	31.1646   	11.000000	30.9991   	11.000000	0.0191036 	
12.000000	32.7228   	12.000000	29.8571   	12.000000	29.4741   	12.000000	30.0631   	12.000000	29.8394   	12.000000	0.0176952 	
13.000000	31.1706   	13.000000	28.7766   	13.000000	28.2277   	13.000000	29.033    	13.000000	28.7601   	13.000000	0.0164898 	
14.000000	29.7744   	14.000000	27.7709   	14.000000	27.0865   	14.000000	28.0692   	14.000000	27.7554   	14.000000	0.0154459 	
15.000000	28.5113   	15.000000	26.8338   	15.000000	26.0385   	15.000000	27.1667   	15.000000	26.8193   	15.000000	0.0145326 	
16.000000	27.3629   	16.000000	25.9595   	16.000000	25.0725   	16.000000	26.3206   	16.000000	25.9458   	16.000000	0.0137264 	
17.000000	26.3139   	17.000000	25.1425   	17.000000	24.1793   	17.000000	25.5263   	17.000000	25.1295   	17.000000	0.0130092 	
18.000000	25.3515   	18.000000	24.3776   	18.000000	23.3514   	18.000000	24.7796   	18.000000	24.3652   	18.000000	0.0123668 	
19.000000	24.4653   	19.000000	23.6603   	19.000000	22.5825   	19.000000	24.0768   	19.000000	23.6486   	19.000000	0.011788  	
20.000000	23.6464   	20.000000	22.9866   	20.000000	21.8674   	20.000000	23.4142   	20.000000	22.9753   	20.000000	0.0112635 	
21.000000	22.8872   	21.000000	22.3525   	21.000000	21.2001   	21.000000	22.7889   	21.000000	22.3418   	21.000000	0.0107859 	
22.000000	22.1812   	22.000000	21.7549   	22.000000	20.5752   	22.000000	22.1979   	22.000000	21.7446   	22.000000	0.0103491 	
23.000000	21.5228   	23.000000	21.1908   	23.000000	19.9892   	23.000000	21.6387   	23.000000	21.1808   	23.000000	0.00994809	
24.000000	20.9074   	24.000000	20.6574   	24.000000	19.4404   	24.000000	21.1089   	24.000000	20.6478   	24.000000	0.00957846	
25.000000	20.3307   	25.000000	20.1523   	25.000000	18.9256   	25.000000	20.6065   	25.000000	20.1431   	25.000000	0.00923664	
27.000000	19.2795   	27.000000	19.2186   	27.000000	17.9835   	27.000000	19.6761   	27.000000	19.21     	27.000000	0.00862458	
29.000000	18.3449   	29.000000	18.3747   	29.000000	17.1438   	29.000000	18.8343   	29.000000	18.3666   	29.000000	0.00809214	
31.000000	17.5082   	31.000000	17.6082   	31.000000	16.445    	31.000000	18.042    	31.000000	17.6006   	31.000000	0.00762451	
33.000000	16.7545   	33.000000	16.909    	33.000000	15.856    	33.000000	17.295    	33.000000	16.9018   	33.000000	0.00721036	
35.000000	16.0716   	35.000000	16.2686   	35.000000	15.3121   	35.000000	16.6135   	35.000000	16.2617   	35.000000	0.00684089	
38.000000	15.1594   	38.000000	15.4028   	38.000000	14.5696   	38.000000	15.6963   	38.000000	15.3965   	38.000000	0.00635558	
41.000000	14.359    	41.000000	14.634    	41.000000	13.9051   	41.000000	14.8853   	41.000000	14.6281   	41.000000	0.00593744	
44.000000	13.6506   	44.000000	13.9467   	44.000000	13.3053   	44.000000	14.163    	44.000000	13.9411   	44.000000	0.00557323	
47.000000	13.0189   	47.000000	13.3284   	47.000000	12.7623   	47.000000	13.5154   	47.000000	13.3232   	47.000000	0.00525301	
50.000000	12.4518   	50.000000	12.7694   	50.000000	12.2671   	50.000000	12.9315   	50.000000	12.7644   	50.000000	0.00496914	
55.000000	11.6248   	55.000000	11.9477   	55.000000	11.535    	55.000000	12.0761   	55.000000	11.9432   	55.000000	0.00456126	
60.000000	10.9172   	60.000000	11.2391   	60.000000	10.8967   	60.000000	11.3409   	60.000000	11.2348   	60.000000	0.00421785	
65.000000	10.3043   	65.000000	10.6216   	65.000000	10.3355   	65.000000	10.7022   	65.000000	10.6176   	65.000000	0.00392456	
70.000000	9.76785   	70.000000	10.0787   	70.000000	9.84001   	70.000000	10.1422   	70.000000	10.075    	70.000000	0.00367103	
75.000000	9.29416   	75.000000	9.59765   	75.000000	9.39809   	75.000000	9.64702   	75.000000	9.5942    	75.000000	0.00344957	
80.000000	8.87257   	80.000000	9.16849   	80.000000	9.00152   	80.000000	9.20612   	80.000000	9.16524   	80.000000	0.00325439	
85.000000	8.49475   	85.000000	8.78324   	85.000000	8.64356   	85.000000	8.81103   	85.000000	8.78016   	85.000000	0.00308101	
90.000000	8.15406   	90.000000	8.43548   	90.000000	8.31883   	90.000000	8.45495   	90.000000	8.43256   	90.000000	0.00292591	
95.000000	7.84517   	95.000000	8.12001   	95.000000	8.02386   	95.000000	8.13238   	95.000000	8.11722   	95.000000	0.00278632	
100.000000	7.56373   	100.000000	7.83253   	100.000000	7.75275   	100.000000	7.83881   	100.000000	7.82987   	100.000000	0.00265998	
105.000000	7.30614   	105.000000	7.56949   	105.000000	7.50546   	105.000000	7.5705    	105.000000	7.56694   	105.000000	0.00254508	
110.000000	7.06943   	110.000000	7.32789   	110.000000	7.27664   	110.000000	7.32434   	110.000000	7.32545   	110.000000	0.00244009	
115.000000	6.85109   	115.000000	7.10523   	115.000000	7.06526   	115.000000	7.09768   	115.000000	7.10288   	115.000000	0.00234378	
120.000000	6.64903   	120.000000	6.89936   	120.000000	6.86941   	120.000000	6.88832   	120.000000	6.89711   	120.000000	0.0022551 	
125.000000	6.46143   	125.000000	6.70846   	125.000000	6.68721   	125.000000	6.69435   	125.000000	6.70629   	125.000000	0.00217316	
130.000000	6.28676   	130.000000	6.53097   	130.000000	6.51778   	130.000000	6.51413   	130.000000	6.52887   	130.000000	0.00209721	
135.000000	6.1237    	135.000000	6.36551   	135.000000	6.35919   	135.000000	6.34626   	135.000000	6.36348   	135.000000	0.00202661	
140.000000	5.9711    	140.000000	6.21091   	140.000000	6.21075   	140.000000	6.18952   	140.000000	6.20895   	140.000000	0.00196081	
145.000000	5.82796   	145.000000	6.06614   	145.000000	6.07189   	145.000000	6.04283   	145.000000	6.06424   	145.000000	0.00189932	
150.000000	5.6934    	150.000000	5.93029   	150.000000	5.94151   	150.000000	5.90528   	150.000000	5.92845   	150.000000	0.00184173	
155.000000	5.50165   	155.000000	5.80257   	155.000000	5.81803   	155.000000	5.77603   	155.000000	5.80078   	155.000000	0.00178767	
160.000000	5.39039   	160.000000	5.68227   	160.000000	5.70148   	160.000000	5.65436   	160.000000	5.68053   	160.000000	0.00173683	
165.000000	5.2853    	165.000000	5.56876   	165.000000	5.59198   	165.000000	5.53963   	165.000000	5.56707   	165.000000	0.00168892	
170.000000	5.18586   	170.000000	5.4615    	170.000000	5.48822   	170.000000	5.43127   	170.000000	5.45985   	170.000000	0.00164369	
175.000000	5.09164   	175.000000	5.35997   	175.000000	5.3897    	175.000000	5.32875   	175.000000	5.35837   	175.000000	0.00160091	
180.000000	5.00223   	180.000000	5.26374   	180.000000	5.2964    	180.000000	5.23163   	180.000000	5.26218   	180.000000	0.00156041	
185.000000	4.91726   	185.000000	5.1724    	185.000000	5.20771   	185.000000	5.1395    	185.000000	5.17088   	185.000000	0.00152198	
190.000000	4.8364    	190.000000	5.0856    	190.000000	5.12313   	190.000000	5.05198   	190.000000	5.08411   	190.000000	0.00148548	
195.000000	4.75937   	195.000000	5.00299   	195.000000	5.04256   	195.000000	4.96874   	195.000000	5.00154   	195.000000	0.00145076	
200.000000	4.68589   	200.000000	4.9243    	200.000000	4.96587   	200.000000	4.88947   	200.000000	4.92288   	200.000000	0.0014177 	
210.000000	4.54865   	210.000000	4.77759   	210.000000	4.82294   	210.000000	4.74179   	210.000000	4.77624   	210.000000	0.00135607	
220.000000	4.42298   	220.000000	4.64359   	220.000000	4.69174   	220.000000	4.60703   	220.000000	4.64229   	220.000000	0.00129978	
230.000000	4.30747   	230.000000	4.52073   	230.000000	4.57195   	230.000000	4.48358   	230.000000	4.51948   	230.000000	0.00124816	
240.000000	4.20093   	240.000000	4.40768   	240.000000	4.461     	240.000000	4.3701    	240.000000	4.40648   	240.000000	0.00120064	
250.000000	4.10235   	250.000000	4.30334   	250.000000	4.35859   	250.000000	4.26544   	250.000000	4.30218   	250.000000	0.00115675	
260.000000	4.01087   	260.000000	4.20673   	260.000000	4.26394   	260.000000	4.16864   	260.000000	4.20562   	260.000000	0.00111607	
270.000000	3.92575   	270.000000	4.11706   	270.000000	4.17567   	270.000000	4.07886   	270.000000	4.11598   	270.000000	0.00107827	
280.000000	3.84635   	280.000000	4.0336    	280.000000	4.09356   	280.000000	3.99538   	280.000000	4.03256   	280.000000	0.00104305	
290.000000	3.77212   	290.000000	3.95574   	290.000000	4.01712   	290.000000	3.91757   	290.000000	3.95473   	290.000000	0.00101015	
300.000000	3.70256   	300.000000	3.88295   	300.000000	3.94564   	300.000000	3.84489   	300.000000	3.88197   	300.000000	0.000979334	
310.000000	3.63725   	310.000000	3.81476   	310.000000	3.87868   	310.000000	3.77686   	310.000000	3.81381   	310.000000	0.000950419	
320.000000	3.57582   	320.000000	3.75075   	320.000000	3.81587   	320.000000	3.71307   	320.000000	3.74982   	320.000000	0.000923229	
330.000000	3.51794   	330.000000	3.69055   	330.000000	3.75663   	330.000000	3.65313   	330.000000	3.68966   	330.000000	0.000897613	
340.000000	3.46331   	340.000000	3.63386   	340.000000	3.70071   	340.000000	3.59673   	340.000000	3.63298   	340.000000	0.000873434	
350.000000	3.41167   	350.000000	3.58037   	350.000000	3.64803   	350.000000	3.54357   	350.000000	3.57951   	350.000000	0.000850575	
360.000000	3.36278   	360.000000	3.52982   	360.000000	3.59828   	360.000000	3.49339   	360.000000	3.529     	360.000000	0.000828928	
370.000000	3.31644   	370.000000	3.482     	370.000000	3.55123   	370.000000	3.44595   	370.000000	3.48119   	370.000000	0.000808399	
380.000000	3.27246   	380.000000	3.43669   	380.000000	3.50672   	380.000000	3.40105   	380.000000	3.43591   	380.000000	0.000788901	
390.000000	3.23066   	390.000000	3.39371   	390.000000	3.46446   	390.000000	3.3585    	390.000000	3.39294   	390.000000	0.000770358	
400.000000	3.19089   	400.000000	3.35289   	400.000000	3.42417   	400.000000	3.31812   	400.000000	3.35213   	400.000000	0.000752701	
410.000000	3.15301   	410.000000	3.31407   	410.000000	3.38588   	410.000000	3.27976   	410.000000	3.31333   	410.000000	0.000735866	
420.000000	3.1169    	420.000000	3.27712   	420.000000	3.34962   	420.000000	3.24328   	420.000000	3.2764    	420.000000	0.000719798	
430.000000	3.08244   	430.000000	3.24191   	430.000000	3.31513   	430.000000	3.20855   	430.000000	3.2412    	430.000000	0.000704443	
440.000000	3.04951   	440.000000	3.20832   	440.000000	3.28213   	440.000000	3.17546   	440.000000	3.20763   	440.000000	0.000689755	
450.000000	3.01804   	450.000000	3.17626   	450.000000	3.25056   	450.000000	3.1439    	450.000000	3.17559   	450.000000	0.000675691	
460.000000	2.98791   	460.000000	3.14563   	460.000000	3.22041   	460.000000	3.11377   	460.000000	3.14496   	460.000000	0.000662211	
470.000000	2.95907   	470.000000	3.11633   	470.000000	3.19163   	470.000000	3.08498   	470.000000	3.11568   	470.000000	0.00064928	
480.000000	2.93142   	480.000000	3.08829   	480.000000	3.16411   	480.000000	3.05745   	480.000000	3.08765   	480.000000	0.000636863	
490.000000	2.90491   	490.000000	3.06143   	490.000000	3.13776   	490.000000	3.03111   	490.000000	3.0608    	490.000000	0.000624931	
500.000000	2.87946   	500.000000	3.03568   	500.000000	3.11251   	500.000000	3.00589   	500.000000	3.03507   	500.000000	0.000613455	
520.000000	2.83153   	520.000000	2.98728   	520.000000	3.06509   	520.000000	2.95853   	520.000000	2.98669   	520.000000	0.000591769	
540.000000	2.78721   	540.000000	2.94264   	540.000000	3.02146   	540.000000	2.91491   	540.000000	2.94206   	540.000000	0.00057162	
560.000000	2.74614   	560.000000	2.90135   	560.000000	2.98107   	560.000000	2.87466   	560.000000	2.9008    	560.000000	0.000552849	
580.000000	2.708     	580.000000	2.86309   	580.000000	2.94351   	580.000000	2.83741   	580.000000	2.86255   	580.000000	0.000535316	
600.000000	2.67251   	600.000000	2.82756   	600.000000	2.90881   	600.000000	2.80287   	600.000000	2.82704   	600.000000	0.000518902	
620.000000	2.63944   	620.000000	2.7945    	620.000000	2.87665   	620.000000	2.77079   	620.000000	2.79399   	620.000000	0.000503502	
640.000000	2.60856   	640.000000	2.76369   	640.000000	2.84657   	640.000000	2.74092   	640.000000	2.7632    	640.000000	0.000489023	
660.000000	2.57969   	660.000000	2.73492   	660.000000	2.81842   	660.000000	2.71308   	660.000000	2.73445   	660.000000	0.000475384	
680.000000	2.55267   	680.000000	2.70803   	680.000000	2.79214   	680.000000	2.68709   	680.000000	2.70757   	680.000000	0.000462513	
700.000000	2.52734   	700.000000	2.68286   	700.000000	2.76765   	700.000000	2.66278   	700.000000	2.68241   	700.000000	0.000450346	
720.000000	2.50357   	720.000000	2.65926   	720.000000	2.7448    	720.000000	2.64002   	720.000000	2.65882   	720.000000	0.000438827	
740.000000	2.48124   	740.000000	2.63712   	740.000000	2.72336   	740.000000	2.61867   	740.000000	2.63669   	740.000000	0.000427903	
760.000000	2.46025   	760.000000	2.61631   	760.000000	2.70312   	760.000000	2.59863   	760.000000	2.6159    	760.000000	0.000417531	
780.000000	2.44049   	780.000000	2.59675   	780.000000	2.68405   	780.000000	2.5798    	780.000000	2.59634   	780.000000	0.000407668	
800.000000	2.42189   	800.000000	2.57834   	800.000000	2.66611   	800.000000	2.56208   	800.000000	2.57794   	800.000000	0.000398277	
820.000000	2.40435   	820.000000	2.56099   	820.000000	2.64926   	820.000000	2.54543   	820.000000	2.5606    	820.000000	0.000389325	
840.000000	2.38782   	840.000000	2.54464   	840.000000	2.63356   	840.000000	2.52991   	840.000000	2.54426   	840.000000	0.000380781	
860.000000	2.37221   	860.000000	2.52921   	860.000000	2.61876   	860.000000	2.51527   	860.000000	2.52884   	860.000000	0.000372618	
880.000000	2.35749   	880.000000	2.51465   	880.000000	2.60475   	880.000000	2.50145   	880.000000	2.51428   	880.000000	0.000364811	
900.000000	2.34358   	900.000000	2.50089   	900.000000	2.59147   	900.000000	2.48838   	900.000000	2.50054   	900.000000	0.000357336	
920.000000	2.33044   	920.000000	2.48789   	920.000000	2.57887   	920.000000	2.47603   	920.000000	2.48754   	920.000000	0.000350172	
940.000000	2.31802   	940.000000	2.4756    	940.000000	2.56692   	940.000000	2.46435   	940.000000	2.47526   	940.000000	0.000343301	
960.000000	2.30629   	960.000000	2.46398   	960.000000	2.55564   	960.000000	2.45328   	960.000000	2.46364   	960.000000	0.000336703	
980.000000	2.29519   	980.000000	2.45298   	980.000000	2.54498   	980.000000	2.4428    	980.000000	2.45265   	980.000000	0.000330364	
1000.000000	2.2847    	1000.000000	2.44257   	1000.000000	2.5349    	1000.000000	2.43286   	1000.000000	2.44224   	1000.000000	0.000324268	
1020.000000	2.27478   	1020.000000	2.43271   	1020.000000	2.52536   	1020.000000	2.42344   	1020.000000	2.4324    	1020.000000	0.000318402	
1040.000000	2.2654    	1040.000000	2.42338   	1040.000000	2.51631   	1040.000000	2.4145    	1040.000000	2.42307   	1040.000000	0.000312751	
1060.000000	2.25654   	1060.000000	2.41455   	1060.000000	2.50771   	1060.000000	2.40602   	1060.000000	2.41424   	1060.000000	0.000307305	
1080.000000	2.24816   	1080.000000	2.40618   	1080.000000	2.49953   	1080.000000	2.39796   	1080.000000	2.40588   	1080.000000	0.000302052	
1100.000000	2.24024   	1100.000000	2.39825   	1100.000000	2.49174   	1100.000000	2.39031   	1100.000000	2.39796   	1100.000000	0.000296982	
1120.000000	2.23276   	1120.000000	2.39075   	1120.000000	2.48431   	1120.000000	2.38304   	1120.000000	2.39045   	1120.000000	0.000292086	
1140.000000	2.2257    	1140.000000	2.38364   	1140.000000	2.47722   	1140.000000	2.37613   	1140.000000	2.38335   	1140.000000	0.000287355	
1160.000000	2.21903   	1160.000000	2.37691   	1160.000000	2.47048   	1160.000000	2.36955   	1160.000000	2.37663   	1160.000000	0.00028278	
1180.000000	2.21274   	1180.000000	2.37054   	1180.000000	2.46406   	1180.000000	2.3633    	1180.000000	2.37026   	1180.000000	0.000278353	
1200.000000	2.20681   	1200.000000	2.36451   	1200.000000	2.45797   	1200.000000	2.35736   	1200.000000	2.36423   	1200.000000	0.000274069	
1220.000000	2.20122   	1220.000000	2.3588    	1220.000000	2.45219   	1220.000000	2.3517    	1220.000000	2.35853   	1220.000000	0.000269919	
1240.000000	2.19596   	1240.000000	2.35341   	1240.000000	2.44671   	1240.000000	2.34632   	1240.000000	2.35314   	1240.000000	0.000265897	
1260.000000	2.19101   	1260.000000	2.34831   	1260.000000	2.4415    	1260.000000	2.3412    	1260.000000	2.34804   	1260.000000	0.000261998	
1280.000000	2.18637   	1280.000000	2.34349   	1280.000000	2.43654   	1280.000000	2.33632   	1280.000000	2.34323   	1280.000000	0.000258215	
1300.000000	2.182     	1300.000000	2.33894   	1300.000000	2.43181   	1300.000000	2.33168   	1300.000000	2.33868   	1300.000000	0.000254545	
1320.000000	2.17792   	1320.000000	2.33464   	1320.000000	2.4273    	1320.000000	2.32726   	1320.000000	2.33439   	1320.000000	0.000250981	
1340.000000	2.1741    	1340.000000	2.33059   	1340.000000	2.42298   	1340.000000	2.32306   	1340.000000	2.33035   	1340.000000	0.000247519	
1360.000000	2.17053   	1360.000000	2.32678   	1360.000000	2.41886   	1360.000000	2.31905   	1360.000000	2.32653   	1360.000000	0.000244154	
1380.000000	2.1672    	1380.000000	2.32319   	1380.000000	2.41493   	1380.000000	2.31524   	1380.000000	2.32295   	1380.000000	0.000240883	
1400.000000	2.1641    	1400.000000	2.31982   	1400.000000	2.41118   	1400.000000	2.31162   	1400.000000	2.31958   	1400.000000	0.000237702	
1420.000000	2.16123   	1420.000000	2.31665   	1420.000000	2.40761   	1420.000000	2.30816   	1420.000000	2.31641   	1420.000000	0.000234607	
1440.000000	2.15858   	1440.000000	2.31368   	1440.000000	2.40421   	1440.000000	2.30488   	1440.000000	2.31345   	1440.000000	0.000231595	
1460.000000	2.15613   	1460.000000	2.3109    	1460.000000	2.40098   	1460.000000	2.30175   	1460.000000	2.31067   	1460.000000	0.000228661	
1480.000000	2.15388   	1480.000000	2.3083    	1480.000000	2.3979    	1480.000000	2.29878   	1480.000000	2.30807   	1480.000000	0.000225804	
1500.000000	2.15182   	1500.000000	2.30587   	1500.000000	2.39497   	1500.000000	2.29595   	1500.000000	2.30565   	1500.000000	0.00022302	
1520.000000	2.14994   	1520.000000	2.30362   	1520.000000	2.39219   	1520.000000	2.29326   	1520.000000	2.3034    	1520.000000	0.000220306	
1540.000000	2.14825   	1540.000000	2.30153   	1540.000000	2.38954   	1540.000000	2.2907    	1540.000000	2.30131   	1540.000000	0.000217659	
1560.000000	2.14672   	1560.000000	2.29959   	1560.000000	2.38702   	1560.000000	2.28828   	1560.000000	2.29937   	1560.000000	0.000215078	
1580.000000	2.14536   	1580.000000	2.2978    	1580.000000	2.38462   	1580.000000	2.28597   	1580.000000	2.29759   	1580.000000	0.00021256	
1600.000000	2.14417   	1600.000000	2.29616   	1600.000000	2.38235   	1600.000000	2.28378   	1600.000000	2.29595   	1600.000000	0.000210102	
1620.000000	2.14312   	1620.000000	2.29465   	1620.000000	2.38018   	1620.000000	2.2817    	1620.000000	2.29444   	1620.000000	0.000207702	
1640.000000	2.14223   	1640.000000	2.29328   	1640.000000	2.37812   	1640.000000	2.27973   	1640.000000	2.29307   	1640.000000	0.000205358	
1660.000000	2.14148   	1660.000000	2.29204   	1660.000000	2.37617   	1660.000000	2.27786   	1660.000000	2.29183   	1660.000000	0.000203069	
1680.000000	2.14087   	1680.000000	2.29092   	1680.000000	2.37432   	1680.000000	2.27609   	1680.000000	2.29072   	1680.000000	0.000200832	
1700.000000	2.1404    	1700.000000	2.28992   	1700.000000	2.37256   	1700.000000	2.27441   	1700.000000	2.28972   	1700.000000	0.000198645	
1750.000000	2.13978   	1750.000000	2.28793   	1750.000000	2.36857   	1750.000000	2.27061   	1750.000000	2.28773   	1750.000000	0.000193389	
1800.000000	2.13992   	1800.000000	2.2866    	1800.000000	2.3651    	1800.000000	2.26732   	1800.000000	2.28641   	1800.000000	0.000188413	
1850.000000	2.14076   	1850.000000	2.28588   	1850.000000	2.36211   	1850.000000	2.2645    	1850.000000	2.2857    	1850.000000	0.000183695	
1900.000000	2.14225   	1900.000000	2.28573   	1900.000000	2.35956   	1900.000000	2.26209   	1900.000000	2.28555   	1900.000000	0.000179217	
1950.000000	2.14435   	1950.000000	2.28609   	1950.000000	2.35739   	1950.000000	2.26007   	1950.000000	2.28592   	1950.000000	0.000174958	
2000.000000	2.14702   	2000.000000	2.28694   	2000.000000	2.35559   	2000.000000	2.2584    	2000.000000	2.28677   	2000.000000	0.000170905	
2100.000000	2.15391   	2100.000000	2.28995   	2100.000000	2.35291   	2100.000000	2.25598   	2100.000000	2.28979   	2100.000000	0.000163354	
2200.000000	2.16266   	2200.000000	2.29451   	2200.000000	2.35132   	2200.000000	2.25462   	2200.000000	2.29436   	2200.000000	0.000156464	
2300.000000	2.17306   	2300.000000	2.30041   	2300.000000	2.35065   	2300.000000	2.25414   	2300.000000	2.30026   	2300.000000	0.000150151	
2400.000000	2.18492   	2400.000000	2.3075    	2400.000000	2.35074   	2400.000000	2.25441   	2400.000000	2.30735   	2400.000000	0.000144343	
2500.000000	2.19811   	2500.000000	2.31561   	2500.000000	2.35149   	2500.000000	2.25531   	2500.000000	2.31547   	2500.000000	0.000138983	
2600.000000	2.21248   	2600.000000	2.32464   	2600.000000	2.35278   	2600.000000	2.25674   	2600.000000	2.32451   	2600.000000	0.000134019	
2700.000000	2.22792   	2700.000000	2.33448   	2700.000000	2.35454   	2700.000000	2.25862   	2700.000000	2.33435   	2700.000000	0.000129409	
2800.000000	2.24434   	2800.000000	2.34505   	2800.000000	2.35668   	2800.000000	2.26089   	2800.000000	2.34493   	2800.000000	0.000125116	
2900.000000	2.26166   	2900.000000	2.35627   	2900.000000	2.35915   	2900.000000	2.26348   	2900.000000	2.35614   	2900.000000	0.000121108	
3000.000000	2.27981   	3000.000000	2.36806   	3000.000000	2.36189   	3000.000000	2.26634   	3000.000000	2.36794   	3000.000000	0.000117357	
3200.000000	2.31832   	3200.000000	2.39318   	3200.000000	2.36805   	3200.000000	2.27274   	3200.000000	2.39307   	3200.000000	0.000110532	
3400.000000	2.35946   	3400.000000	2.42002   	3400.000000	2.37491   	3400.000000	2.27981   	3400.000000	2.41992   	3400.000000	0.000104482	
3600.000000	2.40289   	3600.000000	2.44829   	3600.000000	2.38226   	3600.000000	2.28736   	3600.000000	2.44819   	3600.000000	9.9079e-05	
3800.000000	2.44835   	3800.000000	2.47775   	3800.000000	2.38996   	3800.000000	2.29524   	3800.000000	2.47766   	3800.000000	9.42243e-05	
4000.000000	2.49564   	4000.000000	2.50822   	4000.000000	2.39789   	4000.000000	2.30334   	4000.000000	2.50813   	4000.000000	8.98376e-05	
4200.000000	2.54456   	4200.000000	2.53955   	4200.000000	2.40597   	4200.000000	2.31158   	4200.000000	2.53946   	4200.000000	8.58536e-05	
4400.000000	2.59499   	4400.000000	2.5716    	4400.000000	2.41413   	4400.000000	2.3199    	4400.000000	2.57152   	4400.000000	8.22188e-05	
4600.000000	2.64679   	4600.000000	2.60429   	4600.000000	2.42233   	4600.000000	2.32823   	4600.000000	2.60421   	4600.000000	7.88886e-05	
4800.000000	2.69988   	4800.000000	2.63751   	4800.000000	2.43051   	4800.000000	2.33656   	4800.000000	2.63744   	4800.000000	7.58259e-05	
5000.000000	2.75417   	5000.000000	2.67121   	5000.000000	2.43866   	5000.000000	2.34484   	5000.000000	2.67114   	5000.000000	7.29995e-05	
5250.000000	2.8236    	5250.000000	2.71391   	5250.000000	2.44876   	5250.000000	2.35509   	5250.000000	2.71384   	5250.000000	6.97585e-05	
5500.000000	2.89467   	5500.000000	2.75716   	5500.000000	2.45874   	5500.000000	2.36522   	5500.000000	2.75709   	5500.000000	6.68017e-05	
6000.000000	3.04136   	6000.000000	2.84498   	6000.000000	2.47825   	6000.000000	2.385     	6000.000000	2.84491   	6000.000000	6.16019e-05	
6500.000000	3.19362   	6500.000000	2.93417   	6500.000000	2.49711   	6500.000000	2.40408   	6500.000000	2.93412   	6500.000000	5.71749e-05	
7000.000000	3.351     	7000.000000	3.0244    	7000.000000	2.51525   	7000.000000	2.42241   	7000.000000	3.02435   	7000.000000	5.33589e-05	
7500.000000	3.5132    	7500.000000	3.1154    	7500.000000	2.53253   	7500.000000	2.44      	7500.000000	3.11535   	7500.000000	5.00345e-05	
8000.000000	3.67995   	8000.000000	3.20699   	8000.000000	2.54914   	8000.000000	2.45687   	8000.000000	3.20694   	8000.000000	4.71115e-05	
8500.000000	3.85106   	8500.000000	3.29902   	8500.000000	2.56508   	8500.000000	2.47305   	8500.000000	3.29898   	8500.000000	4.45207e-05	
9000.000000	4.0264    	9000.000000	3.39139   	9000.000000	2.58033   	9000.000000	2.48857   	9000.000000	3.39135   	9000.000000	4.2208e-05	
9500.000000	4.20584   	9500.000000	3.48401   	9500.000000	2.59493   	9500.000000	2.50347   	9500.000000	3.48397   	9500.000000	4.01306e-05	
10000.000000	4.38929   	10000.000000	3.57682   	10000.000000	2.60894   	10000.000000	2.51778   	10000.000000	3.57678   	10000.000000	3.82539e-05	
11000.000000	4.76794   	11000.000000	3.76281   	11000.000000	2.63535   	11000.000000	2.54481   	11000.000000	3.76278   	11000.000000	3.49955e-05	
12000.000000	5.16192   	12000.000000	3.94906   	12000.000000	2.65983   	12000.000000	2.56989   	12000.000000	3.94903   	12000.000000	3.22627e-05	
13000.000000	5.57091   	13000.000000	4.13538   	13000.000000	2.68261   	13000.000000	2.59328   	13000.000000	4.13535   	13000.000000	2.99368e-05	
14000.000000	5.99473   	14000.000000	4.32163   	14000.000000	2.70391   	14000.000000	2.61515   	14000.000000	4.3216    	14000.000000	2.79324e-05	
15000.000000	6.43325   	15000.000000	4.50773   	15000.000000	2.72386   	15000.000000	2.63569   	15000.000000	4.5077    	15000.000000	2.61866e-05	
16000.000000	6.88637   	16000.000000	4.69363   	16000.000000	2.74251   	16000.000000	2.65503   	16000.000000	4.6936    	16000.000000	2.4652e-05	
17000.000000	7.35405   	17000.000000	4.87928   	17000.000000	2.75998   	17000.000000	2.6733    	17000.000000	4.87925   	17000.000000	2.32922e-05	
18000.000000	7.83627   	18000.000000	5.06466   	18000.000000	2.77641   	18000.000000	2.6906    	18000.000000	5.06464   	18000.000000	2.20785e-05	
19000.000000	8.33302   	19000.000000	5.24975   	19000.000000	2.79192   	19000.000000	2.70704   	19000.000000	5.24973   	19000.000000	2.09885e-05	
20000.000000	8.8443    	20000.000000	5.43455   	20000.000000	2.80662   	20000.000000	2.72267   	20000.000000	5.43453   	20000.000000	2.0004e-05	
21000.000000	9.37013   	21000.000000	5.61904   	21000.000000	2.8206    	21000.000000	2.73759   	21000.000000	5.61902   	21000.000000	1.91102e-05	
22000.000000	9.91056   	22000.000000	5.80324   	22000.000000	2.83393   	22000.000000	2.75184   	22000.000000	5.80322   	22000.000000	1.82951e-05	
23000.000000	10.4656   	23000.000000	5.98712   	23000.000000	2.84658   	23000.000000	2.76549   	23000.000000	5.98711   	23000.000000	1.75485e-05	
24000.000000	11.0353   	24000.000000	6.17071   	24000.000000	2.85864   	24000.000000	2.77857   	24000.000000	6.1707    	24000.000000	1.68622e-05	
25000.000000	11.6198   	25000.000000	6.354     	25000.000000	2.87019   	25000.000000	2.79114   	25000.000000	6.35399   	25000.000000	1.62291e-05	
26000.000000	12.219    	26000.000000	6.537     	26000.000000	2.88125   	26000.000000	2.80323   	26000.000000	6.53699   	26000.000000	1.5643e-05	
27000.000000	12.833    	27000.000000	6.71971   	27000.000000	2.89182   	27000.000000	2.81488   	27000.000000	6.7197    	27000.000000	1.5099e-05	
28000.000000	13.462    	28000.000000	6.90214   	28000.000000	2.90193   	28000.000000	2.82611   	28000.000000	6.90213   	28000.000000	1.45927e-05	
29000.000000	14.1059   	29000.000000	7.08429   	29000.000000	2.91164   	29000.000000	2.83696   	29000.000000	7.08428   	29000.000000	1.41201e-05	
30000.000000	14.7648   	30000.000000	7.26617   	30000.000000	2.92096   	30000.000000	2.84744   	30000.000000	7.26616   	30000.000000	1.3678e-05	
32000.000000	16.128    	32000.000000	7.62914   	32000.000000	2.93854   	32000.000000	2.86742   	32000.000000	7.62913   	32000.000000	1.28742e-05	
34000.000000	17.5521   	34000.000000	7.9911    	34000.000000	2.95485   	34000.000000	2.8862    	34000.000000	7.99108   	34000.000000	1.2162e-05	
36000.000000	19.0377   	36000.000000	8.35208   	36000.000000	2.96999   	36000.000000	2.90391   	36000.000000	8.35207   	36000.000000	1.15265e-05	
38000.000000	20.5856   	38000.000000	8.71213   	38000.000000	2.98412   	38000.000000	2.92067   	38000.000000	8.71212   	38000.000000	1.09559e-05	
40000.000000	22.1961   	40000.000000	9.07129   	40000.000000	2.99733   	40000.000000	2.93658   	40000.000000	9.07128   	40000.000000	1.04405e-05	
42000.000000	23.8702   	42000.000000	9.4296    	42000.000000	3.00971   	42000.000000	2.95171   	42000.000000	9.42959   	42000.000000	9.97275e-06	
44000.000000	25.6082   	44000.000000	9.78709   	44000.000000	3.02134   	44000.000000	2.96613   	44000.000000	9.78709   	44000.000000	9.5462e-06	
46000.000000	27.4111   	46000.000000	10.1438   	46000.000000	3.03233   	46000.000000	2.97991   	46000.000000	10.1438   	46000.000000	9.1556e-06	
48000.000000	29.2794   	48000.000000	10.4998   	48000.000000	3.04273   	48000.000000	2.99311   	48000.000000	10.4998   	48000.000000	8.79655e-06	
50000.000000	31.2138   	50000.000000	10.855    	50000.000000	3.05249   	50000.000000	3.00576   	50000.000000	10.855    	50000.000000	8.46535e-06	
