Energy (MeV/u)1	0 - [He-base] F.Hubert et al, AD&ND Tables 46(1990)1	Energy (MeV/u)2	1 - [H -base] J.F.Ziegler et al, Pergamon Press, NY (low energy)	Energy (MeV/u)3	2 - ATIMA 1.2  LS-theory (recommended for high energy)	Energy (MeV/u)4	3 - ATIMA 1.2  without LS-correction	Energy (MeV/u)5	4 - electrical component of [1] - J.F.Ziegler et al	Energy (MeV/u)6	5 - nuclear component of [1] - J.F.Ziegler et al	
0.001000	0.575296  	0.001000	0.312681  	0.001000	0.498753  	0.001000	0.498753  	0.001000	0.160196  	0.001000	0.152485  	
0.002000	0.667958  	0.002000	0.352894  	0.002000	0.559692  	0.002000	0.559692  	0.002000	0.234541  	0.002000	0.118353  	
0.005000	0.935789  	0.005000	0.462764  	0.005000	0.682741  	0.005000	0.682741  	0.005000	0.388227  	0.005000	0.0745372 	
0.008000	1.16157   	0.008000	0.558945  	0.008000	0.773148  	0.008000	0.773148  	0.008000	0.50275   	0.008000	0.0561952 	
0.010000	1.29601   	0.010000	0.617113  	0.010000	0.823907  	0.010000	0.823907  	0.010000	0.568398  	0.010000	0.0487154 	
0.015000	1.52158   	0.015000	0.759007  	0.015000	0.944269  	0.015000	0.944269  	0.015000	0.72189   	0.015000	0.0371171 	
0.020000	1.69851   	0.020000	0.931891  	0.020000	1.10002   	0.020000	1.10002   	0.020000	0.901831  	0.020000	0.0300604 	
0.025000	1.89101   	0.025000	1.09755   	0.025000	1.25031   	0.025000	1.25031   	0.025000	1.07194   	0.025000	0.0256117 	
0.030000	2.0471    	0.030000	1.25213   	0.030000	1.37643   	0.030000	1.37643   	0.030000	1.22972   	0.030000	0.0224076 	
0.035000	2.17195   	0.035000	1.3923    	0.035000	1.49176   	0.035000	1.49176   	0.035000	1.37233   	0.035000	0.0199779 	
0.040000	2.26773   	0.040000	1.52006   	0.040000	1.59675   	0.040000	1.59675   	0.040000	1.502     	0.040000	0.0180654 	
0.045000	2.33598   	0.045000	1.63501   	0.045000	1.6918    	0.045000	1.6918    	0.045000	1.61849   	0.045000	0.0165166 	
0.050000	2.37864   	0.050000	1.73715   	0.050000	1.77735   	0.050000	1.77735   	0.050000	1.72192   	0.050000	0.015234  	
0.055000	2.47328   	0.055000	1.82686   	0.055000	1.85388   	0.055000	1.85388   	0.055000	1.81271   	0.055000	0.0141526 	
0.060000	2.55197   	0.060000	1.90478   	0.060000	1.92189   	0.060000	1.92189   	0.060000	1.89155   	0.060000	0.0132272 	
0.070000	2.6666    	0.070000	2.02866   	0.070000	2.03459   	0.070000	2.03459   	0.070000	2.01693   	0.070000	0.0117233 	
0.080000	2.78949   	0.080000	2.11639   	0.080000	2.11998   	0.080000	2.11998   	0.080000	2.10584   	0.080000	0.0105503 	
0.090000	2.87806   	0.090000	2.17572   	0.090000	2.18254   	0.090000	2.18254   	0.090000	2.16612   	0.090000	0.00960725	
0.100000	2.94344   	0.100000	2.21354   	0.100000	2.22644   	0.100000	2.22644   	0.100000	2.20471   	0.100000	0.00883107	
0.120000	2.98496   	0.120000	2.2736    	0.120000	2.27254   	0.120000	2.27254   	0.120000	2.26598   	0.120000	0.00762534	
0.140000	2.99218   	0.140000	2.29574   	0.140000	2.2815    	0.140000	2.2815    	0.140000	2.28901   	0.140000	0.00672887	
0.160000	2.99243   	0.160000	2.30226   	0.160000	2.26892   	0.160000	2.26892   	0.160000	2.29623   	0.160000	0.00603394	
0.180000	2.98877   	0.180000	2.29357   	0.180000	2.24458   	0.180000	2.24458   	0.180000	2.28809   	0.180000	0.00547811	
0.200000	2.99668   	0.200000	2.28772   	0.200000	2.2144    	0.200000	2.2144    	0.200000	2.2827    	0.200000	0.00502257	
0.250000	2.93535   	0.250000	2.25906   	0.250000	2.13228   	0.250000	2.13228   	0.250000	2.25489   	0.250000	0.00417439	
0.300000	2.92577   	0.300000	2.2596    	0.300000	2.06771   	0.300000	2.06771   	0.300000	2.25601   	0.300000	0.00358511	
0.350000	2.89175   	0.350000	2.23308   	0.350000	2.00967   	0.350000	2.00967   	0.350000	2.22993   	0.350000	0.00315009	
0.400000	2.84294   	0.400000	2.19356   	0.400000	1.9523    	0.400000	1.9523    	0.400000	2.19075   	0.400000	0.0028148 	
0.450000	2.77868   	0.450000	2.14149   	0.450000	1.89496   	0.450000	1.89496   	0.450000	2.13894   	0.450000	0.00254789	
0.500000	2.71622   	0.500000	2.0917    	0.500000	1.84165   	0.500000	1.84165   	0.500000	2.08937   	0.500000	0.00233001	
0.600000	2.49274   	0.600000	1.98629   	0.600000	1.74529   	0.600000	1.74529   	0.600000	1.98429   	0.600000	0.0019949 	
0.700000	2.26901   	0.700000	1.87528   	0.700000	1.66011   	0.700000	1.66011   	0.700000	1.87353   	0.700000	0.00174849	
0.800000	2.17014   	0.800000	1.79522   	0.800000	1.58386   	0.800000	1.58386   	0.800000	1.79367   	0.800000	0.00155916	
0.900000	2.0648    	0.900000	1.71032   	0.900000	1.5149    	0.900000	1.5149    	0.900000	1.70891   	0.900000	0.00140884	
1.000000	1.96025   	1.000000	1.62577   	1.000000	1.44831   	1.000000	1.44831   	1.000000	1.62448   	1.000000	0.00128641	
1.250000	1.72046   	1.250000	1.43601   	1.250000	1.30867   	1.250000	1.30867   	1.250000	1.43495   	1.250000	0.0010604 	
1.500000	1.49374   	1.500000	1.25023   	1.500000	1.19591   	1.500000	1.19591   	1.500000	1.24932   	1.500000	0.000904954	
1.750000	1.32758   	1.750000	1.11769   	1.750000	1.10132   	1.750000	1.10132   	1.750000	1.11689   	1.750000	0.000791103	
2.000000	1.19909   	2.000000	1.01703   	2.000000	1.02047   	2.000000	1.02047   	2.000000	1.01632   	2.000000	0.00070391	
2.250000	1.09766   	2.250000	0.937046  	2.250000	0.950279  	2.250000	0.950279  	2.250000	0.936411  	2.250000	0.000634867	
2.500000	0.979644  	2.500000	0.871314  	2.500000	0.888925  	2.500000	0.888925  	2.500000	0.870735  	2.500000	0.000578762	
3.000000	0.860778  	3.000000	0.768246  	3.000000	0.787246  	3.000000	0.787246  	3.000000	0.767753  	3.000000	0.000492946	
3.500000	0.769179  	3.500000	0.689927  	3.500000	0.706895  	3.500000	0.706895  	3.500000	0.689496  	3.500000	0.000430239	
4.000000	0.696309  	4.000000	0.627764  	4.000000	0.64212   	4.000000	0.64212   	4.000000	0.627381  	4.000000	0.000382307	
4.500000	0.636875  	4.500000	0.576988  	4.500000	0.588951  	4.500000	0.588951  	4.500000	0.576643  	4.500000	0.000344413	
5.000000	0.587421  	5.000000	0.534638  	5.000000	0.544594  	5.000000	0.544594  	5.000000	0.534325  	5.000000	0.000313662	
5.500000	0.545589  	5.500000	0.498733  	5.500000	0.507052  	5.500000	0.507052  	5.500000	0.498444  	5.500000	0.000288183	
6.000000	0.509716  	6.000000	0.467875  	6.000000	0.474869  	6.000000	0.474869  	6.000000	0.467608  	6.000000	0.000266708	
6.500000	0.478593  	6.500000	0.441048  	6.500000	0.446965  	6.500000	0.446965  	6.500000	0.440799  	6.500000	0.000248348	
7.000000	0.45132   	7.000000	0.417492  	7.000000	0.422529  	7.000000	0.422529  	7.000000	0.417259  	7.000000	0.000232464	
7.500000	0.427213  	7.500000	0.396628  	7.500000	0.400938  	7.500000	0.400938  	7.500000	0.396409  	7.500000	0.000218577	
8.000000	0.405742  	8.000000	0.378005  	8.000000	0.381711  	8.000000	0.381711  	8.000000	0.377799  	8.000000	0.000206329	
8.500000	0.386489  	8.500000	0.361271  	8.500000	0.364468  	8.500000	0.364468  	8.500000	0.361075  	8.500000	0.000195441	
9.000000	0.369122  	9.000000	0.346142  	9.000000	0.348907  	9.000000	0.348907  	9.000000	0.345956  	9.000000	0.000185696	
9.500000	0.353373  	9.500000	0.332389  	9.500000	0.334785  	9.500000	0.334785  	9.500000	0.332212  	9.500000	0.000176919	
10.000000	0.339021  	10.000000	0.321267  	10.000000	0.321903  	10.000000	0.321903  	10.000000	0.321098  	10.000000	0.000168972	
11.000000	0.313814  	11.000000	0.29885   	11.000000	0.298711  	11.000000	0.298765  	11.000000	0.298695  	11.000000	0.000155128	
12.000000	0.29238   	12.000000	0.279558  	12.000000	0.278907  	12.000000	0.278996  	12.000000	0.279415  	12.000000	0.000143471	
13.000000	0.273919  	13.000000	0.262777  	13.000000	0.26177   	13.000000	0.261879  	13.000000	0.262643  	13.000000	0.000133513	
14.000000	0.257842  	14.000000	0.248043  	14.000000	0.246775  	14.000000	0.246892  	14.000000	0.247918  	14.000000	0.000124904	
15.000000	0.243709  	15.000000	0.234999  	15.000000	0.233526  	15.000000	0.233643  	15.000000	0.234882  	15.000000	0.000117382	
16.000000	0.231182  	16.000000	0.223368  	16.000000	0.221719  	16.000000	0.221834  	16.000000	0.223257  	16.000000	0.000110753	
17.000000	0.219996  	17.000000	0.212929  	17.000000	0.21112   	17.000000	0.211233  	17.000000	0.212824  	17.000000	0.000104862	
18.000000	0.209945  	18.000000	0.203506  	18.000000	0.20155   	18.000000	0.201655  	18.000000	0.203406  	18.000000	9.95928e-05	
19.000000	0.20086   	19.000000	0.194955  	19.000000	0.192858  	19.000000	0.192954  	19.000000	0.19486   	19.000000	9.48495e-05	
20.000000	0.192607  	20.000000	0.18716   	20.000000	0.184918  	20.000000	0.185011  	20.000000	0.187069  	20.000000	9.05563e-05	
21.000000	0.185075  	21.000000	0.180022  	21.000000	0.177637  	21.000000	0.177727  	21.000000	0.179936  	21.000000	8.6651e-05	
22.000000	0.17817   	22.000000	0.173462  	22.000000	0.170942  	22.000000	0.17102   	22.000000	0.173379  	22.000000	8.30827e-05	
23.000000	0.171818  	23.000000	0.16741   	23.000000	0.164761  	23.000000	0.164824  	23.000000	0.16733   	23.000000	7.98089e-05	
24.000000	0.165952  	24.000000	0.161809  	24.000000	0.159029  	24.000000	0.15908   	24.000000	0.161733  	24.000000	7.67941e-05	
25.000000	0.160518  	25.000000	0.15661   	25.000000	0.153694  	25.000000	0.153739  	25.000000	0.156536  	25.000000	7.40084e-05	
27.000000	0.150764  	27.000000	0.147254  	27.000000	0.144075  	27.000000	0.144106  	27.000000	0.147185  	27.000000	6.90255e-05	
29.000000	0.142255  	29.000000	0.139066  	29.000000	0.135639  	29.000000	0.135653  	29.000000	0.139001  	29.000000	6.46967e-05	
31.000000	0.134763  	31.000000	0.131838  	31.000000	0.128446  	31.000000	0.128442  	31.000000	0.131777  	31.000000	6.08996e-05	
33.000000	0.128112  	33.000000	0.125408  	33.000000	0.122293  	33.000000	0.122274  	33.000000	0.125351  	33.000000	5.75405e-05	
35.000000	0.122166  	35.000000	0.11965   	35.000000	0.116778  	35.000000	0.116745  	35.000000	0.119595  	35.000000	5.4547e-05	
38.000000	0.114338  	38.000000	0.112054  	38.000000	0.109494  	38.000000	0.109445  	38.000000	0.112004  	38.000000	5.06197e-05	
41.000000	0.107576  	41.000000	0.105482  	41.000000	0.103182  	41.000000	0.10312   	41.000000	0.105435  	41.000000	4.72404e-05	
44.000000	0.101671  	44.000000	0.0997367 	44.000000	0.0976553 	44.000000	0.0975824 	44.000000	0.0996924 	44.000000	4.43006e-05	
47.000000	0.0964691 	47.000000	0.0946695 	47.000000	0.092776  	47.000000	0.0926919 	47.000000	0.0946278 	47.000000	4.17187e-05	
50.000000	0.0918481 	50.000000	0.0901657 	50.000000	0.0884225 	50.000000	0.0883392 	50.000000	0.0901263 	50.000000	3.94323e-05	
55.000000	0.0851919 	55.000000	0.0836751 	55.000000	0.0821431 	55.000000	0.0820555 	55.000000	0.0836389 	55.000000	3.61511e-05	
60.000000	0.0795716 	60.000000	0.0781937 	60.000000	0.076832  	60.000000	0.0767377 	60.000000	0.0781603 	60.000000	3.33925e-05	
65.000000	0.0747588 	65.000000	0.0735006 	65.000000	0.0722676 	65.000000	0.072176  	65.000000	0.0734696 	65.000000	3.10395e-05	
70.000000	0.0705878 	70.000000	0.0694355 	70.000000	0.0683181 	70.000000	0.0682174 	70.000000	0.0694065 	70.000000	2.90079e-05	
75.000000	0.0669357 	75.000000	0.0658788 	75.000000	0.0648439 	75.000000	0.0647483 	75.000000	0.0658516 	75.000000	2.72351e-05	
80.000000	0.0637096 	80.000000	0.0627399 	80.000000	0.0617816 	80.000000	0.061682  	80.000000	0.0627143 	80.000000	2.56742e-05	
85.000000	0.0608375 	85.000000	0.0599485 	85.000000	0.0590459 	85.000000	0.0589512 	85.000000	0.0599242 	85.000000	2.42889e-05	
90.000000	0.0582629 	90.000000	0.0574493 	90.000000	0.0566015 	90.000000	0.0565032 	90.000000	0.0574262 	90.000000	2.30508e-05	
95.000000	0.0559408 	95.000000	0.0551983 	95.000000	0.0543893 	95.000000	0.0542956 	95.000000	0.0551763 	95.000000	2.19373e-05	
100.000000	0.0538351 	100.000000	0.0531599 	100.000000	0.0523912 	100.000000	0.0522944 	100.000000	0.0531389 	100.000000	2.09302e-05	
105.000000	0.0519162 	105.000000	0.051305  	105.000000	0.0505643 	105.000000	0.0504715 	105.000000	0.051285  	105.000000	2.00149e-05	
110.000000	0.0501596 	110.000000	0.0496098 	110.000000	0.0488989 	110.000000	0.0488041 	110.000000	0.0495906 	110.000000	1.91792e-05	
115.000000	0.0485451 	115.000000	0.0480542 	115.000000	0.0473655 	115.000000	0.0472727 	115.000000	0.0480358 	115.000000	1.84131e-05	
120.000000	0.0470558 	120.000000	0.0466217 	120.000000	0.0459531 	120.000000	0.0458613 	120.000000	0.046604  	120.000000	1.7708e-05	
125.000000	0.0456773 	125.000000	0.0452979 	125.000000	0.0446497 	125.000000	0.0445563 	125.000000	0.0452809 	125.000000	1.70569e-05	
130.000000	0.0443973 	130.000000	0.044071  	130.000000	0.0434358 	130.000000	0.0433459 	130.000000	0.0440545 	130.000000	1.64537e-05	
135.000000	0.0432054 	135.000000	0.0429305 	135.000000	0.0423065 	135.000000	0.0422201 	135.000000	0.0429146 	135.000000	1.58932e-05	
140.000000	0.0420926 	140.000000	0.0418676 	140.000000	0.0412575 	140.000000	0.0411704 	140.000000	0.0418522 	140.000000	1.53711e-05	
145.000000	0.041051  	145.000000	0.0408746 	145.000000	0.0402772 	145.000000	0.0401893 	145.000000	0.0408597 	145.000000	1.48835e-05	
150.000000	0.0400739 	150.000000	0.0399447 	150.000000	0.0393553 	150.000000	0.0392702 	150.000000	0.0399303 	150.000000	1.44269e-05	
155.000000	0.0386981 	155.000000	0.0390722 	155.000000	0.038493  	155.000000	0.0384074 	155.000000	0.0390582 	155.000000	1.39986e-05	
160.000000	0.0378917 	160.000000	0.0382518 	160.000000	0.0376823 	160.000000	0.0375959 	160.000000	0.0382382 	160.000000	1.35959e-05	
165.000000	0.0371312 	165.000000	0.0374789 	165.000000	0.0369152 	165.000000	0.0368312 	165.000000	0.0374657 	165.000000	1.32166e-05	
170.000000	0.0364128 	170.000000	0.0367496 	170.000000	0.0361932 	170.000000	0.0361095 	170.000000	0.0367367 	170.000000	1.28586e-05	
175.000000	0.0357331 	175.000000	0.0360602 	175.000000	0.0355121 	175.000000	0.0354271 	175.000000	0.0360477 	175.000000	1.25202e-05	
180.000000	0.0350889 	180.000000	0.0354076 	180.000000	0.0348649 	180.000000	0.034781  	180.000000	0.0353954 	180.000000	1.21999e-05	
185.000000	0.0344776 	185.000000	0.0347889 	185.000000	0.0342497 	185.000000	0.0341683 	185.000000	0.034777  	185.000000	1.18961e-05	
190.000000	0.0338966 	190.000000	0.0342014 	190.000000	0.033666  	190.000000	0.0335866 	190.000000	0.0341898 	190.000000	1.16076e-05	
195.000000	0.0333436 	195.000000	0.033643  	195.000000	0.0331129 	195.000000	0.0330336 	195.000000	0.0336317 	195.000000	1.13333e-05	
200.000000	0.0328168 	200.000000	0.0331114 	200.000000	0.0325876 	200.000000	0.0325071 	200.000000	0.0331004 	200.000000	1.10722e-05	
210.000000	0.0318343 	210.000000	0.0321216 	210.000000	0.0316049 	210.000000	0.0315267 	210.000000	0.032111  	210.000000	1.05856e-05	
220.000000	0.0309363 	220.000000	0.0312187 	220.000000	0.0307115 	220.000000	0.0306325 	220.000000	0.0312086 	220.000000	1.01415e-05	
230.000000	0.0301123 	230.000000	0.0303919 	230.000000	0.0298913 	230.000000	0.0298137 	230.000000	0.0303822 	230.000000	9.73439e-06	
240.000000	0.0293534 	240.000000	0.0296319 	240.000000	0.0291356 	240.000000	0.0290612 	240.000000	0.0296226 	240.000000	9.35985e-06	
250.000000	0.0286523 	250.000000	0.0289311 	250.000000	0.0284423 	250.000000	0.0283675 	250.000000	0.0289221 	250.000000	9.01406e-06	
260.000000	0.0280024 	260.000000	0.0282827 	260.000000	0.0278004 	260.000000	0.0277259 	260.000000	0.028274  	260.000000	8.69379e-06	
270.000000	0.0273984 	270.000000	0.0276812 	270.000000	0.0272039 	270.000000	0.027131  	270.000000	0.0276728 	270.000000	8.39628e-06	
280.000000	0.0268357 	280.000000	0.0271218 	280.000000	0.0266518 	280.000000	0.0265778 	280.000000	0.0271137 	280.000000	8.11916e-06	
290.000000	0.02631   	290.000000	0.0266001 	290.000000	0.0261351 	290.000000	0.0260623 	290.000000	0.0265923 	290.000000	7.86038e-06	
300.000000	0.0258179 	300.000000	0.0261127 	300.000000	0.0256513 	300.000000	0.0255808 	300.000000	0.0261051 	300.000000	7.61816e-06	
310.000000	0.0253563 	310.000000	0.0256562 	310.000000	0.0251998 	310.000000	0.0251302 	310.000000	0.0256488 	310.000000	7.39094e-06	
320.000000	0.0249224 	320.000000	0.0252278 	320.000000	0.024778  	320.000000	0.0247075 	320.000000	0.0252206 	320.000000	7.17735e-06	
330.000000	0.0245139 	330.000000	0.0248251 	330.000000	0.0243806 	330.000000	0.0243105 	330.000000	0.0248182 	330.000000	6.97619e-06	
340.000000	0.0241286 	340.000000	0.0244459 	340.000000	0.0240052 	340.000000	0.0239368 	340.000000	0.0244392 	340.000000	6.78639e-06	
350.000000	0.0237646 	350.000000	0.0240883 	350.000000	0.0236514 	350.000000	0.0235846 	350.000000	0.0240817 	350.000000	6.607e-06 	
360.000000	0.0234203 	360.000000	0.0237504 	360.000000	0.0233189 	360.000000	0.0232522 	360.000000	0.023744  	360.000000	6.43718e-06	
370.000000	0.023094  	370.000000	0.0234308 	370.000000	0.0230054 	370.000000	0.0229379 	370.000000	0.0234245 	370.000000	6.27617e-06	
380.000000	0.0227845 	380.000000	0.023128  	380.000000	0.0227071 	380.000000	0.0226404 	380.000000	0.0231219 	380.000000	6.1233e-06	
390.000000	0.0224905 	390.000000	0.0228409 	390.000000	0.022424  	390.000000	0.0223584 	390.000000	0.0228349 	390.000000	5.97796e-06	
400.000000	0.0222109 	400.000000	0.0225681 	400.000000	0.0221566 	400.000000	0.0220908 	400.000000	0.0225623 	400.000000	5.83959e-06	
410.000000	0.0219448 	410.000000	0.0223089 	410.000000	0.0219029 	410.000000	0.0218365 	410.000000	0.0223031 	410.000000	5.70771e-06	
420.000000	0.0216911 	420.000000	0.0220621 	420.000000	0.0216607 	420.000000	0.0215947 	420.000000	0.0220565 	420.000000	5.58187e-06	
430.000000	0.0214491 	430.000000	0.0218269 	430.000000	0.0214293 	430.000000	0.0213645 	430.000000	0.0218215 	430.000000	5.46164e-06	
440.000000	0.021218  	440.000000	0.0216027 	440.000000	0.0212088 	440.000000	0.0211451 	440.000000	0.0215974 	440.000000	5.34666e-06	
450.000000	0.0209972 	450.000000	0.0213886 	450.000000	0.0209988 	450.000000	0.0209359 	450.000000	0.0213834 	450.000000	5.2366e-06	
460.000000	0.0207859 	460.000000	0.0211841 	460.000000	0.0207991 	460.000000	0.0207361 	460.000000	0.021179  	460.000000	5.13112e-06	
470.000000	0.0205836 	470.000000	0.0209886 	470.000000	0.0206087 	470.000000	0.0205452 	470.000000	0.0209835 	470.000000	5.02997e-06	
480.000000	0.0203898 	480.000000	0.0208014 	480.000000	0.0204262 	480.000000	0.0203626 	480.000000	0.0207964 	480.000000	4.93286e-06	
490.000000	0.020204  	490.000000	0.0206221 	490.000000	0.0202509 	490.000000	0.0201879 	490.000000	0.0206173 	490.000000	4.83956e-06	
500.000000	0.0200257 	500.000000	0.0204503 	500.000000	0.0200827 	500.000000	0.0200205 	500.000000	0.0204455 	500.000000	4.74984e-06	
520.000000	0.01969   	520.000000	0.0201273 	520.000000	0.0197668 	520.000000	0.0197063 	520.000000	0.0201227 	520.000000	4.58037e-06	
540.000000	0.0193797 	540.000000	0.0198294 	540.000000	0.0194775 	540.000000	0.0194168 	540.000000	0.019825  	540.000000	4.42297e-06	
560.000000	0.0190924 	560.000000	0.019554  	560.000000	0.0192105 	560.000000	0.0191495 	560.000000	0.0195497 	560.000000	4.27638e-06	
580.000000	0.0188256 	580.000000	0.0192988 	580.000000	0.018962  	580.000000	0.0189021 	580.000000	0.0192946 	580.000000	4.13951e-06	
600.000000	0.0185774 	600.000000	0.0190618 	600.000000	0.0187323 	600.000000	0.0186726 	600.000000	0.0190578 	600.000000	4.01143e-06	
620.000000	0.0183462 	620.000000	0.0188413 	620.000000	0.0185196 	620.000000	0.0184594 	620.000000	0.0188374 	620.000000	3.89129e-06	
640.000000	0.0181304 	640.000000	0.0186358 	640.000000	0.0183205 	640.000000	0.0182608 	640.000000	0.018632  	640.000000	3.77838e-06	
660.000000	0.0179288 	660.000000	0.018444  	660.000000	0.0181342 	660.000000	0.0180756 	660.000000	0.0184404 	660.000000	3.67205e-06	
680.000000	0.01774   	680.000000	0.0182648 	680.000000	0.0179603 	680.000000	0.0179026 	680.000000	0.0182612 	680.000000	3.57173e-06	
700.000000	0.0175631 	700.000000	0.018097  	700.000000	0.0177981 	700.000000	0.0177408 	700.000000	0.0180935 	700.000000	3.47694e-06	
720.000000	0.0173972 	720.000000	0.0179397 	720.000000	0.0176469 	720.000000	0.0175891 	720.000000	0.0179363 	720.000000	3.38721e-06	
740.000000	0.0172413 	740.000000	0.0177921 	740.000000	0.0175048 	740.000000	0.0174469 	740.000000	0.0177888 	740.000000	3.30215e-06	
760.000000	0.0170948 	760.000000	0.0176535 	760.000000	0.0173708 	760.000000	0.0173132 	760.000000	0.0176503 	760.000000	3.2214e-06	
780.000000	0.0169569 	780.000000	0.0175232 	780.000000	0.0172444 	780.000000	0.0171876 	780.000000	0.01752   	780.000000	3.14463e-06	
800.000000	0.0168271 	800.000000	0.0174005 	800.000000	0.0171253 	800.000000	0.0170692 	800.000000	0.0173974 	800.000000	3.07156e-06	
820.000000	0.0167048 	820.000000	0.017285  	820.000000	0.0170138 	820.000000	0.0169583 	820.000000	0.017282  	820.000000	3.00191e-06	
840.000000	0.0165895 	840.000000	0.0171761 	840.000000	0.0169116 	840.000000	0.0168563 	840.000000	0.0171732 	840.000000	2.93546e-06	
860.000000	0.0164807 	860.000000	0.0170734 	860.000000	0.0168154 	860.000000	0.0167599 	860.000000	0.0170705 	860.000000	2.87199e-06	
880.000000	0.016378  	880.000000	0.0169764 	880.000000	0.0167247 	880.000000	0.0166689 	880.000000	0.0169736 	880.000000	2.81129e-06	
900.000000	0.016281  	900.000000	0.0168849 	900.000000	0.0166387 	900.000000	0.0165829 	900.000000	0.0168821 	900.000000	2.75319e-06	
920.000000	0.0161894 	920.000000	0.0167984 	920.000000	0.016557  	920.000000	0.0165014 	920.000000	0.0167957 	920.000000	2.69753e-06	
940.000000	0.0161028 	940.000000	0.0167166 	940.000000	0.0164794 	940.000000	0.0164244 	940.000000	0.016714  	940.000000	2.64414e-06	
960.000000	0.016021  	960.000000	0.0166393 	960.000000	0.0164059 	960.000000	0.0163513 	960.000000	0.0166367 	960.000000	2.59289e-06	
980.000000	0.0159436 	980.000000	0.0165661 	980.000000	0.0163361 	980.000000	0.0162821 	980.000000	0.0165636 	980.000000	2.54366e-06	
1000.000000	0.0158705 	1000.000000	0.0164969 	1000.000000	0.01627   	1000.000000	0.0162164 	1000.000000	0.0164944 	1000.000000	2.49633e-06	
1020.000000	0.0158014 	1020.000000	0.0164314 	1020.000000	0.0162075 	1020.000000	0.0161541 	1020.000000	0.016429  	1020.000000	2.45078e-06	
1040.000000	0.0157361 	1040.000000	0.0163694 	1040.000000	0.0161484 	1040.000000	0.0160949 	1040.000000	0.016367  	1040.000000	2.40692e-06	
1060.000000	0.0156743 	1060.000000	0.0163107 	1060.000000	0.0160923 	1060.000000	0.0160387 	1060.000000	0.0163084 	1060.000000	2.36466e-06	
1080.000000	0.0156159 	1080.000000	0.0162551 	1080.000000	0.0160391 	1080.000000	0.0159853 	1080.000000	0.0162528 	1080.000000	2.3239e-06	
1100.000000	0.0155607 	1100.000000	0.0162025 	1100.000000	0.0159885 	1100.000000	0.0159346 	1100.000000	0.0162002 	1100.000000	2.28457e-06	
1120.000000	0.0155086 	1120.000000	0.0161527 	1120.000000	0.0159401 	1120.000000	0.0158863 	1120.000000	0.0161505 	1120.000000	2.24659e-06	
1140.000000	0.0154594 	1140.000000	0.0161056 	1140.000000	0.0158939 	1140.000000	0.0158403 	1140.000000	0.0161034 	1140.000000	2.20989e-06	
1160.000000	0.0154129 	1160.000000	0.0160609 	1160.000000	0.0158499 	1160.000000	0.0157966 	1160.000000	0.0160588 	1160.000000	2.17442e-06	
1180.000000	0.0153691 	1180.000000	0.0160187 	1180.000000	0.0158079 	1180.000000	0.015755  	1180.000000	0.0160166 	1180.000000	2.1401e-06	
1200.000000	0.0153278 	1200.000000	0.0159787 	1200.000000	0.0157681 	1200.000000	0.0157153 	1200.000000	0.0159766 	1200.000000	2.10689e-06	
1220.000000	0.0152888 	1220.000000	0.015941  	1220.000000	0.0157303 	1220.000000	0.0156776 	1220.000000	0.0159389 	1220.000000	2.07472e-06	
1240.000000	0.0152522 	1240.000000	0.0159052 	1240.000000	0.0156944 	1240.000000	0.0156416 	1240.000000	0.0159032 	1240.000000	2.04355e-06	
1260.000000	0.0152177 	1260.000000	0.0158715 	1260.000000	0.0156603 	1260.000000	0.0156074 	1260.000000	0.0158695 	1260.000000	2.01334e-06	
1280.000000	0.0151854 	1280.000000	0.0158396 	1280.000000	0.0156278 	1280.000000	0.0155747 	1280.000000	0.0158376 	1280.000000	1.98404e-06	
1300.000000	0.015155  	1300.000000	0.0158095 	1300.000000	0.0155968 	1300.000000	0.0155436 	1300.000000	0.0158076 	1300.000000	1.9556e-06	
1320.000000	0.0151265 	1320.000000	0.0157812 	1320.000000	0.0155672 	1320.000000	0.015514  	1320.000000	0.0157793 	1320.000000	1.928e-06 	
1340.000000	0.0150999 	1340.000000	0.0157545 	1340.000000	0.0155389 	1340.000000	0.0154857 	1340.000000	0.0157526 	1340.000000	1.90119e-06	
1360.000000	0.015075  	1360.000000	0.0157293 	1360.000000	0.0155118 	1360.000000	0.0154587 	1360.000000	0.0157274 	1360.000000	1.87514e-06	
1380.000000	0.0150518 	1380.000000	0.0157057 	1380.000000	0.0154859 	1380.000000	0.015433  	1380.000000	0.0157038 	1380.000000	1.84981e-06	
1400.000000	0.0150302 	1400.000000	0.0156834 	1400.000000	0.0154612 	1400.000000	0.0154085 	1400.000000	0.0156816 	1400.000000	1.82519e-06	
1420.000000	0.0150102 	1420.000000	0.0156626 	1420.000000	0.0154376 	1420.000000	0.0153852 	1420.000000	0.0156608 	1420.000000	1.80123e-06	
1440.000000	0.0149917 	1440.000000	0.0156431 	1440.000000	0.0154151 	1440.000000	0.0153629 	1440.000000	0.0156413 	1440.000000	1.77791e-06	
1460.000000	0.0149746 	1460.000000	0.0156248 	1460.000000	0.0153936 	1460.000000	0.0153417 	1460.000000	0.0156231 	1460.000000	1.75521e-06	
1480.000000	0.014959  	1480.000000	0.0156078 	1480.000000	0.0153732 	1480.000000	0.0153215 	1480.000000	0.0156061 	1480.000000	1.73311e-06	
1500.000000	0.0149446 	1500.000000	0.0155919 	1500.000000	0.0153537 	1500.000000	0.0153022 	1500.000000	0.0155902 	1500.000000	1.71157e-06	
1520.000000	0.0149315 	1520.000000	0.0155772 	1520.000000	0.0153352 	1520.000000	0.0152839 	1520.000000	0.0155755 	1520.000000	1.69057e-06	
1540.000000	0.0149197 	1540.000000	0.0155635 	1540.000000	0.0153175 	1540.000000	0.0152664 	1540.000000	0.0155619 	1540.000000	1.6701e-06	
1560.000000	0.0149091 	1560.000000	0.0155509 	1560.000000	0.0153008 	1560.000000	0.0152497 	1560.000000	0.0155493 	1560.000000	1.65014e-06	
1580.000000	0.0148996 	1580.000000	0.0155393 	1580.000000	0.0152848 	1580.000000	0.0152338 	1580.000000	0.0155376 	1580.000000	1.63066e-06	
1600.000000	0.0148912 	1600.000000	0.0155286 	1600.000000	0.0152697 	1600.000000	0.0152187 	1600.000000	0.015527  	1600.000000	1.61166e-06	
1620.000000	0.0148839 	1620.000000	0.0155189 	1620.000000	0.0152553 	1620.000000	0.0152043 	1620.000000	0.0155173 	1620.000000	1.5931e-06	
1640.000000	0.0148777 	1640.000000	0.01551   	1640.000000	0.0152417 	1640.000000	0.0151907 	1640.000000	0.0155085 	1640.000000	1.57499e-06	
1660.000000	0.0148725 	1660.000000	0.0155021 	1660.000000	0.0152288 	1660.000000	0.0151777 	1660.000000	0.0155005 	1660.000000	1.55729e-06	
1680.000000	0.0148682 	1680.000000	0.0154949 	1680.000000	0.0152165 	1680.000000	0.0151653 	1680.000000	0.0154934 	1680.000000	1.54e-06  	
1700.000000	0.0148649 	1700.000000	0.0154886 	1700.000000	0.0152048 	1700.000000	0.0151536 	1700.000000	0.0154871 	1700.000000	1.5231e-06	
1750.000000	0.0148605 	1750.000000	0.0154761 	1750.000000	0.0151782 	1750.000000	0.0151268 	1750.000000	0.0154746 	1750.000000	1.48248e-06	
1800.000000	0.0148614 	1800.000000	0.015468  	1800.000000	0.0151547 	1800.000000	0.0151033 	1800.000000	0.0154665 	1800.000000	1.44405e-06	
1850.000000	0.0148672 	1850.000000	0.015464  	1850.000000	0.0151342 	1850.000000	0.0150829 	1850.000000	0.0154626 	1850.000000	1.40761e-06	
1900.000000	0.0148775 	1900.000000	0.0154638 	1900.000000	0.0151164 	1900.000000	0.0150652 	1900.000000	0.0154624 	1900.000000	1.37303e-06	
1950.000000	0.014892  	1950.000000	0.015467  	1950.000000	0.015101  	1950.000000	0.01505   	1950.000000	0.0154657 	1950.000000	1.34015e-06	
2000.000000	0.0149105 	2000.000000	0.0154735 	2000.000000	0.0150878 	2000.000000	0.0150371 	2000.000000	0.0154722 	2000.000000	1.30887e-06	
2100.000000	0.0149582 	2100.000000	0.0154952 	2100.000000	0.0150675 	2100.000000	0.0150174 	2100.000000	0.015494  	2100.000000	1.25061e-06	
2200.000000	0.0150189 	2200.000000	0.0155273 	2200.000000	0.0150542 	2200.000000	0.0150045 	2200.000000	0.0155261 	2200.000000	1.19747e-06	
2300.000000	0.0150911 	2300.000000	0.0155683 	2300.000000	0.0150469 	2300.000000	0.0149975 	2300.000000	0.0155672 	2300.000000	1.14879e-06	
2400.000000	0.0151734 	2400.000000	0.0156172 	2400.000000	0.0150447 	2400.000000	0.0149954 	2400.000000	0.0156161 	2400.000000	1.10403e-06	
2500.000000	0.0152649 	2500.000000	0.015673  	2500.000000	0.0150467 	2500.000000	0.0149973 	2500.000000	0.015672  	2500.000000	1.06273e-06	
2600.000000	0.0153647 	2600.000000	0.015735  	2600.000000	0.0150523 	2600.000000	0.0150028 	2600.000000	0.0157339 	2600.000000	1.0245e-06	
2700.000000	0.0154719 	2700.000000	0.0158023 	2700.000000	0.0150608 	2700.000000	0.0150112 	2700.000000	0.0158013 	2700.000000	9.89e-07  	
2800.000000	0.0155859 	2800.000000	0.0158745 	2800.000000	0.0150718 	2800.000000	0.0150221 	2800.000000	0.0158735 	2800.000000	9.55954e-07	
2900.000000	0.0157062 	2900.000000	0.015951  	2900.000000	0.0150849 	2900.000000	0.0150351 	2900.000000	0.0159501 	2900.000000	9.25109e-07	
3000.000000	0.0158322 	3000.000000	0.0160314 	3000.000000	0.0150997 	3000.000000	0.0150499 	3000.000000	0.0160305 	3000.000000	8.96252e-07	
3200.000000	0.0160996 	3200.000000	0.0162024 	3200.000000	0.0151335 	3200.000000	0.015084  	3200.000000	0.0162015 	3200.000000	8.43768e-07	
3400.000000	0.0163852 	3400.000000	0.0163849 	3400.000000	0.0151717 	3400.000000	0.0151225 	3400.000000	0.0163841 	3400.000000	7.97258e-07	
3600.000000	0.0166868 	3600.000000	0.0165769 	3600.000000	0.0152131 	3600.000000	0.0151642 	3600.000000	0.0165761 	3600.000000	7.55747e-07	
3800.000000	0.0170025 	3800.000000	0.0167769 	3800.000000	0.0152568 	3800.000000	0.0152081 	3800.000000	0.0167761 	3800.000000	7.18463e-07	
4000.000000	0.0173309 	4000.000000	0.0169836 	4000.000000	0.015302  	4000.000000	0.0152535 	4000.000000	0.0169829 	4000.000000	6.84786e-07	
4200.000000	0.0176706 	4200.000000	0.017196  	4200.000000	0.0153482 	4200.000000	0.0152998 	4200.000000	0.0171953 	4200.000000	6.54212e-07	
4400.000000	0.0180208 	4400.000000	0.0174132 	4400.000000	0.015395  	4400.000000	0.0153467 	4400.000000	0.0174126 	4400.000000	6.26327e-07	
4600.000000	0.0183806 	4600.000000	0.0176347 	4600.000000	0.015442  	4600.000000	0.0153938 	4600.000000	0.0176341 	4600.000000	6.00788e-07	
4800.000000	0.0187492 	4800.000000	0.0178598 	4800.000000	0.0154889 	4800.000000	0.0154408 	4800.000000	0.0178592 	4800.000000	5.77308e-07	
5000.000000	0.0191262 	5000.000000	0.0180881 	5000.000000	0.0155357 	5000.000000	0.0154877 	5000.000000	0.0180875 	5000.000000	5.55646e-07	
5250.000000	0.0196083 	5250.000000	0.0183772 	5250.000000	0.0155937 	5250.000000	0.0155457 	5250.000000	0.0183767 	5250.000000	5.30814e-07	
5500.000000	0.0201019 	5500.000000	0.01867   	5500.000000	0.0156509 	5500.000000	0.015603  	5500.000000	0.0186695 	5500.000000	5.08168e-07	
6000.000000	0.0211206 	6000.000000	0.0192644 	6000.000000	0.0157625 	6000.000000	0.0157148 	6000.000000	0.0192639 	6000.000000	4.6836e-07	
6500.000000	0.0221779 	6500.000000	0.019868  	6500.000000	0.01587   	6500.000000	0.0158224 	6500.000000	0.0198675 	6500.000000	4.34489e-07	
7000.000000	0.0232709 	7000.000000	0.0204784 	7000.000000	0.0159731 	7000.000000	0.0159256 	7000.000000	0.020478  	7000.000000	4.05309e-07	
7500.000000	0.0243972 	7500.000000	0.021094  	7500.000000	0.0160717 	7500.000000	0.0160243 	7500.000000	0.0210936 	7500.000000	3.79899e-07	
8000.000000	0.0255552 	8000.000000	0.0217135 	8000.000000	0.0161661 	8000.000000	0.0161187 	8000.000000	0.0217131 	8000.000000	3.57569e-07	
8500.000000	0.0267435 	8500.000000	0.0223359 	8500.000000	0.0162561 	8500.000000	0.0162089 	8500.000000	0.0223355 	8500.000000	3.37785e-07	
9000.000000	0.0279611 	9000.000000	0.0229605 	9000.000000	0.0163419 	9000.000000	0.0162952 	9000.000000	0.0229602 	9000.000000	3.20131e-07	
9500.000000	0.0292072 	9500.000000	0.0235868 	9500.000000	0.0164242 	9500.000000	0.0163778 	9500.000000	0.0235865 	9500.000000	3.04279e-07	
10000.000000	0.0304812 	10000.000000	0.0242144 	10000.000000	0.0165033 	10000.000000	0.016457  	10000.000000	0.0242141 	10000.000000	2.89963e-07	
11000.000000	0.0331107 	11000.000000	0.0254719 	11000.000000	0.016652  	11000.000000	0.0166057 	11000.000000	0.0254716 	11000.000000	2.65121e-07	
12000.000000	0.0358466 	12000.000000	0.026731  	12000.000000	0.0167888 	12000.000000	0.016743  	12000.000000	0.0267308 	12000.000000	2.44297e-07	
13000.000000	0.0386869 	13000.000000	0.0279906 	13000.000000	0.0169155 	13000.000000	0.0168703 	13000.000000	0.0279903 	13000.000000	2.26584e-07	
14000.000000	0.0416301 	14000.000000	0.0292496 	14000.000000	0.0170335 	14000.000000	0.0169887 	14000.000000	0.0292494 	14000.000000	2.11326e-07	
15000.000000	0.0446753 	15000.000000	0.0305076 	15000.000000	0.0171438 	15000.000000	0.0170994 	15000.000000	0.0305074 	15000.000000	1.98044e-07	
16000.000000	0.047822  	16000.000000	0.0317642 	16000.000000	0.0172472 	16000.000000	0.0172032 	16000.000000	0.031764  	16000.000000	1.86372e-07	
17000.000000	0.0510698 	17000.000000	0.0330191 	17000.000000	0.0173444 	17000.000000	0.0173007 	17000.000000	0.0330189 	17000.000000	1.76034e-07	
18000.000000	0.0544185 	18000.000000	0.0342721 	18000.000000	0.017436  	18000.000000	0.0173927 	18000.000000	0.0342719 	18000.000000	1.6681e-07	
19000.000000	0.0578682 	19000.000000	0.0355231 	19000.000000	0.0175227 	19000.000000	0.0174798 	19000.000000	0.035523  	19000.000000	1.58529e-07	
20000.000000	0.0614187 	20000.000000	0.0367722 	20000.000000	0.0176047 	20000.000000	0.0175623 	20000.000000	0.036772  	20000.000000	1.51052e-07	
21000.000000	0.0650704 	21000.000000	0.0380192 	21000.000000	0.0176827 	21000.000000	0.0176407 	21000.000000	0.038019  	21000.000000	1.44266e-07	
22000.000000	0.0688233 	22000.000000	0.0392641 	22000.000000	0.0177567 	22000.000000	0.0177154 	22000.000000	0.0392639 	22000.000000	1.38079e-07	
23000.000000	0.0726779 	23000.000000	0.0405069 	23000.000000	0.0178274 	23000.000000	0.0177866 	23000.000000	0.0405068 	23000.000000	1.32414e-07	
24000.000000	0.0766343 	24000.000000	0.0417478 	24000.000000	0.017895  	24000.000000	0.0178547 	24000.000000	0.0417476 	24000.000000	1.27207e-07	
25000.000000	0.0806929 	25000.000000	0.0429866 	25000.000000	0.0179596 	25000.000000	0.01792   	25000.000000	0.0429864 	25000.000000	1.22405e-07	
26000.000000	0.0848541 	26000.000000	0.0442234 	26000.000000	0.0180214 	26000.000000	0.0179825 	26000.000000	0.0442233 	26000.000000	1.17961e-07	
27000.000000	0.0891183 	27000.000000	0.0454583 	27000.000000	0.0180806 	27000.000000	0.0180426 	27000.000000	0.0454581 	27000.000000	1.13837e-07	
28000.000000	0.0934859 	28000.000000	0.0466912 	28000.000000	0.0181375 	28000.000000	0.0181004 	28000.000000	0.0466911 	28000.000000	1.09999e-07	
29000.000000	0.0979574 	29000.000000	0.0479223 	29000.000000	0.0181923 	29000.000000	0.0181561 	29000.000000	0.0479222 	29000.000000	1.06418e-07	
30000.000000	0.102533  	30000.000000	0.0491515 	30000.000000	0.0182452 	30000.000000	0.0182097 	30000.000000	0.0491514 	30000.000000	1.03069e-07	
32000.000000	0.112     	32000.000000	0.0516046 	32000.000000	0.0183455 	32000.000000	0.0183116 	32000.000000	0.0516045 	32000.000000	9.69801e-08	
34000.000000	0.12189   	34000.000000	0.0540508 	34000.000000	0.0184393 	34000.000000	0.018407  	34000.000000	0.0540507 	34000.000000	9.15877e-08	
36000.000000	0.132207  	36000.000000	0.0564905 	36000.000000	0.0185271 	36000.000000	0.0184966 	36000.000000	0.0564904 	36000.000000	8.67776e-08	
38000.000000	0.142955  	38000.000000	0.0589238 	38000.000000	0.0186096 	38000.000000	0.018581  	38000.000000	0.0589237 	38000.000000	8.24596e-08	
40000.000000	0.15414   	40000.000000	0.0613511 	40000.000000	0.0186875 	40000.000000	0.0186608 	40000.000000	0.0613511 	40000.000000	7.85612e-08	
42000.000000	0.165765  	42000.000000	0.0637727 	42000.000000	0.0187611 	42000.000000	0.0187365 	42000.000000	0.0637726 	42000.000000	7.50237e-08	
44000.000000	0.177835  	44000.000000	0.0661887 	44000.000000	0.018831  	44000.000000	0.0188084 	44000.000000	0.0661887 	44000.000000	7.17987e-08	
46000.000000	0.190355  	46000.000000	0.0685995 	46000.000000	0.0188974 	46000.000000	0.0188769 	46000.000000	0.0685994 	46000.000000	6.88463e-08	
48000.000000	0.203329  	48000.000000	0.0710051 	48000.000000	0.0189607 	48000.000000	0.0189423 	48000.000000	0.0710051 	48000.000000	6.6133e-08	
50000.000000	0.216762  	50000.000000	0.0734059 	50000.000000	0.019021  	50000.000000	0.0190048 	50000.000000	0.0734058 	50000.000000	6.36307e-08	
