Energy (MeV/u)1	0 - [He-base] F.Hubert et al, AD&ND Tables 46(1990)1	Energy (MeV/u)2	1 - [H -base] J.F.Ziegler et al, Pergamon Press, NY (low energy)	Energy (MeV/u)3	2 - ATIMA 1.2  LS-theory (recommended for high energy)	Energy (MeV/u)4	3 - ATIMA 1.2  without LS-correction	Energy (MeV/u)5	4 - electrical component of [1] - J.F.Ziegler et al	Energy (MeV/u)6	5 - nuclear component of [1] - J.F.Ziegler et al	
0.001000	1.07006   	0.001000	0.992984  	0.001000	0.841307  	0.001000	0.841307  	0.001000	0.637543  	0.001000	0.35544   	
0.002000	1.1755    	0.002000	1.0812    	0.002000	0.941523  	0.002000	0.941523  	0.002000	0.826791  	0.002000	0.25441   	
0.005000	1.44601   	0.005000	1.31319   	0.005000	1.2338    	0.005000	1.2338    	0.005000	1.1658    	0.005000	0.147388  	
0.008000	1.65768   	0.008000	1.49804   	0.008000	1.48177   	0.008000	1.48177   	0.008000	1.39049   	0.008000	0.107549  	
0.010000	1.77722   	0.010000	1.60384   	0.010000	1.62841   	0.010000	1.62841   	0.010000	1.51185   	0.010000	0.0919906 	
0.015000	2.08117   	0.015000	1.85707   	0.015000	1.87541   	0.015000	1.87541   	0.015000	1.78908   	0.015000	0.0679928 	
0.020000	2.32471   	0.020000	2.10407   	0.020000	2.08303   	0.020000	2.08303   	0.020000	2.04922   	0.020000	0.0548504 	
0.025000	2.5987    	0.025000	2.34224   	0.025000	2.2812    	0.025000	2.2812    	0.025000	2.29597   	0.025000	0.0462729 	
0.030000	2.83144   	0.030000	2.56542   	0.030000	2.5       	0.030000	2.5       	0.030000	2.52523   	0.030000	0.0401898 	
0.035000	3.02302   	0.035000	2.77426   	0.035000	2.70521   	0.035000	2.70521   	0.035000	2.73863   	0.035000	0.035629  	
0.040000	3.17408   	0.040000	2.96914   	0.040000	2.89724   	0.040000	2.89724   	0.040000	2.93707   	0.040000	0.0320703 	
0.045000	3.2854    	0.045000	3.15041   	0.045000	3.07638   	0.045000	3.07638   	0.045000	3.1212    	0.045000	0.0292085 	
0.050000	3.35418   	0.050000	3.31203   	0.050000	3.24291   	0.050000	3.24291   	0.050000	3.28517   	0.050000	0.0268525 	
0.055000	3.49622   	0.055000	3.46094   	0.055000	3.39715   	0.055000	3.39715   	0.055000	3.43607   	0.055000	0.0248759 	
0.060000	3.61597   	0.060000	3.59784   	0.060000	3.53943   	0.060000	3.53943   	0.060000	3.57465   	0.060000	0.0231916 	
0.070000	3.7952    	0.070000	3.83747   	0.070000	3.78967   	0.070000	3.78967   	0.070000	3.817     	0.070000	0.0204689 	
0.080000	3.98649   	0.080000	4.03488   	0.080000	3.99717   	0.080000	3.99717   	0.080000	4.01652   	0.080000	0.0183577 	
0.090000	4.12903   	0.090000	4.19437   	0.090000	4.16596   	0.090000	4.16596   	0.090000	4.1777    	0.090000	0.0166687 	
0.100000	4.23509   	0.100000	4.32037   	0.100000	4.30032   	0.100000	4.30032   	0.100000	4.30509   	0.100000	0.0152843 	
0.120000	4.27307   	0.120000	4.48913   	0.120000	4.48294   	0.120000	4.48294   	0.120000	4.47598   	0.120000	0.0131442 	
0.140000	4.26832   	0.140000	4.57294   	0.140000	4.57713   	0.140000	4.57713   	0.140000	4.56138   	0.140000	0.0115616 	
0.160000	4.27435   	0.160000	4.61953   	0.160000	4.60963   	0.160000	4.60963   	0.160000	4.60919   	0.160000	0.0103401 	
0.180000	4.2995    	0.180000	4.64664   	0.180000	4.60099   	0.180000	4.60099   	0.180000	4.63727   	0.180000	0.00936661	
0.200000	4.32179   	0.200000	4.63728   	0.200000	4.56608   	0.200000	4.56608   	0.200000	4.62871   	0.200000	0.00857116	
0.250000	4.26895   	0.250000	4.561     	0.250000	4.42387   	0.250000	4.42387   	0.250000	4.5539    	0.250000	0.00709619	
0.300000	4.25137   	0.300000	4.46916   	0.300000	4.26102   	0.300000	4.26102   	0.300000	4.46308   	0.300000	0.0060764 	
0.350000	4.22693   	0.350000	4.36497   	0.350000	4.13319   	0.350000	4.13319   	0.350000	4.35964   	0.350000	0.00532641	
0.400000	4.22129   	0.400000	4.29018   	0.400000	4.01679   	0.400000	4.01679   	0.400000	4.28543   	0.400000	0.00475009	
0.450000	4.19162   	0.450000	4.20505   	0.450000	3.90423   	0.450000	3.90423   	0.450000	4.20076   	0.450000	0.00429246	
0.500000	4.13846   	0.500000	4.10922   	0.500000	3.7959    	0.500000	3.7959    	0.500000	4.1053    	0.500000	0.0039197 	
0.600000	3.85489   	0.600000	3.90448   	0.600000	3.59041   	0.600000	3.59041   	0.600000	3.90113   	0.600000	0.00334787	
0.700000	3.5579    	0.700000	3.70396   	0.700000	3.41047   	0.700000	3.41047   	0.700000	3.70104   	0.700000	0.00292864	
0.800000	3.39064   	0.800000	3.50431   	0.800000	3.25007   	0.800000	3.25007   	0.800000	3.5017    	0.800000	0.0026073 	
0.900000	3.23229   	0.900000	3.32477   	0.900000	3.10518   	0.900000	3.10518   	0.900000	3.32242   	0.900000	0.00235268	
1.000000	3.08434   	1.000000	3.1626    	1.000000	2.97307   	1.000000	2.97307   	1.000000	3.16045   	1.000000	0.00214565	
1.250000	2.74086   	1.250000	2.80584   	1.250000	2.67507   	1.250000	2.67507   	1.250000	2.80408   	1.250000	0.00176438	
1.500000	2.46359   	1.500000	2.52505   	1.500000	2.43453   	1.500000	2.43453   	1.500000	2.52355   	1.500000	0.0015029 	
1.750000	2.23716   	1.750000	2.29859   	1.750000	2.23505   	1.750000	2.23505   	1.750000	2.29728   	1.750000	0.00131181	
2.000000	2.03802   	2.000000	2.10002   	2.000000	2.06569   	2.000000	2.06569   	2.000000	2.09886   	2.000000	0.00116573	
2.250000	1.87382   	2.250000	1.93373   	2.250000	1.91978   	2.250000	1.91978   	2.250000	1.93268   	2.250000	0.00105024	
2.500000	1.70108   	2.500000	1.79613   	2.500000	1.79277   	2.500000	1.79277   	2.500000	1.79517   	2.500000	0.000956509	
3.000000	1.50152   	3.000000	1.5788    	3.000000	1.5829    	3.000000	1.5829    	3.000000	1.57799   	3.000000	0.000813382	
3.500000	1.34619   	3.500000	1.41259   	3.500000	1.41687   	3.500000	1.41687   	3.500000	1.41188   	3.500000	0.000708991	
4.000000	1.22169   	4.000000	1.28009   	4.000000	1.28266   	4.000000	1.28266   	4.000000	1.27946   	4.000000	0.000629315	
4.500000	1.11958   	4.500000	1.17152   	4.500000	1.17215   	4.500000	1.17215   	4.500000	1.17096   	4.500000	0.000566408	
5.000000	1.03423   	5.000000	1.08074   	5.000000	1.07969   	5.000000	1.07969   	5.000000	1.08023   	5.000000	0.000515415	
5.500000	0.961769  	5.500000	1.00363   	5.500000	1.00125   	5.500000	1.00125   	5.500000	1.00315   	5.500000	0.000473205	
6.000000	0.899448  	6.000000	0.937267  	6.000000	0.933874  	6.000000	0.933874  	6.000000	0.936829  	6.000000	0.000437658	
6.500000	0.845246  	6.500000	0.879536  	6.500000	0.875385  	6.500000	0.875385  	6.500000	0.879129  	6.500000	0.000407293	
7.000000	0.797649  	7.000000	0.828837  	7.000000	0.824125  	7.000000	0.824125  	7.000000	0.828456  	7.000000	0.000381039	
7.500000	0.755502  	7.500000	0.783944  	7.500000	0.778826  	7.500000	0.778826  	7.500000	0.783586  	7.500000	0.000358102	
8.000000	0.717906  	8.000000	0.743905  	8.000000	0.738494  	8.000000	0.738494  	8.000000	0.743567  	8.000000	0.000337883	
8.500000	0.684149  	8.500000	0.707963  	8.500000	0.702346  	8.500000	0.702346  	8.500000	0.707643  	8.500000	0.000319919	
9.000000	0.653663  	9.000000	0.675512  	9.000000	0.669756  	9.000000	0.669756  	9.000000	0.675208  	9.000000	0.000303849	
9.500000	0.625988  	9.500000	0.64606   	9.500000	0.640215  	9.500000	0.640215  	9.500000	0.645771  	9.500000	0.000289382	
10.000000	0.600745  	10.000000	0.611143  	10.000000	0.613308  	10.000000	0.613308  	10.000000	0.610866  	10.000000	0.000276288	
11.000000	0.556359  	11.000000	0.566758  	11.000000	0.565639  	11.000000	0.565808  	11.000000	0.566504  	11.000000	0.000253493	
12.000000	0.518568  	12.000000	0.528772  	12.000000	0.52534   	12.000000	0.525615  	12.000000	0.528538  	12.000000	0.000234313	
13.000000	0.485983  	13.000000	0.495887  	13.000000	0.490831  	13.000000	0.491169  	13.000000	0.495669  	13.000000	0.000217939	
14.000000	0.457582  	14.000000	0.467133  	14.000000	0.460951  	14.000000	0.461328  	14.000000	0.466929  	14.000000	0.000203791	
15.000000	0.432596  	15.000000	0.44177   	15.000000	0.434834  	15.000000	0.435232  	15.000000	0.441579  	15.000000	0.000191438	
16.000000	0.410435  	16.000000	0.419227  	16.000000	0.411823  	16.000000	0.412226  	16.000000	0.419047  	16.000000	0.000180554	
17.000000	0.390638  	17.000000	0.399053  	17.000000	0.391405  	17.000000	0.391799  	17.000000	0.398883  	17.000000	0.000170889	
18.000000	0.372839  	18.000000	0.38089   	18.000000	0.373168  	18.000000	0.373547  	18.000000	0.380728  	18.000000	0.000162247	
19.000000	0.356747  	19.000000	0.364448  	19.000000	0.356781  	19.000000	0.357149  	19.000000	0.364293  	19.000000	0.00015447	
20.000000	0.342122  	20.000000	0.34949   	20.000000	0.34198   	20.000000	0.342342  	20.000000	0.349342  	20.000000	0.000147434	
21.000000	0.32877   	21.000000	0.335821  	21.000000	0.32856   	21.000000	0.328912  	21.000000	0.33568   	21.000000	0.000141036	
22.000000	0.316529  	22.000000	0.32328   	22.000000	0.316354  	22.000000	0.316682  	22.000000	0.323145  	22.000000	0.000135192	
23.000000	0.305262  	23.000000	0.311731  	23.000000	0.305209  	23.000000	0.305504  	23.000000	0.311601  	23.000000	0.000129832	
24.000000	0.294857  	24.000000	0.301058  	24.000000	0.294987  	24.000000	0.295254  	24.000000	0.300934  	24.000000	0.000124898	
25.000000	0.285217  	25.000000	0.291166  	25.000000	0.285579  	25.000000	0.285827  	25.000000	0.291045  	25.000000	0.00012034	
27.000000	0.267909  	27.000000	0.273396  	27.000000	0.268889  	27.000000	0.269094  	27.000000	0.273284  	27.000000	0.00011219	
29.000000	0.252805  	29.000000	0.257881  	29.000000	0.254571  	29.000000	0.254724  	29.000000	0.257776  	29.000000	0.000105113	
31.000000	0.239504  	31.000000	0.244213  	31.000000	0.241684  	31.000000	0.241778  	31.000000	0.244114  	31.000000	9.89084e-05	
33.000000	0.227694  	33.000000	0.232075  	33.000000	0.229814  	33.000000	0.22985   	33.000000	0.231981  	33.000000	9.34218e-05	
35.000000	0.217134  	35.000000	0.221221  	35.000000	0.219167  	35.000000	0.21918   	35.000000	0.221133  	35.000000	8.85341e-05	
38.000000	0.203229  	38.000000	0.20693   	38.000000	0.205163  	38.000000	0.20512   	38.000000	0.206848  	38.000000	8.21247e-05	
41.000000	0.191216  	41.000000	0.194586  	41.000000	0.193043  	41.000000	0.192966  	41.000000	0.194509  	41.000000	7.66123e-05	
44.000000	0.180726  	44.000000	0.183811  	44.000000	0.182442  	44.000000	0.182348  	44.000000	0.183739  	44.000000	7.1819e-05	
47.000000	0.171482  	47.000000	0.174321  	47.000000	0.173101  	47.000000	0.172988  	47.000000	0.174254  	47.000000	6.7611e-05	
50.000000	0.163271  	50.000000	0.165897  	50.000000	0.164796  	50.000000	0.164672  	50.000000	0.165833  	50.000000	6.3886e-05	
55.000000	0.151442  	55.000000	0.153771  	55.000000	0.152855  	55.000000	0.15269   	55.000000	0.153713  	55.000000	5.85427e-05	
60.000000	0.141453  	60.000000	0.143546  	60.000000	0.142747  	60.000000	0.142573  	60.000000	0.143492  	60.000000	5.40529e-05	
65.000000	0.132899  	65.000000	0.134802  	65.000000	0.134082  	65.000000	0.133912  	65.000000	0.134752  	65.000000	5.02251e-05	
70.000000	0.125485  	70.000000	0.127236  	70.000000	0.12659   	70.000000	0.126409  	70.000000	0.127189  	70.000000	4.69214e-05	
75.000000	0.118994  	75.000000	0.120623  	75.000000	0.120032  	75.000000	0.119844  	75.000000	0.120578  	75.000000	4.40399e-05	
80.000000	0.113259  	80.000000	0.11479   	80.000000	0.114243  	80.000000	0.114049  	80.000000	0.114749  	80.000000	4.15036e-05	
85.000000	0.108154  	85.000000	0.109607  	85.000000	0.109094  	85.000000	0.108895  	85.000000	0.109568  	85.000000	3.92534e-05	
90.000000	0.103577  	90.000000	0.104969  	90.000000	0.104469  	90.000000	0.10428   	90.000000	0.104932  	90.000000	3.72429e-05	
95.000000	0.0994492 	95.000000	0.100794  	95.000000	0.100317  	95.000000	0.100123  	95.000000	0.100759  	95.000000	3.54353e-05	
100.000000	0.0957059 	100.000000	0.0970154 	100.000000	0.0965546 	100.000000	0.0963582 	100.000000	0.0969816 	100.000000	3.38011e-05	
105.000000	0.0922946 	105.000000	0.0935784 	105.000000	0.0931319 	105.000000	0.0929319 	105.000000	0.0935461 	105.000000	3.2316e-05	
110.000000	0.0891719 	110.000000	0.0904385 	110.000000	0.089993  	110.000000	0.0898002 	110.000000	0.0904075 	110.000000	3.09605e-05	
115.000000	0.0863019 	115.000000	0.0875584 	115.000000	0.0871173 	115.000000	0.0869264 	115.000000	0.0875286 	115.000000	2.9718e-05	
120.000000	0.0836544 	120.000000	0.0849068 	120.000000	0.0844749 	120.000000	0.0842796 	120.000000	0.0848782 	120.000000	2.85748e-05	
125.000000	0.0812037 	125.000000	0.0824574 	125.000000	0.082028  	125.000000	0.0818337 	125.000000	0.0824299 	125.000000	2.75194e-05	
130.000000	0.0789283 	130.000000	0.0801877 	130.000000	0.0797543 	130.000000	0.0795667 	130.000000	0.0801612 	130.000000	2.65418e-05	
135.000000	0.0768094 	135.000000	0.0780786 	135.000000	0.0776473 	135.000000	0.0774594 	135.000000	0.0780529 	135.000000	2.56337e-05	
140.000000	0.0748311 	140.000000	0.0761134 	140.000000	0.0756867 	140.000000	0.0754956 	140.000000	0.0760886 	140.000000	2.47878e-05	
145.000000	0.0729794 	145.000000	0.0742778 	145.000000	0.073851  	145.000000	0.0736609 	145.000000	0.0742538 	145.000000	2.3998e-05	
150.000000	0.0712423 	150.000000	0.0725593 	150.000000	0.0721273 	150.000000	0.071943  	150.000000	0.0725361 	150.000000	2.32586e-05	
155.000000	0.0687964 	155.000000	0.0709471 	155.000000	0.0705152 	155.000000	0.0703311 	155.000000	0.0709245 	155.000000	2.2565e-05	
160.000000	0.0673628 	160.000000	0.0694314 	160.000000	0.069     	160.000000	0.0688156 	160.000000	0.0694095 	160.000000	2.19131e-05	
165.000000	0.0660109 	165.000000	0.0680039 	165.000000	0.0675676 	165.000000	0.0673881 	165.000000	0.0679826 	165.000000	2.1299e-05	
170.000000	0.0647338 	170.000000	0.066657  	170.000000	0.0662186 	170.000000	0.0660412 	170.000000	0.0666363 	170.000000	2.07197e-05	
175.000000	0.0635254 	175.000000	0.0653841 	175.000000	0.0649474 	175.000000	0.0647683 	175.000000	0.0653639 	175.000000	2.01721e-05	
180.000000	0.0623803 	180.000000	0.0641792 	180.000000	0.0637442 	180.000000	0.0635633 	180.000000	0.0641595 	180.000000	1.96537e-05	
185.000000	0.0612934 	185.000000	0.063037  	185.000000	0.0626007 	185.000000	0.0624211 	185.000000	0.0630179 	185.000000	1.91622e-05	
190.000000	0.0602605 	190.000000	0.0619528 	190.000000	0.0615122 	190.000000	0.0613369 	190.000000	0.0619341 	190.000000	1.86956e-05	
195.000000	0.0592775 	195.000000	0.0609221 	195.000000	0.0604802 	195.000000	0.0603063 	195.000000	0.0609039 	195.000000	1.82519e-05	
200.000000	0.0583409 	200.000000	0.0599412 	200.000000	0.0595006 	200.000000	0.0593256 	200.000000	0.0599234 	200.000000	1.78295e-05	
210.000000	0.0565942 	210.000000	0.0581149 	210.000000	0.0576695 	210.000000	0.0574998 	210.000000	0.0580979 	210.000000	1.70428e-05	
220.000000	0.0549978 	220.000000	0.0564495 	220.000000	0.0560049 	220.000000	0.0558351 	220.000000	0.0564331 	220.000000	1.63248e-05	
230.000000	0.0535329 	230.000000	0.0549245 	230.000000	0.0544768 	230.000000	0.0543113 	230.000000	0.0549088 	230.000000	1.56668e-05	
240.000000	0.0521838 	240.000000	0.053523  	240.000000	0.0530753 	240.000000	0.0529114 	240.000000	0.053508  	240.000000	1.50616e-05	
250.000000	0.0509373 	250.000000	0.0522308 	250.000000	0.0517871 	250.000000	0.051621  	250.000000	0.0522163 	250.000000	1.45029e-05	
260.000000	0.0497821 	260.000000	0.0510355 	260.000000	0.0505916 	260.000000	0.050428  	260.000000	0.0510215 	260.000000	1.39855e-05	
270.000000	0.0487083 	270.000000	0.0499268 	270.000000	0.0494819 	270.000000	0.0493217 	270.000000	0.0499133 	270.000000	1.3505e-05	
280.000000	0.0477078 	280.000000	0.0488956 	280.000000	0.0484544 	280.000000	0.0482934 	280.000000	0.0488826 	280.000000	1.30575e-05	
290.000000	0.0467733 	290.000000	0.0479343 	290.000000	0.0474923 	290.000000	0.047335  	290.000000	0.0479217 	290.000000	1.26397e-05	
300.000000	0.0458985 	300.000000	0.047036  	300.000000	0.0465961 	300.000000	0.04644   	300.000000	0.0470237 	300.000000	1.22487e-05	
310.000000	0.0450779 	310.000000	0.0461948 	310.000000	0.0457584 	310.000000	0.0456022 	310.000000	0.0461829 	310.000000	1.18819e-05	
320.000000	0.0443066 	320.000000	0.0454056 	320.000000	0.0449692 	320.000000	0.0448166 	320.000000	0.045394  	320.000000	1.15372e-05	
330.000000	0.0435803 	330.000000	0.0446637 	330.000000	0.0442305 	330.000000	0.0440785 	330.000000	0.0446525 	330.000000	1.12126e-05	
340.000000	0.0428953 	340.000000	0.0439651 	340.000000	0.043536  	340.000000	0.0433838 	340.000000	0.0439542 	340.000000	1.09063e-05	
350.000000	0.0422482 	350.000000	0.0433063 	350.000000	0.0428782 	350.000000	0.042729  	350.000000	0.0432957 	350.000000	1.06169e-05	
360.000000	0.041636  	360.000000	0.0426839 	360.000000	0.0422586 	360.000000	0.0421107 	360.000000	0.0426736 	360.000000	1.0343e-05	
370.000000	0.041056  	370.000000	0.0420952 	370.000000	0.0416747 	370.000000	0.0415261 	370.000000	0.0420851 	370.000000	1.00833e-05	
380.000000	0.0405058 	380.000000	0.0415375 	380.000000	0.0411195 	380.000000	0.0409727 	380.000000	0.0415277 	380.000000	9.83674e-06	
390.000000	0.0399831 	390.000000	0.0410086 	390.000000	0.0405924 	390.000000	0.040448  	390.000000	0.040999  	390.000000	9.60237e-06	
400.000000	0.0394861 	400.000000	0.0405063 	400.000000	0.0400943 	400.000000	0.0399499 	400.000000	0.040497  	400.000000	9.37928e-06	
410.000000	0.0390129 	410.000000	0.0400288 	410.000000	0.0396214 	410.000000	0.0394767 	410.000000	0.0400197 	410.000000	9.16666e-06	
420.000000	0.038562  	420.000000	0.0395743 	420.000000	0.0391693 	420.000000	0.0390264 	420.000000	0.0395654 	420.000000	8.96379e-06	
430.000000	0.0381317 	430.000000	0.0391413 	430.000000	0.0387385 	430.000000	0.0385976 	430.000000	0.0391326 	430.000000	8.76999e-06	
440.000000	0.0377209 	440.000000	0.0387284 	440.000000	0.0383269 	440.000000	0.0381861 	440.000000	0.0387198 	440.000000	8.58468e-06	
450.000000	0.0373283 	450.000000	0.0383342 	450.000000	0.037933  	450.000000	0.0377918 	450.000000	0.0383258 	450.000000	8.4073e-06	
460.000000	0.0369527 	460.000000	0.0379576 	460.000000	0.0375553 	460.000000	0.0374151 	460.000000	0.0379493 	460.000000	8.23734e-06	
470.000000	0.0365931 	470.000000	0.0375974 	470.000000	0.0371933 	470.000000	0.0370551 	470.000000	0.0375894 	470.000000	8.07434e-06	
480.000000	0.0362485 	480.000000	0.0372528 	480.000000	0.0368479 	480.000000	0.0367107 	480.000000	0.0372449 	480.000000	7.91788e-06	
490.000000	0.0359182 	490.000000	0.0369227 	490.000000	0.0365185 	490.000000	0.0363809 	490.000000	0.0369149 	490.000000	7.76757e-06	
500.000000	0.0356012 	500.000000	0.0366063 	500.000000	0.0362027 	500.000000	0.036065  	500.000000	0.0365987 	500.000000	7.62305e-06	
520.000000	0.0350044 	520.000000	0.0360116 	520.000000	0.0356064 	520.000000	0.0354713 	520.000000	0.0360042 	520.000000	7.35008e-06	
540.000000	0.0344529 	540.000000	0.035463  	540.000000	0.0350582 	540.000000	0.034924  	540.000000	0.0354559 	540.000000	7.09659e-06	
560.000000	0.033942  	560.000000	0.0349558 	560.000000	0.0345524 	560.000000	0.0344182 	560.000000	0.0349489 	560.000000	6.86055e-06	
580.000000	0.0334677 	580.000000	0.0344858 	580.000000	0.0340813 	580.000000	0.0339496 	580.000000	0.0344792 	580.000000	6.64019e-06	
600.000000	0.0330265 	600.000000	0.0340494 	600.000000	0.0336457 	600.000000	0.0335146 	600.000000	0.0340429 	600.000000	6.434e-06 	
620.000000	0.0326155 	620.000000	0.0336433 	620.000000	0.0332413 	620.000000	0.0331099 	620.000000	0.0336371 	620.000000	6.24063e-06	
640.000000	0.0322319 	640.000000	0.0332649 	640.000000	0.0328623 	640.000000	0.0327327 	640.000000	0.0332589 	640.000000	6.05891e-06	
660.000000	0.0318733 	660.000000	0.0329117 	660.000000	0.0325086 	660.000000	0.0323805 	660.000000	0.0329058 	660.000000	5.8878e-06	
680.000000	0.0315378 	680.000000	0.0325815 	680.000000	0.0321796 	680.000000	0.0320512 	680.000000	0.0325758 	680.000000	5.7264e-06	
700.000000	0.0312233 	700.000000	0.0322724 	700.000000	0.0318709 	700.000000	0.0317427 	700.000000	0.0322668 	700.000000	5.57389e-06	
720.000000	0.0309283 	720.000000	0.0319827 	720.000000	0.0315799 	720.000000	0.0314534 	720.000000	0.0319773 	720.000000	5.42954e-06	
740.000000	0.0306512 	740.000000	0.0317108 	740.000000	0.0313069 	740.000000	0.0311816 	740.000000	0.0317055 	740.000000	5.29273e-06	
760.000000	0.0303907 	760.000000	0.0314554 	760.000000	0.0310515 	760.000000	0.030926  	760.000000	0.0314503 	760.000000	5.16285e-06	
780.000000	0.0301456 	780.000000	0.0312153 	780.000000	0.0308111 	780.000000	0.0306854 	780.000000	0.0312102 	780.000000	5.0394e-06	
800.000000	0.0299149 	800.000000	0.0309892 	800.000000	0.0305834 	800.000000	0.0304585 	800.000000	0.0309843 	800.000000	4.92189e-06	
820.000000	0.0296974 	820.000000	0.0307763 	820.000000	0.0303679 	820.000000	0.0302444 	820.000000	0.0307715 	820.000000	4.80992e-06	
840.000000	0.0294924 	840.000000	0.0305756 	840.000000	0.0301648 	840.000000	0.0300422 	840.000000	0.0305709 	840.000000	4.70309e-06	
860.000000	0.0292989 	860.000000	0.0303862 	860.000000	0.0299737 	860.000000	0.029851  	860.000000	0.0303816 	860.000000	4.60105e-06	
880.000000	0.0291164 	880.000000	0.0302075 	880.000000	0.0297931 	880.000000	0.0296701 	880.000000	0.030203  	880.000000	4.50348e-06	
900.000000	0.0289439 	900.000000	0.0300387 	900.000000	0.0296214 	900.000000	0.0294987 	900.000000	0.0300343 	900.000000	4.4101e-06	
920.000000	0.0287811 	920.000000	0.0298791 	920.000000	0.029458  	920.000000	0.0293362 	920.000000	0.0298748 	920.000000	4.32063e-06	
940.000000	0.0286272 	940.000000	0.0297283 	940.000000	0.0293028 	940.000000	0.0291821 	940.000000	0.0297241 	940.000000	4.23483e-06	
960.000000	0.0284818 	960.000000	0.0295857 	960.000000	0.0291559 	960.000000	0.0290358 	960.000000	0.0295815 	960.000000	4.15249e-06	
980.000000	0.0283443 	980.000000	0.0294507 	980.000000	0.0290169 	980.000000	0.0288968 	980.000000	0.0294466 	980.000000	4.07338e-06	
1000.000000	0.0282143 	1000.000000	0.029323  	1000.000000	0.028885  	1000.000000	0.0287647 	1000.000000	0.029319  	1000.000000	3.99733e-06	
1020.000000	0.0280914 	1020.000000	0.0292021 	1020.000000	0.0287594 	1020.000000	0.028639  	1020.000000	0.0291981 	1020.000000	3.92416e-06	
1040.000000	0.0279752 	1040.000000	0.0290876 	1040.000000	0.0286394 	1040.000000	0.0285193 	1040.000000	0.0290837 	1040.000000	3.8537e-06	
1060.000000	0.0278654 	1060.000000	0.0289792 	1060.000000	0.0285247 	1060.000000	0.0284054 	1060.000000	0.0289754 	1060.000000	3.7858e-06	
1080.000000	0.0277616 	1080.000000	0.0288765 	1080.000000	0.0284154 	1080.000000	0.0282968 	1080.000000	0.0288728 	1080.000000	3.72033e-06	
1100.000000	0.0276635 	1100.000000	0.0287793 	1100.000000	0.0283112 	1100.000000	0.0281934 	1100.000000	0.0287756 	1100.000000	3.65716e-06	
1120.000000	0.0275709 	1120.000000	0.0286872 	1120.000000	0.0282122 	1120.000000	0.0280947 	1120.000000	0.0286836 	1120.000000	3.59617e-06	
1140.000000	0.0274834 	1140.000000	0.0286001 	1140.000000	0.0281181 	1140.000000	0.0280005 	1140.000000	0.0285965 	1140.000000	3.53724e-06	
1160.000000	0.0274008 	1160.000000	0.0285175 	1160.000000	0.0280283 	1160.000000	0.0279106 	1160.000000	0.028514  	1160.000000	3.48027e-06	
1180.000000	0.0273228 	1180.000000	0.0284394 	1180.000000	0.0279426 	1180.000000	0.0278247 	1180.000000	0.028436  	1180.000000	3.42517e-06	
1200.000000	0.0272494 	1200.000000	0.0283654 	1200.000000	0.0278606 	1200.000000	0.0277427 	1200.000000	0.0283621 	1200.000000	3.37184e-06	
1220.000000	0.0271802 	1220.000000	0.0282955 	1220.000000	0.0277819 	1220.000000	0.0276643 	1220.000000	0.0282922 	1220.000000	3.32019e-06	
1240.000000	0.027115  	1240.000000	0.0282293 	1240.000000	0.0277065 	1240.000000	0.0275894 	1240.000000	0.0282261 	1240.000000	3.27016e-06	
1260.000000	0.0270537 	1260.000000	0.0281668 	1260.000000	0.0276342 	1260.000000	0.0275177 	1260.000000	0.0281636 	1260.000000	3.22165e-06	
1280.000000	0.0269962 	1280.000000	0.0281077 	1280.000000	0.0275651 	1280.000000	0.0274492 	1280.000000	0.0281046 	1280.000000	3.17461e-06	
1300.000000	0.0269422 	1300.000000	0.028052  	1300.000000	0.0274991 	1300.000000	0.0273836 	1300.000000	0.0280488 	1300.000000	3.12897e-06	
1320.000000	0.0268916 	1320.000000	0.0279993 	1320.000000	0.027436  	1320.000000	0.0273208 	1320.000000	0.0279963 	1320.000000	3.08466e-06	
1340.000000	0.0268442 	1340.000000	0.0279497 	1340.000000	0.0273759 	1340.000000	0.0272607 	1340.000000	0.0279467 	1340.000000	3.04163e-06	
1360.000000	0.0268    	1360.000000	0.027903  	1360.000000	0.0273184 	1360.000000	0.0272032 	1360.000000	0.0279    	1360.000000	2.99982e-06	
1380.000000	0.0267588 	1380.000000	0.027859  	1380.000000	0.0272635 	1380.000000	0.0271481 	1380.000000	0.0278561 	1380.000000	2.95918e-06	
1400.000000	0.0267204 	1400.000000	0.0278177 	1400.000000	0.0272108 	1400.000000	0.0270953 	1400.000000	0.0278148 	1400.000000	2.91966e-06	
1420.000000	0.0266849 	1420.000000	0.0277789 	1420.000000	0.0271603 	1420.000000	0.0270447 	1420.000000	0.027776  	1420.000000	2.88122e-06	
1440.000000	0.0266519 	1440.000000	0.0277425 	1440.000000	0.0271117 	1440.000000	0.0269963 	1440.000000	0.0277397 	1440.000000	2.8438e-06	
1460.000000	0.0266216 	1460.000000	0.0277085 	1460.000000	0.0270651 	1460.000000	0.0269498 	1460.000000	0.0277057 	1460.000000	2.80738e-06	
1480.000000	0.0265937 	1480.000000	0.0276767 	1480.000000	0.0270203 	1480.000000	0.0269053 	1480.000000	0.0276739 	1480.000000	2.77191e-06	
1500.000000	0.0265682 	1500.000000	0.027647  	1500.000000	0.0269772 	1500.000000	0.0268626 	1500.000000	0.0276443 	1500.000000	2.73735e-06	
1520.000000	0.0265449 	1520.000000	0.0276194 	1520.000000	0.0269359 	1520.000000	0.0268217 	1520.000000	0.0276167 	1520.000000	2.70366e-06	
1540.000000	0.0265239 	1540.000000	0.0275938 	1540.000000	0.0268963 	1540.000000	0.0267825 	1540.000000	0.0275912 	1540.000000	2.67083e-06	
1560.000000	0.026505  	1560.000000	0.0275701 	1560.000000	0.0268584 	1560.000000	0.0267449 	1560.000000	0.0275675 	1560.000000	2.6388e-06	
1580.000000	0.0264882 	1580.000000	0.0275483 	1580.000000	0.026822  	1580.000000	0.0267088 	1580.000000	0.0275457 	1580.000000	2.60756e-06	
1600.000000	0.0264733 	1600.000000	0.0275282 	1600.000000	0.0267873 	1600.000000	0.0266743 	1600.000000	0.0275256 	1600.000000	2.57707e-06	
1620.000000	0.0264603 	1620.000000	0.0275098 	1620.000000	0.026754  	1620.000000	0.0266411 	1620.000000	0.0275073 	1620.000000	2.54731e-06	
1640.000000	0.0264492 	1640.000000	0.0274931 	1640.000000	0.0267222 	1640.000000	0.0266093 	1640.000000	0.0274905 	1640.000000	2.51825e-06	
1660.000000	0.0264399 	1660.000000	0.0274779 	1660.000000	0.0266918 	1660.000000	0.0265789 	1660.000000	0.0274754 	1660.000000	2.48987e-06	
1680.000000	0.0264323 	1680.000000	0.0274643 	1680.000000	0.0266626 	1680.000000	0.0265496 	1680.000000	0.0274618 	1680.000000	2.46214e-06	
1700.000000	0.0264264 	1700.000000	0.0274521 	1700.000000	0.0266347 	1700.000000	0.0265216 	1700.000000	0.0274497 	1700.000000	2.43504e-06	
1750.000000	0.0264186 	1750.000000	0.0274279 	1750.000000	0.0265698 	1750.000000	0.0264566 	1750.000000	0.0274255 	1750.000000	2.36991e-06	
1800.000000	0.0264202 	1800.000000	0.0274118 	1800.000000	0.0265112 	1800.000000	0.0263981 	1800.000000	0.0274095 	1800.000000	2.30827e-06	
1850.000000	0.0264305 	1850.000000	0.0274032 	1850.000000	0.0264584 	1850.000000	0.0263456 	1850.000000	0.027401  	1850.000000	2.24986e-06	
1900.000000	0.0264488 	1900.000000	0.0274016 	1900.000000	0.0264108 	1900.000000	0.0262985 	1900.000000	0.0273994 	1900.000000	2.19441e-06	
1950.000000	0.0264747 	1950.000000	0.0274064 	1950.000000	0.026368  	1950.000000	0.0262563 	1950.000000	0.0274042 	1950.000000	2.14172e-06	
2000.000000	0.0265075 	2000.000000	0.027417  	2000.000000	0.0263299 	2000.000000	0.0262186 	2000.000000	0.027415  	2000.000000	2.09157e-06	
2100.000000	0.0265924 	2100.000000	0.0274545 	2100.000000	0.0262658 	2100.000000	0.0261553 	2100.000000	0.0274525 	2100.000000	1.9982e-06	
2200.000000	0.0267003 	2200.000000	0.0275109 	2200.000000	0.0262161 	2200.000000	0.0261059 	2200.000000	0.027509  	2200.000000	1.91304e-06	
2300.000000	0.0268286 	2300.000000	0.0275839 	2300.000000	0.0261782 	2300.000000	0.0260681 	2300.000000	0.027582  	2300.000000	1.83504e-06	
2400.000000	0.026975  	2400.000000	0.0276713 	2400.000000	0.0261502 	2400.000000	0.0260402 	2400.000000	0.0276695 	2400.000000	1.76334e-06	
2500.000000	0.0271377 	2500.000000	0.0277714 	2500.000000	0.0261305 	2500.000000	0.0260208 	2500.000000	0.0277697 	2500.000000	1.69718e-06	
2600.000000	0.027315  	2600.000000	0.0278827 	2600.000000	0.0261181 	2600.000000	0.0260085 	2600.000000	0.0278811 	2600.000000	1.63595e-06	
2700.000000	0.0275056 	2700.000000	0.028004  	2700.000000	0.0261117 	2700.000000	0.0260024 	2700.000000	0.0280024 	2700.000000	1.5791e-06	
2800.000000	0.0277083 	2800.000000	0.0281342 	2800.000000	0.0261106 	2800.000000	0.0260016 	2800.000000	0.0281327 	2800.000000	1.52619e-06	
2900.000000	0.0279221 	2900.000000	0.0282724 	2900.000000	0.026114  	2900.000000	0.0260053 	2900.000000	0.0282709 	2900.000000	1.4768e-06	
3000.000000	0.0281461 	3000.000000	0.0284177 	3000.000000	0.0261213 	3000.000000	0.026013  	3000.000000	0.0284162 	3000.000000	1.43061e-06	
3200.000000	0.0286215 	3200.000000	0.0287269 	3200.000000	0.0261457 	3200.000000	0.0260381 	3200.000000	0.0287256 	3200.000000	1.3466e-06	
3400.000000	0.0291293 	3400.000000	0.0290574 	3400.000000	0.0261805 	3400.000000	0.0260734 	3400.000000	0.0290561 	3400.000000	1.27217e-06	
3600.000000	0.0296655 	3600.000000	0.0294054 	3600.000000	0.0262231 	3600.000000	0.0261164 	3600.000000	0.0294041 	3600.000000	1.20575e-06	
3800.000000	0.0302267 	3800.000000	0.029768  	3800.000000	0.0262716 	3800.000000	0.0261651 	3800.000000	0.0297668 	3800.000000	1.1461e-06	
4000.000000	0.0308104 	4000.000000	0.030143  	4000.000000	0.0263244 	4000.000000	0.0262181 	4000.000000	0.0301419 	4000.000000	1.09223e-06	
4200.000000	0.0314144 	4200.000000	0.0305284 	4200.000000	0.0263804 	4200.000000	0.0262742 	4200.000000	0.0305274 	4200.000000	1.04334e-06	
4400.000000	0.032037  	4400.000000	0.0309229 	4400.000000	0.0264387 	4400.000000	0.0263325 	4400.000000	0.0309219 	4400.000000	9.98747e-07	
4600.000000	0.0326765 	4600.000000	0.031325  	4600.000000	0.0264986 	4600.000000	0.0263924 	4600.000000	0.031324  	4600.000000	9.57913e-07	
4800.000000	0.0333319 	4800.000000	0.0317338 	4800.000000	0.0265594 	4800.000000	0.0264533 	4800.000000	0.0317329 	4800.000000	9.20377e-07	
5000.000000	0.0340021 	5000.000000	0.0321484 	5000.000000	0.0266209 	5000.000000	0.0265149 	5000.000000	0.0321476 	5000.000000	8.8575e-07	
5250.000000	0.0348593 	5250.000000	0.0326737 	5250.000000	0.026698  	5250.000000	0.0265921 	5250.000000	0.0326729 	5250.000000	8.46063e-07	
5500.000000	0.0357367 	5500.000000	0.0332057 	5500.000000	0.0267751 	5500.000000	0.0266693 	5500.000000	0.0332049 	5500.000000	8.09873e-07	
6000.000000	0.0375476 	6000.000000	0.0342861 	6000.000000	0.0269276 	6000.000000	0.0268221 	6000.000000	0.0342853 	6000.000000	7.46271e-07	
6500.000000	0.0394274 	6500.000000	0.0353833 	6500.000000	0.0270766 	6500.000000	0.0269713 	6500.000000	0.0353826 	6500.000000	6.92166e-07	
7000.000000	0.0413704 	7000.000000	0.0364931 	7000.000000	0.0272211 	7000.000000	0.027116  	7000.000000	0.0364925 	7000.000000	6.45564e-07	
7500.000000	0.0433728 	7500.000000	0.0376125 	7500.000000	0.0273605 	7500.000000	0.0272556 	7500.000000	0.0376119 	7500.000000	6.04992e-07	
8000.000000	0.0454314 	8000.000000	0.038739  	8000.000000	0.0274949 	8000.000000	0.02739   	8000.000000	0.0387384 	8000.000000	5.69343e-07	
8500.000000	0.047544  	8500.000000	0.039871  	8500.000000	0.0276237 	8500.000000	0.0275192 	8500.000000	0.0398704 	8500.000000	5.37764e-07	
9000.000000	0.0497086 	9000.000000	0.041007  	9000.000000	0.0277472 	9000.000000	0.0276433 	9000.000000	0.0410065 	9000.000000	5.0959e-07	
9500.000000	0.0519239 	9500.000000	0.0421462 	9500.000000	0.0278657 	9500.000000	0.0277626 	9500.000000	0.0421458 	9500.000000	4.84295e-07	
10000.000000	0.0541888 	10000.000000	0.0432878 	10000.000000	0.0279798 	10000.000000	0.0278773 	10000.000000	0.0432873 	10000.000000	4.61456e-07	
11000.000000	0.0588635 	11000.000000	0.0455753 	11000.000000	0.0281955 	11000.000000	0.0280935 	11000.000000	0.0455749 	11000.000000	4.21828e-07	
12000.000000	0.0637274 	12000.000000	0.047866  	12000.000000	0.0283959 	12000.000000	0.0282941 	12000.000000	0.0478656 	12000.000000	3.88619e-07	
13000.000000	0.0687767 	13000.000000	0.0501574 	13000.000000	0.0285821 	13000.000000	0.0284806 	13000.000000	0.0501571 	13000.000000	3.60376e-07	
14000.000000	0.074009  	14000.000000	0.0524481 	14000.000000	0.0287552 	14000.000000	0.0286546 	14000.000000	0.0524478 	14000.000000	3.36054e-07	
15000.000000	0.0794228 	15000.000000	0.0547369 	15000.000000	0.0289169 	15000.000000	0.0288175 	15000.000000	0.0547366 	15000.000000	3.14883e-07	
16000.000000	0.0850169 	16000.000000	0.0570232 	16000.000000	0.0290687 	16000.000000	0.0289705 	16000.000000	0.0570229 	16000.000000	2.96284e-07	
17000.000000	0.0907908 	17000.000000	0.0593064 	17000.000000	0.0292117 	17000.000000	0.0291146 	17000.000000	0.0593061 	17000.000000	2.79811e-07	
18000.000000	0.0967441 	18000.000000	0.0615863 	18000.000000	0.029347  	18000.000000	0.0292507 	18000.000000	0.061586  	18000.000000	2.65118e-07	
19000.000000	0.102877  	19000.000000	0.0638627 	19000.000000	0.0294751 	19000.000000	0.0293795 	19000.000000	0.0638624 	19000.000000	2.51927e-07	
20000.000000	0.109189  	20000.000000	0.0661354 	20000.000000	0.0295968 	20000.000000	0.0295017 	20000.000000	0.0661351 	20000.000000	2.40018e-07	
21000.000000	0.115681  	21000.000000	0.0684044 	21000.000000	0.0297123 	21000.000000	0.029618  	21000.000000	0.0684041 	21000.000000	2.29211e-07	
22000.000000	0.122353  	22000.000000	0.0706696 	22000.000000	0.0298212 	22000.000000	0.0297288 	22000.000000	0.0706694 	22000.000000	2.19359e-07	
23000.000000	0.129205  	23000.000000	0.0729312 	23000.000000	0.029926  	23000.000000	0.0298346 	23000.000000	0.072931  	23000.000000	2.1034e-07	
24000.000000	0.136239  	24000.000000	0.075189  	24000.000000	0.0300267 	24000.000000	0.0299358 	24000.000000	0.0751888 	24000.000000	2.02051e-07	
25000.000000	0.143454  	25000.000000	0.0774432 	25000.000000	0.0301227 	25000.000000	0.0300327 	25000.000000	0.077443  	25000.000000	1.94407e-07	
26000.000000	0.150852  	26000.000000	0.0796937 	26000.000000	0.0302144 	26000.000000	0.0301257 	26000.000000	0.0796936 	26000.000000	1.87334e-07	
27000.000000	0.158433  	27000.000000	0.0819408 	27000.000000	0.0303022 	27000.000000	0.0302151 	27000.000000	0.0819406 	27000.000000	1.80771e-07	
28000.000000	0.166197  	28000.000000	0.0841843 	28000.000000	0.0303866 	28000.000000	0.0303011 	28000.000000	0.0841841 	28000.000000	1.74663e-07	
29000.000000	0.174147  	29000.000000	0.0864245 	29000.000000	0.0304678 	29000.000000	0.030384  	29000.000000	0.0864243 	29000.000000	1.68964e-07	
30000.000000	0.182281  	30000.000000	0.0886613 	30000.000000	0.0305461 	30000.000000	0.0304639 	30000.000000	0.0886611 	30000.000000	1.63635e-07	
32000.000000	0.199111  	32000.000000	0.0931252 	32000.000000	0.0306949 	32000.000000	0.0306157 	32000.000000	0.093125  	32000.000000	1.53948e-07	
34000.000000	0.216693  	34000.000000	0.0975765 	34000.000000	0.030834  	34000.000000	0.0307579 	34000.000000	0.0975764 	34000.000000	1.45371e-07	
36000.000000	0.235034  	36000.000000	0.102016  	36000.000000	0.0309641 	36000.000000	0.0308915 	36000.000000	0.102016  	36000.000000	1.3772e-07	
38000.000000	0.254143  	38000.000000	0.106444  	38000.000000	0.0310861 	38000.000000	0.0310175 	38000.000000	0.106444  	38000.000000	1.30853e-07	
40000.000000	0.274026  	40000.000000	0.110861  	40000.000000	0.031201  	40000.000000	0.0311367 	40000.000000	0.110861  	40000.000000	1.24654e-07	
42000.000000	0.294693  	42000.000000	0.115268  	42000.000000	0.0313099 	42000.000000	0.0312497 	42000.000000	0.115267  	42000.000000	1.1903e-07	
44000.000000	0.316151  	44000.000000	0.119664  	44000.000000	0.0314135 	44000.000000	0.0313571 	44000.000000	0.119664  	44000.000000	1.13903e-07	
46000.000000	0.338409  	46000.000000	0.124051  	46000.000000	0.0315126 	46000.000000	0.0314595 	46000.000000	0.124051  	46000.000000	1.09209e-07	
48000.000000	0.361474  	48000.000000	0.128429  	48000.000000	0.0316072 	48000.000000	0.0315573 	48000.000000	0.128429  	48000.000000	1.04897e-07	
50000.000000	0.385355  	50000.000000	0.132797  	50000.000000	0.0316972 	50000.000000	0.0316509 	50000.000000	0.132797  	50000.000000	1.0092e-07	
