Energy (MeV/u)1	0 - [He-base] F.Hubert et al, AD&ND Tables 46(1990)1	Energy (MeV/u)2	1 - [H -base] J.F.Ziegler et al, Pergamon Press, NY (low energy)	Energy (MeV/u)3	2 - ATIMA 1.2  LS-theory (recommended for high energy)	Energy (MeV/u)4	3 - ATIMA 1.2  without LS-correction	Energy (MeV/u)5	4 - electrical component of [1] - J.F.Ziegler et al	Energy (MeV/u)6	5 - nuclear component of [1] - J.F.Ziegler et al	
0.001000	0.210784  	0.001000	0.363755  	0.001000	0.427194  	0.001000	0.427194  	0.001000	0.30084   	0.001000	0.0629154 	
0.002000	0.248273  	0.002000	0.424472  	0.002000	0.474235  	0.002000	0.474235  	0.002000	0.383439  	0.002000	0.0410329 	
0.005000	0.323858  	0.005000	0.550063  	0.005000	0.56637   	0.005000	0.56637   	0.005000	0.528415  	0.005000	0.0216483 	
0.008000	0.376425  	0.008000	0.638096  	0.008000	0.627837  	0.008000	0.627837  	0.008000	0.622898  	0.008000	0.0151982 	
0.010000	0.405109  	0.010000	0.686314  	0.010000	0.660604  	0.010000	0.660604  	0.010000	0.673497  	0.010000	0.0128174 	
0.015000	0.488342  	0.015000	0.812981  	0.015000	0.726237  	0.015000	0.726237  	0.015000	0.803638  	0.015000	0.00934299	
0.020000	0.55659   	0.020000	0.914902  	0.020000	0.777785  	0.020000	0.777785  	0.020000	0.90747   	0.020000	0.00743192	
0.025000	0.613053  	0.025000	0.997791  	0.025000	0.820758  	0.025000	0.820758  	0.025000	0.991582  	0.025000	0.00620907	
0.030000	0.65945   	0.030000	1.06493   	0.030000	0.863757  	0.030000	0.863757  	0.030000	1.05957   	0.030000	0.00535365	
0.035000	0.696916  	0.035000	1.11861   	0.035000	0.899747  	0.035000	0.899747  	0.035000	1.11389   	0.035000	0.00471888	
0.040000	0.726348  	0.040000	1.16066   	0.040000	0.929892  	0.040000	0.929892  	0.040000	1.15643   	0.040000	0.00422758	
0.045000	0.748553  	0.045000	1.19267   	0.045000	0.955042  	0.045000	0.955042  	0.045000	1.18883   	0.045000	0.00383513	
0.050000	0.764309  	0.050000	1.21603   	0.050000	0.975858  	0.050000	0.975858  	0.050000	1.21252   	0.050000	0.00351383	
0.055000	0.774383  	0.055000	1.23201   	0.055000	0.99287   	0.055000	0.99287   	0.055000	1.22876   	0.055000	0.00324555	
0.060000	0.779528  	0.060000	1.24173   	0.060000	1.00652   	0.060000	1.00652   	0.060000	1.23872   	0.060000	0.0030179 	
0.070000	0.777911  	0.070000	1.24632   	0.070000	1.02522   	0.070000	1.02522   	0.070000	1.24367   	0.070000	0.00265179	
0.080000	0.764757  	0.080000	1.23642   	0.080000	1.03446   	0.080000	1.03446   	0.080000	1.23405   	0.080000	0.0023696 	
0.090000	0.744427  	0.090000	1.21695   	0.090000	1.03621   	0.090000	1.03621   	0.090000	1.21481   	0.090000	0.00214495	
0.100000	0.720228  	0.100000	1.19144   	0.100000	1.03205   	0.100000	1.03205   	0.100000	1.18948   	0.100000	0.00196156	
0.120000	0.668724  	0.120000	1.13141   	0.120000	1.01104   	0.120000	1.01104   	0.120000	1.12973   	0.120000	0.00167949	
0.140000	0.620423  	0.140000	1.06808   	0.140000	0.979261  	0.140000	0.979261  	0.140000	1.06661   	0.140000	0.00147207	
0.160000	0.578492  	0.160000	1.00669   	0.160000	0.9419    	0.160000	0.9419    	0.160000	1.00538   	0.160000	0.0013127 	
0.180000	0.543066  	0.180000	0.949372  	0.180000	0.902323  	0.180000	0.902323  	0.180000	0.948186  	0.180000	0.00118617	
0.200000	0.513258  	0.200000	0.896807  	0.200000	0.862641  	0.200000	0.862641  	0.200000	0.895724  	0.200000	0.0010831 	
0.250000	0.456649  	0.250000	0.785684  	0.250000	0.769969  	0.250000	0.769969  	0.250000	0.784791  	0.250000	0.000892835	
0.300000	0.416286  	0.300000	0.699031  	0.300000	0.691217  	0.300000	0.691217  	0.300000	0.698269  	0.300000	0.000761973	
0.350000	0.385293  	0.350000	0.630788  	0.350000	0.626326  	0.350000	0.626326  	0.350000	0.630121  	0.350000	0.000666123	
0.400000	0.36016   	0.400000	0.576095  	0.400000	0.573065  	0.400000	0.573065  	0.400000	0.575503  	0.400000	0.000592713	
0.450000	0.339008  	0.450000	0.53142   	0.450000	0.529032  	0.450000	0.529032  	0.450000	0.530886  	0.450000	0.000534584	
0.500000	0.320752  	0.500000	0.494254  	0.500000	0.492201  	0.500000	0.492201  	0.500000	0.493767  	0.500000	0.000487347	
0.600000	0.290446  	0.600000	0.435833  	0.600000	0.434211  	0.600000	0.434211  	0.600000	0.435418  	0.600000	0.000415094	
0.700000	0.26602   	0.700000	0.391747  	0.700000	0.390536  	0.700000	0.390536  	0.700000	0.391385  	0.700000	0.000362297	
0.800000	0.24576   	0.800000	0.357049  	0.800000	0.356268  	0.800000	0.356268  	0.800000	0.356727  	0.800000	0.000321938	
0.900000	0.228618  	0.900000	0.328858  	0.900000	0.328495  	0.900000	0.328495  	0.900000	0.328568  	0.900000	0.000290031	
1.000000	0.213891  	1.000000	0.305387  	1.000000	0.305409  	1.000000	0.305409  	1.000000	0.305123  	1.000000	0.000264138	
1.250000	0.184702  	1.250000	0.260571  	1.250000	0.261358  	1.250000	0.261358  	1.250000	0.260354  	1.250000	0.000216581	
1.500000	0.162957  	1.500000	0.228362  	1.500000	0.229661  	1.500000	0.229661  	1.500000	0.228178  	1.500000	0.000184073	
1.750000	0.146076  	1.750000	0.203897  	1.750000	0.205522  	1.750000	0.205522  	1.750000	0.203736  	1.750000	0.000160377	
2.000000	0.132563  	2.000000	0.184583  	2.000000	0.186411  	2.000000	0.186411  	2.000000	0.18444   	2.000000	0.000142301	
2.250000	0.121481  	2.250000	0.168894  	2.250000	0.170843  	2.250000	0.170843  	2.250000	0.168766  	2.250000	0.000128036	
2.500000	0.11173   	2.500000	0.155865  	2.500000	0.157881  	2.500000	0.157881  	2.500000	0.155749  	2.500000	0.000116476	
3.000000	0.0975606 	3.000000	0.135409  	3.000000	0.137462  	3.000000	0.137462  	3.000000	0.13531   	3.000000	9.8858e-05	
3.500000	0.0868065 	3.500000	0.12002   	3.500000	0.122043  	3.500000	0.122043  	3.500000	0.119934  	3.500000	8.60358e-05	
4.000000	0.0783425 	4.000000	0.107984  	4.000000	0.109947  	4.000000	0.109947  	4.000000	0.107908  	4.000000	7.62669e-05	
4.500000	0.0714933 	4.500000	0.0982889 	4.500000	0.100179  	4.500000	0.100179  	4.500000	0.0982203 	4.500000	6.85656e-05	
5.000000	0.0658281 	5.000000	0.0902977 	5.000000	0.0921119 	5.000000	0.0921119 	5.000000	0.0902353 	5.000000	6.23311e-05	
5.500000	0.0610583 	5.500000	0.0835879 	5.500000	0.085327  	5.500000	0.085327  	5.500000	0.0835307 	5.500000	5.71763e-05	
6.000000	0.056983  	6.000000	0.0778676 	6.000000	0.0795346 	6.000000	0.0795346 	6.000000	0.0778147 	6.000000	5.28398e-05	
6.500000	0.0534578 	6.500000	0.0729282 	6.500000	0.0745269 	6.500000	0.0745269 	6.500000	0.0728791 	6.500000	4.91387e-05	
7.000000	0.0503763 	7.000000	0.0686166 	7.000000	0.0701511 	7.000000	0.0701511 	7.000000	0.0685707 	7.000000	4.59414e-05	
7.500000	0.0476579 	7.500000	0.0648177 	7.500000	0.0662921 	7.500000	0.0662921 	7.500000	0.0647745 	7.500000	4.31502e-05	
8.000000	0.0452408 	8.000000	0.0614431 	8.000000	0.0628615 	8.000000	0.0628615 	8.000000	0.0614025 	8.000000	4.06915e-05	
8.500000	0.0430766 	8.500000	0.0584241 	8.500000	0.0597901 	8.500000	0.0597901 	8.500000	0.0583856 	8.500000	3.85085e-05	
9.000000	0.0411268 	9.000000	0.055706  	9.000000	0.0570232 	9.000000	0.0570232 	9.000000	0.0556694 	9.000000	3.65566e-05	
9.500000	0.0393604 	9.500000	0.0532449 	9.500000	0.0545166 	9.500000	0.0545166 	9.500000	0.0532101 	9.500000	3.48006e-05	
10.000000	0.0377522 	10.000000	0.050896  	10.000000	0.0522344 	10.000000	0.0522344 	10.000000	0.0508628 	10.000000	3.3212e-05	
11.000000	0.0349308 	11.000000	0.0471791 	11.000000	0.0481814 	11.000000	0.0481818 	11.000000	0.0471487 	11.000000	3.04486e-05	
12.000000	0.0325348 	12.000000	0.0440033 	12.000000	0.0447466 	12.000000	0.0447473 	12.000000	0.0439752 	12.000000	2.81253e-05	
13.000000	0.030473  	13.000000	0.0412571 	13.000000	0.0417986 	13.000000	0.041799  	13.000000	0.041231  	13.000000	2.61436e-05	
14.000000	0.0286789 	14.000000	0.038858  	14.000000	0.0392404 	14.000000	0.0392404 	14.000000	0.0388336 	14.000000	2.44325e-05	
15.000000	0.0271027 	15.000000	0.0367432 	15.000000	0.0369989 	15.000000	0.0369989 	15.000000	0.0367203 	15.000000	2.29394e-05	
16.000000	0.0257062 	16.000000	0.0348644 	16.000000	0.0350196 	16.000000	0.0350193 	16.000000	0.0348427 	16.000000	2.16248e-05	
17.000000	0.0244599 	17.000000	0.0331836 	17.000000	0.0332599 	17.000000	0.0332583 	17.000000	0.0331631 	17.000000	2.04581e-05	
18.000000	0.0233404 	18.000000	0.0316707 	18.000000	0.0316842 	18.000000	0.031682  	18.000000	0.0316513 	18.000000	1.94152e-05	
19.000000	0.0223288 	19.000000	0.0303014 	19.000000	0.0302653 	19.000000	0.0302632 	19.000000	0.0302829 	19.000000	1.84774e-05	
20.000000	0.0214101 	20.000000	0.0290559 	20.000000	0.0289819 	20.000000	0.0289797 	20.000000	0.0290383 	20.000000	1.76293e-05	
21.000000	0.0205717 	21.000000	0.0279179 	21.000000	0.0278157 	21.000000	0.0278134 	21.000000	0.027901  	21.000000	1.68584e-05	
22.000000	0.0198034 	22.000000	0.0268738 	22.000000	0.0267516 	22.000000	0.0267494 	22.000000	0.0268577 	22.000000	1.61545e-05	
23.000000	0.0190966 	23.000000	0.0259124 	23.000000	0.0257774 	23.000000	0.0257751 	23.000000	0.0258969 	23.000000	1.55092e-05	
24.000000	0.018444  	24.000000	0.0250241 	24.000000	0.0248831 	24.000000	0.02488   	24.000000	0.0250091 	24.000000	1.49153e-05	
25.000000	0.0178395 	25.000000	0.0242006 	25.000000	0.0240598 	25.000000	0.0240552 	25.000000	0.0241862 	25.000000	1.43669e-05	
27.000000	0.0167548 	27.000000	0.0227215 	27.000000	0.0225928 	27.000000	0.022587  	27.000000	0.0227081 	27.000000	1.33869e-05	
29.000000	0.0158086 	29.000000	0.0214301 	29.000000	0.021327  	29.000000	0.0213214 	29.000000	0.0214176 	29.000000	1.25364e-05	
31.000000	0.0149756 	31.000000	0.0202924 	31.000000	0.0202097 	31.000000	0.020204  	31.000000	0.0202806 	31.000000	1.17911e-05	
33.000000	0.0142362 	33.000000	0.019282  	33.000000	0.0192043 	33.000000	0.0191989 	33.000000	0.0192709 	33.000000	1.11324e-05	
35.000000	0.0135753 	35.000000	0.0183786 	35.000000	0.0183051 	35.000000	0.0183003 	35.000000	0.0183681 	35.000000	1.05459e-05	
38.000000	0.0127051 	38.000000	0.017189  	38.000000	0.0171234 	38.000000	0.017117  	38.000000	0.0171792 	38.000000	9.77725e-06	
41.000000	0.0119535 	41.000000	0.0161614 	41.000000	0.0161014 	41.000000	0.0160947 	41.000000	0.0161523 	41.000000	9.11656e-06	
44.000000	0.0112973 	44.000000	0.0152644 	44.000000	0.0152084 	44.000000	0.0152023 	44.000000	0.0152559 	44.000000	8.54236e-06	
47.000000	0.0107192 	47.000000	0.0144744 	47.000000	0.0144218 	47.000000	0.014416  	47.000000	0.0144664 	47.000000	8.03853e-06	
50.000000	0.0102057 	50.000000	0.013773  	50.000000	0.0137232 	50.000000	0.0137178 	50.000000	0.0137654 	50.000000	7.59276e-06	
55.000000	0.00946597	55.000000	0.0127635 	55.000000	0.0127174 	55.000000	0.0127124 	55.000000	0.0127566 	55.000000	6.95367e-06	
60.000000	0.00884144	60.000000	0.0119122 	60.000000	0.0118691 	60.000000	0.0118641 	60.000000	0.0119058 	60.000000	6.41701e-06	
65.000000	0.00830663	65.000000	0.0111842 	65.000000	0.0111442 	65.000000	0.0111383 	65.000000	0.0111782 	65.000000	5.95975e-06	
70.000000	0.00784316	70.000000	0.0105542 	70.000000	0.0105153 	70.000000	0.01051   	70.000000	0.0105487 	70.000000	5.56532e-06	
75.000000	0.00743736	75.000000	0.0100035 	75.000000	0.00996548	75.000000	0.00996047	75.000000	0.00999831	75.000000	5.22145e-06	
80.000000	0.00707889	80.000000	0.00951789	80.000000	0.00948038	80.000000	0.00947565	80.000000	0.00951297	80.000000	4.91893e-06	
85.000000	0.00675975	85.000000	0.0090863 	85.000000	0.00904911	85.000000	0.00904463	85.000000	0.00908165	85.000000	4.65064e-06	
90.000000	0.00647368	90.000000	0.00870012	90.000000	0.00866313	90.000000	0.00865884	90.000000	0.00869571	90.000000	4.41102e-06	
95.000000	0.00621567	95.000000	0.00835247	95.000000	0.00831653	95.000000	0.00831144	95.000000	0.00834827	95.000000	4.19567e-06	
100.000000	0.0059817 	100.000000	0.00803781	100.000000	0.00800179	100.000000	0.00799692	100.000000	0.00803381	100.000000	4.00103e-06	
105.000000	0.00576847	105.000000	0.00775161	105.000000	0.00771544	105.000000	0.00771078	105.000000	0.00774778	105.000000	3.82422e-06	
110.000000	0.0055733 	110.000000	0.00749014	110.000000	0.00745382	110.000000	0.00744933	110.000000	0.00748648	110.000000	3.66288e-06	
115.000000	0.00539391	115.000000	0.0072503 	115.000000	0.00721379	115.000000	0.00720946	115.000000	0.00724679	115.000000	3.51503e-06	
120.000000	0.00522843	120.000000	0.0070295 	120.000000	0.00699278	120.000000	0.00698861	120.000000	0.00702612	120.000000	3.37905e-06	
125.000000	0.00507526	125.000000	0.00682553	125.000000	0.00678862	125.000000	0.00678458	125.000000	0.00682227	125.000000	3.25353e-06	
130.000000	0.00493304	130.000000	0.00663652	130.000000	0.00659942	130.000000	0.0065955 	130.000000	0.00663339	130.000000	3.1373e-06	
135.000000	0.00480061	135.000000	0.00646088	135.000000	0.0064235 	135.000000	0.0064198 	135.000000	0.00645786	135.000000	3.02936e-06	
140.000000	0.00467696	140.000000	0.00629723	140.000000	0.00626005	140.000000	0.00625608	140.000000	0.0062943 	140.000000	2.92883e-06	
145.000000	0.00456123	145.000000	0.00614437	145.000000	0.00610749	145.000000	0.00610316	145.000000	0.00614154	145.000000	2.83498e-06	
150.000000	0.00445266	150.000000	0.00600127	150.000000	0.0059642 	150.000000	0.00596   	150.000000	0.00599852	150.000000	2.74716e-06	
155.000000	0.00429979	155.000000	0.00586701	155.000000	0.00582975	155.000000	0.0058257 	155.000000	0.00586434	155.000000	2.66479e-06	
160.000000	0.00421019	160.000000	0.00574079	160.000000	0.00570342	160.000000	0.00569945	160.000000	0.0057382 	160.000000	2.58737e-06	
165.000000	0.00412569	165.000000	0.00562191	165.000000	0.00558444	165.000000	0.00558056	165.000000	0.0056194 	165.000000	2.51447e-06	
170.000000	0.00404587	170.000000	0.00550975	170.000000	0.00547218	170.000000	0.0054684 	170.000000	0.0055073 	170.000000	2.4457e-06	
175.000000	0.00397035	175.000000	0.00540375	175.000000	0.00536611	175.000000	0.00536241	175.000000	0.00540137	175.000000	2.38071e-06	
180.000000	0.00389877	180.000000	0.00530341	180.000000	0.00526571	180.000000	0.0052621 	180.000000	0.00530109	180.000000	2.3192e-06	
185.000000	0.00383084	185.000000	0.00520829	185.000000	0.00517057	185.000000	0.00516702	185.000000	0.00520603	185.000000	2.26089e-06	
190.000000	0.00376628	190.000000	0.005118  	190.000000	0.00508027	190.000000	0.00507678	190.000000	0.0051158 	190.000000	2.20554e-06	
195.000000	0.00370485	195.000000	0.00503217	195.000000	0.0049944 	195.000000	0.00499102	195.000000	0.00503002	195.000000	2.15292e-06	
200.000000	0.00364631	200.000000	0.00495049	200.000000	0.00491271	200.000000	0.00490942	200.000000	0.00494839	200.000000	2.10284e-06	
210.000000	0.00353714	210.000000	0.0047984 	210.000000	0.0047612 	210.000000	0.00475753	210.000000	0.00479639	210.000000	2.00956e-06	
220.000000	0.00343736	220.000000	0.00465971	220.000000	0.00462274	220.000000	0.00461908	220.000000	0.00465779	220.000000	1.92446e-06	
230.000000	0.00334581	230.000000	0.00453272	230.000000	0.00449589	230.000000	0.00449237	230.000000	0.00453087	230.000000	1.84649e-06	
240.000000	0.00326149	240.000000	0.00441602	240.000000	0.00437941	240.000000	0.00437599	240.000000	0.00441424	240.000000	1.77479e-06	
250.000000	0.00318358	250.000000	0.0043084 	250.000000	0.00427205	250.000000	0.00426873	250.000000	0.0043067 	250.000000	1.70862e-06	
260.000000	0.00311138	260.000000	0.00420887	260.000000	0.00417281	260.000000	0.00416958	260.000000	0.00420722	260.000000	1.64736e-06	
270.000000	0.00304427	270.000000	0.00411654	270.000000	0.00408082	270.000000	0.00407767	270.000000	0.00411495	270.000000	1.59047e-06	
280.000000	0.00298174	280.000000	0.00403068	280.000000	0.00399531	280.000000	0.00399223	280.000000	0.00402914	280.000000	1.53751e-06	
290.000000	0.00292333	290.000000	0.00395063	290.000000	0.00391559	290.000000	0.00391263	290.000000	0.00394914	290.000000	1.48806e-06	
300.000000	0.00286866	300.000000	0.00387582	300.000000	0.00384141	300.000000	0.0038383 	300.000000	0.00387438	300.000000	1.44179e-06	
310.000000	0.00281737	310.000000	0.00380578	310.000000	0.00377205	310.000000	0.00376874	310.000000	0.00380438	310.000000	1.39841e-06	
320.000000	0.00276916	320.000000	0.00374006	320.000000	0.00370675	320.000000	0.00370351	320.000000	0.0037387 	320.000000	1.35764e-06	
330.000000	0.00272377	330.000000	0.00367829	330.000000	0.00364539	330.000000	0.00364224	330.000000	0.00367697	330.000000	1.31925e-06	
340.000000	0.00268096	340.000000	0.00362012	340.000000	0.00358769	340.000000	0.00358459	340.000000	0.00361883	340.000000	1.28304e-06	
350.000000	0.00264051	350.000000	0.00356526	350.000000	0.00353329	350.000000	0.00353024	350.000000	0.00356401	350.000000	1.24883e-06	
360.000000	0.00260225	360.000000	0.00351344	360.000000	0.00348194	360.000000	0.00347895	360.000000	0.00351222	360.000000	1.21645e-06	
370.000000	0.002566  	370.000000	0.00346442	370.000000	0.00343311	370.000000	0.00343016	370.000000	0.00346323	370.000000	1.18576e-06	
380.000000	0.00253161	380.000000	0.00341799	380.000000	0.00338688	380.000000	0.00338398	380.000000	0.00341683	380.000000	1.15663e-06	
390.000000	0.00249895	390.000000	0.00337395	390.000000	0.00334305	390.000000	0.00334019	390.000000	0.00337282	390.000000	1.12893e-06	
400.000000	0.00246788	400.000000	0.00333213	400.000000	0.00330146	400.000000	0.00329864	400.000000	0.00333102	400.000000	1.10258e-06	
410.000000	0.00243831	410.000000	0.00329237	410.000000	0.00326194	410.000000	0.00325916	410.000000	0.00329129	410.000000	1.07747e-06	
420.000000	0.00241012	420.000000	0.00325453	420.000000	0.00322436	420.000000	0.00322161	420.000000	0.00325348	420.000000	1.05351e-06	
430.000000	0.00238323	430.000000	0.00321848	430.000000	0.00318855	430.000000	0.00318585	430.000000	0.00321745	430.000000	1.03062e-06	
440.000000	0.00235756	440.000000	0.0031841 	440.000000	0.0031544 	440.000000	0.00315176	440.000000	0.00318309	440.000000	1.00874e-06	
450.000000	0.00233302	450.000000	0.00315128	450.000000	0.00312186	450.000000	0.00311924	450.000000	0.00315029	450.000000	9.87799e-07	
460.000000	0.00230954	460.000000	0.00311993	460.000000	0.00309088	460.000000	0.00308819	460.000000	0.00311896	460.000000	9.67736e-07	
470.000000	0.00228707	470.000000	0.00308995	470.000000	0.00306133	470.000000	0.00305851	470.000000	0.003089  	470.000000	9.48496e-07	
480.000000	0.00226553	480.000000	0.00306125	480.000000	0.003033  	480.000000	0.00303012	480.000000	0.00306032	480.000000	9.30031e-07	
490.000000	0.00224489	490.000000	0.00303377	490.000000	0.0030058 	490.000000	0.00300294	490.000000	0.00303286	490.000000	9.12293e-07	
500.000000	0.00222507	500.000000	0.00300744	500.000000	0.00297971	500.000000	0.0029769 	500.000000	0.00300654	500.000000	8.9524e-07	
520.000000	0.00218778	520.000000	0.00295793	520.000000	0.00293073	520.000000	0.00292799	520.000000	0.00295707	520.000000	8.63035e-07	
540.000000	0.00215331	540.000000	0.00291227	540.000000	0.00288561	540.000000	0.00288291	540.000000	0.00291143	540.000000	8.33134e-07	
560.000000	0.00212137	560.000000	0.00287005	560.000000	0.0028439 	560.000000	0.00284125	560.000000	0.00286925	560.000000	8.05297e-07	
580.000000	0.00209173	580.000000	0.00283093	580.000000	0.00280528	580.000000	0.00280267	580.000000	0.00283015	580.000000	7.79314e-07	
600.000000	0.00206416	600.000000	0.00279461	600.000000	0.00276943	600.000000	0.00276686	600.000000	0.00279385	600.000000	7.55005e-07	
620.000000	0.00203847	620.000000	0.00276082	620.000000	0.00273609	620.000000	0.00273356	620.000000	0.00276008	620.000000	7.32212e-07	
640.000000	0.00201449	640.000000	0.00272933	640.000000	0.00270503	640.000000	0.00270253	640.000000	0.00272862	640.000000	7.10795e-07	
660.000000	0.00199208	660.000000	0.00269993	660.000000	0.00267602	660.000000	0.00267357	660.000000	0.00269924	660.000000	6.90632e-07	
680.000000	0.00197111	680.000000	0.00267246	680.000000	0.00264889	680.000000	0.00264649	680.000000	0.00267179	680.000000	6.71615e-07	
700.000000	0.00195146	700.000000	0.00264674	700.000000	0.00262355	700.000000	0.00262113	700.000000	0.00264609	700.000000	6.53649e-07	
720.000000	0.00193302	720.000000	0.00262264	720.000000	0.00259988	720.000000	0.00259735	720.000000	0.002622  	720.000000	6.36647e-07	
740.000000	0.0019157 	740.000000	0.00260002	740.000000	0.00257764	740.000000	0.00257503	740.000000	0.0025994 	740.000000	6.20534e-07	
760.000000	0.00189942	760.000000	0.00257877	760.000000	0.00255664	760.000000	0.00255404	760.000000	0.00257817	760.000000	6.0524e-07	
780.000000	0.0018841 	780.000000	0.0025588 	780.000000	0.00253684	780.000000	0.00253428	780.000000	0.00255821	780.000000	5.90704e-07	
800.000000	0.00186968	800.000000	0.00254   	800.000000	0.00251818	800.000000	0.00251566	800.000000	0.00253942	800.000000	5.76871e-07	
820.000000	0.00185609	820.000000	0.00252229	820.000000	0.0025006 	820.000000	0.0024981 	820.000000	0.00252173	820.000000	5.6369e-07	
840.000000	0.00184327	840.000000	0.0025056 	840.000000	0.002484  	840.000000	0.00248151	840.000000	0.00250505	840.000000	5.51116e-07	
860.000000	0.00183118	860.000000	0.00248985	860.000000	0.0024683 	860.000000	0.00246584	860.000000	0.00248932	860.000000	5.39107e-07	
880.000000	0.00181977	880.000000	0.00247499	880.000000	0.00245345	880.000000	0.00245101	880.000000	0.00247447	880.000000	5.27626e-07	
900.000000	0.001809  	900.000000	0.00246096	900.000000	0.00243939	900.000000	0.00243696	900.000000	0.00246044	900.000000	5.16638e-07	
920.000000	0.00179882	920.000000	0.0024477 	920.000000	0.00242606	920.000000	0.00242366	920.000000	0.00244719	920.000000	5.06112e-07	
940.000000	0.0017892 	940.000000	0.00243516	940.000000	0.00241343	940.000000	0.00241104	940.000000	0.00243467	940.000000	4.96019e-07	
960.000000	0.00178011	960.000000	0.00242331	960.000000	0.00240144	960.000000	0.00239907	960.000000	0.00242282	960.000000	4.86333e-07	
980.000000	0.00177152	980.000000	0.00241209	980.000000	0.00239006	980.000000	0.0023877 	980.000000	0.00241161	980.000000	4.77029e-07	
1000.000000	0.00176339	1000.000000	0.00240148	1000.000000	0.00237924	1000.000000	0.0023769 	1000.000000	0.00240101	1000.000000	4.68085e-07	
1020.000000	0.00175571	1020.000000	0.00239143	1020.000000	0.00236895	1020.000000	0.00236662	1020.000000	0.00239097	1020.000000	4.5948e-07	
1040.000000	0.00174845	1040.000000	0.00238193	1040.000000	0.00235916	1040.000000	0.00235685	1040.000000	0.00238147	1040.000000	4.51195e-07	
1060.000000	0.00174159	1060.000000	0.00237292	1060.000000	0.00234985	1060.000000	0.00234755	1060.000000	0.00237248	1060.000000	4.43212e-07	
1080.000000	0.0017351 	1080.000000	0.0023644 	1080.000000	0.00234098	1080.000000	0.00233869	1080.000000	0.00236396	1080.000000	4.35516e-07	
1100.000000	0.00172897	1100.000000	0.00235633	1100.000000	0.00233253	1100.000000	0.00233025	1100.000000	0.0023559 	1100.000000	4.2809e-07	
1120.000000	0.00172318	1120.000000	0.00234869	1120.000000	0.00232447	1120.000000	0.00232221	1120.000000	0.00234826	1120.000000	4.2092e-07	
1140.000000	0.00171771	1140.000000	0.00234145	1140.000000	0.00231679	1140.000000	0.00231453	1140.000000	0.00234104	1140.000000	4.13994e-07	
1160.000000	0.00171255	1160.000000	0.0023346 	1160.000000	0.00230946	1160.000000	0.00230721	1160.000000	0.00233419	1160.000000	4.07299e-07	
1180.000000	0.00170768	1180.000000	0.00232812	1180.000000	0.00230246	1180.000000	0.00230023	1180.000000	0.00232772	1180.000000	4.00823e-07	
1200.000000	0.00170309	1200.000000	0.00232199	1200.000000	0.00229578	1200.000000	0.00229356	1200.000000	0.00232159	1200.000000	3.94556e-07	
1220.000000	0.00169876	1220.000000	0.00231619	1220.000000	0.00228939	1220.000000	0.00228719	1220.000000	0.0023158 	1220.000000	3.88488e-07	
1240.000000	0.00169469	1240.000000	0.0023107 	1240.000000	0.00228329	1240.000000	0.0022811 	1240.000000	0.00231032	1240.000000	3.8261e-07	
1260.000000	0.00169086	1260.000000	0.00230552	1260.000000	0.00227746	1260.000000	0.00227529	1260.000000	0.00230514	1260.000000	3.76911e-07	
1280.000000	0.00168726	1280.000000	0.00230063	1280.000000	0.00227189	1280.000000	0.00226973	1280.000000	0.00230026	1280.000000	3.71385e-07	
1300.000000	0.00168389	1300.000000	0.00229601	1300.000000	0.00226658	1300.000000	0.00226441	1300.000000	0.00229564	1300.000000	3.66024e-07	
1320.000000	0.00168072	1320.000000	0.00229165	1320.000000	0.00226151	1320.000000	0.00225933	1320.000000	0.00229129	1320.000000	3.60819e-07	
1340.000000	0.00167776	1340.000000	0.00228754	1340.000000	0.00225667	1340.000000	0.00225447	1340.000000	0.00228719	1340.000000	3.55765e-07	
1360.000000	0.001675  	1360.000000	0.00228368	1360.000000	0.00225204	1360.000000	0.00224982	1360.000000	0.00228333	1360.000000	3.50855e-07	
1380.000000	0.00167242	1380.000000	0.00228004	1380.000000	0.00224762	1380.000000	0.00224537	1380.000000	0.00227969	1380.000000	3.46083e-07	
1400.000000	0.00167003	1400.000000	0.00227662	1400.000000	0.00224339	1400.000000	0.00224111	1400.000000	0.00227628	1400.000000	3.41442e-07	
1420.000000	0.0016678 	1420.000000	0.00227342	1420.000000	0.00223934	1420.000000	0.00223703	1420.000000	0.00227308	1420.000000	3.36928e-07	
1440.000000	0.00166575	1440.000000	0.00227041	1440.000000	0.00223546	1440.000000	0.00223313	1440.000000	0.00227008	1440.000000	3.32535e-07	
1460.000000	0.00166385	1460.000000	0.0022676 	1460.000000	0.00223173	1460.000000	0.00222939	1460.000000	0.00226728	1460.000000	3.28259e-07	
1480.000000	0.00166211	1480.000000	0.00226498	1480.000000	0.00222815	1480.000000	0.00222581	1480.000000	0.00226466	1480.000000	3.24094e-07	
1500.000000	0.00166051	1500.000000	0.00226254	1500.000000	0.00222472	1500.000000	0.00222238	1500.000000	0.00226222	1500.000000	3.20037e-07	
1520.000000	0.00165906	1520.000000	0.00226026	1520.000000	0.00222143	1520.000000	0.0022191 	1520.000000	0.00225995	1520.000000	3.16084e-07	
1540.000000	0.00165774	1540.000000	0.00225816	1540.000000	0.00221828	1540.000000	0.00221596	1540.000000	0.00225784	1540.000000	3.12229e-07	
1560.000000	0.00165656	1560.000000	0.00225621	1560.000000	0.00221526	1560.000000	0.00221295	1560.000000	0.0022559 	1560.000000	3.0847e-07	
1580.000000	0.00165551	1580.000000	0.00225441	1580.000000	0.00221237	1580.000000	0.00221007	1580.000000	0.00225411	1580.000000	3.04804e-07	
1600.000000	0.00165458	1600.000000	0.00225277	1600.000000	0.0022096 	1600.000000	0.00220731	1600.000000	0.00225246	1600.000000	3.01226e-07	
1620.000000	0.00165377	1620.000000	0.00225126	1620.000000	0.00220695	1620.000000	0.00220467	1620.000000	0.00225096	1620.000000	2.97733e-07	
1640.000000	0.00165308	1640.000000	0.00224989	1640.000000	0.00220441	1640.000000	0.00220214	1640.000000	0.0022496 	1640.000000	2.94323e-07	
1660.000000	0.0016525 	1660.000000	0.00224865	1660.000000	0.00220198	1660.000000	0.00219972	1660.000000	0.00224836	1660.000000	2.90993e-07	
1680.000000	0.00165202	1680.000000	0.00224755	1680.000000	0.00219966	1680.000000	0.0021974 	1680.000000	0.00224726	1680.000000	2.87739e-07	
1700.000000	0.00165165	1700.000000	0.00224656	1700.000000	0.00219744	1700.000000	0.00219519	1700.000000	0.00224627	1700.000000	2.8456e-07	
1750.000000	0.00165117	1750.000000	0.0022446 	1750.000000	0.00219229	1750.000000	0.00219005	1750.000000	0.00224433	1750.000000	2.76918e-07	
1800.000000	0.00165126	1800.000000	0.00224333	1800.000000	0.00218769	1800.000000	0.00218545	1800.000000	0.00224306	1800.000000	2.69688e-07	
1850.000000	0.00165191	1850.000000	0.00224268	1850.000000	0.00218358	1850.000000	0.00218135	1850.000000	0.00224241	1850.000000	2.62837e-07	
1900.000000	0.00165305	1900.000000	0.0022426 	1900.000000	0.00217991	1900.000000	0.00217769	1900.000000	0.00224235	1900.000000	2.56334e-07	
1950.000000	0.00165467	1950.000000	0.00224306	1950.000000	0.00217665	1950.000000	0.00217444	1950.000000	0.00224281	1950.000000	2.50155e-07	
2000.000000	0.00165672	2000.000000	0.00224402	2000.000000	0.00217376	2000.000000	0.00217156	2000.000000	0.00224377	2000.000000	2.44275e-07	
2100.000000	0.00166202	2100.000000	0.00224726	2100.000000	0.00216897	2100.000000	0.00216679	2100.000000	0.00224703	2100.000000	2.33329e-07	
2200.000000	0.00166877	2200.000000	0.00225209	2200.000000	0.00216532	2200.000000	0.00216315	2200.000000	0.00225186	2200.000000	2.23347e-07	
2300.000000	0.00167679	2300.000000	0.00225829	2300.000000	0.00216263	2300.000000	0.00216048	2300.000000	0.00225807	2300.000000	2.14207e-07	
2400.000000	0.00168594	2400.000000	0.00226569	2400.000000	0.00216076	2400.000000	0.00215862	2400.000000	0.00226549	2400.000000	2.05805e-07	
2500.000000	0.0016961 	2500.000000	0.00227415	2500.000000	0.00215958	2500.000000	0.00215745	2500.000000	0.00227396	2500.000000	1.98055e-07	
2600.000000	0.00170719	2600.000000	0.00228355	2600.000000	0.00215899	2600.000000	0.00215687	2600.000000	0.00228336	2600.000000	1.90883e-07	
2700.000000	0.0017191 	2700.000000	0.00229378	2700.000000	0.00215891	2700.000000	0.00215679	2700.000000	0.00229359	2700.000000	1.84226e-07	
2800.000000	0.00173177	2800.000000	0.00230475	2800.000000	0.00215926	2800.000000	0.00215715	2800.000000	0.00230457	2800.000000	1.7803e-07	
2900.000000	0.00174513	2900.000000	0.00231638	2900.000000	0.00215998	2900.000000	0.00215788	2900.000000	0.0023162 	2900.000000	1.72248e-07	
3000.000000	0.00175913	3000.000000	0.0023286 	3000.000000	0.00216103	3000.000000	0.00215893	3000.000000	0.00232843	3000.000000	1.6684e-07	
3200.000000	0.00178884	3200.000000	0.00235461	3200.000000	0.00216391	3200.000000	0.00216183	3200.000000	0.00235445	3200.000000	1.57008e-07	
3400.000000	0.00182058	3400.000000	0.00238237	3400.000000	0.00216763	3400.000000	0.00216556	3400.000000	0.00238223	3400.000000	1.48299e-07	
3600.000000	0.00185409	3600.000000	0.0024116 	3600.000000	0.00217197	3600.000000	0.00216991	3600.000000	0.00241146	3600.000000	1.40529e-07	
3800.000000	0.00188917	3800.000000	0.00244205	3800.000000	0.00217678	3800.000000	0.00217472	3800.000000	0.00244191	3800.000000	1.33553e-07	
4000.000000	0.00192565	4000.000000	0.00247352	4000.000000	0.00218192	4000.000000	0.00217987	4000.000000	0.00247339	4000.000000	1.27254e-07	
4200.000000	0.0019634 	4200.000000	0.00250587	4200.000000	0.00218731	4200.000000	0.00218527	4200.000000	0.00250575	4200.000000	1.21537e-07	
4400.000000	0.00200231	4400.000000	0.00253896	4400.000000	0.00219287	4400.000000	0.00219084	4400.000000	0.00253885	4400.000000	1.16325e-07	
4600.000000	0.00204228	4600.000000	0.0025727 	4600.000000	0.00219856	4600.000000	0.00219652	4600.000000	0.00257259	4600.000000	1.11552e-07	
4800.000000	0.00208325	4800.000000	0.00260699	4800.000000	0.00220432	4800.000000	0.00220229	4800.000000	0.00260688	4800.000000	1.07166e-07	
5000.000000	0.00212513	5000.000000	0.00264176	5000.000000	0.00221011	5000.000000	0.00220809	5000.000000	0.00264166	5000.000000	1.0312e-07	
5250.000000	0.00217871	5250.000000	0.00268581	5250.000000	0.00221738	5250.000000	0.00221535	5250.000000	0.00268571	5250.000000	9.84844e-08	
5500.000000	0.00223354	5500.000000	0.00273042	5500.000000	0.00222462	5500.000000	0.0022226 	5500.000000	0.00273032	5500.000000	9.42575e-08	
6000.000000	0.00234673	6000.000000	0.00282099	6000.000000	0.00223893	6000.000000	0.00223692	6000.000000	0.0028209 	6000.000000	8.68309e-08	
6500.000000	0.00246421	6500.000000	0.00291297	6500.000000	0.0022529 	6500.000000	0.00225089	6500.000000	0.00291289	6500.000000	8.05152e-08	
7000.000000	0.00258565	7000.000000	0.003006  	7000.000000	0.00226643	7000.000000	0.00226443	7000.000000	0.00300592	7000.000000	7.50766e-08	
7500.000000	0.0027108 	7500.000000	0.00309981	7500.000000	0.00227951	7500.000000	0.00227751	7500.000000	0.00309974	7500.000000	7.03431e-08	
8000.000000	0.00283946	8000.000000	0.00319422	8000.000000	0.00229211	8000.000000	0.00229011	8000.000000	0.00319415	8000.000000	6.61849e-08	
8500.000000	0.0029715 	8500.000000	0.00328908	8500.000000	0.00230423	8500.000000	0.00230224	8500.000000	0.00328902	8500.000000	6.25022e-08	
9000.000000	0.00310679	9000.000000	0.00338428	9000.000000	0.0023159 	9000.000000	0.00231391	9000.000000	0.00338422	9000.000000	5.92174e-08	
9500.000000	0.00324525	9500.000000	0.00347974	9500.000000	0.00232713	9500.000000	0.00232514	9500.000000	0.00347969	9500.000000	5.62687e-08	
10000.000000	0.0033868 	10000.000000	0.00357539	10000.000000	0.00233795	10000.000000	0.00233595	10000.000000	0.00357534	10000.000000	5.36067e-08	
11000.000000	0.00367897	11000.000000	0.00376707	11000.000000	0.00235839	11000.000000	0.0023564 	11000.000000	0.00376702	11000.000000	4.89892e-08	
12000.000000	0.00398296	12000.000000	0.003959  	12000.000000	0.00237737	12000.000000	0.00237543	12000.000000	0.00395895	12000.000000	4.51208e-08	
13000.000000	0.00429854	13000.000000	0.00415099	13000.000000	0.00239508	13000.000000	0.00239319	13000.000000	0.00415094	13000.000000	4.18318e-08	
14000.000000	0.00462557	14000.000000	0.0043429 	14000.000000	0.00241168	14000.000000	0.00240982	14000.000000	0.00434286	14000.000000	3.90001e-08	
15000.000000	0.00496393	15000.000000	0.00453466	15000.000000	0.00242728	15000.000000	0.00242544	15000.000000	0.00453463	15000.000000	3.65359e-08	
16000.000000	0.00531356	16000.000000	0.0047262 	16000.000000	0.00244198	16000.000000	0.00244016	16000.000000	0.00472617	16000.000000	3.43715e-08	
17000.000000	0.00567442	17000.000000	0.00491749	17000.000000	0.00245587	17000.000000	0.00245406	17000.000000	0.00491746	17000.000000	3.24549e-08	
18000.000000	0.00604651	18000.000000	0.00510849	18000.000000	0.00246901	18000.000000	0.00246723	18000.000000	0.00510846	18000.000000	3.07456e-08	
19000.000000	0.0064298 	19000.000000	0.0052992 	19000.000000	0.00248149	19000.000000	0.00247973	19000.000000	0.00529917	19000.000000	2.92114e-08	
20000.000000	0.0068243 	20000.000000	0.0054896 	20000.000000	0.00249337	20000.000000	0.00249163	20000.000000	0.00548957	20000.000000	2.78266e-08	
21000.000000	0.00723004	21000.000000	0.00567969	21000.000000	0.00250466	21000.000000	0.00250298	21000.000000	0.00567966	21000.000000	2.65701e-08	
22000.000000	0.00764704	22000.000000	0.00586946	22000.000000	0.0025154 	22000.000000	0.00251382	22000.000000	0.00586943	22000.000000	2.54248e-08	
23000.000000	0.00807532	23000.000000	0.00605892	23000.000000	0.00252575	23000.000000	0.0025242 	23000.000000	0.00605889	23000.000000	2.43764e-08	
24000.000000	0.00851492	24000.000000	0.00624807	24000.000000	0.0025357 	24000.000000	0.00253415	24000.000000	0.00624804	24000.000000	2.34131e-08	
25000.000000	0.00896588	25000.000000	0.00643691	25000.000000	0.00254519	25000.000000	0.0025437 	25000.000000	0.00643689	25000.000000	2.25248e-08	
26000.000000	0.00942823	26000.000000	0.00662545	26000.000000	0.00255432	26000.000000	0.00255289	26000.000000	0.00662543	26000.000000	2.1703e-08	
27000.000000	0.00990203	27000.000000	0.00681369	27000.000000	0.00256318	27000.000000	0.00256174	27000.000000	0.00681367	27000.000000	2.09404e-08	
28000.000000	0.0103873 	28000.000000	0.00700164	28000.000000	0.00257172	28000.000000	0.00257027	28000.000000	0.00700162	28000.000000	2.02309e-08	
29000.000000	0.0108842 	29000.000000	0.0071893 	29000.000000	0.00257991	29000.000000	0.00257851	29000.000000	0.00718928	29000.000000	1.9569e-08	
30000.000000	0.0113926 	30000.000000	0.00737669	30000.000000	0.00258779	30000.000000	0.00258647	30000.000000	0.00737667	30000.000000	1.89501e-08	
32000.000000	0.0124444 	32000.000000	0.00775064	32000.000000	0.00260276	32000.000000	0.00260163	32000.000000	0.00775062	32000.000000	1.78253e-08	
34000.000000	0.0135433 	34000.000000	0.00812354	34000.000000	0.00261687	34000.000000	0.00261587	34000.000000	0.00812352	34000.000000	1.68294e-08	
36000.000000	0.0146896 	36000.000000	0.00849544	36000.000000	0.00263019	36000.000000	0.0026293 	36000.000000	0.00849542	36000.000000	1.59413e-08	
38000.000000	0.0158839 	38000.000000	0.00886638	38000.000000	0.00264279	38000.000000	0.002642  	38000.000000	0.00886637	38000.000000	1.51443e-08	
40000.000000	0.0171266 	40000.000000	0.0092364 	40000.000000	0.00265474	40000.000000	0.00265405	40000.000000	0.00923639	40000.000000	1.44249e-08	
42000.000000	0.0184183 	42000.000000	0.00960555	42000.000000	0.00266609	42000.000000	0.00266551	42000.000000	0.00960553	42000.000000	1.37723e-08	
44000.000000	0.0197595 	44000.000000	0.00997385	44000.000000	0.00267692	44000.000000	0.00267643	44000.000000	0.00997384	44000.000000	1.31775e-08	
46000.000000	0.0211505 	46000.000000	0.0103413 	46000.000000	0.00268725	46000.000000	0.00268686	46000.000000	0.0103413 	46000.000000	1.26331e-08	
48000.000000	0.0225921 	48000.000000	0.0107081 	48000.000000	0.00269714	48000.000000	0.00269684	48000.000000	0.0107081 	48000.000000	1.21329e-08	
50000.000000	0.0240847 	50000.000000	0.011074  	50000.000000	0.0027066 	50000.000000	0.00270641	50000.000000	0.011074  	50000.000000	1.16717e-08	
