Energy (MeV/u)1	0 - [He-base] F.Hubert et al, AD&ND Tables 46(1990)1	Energy (MeV/u)2	1 - [H -base] J.F.Ziegler et al, Pergamon Press, NY (low energy)	Energy (MeV/u)3	2 - ATIMA 1.2  LS-theory (recommended for high energy)	Energy (MeV/u)4	3 - ATIMA 1.2  without LS-correction	Energy (MeV/u)5	4 - electrical component of [1] - J.F.Ziegler et al	Energy (MeV/u)6	5 - nuclear component of [1] - J.F.Ziegler et al	
0.001000	1.07879   	0.001000	1.35806   	0.001000	1.4489    	0.001000	1.4489    	0.001000	0.742903  	0.001000	0.615159  	
0.002000	1.18043   	0.002000	1.40521   	0.002000	1.54148   	0.002000	1.54148   	0.002000	0.963426  	0.002000	0.441787  	
0.005000	1.44815   	0.005000	1.61528   	0.005000	1.84848   	0.005000	1.84848   	0.005000	1.35846   	0.005000	0.256826  	
0.008000	1.65904   	0.008000	1.80794   	0.008000	2.11498   	0.008000	2.11498   	0.008000	1.62028   	0.008000	0.187661  	
0.010000	1.77832   	0.010000	1.92161   	0.010000	2.2714    	0.010000	2.2714    	0.010000	1.7617    	0.010000	0.15991   	
0.015000	2.0819    	0.015000	2.19146   	0.015000	2.58451   	0.015000	2.58451   	0.015000	2.07265   	0.015000	0.118811  	
0.020000	2.32526   	0.020000	2.42903   	0.020000	2.86064   	0.020000	2.86064   	0.020000	2.33312   	0.020000	0.0959031 	
0.025000	2.59914   	0.025000	2.70911   	0.025000	3.12562   	0.025000	3.12562   	0.025000	2.62817   	0.025000	0.0809389 	
0.030000	2.8318    	0.030000	2.97518   	0.030000	3.40508   	0.030000	3.40508   	0.030000	2.90486   	0.030000	0.07032   	
0.035000	3.02333   	0.035000	3.22596   	0.035000	3.66845   	0.035000	3.66845   	0.035000	3.1636    	0.035000	0.0623548 	
0.040000	3.17436   	0.040000	3.46146   	0.040000	3.91624   	0.040000	3.91624   	0.040000	3.40532   	0.040000	0.0561374 	
0.045000	3.28564   	0.045000	3.68176   	0.045000	4.14886   	0.045000	4.14886   	0.045000	3.63062   	0.045000	0.0511364 	
0.050000	3.3544    	0.050000	3.88055   	0.050000	4.3667    	0.050000	4.3667    	0.050000	3.83353   	0.050000	0.0470182 	
0.055000	3.49642   	0.055000	4.09598   	0.055000	4.57015   	0.055000	4.57015   	0.055000	4.05241   	0.055000	0.0435624 	
0.060000	3.61615   	0.060000	4.29991   	0.060000	4.75962   	0.060000	4.75962   	0.060000	4.25929   	0.060000	0.0406172 	
0.070000	3.79536   	0.070000	4.67335   	0.070000	5.09842   	0.070000	5.09842   	0.070000	4.6375    	0.070000	0.0358551 	
0.080000	3.98663   	0.080000	4.99649   	0.080000	5.38697   	0.080000	5.38697   	0.080000	4.96433   	0.080000	0.0321617 	
0.090000	4.12915   	0.090000	5.27568   	0.090000	5.62951   	0.090000	5.62951   	0.090000	5.24647   	0.090000	0.0292064 	
0.100000	4.2352    	0.100000	5.51345   	0.100000	5.83048   	0.100000	5.83048   	0.100000	5.48666   	0.100000	0.0267834 	
0.120000	4.27316   	0.120000	5.88903   	0.120000	6.1253    	0.120000	6.1253    	0.120000	5.866     	0.120000	0.0230372 	
0.140000	4.2684    	0.140000	6.13951   	0.140000	6.30483   	0.140000	6.30483   	0.140000	6.11924   	0.140000	0.0202663 	
0.160000	4.27442   	0.160000	6.31931   	0.160000	6.39793   	0.160000	6.39793   	0.160000	6.30118   	0.160000	0.0181273 	
0.180000	4.29956   	0.180000	6.45674   	0.180000	6.42805   	0.180000	6.42805   	0.180000	6.44031   	0.180000	0.0164223 	
0.200000	4.32184   	0.200000	6.52476   	0.200000	6.41345   	0.200000	6.41345   	0.200000	6.50973   	0.200000	0.0150289 	
0.250000	4.269     	0.250000	6.51526   	0.250000	6.26339   	0.250000	6.26339   	0.250000	6.50282   	0.250000	0.0124448 	
0.300000	4.25141   	0.300000	6.42139   	0.300000	6.04372   	0.300000	6.04372   	0.300000	6.41073   	0.300000	0.0106577 	
0.350000	4.22696   	0.350000	6.28147   	0.350000	5.8504    	0.350000	5.8504    	0.350000	6.27212   	0.350000	0.00934324	
0.400000	4.22132   	0.400000	6.173     	0.400000	5.66401   	0.400000	5.66401   	0.400000	6.16467   	0.400000	0.00833303	
0.450000	4.19164   	0.450000	6.04975   	0.450000	5.48022   	0.450000	5.48022   	0.450000	6.04222   	0.450000	0.00753078	
0.500000	4.13848   	0.500000	5.91407   	0.500000	5.30364   	0.500000	5.30364   	0.500000	5.90719   	0.500000	0.00687725	
0.600000	3.8549    	0.600000	5.49168   	0.600000	4.97482   	0.600000	4.97482   	0.600000	5.48581   	0.600000	0.00587458	
0.700000	3.55792   	0.700000	5.10645   	0.700000	4.6947    	0.700000	4.6947    	0.700000	5.10131   	0.700000	0.00513938	
0.800000	3.39065   	0.800000	4.75092   	0.800000	4.45204   	0.800000	4.45204   	0.800000	4.74635   	0.800000	0.00457581	
0.900000	3.2323    	0.900000	4.44092   	0.900000	4.23823   	0.900000	4.23823   	0.900000	4.43679   	0.900000	0.00412921	
1.000000	3.08435   	1.000000	4.16747   	1.000000	4.04713   	1.000000	4.04713   	1.000000	4.1637    	1.000000	0.00376606	
1.250000	2.74087   	1.250000	3.687     	1.250000	3.62686   	1.250000	3.62686   	1.250000	3.6839    	1.250000	0.00309718	
1.500000	2.4636    	1.500000	3.32063   	1.500000	3.2945    	1.500000	3.2945    	1.500000	3.31799   	1.500000	0.0026384 	
1.750000	2.23717   	1.750000	3.03097   	1.750000	3.02202   	1.750000	3.02202   	1.750000	3.02867   	1.750000	0.00230309	
2.000000	2.03803   	2.000000	2.77905   	2.000000	2.79219   	2.000000	2.79219   	2.000000	2.777     	2.000000	0.00204675	
2.250000	1.87382   	2.250000	2.5524    	2.250000	2.59494   	2.250000	2.59494   	2.250000	2.55056   	2.250000	0.00184406	
2.500000	1.70108   	2.500000	2.3659    	2.500000	2.42363   	2.500000	2.42363   	2.500000	2.36422   	2.500000	0.00167956	
3.000000	1.50152   	3.000000	2.07293   	3.000000	2.14102   	3.000000	2.14102   	3.000000	2.0715    	3.000000	0.00142834	
3.500000	1.34619   	3.500000	1.84987   	3.500000	1.91766   	3.500000	1.91766   	3.500000	1.84862   	3.500000	0.0012451 	
4.000000	1.22169   	4.000000	1.67256   	4.000000	1.73711   	4.000000	1.73711   	4.000000	1.67145   	4.000000	0.00110523	
4.500000	1.11958   	4.500000	1.52754   	4.500000	1.58843   	4.500000	1.58843   	4.500000	1.52655   	4.500000	0.000994793	
5.000000	1.03423   	5.000000	1.40646   	5.000000	1.46398   	5.000000	1.46398   	5.000000	1.40555   	5.000000	0.000905268	
5.500000	0.961769  	5.500000	1.30513   	5.500000	1.35835   	5.500000	1.35835   	5.500000	1.3043    	5.500000	0.000831157	
6.000000	0.899448  	6.000000	1.21802   	6.000000	1.26759   	6.000000	1.26759   	6.000000	1.21725   	6.000000	0.000768744	
6.500000	0.845246  	6.500000	1.14231   	6.500000	1.18876   	6.500000	1.18876   	6.500000	1.14159   	6.500000	0.000715427	
7.000000	0.797649  	7.000000	1.07587   	7.000000	1.11964   	7.000000	1.11964   	7.000000	1.0752    	7.000000	0.000669326	
7.500000	0.755502  	7.500000	1.01708   	7.500000	1.05854   	7.500000	1.05854   	7.500000	1.01645   	7.500000	0.00062905	
8.000000	0.717906  	8.000000	0.964675  	8.000000	1.00411   	8.000000	1.00411   	8.000000	0.964082  	8.000000	0.000593545	
8.500000	0.684149  	8.500000	0.91766   	8.500000	0.955315  	8.500000	0.955315  	8.500000	0.917098  	8.500000	0.000562  	
9.000000	0.653663  	9.000000	0.875234  	9.000000	0.911305  	9.000000	0.911305  	9.000000	0.8747    	9.000000	0.000533778	
9.500000	0.625988  	9.500000	0.836747  	9.500000	0.871399  	9.500000	0.871399  	9.500000	0.836238  	9.500000	0.000508373	
10.000000	0.600745  	10.000000	0.812876  	10.000000	0.835039  	10.000000	0.835039  	10.000000	0.812391  	10.000000	0.000485377	
11.000000	0.556359  	11.000000	0.753867  	11.000000	0.770339  	11.000000	0.770553  	11.000000	0.753422  	11.000000	0.000445345	
12.000000	0.518568  	12.000000	0.703354  	12.000000	0.715491  	12.000000	0.715838  	12.000000	0.702942  	12.000000	0.000411658	
13.000000	0.485983  	13.000000	0.659615  	13.000000	0.668399  	13.000000	0.668827  	13.000000	0.659232  	13.000000	0.000382901	
14.000000	0.457582  	14.000000	0.621365  	14.000000	0.627522  	14.000000	0.627999  	14.000000	0.621007  	14.000000	0.000358051	
15.000000	0.432596  	15.000000	0.587622  	15.000000	0.591707  	15.000000	0.592211  	15.000000	0.587286  	15.000000	0.000336354	
16.000000	0.410435  	16.000000	0.557627  	16.000000	0.560079  	16.000000	0.560589  	16.000000	0.55731   	16.000000	0.000317237	
17.000000	0.390638  	17.000000	0.530782  	17.000000	0.531952  	17.000000	0.532449  	17.000000	0.530482  	17.000000	0.000300261	
18.000000	0.372839  	18.000000	0.50661   	18.000000	0.506773  	18.000000	0.507253  	18.000000	0.506325  	18.000000	0.00028508	
19.000000	0.356747  	19.000000	0.484727  	19.000000	0.484101  	19.000000	0.484567  	19.000000	0.484455  	19.000000	0.00027142	
20.000000	0.342122  	20.000000	0.464817  	20.000000	0.463583  	20.000000	0.46404   	20.000000	0.464558  	20.000000	0.00025906	
21.000000	0.32877   	21.000000	0.446623  	21.000000	0.444939  	21.000000	0.445384  	21.000000	0.446376  	21.000000	0.000247822	
22.000000	0.316529  	22.000000	0.429929  	22.000000	0.427947  	22.000000	0.428362  	22.000000	0.429692  	22.000000	0.000237556	
23.000000	0.305262  	23.000000	0.414555  	23.000000	0.412399  	23.000000	0.412772  	23.000000	0.414327  	23.000000	0.00022814	
24.000000	0.294857  	24.000000	0.400347  	24.000000	0.398109  	24.000000	0.398448  	24.000000	0.400128  	24.000000	0.000219472	
25.000000	0.285217  	25.000000	0.387177  	25.000000	0.384934  	25.000000	0.385248  	25.000000	0.386965  	25.000000	0.000211465	
27.000000	0.267909  	27.000000	0.363518  	27.000000	0.361488  	27.000000	0.361747  	27.000000	0.363321  	27.000000	0.000197147	
29.000000	0.252805  	29.000000	0.342861  	29.000000	0.341291  	29.000000	0.341486  	29.000000	0.342676  	29.000000	0.000184715	
31.000000	0.239504  	31.000000	0.32466   	31.000000	0.32346   	31.000000	0.323579  	31.000000	0.324486  	31.000000	0.000173814	
33.000000	0.227694  	33.000000	0.308497  	33.000000	0.307412  	33.000000	0.307459  	33.000000	0.308333  	33.000000	0.000164175	
35.000000	0.217134  	35.000000	0.294043  	35.000000	0.293033  	35.000000	0.293048  	35.000000	0.293887  	35.000000	0.000155588	
38.000000	0.203229  	38.000000	0.275011  	38.000000	0.274131  	38.000000	0.274076  	38.000000	0.274867  	38.000000	0.000144327	
41.000000	0.191216  	41.000000	0.258571  	41.000000	0.257787  	41.000000	0.25769   	41.000000	0.258436  	41.000000	0.000134642	
44.000000	0.180726  	44.000000	0.24422   	44.000000	0.243506  	44.000000	0.243386  	44.000000	0.244094  	44.000000	0.00012622	
47.000000	0.171482  	47.000000	0.231581  	47.000000	0.230929  	47.000000	0.230786  	47.000000	0.231462  	47.000000	0.000118826	
50.000000	0.163271  	50.000000	0.220359  	50.000000	0.219755  	50.000000	0.219598  	50.000000	0.220247  	50.000000	0.000112281	
55.000000	0.151442  	55.000000	0.204208  	55.000000	0.203699  	55.000000	0.203491  	55.000000	0.204105  	55.000000	0.000102892	
60.000000	0.141453  	60.000000	0.190588  	60.000000	0.190123  	60.000000	0.189903  	60.000000	0.190493  	60.000000	9.5003e-05	
65.000000	0.132899  	65.000000	0.17894   	65.000000	0.178492  	65.000000	0.178278  	65.000000	0.178852  	65.000000	8.82768e-05	
70.000000	0.125485  	70.000000	0.168861  	70.000000	0.168443  	70.000000	0.168214  	70.000000	0.168779  	70.000000	8.24714e-05	
75.000000	0.118994  	75.000000	0.16005   	75.000000	0.159652  	75.000000	0.159414  	75.000000	0.159973  	75.000000	7.74079e-05	
80.000000	0.113259  	80.000000	0.15228   	80.000000	0.151896  	80.000000	0.151651  	80.000000	0.152208  	80.000000	7.2951e-05	
85.000000	0.108154  	85.000000	0.145375  	85.000000	0.145001  	85.000000	0.14475   	85.000000	0.145306  	85.000000	6.89967e-05	
90.000000	0.103577  	90.000000	0.139197  	90.000000	0.138812  	90.000000	0.138573  	90.000000	0.139131  	90.000000	6.54635e-05	
95.000000	0.0994492 	95.000000	0.133635  	95.000000	0.133255  	95.000000	0.133011  	95.000000	0.133572  	95.000000	6.22869e-05	
100.000000	0.0957059 	100.000000	0.1286    	100.000000	0.128224  	100.000000	0.127975  	100.000000	0.128541  	100.000000	5.94149e-05	
105.000000	0.0922946 	105.000000	0.124021  	105.000000	0.123647  	105.000000	0.123395  	105.000000	0.123965  	105.000000	5.68051e-05	
110.000000	0.0891719 	110.000000	0.119838  	110.000000	0.119453  	110.000000	0.119209  	110.000000	0.119784  	110.000000	5.44228e-05	
115.000000	0.0863019 	115.000000	0.116001  	115.000000	0.115611  	115.000000	0.115369  	115.000000	0.115949  	115.000000	5.22392e-05	
120.000000	0.0836544 	120.000000	0.112468  	120.000000	0.112081  	120.000000	0.111834  	120.000000	0.112418  	120.000000	5.02301e-05	
125.000000	0.0812037 	125.000000	0.109205  	125.000000	0.108814  	125.000000	0.108568  	125.000000	0.109156  	125.000000	4.83752e-05	
130.000000	0.0789283 	130.000000	0.106181  	130.000000	0.105779  	130.000000	0.105542  	130.000000	0.106134  	130.000000	4.66571e-05	
135.000000	0.0768094 	135.000000	0.103371  	135.000000	0.102967  	135.000000	0.102729  	135.000000	0.103326  	135.000000	4.50611e-05	
140.000000	0.0748311 	140.000000	0.100752  	140.000000	0.10035   	140.000000	0.100109  	140.000000	0.100709  	140.000000	4.35745e-05	
145.000000	0.0729794 	145.000000	0.0983068 	145.000000	0.0979014 	145.000000	0.097661  	145.000000	0.0982646 	145.000000	4.21863e-05	
150.000000	0.0712423 	150.000000	0.0960172 	150.000000	0.0956028 	150.000000	0.0953697 	150.000000	0.0959764 	150.000000	4.08868e-05	
155.000000	0.0687964 	155.000000	0.0938691 	155.000000	0.093453  	155.000000	0.0932202 	155.000000	0.0938295 	155.000000	3.96678e-05	
160.000000	0.0673628 	160.000000	0.0918498 	160.000000	0.0914328 	160.000000	0.0911996 	160.000000	0.0918112 	160.000000	3.8522e-05	
165.000000	0.0660109 	165.000000	0.0899478 	165.000000	0.0895238 	165.000000	0.0892967 	165.000000	0.0899104 	165.000000	3.74427e-05	
170.000000	0.0647338 	170.000000	0.0881533 	170.000000	0.0877259 	170.000000	0.0875016 	170.000000	0.0881169 	170.000000	3.64244e-05	
175.000000	0.0635254 	175.000000	0.0864573 	175.000000	0.0860318 	175.000000	0.0858052 	175.000000	0.0864219 	175.000000	3.5462e-05	
180.000000	0.0623803 	180.000000	0.084852  	180.000000	0.0844286 	180.000000	0.0841998 	180.000000	0.0848174 	180.000000	3.45508e-05	
185.000000	0.0612934 	185.000000	0.0833302 	185.000000	0.0829053 	185.000000	0.0826782 	185.000000	0.0832965 	185.000000	3.3687e-05	
190.000000	0.0602605 	190.000000	0.0818856 	190.000000	0.0814558 	190.000000	0.081234  	190.000000	0.0818527 	190.000000	3.28668e-05	
195.000000	0.0592775 	195.000000	0.0805124 	195.000000	0.0800814 	195.000000	0.0798615 	195.000000	0.0804803 	195.000000	3.2087e-05	
200.000000	0.0583409 	200.000000	0.0792055 	200.000000	0.0787769 	200.000000	0.0785555 	200.000000	0.0791742 	200.000000	3.13446e-05	
210.000000	0.0565942 	210.000000	0.0767723 	210.000000	0.0763394 	210.000000	0.0761247 	210.000000	0.0767423 	210.000000	2.99618e-05	
220.000000	0.0549978 	220.000000	0.0745533 	220.000000	0.0741238 	220.000000	0.073909  	220.000000	0.0745246 	220.000000	2.86998e-05	
230.000000	0.0535329 	230.000000	0.0725215 	230.000000	0.0720906 	230.000000	0.0718813 	230.000000	0.072494  	230.000000	2.75432e-05	
240.000000	0.0521838 	240.000000	0.0706543 	240.000000	0.0702262 	240.000000	0.0700188 	240.000000	0.0706279 	240.000000	2.64794e-05	
250.000000	0.0509373 	250.000000	0.0689326 	250.000000	0.0685124 	250.000000	0.0683024 	250.000000	0.0689071 	250.000000	2.54973e-05	
260.000000	0.0497821 	260.000000	0.0673401 	260.000000	0.0669227 	260.000000	0.0667157 	260.000000	0.0673156 	260.000000	2.45879e-05	
270.000000	0.0487083 	270.000000	0.065863  	270.000000	0.0654475 	270.000000	0.0652449 	270.000000	0.0658393 	270.000000	2.37433e-05	
280.000000	0.0477078 	280.000000	0.0644892 	280.000000	0.0640814 	280.000000	0.0638777 	280.000000	0.0644662 	280.000000	2.29567e-05	
290.000000	0.0467733 	290.000000	0.0632084 	290.000000	0.0628028 	290.000000	0.0626039 	290.000000	0.0631862 	290.000000	2.22222e-05	
300.000000	0.0458985 	300.000000	0.0620116 	300.000000	0.0616119 	300.000000	0.0614144 	300.000000	0.0619901 	300.000000	2.15349e-05	
310.000000	0.0450779 	310.000000	0.060891  	310.000000	0.0604988 	310.000000	0.0603013 	310.000000	0.0608701 	310.000000	2.08902e-05	
320.000000	0.0443066 	320.000000	0.0598395 	320.000000	0.0594506 	320.000000	0.0592576 	320.000000	0.0598192 	320.000000	2.02842e-05	
330.000000	0.0435803 	330.000000	0.0588512 	330.000000	0.0584694 	330.000000	0.0582771 	330.000000	0.0588315 	330.000000	1.97136e-05	
340.000000	0.0428953 	340.000000	0.0579205 	340.000000	0.057547  	340.000000	0.0573545 	340.000000	0.0579014 	340.000000	1.91753e-05	
350.000000	0.0422482 	350.000000	0.0570428 	350.000000	0.0566735 	350.000000	0.0564849 	350.000000	0.0570241 	350.000000	1.86665e-05	
360.000000	0.041636  	360.000000	0.0562137 	360.000000	0.0558511 	360.000000	0.0556641 	360.000000	0.0561955 	360.000000	1.8185e-05	
370.000000	0.041056  	370.000000	0.0554295 	370.000000	0.0550713 	370.000000	0.0548834 	370.000000	0.0554117 	370.000000	1.77285e-05	
380.000000	0.0405058 	380.000000	0.0546866 	380.000000	0.0543301 	380.000000	0.0541444 	380.000000	0.0546693 	380.000000	1.72951e-05	
390.000000	0.0399831 	390.000000	0.053982  	390.000000	0.0536265 	390.000000	0.0534438 	390.000000	0.0539651 	390.000000	1.68831e-05	
400.000000	0.0394861 	400.000000	0.0533129 	400.000000	0.0529616 	400.000000	0.052779  	400.000000	0.0532964 	400.000000	1.64909e-05	
410.000000	0.0390129 	410.000000	0.0526768 	410.000000	0.0523302 	410.000000	0.0521472 	410.000000	0.0526607 	410.000000	1.61171e-05	
420.000000	0.038562  	420.000000	0.0520714 	420.000000	0.051727  	420.000000	0.0515463 	420.000000	0.0520556 	420.000000	1.57605e-05	
430.000000	0.0381317 	430.000000	0.0514946 	430.000000	0.0511522 	430.000000	0.0509741 	430.000000	0.0514792 	430.000000	1.54198e-05	
440.000000	0.0377209 	440.000000	0.0509446 	440.000000	0.0506067 	440.000000	0.0504287 	440.000000	0.0509295 	440.000000	1.50941e-05	
450.000000	0.0373283 	450.000000	0.0504195 	450.000000	0.0500869 	450.000000	0.0499083 	450.000000	0.0504047 	450.000000	1.47822e-05	
460.000000	0.0369527 	460.000000	0.0499178 	460.000000	0.0495887 	460.000000	0.0494114 	460.000000	0.0499034 	460.000000	1.44834e-05	
470.000000	0.0365931 	470.000000	0.0494382 	470.000000	0.0491113 	470.000000	0.0489365 	470.000000	0.049424  	470.000000	1.41969e-05	
480.000000	0.0362485 	480.000000	0.0489791 	480.000000	0.0486558 	480.000000	0.0484822 	480.000000	0.0489652 	480.000000	1.39218e-05	
490.000000	0.0359182 	490.000000	0.0485394 	490.000000	0.0482213 	490.000000	0.0480473 	490.000000	0.0485258 	490.000000	1.36576e-05	
500.000000	0.0356012 	500.000000	0.048118  	500.000000	0.047805  	500.000000	0.0476307 	500.000000	0.0481046 	500.000000	1.34035e-05	
520.000000	0.0350044 	520.000000	0.047326  	520.000000	0.0470189 	520.000000	0.046848  	520.000000	0.0473131 	520.000000	1.29236e-05	
540.000000	0.0344529 	540.000000	0.0465954 	540.000000	0.0462964 	540.000000	0.0461267 	540.000000	0.0465829 	540.000000	1.2478e-05	
560.000000	0.033942  	560.000000	0.04592   	560.000000	0.0456299 	560.000000	0.0454601 	560.000000	0.0459079 	560.000000	1.2063e-05	
580.000000	0.0334677 	580.000000	0.0452941 	580.000000	0.0450094 	580.000000	0.0448428 	580.000000	0.0452824 	580.000000	1.16757e-05	
600.000000	0.0330265 	600.000000	0.0447129 	600.000000	0.0444357 	600.000000	0.0442699 	600.000000	0.0447016 	600.000000	1.13132e-05	
620.000000	0.0326155 	620.000000	0.0441723 	620.000000	0.0439032 	620.000000	0.043737  	620.000000	0.0441613 	620.000000	1.09732e-05	
640.000000	0.0322319 	640.000000	0.0436685 	640.000000	0.0434044 	640.000000	0.0432405 	640.000000	0.0436579 	640.000000	1.06537e-05	
660.000000	0.0318733 	660.000000	0.0431983 	660.000000	0.042939  	660.000000	0.0427771 	660.000000	0.0431879 	660.000000	1.03529e-05	
680.000000	0.0315378 	680.000000	0.0427587 	680.000000	0.0425062 	680.000000	0.0423438 	680.000000	0.0427486 	680.000000	1.00691e-05	
700.000000	0.0312233 	700.000000	0.0423472 	700.000000	0.0421002 	700.000000	0.0419381 	700.000000	0.0423374 	700.000000	9.80102e-06	
720.000000	0.0309283 	720.000000	0.0419616 	720.000000	0.0417177 	720.000000	0.0415576 	720.000000	0.041952  	720.000000	9.54725e-06	
740.000000	0.0306512 	740.000000	0.0415997 	740.000000	0.0413589 	740.000000	0.0412004 	740.000000	0.0415904 	740.000000	9.30671e-06	
760.000000	0.0303907 	760.000000	0.0412598 	760.000000	0.0410232 	760.000000	0.0408645 	760.000000	0.0412507 	760.000000	9.07837e-06	
780.000000	0.0301456 	780.000000	0.0409402 	780.000000	0.0407074 	780.000000	0.0405484 	780.000000	0.0409313 	780.000000	8.86133e-06	
800.000000	0.0299149 	800.000000	0.0406394 	800.000000	0.0404084 	800.000000	0.0402505 	800.000000	0.0406307 	800.000000	8.65474e-06	
820.000000	0.0296974 	820.000000	0.0403561 	820.000000	0.0401256 	820.000000	0.0399695 	820.000000	0.0403476 	820.000000	8.45788e-06	
840.000000	0.0294924 	840.000000	0.040089  	840.000000	0.0398591 	840.000000	0.0397041 	840.000000	0.0400808 	840.000000	8.27005e-06	
860.000000	0.0292989 	860.000000	0.0398371 	860.000000	0.0396084 	860.000000	0.0394533 	860.000000	0.039829  	860.000000	8.09065e-06	
880.000000	0.0291164 	880.000000	0.0395994 	880.000000	0.0393715 	880.000000	0.039216  	880.000000	0.0395915 	880.000000	7.91911e-06	
900.000000	0.0289439 	900.000000	0.0393748 	900.000000	0.0391465 	900.000000	0.0389913 	900.000000	0.0393671 	900.000000	7.75493e-06	
920.000000	0.0287811 	920.000000	0.0391627 	920.000000	0.0389324 	920.000000	0.0387784 	920.000000	0.0391551 	920.000000	7.59763e-06	
940.000000	0.0286272 	940.000000	0.0389621 	940.000000	0.0387292 	940.000000	0.0385765 	940.000000	0.0389546 	940.000000	7.44678e-06	
960.000000	0.0284818 	960.000000	0.0387724 	960.000000	0.0385368 	960.000000	0.038385  	960.000000	0.0387651 	960.000000	7.302e-06 	
980.000000	0.0283443 	980.000000	0.038593  	980.000000	0.0383549 	980.000000	0.0382031 	980.000000	0.0385858 	980.000000	7.16292e-06	
1000.000000	0.0282143 	1000.000000	0.0384232 	1000.000000	0.0381823 	1000.000000	0.0380302 	1000.000000	0.0384162 	1000.000000	7.0292e-06	
1020.000000	0.0280914 	1020.000000	0.0382625 	1020.000000	0.0380181 	1020.000000	0.0378658 	1020.000000	0.0382556 	1020.000000	6.90055e-06	
1040.000000	0.0279752 	1040.000000	0.0381104 	1040.000000	0.0378613 	1040.000000	0.0377095 	1040.000000	0.0381036 	1040.000000	6.77666e-06	
1060.000000	0.0278654 	1060.000000	0.0379663 	1060.000000	0.0377116 	1060.000000	0.0375606 	1060.000000	0.0379597 	1060.000000	6.65729e-06	
1080.000000	0.0277616 	1080.000000	0.0378299 	1080.000000	0.0375688 	1080.000000	0.0374189 	1080.000000	0.0378234 	1080.000000	6.54218e-06	
1100.000000	0.0276635 	1100.000000	0.0377008 	1100.000000	0.0374329 	1100.000000	0.0372839 	1100.000000	0.0376944 	1100.000000	6.43112e-06	
1120.000000	0.0275709 	1120.000000	0.0375785 	1120.000000	0.0373038 	1120.000000	0.0371551 	1120.000000	0.0375722 	1120.000000	6.32387e-06	
1140.000000	0.0274834 	1140.000000	0.0374628 	1140.000000	0.0371811 	1140.000000	0.0370324 	1140.000000	0.0374566 	1140.000000	6.22026e-06	
1160.000000	0.0274008 	1160.000000	0.0373532 	1160.000000	0.0370642 	1160.000000	0.0369153 	1160.000000	0.0373471 	1160.000000	6.1201e-06	
1180.000000	0.0273228 	1180.000000	0.0372495 	1180.000000	0.0369526 	1180.000000	0.0368035 	1180.000000	0.0372435 	1180.000000	6.02321e-06	
1200.000000	0.0272494 	1200.000000	0.0371514 	1200.000000	0.0368459 	1200.000000	0.0366968 	1200.000000	0.0371455 	1200.000000	5.92944e-06	
1220.000000	0.0271802 	1220.000000	0.0370586 	1220.000000	0.0367436 	1220.000000	0.0365949 	1220.000000	0.0370528 	1220.000000	5.83864e-06	
1240.000000	0.027115  	1240.000000	0.0369709 	1240.000000	0.0366456 	1240.000000	0.0364975 	1240.000000	0.0369651 	1240.000000	5.75066e-06	
1260.000000	0.0270537 	1260.000000	0.036888  	1260.000000	0.0365518 	1260.000000	0.0364045 	1260.000000	0.0368823 	1260.000000	5.66538e-06	
1280.000000	0.0269962 	1280.000000	0.0368097 	1280.000000	0.0364621 	1280.000000	0.0363155 	1280.000000	0.0368041 	1280.000000	5.58267e-06	
1300.000000	0.0269422 	1300.000000	0.0367358 	1300.000000	0.0363765 	1300.000000	0.0362305 	1300.000000	0.0367303 	1300.000000	5.50242e-06	
1320.000000	0.0268916 	1320.000000	0.036666  	1320.000000	0.0362949 	1320.000000	0.0361491 	1320.000000	0.0366606 	1320.000000	5.42451e-06	
1340.000000	0.0268442 	1340.000000	0.0366004 	1340.000000	0.036217  	1340.000000	0.0360714 	1340.000000	0.036595  	1340.000000	5.34885e-06	
1360.000000	0.0268    	1360.000000	0.0365385 	1360.000000	0.0361427 	1360.000000	0.0359969 	1360.000000	0.0365332 	1360.000000	5.27534e-06	
1380.000000	0.0267588 	1380.000000	0.0364803 	1380.000000	0.0360716 	1380.000000	0.0359257 	1380.000000	0.0364751 	1380.000000	5.20388e-06	
1400.000000	0.0267204 	1400.000000	0.0364256 	1400.000000	0.0360036 	1400.000000	0.0358575 	1400.000000	0.0364205 	1400.000000	5.13439e-06	
1420.000000	0.0266849 	1420.000000	0.0363744 	1420.000000	0.0359384 	1420.000000	0.0357923 	1420.000000	0.0363693 	1420.000000	5.0668e-06	
1440.000000	0.0266519 	1440.000000	0.0363263 	1440.000000	0.0358759 	1440.000000	0.0357298 	1440.000000	0.0363213 	1440.000000	5.00101e-06	
1460.000000	0.0266216 	1460.000000	0.0362814 	1460.000000	0.0358159 	1460.000000	0.03567   	1460.000000	0.0362764 	1460.000000	4.93697e-06	
1480.000000	0.0265937 	1480.000000	0.0362394 	1480.000000	0.0357582 	1480.000000	0.0356128 	1480.000000	0.0362345 	1480.000000	4.87459e-06	
1500.000000	0.0265682 	1500.000000	0.0362003 	1500.000000	0.0357029 	1500.000000	0.035558  	1500.000000	0.0361955 	1500.000000	4.81383e-06	
1520.000000	0.0265449 	1520.000000	0.0361639 	1520.000000	0.0356499 	1520.000000	0.0355055 	1520.000000	0.0361592 	1520.000000	4.7546e-06	
1540.000000	0.0265239 	1540.000000	0.0361302 	1540.000000	0.0355992 	1540.000000	0.0354552 	1540.000000	0.0361255 	1540.000000	4.69687e-06	
1560.000000	0.026505  	1560.000000	0.036099  	1560.000000	0.0355506 	1560.000000	0.0354071 	1560.000000	0.0360944 	1560.000000	4.64056e-06	
1580.000000	0.0264882 	1580.000000	0.0360703 	1580.000000	0.0355041 	1580.000000	0.035361  	1580.000000	0.0360657 	1580.000000	4.58562e-06	
1600.000000	0.0264733 	1600.000000	0.036044  	1600.000000	0.0354598 	1600.000000	0.0353168 	1600.000000	0.0360394 	1600.000000	4.53202e-06	
1620.000000	0.0264603 	1620.000000	0.0360199 	1620.000000	0.0354174 	1620.000000	0.0352746 	1620.000000	0.0360154 	1620.000000	4.47969e-06	
1640.000000	0.0264492 	1640.000000	0.035998  	1640.000000	0.0353769 	1640.000000	0.0352341 	1640.000000	0.0359936 	1640.000000	4.42859e-06	
1660.000000	0.0264399 	1660.000000	0.0359782 	1660.000000	0.0353382 	1660.000000	0.0351954 	1660.000000	0.0359738 	1660.000000	4.37869e-06	
1680.000000	0.0264323 	1680.000000	0.0359605 	1680.000000	0.0353012 	1680.000000	0.0351583 	1680.000000	0.0359561 	1680.000000	4.32993e-06	
1700.000000	0.0264264 	1700.000000	0.0359447 	1700.000000	0.0352658 	1700.000000	0.0351228 	1700.000000	0.0359404 	1700.000000	4.28227e-06	
1750.000000	0.0264186 	1750.000000	0.0359134 	1750.000000	0.0351838 	1750.000000	0.0350406 	1750.000000	0.0359092 	1750.000000	4.16775e-06	
1800.000000	0.0264202 	1800.000000	0.035893  	1800.000000	0.0351102 	1800.000000	0.0349671 	1800.000000	0.0358889 	1800.000000	4.05937e-06	
1850.000000	0.0264305 	1850.000000	0.0358826 	1850.000000	0.0350442 	1850.000000	0.0349015 	1850.000000	0.0358786 	1850.000000	3.95665e-06	
1900.000000	0.0264488 	1900.000000	0.0358814 	1900.000000	0.034985  	1900.000000	0.0348429 	1900.000000	0.0358776 	1900.000000	3.85916e-06	
1950.000000	0.0264747 	1950.000000	0.0358888 	1950.000000	0.0349323 	1950.000000	0.0347909 	1950.000000	0.035885  	1950.000000	3.7665e-06	
2000.000000	0.0265075 	2000.000000	0.035904  	2000.000000	0.0348855 	2000.000000	0.0347448 	2000.000000	0.0359004 	2000.000000	3.67832e-06	
2100.000000	0.0265924 	2100.000000	0.0359559 	2100.000000	0.0348082 	2100.000000	0.0346684 	2100.000000	0.0359524 	2100.000000	3.51414e-06	
2200.000000	0.0267003 	2200.000000	0.0360332 	2200.000000	0.0347495 	2200.000000	0.0346103 	2200.000000	0.0360298 	2200.000000	3.36439e-06	
2300.000000	0.0268286 	2300.000000	0.0361324 	2300.000000	0.0347064 	2300.000000	0.0345675 	2300.000000	0.0361292 	2300.000000	3.22724e-06	
2400.000000	0.026975  	2400.000000	0.0362509 	2400.000000	0.0346765 	2400.000000	0.0345377 	2400.000000	0.0362478 	2400.000000	3.10115e-06	
2500.000000	0.0271377 	2500.000000	0.0363863 	2500.000000	0.0346576 	2500.000000	0.034519  	2500.000000	0.0363833 	2500.000000	2.98482e-06	
2600.000000	0.027315  	2600.000000	0.0365366 	2600.000000	0.0346481 	2600.000000	0.0345097 	2600.000000	0.0365338 	2600.000000	2.87715e-06	
2700.000000	0.0275056 	2700.000000	0.0367003 	2700.000000	0.0346467 	2700.000000	0.0345085 	2700.000000	0.0366975 	2700.000000	2.77719e-06	
2800.000000	0.0277083 	2800.000000	0.0368758 	2800.000000	0.0346521 	2800.000000	0.0345143 	2800.000000	0.0368731 	2800.000000	2.68414e-06	
2900.000000	0.0279221 	2900.000000	0.0370619 	2900.000000	0.0346634 	2900.000000	0.034526  	2900.000000	0.0370593 	2900.000000	2.5973e-06	
3000.000000	0.0281461 	3000.000000	0.0372575 	3000.000000	0.0346799 	3000.000000	0.0345428 	3000.000000	0.0372549 	3000.000000	2.51606e-06	
3200.000000	0.0286215 	3200.000000	0.0376736 	3200.000000	0.0347254 	3200.000000	0.0345892 	3200.000000	0.0376712 	3200.000000	2.36833e-06	
3400.000000	0.0291293 	3400.000000	0.0381179 	3400.000000	0.0347844 	3400.000000	0.0346489 	3400.000000	0.0381156 	3400.000000	2.23744e-06	
3600.000000	0.0296655 	3600.000000	0.0385855 	3600.000000	0.0348534 	3600.000000	0.0347185 	3600.000000	0.0385834 	3600.000000	2.12064e-06	
3800.000000	0.0302267 	3800.000000	0.0390726 	3800.000000	0.03493   	3800.000000	0.0347954 	3800.000000	0.0390706 	3800.000000	2.01575e-06	
4000.000000	0.0308104 	4000.000000	0.0395762 	4000.000000	0.0350122 	4000.000000	0.0348778 	4000.000000	0.0395743 	4000.000000	1.92102e-06	
4200.000000	0.0314144 	4200.000000	0.0400938 	4200.000000	0.0350984 	4200.000000	0.0349642 	4200.000000	0.0400919 	4200.000000	1.83503e-06	
4400.000000	0.032037  	4400.000000	0.0406233 	4400.000000	0.0351875 	4400.000000	0.0350533 	4400.000000	0.0406215 	4400.000000	1.75661e-06	
4600.000000	0.0326765 	4600.000000	0.0411631 	4600.000000	0.0352784 	4600.000000	0.0351443 	4600.000000	0.0411614 	4600.000000	1.6848e-06	
4800.000000	0.0333319 	4800.000000	0.0417117 	4800.000000	0.0353705 	4800.000000	0.0352365 	4800.000000	0.0417101 	4800.000000	1.61879e-06	
5000.000000	0.0340021 	5000.000000	0.0422681 	5000.000000	0.0354632 	5000.000000	0.0353293 	5000.000000	0.0422665 	5000.000000	1.5579e-06	
5250.000000	0.0348593 	5250.000000	0.0429729 	5250.000000	0.0355793 	5250.000000	0.0354456 	5250.000000	0.0429714 	5250.000000	1.4881e-06	
5500.000000	0.0357367 	5500.000000	0.0436866 	5500.000000	0.0356951 	5500.000000	0.0355615 	5500.000000	0.0436852 	5500.000000	1.42446e-06	
6000.000000	0.0375476 	6000.000000	0.0451358 	6000.000000	0.0359238 	6000.000000	0.0357906 	6000.000000	0.0451345 	6000.000000	1.3126e-06	
6500.000000	0.0394274 	6500.000000	0.0466074 	6500.000000	0.036147  	6500.000000	0.0360142 	6500.000000	0.0466062 	6500.000000	1.21745e-06	
7000.000000	0.0413704 	7000.000000	0.0480959 	7000.000000	0.0363634 	7000.000000	0.0362308 	7000.000000	0.0480947 	7000.000000	1.13549e-06	
7500.000000	0.0433728 	7500.000000	0.0495969 	7500.000000	0.0365724 	7500.000000	0.0364401 	7500.000000	0.0495958 	7500.000000	1.06414e-06	
8000.000000	0.0454314 	8000.000000	0.0511074 	8000.000000	0.036774  	8000.000000	0.0366417 	8000.000000	0.0511064 	8000.000000	1.00144e-06	
8500.000000	0.047544  	8500.000000	0.0526252 	8500.000000	0.0369677 	8500.000000	0.0368357 	8500.000000	0.0526243 	8500.000000	9.459e-07 	
9000.000000	0.0497086 	9000.000000	0.0541485 	9000.000000	0.0371537 	9000.000000	0.0370225 	9000.000000	0.0541476 	9000.000000	8.9635e-07	
9500.000000	0.0519239 	9500.000000	0.0556759 	9500.000000	0.0373325 	9500.000000	0.0372022 	9500.000000	0.055675  	9500.000000	8.51862e-07	
10000.000000	0.0541888 	10000.000000	0.0572063 	10000.000000	0.0375048 	10000.000000	0.0373752 	10000.000000	0.0572055 	10000.000000	8.11692e-07	
11000.000000	0.0588635 	11000.000000	0.060273  	11000.000000	0.0378311 	11000.000000	0.0377024 	11000.000000	0.0602723 	11000.000000	7.41995e-07	
12000.000000	0.0637274 	12000.000000	0.0633439 	12000.000000	0.0381352 	12000.000000	0.0380069 	12000.000000	0.0633432 	12000.000000	6.83587e-07	
13000.000000	0.0687767 	13000.000000	0.0664157 	13000.000000	0.0384188 	13000.000000	0.038291  	13000.000000	0.0664151 	13000.000000	6.33912e-07	
14000.000000	0.074009  	14000.000000	0.0694864 	14000.000000	0.0386838 	14000.000000	0.0385571 	14000.000000	0.0694858 	14000.000000	5.91133e-07	
15000.000000	0.0794228 	15000.000000	0.0725546 	15000.000000	0.0389324 	15000.000000	0.038807  	15000.000000	0.072554  	15000.000000	5.53897e-07	
16000.000000	0.0850169 	16000.000000	0.0756192 	16000.000000	0.0391665 	16000.000000	0.0390425 	16000.000000	0.0756187 	16000.000000	5.21184e-07	
17000.000000	0.0907908 	17000.000000	0.0786798 	17000.000000	0.0393876 	17000.000000	0.0392649 	17000.000000	0.0786793 	17000.000000	4.92211e-07	
18000.000000	0.0967441 	18000.000000	0.0817359 	18000.000000	0.0395971 	18000.000000	0.0394756 	18000.000000	0.0817354 	18000.000000	4.66366e-07	
19000.000000	0.102877  	19000.000000	0.0847872 	19000.000000	0.039796  	19000.000000	0.0396757 	19000.000000	0.0847868 	19000.000000	4.43164e-07	
20000.000000	0.109189  	20000.000000	0.0878336 	20000.000000	0.0399855 	20000.000000	0.0398661 	20000.000000	0.0878332 	20000.000000	4.22218e-07	
21000.000000	0.115681  	21000.000000	0.090875  	21000.000000	0.0401657 	21000.000000	0.0400476 	21000.000000	0.0908746 	21000.000000	4.0321e-07	
22000.000000	0.122353  	22000.000000	0.0939113 	22000.000000	0.0403369 	22000.000000	0.0402211 	22000.000000	0.093911  	22000.000000	3.85881e-07	
23000.000000	0.129205  	23000.000000	0.0969427 	23000.000000	0.0405015 	23000.000000	0.0403871 	23000.000000	0.0969423 	23000.000000	3.70016e-07	
24000.000000	0.136239  	24000.000000	0.0999691 	24000.000000	0.0406599 	24000.000000	0.0405463 	24000.000000	0.0999687 	24000.000000	3.55437e-07	
25000.000000	0.143454  	25000.000000	0.102991  	25000.000000	0.0408116 	25000.000000	0.0406992 	25000.000000	0.10299   	25000.000000	3.41991e-07	
26000.000000	0.150852  	26000.000000	0.106007  	26000.000000	0.0409569 	26000.000000	0.0408462 	26000.000000	0.106007  	26000.000000	3.2955e-07	
27000.000000	0.158433  	27000.000000	0.109019  	27000.000000	0.0410963 	27000.000000	0.0409878 	27000.000000	0.109019  	27000.000000	3.18004e-07	
28000.000000	0.166197  	28000.000000	0.112026  	28000.000000	0.0412305 	28000.000000	0.0411243 	28000.000000	0.112026  	28000.000000	3.07261e-07	
29000.000000	0.174147  	29000.000000	0.115029  	29000.000000	0.04136   	29000.000000	0.0412561 	29000.000000	0.115029  	29000.000000	2.97237e-07	
30000.000000	0.182281  	30000.000000	0.118027  	30000.000000	0.0414852 	30000.000000	0.0413834 	30000.000000	0.118027  	30000.000000	2.87863e-07	
32000.000000	0.199111  	32000.000000	0.12401   	32000.000000	0.0417238 	32000.000000	0.041626  	32000.000000	0.12401   	32000.000000	2.70824e-07	
34000.000000	0.216693  	34000.000000	0.129977  	34000.000000	0.0419477 	34000.000000	0.0418539 	34000.000000	0.129976  	34000.000000	2.55736e-07	
36000.000000	0.235034  	36000.000000	0.135927  	36000.000000	0.0421579 	36000.000000	0.0420688 	36000.000000	0.135927  	36000.000000	2.42278e-07	
38000.000000	0.254143  	38000.000000	0.141862  	38000.000000	0.0423557 	38000.000000	0.042272  	38000.000000	0.141862  	38000.000000	2.30199e-07	
40000.000000	0.274026  	40000.000000	0.147782  	40000.000000	0.0425426 	40000.000000	0.0424648 	40000.000000	0.147782  	40000.000000	2.19295e-07	
42000.000000	0.294693  	42000.000000	0.153689  	42000.000000	0.0427203 	42000.000000	0.0426481 	42000.000000	0.153689  	42000.000000	2.09401e-07	
44000.000000	0.316151  	44000.000000	0.159582  	44000.000000	0.0428898 	44000.000000	0.0428228 	44000.000000	0.159581  	44000.000000	2.00382e-07	
46000.000000	0.338409  	46000.000000	0.165462  	46000.000000	0.0430521 	46000.000000	0.0429897 	46000.000000	0.165461  	46000.000000	1.92126e-07	
48000.000000	0.361474  	48000.000000	0.171329  	48000.000000	0.0432075 	48000.000000	0.0431494 	48000.000000	0.171329  	48000.000000	1.8454e-07	
50000.000000	0.385355  	50000.000000	0.177185  	50000.000000	0.0433558 	50000.000000	0.0433025 	50000.000000	0.177185  	50000.000000	1.77544e-07	
