Energy (MeV/u)1	0 - [He-base] F.Hubert et al, AD&ND Tables 46(1990)1	Energy (MeV/u)2	1 - [H -base] J.F.Ziegler et al, Pergamon Press, NY (low energy)	Energy (MeV/u)3	2 - ATIMA 1.2  LS-theory (recommended for high energy)	Energy (MeV/u)4	3 - ATIMA 1.2  without LS-correction	Energy (MeV/u)5	4 - electrical component of [1] - J.F.Ziegler et al	Energy (MeV/u)6	5 - nuclear component of [1] - J.F.Ziegler et al	
0.001000	0.268116  	0.001000	0.0447755 	0.001000	0.0460906 	0.001000	0.0460906 	0.001000	0.0345099 	0.001000	0.0102656 	
0.002000	0.349998  	0.002000	0.0698244 	0.002000	0.0721002 	0.002000	0.0721002 	0.002000	0.0597197 	0.002000	0.0101047 	
0.005000	0.547928  	0.005000	0.125604  	0.005000	0.130062  	0.005000	0.130062  	0.005000	0.116987  	0.005000	0.0086176 	
0.008000	0.694964  	0.008000	0.167676  	0.008000	0.173781  	0.008000	0.173781  	0.008000	0.160236  	0.008000	0.00743975	
0.010000	0.775506  	0.010000	0.191414  	0.010000	0.198447  	0.010000	0.198447  	0.010000	0.184579  	0.010000	0.00683473	
0.015000	0.990209  	0.015000	0.238964  	0.015000	0.250677  	0.015000	0.250677  	0.015000	0.233239  	0.015000	0.00572455	
0.020000	1.16969   	0.020000	0.27837   	0.020000	0.294594  	0.020000	0.294594  	0.020000	0.273406  	0.020000	0.00496445	
0.025000	1.32267   	0.025000	0.312327  	0.025000	0.333561  	0.025000	0.333561  	0.025000	0.30792   	0.025000	0.00440672	
0.030000	1.4538    	0.030000	0.342264  	0.030000	0.360264  	0.030000	0.360264  	0.030000	0.338287  	0.030000	0.0039772 	
0.035000	1.56586   	0.035000	0.369041  	0.035000	0.383996  	0.035000	0.383996  	0.035000	0.365406  	0.035000	0.00363452	
0.040000	1.66078   	0.040000	0.393218  	0.040000	0.405377  	0.040000	0.405377  	0.040000	0.389864  	0.040000	0.00335371	
0.045000	1.74012   	0.045000	0.415182  	0.045000	0.424819  	0.045000	0.424819  	0.045000	0.412063  	0.045000	0.00311869	
0.050000	1.80524   	0.050000	0.435216  	0.050000	0.442612  	0.050000	0.442612  	0.050000	0.432297  	0.050000	0.00291863	
0.055000	1.8575    	0.055000	0.453533  	0.055000	0.458965  	0.055000	0.458965  	0.055000	0.450787  	0.055000	0.00274594	
0.060000	1.89821   	0.060000	0.470303  	0.060000	0.474036  	0.060000	0.474036  	0.060000	0.467708  	0.060000	0.00259511	
0.070000	1.9503    	0.070000	0.499729  	0.070000	0.500797  	0.070000	0.500797  	0.070000	0.497385  	0.070000	0.00234369	
0.080000	1.97161   	0.080000	0.524364  	0.080000	0.523623  	0.080000	0.523623  	0.080000	0.522222  	0.080000	0.00214186	
0.090000	1.9711    	0.090000	0.544878  	0.090000	0.543034  	0.090000	0.543034  	0.090000	0.542902  	0.090000	0.00197574	
0.100000	1.95612   	0.100000	0.561822  	0.100000	0.559435  	0.100000	0.559435  	0.100000	0.559985  	0.100000	0.00183628	
0.120000	1.90354   	0.120000	0.586801  	0.120000	0.584495  	0.120000	0.584495  	0.120000	0.585202  	0.120000	0.00159945	
0.140000	1.84143   	0.140000	0.602424  	0.140000	0.601082  	0.140000	0.601082  	0.140000	0.600992  	0.140000	0.00143215	
0.160000	1.78154   	0.160000	0.611054  	0.160000	0.610994  	0.160000	0.610994  	0.160000	0.609754  	0.160000	0.00129952	
0.180000	1.72757   	0.180000	0.614518  	0.180000	0.615723  	0.180000	0.615723  	0.180000	0.613326  	0.180000	0.0011915 	
0.200000	1.67979   	0.200000	0.614202  	0.200000	0.616482  	0.200000	0.616482  	0.200000	0.6131    	0.200000	0.00110163	
0.250000	1.58115   	0.250000	0.603062  	0.250000	0.606905  	0.250000	0.606905  	0.250000	0.602131  	0.250000	0.000930914	
0.300000	1.50059   	0.300000	0.584307  	0.300000	0.588386  	0.300000	0.588386  	0.300000	0.583497  	0.300000	0.00080954	
0.350000	1.42958   	0.350000	0.562788  	0.350000	0.56639   	0.350000	0.56639   	0.350000	0.562069  	0.350000	0.000718371	
0.400000	1.36453   	0.400000	0.540804  	0.400000	0.543671  	0.400000	0.543671  	0.400000	0.540157  	0.400000	0.000647129	
0.450000	1.30412   	0.450000	0.519437  	0.450000	0.521562  	0.450000	0.521562  	0.450000	0.518847  	0.450000	0.000589773	
0.500000	1.24784   	0.500000	0.499174  	0.500000	0.500653  	0.500000	0.500653  	0.500000	0.498632  	0.500000	0.000542508	
0.600000	1.14671   	0.600000	0.462556  	0.600000	0.463127  	0.600000	0.463127  	0.600000	0.462087  	0.600000	0.000468979	
0.700000	1.0594    	0.700000	0.431033  	0.700000	0.431125  	0.700000	0.431125  	0.700000	0.430619  	0.700000	0.000414222	
0.800000	0.984016  	0.800000	0.403946  	0.800000	0.403837  	0.800000	0.403837  	0.800000	0.403574  	0.800000	0.000371722	
0.900000	0.918674  	0.900000	0.380541  	0.900000	0.380392  	0.900000	0.380392  	0.900000	0.380203  	0.900000	0.000337693	
1.000000	0.861677  	1.000000	0.36015   	1.000000	0.360045  	1.000000	0.360045  	1.000000	0.35984   	1.000000	0.00030978	
1.250000	0.746981  	1.250000	0.31903   	1.250000	0.319171  	1.250000	0.319171  	1.250000	0.318772  	1.250000	0.000257746	
1.500000	0.660376  	1.500000	0.28772   	1.500000	0.288115  	1.500000	0.288115  	1.500000	0.287499  	1.500000	0.000221544	
1.750000	0.592546  	1.750000	0.262907  	1.750000	0.263502  	1.750000	0.263502  	1.750000	0.262712  	1.750000	0.000194791	
2.000000	0.53788   	2.000000	0.242647  	2.000000	0.243387  	2.000000	0.243387  	2.000000	0.242473  	2.000000	0.000174153	
2.250000	0.492823  	2.250000	0.22573   	2.250000	0.226569  	2.250000	0.226569  	2.250000	0.225573  	2.250000	0.000157712	
2.500000	0.447396  	2.500000	0.211358  	2.500000	0.212263  	2.500000	0.212263  	2.500000	0.211213  	2.500000	0.000144283	
3.000000	0.390509  	3.000000	0.188183  	3.000000	0.189152  	3.000000	0.189152  	3.000000	0.18806   	3.000000	0.000123614	
3.500000	0.347387  	3.500000	0.170257  	3.500000	0.171237  	3.500000	0.171237  	3.500000	0.170149  	3.500000	0.000108403	
4.000000	0.313472  	4.000000	0.155942  	4.000000	0.156904  	4.000000	0.156904  	4.000000	0.155845  	4.000000	9.67078e-05	
4.500000	0.286041  	4.500000	0.144221  	4.500000	0.145154  	4.500000	0.145154  	4.500000	0.144134  	4.500000	8.74173e-05	
5.000000	0.263359  	5.000000	0.134431  	5.000000	0.135326  	5.000000	0.135326  	5.000000	0.134351  	5.000000	7.98467e-05	
5.500000	0.244266  	5.500000	0.126115  	5.500000	0.126972  	5.500000	0.126972  	5.500000	0.126042  	5.500000	7.35511e-05	
6.000000	0.227956  	6.000000	0.118954  	6.000000	0.11977   	6.000000	0.11977   	6.000000	0.118885  	6.000000	6.82279e-05	
6.500000	0.213849  	6.500000	0.112712  	6.500000	0.113489  	6.500000	0.113489  	6.500000	0.112648  	6.500000	6.3664e-05	
7.000000	0.201518  	7.000000	0.107215  	7.000000	0.107956  	7.000000	0.107956  	7.000000	0.107155  	7.000000	5.9705e-05	
7.500000	0.190642  	7.500000	0.102332  	7.500000	0.103037  	7.500000	0.103037  	7.500000	0.102276  	7.500000	5.6236e-05	
8.000000	0.180971  	8.000000	0.0979602 	8.000000	0.0986319 	8.000000	0.0986319 	8.000000	0.097907  	8.000000	5.31696e-05	
8.500000	0.172313  	8.500000	0.0940191 	8.500000	0.0946592 	8.500000	0.0946592 	8.500000	0.0939687 	8.500000	5.04384e-05	
9.000000	0.164512  	9.000000	0.0904448 	9.000000	0.0910551 	9.000000	0.0910551 	9.000000	0.0903968 	9.000000	4.79893e-05	
9.500000	0.157445  	9.500000	0.0871855 	9.500000	0.0877678 	9.500000	0.0877678 	9.500000	0.0871397 	9.500000	4.57798e-05	
10.000000	0.151012  	10.000000	0.0849833 	10.000000	0.084755  	10.000000	0.084755  	10.000000	0.0849395 	10.000000	4.37759e-05	
11.000000	0.139725  	11.000000	0.0803072 	11.000000	0.07965   	11.000000	0.0796576 	11.000000	0.0802669 	11.000000	4.02779e-05	
12.000000	0.13014   	12.000000	0.0760971 	12.000000	0.0752335 	12.000000	0.0752461 	12.000000	0.0760598 	12.000000	3.73244e-05	
13.000000	0.121893  	13.000000	0.0723029 	13.000000	0.0713666 	13.000000	0.0713807 	13.000000	0.0722681 	13.000000	3.47955e-05	
14.000000	0.114716  	14.000000	0.0688749 	14.000000	0.0679454 	14.000000	0.0679587 	14.000000	0.0688423 	14.000000	3.26043e-05	
15.000000	0.108411  	15.000000	0.0657678 	15.000000	0.0648896 	15.000000	0.0649028 	15.000000	0.0657371 	15.000000	3.06864e-05	
16.000000	0.102825  	16.000000	0.0629417 	16.000000	0.0621402 	16.000000	0.062153  	16.000000	0.0629127 	16.000000	2.89927e-05	
17.000000	0.0978401 	17.000000	0.0603621 	17.000000	0.0596511 	17.000000	0.0596622 	17.000000	0.0603346 	17.000000	2.74854e-05	
18.000000	0.0933617 	18.000000	0.0579993 	18.000000	0.0573844 	18.000000	0.0573929 	18.000000	0.0579731 	18.000000	2.61349e-05	
19.000000	0.0893154 	19.000000	0.0558279 	19.000000	0.0553083 	19.000000	0.0553145 	19.000000	0.055803  	19.000000	2.49176e-05	
20.000000	0.0856404 	20.000000	0.053826  	20.000000	0.0533913 	20.000000	0.0533974 	20.000000	0.0538022 	20.000000	2.38143e-05	
21.000000	0.0822869 	21.000000	0.0519749 	21.000000	0.0516237 	21.000000	0.0516305 	21.000000	0.0519521 	21.000000	2.28094e-05	
22.000000	0.0792136 	22.000000	0.0502583 	22.000000	0.0499866 	22.000000	0.0499917 	22.000000	0.0502364 	22.000000	2.18901e-05	
23.000000	0.0763863 	23.000000	0.0486622 	23.000000	0.048465  	23.000000	0.0484665 	23.000000	0.0486411 	23.000000	2.10458e-05	
24.000000	0.073776  	24.000000	0.0471744 	24.000000	0.0470445 	24.000000	0.0470425 	24.000000	0.0471541 	24.000000	2.02674e-05	
25.000000	0.0713582 	25.000000	0.0457842 	25.000000	0.0457144 	25.000000	0.0457092 	25.000000	0.0457647 	25.000000	1.95475e-05	
27.000000	0.0670193 	27.000000	0.0432609 	27.000000	0.0432928 	27.000000	0.0432795 	27.000000	0.0432426 	27.000000	1.8258e-05	
29.000000	0.0632345 	29.000000	0.0410303 	29.000000	0.0411347 	29.000000	0.0411182 	29.000000	0.0410132 	29.000000	1.71358e-05	
31.000000	0.0599024 	31.000000	0.0390443 	31.000000	0.0391769 	31.000000	0.0391595 	31.000000	0.0390281 	31.000000	1.61498e-05	
33.000000	0.0569449 	33.000000	0.0372643 	33.000000	0.0374073 	33.000000	0.0373845 	33.000000	0.0372491 	33.000000	1.52763e-05	
35.000000	0.0543011 	35.000000	0.0356599 	35.000000	0.0358092 	35.000000	0.0357876 	35.000000	0.0356454 	35.000000	1.44968e-05	
38.000000	0.0508205 	38.000000	0.0335289 	38.000000	0.0336949 	38.000000	0.0336698 	38.000000	0.0335154 	38.000000	1.34726e-05	
41.000000	0.047814  	41.000000	0.0316716 	41.000000	0.0318514 	41.000000	0.0318258 	41.000000	0.031659  	41.000000	1.25898e-05	
44.000000	0.0451893 	44.000000	0.0300379 	44.000000	0.030227  	44.000000	0.0302043 	44.000000	0.0300261 	44.000000	1.18206e-05	
47.000000	0.0428767 	47.000000	0.0285895 	47.000000	0.0287921 	47.000000	0.0287663 	47.000000	0.0285784 	47.000000	1.11441e-05	
50.000000	0.0408226 	50.000000	0.0272962 	50.000000	0.0275076 	50.000000	0.0274816 	50.000000	0.0272856 	50.000000	1.05443e-05	
55.000000	0.0378639 	55.000000	0.0254226 	55.000000	0.0256469 	55.000000	0.0256186 	55.000000	0.0254129 	55.000000	9.68201e-06	
60.000000	0.0353657 	60.000000	0.0238315 	60.000000	0.02406   	60.000000	0.0240339 	60.000000	0.0238226 	60.000000	8.95578e-06	
65.000000	0.0332265 	65.000000	0.0224629 	65.000000	0.0226951 	65.000000	0.0226684 	65.000000	0.0224546 	65.000000	8.33532e-06	
70.000000	0.0313726 	70.000000	0.0212728 	70.000000	0.0215058 	70.000000	0.0214787 	70.000000	0.021265  	70.000000	7.79878e-06	
75.000000	0.0297494 	75.000000	0.020228  	75.000000	0.0204573 	75.000000	0.0204323 	75.000000	0.0202207 	75.000000	7.32999e-06	
80.000000	0.0283156 	80.000000	0.0193032 	80.000000	0.0195316 	80.000000	0.0195044 	80.000000	0.0192963 	80.000000	6.91671e-06	
85.000000	0.027039  	85.000000	0.0184787 	85.000000	0.0187014 	85.000000	0.0186756 	85.000000	0.0184721 	85.000000	6.54948e-06	
90.000000	0.0258947 	90.000000	0.0177388 	90.000000	0.0179554 	90.000000	0.0179307 	90.000000	0.0177326 	90.000000	6.22092e-06	
95.000000	0.0248627 	95.000000	0.017071  	95.000000	0.0172837 	95.000000	0.0172573 	95.000000	0.0170651 	95.000000	5.92514e-06	
100.000000	0.0239268 	100.000000	0.0164652 	100.000000	0.0166707 	100.000000	0.0166455 	100.000000	0.0164595 	100.000000	5.65739e-06	
105.000000	0.0230739 	105.000000	0.015913  	105.000000	0.0161113 	105.000000	0.0160871 	105.000000	0.0159076 	105.000000	5.41382e-06	
110.000000	0.0222932 	110.000000	0.0154077 	110.000000	0.0155983 	110.000000	0.0155753 	110.000000	0.0154025 	110.000000	5.19124e-06	
115.000000	0.0215756 	115.000000	0.0149433 	115.000000	0.0151283 	115.000000	0.0151045 	115.000000	0.0149383 	115.000000	4.98702e-06	
120.000000	0.0209137 	120.000000	0.0145151 	120.000000	0.0146942 	120.000000	0.0146698 	120.000000	0.0145103 	120.000000	4.79894e-06	
125.000000	0.020301  	125.000000	0.014119  	125.000000	0.0142904 	125.000000	0.0142673 	125.000000	0.0141144 	125.000000	4.62513e-06	
130.000000	0.0197322 	130.000000	0.0137515 	130.000000	0.0139159 	130.000000	0.0138935 	130.000000	0.013747  	130.000000	4.46401e-06	
135.000000	0.0192024 	135.000000	0.0134096 	135.000000	0.0135687 	135.000000	0.0135453 	135.000000	0.0134053 	135.000000	4.31422e-06	
140.000000	0.0187078 	140.000000	0.0130906 	140.000000	0.0132438 	140.000000	0.0132203 	140.000000	0.0130864 	140.000000	4.17457e-06	
145.000000	0.0182449 	145.000000	0.0127924 	145.000000	0.0129387 	145.000000	0.0129161 	145.000000	0.0127883 	145.000000	4.04407e-06	
150.000000	0.0178106 	150.000000	0.0125129 	150.000000	0.012653  	150.000000	0.0126309 	150.000000	0.012509  	150.000000	3.92183e-06	
155.000000	0.0171992 	155.000000	0.0122504 	155.000000	0.0123842 	155.000000	0.0123629 	155.000000	0.0122466 	155.000000	3.80708e-06	
160.000000	0.0168407 	160.000000	0.0120035 	160.000000	0.0121316 	160.000000	0.0121105 	160.000000	0.0119998 	160.000000	3.69914e-06	
165.000000	0.0165028 	165.000000	0.0117707 	165.000000	0.0118944 	165.000000	0.0118725 	165.000000	0.0117671 	165.000000	3.59741e-06	
170.000000	0.0161835 	170.000000	0.011551  	170.000000	0.0116697 	170.000000	0.0116477 	170.000000	0.0115475 	170.000000	3.50136e-06	
175.000000	0.0158814 	175.000000	0.0113431 	175.000000	0.0114563 	175.000000	0.011435  	175.000000	0.0113397 	175.000000	3.41053e-06	
180.000000	0.0155951 	180.000000	0.0111462 	180.000000	0.0112543 	180.000000	0.0112334 	180.000000	0.0111429 	180.000000	3.32449e-06	
185.000000	0.0153234 	185.000000	0.0109595 	185.000000	0.0110625 	185.000000	0.0110421 	185.000000	0.0109562 	185.000000	3.24287e-06	
190.000000	0.0150651 	190.000000	0.0107821 	190.000000	0.0108802 	190.000000	0.0108604 	190.000000	0.0107789 	190.000000	3.16534e-06	
195.000000	0.0148194 	195.000000	0.0106134 	195.000000	0.0107074 	195.000000	0.0106875 	195.000000	0.0106103 	195.000000	3.09158e-06	
200.000000	0.0145852 	200.000000	0.0104528 	200.000000	0.0105433 	200.000000	0.0105228 	200.000000	0.0104497 	200.000000	3.02132e-06	
210.000000	0.0141486 	210.000000	0.0101535 	210.000000	0.010236  	210.000000	0.0102159 	210.000000	0.0101506 	210.000000	2.89036e-06	
220.000000	0.0137495 	220.000000	0.00988026	220.000000	0.00995508	220.000000	0.0099356 	220.000000	0.00987749	220.000000	2.77074e-06	
230.000000	0.0133832 	230.000000	0.00962992	230.000000	0.00969745	230.000000	0.00967874	230.000000	0.00962726	230.000000	2.66101e-06	
240.000000	0.013046  	240.000000	0.00939968	240.000000	0.00946172	240.000000	0.0094425 	240.000000	0.00939712	240.000000	2.55999e-06	
250.000000	0.0127343 	250.000000	0.00918724	250.000000	0.00924378	250.000000	0.00922452	250.000000	0.00918478	250.000000	2.46667e-06	
260.000000	0.0124455 	260.000000	0.00899063	260.000000	0.00904142	260.000000	0.0090228 	260.000000	0.00898825	260.000000	2.38018e-06	
270.000000	0.0121771 	270.000000	0.00880816	270.000000	0.00885375	270.000000	0.00883563	270.000000	0.00880586	270.000000	2.2998e-06	
280.000000	0.011927  	280.000000	0.00863837	280.000000	0.00867918	280.000000	0.00866151	280.000000	0.00863614	280.000000	2.22488e-06	
290.000000	0.0116933 	290.000000	0.00848   	290.000000	0.00851736	290.000000	0.00849916	290.000000	0.00847784	290.000000	2.15488e-06	
300.000000	0.0114746 	300.000000	0.00833196	300.000000	0.00836572	300.000000	0.00834746	300.000000	0.00832987	300.000000	2.08934e-06	
310.000000	0.0112695 	310.000000	0.00819328	310.000000	0.00822317	310.000000	0.00820542	310.000000	0.00819125	310.000000	2.02782e-06	
320.000000	0.0110766 	320.000000	0.00806312	320.000000	0.00808959	320.000000	0.00807218	320.000000	0.00806115	320.000000	1.96996e-06	
330.000000	0.0108951 	330.000000	0.00794073	330.000000	0.00796393	330.000000	0.00794696	330.000000	0.00793881	330.000000	1.91545e-06	
340.000000	0.0107238 	340.000000	0.00782545	340.000000	0.0078459 	340.000000	0.0078291 	340.000000	0.00782359	340.000000	1.86399e-06	
350.000000	0.0105621 	350.000000	0.0077167 	350.000000	0.00773521	350.000000	0.00771798	350.000000	0.00771489	350.000000	1.81534e-06	
360.000000	0.010409  	360.000000	0.00761395	360.000000	0.00763043	360.000000	0.00761307	360.000000	0.00761219	360.000000	1.76926e-06	
370.000000	0.010264  	370.000000	0.00751674	370.000000	0.00753088	370.000000	0.00751388	370.000000	0.00751501	370.000000	1.72556e-06	
380.000000	0.0101264 	380.000000	0.00742463	380.000000	0.00743668	380.000000	0.00741998	380.000000	0.00742295	380.000000	1.68405e-06	
390.000000	0.00999578	390.000000	0.00733726	390.000000	0.00734743	390.000000	0.00733097	390.000000	0.00733562	390.000000	1.64457e-06	
400.000000	0.00987153	400.000000	0.00725428	400.000000	0.00726263	400.000000	0.00724651	400.000000	0.00725267	400.000000	1.60698e-06	
410.000000	0.00975323	410.000000	0.00717538	410.000000	0.00718223	410.000000	0.00716626	410.000000	0.00717381	410.000000	1.57113e-06	
420.000000	0.00964049	420.000000	0.00710027	420.000000	0.00710616	420.000000	0.00708995	420.000000	0.00709874	420.000000	1.53691e-06	
430.000000	0.00953294	430.000000	0.00702871	430.000000	0.00703379	430.000000	0.0070173 	430.000000	0.00702721	430.000000	1.50421e-06	
440.000000	0.00943023	440.000000	0.00696046	440.000000	0.0069645 	440.000000	0.00694807	440.000000	0.00695899	440.000000	1.47293e-06	
450.000000	0.00933207	450.000000	0.0068953 	450.000000	0.0068982 	450.000000	0.00688205	450.000000	0.00689386	450.000000	1.44297e-06	
460.000000	0.00923817	460.000000	0.00683305	460.000000	0.00683494	460.000000	0.00681902	460.000000	0.00683163	460.000000	1.41426e-06	
470.000000	0.00914827	470.000000	0.00677351	470.000000	0.00677457	470.000000	0.0067588 	470.000000	0.00677213	470.000000	1.38671e-06	
480.000000	0.00906213	480.000000	0.00671654	480.000000	0.00671679	480.000000	0.00670123	480.000000	0.00671518	480.000000	1.36026e-06	
490.000000	0.00897954	490.000000	0.00666197	490.000000	0.00666146	490.000000	0.00664614	490.000000	0.00666063	490.000000	1.33484e-06	
500.000000	0.0089003 	500.000000	0.00660966	500.000000	0.00660861	500.000000	0.00659339	500.000000	0.00660835	500.000000	1.31039e-06	
520.000000	0.00875111	520.000000	0.00651135	520.000000	0.00650996	520.000000	0.00649437	520.000000	0.00651008	520.000000	1.26418e-06	
540.000000	0.00861322	540.000000	0.00642067	540.000000	0.00641886	540.000000	0.00640323	540.000000	0.00641945	540.000000	1.22124e-06	
560.000000	0.00848549	560.000000	0.00633684	560.000000	0.00633439	560.000000	0.00631913	560.000000	0.00633566	560.000000	1.18124e-06	
580.000000	0.00836692	580.000000	0.00625916	580.000000	0.00625638	580.000000	0.00624135	580.000000	0.00625802	580.000000	1.14387e-06	
600.000000	0.00825663	600.000000	0.00618705	600.000000	0.006184  	600.000000	0.00616928	600.000000	0.00618594	600.000000	1.10888e-06	
620.000000	0.00815387	620.000000	0.00611998	620.000000	0.00611692	620.000000	0.00610237	620.000000	0.0061189 	620.000000	1.07605e-06	
640.000000	0.00805797	640.000000	0.00605748	640.000000	0.00605493	640.000000	0.00604014	640.000000	0.00605644	640.000000	1.04518e-06	
660.000000	0.00796833	660.000000	0.00599916	660.000000	0.00599715	660.000000	0.00598216	660.000000	0.00599815	660.000000	1.0161e-06	
680.000000	0.00788444	680.000000	0.00594467	680.000000	0.00594289	680.000000	0.00592807	680.000000	0.00594368	680.000000	9.88652e-07	
700.000000	0.00780583	700.000000	0.00589367	700.000000	0.00589211	700.000000	0.00587753	700.000000	0.0058927 	700.000000	9.62706e-07	
720.000000	0.00773207	720.000000	0.00584589	720.000000	0.00584467	720.000000	0.00583025	720.000000	0.00584495	720.000000	9.38139e-07	
740.000000	0.0076628 	740.000000	0.00580107	740.000000	0.00580021	740.000000	0.00578596	740.000000	0.00580015	740.000000	9.14842e-07	
760.000000	0.00759768	760.000000	0.00575898	760.000000	0.00575846	760.000000	0.00574442	760.000000	0.00575809	760.000000	8.92717e-07	
780.000000	0.00753641	780.000000	0.00571943	780.000000	0.00571935	780.000000	0.00570542	780.000000	0.00571856	780.000000	8.71678e-07	
800.000000	0.00747872	800.000000	0.00568223	800.000000	0.0056828 	800.000000	0.00566878	800.000000	0.00568138	800.000000	8.51645e-07	
820.000000	0.00742435	820.000000	0.0056472 	820.000000	0.00564852	820.000000	0.0056343 	820.000000	0.00564637	820.000000	8.32547e-07	
840.000000	0.00737309	840.000000	0.0056142 	840.000000	0.00561617	840.000000	0.00560184	840.000000	0.00561339	840.000000	8.14319e-07	
860.000000	0.00732473	860.000000	0.00558309	860.000000	0.00558551	860.000000	0.00557126	860.000000	0.0055823 	860.000000	7.96902e-07	
880.000000	0.00727909	880.000000	0.00555375	880.000000	0.00555651	880.000000	0.00554241	880.000000	0.00555297	880.000000	7.80243e-07	
900.000000	0.00723599	900.000000	0.00552605	900.000000	0.00552914	900.000000	0.00551519	900.000000	0.00552529	900.000000	7.64292e-07	
920.000000	0.00719527	920.000000	0.0054999 	920.000000	0.00550331	920.000000	0.00548948	920.000000	0.00549915	920.000000	7.49005e-07	
940.000000	0.0071568 	940.000000	0.0054752 	940.000000	0.00547893	940.000000	0.00546519	940.000000	0.00547447	940.000000	7.3434e-07	
960.000000	0.00712044	960.000000	0.00545186	960.000000	0.00545588	960.000000	0.00544222	960.000000	0.00545114	960.000000	7.2026e-07	
980.000000	0.00708607	980.000000	0.0054298 	980.000000	0.00543407	980.000000	0.00542048	980.000000	0.00542909	980.000000	7.0673e-07	
1000.000000	0.00705357	1000.000000	0.00540894	1000.000000	0.00541342	1000.000000	0.00539991	1000.000000	0.00540824	1000.000000	6.93719e-07	
1020.000000	0.00702285	1020.000000	0.00538921	1020.000000	0.00539384	1020.000000	0.00538043	1020.000000	0.00538853	1020.000000	6.81195e-07	
1040.000000	0.00699381	1040.000000	0.00537056	1040.000000	0.00537527	1040.000000	0.00536196	1040.000000	0.00536989	1040.000000	6.69133e-07	
1060.000000	0.00696635	1060.000000	0.00535292	1060.000000	0.00535765	1060.000000	0.00534447	1060.000000	0.00535226	1060.000000	6.57507e-07	
1080.000000	0.0069404 	1080.000000	0.00533623	1080.000000	0.00534097	1080.000000	0.00532787	1080.000000	0.00533559	1080.000000	6.46293e-07	
1100.000000	0.00691588	1100.000000	0.00532045	1100.000000	0.00532519	1100.000000	0.00531213	1100.000000	0.00531982	1100.000000	6.35469e-07	
1120.000000	0.00689271	1120.000000	0.00530553	1120.000000	0.00531053	1120.000000	0.00529745	1120.000000	0.00530491	1120.000000	6.25016e-07	
1140.000000	0.00687084	1140.000000	0.00529142	1140.000000	0.00529673	1140.000000	0.00528357	1140.000000	0.00529081	1140.000000	6.14913e-07	
1160.000000	0.00685019	1160.000000	0.00527809	1160.000000	0.00528366	1160.000000	0.0052704 	1160.000000	0.00527748	1160.000000	6.05145e-07	
1180.000000	0.00683071	1180.000000	0.00526549	1180.000000	0.00527126	1180.000000	0.00525791	1180.000000	0.00526489	1180.000000	5.95693e-07	
1200.000000	0.00681234	1200.000000	0.00525358	1200.000000	0.00525947	1200.000000	0.00524607	1200.000000	0.005253  	1200.000000	5.86544e-07	
1220.000000	0.00679504	1220.000000	0.00524235	1220.000000	0.00524824	1220.000000	0.00523482	1220.000000	0.00524177	1220.000000	5.77681e-07	
1240.000000	0.00677875	1240.000000	0.00523174	1240.000000	0.00523754	1240.000000	0.00522416	1240.000000	0.00523117	1240.000000	5.69093e-07	
1260.000000	0.00676344	1260.000000	0.00522174	1260.000000	0.00522735	1260.000000	0.00521404	1260.000000	0.00522118	1260.000000	5.60765e-07	
1280.000000	0.00674905	1280.000000	0.00521231	1280.000000	0.00521768	1280.000000	0.00520443	1280.000000	0.00521176	1280.000000	5.52687e-07	
1300.000000	0.00673554	1300.000000	0.00520344	1300.000000	0.00520849	1300.000000	0.00519532	1300.000000	0.00520289	1300.000000	5.44847e-07	
1320.000000	0.00672289	1320.000000	0.00519509	1320.000000	0.00519979	1320.000000	0.00518668	1320.000000	0.00519455	1320.000000	5.37235e-07	
1340.000000	0.00671106	1340.000000	0.00518724	1340.000000	0.00519154	1340.000000	0.00517848	1340.000000	0.00518671	1340.000000	5.2984e-07	
1360.000000	0.0067    	1360.000000	0.00517987	1360.000000	0.00518372	1360.000000	0.00517071	1360.000000	0.00517935	1360.000000	5.22654e-07	
1380.000000	0.00668969	1380.000000	0.00517296	1380.000000	0.00517631	1380.000000	0.00516334	1380.000000	0.00517245	1380.000000	5.15667e-07	
1400.000000	0.00668011	1400.000000	0.00516649	1400.000000	0.00516929	1400.000000	0.00515635	1400.000000	0.00516598	1400.000000	5.08871e-07	
1420.000000	0.00667121	1420.000000	0.00516045	1420.000000	0.00516263	1420.000000	0.00514973	1420.000000	0.00515994	1420.000000	5.02259e-07	
1440.000000	0.00666299	1440.000000	0.0051548 	1440.000000	0.00515631	1440.000000	0.00514346	1440.000000	0.00515431	1440.000000	4.95823e-07	
1460.000000	0.0066554 	1460.000000	0.00514955	1460.000000	0.00515032	1460.000000	0.00513752	1460.000000	0.00514906	1460.000000	4.89556e-07	
1480.000000	0.00664842	1480.000000	0.00514467	1480.000000	0.00514465	1480.000000	0.00513191	1480.000000	0.00514419	1480.000000	4.83452e-07	
1500.000000	0.00664204	1500.000000	0.00514015	1500.000000	0.00513928	1500.000000	0.00512659	1500.000000	0.00513967	1500.000000	4.77503e-07	
1520.000000	0.00663624	1520.000000	0.00513597	1520.000000	0.00513421	1520.000000	0.00512157	1520.000000	0.0051355 	1520.000000	4.71705e-07	
1540.000000	0.00663098	1540.000000	0.00513212	1540.000000	0.00512942	1540.000000	0.00511682	1540.000000	0.00513166	1540.000000	4.6605e-07	
1560.000000	0.00662625	1560.000000	0.00512859	1560.000000	0.00512491	1560.000000	0.00511234	1560.000000	0.00512813	1560.000000	4.60535e-07	
1580.000000	0.00662204	1580.000000	0.00512537	1580.000000	0.00512067	1580.000000	0.00510811	1580.000000	0.00512492	1580.000000	4.55154e-07	
1600.000000	0.00661832	1600.000000	0.00512245	1600.000000	0.00511668	1600.000000	0.00510412	1600.000000	0.005122  	1600.000000	4.49901e-07	
1620.000000	0.00661509	1620.000000	0.0051198 	1620.000000	0.00511295	1620.000000	0.00510037	1620.000000	0.00511936	1620.000000	4.44773e-07	
1640.000000	0.00661231	1640.000000	0.00511744	1640.000000	0.00510945	1640.000000	0.00509684	1640.000000	0.005117  	1640.000000	4.39765e-07	
1660.000000	0.00660998	1660.000000	0.00511533	1660.000000	0.00510618	1660.000000	0.00509353	1660.000000	0.0051149 	1660.000000	4.34872e-07	
1680.000000	0.00660809	1680.000000	0.00511348	1680.000000	0.00510311	1680.000000	0.00509042	1680.000000	0.00511305	1680.000000	4.30091e-07	
1700.000000	0.00660661	1700.000000	0.00511188	1700.000000	0.00510024	1700.000000	0.0050875 	1700.000000	0.00511145	1700.000000	4.25418e-07	
1750.000000	0.00660466	1750.000000	0.00510889	1750.000000	0.00509386	1750.000000	0.00508103	1750.000000	0.00510848	1750.000000	4.14184e-07	
1800.000000	0.00660506	1800.000000	0.00510727	1800.000000	0.00508849	1800.000000	0.00507561	1800.000000	0.00510687	1800.000000	4.03549e-07	
1850.000000	0.00660763	1850.000000	0.0051069 	1850.000000	0.00508402	1850.000000	0.00507115	1850.000000	0.00510651	1850.000000	3.93465e-07	
1900.000000	0.00661221	1900.000000	0.00510769	1900.000000	0.00508039	1900.000000	0.00506757	1900.000000	0.0051073 	1900.000000	3.83891e-07	
1950.000000	0.00661867	1950.000000	0.00510954	1950.000000	0.00507752	1950.000000	0.00506477	1950.000000	0.00510917	1950.000000	3.74788e-07	
2000.000000	0.00662688	2000.000000	0.00511238	2000.000000	0.00507536	2000.000000	0.00506268	2000.000000	0.00511202	2000.000000	3.66122e-07	
2100.000000	0.0066481 	2100.000000	0.00512074	2100.000000	0.00507296	2100.000000	0.0050604 	2100.000000	0.00512039	2100.000000	3.49979e-07	
2200.000000	0.00667507	2200.000000	0.00513228	2200.000000	0.00507277	2200.000000	0.00506028	2200.000000	0.00513194	2200.000000	3.35246e-07	
2300.000000	0.00670714	2300.000000	0.00514656	2300.000000	0.00507438	2300.000000	0.00506196	2300.000000	0.00514624	2300.000000	3.21745e-07	
2400.000000	0.00674375	2400.000000	0.00516326	2400.000000	0.00507749	2400.000000	0.00506514	2400.000000	0.00516295	2400.000000	3.09324e-07	
2500.000000	0.00678441	2500.000000	0.00518208	2500.000000	0.00508184	2500.000000	0.00506958	2500.000000	0.00518178	2500.000000	2.97859e-07	
2600.000000	0.00682875	2600.000000	0.00520277	2600.000000	0.00508725	2600.000000	0.00507507	2600.000000	0.00520248	2600.000000	2.87241e-07	
2700.000000	0.0068764 	2700.000000	0.00522512	2700.000000	0.00509357	2700.000000	0.00508144	2700.000000	0.00522484	2700.000000	2.77379e-07	
2800.000000	0.00692708	2800.000000	0.00524896	2800.000000	0.00510065	2800.000000	0.00508856	2800.000000	0.00524869	2800.000000	2.68195e-07	
2900.000000	0.00698053	2900.000000	0.00527412	2900.000000	0.00510839	2900.000000	0.00509629	2900.000000	0.00527386	2900.000000	2.59619e-07	
3000.000000	0.00703652	3000.000000	0.00530047	3000.000000	0.00511667	3000.000000	0.00510455	3000.000000	0.00530022	3000.000000	2.51593e-07	
3200.000000	0.00715537	3200.000000	0.00535629	3200.000000	0.00513451	3200.000000	0.00512229	3200.000000	0.00535605	3200.000000	2.3699e-07	
3400.000000	0.00728233	3400.000000	0.00541563	3400.000000	0.00515355	3400.000000	0.00514124	3400.000000	0.00541541	3400.000000	2.2404e-07	
3600.000000	0.00741637	3600.000000	0.0054779 	3600.000000	0.00517336	3600.000000	0.00516099	3600.000000	0.00547769	3600.000000	2.12476e-07	
3800.000000	0.00755668	3800.000000	0.0055426 	3800.000000	0.00519364	3800.000000	0.00518125	3800.000000	0.0055424 	3800.000000	2.02084e-07	
4000.000000	0.00770261	4000.000000	0.00560936	4000.000000	0.00521417	4000.000000	0.00520179	4000.000000	0.00560917	4000.000000	1.92693e-07	
4200.000000	0.00785361	4200.000000	0.00567787	4200.000000	0.0052348 	4200.000000	0.00522245	4200.000000	0.00567768	4200.000000	1.84162e-07	
4400.000000	0.00800924	4400.000000	0.00574786	4400.000000	0.00525543	4400.000000	0.00524311	4400.000000	0.00574769	4400.000000	1.76379e-07	
4600.000000	0.00816914	4600.000000	0.00581914	4600.000000	0.00527595	4600.000000	0.00526367	4600.000000	0.00581897	4600.000000	1.69247e-07	
4800.000000	0.00833299	4800.000000	0.00589152	4800.000000	0.00529632	4800.000000	0.00528407	4800.000000	0.00589136	4800.000000	1.62688e-07	
5000.000000	0.00850053	5000.000000	0.00596486	5000.000000	0.00531646	5000.000000	0.00530425	5000.000000	0.00596471	5000.000000	1.56635e-07	
5250.000000	0.00871482	5250.000000	0.00605771	5250.000000	0.00534129	5250.000000	0.00532911	5250.000000	0.00605756	5250.000000	1.49692e-07	
5500.000000	0.00893418	5500.000000	0.00615166	5500.000000	0.00536567	5500.000000	0.00535352	5500.000000	0.00615151	5500.000000	1.43358e-07	
6000.000000	0.00938691	6000.000000	0.00634226	6000.000000	0.00541298	6000.000000	0.00540087	6000.000000	0.00634212	6000.000000	1.32218e-07	
6500.000000	0.00985685	6500.000000	0.00653564	6500.000000	0.00545825	6500.000000	0.00544617	6500.000000	0.00653552	6500.000000	1.22732e-07	
7000.000000	0.0103426 	7000.000000	0.0067311 	7000.000000	0.00550148	7000.000000	0.00548941	7000.000000	0.00673098	7000.000000	1.14553e-07	
7500.000000	0.0108432 	7500.000000	0.0069281 	7500.000000	0.00554271	7500.000000	0.00553067	7500.000000	0.006928  	7500.000000	1.07428e-07	
8000.000000	0.0113579 	8000.000000	0.00712628	8000.000000	0.00558212	8000.000000	0.00557004	8000.000000	0.00712618	8000.000000	1.01162e-07	
8500.000000	0.011886  	8500.000000	0.00732533	8500.000000	0.00561959	8500.000000	0.00560762	8500.000000	0.00732523	8500.000000	9.56077e-08	
9000.000000	0.0124272 	9000.000000	0.00752504	9000.000000	0.00565521	9000.000000	0.00564352	9000.000000	0.00752495	9000.000000	9.06491e-08	
9500.000000	0.012981  	9500.000000	0.00772524	9500.000000	0.00568933	9500.000000	0.00567786	9500.000000	0.00772516	9500.000000	8.61945e-08	
10000.000000	0.0135472 	10000.000000	0.0079258 	10000.000000	0.00572213	10000.000000	0.00571073	10000.000000	0.00792572	10000.000000	8.21698e-08	
11000.000000	0.0147159 	11000.000000	0.0083276 	11000.000000	0.00578392	11000.000000	0.00577248	11000.000000	0.00832753	11000.000000	7.51814e-08	
12000.000000	0.0159318 	12000.000000	0.00872984	12000.000000	0.00584096	12000.000000	0.00582946	12000.000000	0.00872977	12000.000000	6.93193e-08	
13000.000000	0.0171942 	13000.000000	0.00913211	13000.000000	0.00589377	13000.000000	0.00588229	13000.000000	0.00913205	13000.000000	6.43293e-08	
14000.000000	0.0185023 	14000.000000	0.00953418	14000.000000	0.00594287	14000.000000	0.00593146	14000.000000	0.00953412	14000.000000	6.00285e-08	
15000.000000	0.0198557 	15000.000000	0.00993586	15000.000000	0.00598871	15000.000000	0.00597741	15000.000000	0.0099358 	15000.000000	5.62823e-08	
16000.000000	0.0212542 	16000.000000	0.010337  	16000.000000	0.00603169	16000.000000	0.0060205 	16000.000000	0.010337  	16000.000000	5.29888e-08	
17000.000000	0.0226977 	17000.000000	0.0107377 	17000.000000	0.00607212	17000.000000	0.00606103	17000.000000	0.0107376 	17000.000000	5.00701e-08	
18000.000000	0.024186  	18000.000000	0.0111377 	18000.000000	0.00611028	18000.000000	0.00609928	18000.000000	0.0111376 	18000.000000	4.74649e-08	
19000.000000	0.0257192 	19000.000000	0.011537  	19000.000000	0.0061464 	19000.000000	0.00613546	19000.000000	0.011537  	19000.000000	4.51249e-08	
20000.000000	0.0272972 	20000.000000	0.0119357 	20000.000000	0.00618066	20000.000000	0.00616978	20000.000000	0.0119357 	20000.000000	4.30112e-08	
21000.000000	0.0289202 	21000.000000	0.0123337 	21000.000000	0.00621329	21000.000000	0.00620241	21000.000000	0.0123337 	21000.000000	4.10922e-08	
22000.000000	0.0305881 	22000.000000	0.0127311 	22000.000000	0.00624442	22000.000000	0.00623349	22000.000000	0.012731  	22000.000000	3.93419e-08	
23000.000000	0.0323013 	23000.000000	0.0131277 	23000.000000	0.00627381	23000.000000	0.00626315	23000.000000	0.0131277 	23000.000000	3.77388e-08	
24000.000000	0.0340597 	24000.000000	0.0135237 	24000.000000	0.00630187	24000.000000	0.00629152	24000.000000	0.0135237 	24000.000000	3.62649e-08	
25000.000000	0.0358635 	25000.000000	0.0139191 	25000.000000	0.00632904	25000.000000	0.00631869	25000.000000	0.0139191 	25000.000000	3.49051e-08	
26000.000000	0.0377129 	26000.000000	0.0143138 	26000.000000	0.00635511	26000.000000	0.00634476	26000.000000	0.0143138 	26000.000000	3.36464e-08	
27000.000000	0.0396081 	27000.000000	0.0147079 	27000.000000	0.00637998	27000.000000	0.0063698 	27000.000000	0.0147079 	27000.000000	3.24779e-08	
28000.000000	0.0415493 	28000.000000	0.0151014 	28000.000000	0.00640383	28000.000000	0.00639389	28000.000000	0.0151013 	28000.000000	3.13902e-08	
29000.000000	0.0435366 	29000.000000	0.0154942 	29000.000000	0.00642685	29000.000000	0.0064171 	29000.000000	0.0154942 	29000.000000	3.0375e-08	
30000.000000	0.0455703 	30000.000000	0.0158865 	30000.000000	0.0064491 	30000.000000	0.00643948	30000.000000	0.0158865 	30000.000000	2.94253e-08	
32000.000000	0.0497777 	32000.000000	0.0166693 	32000.000000	0.0064913 	32000.000000	0.00648198	32000.000000	0.0166693 	32000.000000	2.76983e-08	
34000.000000	0.0541731 	34000.000000	0.0174499 	34000.000000	0.00653066	34000.000000	0.00652176	34000.000000	0.0174499 	34000.000000	2.61681e-08	
36000.000000	0.0587585 	36000.000000	0.0182284 	36000.000000	0.00656762	36000.000000	0.00655914	36000.000000	0.0182284 	36000.000000	2.48026e-08	
38000.000000	0.0635357 	38000.000000	0.0190049 	38000.000000	0.00660248	38000.000000	0.00659436	38000.000000	0.0190048 	38000.000000	2.35763e-08	
40000.000000	0.0685066 	40000.000000	0.0197794 	40000.000000	0.00663546	40000.000000	0.00662767	40000.000000	0.0197794 	40000.000000	2.24687e-08	
42000.000000	0.0736733 	42000.000000	0.0205521 	42000.000000	0.00666668	42000.000000	0.00665924	42000.000000	0.0205521 	42000.000000	2.14634e-08	
44000.000000	0.0790378 	44000.000000	0.021323  	44000.000000	0.0066963 	44000.000000	0.00668924	44000.000000	0.021323  	44000.000000	2.05465e-08	
46000.000000	0.0846022 	46000.000000	0.0220922 	46000.000000	0.00672445	46000.000000	0.00671781	46000.000000	0.0220922 	46000.000000	1.97069e-08	
48000.000000	0.0903685 	48000.000000	0.0228598 	48000.000000	0.00675127	48000.000000	0.00674508	48000.000000	0.0228598 	48000.000000	1.89351e-08	
50000.000000	0.0963389 	50000.000000	0.0236258 	50000.000000	0.00677686	50000.000000	0.00677116	50000.000000	0.0236258 	50000.000000	1.8223e-08	
