Energy (MeV/u)1	0 - [He-base] F.Hubert et al, AD&ND Tables 46(1990)1	Energy (MeV/u)2	1 - [H -base] J.F.Ziegler et al, Pergamon Press, NY (low energy)	Energy (MeV/u)3	2 - ATIMA 1.2  LS-theory (recommended for high energy)	Energy (MeV/u)4	3 - ATIMA 1.2  without LS-correction	Energy (MeV/u)5	4 - electrical component of [1] - J.F.Ziegler et al	Energy (MeV/u)6	5 - nuclear component of [1] - J.F.Ziegler et al	
0.001000	0.280108  	0.001000	0.280108  	0.001000	0.338796  	0.001000	0.338796  	0.001000	0.173224  	0.001000	0.106884  	
0.002000	0.360161  	0.002000	0.360161  	0.002000	0.434289  	0.002000	0.434289  	0.002000	0.282638  	0.002000	0.0775233 	
0.005000	0.558355  	0.005000	0.558355  	0.005000	0.646209  	0.005000	0.646209  	0.005000	0.512733  	0.005000	0.0456223 	
0.008000	0.708917  	0.008000	0.708917  	0.008000	0.79602   	0.008000	0.79602   	0.008000	0.675461  	0.008000	0.0334559 	
0.010000	0.792604  	0.010000	0.792604  	0.010000	0.876475  	0.010000	0.876475  	0.010000	0.763908  	0.010000	0.0286959 	
0.015000	0.959877  	0.015000	0.959877  	0.015000	1.03833   	0.015000	1.03833   	0.015000	0.938488  	0.015000	0.0213892 	
0.020000	1.09596   	0.020000	1.09596   	0.020000	1.16737   	0.020000	1.16737   	0.020000	1.07869   	0.020000	0.0172635 	
0.025000	1.21205   	0.025000	1.21205   	0.025000	1.27784   	0.025000	1.27784   	0.025000	1.19746   	0.025000	0.0145953 	
0.030000	1.31392   	0.030000	1.31392   	0.030000	1.36334   	0.030000	1.36334   	0.030000	1.30123   	0.030000	0.0126969 	
0.035000	1.40488   	0.035000	1.40488   	0.035000	1.43854   	0.035000	1.43854   	0.035000	1.39361   	0.035000	0.0112702 	
0.040000	1.48698   	0.040000	1.48698   	0.040000	1.50577   	0.040000	1.50577   	0.040000	1.47683   	0.040000	0.0101548 	
0.045000	1.56156   	0.045000	1.56156   	0.045000	1.56652   	0.045000	1.56652   	0.045000	1.5523    	0.045000	0.00925653	
0.050000	1.62952   	0.050000	1.62952   	0.050000	1.62179   	0.050000	1.62179   	0.050000	1.621     	0.050000	0.00851608	
0.055000	1.69151   	0.055000	1.69151   	0.055000	1.67231   	0.055000	1.67231   	0.055000	1.68362   	0.055000	0.0078942 	
0.060000	1.74803   	0.060000	1.74803   	0.060000	1.71859   	0.060000	1.71859   	0.060000	1.74066   	0.060000	0.00736381	
0.070000	1.84612   	0.070000	1.84612   	0.070000	1.79988   	0.070000	1.79988   	0.070000	1.83961   	0.070000	0.00650539	
0.080000	1.92624   	0.080000	1.92624   	0.080000	1.86794   	0.080000	1.86794   	0.080000	1.9204    	0.080000	0.00583891	
0.090000	1.99038   	0.090000	1.99038   	0.090000	1.92435   	0.090000	1.92435   	0.090000	1.98507   	0.090000	0.00530517	
0.100000	2.04036   	0.100000	2.04036   	0.100000	1.97037   	0.100000	1.97037   	0.100000	2.03549   	0.100000	0.00486725	
0.120000	2.10457   	0.120000	2.10457   	0.120000	2.03544   	0.120000	2.03544   	0.120000	2.10038   	0.120000	0.00418958	
0.140000	2.13135   	0.140000	2.13135   	0.140000	2.0707    	0.140000	2.0707    	0.140000	2.12766   	0.140000	0.00368784	
0.160000	2.13118   	0.160000	2.13118   	0.160000	2.08263   	0.160000	2.08263   	0.160000	2.12788   	0.160000	0.00330022	
0.180000	2.11234   	0.180000	2.11234   	0.180000	2.07677   	0.180000	2.07677   	0.180000	2.10935   	0.180000	0.00299104	
0.200000	2.08108   	0.200000	2.08108   	0.200000	2.05772   	0.200000	2.05772   	0.200000	2.07835   	0.200000	0.00273823	
0.250000	1.97517   	0.250000	1.97517   	0.250000	1.97484   	0.250000	1.97484   	0.250000	1.9729    	0.250000	0.00226904	
0.300000	1.85766   	0.300000	1.85766   	0.300000	1.86947   	0.300000	1.86947   	0.300000	1.85571   	0.300000	0.00194428	
0.350000	1.74451   	0.350000	1.74451   	0.350000	1.76096   	0.350000	1.76096   	0.350000	1.7428    	0.350000	0.00170523	
0.400000	1.64093   	0.400000	1.64093   	0.400000	1.65785   	0.400000	1.65785   	0.400000	1.63941   	0.400000	0.00152142	
0.450000	1.54787   	0.450000	1.54787   	0.450000	1.56333   	0.450000	1.56333   	0.450000	1.5465    	0.450000	0.00137538	
0.500000	1.46474   	0.500000	1.46474   	0.500000	1.47805   	0.500000	1.47805   	0.500000	1.46349   	0.500000	0.00125636	
0.600000	1.32386   	0.600000	1.32386   	0.600000	1.33303   	0.600000	1.33303   	0.600000	1.32279   	0.600000	0.00107367	
0.700000	1.20977   	0.700000	1.20977   	0.700000	1.21606   	0.700000	1.21606   	0.700000	1.20883   	0.700000	0.000939647	
0.800000	1.11569   	0.800000	1.11569   	0.800000	1.12036   	0.800000	1.12036   	0.800000	1.11486   	0.800000	0.000836862	
0.900000	1.03677   	0.900000	1.03677   	0.900000	1.0407    	0.900000	1.0407    	0.900000	1.03601   	0.900000	0.000755379	
1.000000	0.96951   	1.000000	0.96951   	1.000000	0.973251  	1.000000	0.973251  	1.000000	0.968821  	1.000000	0.000689102	
1.250000	0.837512  	1.250000	0.837512  	1.250000	0.841907  	1.250000	0.841907  	1.250000	0.836945  	1.250000	0.000566971	
1.500000	0.739911  	1.500000	0.739911  	1.500000	0.745366  	1.500000	0.745366  	1.500000	0.739428  	1.500000	0.000483159	
1.750000	0.664254  	1.750000	0.664254  	1.750000	0.670648  	1.750000	0.670648  	1.750000	0.663832  	1.750000	0.000421878	
2.000000	0.603594  	2.000000	0.603594  	2.000000	0.610704  	2.000000	0.610704  	2.000000	0.603219  	2.000000	0.000375011	
2.250000	0.553726  	2.250000	0.553726  	2.250000	0.56134   	2.250000	0.56134   	2.250000	0.553388  	2.250000	0.000337944	
2.500000	0.502935  	2.500000	0.511928  	2.500000	0.519877  	2.500000	0.519877  	2.500000	0.51162   	2.500000	0.000307854	
3.000000	0.439611  	3.000000	0.445669  	3.000000	0.453929  	3.000000	0.453929  	3.000000	0.445407  	3.000000	0.000261887	
3.500000	0.391518  	3.500000	0.395414  	3.500000	0.403694  	3.500000	0.403694  	3.500000	0.395186  	3.500000	0.000228345	
4.000000	0.353636  	4.000000	0.355935  	4.000000	0.36408   	4.000000	0.36408   	4.000000	0.355733  	4.000000	0.000202736	
4.500000	0.322956  	4.500000	0.32407   	4.500000	0.331999  	4.500000	0.331999  	4.500000	0.323887  	4.500000	0.00018251	
5.000000	0.29756   	5.000000	0.297785  	5.000000	0.305462  	5.000000	0.305462  	5.000000	0.297619  	5.000000	0.000166111	
5.500000	0.276162  	5.500000	0.275714  	5.500000	0.283124  	5.500000	0.283124  	5.500000	0.275561  	5.500000	0.000152533	
6.000000	0.257868  	6.000000	0.256903  	6.000000	0.264046  	6.000000	0.264046  	6.000000	0.256762  	6.000000	0.000141097	
6.500000	0.242032  	6.500000	0.240668  	6.500000	0.247549  	6.500000	0.247549  	6.500000	0.240536  	6.500000	0.000131326	
7.000000	0.228182  	7.000000	0.226502  	7.000000	0.233131  	7.000000	0.233131  	7.000000	0.226379  	7.000000	0.000122876	
7.500000	0.215957  	7.500000	0.214027  	7.500000	0.220416  	7.500000	0.220416  	7.500000	0.213911  	7.500000	0.000115492	
8.000000	0.205081  	8.000000	0.202949  	8.000000	0.20911   	8.000000	0.20911   	8.000000	0.20284   	8.000000	0.000108983	
8.500000	0.195339  	8.500000	0.193041  	8.500000	0.198987  	8.500000	0.198987  	8.500000	0.192938  	8.500000	0.000103199	
9.000000	0.186558  	9.000000	0.184123  	9.000000	0.189865  	9.000000	0.189865  	9.000000	0.184025  	9.000000	9.80242e-05	
9.500000	0.178599  	9.500000	0.17605   	9.500000	0.1816    	9.500000	0.1816    	9.500000	0.175957  	9.500000	9.33652e-05	
10.000000	0.171351  	10.000000	0.173866  	10.000000	0.174073  	10.000000	0.174073  	10.000000	0.173777  	10.000000	8.91478e-05	
11.000000	0.158628  	11.000000	0.160953  	11.000000	0.160721  	11.000000	0.160731  	11.000000	0.160871  	11.000000	8.1805e-05	
12.000000	0.147816  	12.000000	0.149958  	12.000000	0.149402  	12.000000	0.149417  	12.000000	0.149882  	12.000000	7.56252e-05	
13.000000	0.138507  	13.000000	0.140478  	13.000000	0.139682  	13.000000	0.1397    	13.000000	0.140407  	13.000000	7.0349e-05	
14.000000	0.130402  	14.000000	0.132215  	14.000000	0.131244  	14.000000	0.13126   	14.000000	0.132149  	14.000000	6.57893e-05	
15.000000	0.123278  	15.000000	0.124945  	15.000000	0.123846  	15.000000	0.123863  	15.000000	0.124883  	15.000000	6.18076e-05	
16.000000	0.116964  	16.000000	0.118497  	16.000000	0.117309  	16.000000	0.117325  	16.000000	0.118438  	16.000000	5.82992e-05	
17.000000	0.111327  	17.000000	0.112736  	17.000000	0.111492  	17.000000	0.111505  	17.000000	0.112681  	17.000000	5.51832e-05	
18.000000	0.106261  	18.000000	0.107557  	18.000000	0.106283  	18.000000	0.106293  	18.000000	0.107505  	18.000000	5.23966e-05	
19.000000	0.101682  	19.000000	0.102874  	19.000000	0.101592  	19.000000	0.1016    	19.000000	0.102824  	19.000000	4.9889e-05	
20.000000	0.0975215 	20.000000	0.0986187 	20.000000	0.0973436 	20.000000	0.0973512 	20.000000	0.0985711 	20.000000	4.762e-05 	
21.000000	0.0937241 	21.000000	0.0947335 	21.000000	0.0934808 	21.000000	0.0934891 	21.000000	0.0946879 	21.000000	4.55565e-05	
22.000000	0.0902432 	22.000000	0.0911715 	22.000000	0.0899578 	22.000000	0.0899641 	22.000000	0.0911279 	22.000000	4.36716e-05	
23.000000	0.08704   	23.000000	0.0878936 	23.000000	0.0867332 	23.000000	0.0867351 	23.000000	0.0878516 	23.000000	4.19427e-05	
24.000000	0.084082  	24.000000	0.0848664 	24.000000	0.0837701 	24.000000	0.0837676 	24.000000	0.084826  	24.000000	4.0351e-05	
25.000000	0.0813414 	25.000000	0.0820618 	25.000000	0.0810387 	25.000000	0.0810322 	25.000000	0.0820229 	25.000000	3.88805e-05	
27.000000	0.0764216 	27.000000	0.0770277 	27.000000	0.0761775 	27.000000	0.0761611 	27.000000	0.0769914 	27.000000	3.62509e-05	
29.000000	0.0721285 	29.000000	0.0726359 	29.000000	0.0719807 	29.000000	0.0719603 	29.000000	0.0726019 	29.000000	3.39675e-05	
31.000000	0.0683475 	31.000000	0.0687693 	31.000000	0.0682568 	31.000000	0.0682353 	31.000000	0.0687373 	31.000000	3.19651e-05	
33.000000	0.0649904 	33.000000	0.0653377 	33.000000	0.0648977 	33.000000	0.0648695 	33.000000	0.0653075 	33.000000	3.01943e-05	
35.000000	0.0619885 	35.000000	0.0622707 	35.000000	0.0618851 	35.000000	0.0618584 	35.000000	0.0622421 	35.000000	2.86167e-05	
38.000000	0.0580351 	38.000000	0.0582345 	38.000000	0.0579219 	38.000000	0.0578909 	38.000000	0.0582079 	38.000000	2.65477e-05	
41.000000	0.054619  	41.000000	0.05475   	41.000000	0.0544928 	41.000000	0.0544611 	41.000000	0.0547252 	41.000000	2.47681e-05	
44.000000	0.0516357 	44.000000	0.05171   	44.000000	0.0514929 	44.000000	0.0514648 	44.000000	0.0516868 	44.000000	2.32204e-05	
47.000000	0.0490063 	47.000000	0.0490335 	47.000000	0.0488554 	47.000000	0.0488235 	47.000000	0.0490117 	47.000000	2.18616e-05	
50.000000	0.0466701 	50.000000	0.0466583 	50.000000	0.0465089 	50.000000	0.0464768 	50.000000	0.0466376 	50.000000	2.06587e-05	
55.000000	0.043304  	55.000000	0.0432411 	55.000000	0.0431307 	55.000000	0.0430956 	55.000000	0.0432221 	55.000000	1.89329e-05	
60.000000	0.0404609 	60.000000	0.0403606 	60.000000	0.040273  	60.000000	0.0402408 	60.000000	0.0403431 	60.000000	1.74826e-05	
65.000000	0.0380254 	65.000000	0.0378982 	65.000000	0.0378297 	65.000000	0.0377967 	65.000000	0.037882  	65.000000	1.6246e-05	
70.000000	0.0359141 	70.000000	0.0357682 	70.000000	0.0357131 	70.000000	0.0356795 	70.000000	0.035753  	70.000000	1.51787e-05	
75.000000	0.034065  	75.000000	0.0339067 	75.000000	0.0338579 	75.000000	0.033827  	75.000000	0.0338925 	75.000000	1.42476e-05	
80.000000	0.0324313 	80.000000	0.0322656 	80.000000	0.0322256 	80.000000	0.032192  	80.000000	0.0322521 	80.000000	1.3428e-05	
85.000000	0.0309764 	85.000000	0.0308074 	85.000000	0.0307696 	85.000000	0.0307377 	85.000000	0.0307947 	85.000000	1.27008e-05	
90.000000	0.029672  	90.000000	0.0295028 	90.000000	0.0294661 	90.000000	0.0294356 	90.000000	0.0294908 	90.000000	1.2051e-05	
95.000000	0.0284954 	95.000000	0.0283287 	95.000000	0.0282952 	95.000000	0.0282626 	95.000000	0.0283172 	95.000000	1.14668e-05	
100.000000	0.0274282 	100.000000	0.0272661 	100.000000	0.0272315 	100.000000	0.0272003 	100.000000	0.0272552 	100.000000	1.09385e-05	
105.000000	0.0264555 	105.000000	0.0262997 	105.000000	0.0262636 	105.000000	0.0262336 	105.000000	0.0262893 	105.000000	1.04585e-05	
110.000000	0.025565  	110.000000	0.025417  	110.000000	0.0253785 	110.000000	0.0253501 	110.000000	0.025407  	110.000000	1.00203e-05	
115.000000	0.0247464 	115.000000	0.0246074 	115.000000	0.0245688 	115.000000	0.0245393 	115.000000	0.0245978 	115.000000	9.61859e-06	
120.000000	0.0239911 	120.000000	0.0238621 	120.000000	0.0238226 	120.000000	0.0237926 	120.000000	0.0238528 	120.000000	9.24899e-06	
125.000000	0.023292  	125.000000	0.0231737 	125.000000	0.0231311 	125.000000	0.0231026 	125.000000	0.0231648 	125.000000	8.90773e-06	
130.000000	0.0226428 	130.000000	0.0225358 	130.000000	0.0224907 	130.000000	0.022463  	130.000000	0.0225272 	130.000000	8.59164e-06	
135.000000	0.0220381 	135.000000	0.0219431 	135.000000	0.0218975 	135.000000	0.0218686 	135.000000	0.0219348 	135.000000	8.298e-06 	
140.000000	0.0214736 	140.000000	0.0213909 	140.000000	0.0213436 	140.000000	0.0213146 	140.000000	0.0213829 	140.000000	8.02448e-06	
145.000000	0.0209451 	145.000000	0.0208752 	145.000000	0.020825  	145.000000	0.020797  	145.000000	0.0208674 	145.000000	7.76904e-06	
150.000000	0.0204493 	150.000000	0.0203924 	150.000000	0.0203397 	150.000000	0.0203125 	150.000000	0.0203848 	150.000000	7.52994e-06	
155.000000	0.0199364 	155.000000	0.0199394 	155.000000	0.0198841 	155.000000	0.0198578 	155.000000	0.0199321 	155.000000	7.30563e-06	
160.000000	0.0195224 	160.000000	0.0195136 	160.000000	0.0194564 	160.000000	0.0194303 	160.000000	0.0195065 	160.000000	7.09477e-06	
165.000000	0.019132  	165.000000	0.0191126 	165.000000	0.0190548 	165.000000	0.0190277 	165.000000	0.0191057 	165.000000	6.89617e-06	
170.000000	0.0187632 	170.000000	0.0187342 	170.000000	0.018675  	170.000000	0.0186478 	170.000000	0.0187275 	170.000000	6.70877e-06	
175.000000	0.0184142 	175.000000	0.0183767 	175.000000	0.0183152 	175.000000	0.0182888 	175.000000	0.0183702 	175.000000	6.53165e-06	
180.000000	0.0180834 	180.000000	0.0180383 	180.000000	0.0179748 	180.000000	0.017949  	180.000000	0.0180319 	180.000000	6.36397e-06	
185.000000	0.0177694 	185.000000	0.0177174 	185.000000	0.0176521 	185.000000	0.0176269 	185.000000	0.0177112 	185.000000	6.20499e-06	
190.000000	0.017471  	190.000000	0.0174129 	190.000000	0.0173457 	190.000000	0.0173211 	190.000000	0.0174069 	190.000000	6.05404e-06	
195.000000	0.017187  	195.000000	0.0171234 	195.000000	0.0170552 	195.000000	0.0170305 	195.000000	0.0171175 	195.000000	5.91051e-06	
200.000000	0.0169164 	200.000000	0.016848  	200.000000	0.0167794 	200.000000	0.016754  	200.000000	0.0168422 	200.000000	5.77388e-06	
210.000000	0.0164116 	210.000000	0.0163351 	210.000000	0.0162641 	210.000000	0.0162392 	210.000000	0.0163295 	210.000000	5.51935e-06	
220.000000	0.0159502 	220.000000	0.0158673 	220.000000	0.0157939 	220.000000	0.0157699 	220.000000	0.0158621 	220.000000	5.28706e-06	
230.000000	0.0155267 	230.000000	0.0154391 	230.000000	0.0153634 	230.000000	0.0153403 	230.000000	0.015434  	230.000000	5.07417e-06	
240.000000	0.0151367 	240.000000	0.0150456 	240.000000	0.0149694 	240.000000	0.0149457 	240.000000	0.0150407 	240.000000	4.87833e-06	
250.000000	0.0147763 	250.000000	0.0146827 	250.000000	0.0146057 	250.000000	0.0145819 	250.000000	0.014678  	250.000000	4.69755e-06	
260.000000	0.0144422 	260.000000	0.0143471 	260.000000	0.0142687 	260.000000	0.0142457 	260.000000	0.0143425 	260.000000	4.53013e-06	
270.000000	0.0141317 	270.000000	0.0140358 	270.000000	0.0139563 	270.000000	0.0139339 	270.000000	0.0140314 	270.000000	4.37464e-06	
280.000000	0.0138423 	280.000000	0.0137462 	280.000000	0.013666  	280.000000	0.0136442 	280.000000	0.013742  	280.000000	4.22981e-06	
290.000000	0.0135719 	290.000000	0.0134763 	290.000000	0.0133967 	290.000000	0.0133742 	290.000000	0.0134722 	290.000000	4.09459e-06	
300.000000	0.0133188 	300.000000	0.0132241 	300.000000	0.0131446 	300.000000	0.013122  	300.000000	0.0132201 	300.000000	3.96804e-06	
310.000000	0.0130814 	310.000000	0.0129879 	310.000000	0.012908  	310.000000	0.0128861 	310.000000	0.012984  	310.000000	3.84934e-06	
320.000000	0.0128582 	320.000000	0.0127663 	320.000000	0.0126863 	320.000000	0.0126648 	320.000000	0.0127625 	320.000000	3.73776e-06	
330.000000	0.012648  	330.000000	0.012558  	330.000000	0.0124779 	330.000000	0.0124569 	330.000000	0.0125543 	330.000000	3.63269e-06	
340.000000	0.0124497 	340.000000	0.0123618 	340.000000	0.0122821 	340.000000	0.0122613 	340.000000	0.0123583 	340.000000	3.53357e-06	
350.000000	0.0122624 	350.000000	0.0121768 	350.000000	0.0120983 	350.000000	0.012077  	350.000000	0.0121734 	350.000000	3.43989e-06	
360.000000	0.0120852 	360.000000	0.0120021 	360.000000	0.0119244 	360.000000	0.011903  	360.000000	0.0119987 	360.000000	3.35121e-06	
370.000000	0.0119173 	370.000000	0.0118368 	370.000000	0.0117586 	370.000000	0.0117376 	370.000000	0.0118335 	370.000000	3.26715e-06	
380.000000	0.011758  	380.000000	0.0116802 	380.000000	0.0116016 	380.000000	0.011581  	380.000000	0.011677  	380.000000	3.18734e-06	
390.000000	0.0116066 	390.000000	0.0115317 	390.000000	0.0114529 	390.000000	0.0114326 	390.000000	0.0115286 	390.000000	3.11147e-06	
400.000000	0.0114627 	400.000000	0.0113907 	400.000000	0.0113117 	400.000000	0.0112918 	400.000000	0.0113876 	400.000000	3.03924e-06	
410.000000	0.0113256 	410.000000	0.0112566 	410.000000	0.0111777 	410.000000	0.0111579 	410.000000	0.0112536 	410.000000	2.97041e-06	
420.000000	0.011195  	420.000000	0.0111289 	420.000000	0.0110507 	420.000000	0.0110306 	420.000000	0.011126  	420.000000	2.90473e-06	
430.000000	0.0110704 	430.000000	0.0110074 	430.000000	0.0109298 	430.000000	0.0109095 	430.000000	0.0110045 	430.000000	2.84198e-06	
440.000000	0.0109514 	440.000000	0.0108914 	440.000000	0.0108142 	440.000000	0.0107939 	440.000000	0.0108886 	440.000000	2.78199e-06	
450.000000	0.0108376 	450.000000	0.0107807 	450.000000	0.0107037 	450.000000	0.0106837 	450.000000	0.010778  	450.000000	2.72455e-06	
460.000000	0.0107288 	460.000000	0.0106749 	460.000000	0.0105982 	460.000000	0.0105785 	460.000000	0.0106723 	460.000000	2.66952e-06	
470.000000	0.0106246 	470.000000	0.0105738 	470.000000	0.0104974 	470.000000	0.010478  	470.000000	0.0105712 	470.000000	2.61675e-06	
480.000000	0.0105248 	480.000000	0.010477  	480.000000	0.010401  	480.000000	0.0103818 	480.000000	0.0104744 	480.000000	2.56609e-06	
490.000000	0.010429  	490.000000	0.0103843 	490.000000	0.0103086 	490.000000	0.0102897 	490.000000	0.0103818 	490.000000	2.51741e-06	
500.000000	0.0103371 	500.000000	0.0102954 	500.000000	0.0102203 	500.000000	0.0102015 	500.000000	0.0102929 	500.000000	2.47062e-06	
520.000000	0.0101641 	520.000000	0.0101284 	520.000000	0.0100551 	520.000000	0.0100359 	520.000000	0.010126  	520.000000	2.38222e-06	
540.000000	0.0100042 	540.000000	0.00997429	540.000000	0.00990251	540.000000	0.00988321	540.000000	0.00997199	540.000000	2.30014e-06	
560.000000	0.00985608	560.000000	0.00983181	560.000000	0.00976105	560.000000	0.0097422 	560.000000	0.00982958	560.000000	2.2237e-06	
580.000000	0.00971853	580.000000	0.00969976	580.000000	0.0096302 	580.000000	0.00961164	580.000000	0.00969761	580.000000	2.15233e-06	
600.000000	0.00959057	600.000000	0.00957714	600.000000	0.00950868	600.000000	0.00949049	600.000000	0.00957506	600.000000	2.08556e-06	
620.000000	0.00947132	620.000000	0.00946305	620.000000	0.00939583	620.000000	0.00937786	620.000000	0.00946103	620.000000	2.02293e-06	
640.000000	0.00936001	640.000000	0.00935671	640.000000	0.00929121	640.000000	0.00927294	640.000000	0.00935475	640.000000	1.96407e-06	
660.000000	0.00925596	660.000000	0.00925744	660.000000	0.00919355	660.000000	0.00917504	660.000000	0.00925553	660.000000	1.90865e-06	
680.000000	0.00915855	680.000000	0.00916463	680.000000	0.00910185	680.000000	0.00908354	680.000000	0.00916278	680.000000	1.85637e-06	
700.000000	0.00906726	700.000000	0.00907774	700.000000	0.00901591	700.000000	0.0089979 	700.000000	0.00907593	700.000000	1.80697e-06	
720.000000	0.0089816 	720.000000	0.00899629	720.000000	0.00893544	720.000000	0.00891762	720.000000	0.00899452	720.000000	1.76022e-06	
740.000000	0.00890113	740.000000	0.00891984	740.000000	0.00885989	740.000000	0.00884228	740.000000	0.00891812	740.000000	1.7159e-06	
760.000000	0.00882547	760.000000	0.00884802	760.000000	0.00878882	760.000000	0.00877147	760.000000	0.00884634	760.000000	1.67383e-06	
780.000000	0.00875427	780.000000	0.00878047	780.000000	0.00872205	780.000000	0.00870485	780.000000	0.00877883	780.000000	1.63384e-06	
800.000000	0.00868721	800.000000	0.00871688	800.000000	0.00865942	800.000000	0.0086421 	800.000000	0.00871529	800.000000	1.59577e-06	
820.000000	0.00862401	820.000000	0.00865698	820.000000	0.0086005 	820.000000	0.00858293	820.000000	0.00865542	820.000000	1.5595e-06	
840.000000	0.00856441	840.000000	0.00860049	840.000000	0.00854479	840.000000	0.00852709	840.000000	0.00859897	840.000000	1.52489e-06	
860.000000	0.00850817	860.000000	0.0085472 	860.000000	0.00849195	860.000000	0.00847434	860.000000	0.00854571	860.000000	1.49183e-06	
880.000000	0.00845507	880.000000	0.00849688	880.000000	0.00844189	880.000000	0.00842446	880.000000	0.00849542	880.000000	1.46022e-06	
900.000000	0.00840493	900.000000	0.00844935	900.000000	0.00839449	900.000000	0.00837726	900.000000	0.00844792	900.000000	1.42997e-06	
920.000000	0.00835754	920.000000	0.00840442	920.000000	0.00834965	920.000000	0.00833257	920.000000	0.00840302	920.000000	1.40098e-06	
940.000000	0.00831276	940.000000	0.00836194	940.000000	0.00830718	940.000000	0.00829021	940.000000	0.00836056	940.000000	1.37318e-06	
960.000000	0.00827043	960.000000	0.00832174	960.000000	0.00826692	960.000000	0.00825004	960.000000	0.0083204 	960.000000	1.3465e-06	
980.000000	0.0082304 	980.000000	0.00828371	980.000000	0.0082287 	980.000000	0.00821192	980.000000	0.00828239	980.000000	1.32087e-06	
1000.000000	0.00819255	1000.000000	0.0082477 	1000.000000	0.00819241	1000.000000	0.00817572	1000.000000	0.00824641	1000.000000	1.29623e-06	
1020.000000	0.00815675	1020.000000	0.00821361	1020.000000	0.0081579 	1020.000000	0.00814133	1020.000000	0.00821234	1020.000000	1.27252e-06	
1040.000000	0.0081229 	1040.000000	0.00818132	1040.000000	0.00812507	1040.000000	0.00810863	1040.000000	0.00818007	1040.000000	1.24969e-06	
1060.000000	0.00809089	1060.000000	0.00815074	1060.000000	0.00809383	1060.000000	0.00807754	1060.000000	0.00814951	1060.000000	1.22769e-06	
1080.000000	0.00806063	1080.000000	0.00812177	1080.000000	0.00806413	1080.000000	0.00804795	1080.000000	0.00812056	1080.000000	1.20648e-06	
1100.000000	0.00803202	1100.000000	0.00809433	1100.000000	0.00803591	1100.000000	0.00801978	1100.000000	0.00809314	1100.000000	1.18601e-06	
1120.000000	0.00800499	1120.000000	0.00806833	1120.000000	0.00800911	1120.000000	0.00799295	1120.000000	0.00806716	1120.000000	1.16624e-06	
1140.000000	0.00797945	1140.000000	0.0080437 	1140.000000	0.00798364	1140.000000	0.00796738	1140.000000	0.00804255	1140.000000	1.14715e-06	
1160.000000	0.00795534	1160.000000	0.00802037	1160.000000	0.0079594 	1160.000000	0.00794302	1160.000000	0.00801924	1160.000000	1.12869e-06	
1180.000000	0.00793258	1180.000000	0.00799828	1180.000000	0.00793628	1180.000000	0.00791979	1180.000000	0.00799717	1180.000000	1.11083e-06	
1200.000000	0.00791112	1200.000000	0.00797737	1200.000000	0.00791419	1200.000000	0.00789763	1200.000000	0.00797627	1200.000000	1.09355e-06	
1220.000000	0.00789089	1220.000000	0.00795757	1220.000000	0.00789306	1220.000000	0.00787649	1220.000000	0.0079565 	1220.000000	1.07681e-06	
1240.000000	0.00787183	1240.000000	0.00793884	1240.000000	0.00787284	1240.000000	0.00785631	1240.000000	0.00793778	1240.000000	1.06059e-06	
1260.000000	0.00785391	1260.000000	0.00792113	1260.000000	0.00785351	1260.000000	0.00783705	1260.000000	0.00792008	1260.000000	1.04488e-06	
1280.000000	0.00783705	1280.000000	0.00790439	1280.000000	0.00783503	1280.000000	0.00781866	1280.000000	0.00790336	1280.000000	1.02963e-06	
1300.000000	0.00782123	1300.000000	0.00788857	1300.000000	0.00781737	1300.000000	0.0078011 	1300.000000	0.00788755	1300.000000	1.01484e-06	
1320.000000	0.0078064 	1320.000000	0.00787363	1320.000000	0.00780052	1320.000000	0.00778433	1320.000000	0.00787263	1320.000000	1.00048e-06	
1340.000000	0.00779251	1340.000000	0.00785954	1340.000000	0.00778443	1340.000000	0.0077683 	1340.000000	0.00785856	1340.000000	9.86532e-07	
1360.000000	0.00777953	1360.000000	0.00784626	1360.000000	0.00776906	1360.000000	0.00775299	1360.000000	0.00784529	1360.000000	9.72982e-07	
1380.000000	0.00776742	1380.000000	0.00783376	1380.000000	0.00775439	1380.000000	0.00773836	1380.000000	0.0078328 	1380.000000	9.5981e-07	
1400.000000	0.00775614	1400.000000	0.00782199	1400.000000	0.00774036	1400.000000	0.00772438	1400.000000	0.00782104	1400.000000	9.47002e-07	
1420.000000	0.00774567	1420.000000	0.00781093	1420.000000	0.00772694	1420.000000	0.00771101	1420.000000	0.00781   	1420.000000	9.34542e-07	
1440.000000	0.00773597	1440.000000	0.00780056	1440.000000	0.00771411	1440.000000	0.00769824	1440.000000	0.00779964	1440.000000	9.22416e-07	
1460.000000	0.00772702	1460.000000	0.00779084	1460.000000	0.00770184	1460.000000	0.00768602	1460.000000	0.00778993	1460.000000	9.1061e-07	
1480.000000	0.00771877	1480.000000	0.00778174	1480.000000	0.0076901 	1480.000000	0.00767435	1480.000000	0.00778085	1480.000000	8.99113e-07	
1500.000000	0.00771122	1500.000000	0.00777325	1500.000000	0.00767887	1500.000000	0.00766319	1500.000000	0.00777237	1500.000000	8.87911e-07	
1520.000000	0.00770433	1520.000000	0.00776534	1520.000000	0.00766815	1520.000000	0.00765253	1520.000000	0.00776446	1520.000000	8.76994e-07	
1540.000000	0.00769809	1540.000000	0.00775799	1540.000000	0.0076579 	1540.000000	0.00764234	1540.000000	0.00775712	1540.000000	8.66351e-07	
1560.000000	0.00769246	1560.000000	0.00775117	1560.000000	0.00764813	1560.000000	0.00763259	1560.000000	0.00775031	1560.000000	8.55971e-07	
1580.000000	0.00768742	1580.000000	0.00774486	1580.000000	0.0076388 	1580.000000	0.00762328	1580.000000	0.00774402	1580.000000	8.45844e-07	
1600.000000	0.00768296	1600.000000	0.00773906	1600.000000	0.0076299 	1600.000000	0.00761439	1600.000000	0.00773822	1600.000000	8.35962e-07	
1620.000000	0.00767906	1620.000000	0.00773373	1620.000000	0.00762143	1620.000000	0.00760589	1620.000000	0.0077329 	1620.000000	8.26315e-07	
1640.000000	0.0076757 	1640.000000	0.00772886	1640.000000	0.00761335	1640.000000	0.00759777	1640.000000	0.00772804	1640.000000	8.16896e-07	
1660.000000	0.00767285	1660.000000	0.00772444	1660.000000	0.00760564	1660.000000	0.00759001	1660.000000	0.00772363	1660.000000	8.07696e-07	
1680.000000	0.00767051	1680.000000	0.00772045	1680.000000	0.00759829	1680.000000	0.00758261	1680.000000	0.00771965	1680.000000	7.98707e-07	
1700.000000	0.00766865	1700.000000	0.00771687	1700.000000	0.00759128	1700.000000	0.00757554	1700.000000	0.00771608	1700.000000	7.89922e-07	
1750.000000	0.00766604	1750.000000	0.00770963	1750.000000	0.00757511	1750.000000	0.00755926	1750.000000	0.00770887	1750.000000	7.68809e-07	
1800.000000	0.00766616	1800.000000	0.0077047 	1800.000000	0.00756072	1800.000000	0.0075448 	1800.000000	0.00770395	1800.000000	7.48828e-07	
1850.000000	0.0076688 	1850.000000	0.00770187	1850.000000	0.00754791	1850.000000	0.00753201	1850.000000	0.00770114	1850.000000	7.29892e-07	
1900.000000	0.00767378	1900.000000	0.00770098	1900.000000	0.00753655	1900.000000	0.00752071	1900.000000	0.00770027	1900.000000	7.11918e-07	
1950.000000	0.00768094	1950.000000	0.00770189	1950.000000	0.00752655	1950.000000	0.00751079	1950.000000	0.0077012 	1950.000000	6.94834e-07	
2000.000000	0.00769014	2000.000000	0.00770446	2000.000000	0.00751779	2000.000000	0.00750212	2000.000000	0.00770378	2000.000000	6.78576e-07	
2100.000000	0.00771413	2100.000000	0.00771411	2100.000000	0.00750363	2100.000000	0.00748811	2100.000000	0.00771346	2100.000000	6.48305e-07	
2200.000000	0.00774482	2200.000000	0.00772909	2200.000000	0.00749335	2200.000000	0.00747792	2200.000000	0.00772847	2200.000000	6.20695e-07	
2300.000000	0.00778144	2300.000000	0.0077487 	2300.000000	0.00748631	2300.000000	0.00747096	2300.000000	0.0077481 	2300.000000	5.95407e-07	
2400.000000	0.00782334	2400.000000	0.00777237	2400.000000	0.00748198	2400.000000	0.00746673	2400.000000	0.0077718 	2400.000000	5.72157e-07	
2500.000000	0.00786998	2500.000000	0.0077996 	2500.000000	0.00747996	2500.000000	0.00746481	2500.000000	0.00779905	2500.000000	5.50706e-07	
2600.000000	0.0079209 	2600.000000	0.00782999	2600.000000	0.00747991	2600.000000	0.00746485	2600.000000	0.00782946	2600.000000	5.3085e-07	
2700.000000	0.00797568	2700.000000	0.00786317	2700.000000	0.00748156	2700.000000	0.00746658	2700.000000	0.00786266	2700.000000	5.12418e-07	
2800.000000	0.008034  	2800.000000	0.00789885	2800.000000	0.00748469	2800.000000	0.00746975	2800.000000	0.00789836	2800.000000	4.95259e-07	
2900.000000	0.00809555	2900.000000	0.00793676	2900.000000	0.00748909	2900.000000	0.00747415	2900.000000	0.00793628	2900.000000	4.79244e-07	
3000.000000	0.00816007	3000.000000	0.00797668	3000.000000	0.00749459	3000.000000	0.00747961	3000.000000	0.00797621	3000.000000	4.64263e-07	
3200.000000	0.00829715	3200.000000	0.00806176	3200.000000	0.00750822	3200.000000	0.00749313	3200.000000	0.00806132	3200.000000	4.37019e-07	
3400.000000	0.00844371	3400.000000	0.00815278	3400.000000	0.00752455	3400.000000	0.00750935	3400.000000	0.00815236	3400.000000	4.12879e-07	
3600.000000	0.00859857	3600.000000	0.00824872	3600.000000	0.00754284	3600.000000	0.00752756	3600.000000	0.00824833	3600.000000	3.91337e-07	
3800.000000	0.00876078	3800.000000	0.00834877	3800.000000	0.00756254	3800.000000	0.00754723	3800.000000	0.0083484 	3800.000000	3.71991e-07	
4000.000000	0.00892958	4000.000000	0.0084523 	4000.000000	0.00758325	4000.000000	0.00756796	4000.000000	0.00845194	4000.000000	3.54518e-07	
4200.000000	0.00910433	4200.000000	0.00855877	4200.000000	0.00760468	4200.000000	0.00758942	4200.000000	0.00855843	4200.000000	3.38657e-07	
4400.000000	0.00928453	4400.000000	0.00866776	4400.000000	0.00762661	4400.000000	0.00761139	4400.000000	0.00866743	4400.000000	3.24193e-07	
4600.000000	0.00946975	4600.000000	0.00877892	4600.000000	0.00764884	4600.000000	0.00763367	4600.000000	0.00877861	4600.000000	3.10947e-07	
4800.000000	0.00965963	4800.000000	0.00889195	4800.000000	0.00767125	4800.000000	0.00765612	4800.000000	0.00889165	4800.000000	2.9877e-07	
5000.000000	0.00985387	5000.000000	0.00900661	5000.000000	0.00769372	5000.000000	0.00767863	5000.000000	0.00900632	5000.000000	2.87537e-07	
5250.000000	0.0101024 	5250.000000	0.00915191	5250.000000	0.00772177	5250.000000	0.00770672	5250.000000	0.00915164	5250.000000	2.74662e-07	
5500.000000	0.0103569 	5500.000000	0.0092991 	5500.000000	0.00774964	5500.000000	0.00773463	5500.000000	0.00929884	5500.000000	2.6292e-07	
6000.000000	0.0108825 	6000.000000	0.00959807	6000.000000	0.00780453	6000.000000	0.00778956	6000.000000	0.00959783	6000.000000	2.42285e-07	
6500.000000	0.0114286 	6500.000000	0.00990181	6500.000000	0.00785788	6500.000000	0.00784295	6500.000000	0.00990158	6500.000000	2.2473e-07	
7000.000000	0.0119934 	7000.000000	0.0102091 	7000.000000	0.00790946	7000.000000	0.00789455	7000.000000	0.0102089 	7000.000000	2.09608e-07	
7500.000000	0.0125758 	7500.000000	0.0105191 	7500.000000	0.00795917	7500.000000	0.00794429	7500.000000	0.0105189 	7500.000000	1.96443e-07	
8000.000000	0.0131749 	8000.000000	0.010831  	8000.000000	0.00800709	8000.000000	0.00799216	8000.000000	0.0108309 	8000.000000	1.84874e-07	
8500.000000	0.0137902 	8500.000000	0.0111446 	8500.000000	0.00805298	8500.000000	0.00803819	8500.000000	0.0111444 	8500.000000	1.74626e-07	
9000.000000	0.0144209 	9000.000000	0.0114593 	9000.000000	0.00809689	9000.000000	0.00808244	9000.000000	0.0114591 	9000.000000	1.65483e-07	
9500.000000	0.0150668 	9500.000000	0.0117749 	9500.000000	0.00813918	9500.000000	0.00812501	9500.000000	0.0117747 	9500.000000	1.57273e-07	
10000.000000	0.0157275 	10000.000000	0.0120911 	10000.000000	0.00818006	10000.000000	0.00816597	10000.000000	0.012091  	10000.000000	1.49861e-07	
11000.000000	0.0170923 	11000.000000	0.0127249 	11000.000000	0.00825757	11000.000000	0.00824343	11000.000000	0.0127248 	11000.000000	1.36998e-07	
12000.000000	0.0185136 	12000.000000	0.0133596 	12000.000000	0.00832968	12000.000000	0.00831548	12000.000000	0.0133595 	12000.000000	1.26219e-07	
13000.000000	0.0199906 	13000.000000	0.0139946 	13000.000000	0.00839691	13000.000000	0.00838273	13000.000000	0.0139945 	13000.000000	1.17051e-07	
14000.000000	0.0215225 	14000.000000	0.0146294 	14000.000000	0.0084598 	14000.000000	0.00844571	14000.000000	0.0146293 	14000.000000	1.09156e-07	
15000.000000	0.0231088 	15000.000000	0.0152637 	15000.000000	0.00851884	15000.000000	0.00850488	15000.000000	0.0152636 	15000.000000	1.02283e-07	
16000.000000	0.0247494 	16000.000000	0.0158973 	16000.000000	0.00857446	16000.000000	0.00856064	16000.000000	0.0158972 	16000.000000	9.62447e-08	
17000.000000	0.026444  	17000.000000	0.0165301 	17000.000000	0.00862703	17000.000000	0.00861333	17000.000000	0.01653   	17000.000000	9.08967e-08	
18000.000000	0.0281927 	18000.000000	0.0171619 	18000.000000	0.00867686	18000.000000	0.00866326	18000.000000	0.0171619 	18000.000000	8.6126e-08	
19000.000000	0.0299954 	19000.000000	0.0177928 	19000.000000	0.0087242 	19000.000000	0.00871069	19000.000000	0.0177928 	19000.000000	8.18431e-08	
20000.000000	0.0318521 	20000.000000	0.0184227 	20000.000000	0.00876928	20000.000000	0.00875584	20000.000000	0.0184227 	20000.000000	7.79764e-08	
21000.000000	0.0337631 	21000.000000	0.0190516 	21000.000000	0.00881235	21000.000000	0.00879891	21000.000000	0.0190515 	21000.000000	7.44674e-08	
22000.000000	0.0357285 	22000.000000	0.0196795 	22000.000000	0.00885358	22000.000000	0.00884007	22000.000000	0.0196794 	22000.000000	7.12684e-08	
23000.000000	0.0377484 	23000.000000	0.0203063 	23000.000000	0.00889265	23000.000000	0.00887949	23000.000000	0.0203062 	23000.000000	6.83396e-08	
24000.000000	0.039823  	24000.000000	0.0209321 	24000.000000	0.00893009	24000.000000	0.0089173 	24000.000000	0.020932  	24000.000000	6.5648e-08	
25000.000000	0.0419526 	25000.000000	0.0215569 	25000.000000	0.00896641	25000.000000	0.00895362	25000.000000	0.0215568 	25000.000000	6.31656e-08	
26000.000000	0.0441374 	26000.000000	0.0221807 	26000.000000	0.00900134	26000.000000	0.00898855	26000.000000	0.0221806 	26000.000000	6.08687e-08	
27000.000000	0.0463776 	27000.000000	0.0228035 	27000.000000	0.00903478	27000.000000	0.00902221	27000.000000	0.0228035 	27000.000000	5.87372e-08	
28000.000000	0.0486735 	28000.000000	0.0234254 	28000.000000	0.00906695	28000.000000	0.00905467	28000.000000	0.0234253 	28000.000000	5.67536e-08	
29000.000000	0.0510253 	29000.000000	0.0240463 	29000.000000	0.00909807	29000.000000	0.00908602	29000.000000	0.0240463 	29000.000000	5.49029e-08	
30000.000000	0.0534334 	30000.000000	0.0246663 	30000.000000	0.0091282 	30000.000000	0.00911632	30000.000000	0.0246663 	30000.000000	5.31721e-08	
32000.000000	0.0584195 	32000.000000	0.0259036 	32000.000000	0.00918557	32000.000000	0.00917406	32000.000000	0.0259036 	32000.000000	5.00261e-08	
34000.000000	0.063634  	34000.000000	0.0271375 	34000.000000	0.00923934	34000.000000	0.00922834	34000.000000	0.0271374 	34000.000000	4.72401e-08	
36000.000000	0.0690794 	36000.000000	0.028368  	36000.000000	0.00929003	36000.000000	0.00927955	36000.000000	0.028368  	36000.000000	4.47552e-08	
38000.000000	0.0747582 	38000.000000	0.0295954 	38000.000000	0.00933803	38000.000000	0.009328  	38000.000000	0.0295954 	38000.000000	4.25248e-08	
40000.000000	0.0806731 	40000.000000	0.0308197 	40000.000000	0.0093836 	40000.000000	0.00937398	40000.000000	0.0308197 	40000.000000	4.05112e-08	
42000.000000	0.0868266 	42000.000000	0.0320412 	42000.000000	0.00942691	42000.000000	0.00941772	42000.000000	0.0320412 	42000.000000	3.86842e-08	
44000.000000	0.0932215 	44000.000000	0.0332599 	44000.000000	0.00946815	44000.000000	0.00945943	44000.000000	0.0332598 	44000.000000	3.70188e-08	
46000.000000	0.0998605 	46000.000000	0.0344759 	46000.000000	0.00950748	46000.000000	0.00949928	46000.000000	0.0344758 	46000.000000	3.54942e-08	
48000.000000	0.106746  	48000.000000	0.0356893 	48000.000000	0.00954507	48000.000000	0.00953743	48000.000000	0.0356893 	48000.000000	3.40932e-08	
50000.000000	0.113882  	50000.000000	0.0369003 	50000.000000	0.00958106	50000.000000	0.00957402	50000.000000	0.0369003 	50000.000000	3.28012e-08	
