Energy (MeV/u)1	0 - [He-base] F.Hubert et al, AD&ND Tables 46(1990)1	Energy (MeV/u)2	1 - [H -base] J.F.Ziegler et al, Pergamon Press, NY (low energy)	Energy (MeV/u)3	2 - ATIMA 1.2  LS-theory (recommended for high energy)	Energy (MeV/u)4	3 - ATIMA 1.2  without LS-correction	Energy (MeV/u)5	4 - electrical component of [1] - J.F.Ziegler et al	Energy (MeV/u)6	5 - nuclear component of [1] - J.F.Ziegler et al	
0.001000	0.292782  	0.001000	0.292782  	0.001000	0.354791  	0.001000	0.354791  	0.001000	0.205096  	0.001000	0.0876863 	
0.002000	0.394078  	0.002000	0.394078  	0.002000	0.465317  	0.002000	0.465317  	0.002000	0.331153  	0.002000	0.0629253 	
0.005000	0.628455  	0.005000	0.628455  	0.005000	0.692813  	0.005000	0.692813  	0.005000	0.591907  	0.005000	0.0365488 	
0.008000	0.800204  	0.008000	0.800204  	0.008000	0.84493   	0.008000	0.84493   	0.008000	0.773507  	0.008000	0.0266963 	
0.010000	0.894202  	0.010000	0.894202  	0.010000	0.924247  	0.010000	0.924247  	0.010000	0.871359  	0.010000	0.0228437 	
0.015000	1.07756   	0.015000	1.07756   	0.015000	1.07947   	0.015000	1.07947   	0.015000	1.06066   	0.015000	0.0168954 	
0.020000	1.22233   	0.020000	1.22233   	0.020000	1.19976   	0.020000	1.19976   	0.020000	1.2087    	0.020000	0.0136355 	
0.025000	1.34251   	0.025000	1.34251   	0.025000	1.30066   	0.025000	1.30066   	0.025000	1.331     	0.025000	0.0115065 	
0.030000	1.44531   	0.030000	1.44531   	0.030000	1.40521   	0.030000	1.40521   	0.030000	1.43531   	0.030000	0.00999605	
0.035000	1.53488   	0.035000	1.53488   	0.035000	1.49689   	0.035000	1.49689   	0.035000	1.52602   	0.035000	0.0088632 	
0.040000	1.61381   	0.040000	1.61381   	0.040000	1.57813   	0.040000	1.57813   	0.040000	1.60583   	0.040000	0.00797901	
0.045000	1.68382   	0.045000	1.68382   	0.045000	1.65055   	0.045000	1.65055   	0.045000	1.67655   	0.045000	0.00726786	
0.050000	1.7461    	0.050000	1.7461    	0.050000	1.71531   	0.050000	1.71531   	0.050000	1.73941   	0.050000	0.00668229	
0.055000	1.80154   	0.055000	1.80154   	0.055000	1.77322   	0.055000	1.77322   	0.055000	1.79535   	0.055000	0.00619093	
0.060000	1.85083   	0.060000	1.85083   	0.060000	1.82496   	0.060000	1.82496   	0.060000	1.84506   	0.060000	0.00577221	
0.070000	1.93308   	0.070000	1.93308   	0.070000	1.91189   	0.070000	1.91189   	0.070000	1.92798   	0.070000	0.00509518	
0.080000	1.99633   	0.080000	1.99633   	0.080000	1.97946   	0.080000	1.97946   	0.080000	1.99176   	0.080000	0.00457014	
0.090000	2.04336   	0.090000	2.04336   	0.090000	2.03037   	0.090000	2.03037   	0.090000	2.03921   	0.090000	0.00415005	
0.100000	2.07652   	0.100000	2.07652   	0.100000	2.06696   	0.100000	2.06696   	0.100000	2.07271   	0.100000	0.00380565	
0.120000	2.10926   	0.120000	2.10926   	0.120000	2.10526   	0.120000	2.10526   	0.120000	2.10599   	0.120000	0.00327319	
0.140000	2.1086    	0.140000	2.1086    	0.140000	2.10867   	0.140000	2.10867   	0.140000	2.10572   	0.140000	0.00287938	
0.160000	2.08544   	0.160000	2.08544   	0.160000	2.08843   	0.160000	2.08843   	0.160000	2.08287   	0.160000	0.00257539	
0.180000	2.04795   	0.180000	2.04795   	0.180000	2.05302   	0.180000	2.05302   	0.180000	2.04562   	0.180000	0.00233308	
0.200000	2.00197   	0.200000	2.00197   	0.200000	2.00852   	0.200000	2.00852   	0.200000	1.99983   	0.200000	0.00213508	
0.250000	1.87302   	0.250000	1.87302   	0.250000	1.8817    	0.250000	1.8817    	0.250000	1.87126   	0.250000	0.00176788	
0.300000	1.74601   	0.300000	1.74601   	0.300000	1.75557   	0.300000	1.75557   	0.300000	1.74449   	0.300000	0.00151396	
0.350000	1.63093   	0.350000	1.63093   	0.350000	1.64075   	0.350000	1.64075   	0.350000	1.6296    	0.350000	0.00132719	
0.400000	1.52929   	0.400000	1.52929   	0.400000	1.539     	0.400000	1.539     	0.400000	1.5281    	0.400000	0.00118367	
0.450000	1.43995   	0.450000	1.43995   	0.450000	1.44933   	0.450000	1.44933   	0.450000	1.43888   	0.450000	0.00106969	
0.500000	1.3612    	0.500000	1.3612    	0.500000	1.37012   	0.500000	1.37012   	0.500000	1.36022   	0.500000	0.000976841	
0.600000	1.22916   	0.600000	1.22916   	0.600000	1.237     	0.600000	1.237     	0.600000	1.22832   	0.600000	0.000834398	
0.700000	1.12291   	0.700000	1.12291   	0.700000	1.12965   	0.700000	1.12965   	0.700000	1.12218   	0.700000	0.000729956	
0.800000	1.0355    	0.800000	1.0355    	0.800000	1.04122   	0.800000	1.04122   	0.800000	1.03485   	0.800000	0.000649897	
0.900000	0.962202  	0.900000	0.962202  	0.900000	0.967009  	0.900000	0.967009  	0.900000	0.961615  	0.900000	0.000586456	
1.000000	0.899727  	1.000000	0.899727  	1.000000	0.903739  	1.000000	0.903739  	1.000000	0.899192  	1.000000	0.000534871	
1.250000	0.777052  	1.250000	0.777052  	1.250000	0.779513  	1.250000	0.779513  	1.250000	0.776612  	1.250000	0.00043986	
1.500000	0.686285  	1.500000	0.686285  	1.500000	0.687659  	1.500000	0.687659  	1.500000	0.68591   	1.500000	0.000374696	
1.750000	0.615902  	1.750000	0.615902  	1.750000	0.616502  	1.750000	0.616502  	1.750000	0.615575  	1.750000	0.000327071	
2.000000	0.559466  	2.000000	0.559466  	2.000000	0.559502  	2.000000	0.559502  	2.000000	0.559175  	2.000000	0.000290661	
2.250000	0.513071  	2.250000	0.513071  	2.250000	0.512688  	2.250000	0.512688  	2.250000	0.512809  	2.250000	0.000261873	
2.500000	0.44577   	2.500000	0.474187  	2.500000	0.47349   	2.500000	0.47349   	2.500000	0.473948  	2.500000	0.00023851	
3.000000	0.389771  	3.000000	0.412558  	3.000000	0.411436  	3.000000	0.411436  	3.000000	0.412355  	3.000000	0.000202831	
3.500000	0.347217  	3.500000	0.365826  	3.500000	0.36445   	3.500000	0.36445   	3.500000	0.365649  	3.500000	0.000176807	
4.000000	0.313683  	4.000000	0.329124  	4.000000	0.327592  	4.000000	0.327592  	4.000000	0.328967  	4.000000	0.000156943	
4.500000	0.286514  	4.500000	0.299506  	4.500000	0.297879  	4.500000	0.297879  	4.500000	0.299365  	4.500000	0.000141259	
5.000000	0.264018  	5.000000	0.275081  	5.000000	0.273397  	5.000000	0.273397  	5.000000	0.274952  	5.000000	0.000128545	
5.500000	0.245058  	5.500000	0.254576  	5.500000	0.25286   	5.500000	0.25286   	5.500000	0.254458  	5.500000	0.000118021	
6.000000	0.228845  	6.000000	0.237103  	6.000000	0.235373  	6.000000	0.235373  	6.000000	0.236994  	6.000000	0.000109158	
6.500000	0.214809  	6.500000	0.222025  	6.500000	0.220293  	6.500000	0.220293  	6.500000	0.221923  	6.500000	0.000101586	
7.000000	0.20253   	7.000000	0.208872  	7.000000	0.207146  	7.000000	0.207146  	7.000000	0.208777  	7.000000	9.50393e-05	
7.500000	0.19169   	7.500000	0.197291  	7.500000	0.195575  	7.500000	0.195575  	7.500000	0.197201  	7.500000	8.93198e-05	
8.000000	0.182047  	8.000000	0.187009  	8.000000	0.185308  	8.000000	0.185308  	8.000000	0.186924  	8.000000	8.4278e-05	
8.500000	0.173406  	8.500000	0.177814  	8.500000	0.176131  	8.500000	0.176131  	8.500000	0.177734  	8.500000	7.97984e-05	
9.000000	0.165618  	9.000000	0.16954   	9.000000	0.167875  	9.000000	0.167875  	9.000000	0.169464  	9.000000	7.57908e-05	
9.500000	0.158559  	9.500000	0.16205   	9.500000	0.160406  	9.500000	0.160406  	9.500000	0.161978  	9.500000	7.21832e-05	
10.000000	0.152128  	10.000000	0.153216  	10.000000	0.153614  	10.000000	0.153614  	10.000000	0.153147  	10.000000	6.89178e-05	
11.000000	0.140841  	11.000000	0.14198   	11.000000	0.141612  	11.000000	0.14162   	11.000000	0.141917  	11.000000	6.32332e-05	
12.000000	0.131247  	12.000000	0.132394  	12.000000	0.131482  	12.000000	0.131496  	12.000000	0.132335  	12.000000	5.84497e-05	
13.000000	0.122986  	13.000000	0.124112  	13.000000	0.122819  	13.000000	0.122835  	13.000000	0.124058  	13.000000	5.43661e-05	
14.000000	0.115793  	14.000000	0.116883  	14.000000	0.115327  	14.000000	0.115341  	14.000000	0.116832  	14.000000	5.08376e-05	
15.000000	0.10947   	15.000000	0.110515  	15.000000	0.108781  	15.000000	0.108795  	15.000000	0.110467  	15.000000	4.77566e-05	
16.000000	0.103865  	16.000000	0.104859  	16.000000	0.103015  	16.000000	0.103029  	16.000000	0.104814  	16.000000	4.50422e-05	
17.000000	0.0988604 	17.000000	0.099802  	17.000000	0.0978997 	17.000000	0.0979119 	17.000000	0.0997594 	17.000000	4.26316e-05	
18.000000	0.0943629 	18.000000	0.0952513 	18.000000	0.093333  	18.000000	0.0933422 	18.000000	0.0952108 	18.000000	4.0476e-05	
19.000000	0.0902976 	19.000000	0.0911335 	19.000000	0.0892314 	19.000000	0.0892381 	19.000000	0.0910949 	19.000000	3.85364e-05	
20.000000	0.0866039 	20.000000	0.0873886 	20.000000	0.0855268 	20.000000	0.0855335 	20.000000	0.0873519 	20.000000	3.67814e-05	
21.000000	0.0832322 	21.000000	0.0839676 	21.000000	0.0821669 	21.000000	0.0821743 	21.000000	0.0839324 	21.000000	3.51856e-05	
22.000000	0.0801414 	22.000000	0.0808294 	22.000000	0.0791103 	22.000000	0.0791159 	22.000000	0.0807957 	22.000000	3.3728e-05	
23.000000	0.077297  	23.000000	0.0779399 	23.000000	0.0763195 	23.000000	0.0763211 	23.000000	0.0779076 	23.000000	3.23911e-05	
24.000000	0.0746702 	24.000000	0.0752703 	24.000000	0.0737609 	24.000000	0.0737587 	24.000000	0.0752391 	24.000000	3.11603e-05	
25.000000	0.0722364 	25.000000	0.0727958 	25.000000	0.071408  	25.000000	0.0714022 	25.000000	0.0727658 	25.000000	3.00233e-05	
27.000000	0.0678672 	27.000000	0.0683517 	27.000000	0.0672345 	27.000000	0.06722   	27.000000	0.0683237 	27.000000	2.79904e-05	
29.000000	0.0640543 	29.000000	0.064472  	29.000000	0.0636474 	29.000000	0.0636293 	29.000000	0.0644458 	29.000000	2.62251e-05	
31.000000	0.0606961 	31.000000	0.0610542 	31.000000	0.0604159 	31.000000	0.0603968 	31.000000	0.0610295 	31.000000	2.46774e-05	
33.000000	0.0577143 	33.000000	0.0580194 	33.000000	0.0574457 	33.000000	0.0574207 	33.000000	0.0579961 	33.000000	2.33087e-05	
35.000000	0.0550478 	35.000000	0.0553057 	35.000000	0.0547815 	35.000000	0.0547578 	35.000000	0.0552836 	35.000000	2.20895e-05	
38.000000	0.0515361 	38.000000	0.0517327 	38.000000	0.0512763 	38.000000	0.0512487 	38.000000	0.0517122 	38.000000	2.04906e-05	
41.000000	0.0485015 	41.000000	0.0486466 	41.000000	0.0482428 	41.000000	0.0482146 	41.000000	0.0486274 	41.000000	1.91155e-05	
44.000000	0.0458512 	44.000000	0.0459529 	44.000000	0.0455887 	44.000000	0.0455638 	44.000000	0.045935  	44.000000	1.79197e-05	
47.000000	0.0435153 	47.000000	0.0435804 	47.000000	0.0432551 	47.000000	0.0432268 	47.000000	0.0435635 	47.000000	1.68699e-05	
50.000000	0.0414398 	50.000000	0.0414741 	50.000000	0.0411788 	50.000000	0.0411502 	50.000000	0.0414582 	50.000000	1.59407e-05	
55.000000	0.0384492 	55.000000	0.0384428 	55.000000	0.038189  	55.000000	0.0381579 	55.000000	0.0384282 	55.000000	1.46076e-05	
60.000000	0.0359231 	60.000000	0.0358865 	60.000000	0.0356597 	60.000000	0.0356311 	60.000000	0.035873  	60.000000	1.34875e-05	
65.000000	0.0337592 	65.000000	0.0337006 	65.000000	0.033497  	65.000000	0.0334676 	65.000000	0.033688  	65.000000	1.25325e-05	
70.000000	0.0318833 	70.000000	0.031809  	70.000000	0.0316232 	70.000000	0.0315933 	70.000000	0.0317973 	70.000000	1.17083e-05	
75.000000	0.0302403 	75.000000	0.0301556 	75.000000	0.0299807 	75.000000	0.0299533 	75.000000	0.0301446 	75.000000	1.09894e-05	
80.000000	0.0287886 	80.000000	0.0286975 	80.000000	0.0285354 	80.000000	0.0285056 	80.000000	0.0286872 	80.000000	1.03566e-05	
85.000000	0.0274959 	85.000000	0.0274017 	85.000000	0.0272462 	85.000000	0.0272179 	85.000000	0.0273919 	85.000000	9.79521e-06	
90.000000	0.0263369 	90.000000	0.0262423 	90.000000	0.0260919 	90.000000	0.0260648 	90.000000	0.026233  	90.000000	9.29359e-06	
95.000000	0.0252913 	95.000000	0.0251985 	95.000000	0.0250551 	95.000000	0.0250261 	95.000000	0.0251897 	95.000000	8.8426e-06	
100.000000	0.024343  	100.000000	0.0242538 	100.000000	0.024113  	100.000000	0.0240853 	100.000000	0.0242454 	100.000000	8.43484e-06	
105.000000	0.0234786 	105.000000	0.0233946 	105.000000	0.0232558 	105.000000	0.0232291 	105.000000	0.0233865 	105.000000	8.06432e-06	
110.000000	0.0226873 	110.000000	0.0226096 	110.000000	0.0224718 	110.000000	0.0224466 	110.000000	0.0226019 	110.000000	7.7261e-06	
115.000000	0.0219599 	115.000000	0.0218896 	115.000000	0.0217546 	115.000000	0.0217284 	115.000000	0.0218822 	115.000000	7.41609e-06	
120.000000	0.0212888 	120.000000	0.0212267 	120.000000	0.0210937 	120.000000	0.021067  	120.000000	0.0212196 	120.000000	7.13085e-06	
125.000000	0.0206675 	125.000000	0.0206143 	125.000000	0.0204811 	125.000000	0.0204557 	125.000000	0.0206075 	125.000000	6.8675e-06	
130.000000	0.0200906 	130.000000	0.0200469 	130.000000	0.0199138 	130.000000	0.0198892 	130.000000	0.0200403 	130.000000	6.62359e-06	
135.000000	0.0195533 	135.000000	0.0195196 	135.000000	0.0193883 	135.000000	0.0193626 	135.000000	0.0195132 	135.000000	6.397e-06 	
140.000000	0.0190516 	140.000000	0.0190283 	140.000000	0.0188976 	140.000000	0.0188718 	140.000000	0.0190221 	140.000000	6.18595e-06	
145.000000	0.0185819 	145.000000	0.0185694 	145.000000	0.0184381 	145.000000	0.0184132 	145.000000	0.0185634 	145.000000	5.98886e-06	
150.000000	0.0181413 	150.000000	0.0181398 	150.000000	0.0180081 	150.000000	0.0179839 	150.000000	0.018134  	150.000000	5.80437e-06	
155.000000	0.0176128 	155.000000	0.0177368 	155.000000	0.0176044 	155.000000	0.017581  	155.000000	0.0177311 	155.000000	5.63131e-06	
160.000000	0.0172469 	160.000000	0.0173578 	160.000000	0.0172255 	160.000000	0.0172023 	160.000000	0.0173524 	160.000000	5.46863e-06	
165.000000	0.0169018 	165.000000	0.017001  	165.000000	0.0168696 	165.000000	0.0168455 	165.000000	0.0169956 	165.000000	5.31541e-06	
170.000000	0.0165758 	170.000000	0.0166642 	170.000000	0.016533  	170.000000	0.0165089 	170.000000	0.0166591 	170.000000	5.17085e-06	
175.000000	0.0162673 	175.000000	0.016346  	175.000000	0.0162141 	175.000000	0.0161907 	175.000000	0.016341  	175.000000	5.03421e-06	
180.000000	0.0159749 	180.000000	0.0160448 	180.000000	0.0159125 	180.000000	0.0158895 	180.000000	0.0160399 	180.000000	4.90486e-06	
185.000000	0.0156973 	185.000000	0.0157592 	185.000000	0.0156265 	185.000000	0.0156041 	185.000000	0.0157545 	185.000000	4.78222e-06	
190.000000	0.0154336 	190.000000	0.0154882 	190.000000	0.0153549 	190.000000	0.0153331 	190.000000	0.0154835 	190.000000	4.66578e-06	
195.000000	0.0151825 	195.000000	0.0152305 	195.000000	0.0150974 	195.000000	0.0150755 	195.000000	0.015226  	195.000000	4.55507e-06	
200.000000	0.0149433 	200.000000	0.0149853 	200.000000	0.0148529 	200.000000	0.0148303 	200.000000	0.0149809 	200.000000	4.44967e-06	
210.000000	0.0144972 	210.000000	0.0145287 	210.000000	0.0143962 	210.000000	0.014374  	210.000000	0.0145245 	210.000000	4.25335e-06	
220.000000	0.0140894 	220.000000	0.0141124 	220.000000	0.0139793 	220.000000	0.0139579 	220.000000	0.0141083 	220.000000	4.07419e-06	
230.000000	0.0137151 	230.000000	0.0137311 	230.000000	0.0135976 	230.000000	0.013577  	230.000000	0.0137272 	230.000000	3.91e-06  	
240.000000	0.0133704 	240.000000	0.0133808 	240.000000	0.0132482 	240.000000	0.0132271 	240.000000	0.013377  	240.000000	3.75897e-06	
250.000000	0.0130519 	250.000000	0.0130577 	250.000000	0.0129257 	250.000000	0.0129046 	250.000000	0.0130541 	250.000000	3.61955e-06	
260.000000	0.0127566 	260.000000	0.0127589 	260.000000	0.0126268 	260.000000	0.0126064 	260.000000	0.0127554 	260.000000	3.49045e-06	
270.000000	0.0124822 	270.000000	0.0124817 	270.000000	0.0123498 	270.000000	0.0123299 	270.000000	0.0124783 	270.000000	3.37054e-06	
280.000000	0.0122265 	280.000000	0.0122239 	280.000000	0.0120922 	280.000000	0.0120728 	280.000000	0.0122206 	280.000000	3.25887e-06	
290.000000	0.0119876 	290.000000	0.0119836 	290.000000	0.0118532 	290.000000	0.0118333 	290.000000	0.0119804 	290.000000	3.1546e-06	
300.000000	0.011764  	300.000000	0.011759  	300.000000	0.0116296 	300.000000	0.0116095 	300.000000	0.0117559 	300.000000	3.05702e-06	
310.000000	0.0115542 	310.000000	0.0115487 	310.000000	0.0114196 	310.000000	0.0114001 	310.000000	0.0115457 	310.000000	2.9655e-06	
320.000000	0.0113569 	320.000000	0.0113514 	320.000000	0.0112229 	320.000000	0.0112037 	320.000000	0.0113485 	320.000000	2.87947e-06	
330.000000	0.0111712 	330.000000	0.0111659 	330.000000	0.0110379 	330.000000	0.0110192 	330.000000	0.0111631 	330.000000	2.79847e-06	
340.000000	0.0109961 	340.000000	0.0109913 	340.000000	0.010864  	340.000000	0.0108456 	340.000000	0.0109886 	340.000000	2.72204e-06	
350.000000	0.0108306 	350.000000	0.0108266 	350.000000	0.0107008 	350.000000	0.0106819 	350.000000	0.0108239 	350.000000	2.64982e-06	
360.000000	0.010674  	360.000000	0.010671  	360.000000	0.0105464 	360.000000	0.0105274 	360.000000	0.0106684 	360.000000	2.58146e-06	
370.000000	0.0105257 	370.000000	0.0105238 	370.000000	0.0103999 	370.000000	0.0103812 	370.000000	0.0105213 	370.000000	2.51665e-06	
380.000000	0.0103849 	380.000000	0.0103844 	380.000000	0.0102612 	380.000000	0.0102429 	380.000000	0.0103819 	380.000000	2.45513e-06	
390.000000	0.0102512 	390.000000	0.0102522 	390.000000	0.0101298 	390.000000	0.0101117 	390.000000	0.0102498 	390.000000	2.39664e-06	
400.000000	0.0101241 	400.000000	0.0101266 	400.000000	0.0100049 	400.000000	0.00998722	400.000000	0.0101242 	400.000000	2.34096e-06	
410.000000	0.0100031 	410.000000	0.0100072 	410.000000	0.00988644	410.000000	0.00986892	410.000000	0.0100049 	410.000000	2.2879e-06	
420.000000	0.00988768	420.000000	0.00989358	420.000000	0.00977416	420.000000	0.00975637	420.000000	0.00989134	420.000000	2.23727e-06	
430.000000	0.00977761	430.000000	0.00978533	430.000000	0.00966728	430.000000	0.00964918	430.000000	0.00978314	430.000000	2.18891e-06	
440.000000	0.0096725 	440.000000	0.00968209	440.000000	0.00956434	440.000000	0.00954631	440.000000	0.00967995	440.000000	2.14267e-06	
450.000000	0.00957203	450.000000	0.00958354	450.000000	0.00946546	450.000000	0.00944773	450.000000	0.00958145	450.000000	2.0984e-06	
460.000000	0.00947592	460.000000	0.00948939	460.000000	0.00937106	460.000000	0.00935358	460.000000	0.00948733	460.000000	2.05598e-06	
470.000000	0.0093839 	470.000000	0.00939935	470.000000	0.00928089	470.000000	0.00926358	470.000000	0.00939734	470.000000	2.0153e-06	
480.000000	0.00929574	480.000000	0.00931319	480.000000	0.00919457	480.000000	0.00917748	480.000000	0.00931121	480.000000	1.97626e-06	
490.000000	0.00921119	490.000000	0.00923067	490.000000	0.00911188	490.000000	0.00909505	490.000000	0.00922873	490.000000	1.93875e-06	
500.000000	0.00913007	500.000000	0.00915157	500.000000	0.00903278	500.000000	0.00901607	500.000000	0.00914966	500.000000	1.90268e-06	
520.000000	0.00897733	520.000000	0.00900289	520.000000	0.00888478	520.000000	0.00886766	520.000000	0.00900105	520.000000	1.83455e-06	
540.000000	0.00883616	540.000000	0.00886575	540.000000	0.00874801	540.000000	0.00873085	540.000000	0.00886398	540.000000	1.77129e-06	
560.000000	0.00870537	560.000000	0.00873895	560.000000	0.00862117	560.000000	0.00860441	560.000000	0.00873723	560.000000	1.71238e-06	
580.000000	0.00858396	580.000000	0.00862145	580.000000	0.00850377	580.000000	0.00848727	580.000000	0.00861979	580.000000	1.65739e-06	
600.000000	0.00847102	600.000000	0.00851234	600.000000	0.00839469	600.000000	0.00837852	600.000000	0.00851073	600.000000	1.60593e-06	
620.000000	0.00836578	620.000000	0.00841083	620.000000	0.00829333	620.000000	0.00827736	620.000000	0.00840927	620.000000	1.55767e-06	
640.000000	0.00826756	640.000000	0.00831623	640.000000	0.00819931	640.000000	0.00818307	640.000000	0.00831472	640.000000	1.51232e-06	
660.000000	0.00817575	660.000000	0.00822793	660.000000	0.00811149	660.000000	0.00809503	660.000000	0.00822646	660.000000	1.46961e-06	
680.000000	0.00808981	680.000000	0.00814538	680.000000	0.00802898	680.000000	0.0080127 	680.000000	0.00814395	680.000000	1.42933e-06	
700.000000	0.00800928	700.000000	0.0080681 	700.000000	0.00795159	700.000000	0.00793559	700.000000	0.00806671	700.000000	1.39127e-06	
720.000000	0.00793372	720.000000	0.00799567	720.000000	0.00787909	720.000000	0.00786326	720.000000	0.00799432	720.000000	1.35524e-06	
740.000000	0.00786275	740.000000	0.0079277 	740.000000	0.00781097	740.000000	0.00779532	740.000000	0.00792638	740.000000	1.3211e-06	
760.000000	0.00779604	760.000000	0.00786385	760.000000	0.00774685	760.000000	0.00773143	760.000000	0.00786257	760.000000	1.28868e-06	
780.000000	0.00773326	780.000000	0.00780381	780.000000	0.00768656	780.000000	0.00767127	780.000000	0.00780256	780.000000	1.25787e-06	
800.000000	0.00767414	800.000000	0.00774731	800.000000	0.00762996	800.000000	0.00761456	800.000000	0.00774608	800.000000	1.22855e-06	
820.000000	0.00761843	820.000000	0.00769408	820.000000	0.00757666	820.000000	0.00756104	820.000000	0.00769288	820.000000	1.2006e-06	
840.000000	0.0075659 	840.000000	0.0076439 	840.000000	0.00752622	840.000000	0.00751049	840.000000	0.00764272	840.000000	1.17394e-06	
860.000000	0.00751635	860.000000	0.00759656	860.000000	0.00747835	860.000000	0.0074627 	860.000000	0.00759541	860.000000	1.14847e-06	
880.000000	0.00746956	880.000000	0.00755187	880.000000	0.00743295	880.000000	0.00741746	880.000000	0.00755075	880.000000	1.12412e-06	
900.000000	0.00742539	900.000000	0.00750967	900.000000	0.00738993	900.000000	0.00737462	900.000000	0.00750857	900.000000	1.10081e-06	
920.000000	0.00738365	920.000000	0.00746978	920.000000	0.00734919	920.000000	0.00733401	920.000000	0.0074687 	920.000000	1.07848e-06	
940.000000	0.00734422	940.000000	0.00743208	940.000000	0.00731057	940.000000	0.00729548	940.000000	0.00743102	940.000000	1.05707e-06	
960.000000	0.00730695	960.000000	0.00739641	960.000000	0.0072739 	960.000000	0.0072589 	960.000000	0.00739538	960.000000	1.03652e-06	
980.000000	0.00727171	980.000000	0.00736267	980.000000	0.00723907	980.000000	0.00722415	980.000000	0.00736166	980.000000	1.01677e-06	
1000.000000	0.0072384 	1000.000000	0.00733074	1000.000000	0.00720595	1000.000000	0.00719112	1000.000000	0.00732974	1000.000000	9.9779e-07	
1020.000000	0.0072069 	1020.000000	0.00730051	1020.000000	0.00717442	1020.000000	0.0071597 	1020.000000	0.00729953	1020.000000	9.79527e-07	
1040.000000	0.00717712	1040.000000	0.00727189	1040.000000	0.0071444 	1040.000000	0.00712979	1040.000000	0.00727093	1040.000000	9.61941e-07	
1060.000000	0.00714897	1060.000000	0.00724479	1060.000000	0.00711579	1060.000000	0.00710131	1060.000000	0.00724385	1060.000000	9.44995e-07	
1080.000000	0.00712236	1080.000000	0.00721913	1080.000000	0.00708855	1080.000000	0.00707417	1080.000000	0.0072182 	1080.000000	9.28655e-07	
1100.000000	0.00709721	1100.000000	0.00719482	1100.000000	0.00706264	1100.000000	0.0070483 	1100.000000	0.00719391	1100.000000	9.12889e-07	
1120.000000	0.00707346	1120.000000	0.00717181	1120.000000	0.00703799	1120.000000	0.00702363	1120.000000	0.00717091	1120.000000	8.97665e-07	
1140.000000	0.00705102	1140.000000	0.00715001	1140.000000	0.00701453	1140.000000	0.00700008	1140.000000	0.00714913	1140.000000	8.82957e-07	
1160.000000	0.00702984	1160.000000	0.00712938	1160.000000	0.00699217	1160.000000	0.00697761	1160.000000	0.00712851	1160.000000	8.68738e-07	
1180.000000	0.00700986	1180.000000	0.00710984	1180.000000	0.0069708 	1180.000000	0.00695615	1180.000000	0.00710899	1180.000000	8.54985e-07	
1200.000000	0.00699103	1200.000000	0.00709136	1200.000000	0.00695036	1200.000000	0.00693564	1200.000000	0.00709052	1200.000000	8.41674e-07	
1220.000000	0.00697328	1220.000000	0.00707387	1220.000000	0.00693078	1220.000000	0.00691605	1220.000000	0.00707304	1220.000000	8.28784e-07	
1240.000000	0.00695657	1240.000000	0.00705733	1240.000000	0.00691201	1240.000000	0.00689732	1240.000000	0.00705652	1240.000000	8.16295e-07	
1260.000000	0.00694085	1260.000000	0.0070417 	1260.000000	0.00689403	1260.000000	0.00687941	1260.000000	0.0070409 	1260.000000	8.04189e-07	
1280.000000	0.00692609	1280.000000	0.00702693	1280.000000	0.00687681	1280.000000	0.00686227	1280.000000	0.00702614	1280.000000	7.92448e-07	
1300.000000	0.00691224	1300.000000	0.00701299	1300.000000	0.00686034	1300.000000	0.00684587	1300.000000	0.00701221	1300.000000	7.81056e-07	
1320.000000	0.00689925	1320.000000	0.00699983	1320.000000	0.00684457	1320.000000	0.00683018	1320.000000	0.00699906	1320.000000	7.69997e-07	
1340.000000	0.00688711	1340.000000	0.00698743	1340.000000	0.00682949	1340.000000	0.00681516	1340.000000	0.00698667	1340.000000	7.59256e-07	
1360.000000	0.00687576	1360.000000	0.00697575	1360.000000	0.00681506	1360.000000	0.00680077	1360.000000	0.006975  	1360.000000	7.48821e-07	
1380.000000	0.00686518	1380.000000	0.00696476	1380.000000	0.00680124	1380.000000	0.006787  	1380.000000	0.00696402	1380.000000	7.38677e-07	
1400.000000	0.00685534	1400.000000	0.00695442	1400.000000	0.006788  	1400.000000	0.0067738 	1400.000000	0.00695369	1400.000000	7.28813e-07	
1420.000000	0.00684621	1420.000000	0.00694472	1420.000000	0.00677531	1420.000000	0.00676116	1420.000000	0.006944  	1420.000000	7.19218e-07	
1440.000000	0.00683776	1440.000000	0.00693563	1440.000000	0.00676315	1440.000000	0.00674904	1440.000000	0.00693492	1440.000000	7.0988e-07	
1460.000000	0.00682997	1460.000000	0.00692712	1460.000000	0.00675148	1460.000000	0.00673743	1460.000000	0.00692642	1460.000000	7.00788e-07	
1480.000000	0.00682281	1480.000000	0.00691917	1480.000000	0.00674029	1480.000000	0.0067263 	1480.000000	0.00691848	1480.000000	6.91934e-07	
1500.000000	0.00681626	1500.000000	0.00691176	1500.000000	0.00672957	1500.000000	0.00671563	1500.000000	0.00691107	1500.000000	6.83308e-07	
1520.000000	0.00681029	1520.000000	0.00690486	1520.000000	0.00671929	1520.000000	0.00670541	1520.000000	0.00690418	1520.000000	6.74901e-07	
1540.000000	0.00680489	1540.000000	0.00689846	1540.000000	0.00670944	1540.000000	0.0066956 	1540.000000	0.00689779	1540.000000	6.66705e-07	
1560.000000	0.00680004	1560.000000	0.00689253	1560.000000	0.00670001	1560.000000	0.0066862 	1560.000000	0.00689187	1560.000000	6.58712e-07	
1580.000000	0.00679571	1580.000000	0.00688707	1580.000000	0.00669098	1580.000000	0.00667719	1580.000000	0.00688642	1580.000000	6.50914e-07	
1600.000000	0.00679189	1600.000000	0.00688204	1600.000000	0.00668234	1600.000000	0.00666855	1600.000000	0.0068814 	1600.000000	6.43305e-07	
1620.000000	0.00678856	1620.000000	0.00687745	1620.000000	0.00667407	1620.000000	0.00666026	1620.000000	0.00687681	1620.000000	6.35876e-07	
1640.000000	0.0067857 	1640.000000	0.00687326	1640.000000	0.00666616	1640.000000	0.00665231	1640.000000	0.00687264	1640.000000	6.28623e-07	
1660.000000	0.0067833 	1660.000000	0.00686948	1660.000000	0.00665858	1660.000000	0.0066447 	1660.000000	0.00686885	1660.000000	6.21539e-07	
1680.000000	0.00678135	1680.000000	0.00686607	1680.000000	0.00665133	1680.000000	0.00663739	1680.000000	0.00686545	1680.000000	6.14617e-07	
1700.000000	0.00677983	1700.000000	0.00686303	1700.000000	0.00664437	1700.000000	0.00663039	1700.000000	0.00686242	1700.000000	6.07853e-07	
1750.000000	0.00677781	1750.000000	0.00685697	1750.000000	0.00662822	1750.000000	0.00661413	1750.000000	0.00685638	1750.000000	5.91596e-07	
1800.000000	0.0067782 	1800.000000	0.00685295	1800.000000	0.00661365	1800.000000	0.00659951	1800.000000	0.00685237	1800.000000	5.76211e-07	
1850.000000	0.00678081	1850.000000	0.00685081	1850.000000	0.00660051	1850.000000	0.00658638	1850.000000	0.00685025	1850.000000	5.61631e-07	
1900.000000	0.00678549	1900.000000	0.0068504 	1900.000000	0.00658868	1900.000000	0.0065746 	1900.000000	0.00684985	1900.000000	5.47791e-07	
1950.000000	0.0067921 	1950.000000	0.00685159	1950.000000	0.00657806	1950.000000	0.00656406	1950.000000	0.00685106	1950.000000	5.34638e-07	
2000.000000	0.00680051	2000.000000	0.00685426	2000.000000	0.00656857	2000.000000	0.00655465	2000.000000	0.00685374	2000.000000	5.22121e-07	
2100.000000	0.00682225	2100.000000	0.00686362	2100.000000	0.00655261	2100.000000	0.00653882	2100.000000	0.00686312	2100.000000	4.98815e-07	
2200.000000	0.0068499 	2200.000000	0.00687773	2200.000000	0.00654017	2200.000000	0.00652646	2200.000000	0.00687725	2200.000000	4.77558e-07	
2300.000000	0.00688278	2300.000000	0.00689596	2300.000000	0.00653065	2300.000000	0.00651701	2300.000000	0.00689551	2300.000000	4.5809e-07	
2400.000000	0.00692032	2400.000000	0.00691781	2400.000000	0.0065236 	2400.000000	0.00651004	2400.000000	0.00691737	2400.000000	4.40191e-07	
2500.000000	0.00696204	2500.000000	0.00694284	2500.000000	0.00651864	2500.000000	0.00650518	2500.000000	0.00694242	2500.000000	4.23678e-07	
2600.000000	0.00700753	2600.000000	0.00697068	2600.000000	0.00651549	2600.000000	0.00650211	2600.000000	0.00697027	2600.000000	4.08394e-07	
2700.000000	0.00705644	2700.000000	0.007001  	2700.000000	0.0065139 	2700.000000	0.00650059	2700.000000	0.00700061	2700.000000	3.94205e-07	
2800.000000	0.00710845	2800.000000	0.00703355	2800.000000	0.00651367	2800.000000	0.00650039	2800.000000	0.00703317	2800.000000	3.80996e-07	
2900.000000	0.00716331	2900.000000	0.00706809	2900.000000	0.00651461	2900.000000	0.00650133	2900.000000	0.00706772	2900.000000	3.68669e-07	
3000.000000	0.0072208 	3000.000000	0.00710441	3000.000000	0.00651656	3000.000000	0.00650325	3000.000000	0.00710406	3000.000000	3.57138e-07	
3200.000000	0.00734284	3200.000000	0.00718173	3200.000000	0.00652294	3200.000000	0.00650952	3200.000000	0.0071814 	3200.000000	3.36168e-07	
3400.000000	0.00747323	3400.000000	0.00726434	3400.000000	0.00653187	3400.000000	0.00651836	3400.000000	0.00726403	3400.000000	3.17588e-07	
3600.000000	0.00761094	3600.000000	0.00735134	3600.000000	0.00654268	3600.000000	0.0065291 	3600.000000	0.00735104	3600.000000	3.01009e-07	
3800.000000	0.00775511	3800.000000	0.00744199	3800.000000	0.00655489	3800.000000	0.00654128	3800.000000	0.00744171	3800.000000	2.8612e-07	
4000.000000	0.00790508	4000.000000	0.00753574	4000.000000	0.00656812	4000.000000	0.00655452	4000.000000	0.00753547	4000.000000	2.72673e-07	
4200.000000	0.00806029	4200.000000	0.0076321 	4200.000000	0.00658211	4200.000000	0.00656855	4200.000000	0.00763184	4200.000000	2.60467e-07	
4400.000000	0.00822029	4400.000000	0.00773071	4400.000000	0.00659665	4400.000000	0.00658313	4400.000000	0.00773046	4400.000000	2.49336e-07	
4600.000000	0.0083847 	4600.000000	0.00783125	4600.000000	0.00661158	4600.000000	0.0065981 	4600.000000	0.00783101	4600.000000	2.39143e-07	
4800.000000	0.00855321	4800.000000	0.00793346	4800.000000	0.00662678	4800.000000	0.00661333	4800.000000	0.00793323	4800.000000	2.29773e-07	
5000.000000	0.00872555	5000.000000	0.00803711	5000.000000	0.00664212	5000.000000	0.00662871	5000.000000	0.00803689	5000.000000	2.21129e-07	
5250.000000	0.00894601	5250.000000	0.00816843	5250.000000	0.0066614 	5250.000000	0.00664802	5250.000000	0.00816822	5250.000000	2.11222e-07	
5500.000000	0.00917173	5500.000000	0.00830143	5500.000000	0.00668067	5500.000000	0.00666732	5500.000000	0.00830123	5500.000000	2.02188e-07	
6000.000000	0.00963772	6000.000000	0.00857151	6000.000000	0.00671883	6000.000000	0.00670552	6000.000000	0.00857133	6000.000000	1.86311e-07	
6500.000000	0.0101216 	6500.000000	0.00884582	6500.000000	0.00675611	6500.000000	0.00674283	6500.000000	0.00884565	6500.000000	1.72804e-07	
7000.000000	0.010622  	7000.000000	0.00912328	7000.000000	0.00679224	7000.000000	0.006779  	7000.000000	0.00912312	7000.000000	1.61171e-07	
7500.000000	0.0111378 	7500.000000	0.00940312	7500.000000	0.00682712	7500.000000	0.0068139 	7500.000000	0.00940297	7500.000000	1.51042e-07	
8000.000000	0.0116683 	8000.000000	0.00968475	8000.000000	0.00686077	8000.000000	0.0068475 	8000.000000	0.0096846 	8000.000000	1.42143e-07	
8500.000000	0.0122128 	8500.000000	0.00996774	8500.000000	0.00689295	8500.000000	0.0068798 	8500.000000	0.0099676 	8500.000000	1.34259e-07	
9000.000000	0.012771  	9000.000000	0.0102518 	9000.000000	0.00692367	9000.000000	0.00691084	9000.000000	0.0102516 	9000.000000	1.27226e-07	
9500.000000	0.0133424 	9500.000000	0.0105366 	9500.000000	0.00695325	9500.000000	0.00694066	9500.000000	0.0105364 	9500.000000	1.20911e-07	
10000.000000	0.0139267 	10000.000000	0.0108219 	10000.000000	0.00698183	10000.000000	0.00696931	10000.000000	0.0108218 	10000.000000	1.1521e-07	
11000.000000	0.0151334 	11000.000000	0.0113938 	11000.000000	0.00703595	11000.000000	0.00702338	11000.000000	0.0113937 	11000.000000	1.05317e-07	
12000.000000	0.0163896 	12000.000000	0.0119665 	12000.000000	0.00708614	12000.000000	0.00707352	12000.000000	0.0119664 	12000.000000	9.70262e-08	
13000.000000	0.0176943 	13000.000000	0.0125394 	13000.000000	0.00713275	13000.000000	0.00712014	13000.000000	0.0125393 	13000.000000	8.99753e-08	
14000.000000	0.0190471 	14000.000000	0.013112  	14000.000000	0.00717617	14000.000000	0.00716365	14000.000000	0.0131119 	14000.000000	8.39032e-08	
15000.000000	0.0204475 	15000.000000	0.0136842 	15000.000000	0.00721679	15000.000000	0.00720438	15000.000000	0.0136841 	15000.000000	7.86179e-08	
16000.000000	0.0218952 	16000.000000	0.0142558 	16000.000000	0.00725491	16000.000000	0.00724263	16000.000000	0.0142557 	16000.000000	7.39746e-08	
17000.000000	0.0233901 	17000.000000	0.0148266 	17000.000000	0.00729082	17000.000000	0.00727865	17000.000000	0.0148265 	17000.000000	6.98621e-08	
18000.000000	0.0249322 	18000.000000	0.0153966 	18000.000000	0.00732475	18000.000000	0.00731266	18000.000000	0.0153965 	18000.000000	6.61937e-08	
19000.000000	0.0265214 	19000.000000	0.0159657 	19000.000000	0.00735688	19000.000000	0.00734487	19000.000000	0.0159656 	19000.000000	6.29005e-08	
20000.000000	0.0281578 	20000.000000	0.0165338 	20000.000000	0.00738738	20000.000000	0.00737543	20000.000000	0.0165338 	20000.000000	5.99274e-08	
21000.000000	0.0298414 	21000.000000	0.0171011 	21000.000000	0.00741644	21000.000000	0.0074045 	21000.000000	0.017101  	21000.000000	5.72294e-08	
22000.000000	0.0315725 	22000.000000	0.0176674 	22000.000000	0.0074442 	22000.000000	0.0074322 	22000.000000	0.0176674 	22000.000000	5.47698e-08	
23000.000000	0.0333511 	23000.000000	0.0182328 	23000.000000	0.00747034	23000.000000	0.00745864	23000.000000	0.0182327 	23000.000000	5.2518e-08	
24000.000000	0.0351774 	24000.000000	0.0187972 	24000.000000	0.00749531	24000.000000	0.00748394	24000.000000	0.0187972 	24000.000000	5.04486e-08	
25000.000000	0.0370516 	25000.000000	0.0193608 	25000.000000	0.00751954	25000.000000	0.00750818	25000.000000	0.0193607 	25000.000000	4.85401e-08	
26000.000000	0.0389738 	26000.000000	0.0199234 	26000.000000	0.0075428 	26000.000000	0.00753143	26000.000000	0.0199234 	26000.000000	4.67742e-08	
27000.000000	0.0409444 	27000.000000	0.0204852 	27000.000000	0.00756495	27000.000000	0.00755378	27000.000000	0.0204851 	27000.000000	4.51355e-08	
28000.000000	0.0429634 	28000.000000	0.0210461 	28000.000000	0.0075862 	28000.000000	0.00757528	28000.000000	0.021046  	28000.000000	4.36106e-08	
29000.000000	0.0450311 	29000.000000	0.0216061 	29000.000000	0.00760671	29000.000000	0.007596  	29000.000000	0.0216061 	29000.000000	4.21878e-08	
30000.000000	0.0471477 	30000.000000	0.0221653 	30000.000000	0.00762654	30000.000000	0.00761598	30000.000000	0.0221653 	30000.000000	4.08573e-08	
32000.000000	0.0515287 	32000.000000	0.0232813 	32000.000000	0.00766416	32000.000000	0.00765394	32000.000000	0.0232813 	32000.000000	3.84389e-08	
34000.000000	0.0561085 	34000.000000	0.0243941 	34000.000000	0.00769925	34000.000000	0.00768947	34000.000000	0.0243941 	34000.000000	3.62973e-08	
36000.000000	0.0608889 	36000.000000	0.025504  	36000.000000	0.00773219	36000.000000	0.00772288	36000.000000	0.025504  	36000.000000	3.43872e-08	
38000.000000	0.0658722 	38000.000000	0.026611  	38000.000000	0.00776329	38000.000000	0.00775437	38000.000000	0.026611  	38000.000000	3.26727e-08	
40000.000000	0.0710605 	40000.000000	0.0277152 	40000.000000	0.00779271	40000.000000	0.00778416	40000.000000	0.0277152 	40000.000000	3.1125e-08	
42000.000000	0.076456  	42000.000000	0.0288169 	42000.000000	0.00782059	42000.000000	0.00781242	42000.000000	0.0288169 	42000.000000	2.97207e-08	
44000.000000	0.082061  	44000.000000	0.029916  	44000.000000	0.00784703	44000.000000	0.00783928	44000.000000	0.029916  	44000.000000	2.84406e-08	
46000.000000	0.0878778 	46000.000000	0.0310127 	46000.000000	0.00787217	46000.000000	0.00786488	46000.000000	0.0310127 	46000.000000	2.72688e-08	
48000.000000	0.0939086 	48000.000000	0.0321072 	48000.000000	0.00789613	48000.000000	0.00788933	48000.000000	0.0321071 	48000.000000	2.6192e-08	
50000.000000	0.100156  	50000.000000	0.0331993 	50000.000000	0.00791898	50000.000000	0.00791273	50000.000000	0.0331993 	50000.000000	2.5199e-08	
