0.001000	2.6229    	0.001000	0.483985  	0.001000	0.445168  	0.001000	0.445168  	0.001000	0.248764  	0.001000	0.235221  	
0.002000	2.66371   	0.002000	0.577703  	0.002000	0.530046  	0.002000	0.530046  	0.002000	0.344565  	0.002000	0.233139  	
0.005000	2.90869   	0.005000	0.730974  	0.005000	0.670389  	0.005000	0.670389  	0.005000	0.530033  	0.005000	0.200941  	
0.008000	3.17204   	0.008000	0.835484  	0.008000	0.768235  	0.008000	0.768235  	0.008000	0.661057  	0.008000	0.174427  	
0.010000	3.33675   	0.010000	0.894793  	0.010000	0.824536  	0.010000	0.824536  	0.010000	0.734153  	0.010000	0.16064   	
0.015000	3.93118   	0.015000	1.02339   	0.015000	0.948214  	0.015000	0.948214  	0.015000	0.888279  	0.015000	0.135111  	
0.020000	4.50659   	0.020000	1.13437   	0.020000	1.05638   	0.020000	1.05638   	0.020000	1.01688   	0.020000	0.117488  	
0.025000	5.16475   	0.025000	1.26459   	0.025000	1.17944   	0.025000	1.17944   	0.025000	1.1601    	0.025000	0.104489  	
0.030000	5.76839   	0.030000	1.4506    	0.030000	1.44248   	0.030000	1.44248   	0.030000	1.35616   	0.030000	0.0944417 	
0.035000	6.3049    	0.035000	1.63574   	0.035000	1.64318   	0.035000	1.64318   	0.035000	1.54934   	0.035000	0.0864044 	
0.040000	6.76604   	0.040000	1.81613   	0.040000	1.80576   	0.040000	1.80576   	0.040000	1.73633   	0.040000	0.079804  	
0.045000	7.14323   	0.045000	1.98964   	0.045000	1.9503    	0.045000	1.9503    	0.045000	1.91537   	0.045000	0.0742705 	
0.050000	7.37631   	0.050000	2.15521   	0.050000	2.08569   	0.050000	2.08569   	0.050000	2.08566   	0.050000	0.0695534 	
0.055000	7.77116   	0.055000	2.30972   	0.055000	2.21495   	0.055000	2.21495   	0.055000	2.24424   	0.055000	0.0654765 	
0.060000	8.12056   	0.060000	2.43364   	0.060000	2.33884   	0.060000	2.33884   	0.060000	2.37173   	0.060000	0.0619122 	
0.070000	8.69103   	0.070000	2.65452   	0.070000	2.57057   	0.070000	2.57057   	0.070000	2.59856   	0.070000	0.0559629 	
0.080000	9.2952    	0.080000	2.85008   	0.080000	2.78052   	0.080000	2.78052   	0.080000	2.7989    	0.080000	0.05118   	
0.090000	9.79121   	0.090000	3.02297   	0.090000	2.96905   	0.090000	2.96905   	0.090000	2.97573   	0.090000	0.0472388 	
0.100000	10.178    	0.100000	3.17567   	0.100000	3.13733   	0.100000	3.13733   	0.100000	3.13175   	0.100000	0.0439269 	
0.120000	10.44     	0.120000	3.39217   	0.120000	3.41962   	0.120000	3.41962   	0.120000	3.3537    	0.120000	0.0384725 	
0.140000	10.6167   	0.140000	3.54724   	0.140000	3.64162   	0.140000	3.64162   	0.140000	3.51293   	0.140000	0.0343074 	
0.160000	10.776    	0.160000	3.67291   	0.160000	3.81661   	0.160000	3.81661   	0.160000	3.64176   	0.160000	0.0311485 	
0.180000	10.9462   	0.180000	3.77613   	0.180000	3.95542   	0.180000	3.95542   	0.180000	3.74756   	0.180000	0.0285732 	
0.200000	11.2149   	0.200000	3.87791   	0.200000	4.06676   	0.200000	4.06676   	0.200000	3.85148   	0.200000	0.0264289 	
0.250000	11.5147   	0.250000	4.09996   	0.250000	4.26463   	0.250000	4.26463   	0.250000	4.07761   	0.250000	0.0223512 	
0.300000	11.7816   	0.300000	4.24682   	0.300000	4.39355   	0.300000	4.39355   	0.300000	4.22737   	0.300000	0.0194485 	
0.350000	12.07     	0.350000	4.37032   	0.350000	4.48429   	0.350000	4.48429   	0.350000	4.35305   	0.350000	0.0172663 	
0.400000	12.3128   	0.400000	4.47889   	0.400000	4.57257   	0.400000	4.57257   	0.400000	4.46333   	0.400000	0.0155598 	
0.450000	12.4816   	0.450000	4.55903   	0.450000	4.68861   	0.450000	4.68861   	0.450000	4.54484   	0.450000	0.0141852 	
0.500000	12.5893   	0.500000	4.61851   	0.500000	4.77719   	0.500000	4.77719   	0.500000	4.60546   	0.500000	0.0130519 	
0.600000	12.2943   	0.600000	4.7116    	0.600000	4.89492   	0.600000	4.89492   	0.600000	4.70031   	0.600000	0.0112878 	
0.700000	11.8799   	0.700000	4.77483   	0.700000	4.95713   	0.700000	4.95713   	0.700000	4.76485   	0.700000	0.00997335	
0.800000	11.8312   	0.800000	4.80298   	0.800000	4.95426   	0.800000	4.95426   	0.800000	4.79403   	0.800000	0.00895259	
0.900000	11.7186   	0.900000	4.8064    	0.900000	4.92793   	0.900000	4.92793   	0.900000	4.79827   	0.900000	0.00813498	
1.000000	11.5846   	1.000000	4.80011   	1.000000	4.8897    	1.000000	4.8897    	1.000000	4.79265   	1.000000	0.00746409	
1.250000	11.1232   	1.250000	4.74007   	1.250000	4.76284   	1.250000	4.76284   	1.250000	4.73386   	1.250000	0.00621288	
1.500000	10.5396   	1.500000	4.60313   	1.500000	4.57893   	1.500000	4.57893   	1.500000	4.59779   	1.500000	0.00534191	
1.750000	9.97287   	1.750000	4.45473   	1.750000	4.41005   	1.750000	4.41005   	1.750000	4.45003   	1.750000	0.004698  	
2.000000	9.43389   	2.000000	4.30063   	2.000000	4.25301   	2.000000	4.25301   	2.000000	4.29643   	2.000000	0.00420112	
2.250000	8.95706   	2.250000	4.15404   	2.250000	4.10635   	2.250000	4.10635   	2.250000	4.15024   	2.250000	0.00380518	
2.500000	8.86159   	2.500000	4.01198   	2.500000	3.96915   	2.500000	3.96915   	2.500000	4.00849   	2.500000	0.0034817 	
3.000000	8.03384   	3.000000	3.75083   	3.000000	3.72025   	3.000000	3.72025   	3.000000	3.74785   	3.000000	0.00298367	
3.500000	7.3506    	3.500000	3.52598   	3.500000	3.5012    	3.500000	3.5012    	3.500000	3.52337   	3.500000	0.00261704	
4.000000	6.77846   	4.000000	3.32634   	4.000000	3.3075    	4.000000	3.3075    	4.000000	3.32401   	4.000000	0.00233509	
4.500000	6.29282   	4.500000	3.15162   	4.500000	3.1353    	4.500000	3.1353    	4.500000	3.14951   	4.500000	0.00211106	
5.000000	5.87556   	5.000000	2.99732   	5.000000	2.98136   	5.000000	2.98136   	5.000000	2.99539   	5.000000	0.00192848	
5.500000	5.51317   	5.500000	2.85962   	5.500000	2.84299   	5.500000	2.84299   	5.500000	2.85785   	5.500000	0.00177662	
6.000000	5.19544   	6.000000	2.73574   	6.000000	2.71797   	6.000000	2.71797   	6.000000	2.73409   	6.000000	0.00164819	
6.500000	4.91455   	6.500000	2.62343   	6.500000	2.60444   	6.500000	2.60444   	6.500000	2.6219    	6.500000	0.00153808	
7.000000	4.66439   	7.000000	2.5211    	7.000000	2.5009    	7.000000	2.5009    	7.000000	2.51966   	7.000000	0.00144254	
7.500000	4.44011   	7.500000	2.42748   	7.500000	2.40605   	7.500000	2.40605   	7.500000	2.42612   	7.500000	0.00135882	
8.000000	4.23786   	8.000000	2.34144   	8.000000	2.31884   	8.000000	2.31884   	8.000000	2.34016   	8.000000	0.00128482	
8.500000	4.0545    	8.500000	2.26205   	8.500000	2.23835   	8.500000	2.23835   	8.500000	2.26083   	8.500000	0.00121889	
9.000000	3.88747   	9.000000	2.18854   	9.000000	2.16384   	9.000000	2.16384   	9.000000	2.18738   	9.000000	0.00115977	
9.500000	3.73466   	9.500000	2.12024   	9.500000	2.09464   	9.500000	2.09464   	9.500000	2.11913   	9.500000	0.00110643	
10.000000	3.59429   	10.000000	2.07022   	10.000000	2.0302    	10.000000	2.0302    	10.000000	2.06917   	10.000000	0.00105805	
11.000000	3.34522   	11.000000	1.96685   	11.000000	1.92127   	11.000000	1.92679   	11.000000	1.96587   	11.000000	0.000973594	
12.000000	3.13086   	12.000000	1.87177   	12.000000	1.82448   	12.000000	1.83383   	12.000000	1.87087   	12.000000	0.000902275	
13.000000	2.94436   	13.000000	1.78463   	13.000000	1.73798   	13.000000	1.74994   	13.000000	1.78379   	13.000000	0.000841203	
14.000000	2.78054   	14.000000	1.70482   	14.000000	1.66014   	14.000000	1.6739    	14.000000	1.70403   	14.000000	0.000788281	
15.000000	2.63544   	15.000000	1.63166   	15.000000	1.58968   	15.000000	1.60468   	15.000000	1.63092   	15.000000	0.000741955	
16.000000	2.506     	16.000000	1.56451   	16.000000	1.52566   	16.000000	1.54142   	16.000000	1.56381   	16.000000	0.000701042	
17.000000	2.38976   	17.000000	1.50273   	17.000000	1.46726   	17.000000	1.48339   	17.000000	1.50207   	17.000000	0.000664631	
18.000000	2.28479   	18.000000	1.44578   	18.000000	1.41368   	18.000000	1.42998   	18.000000	1.44515   	18.000000	0.000632005	
19.000000	2.18949   	19.000000	1.39315   	19.000000	1.36432   	19.000000	1.38066   	19.000000	1.39254   	19.000000	0.000602593	
20.000000	2.10257   	20.000000	1.34439   	20.000000	1.31872   	20.000000	1.33499   	20.000000	1.34382   	20.000000	0.000575934	
21.000000	2.02296   	21.000000	1.29912   	21.000000	1.27619   	21.000000	1.29227   	21.000000	1.29857   	21.000000	0.000551653	
22.000000	1.94975   	22.000000	1.257     	22.000000	1.23667   	22.000000	1.25247   	22.000000	1.25647   	22.000000	0.00052944	
23.000000	1.88219   	23.000000	1.21771   	23.000000	1.20017   	23.000000	1.21563   	23.000000	1.2172    	23.000000	0.000509037	
24.000000	1.81964   	24.000000	1.18099   	24.000000	1.16611   	24.000000	1.18116   	24.000000	1.1805    	24.000000	0.000490227	
25.000000	1.76156   	25.000000	1.1466    	25.000000	1.13424   	25.000000	1.14886   	25.000000	1.14613   	25.000000	0.000472828	
27.000000	1.65699   	27.000000	1.084     	27.000000	1.07629   	27.000000	1.08997   	27.000000	1.08356   	27.000000	0.000441662	
29.000000	1.56541   	29.000000	1.02849   	29.000000	1.02494   	29.000000	1.03764   	29.000000	1.02807   	29.000000	0.000414537	
31.000000	1.48452   	31.000000	0.97894   	31.000000	0.977419  	31.000000	0.988581  	31.000000	0.978549  	31.000000	0.000390705	
33.000000	1.41253   	33.000000	0.93445   	33.000000	0.933217  	33.000000	0.942596  	33.000000	0.934081  	33.000000	0.00036959	
35.000000	1.34801   	35.000000	0.894287  	35.000000	0.893372  	35.000000	0.901316  	35.000000	0.893936  	35.000000	0.000350746	
38.000000	1.26285   	38.000000	0.840869  	38.000000	0.840594  	38.000000	0.846712  	38.000000	0.840544  	38.000000	0.000325984	
41.000000	1.18909   	41.000000	0.794255  	41.000000	0.794572  	41.000000	0.7993    	41.000000	0.793951  	41.000000	0.00030464	
44.000000	1.12456   	44.000000	0.753221  	44.000000	0.754134  	44.000000	0.757717  	44.000000	0.752935  	44.000000	0.000286042	
47.000000	1.0676    	47.000000	0.716818  	47.000000	0.718221  	47.000000	0.720924  	47.000000	0.716548  	47.000000	0.000269683	
50.000000	1.01693   	50.000000	0.684301  	50.000000	0.686148  	50.000000	0.688122  	50.000000	0.684046  	50.000000	0.000255177	
55.000000	0.943812  	55.000000	0.637183  	55.000000	0.63957   	55.000000	0.640669  	55.000000	0.636949  	55.000000	0.000234324	
60.000000	0.881971  	60.000000	0.597165  	60.000000	0.6001    	60.000000	0.600413  	60.000000	0.596948  	60.000000	0.00021676	
65.000000	0.828939  	65.000000	0.562743  	65.000000	0.566023  	65.000000	0.565803  	65.000000	0.562541  	65.000000	0.000201753	
70.000000	0.782928  	70.000000	0.532813  	70.000000	0.536289  	70.000000	0.535708  	70.000000	0.532624  	70.000000	0.000188775	
75.000000	0.742605  	75.000000	0.506543  	75.000000	0.510222  	75.000000	0.509285  	75.000000	0.506366  	75.000000	0.000177435	
80.000000	0.706957  	80.000000	0.483295  	80.000000	0.487059  	80.000000	0.485888  	80.000000	0.483127  	80.000000	0.000167437	
85.000000	0.6752    	85.000000	0.462571  	85.000000	0.466381  	85.000000	0.465019  	85.000000	0.462412  	85.000000	0.000158553	
90.000000	0.646717  	90.000000	0.443978  	90.000000	0.447807  	90.000000	0.446282  	90.000000	0.443828  	90.000000	0.000150604	
95.000000	0.621016  	95.000000	0.427201  	95.000000	0.431029  	95.000000	0.429363  	95.000000	0.427058  	95.000000	0.000143448	
100.000000	0.5977    	100.000000	0.411984  	100.000000	0.415793  	100.000000	0.414005  	100.000000	0.411847  	100.000000	0.00013697	
105.000000	0.576445  	105.000000	0.398118  	105.000000	0.4019    	105.000000	0.399999  	105.000000	0.397986  	105.000000	0.000131076	
110.000000	0.556983  	110.000000	0.385428  	110.000000	0.389112  	110.000000	0.387172  	110.000000	0.385302  	110.000000	0.000125691	
115.000000	0.53909   	115.000000	0.37377   	115.000000	0.37739   	115.000000	0.37538   	115.000000	0.373649  	115.000000	0.000120749	
120.000000	0.522581  	120.000000	0.363022  	120.000000	0.366572  	120.000000	0.364501  	120.000000	0.362906  	120.000000	0.000116198	
125.000000	0.507296  	125.000000	0.35308   	125.000000	0.356514  	125.000000	0.354432  	125.000000	0.352968  	125.000000	0.000111992	
130.000000	0.493102  	130.000000	0.343858  	130.000000	0.347188  	130.000000	0.345085  	130.000000	0.34375   	130.000000	0.000108093	
135.000000	0.479882  	135.000000	0.335278  	135.000000	0.338545  	135.000000	0.336385  	135.000000	0.335173  	135.000000	0.000104468	
140.000000	0.467538  	140.000000	0.327276  	140.000000	0.330459  	140.000000	0.328267  	140.000000	0.327175  	140.000000	0.000101089	
145.000000	0.455982  	145.000000	0.319794  	145.000000	0.322869  	145.000000	0.320673  	145.000000	0.319696  	145.000000	9.79302e-05	
150.000000	0.44514   	150.000000	0.312784  	150.000000	0.315759  	150.000000	0.313554  	150.000000	0.312689  	150.000000	9.49718e-05	
155.000000	0.429868  	155.000000	0.306201  	155.000000	0.309081  	155.000000	0.306867  	155.000000	0.306109  	155.000000	9.21945e-05	
160.000000	0.420919  	160.000000	0.300009  	160.000000	0.302793  	160.000000	0.300574  	160.000000	0.299919  	160.000000	8.9582e-05	
165.000000	0.412479  	165.000000	0.294172  	165.000000	0.296865  	165.000000	0.29464   	165.000000	0.294085  	165.000000	8.71198e-05	
170.000000	0.404506  	170.000000	0.288661  	170.000000	0.291265  	170.000000	0.289036  	170.000000	0.288576  	170.000000	8.47951e-05	
175.000000	0.396961  	175.000000	0.28345   	175.000000	0.285968  	175.000000	0.283736  	175.000000	0.283367  	175.000000	8.25966e-05	
180.000000	0.38981   	180.000000	0.278514  	180.000000	0.28095   	180.000000	0.278715  	180.000000	0.278433  	180.000000	8.05141e-05	
185.000000	0.383024  	185.000000	0.273832  	185.000000	0.276188  	185.000000	0.273951  	185.000000	0.273754  	185.000000	7.85385e-05	
190.000000	0.376573  	190.000000	0.269386  	190.000000	0.271663  	190.000000	0.269426  	190.000000	0.269309  	190.000000	7.66616e-05	
195.000000	0.370434  	195.000000	0.265157  	195.000000	0.267363  	195.000000	0.265122  	195.000000	0.265082  	195.000000	7.48763e-05	
200.000000	0.364585  	200.000000	0.261131  	200.000000	0.263267  	200.000000	0.261024  	200.000000	0.261058  	200.000000	7.31757e-05	
210.000000	0.353675  	210.000000	0.253629  	210.000000	0.255595  	210.000000	0.253388  	210.000000	0.253559  	210.000000	7.00056e-05	
220.000000	0.343703  	220.000000	0.246783  	220.000000	0.248618  	220.000000	0.246419  	220.000000	0.246716  	220.000000	6.71097e-05	
230.000000	0.334552  	230.000000	0.240509  	230.000000	0.242232  	230.000000	0.240033  	230.000000	0.240445  	230.000000	6.44535e-05	
240.000000	0.326125  	240.000000	0.23474   	240.000000	0.236363  	240.000000	0.234163  	240.000000	0.234678  	240.000000	6.20079e-05	
250.000000	0.318337  	250.000000	0.229417  	250.000000	0.230924  	250.000000	0.228748  	250.000000	0.229358  	250.000000	5.97486e-05	
260.000000	0.31112   	260.000000	0.224491  	260.000000	0.225891  	260.000000	0.223738  	260.000000	0.224434  	260.000000	5.76547e-05	
270.000000	0.304411  	270.000000	0.21992   	270.000000	0.221247  	270.000000	0.219091  	270.000000	0.219864  	270.000000	5.57086e-05	
280.000000	0.29816   	280.000000	0.215666  	280.000000	0.216921  	280.000000	0.21477   	280.000000	0.215612  	280.000000	5.38948e-05	
290.000000	0.292321  	290.000000	0.211699  	290.000000	0.212865  	290.000000	0.210741  	290.000000	0.211646  	290.000000	5.22001e-05	
300.000000	0.286855  	300.000000	0.20799   	300.000000	0.20909   	300.000000	0.206978  	300.000000	0.207939  	300.000000	5.06131e-05	
310.000000	0.281727  	310.000000	0.204516  	310.000000	0.205563  	310.000000	0.203456  	310.000000	0.204467  	310.000000	4.91235e-05	
320.000000	0.276908  	320.000000	0.201255  	320.000000	0.202235  	320.000000	0.200152  	320.000000	0.201208  	320.000000	4.77227e-05	
330.000000	0.272369  	330.000000	0.19819   	330.000000	0.199118  	330.000000	0.197048  	330.000000	0.198143  	330.000000	4.64028e-05	
340.000000	0.268089  	340.000000	0.195302  	340.000000	0.196198  	340.000000	0.194128  	340.000000	0.195257  	340.000000	4.51568e-05	
350.000000	0.264045  	350.000000	0.192578  	350.000000	0.193445  	350.000000	0.191375  	350.000000	0.192534  	350.000000	4.39787e-05	
360.000000	0.26022   	360.000000	0.190004  	360.000000	0.190832  	360.000000	0.188776  	360.000000	0.189961  	360.000000	4.2863e-05	
370.000000	0.256595  	370.000000	0.187569  	370.000000	0.188355  	370.000000	0.18632   	370.000000	0.187527  	370.000000	4.18048e-05	
380.000000	0.253157  	380.000000	0.185262  	380.000000	0.186024  	380.000000	0.183995  	380.000000	0.185221  	380.000000	4.07996e-05	
390.000000	0.249891  	390.000000	0.183073  	390.000000	0.183819  	390.000000	0.181792  	390.000000	0.183033  	390.000000	3.98436e-05	
400.000000	0.246785  	400.000000	0.180995  	400.000000	0.181715  	400.000000	0.179702  	400.000000	0.180956  	400.000000	3.89332e-05	
410.000000	0.243828  	410.000000	0.179018  	410.000000	0.179713  	410.000000	0.177717  	410.000000	0.17898   	410.000000	3.80651e-05	
420.000000	0.241009  	420.000000	0.177137  	420.000000	0.177815  	420.000000	0.17583   	420.000000	0.177099  	420.000000	3.72365e-05	
430.000000	0.238321  	430.000000	0.175344  	430.000000	0.176013  	430.000000	0.174033  	430.000000	0.175307  	430.000000	3.64446e-05	
440.000000	0.235753  	440.000000	0.173634  	440.000000	0.174295  	440.000000	0.172322  	440.000000	0.173598  	440.000000	3.5687e-05	
450.000000	0.233299  	450.000000	0.172002  	450.000000	0.172653  	450.000000	0.17069   	450.000000	0.171967  	450.000000	3.49615e-05	
460.000000	0.230952  	460.000000	0.170442  	460.000000	0.171082  	460.000000	0.169133  	460.000000	0.170408  	460.000000	3.42662e-05	
470.000000	0.228705  	470.000000	0.168951  	470.000000	0.169581  	470.000000	0.167646  	470.000000	0.168917  	470.000000	3.3599e-05	
480.000000	0.226552  	480.000000	0.167523  	480.000000	0.168156  	480.000000	0.166228  	480.000000	0.16749   	480.000000	3.29584e-05	
490.000000	0.224487  	490.000000	0.166156  	490.000000	0.166801  	490.000000	0.164875  	490.000000	0.166123  	490.000000	3.23428e-05	
500.000000	0.222506  	500.000000	0.164845  	500.000000	0.165503  	500.000000	0.163579  	500.000000	0.164814  	500.000000	3.17506e-05	
520.000000	0.218776  	520.000000	0.162382  	520.000000	0.16305   	520.000000	0.161147  	520.000000	0.162351  	520.000000	3.06315e-05	
540.000000	0.215329  	540.000000	0.160109  	540.000000	0.1608    	540.000000	0.158909  	540.000000	0.16008   	540.000000	2.95916e-05	
560.000000	0.212136  	560.000000	0.158008  	560.000000	0.158731  	560.000000	0.156844  	560.000000	0.15798   	560.000000	2.86226e-05	
580.000000	0.209172  	580.000000	0.156062  	580.000000	0.156804  	580.000000	0.154934  	580.000000	0.156034  	580.000000	2.77175e-05	
600.000000	0.206415  	600.000000	0.154254  	600.000000	0.155014  	600.000000	0.153165  	600.000000	0.154227  	600.000000	2.68701e-05	
620.000000	0.203846  	620.000000	0.152572  	620.000000	0.153358  	620.000000	0.151522  	620.000000	0.152546  	620.000000	2.60749e-05	
640.000000	0.201449  	640.000000	0.151006  	640.000000	0.151828  	640.000000	0.149995  	640.000000	0.15098   	640.000000	2.53272e-05	
660.000000	0.199208  	660.000000	0.149543  	660.000000	0.1504    	660.000000	0.148573  	660.000000	0.149519  	660.000000	2.46228e-05	
680.000000	0.197111  	680.000000	0.148176  	680.000000	0.149059  	680.000000	0.147246  	680.000000	0.148152  	680.000000	2.3958e-05	
700.000000	0.195145  	700.000000	0.146897  	700.000000	0.147809  	700.000000	0.146007  	700.000000	0.146874  	700.000000	2.33296e-05	
720.000000	0.193301  	720.000000	0.145699  	720.000000	0.146648  	720.000000	0.144848  	720.000000	0.145676  	720.000000	2.27345e-05	
740.000000	0.19157   	740.000000	0.144574  	740.000000	0.14556   	740.000000	0.143763  	740.000000	0.144552  	740.000000	2.21701e-05	
760.000000	0.189942  	760.000000	0.143518  	760.000000	0.144534  	760.000000	0.142746  	760.000000	0.143496  	760.000000	2.16342e-05	
780.000000	0.18841   	780.000000	0.142525  	780.000000	0.143568  	780.000000	0.141791  	780.000000	0.142504  	780.000000	2.11246e-05	
800.000000	0.186968  	800.000000	0.141591  	800.000000	0.142659  	800.000000	0.140895  	800.000000	0.14157   	800.000000	2.06393e-05	
820.000000	0.185609  	820.000000	0.140711  	820.000000	0.141807  	820.000000	0.140052  	820.000000	0.140691  	820.000000	2.01766e-05	
840.000000	0.184327  	840.000000	0.139883  	840.000000	0.141008  	840.000000	0.139259  	840.000000	0.139863  	840.000000	1.97351e-05	
860.000000	0.183118  	860.000000	0.139101  	860.000000	0.140259  	860.000000	0.138513  	860.000000	0.139082  	860.000000	1.93132e-05	
880.000000	0.181977  	880.000000	0.138364  	880.000000	0.139554  	880.000000	0.137809  	880.000000	0.138345  	880.000000	1.89096e-05	
900.000000	0.1809    	900.000000	0.137668  	900.000000	0.138887  	900.000000	0.137145  	900.000000	0.137649  	900.000000	1.85232e-05	
920.000000	0.179882  	920.000000	0.13701   	920.000000	0.138255  	920.000000	0.136519  	920.000000	0.136992  	920.000000	1.81528e-05	
940.000000	0.17892   	940.000000	0.136389  	940.000000	0.137656  	940.000000	0.135928  	940.000000	0.136371  	940.000000	1.77975e-05	
960.000000	0.178011  	960.000000	0.135802  	960.000000	0.137089  	960.000000	0.13537   	960.000000	0.135784  	960.000000	1.74564e-05	
980.000000	0.177152  	980.000000	0.135247  	980.000000	0.136554  	980.000000	0.134843  	980.000000	0.135229  	980.000000	1.71287e-05	
1000.000000	0.176339  	1000.000000	0.134721  	1000.000000	0.136048  	1000.000000	0.134344  	1000.000000	0.134705  	1000.000000	1.68134e-05	
1020.000000	0.175571  	1020.000000	0.134225  	1020.000000	0.135571  	1020.000000	0.133872  	1020.000000	0.134208  	1020.000000	1.651e-05 	
1040.000000	0.174845  	1040.000000	0.133755  	1040.000000	0.135122  	1040.000000	0.133426  	1040.000000	0.133739  	1040.000000	1.62178e-05	
1060.000000	0.174159  	1060.000000	0.13331   	1060.000000	0.134698  	1060.000000	0.133003  	1060.000000	0.133294  	1060.000000	1.59361e-05	
1080.000000	0.17351   	1080.000000	0.13289   	1080.000000	0.134298  	1080.000000	0.132603  	1080.000000	0.132874  	1080.000000	1.56644e-05	
1100.000000	0.172897  	1100.000000	0.132492  	1100.000000	0.133918  	1100.000000	0.132224  	1100.000000	0.132476  	1100.000000	1.54022e-05	
1120.000000	0.172318  	1120.000000	0.132115  	1120.000000	0.133556  	1120.000000	0.131865  	1120.000000	0.1321    	1120.000000	1.5149e-05	
1140.000000	0.171771  	1140.000000	0.131759  	1140.000000	0.133212  	1140.000000	0.131526  	1140.000000	0.131744  	1140.000000	1.49042e-05	
1160.000000	0.171255  	1160.000000	0.131422  	1160.000000	0.132886  	1160.000000	0.131204  	1160.000000	0.131407  	1160.000000	1.46675e-05	
1180.000000	0.170768  	1180.000000	0.131103  	1180.000000	0.132575  	1180.000000	0.130898  	1180.000000	0.131089  	1180.000000	1.44385e-05	
1200.000000	0.170309  	1200.000000	0.130802  	1200.000000	0.132281  	1200.000000	0.130609  	1200.000000	0.130788  	1200.000000	1.42168e-05	
1220.000000	0.169876  	1220.000000	0.130518  	1220.000000	0.132002  	1220.000000	0.130335  	1220.000000	0.130504  	1220.000000	1.40021e-05	
1240.000000	0.169469  	1240.000000	0.130249  	1240.000000	0.131738  	1240.000000	0.130076  	1240.000000	0.130236  	1240.000000	1.3794e-05	
1260.000000	0.169086  	1260.000000	0.129996  	1260.000000	0.131488  	1260.000000	0.129829  	1260.000000	0.129982  	1260.000000	1.35923e-05	
1280.000000	0.168726  	1280.000000	0.129757  	1280.000000	0.131251  	1280.000000	0.129596  	1280.000000	0.129744  	1280.000000	1.33965e-05	
1300.000000	0.168389  	1300.000000	0.129532  	1300.000000	0.131027  	1300.000000	0.129375  	1300.000000	0.129518  	1300.000000	1.32066e-05	
1320.000000	0.168072  	1320.000000	0.129319  	1320.000000	0.130815  	1320.000000	0.129166  	1320.000000	0.129306  	1320.000000	1.30221e-05	
1340.000000	0.167776  	1340.000000	0.12912   	1340.000000	0.130615  	1340.000000	0.128968  	1340.000000	0.129107  	1340.000000	1.2843e-05	
1360.000000	0.1675    	1360.000000	0.128932  	1360.000000	0.130425  	1360.000000	0.128781  	1360.000000	0.12892   	1360.000000	1.26688e-05	
1380.000000	0.167242  	1380.000000	0.128756  	1380.000000	0.130246  	1380.000000	0.128603  	1380.000000	0.128744  	1380.000000	1.24995e-05	
1400.000000	0.167003  	1400.000000	0.128591  	1400.000000	0.130077  	1400.000000	0.128435  	1400.000000	0.128579  	1400.000000	1.23349e-05	
1420.000000	0.16678   	1420.000000	0.128436  	1420.000000	0.129916  	1420.000000	0.128276  	1420.000000	0.128424  	1420.000000	1.21747e-05	
1440.000000	0.166575  	1440.000000	0.128292  	1440.000000	0.129765  	1440.000000	0.128126  	1440.000000	0.12828   	1440.000000	1.20187e-05	
1460.000000	0.166385  	1460.000000	0.128157  	1460.000000	0.129621  	1460.000000	0.127984  	1460.000000	0.128146  	1460.000000	1.18669e-05	
1480.000000	0.166211  	1480.000000	0.128032  	1480.000000	0.129486  	1480.000000	0.12785   	1480.000000	0.12802   	1480.000000	1.1719e-05	
1500.000000	0.166051  	1500.000000	0.127916  	1500.000000	0.129357  	1500.000000	0.127724  	1500.000000	0.127904  	1500.000000	1.15748e-05	
1520.000000	0.165906  	1520.000000	0.127808  	1520.000000	0.129236  	1520.000000	0.127605  	1520.000000	0.127796  	1520.000000	1.14343e-05	
1540.000000	0.165774  	1540.000000	0.127708  	1540.000000	0.129122  	1540.000000	0.127493  	1540.000000	0.127697  	1540.000000	1.12973e-05	
1560.000000	0.165656  	1560.000000	0.127617  	1560.000000	0.129015  	1560.000000	0.127387  	1560.000000	0.127606  	1560.000000	1.11637e-05	
1580.000000	0.165551  	1580.000000	0.127533  	1580.000000	0.128913  	1580.000000	0.127288  	1580.000000	0.127522  	1580.000000	1.10333e-05	
1600.000000	0.165458  	1600.000000	0.127456  	1600.000000	0.128818  	1600.000000	0.127194  	1600.000000	0.127445  	1600.000000	1.0906e-05	
1620.000000	0.165377  	1620.000000	0.127387  	1620.000000	0.128728  	1620.000000	0.127107  	1620.000000	0.127376  	1620.000000	1.07817e-05	
1640.000000	0.165308  	1640.000000	0.127324  	1640.000000	0.128644  	1640.000000	0.127025  	1640.000000	0.127314  	1640.000000	1.06604e-05	
1660.000000	0.16525   	1660.000000	0.127269  	1660.000000	0.128566  	1660.000000	0.126948  	1660.000000	0.127258  	1660.000000	1.05418e-05	
1680.000000	0.165202  	1680.000000	0.127219  	1680.000000	0.128492  	1680.000000	0.126876  	1680.000000	0.127209  	1680.000000	1.0426e-05	
1700.000000	0.165165  	1700.000000	0.127176  	1700.000000	0.128423  	1700.000000	0.126809  	1700.000000	0.127165  	1700.000000	1.03127e-05	
1750.000000	0.165117  	1750.000000	0.127093  	1750.000000	0.128271  	1750.000000	0.126662  	1750.000000	0.127083  	1750.000000	1.00405e-05	
1800.000000	0.165126  	1800.000000	0.127044  	1800.000000	0.128145  	1800.000000	0.126542  	1800.000000	0.127034  	1800.000000	9.78277e-06	
1850.000000	0.165191  	1850.000000	0.127027  	1850.000000	0.128043  	1850.000000	0.126444  	1850.000000	0.127017  	1850.000000	9.53842e-06	
1900.000000	0.165305  	1900.000000	0.127038  	1900.000000	0.127963  	1900.000000	0.126369  	1900.000000	0.127029  	1900.000000	9.3064e-06	
1950.000000	0.165467  	1950.000000	0.127076  	1950.000000	0.127903  	1950.000000	0.126312  	1950.000000	0.127067  	1950.000000	9.08581e-06	
2000.000000	0.165672  	2000.000000	0.127139  	2000.000000	0.127861  	2000.000000	0.126274  	2000.000000	0.12713   	2000.000000	8.87579e-06	
2100.000000	0.166202  	2100.000000	0.127332  	2100.000000	0.127824  	2100.000000	0.126242  	2100.000000	0.127323  	2100.000000	8.48458e-06	
2200.000000	0.166877  	2200.000000	0.127604  	2200.000000	0.127842  	2200.000000	0.126264  	2200.000000	0.127596  	2200.000000	8.12754e-06	
2300.000000	0.167679  	2300.000000	0.127945  	2300.000000	0.127905  	2300.000000	0.126329  	2300.000000	0.127937  	2300.000000	7.80033e-06	
2400.000000	0.168594  	2400.000000	0.128346  	2400.000000	0.128004  	2400.000000	0.12643   	2400.000000	0.128339  	2400.000000	7.49931e-06	
2500.000000	0.16961   	2500.000000	0.128801  	2500.000000	0.128135  	2500.000000	0.126564  	2500.000000	0.128794  	2500.000000	7.22144e-06	
2600.000000	0.170719  	2600.000000	0.129302  	2600.000000	0.128305  	2600.000000	0.126737  	2600.000000	0.129295  	2600.000000	6.96411e-06	
2700.000000	0.17191   	2700.000000	0.129845  	2700.000000	0.128495  	2700.000000	0.12693   	2700.000000	0.129838  	2700.000000	6.7251e-06	
2800.000000	0.173177  	2800.000000	0.130425  	2800.000000	0.128703  	2800.000000	0.12714   	2800.000000	0.130418  	2800.000000	6.5025e-06	
2900.000000	0.174513  	2900.000000	0.131038  	2900.000000	0.128924  	2900.000000	0.127364  	2900.000000	0.131032  	2900.000000	6.29465e-06	
3000.000000	0.175913  	3000.000000	0.131681  	3000.000000	0.129158  	3000.000000	0.1276    	3000.000000	0.131675  	3000.000000	6.10012e-06	
3200.000000	0.178884  	3200.000000	0.133045  	3200.000000	0.129653  	3200.000000	0.1281    	3200.000000	0.133039  	3200.000000	5.74616e-06	
3400.000000	0.182058  	3400.000000	0.134497  	3400.000000	0.130175  	3400.000000	0.128626  	3400.000000	0.134492  	3400.000000	5.43229e-06	
3600.000000	0.185409  	3600.000000	0.136022  	3600.000000	0.130714  	3600.000000	0.129169  	3600.000000	0.136017  	3600.000000	5.15198e-06	
3800.000000	0.188917  	3800.000000	0.137609  	3800.000000	0.131263  	3800.000000	0.129722  	3800.000000	0.137604  	3800.000000	4.90008e-06	
4000.000000	0.192565  	4000.000000	0.139246  	4000.000000	0.131817  	4000.000000	0.130279  	4000.000000	0.139242  	4000.000000	4.67243e-06	
4200.000000	0.19634   	4200.000000	0.140928  	4200.000000	0.132372  	4200.000000	0.130837  	4200.000000	0.140923  	4200.000000	4.46566e-06	
4400.000000	0.200231  	4400.000000	0.142647  	4400.000000	0.132925  	4400.000000	0.131393  	4400.000000	0.142643  	4400.000000	4.27698e-06	
4600.000000	0.204228  	4600.000000	0.144398  	4600.000000	0.133474  	4600.000000	0.131944  	4600.000000	0.144394  	4600.000000	4.10411e-06	
4800.000000	0.208325  	4800.000000	0.146176  	4800.000000	0.134017  	4800.000000	0.13249   	4800.000000	0.146173  	4800.000000	3.9451e-06	
5000.000000	0.212513  	5000.000000	0.147979  	5000.000000	0.134554  	5000.000000	0.133028  	5000.000000	0.147975  	5000.000000	3.79835e-06	
5250.000000	0.217871  	5250.000000	0.150262  	5250.000000	0.135213  	5250.000000	0.13369   	5250.000000	0.150258  	5250.000000	3.63005e-06	
5500.000000	0.223354  	5500.000000	0.152573  	5500.000000	0.13586   	5500.000000	0.134339  	5500.000000	0.152569  	5500.000000	3.4765e-06	
6000.000000	0.234673  	6000.000000	0.157261  	6000.000000	0.137111  	6000.000000	0.135595  	6000.000000	0.157258  	6000.000000	3.20642e-06	
6500.000000	0.246421  	6500.000000	0.16202   	6500.000000	0.138305  	6500.000000	0.136793  	6500.000000	0.162017  	6500.000000	2.97644e-06	
7000.000000	0.258565  	7000.000000	0.166831  	7000.000000	0.139444  	7000.000000	0.137935  	7000.000000	0.166828  	7000.000000	2.77816e-06	
7500.000000	0.27108   	7500.000000	0.171681  	7500.000000	0.140529  	7500.000000	0.139023  	7500.000000	0.171678  	7500.000000	2.6054e-06	
8000.000000	0.283946  	8000.000000	0.17656   	8000.000000	0.141565  	8000.000000	0.140059  	8000.000000	0.176558  	8000.000000	2.45348e-06	
8500.000000	0.29715   	8500.000000	0.181462  	8500.000000	0.14255   	8500.000000	0.141047  	8500.000000	0.18146   	8500.000000	2.31882e-06	
9000.000000	0.310679  	9000.000000	0.18638   	9000.000000	0.143488  	9000.000000	0.141991  	9000.000000	0.186378  	9000.000000	2.19859e-06	
9500.000000	0.324525  	9500.000000	0.191311  	9500.000000	0.144385  	9500.000000	0.142893  	9500.000000	0.191309  	9500.000000	2.09058e-06	
10000.000000	0.33868   	10000.000000	0.196251  	10000.000000	0.145245  	10000.000000	0.143755  	10000.000000	0.196249  	10000.000000	1.99299e-06	
11000.000000	0.367897  	11000.000000	0.206149  	11000.000000	0.146859  	11000.000000	0.145374  	11000.000000	0.206147  	11000.000000	1.82354e-06	
12000.000000	0.398296  	12000.000000	0.216058  	12000.000000	0.148346  	12000.000000	0.146867  	12000.000000	0.216057  	12000.000000	1.68139e-06	
13000.000000	0.429854  	13000.000000	0.22597   	13000.000000	0.149721  	13000.000000	0.14825   	13000.000000	0.225968  	13000.000000	1.56038e-06	
14000.000000	0.462557  	14000.000000	0.235876  	14000.000000	0.150999  	14000.000000	0.149536  	14000.000000	0.235874  	14000.000000	1.45609e-06	
15000.000000	0.496393  	15000.000000	0.245773  	15000.000000	0.152191  	15000.000000	0.150738  	15000.000000	0.245772  	15000.000000	1.36524e-06	
16000.000000	0.531356  	16000.000000	0.255659  	16000.000000	0.153308  	16000.000000	0.151864  	16000.000000	0.255658  	16000.000000	1.28538e-06	
17000.000000	0.567442  	17000.000000	0.265531  	17000.000000	0.154357  	17000.000000	0.152923  	17000.000000	0.26553   	17000.000000	1.21459e-06	
18000.000000	0.604651  	18000.000000	0.275388  	18000.000000	0.155345  	18000.000000	0.153921  	18000.000000	0.275386  	18000.000000	1.15141e-06	
19000.000000	0.64298   	19000.000000	0.285229  	19000.000000	0.15628   	19000.000000	0.154866  	19000.000000	0.285228  	19000.000000	1.09466e-06	
20000.000000	0.68243   	20000.000000	0.295054  	20000.000000	0.157166  	20000.000000	0.155762  	20000.000000	0.295053  	20000.000000	1.0434e-06	
21000.000000	0.723004  	21000.000000	0.304862  	21000.000000	0.158008  	21000.000000	0.156613  	21000.000000	0.304861  	21000.000000	9.96861e-07	
22000.000000	0.764704  	22000.000000	0.314654  	22000.000000	0.15881   	22000.000000	0.157423  	22000.000000	0.314653  	22000.000000	9.54411e-07	
23000.000000	0.807532  	23000.000000	0.32443   	23000.000000	0.159568  	23000.000000	0.158197  	23000.000000	0.324429  	23000.000000	9.15531e-07	
24000.000000	0.851492  	24000.000000	0.334189  	24000.000000	0.160292  	24000.000000	0.158936  	24000.000000	0.334188  	24000.000000	8.79784e-07	
25000.000000	0.896588  	25000.000000	0.343933  	25000.000000	0.160988  	25000.000000	0.159644  	25000.000000	0.343932  	25000.000000	8.46802e-07	
26000.000000	0.942823  	26000.000000	0.35366   	26000.000000	0.161656  	26000.000000	0.160323  	26000.000000	0.35366   	26000.000000	8.16275e-07	
27000.000000	0.990203  	27000.000000	0.363373  	27000.000000	0.162294  	27000.000000	0.160976  	27000.000000	0.363372  	27000.000000	7.87934e-07	
28000.000000	1.03873   	28000.000000	0.37307   	28000.000000	0.162906  	28000.000000	0.161603  	28000.000000	0.373069  	28000.000000	7.61551e-07	
29000.000000	1.08842   	29000.000000	0.382752  	29000.000000	0.163495  	29000.000000	0.162207  	29000.000000	0.382751  	29000.000000	7.36929e-07	
30000.000000	1.13926   	30000.000000	0.39242   	30000.000000	0.164062  	30000.000000	0.16279   	30000.000000	0.392419  	30000.000000	7.13894e-07	
32000.000000	1.24444   	32000.000000	0.411713  	32000.000000	0.165137  	32000.000000	0.163896  	32000.000000	0.411712  	32000.000000	6.72005e-07	
34000.000000	1.35433   	34000.000000	0.430951  	34000.000000	0.166142  	34000.000000	0.164931  	34000.000000	0.430951  	34000.000000	6.34889e-07	
36000.000000	1.46896   	36000.000000	0.450138  	36000.000000	0.167079  	36000.000000	0.165903  	36000.000000	0.450137  	36000.000000	6.01766e-07	
38000.000000	1.58839   	38000.000000	0.469275  	38000.000000	0.167954  	38000.000000	0.166818  	38000.000000	0.469274  	38000.000000	5.7202e-07	
40000.000000	1.71266   	40000.000000	0.488364  	40000.000000	0.168777  	40000.000000	0.167684  	40000.000000	0.488364  	40000.000000	5.45155e-07	
42000.000000	1.84183   	42000.000000	0.507408  	42000.000000	0.169553  	42000.000000	0.168504  	42000.000000	0.507408  	42000.000000	5.20767e-07	
44000.000000	1.97595   	44000.000000	0.526409  	44000.000000	0.170289  	44000.000000	0.169283  	44000.000000	0.526408  	44000.000000	4.98527e-07	
46000.000000	2.11505   	46000.000000	0.545367  	46000.000000	0.17099   	46000.000000	0.170025  	46000.000000	0.545367  	46000.000000	4.7816e-07	
48000.000000	2.25921   	48000.000000	0.564286  	48000.000000	0.171657  	48000.000000	0.170733  	48000.000000	0.564286  	48000.000000	4.59436e-07	
50000.000000	2.40847   	50000.000000	0.583166  	50000.000000	0.172291  	50000.000000	0.171409  	50000.000000	0.583166  	50000.000000	4.42164e-07	
