Energy (MeV/u)1	0 - [He-base] F.Hubert et al, AD&ND Tables 46(1990)1	Energy (MeV/u)2	1 - [H -base] J.F.Ziegler et al, Pergamon Press, NY (low energy)	Energy (MeV/u)3	2 - ATIMA 1.2  LS-theory (recommended for high energy)	Energy (MeV/u)4	3 - ATIMA 1.2  without LS-correction	Energy (MeV/u)5	4 - electrical component of [1] - J.F.Ziegler et al	Energy (MeV/u)6	5 - nuclear component of [1] - J.F.Ziegler et al	
0.001000	1.80139   	0.001000	2.27138   	0.001000	2.30754   	0.001000	2.30754   	0.001000	1.19397   	0.001000	1.07741   	
0.002000	1.96143   	0.002000	2.36074   	0.002000	2.43484   	0.002000	2.43484   	0.002000	1.54838   	0.002000	0.812355  	
0.005000	2.36973   	0.005000	2.67945   	0.005000	2.84446   	0.005000	2.84446   	0.005000	2.18326   	0.005000	0.496191  	
0.008000	2.69565   	0.008000	2.97366   	0.008000	3.21308   	0.008000	3.21308   	0.008000	2.60406   	0.008000	0.369598  	
0.010000	2.8827    	0.010000	3.15015   	0.010000	3.434     	0.010000	3.434     	0.010000	2.83134   	0.010000	0.318814  	
0.015000	3.35756   	0.015000	3.57005   	0.015000	3.88946   	0.015000	3.88946   	0.015000	3.3301    	0.015000	0.239949  	
0.020000	3.73712   	0.020000	3.94076   	0.020000	4.31445   	0.020000	4.31445   	0.020000	3.74646   	0.020000	0.194302  	
0.025000	4.15613   	0.025000	4.36816   	0.025000	4.73005   	0.025000	4.73005   	0.025000	4.20323   	0.025000	0.164928  	
0.030000	4.51131   	0.030000	4.77307   	0.030000	5.17157   	0.030000	5.17157   	0.030000	4.62917   	0.030000	0.1439    	
0.035000	4.80332   	0.035000	5.15584   	0.035000	5.59211   	0.035000	5.59211   	0.035000	5.02782   	0.035000	0.128024  	
0.040000	5.03347   	0.040000	5.51666   	0.040000	5.99154   	0.040000	5.99154   	0.040000	5.40109   	0.040000	0.115569  	
0.045000	5.20418   	0.045000	5.85568   	0.045000	6.3699    	0.045000	6.3699    	0.045000	5.75017   	0.045000	0.10551   	
0.050000	5.31895   	0.050000	6.17306   	0.050000	6.72734   	0.050000	6.72734   	0.050000	6.07586   	0.050000	0.0971988 	
0.055000	5.55052   	0.055000	6.52102   	0.055000	7.06409   	0.055000	7.06409   	0.055000	6.43081   	0.055000	0.0902044 	
0.060000	5.74777   	0.060000	6.85219   	0.060000	7.3805    	0.060000	7.3805    	0.060000	6.76796   	0.060000	0.0842287 	
0.070000	6.04908   	0.070000	7.46386   	0.070000	7.95407   	0.070000	7.95407   	0.070000	7.38932   	0.070000	0.0745366 	
0.080000	6.3724    	0.080000	8.00018   	0.080000	8.45242   	0.080000	8.45242   	0.080000	7.93319   	0.080000	0.0669937 	
0.090000	6.6264    	0.090000	8.47585   	0.090000	8.88082   	0.090000	8.88082   	0.090000	8.41491   	0.090000	0.0609409 	
0.100000	6.83011   	0.100000	8.90032   	0.100000	9.24515   	0.100000	9.24515   	0.100000	8.84435   	0.100000	0.0559667 	
0.120000	6.95384   	0.120000	9.59049   	0.120000	9.80608   	0.120000	9.80608   	0.120000	9.54223   	0.120000	0.0482538 	
0.140000	7.00301   	0.140000	10.0785   	0.140000	10.1829   	0.140000	10.1829   	0.140000	10.036    	0.140000	0.0425307 	
0.160000	7.02041   	0.160000	10.3931   	0.160000	10.4184   	0.160000	10.4184   	0.160000	10.355    	0.160000	0.0381014 	
0.180000	7.01892   	0.180000	10.5473   	0.180000	10.5482   	0.180000	10.5482   	0.180000	10.5128   	0.180000	0.0345634 	
0.200000	7.03426   	0.200000	10.6215   	0.200000	10.6005   	0.200000	10.6005   	0.200000	10.5898   	0.200000	0.031667  	
0.250000	6.90588   	0.250000	10.5336   	0.250000	10.5237   	0.250000	10.5237   	0.250000	10.5073   	0.250000	0.0262823 	
0.300000	6.93423   	0.300000	10.4598   	0.300000	10.3025   	0.300000	10.3025   	0.300000	10.4373   	0.300000	0.0225478 	
0.350000	6.98619   	0.350000	10.3654   	0.350000	10.0361   	0.350000	10.0361   	0.350000	10.3456   	0.350000	0.0197948 	
0.400000	6.97399   	0.400000	10.1791   	0.400000	9.78209   	0.400000	9.78209   	0.400000	10.1614   	0.400000	0.0176753 	
0.450000	6.9355    	0.450000	9.98371   	0.450000	9.60294   	0.450000	9.60294   	0.450000	9.96772   	0.450000	0.0159896 	
0.500000	6.91605   	0.500000	9.85071   	0.500000	9.41562   	0.500000	9.41562   	0.500000	9.83609   	0.500000	0.0146146 	
0.600000	6.60873   	0.600000	9.38095   	0.600000	9.04512   	0.600000	9.04512   	0.600000	9.36845   	0.600000	0.0125018 	
0.700000	6.2635    	0.700000	8.957     	0.700000	8.67394   	0.700000	8.67394   	0.700000	8.94605   	0.700000	0.0109499 	
0.800000	6.13026   	0.800000	8.56284   	0.800000	8.33095   	0.800000	8.33095   	0.800000	8.55308   	0.800000	0.00975856	
0.900000	5.98306   	0.900000	8.19862   	0.900000	8.01794   	0.900000	8.01794   	0.900000	8.18981   	0.900000	0.00881338	
1.000000	5.8283    	1.000000	7.85853   	1.000000	7.72987   	1.000000	7.72987   	1.000000	7.85049   	1.000000	0.00804403	
1.250000	5.38647   	1.250000	7.2398    	1.250000	7.08587   	1.250000	7.08587   	1.250000	7.23318   	1.250000	0.00662496	
1.500000	4.93156   	1.500000	6.64357   	1.500000	6.52178   	1.500000	6.52178   	1.500000	6.63792   	1.500000	0.00564999	
1.750000	4.54335   	1.750000	6.15331   	1.750000	6.05214   	1.750000	6.05214   	1.750000	6.14837   	1.750000	0.00493647	
2.000000	4.18215   	2.000000	5.70174   	2.000000	5.65015   	2.000000	5.65015   	2.000000	5.69735   	2.000000	0.00439038	
2.250000	3.88171   	2.250000	5.28726   	2.250000	5.30023   	2.250000	5.30023   	2.250000	5.28331   	2.250000	0.0039582 	
2.500000	3.61506   	2.500000	4.9396    	2.500000	4.99211   	2.500000	4.99211   	2.500000	4.936     	2.500000	0.00360717	
3.000000	3.22152   	3.000000	4.3816    	3.000000	4.47364   	3.000000	4.47364   	3.000000	4.37853   	3.000000	0.00307057	
3.500000	2.90887   	3.500000	3.94547   	3.500000	4.05415   	3.500000	4.05415   	3.500000	3.94279   	3.500000	0.00267873	
4.000000	2.65443   	4.000000	3.59378   	4.000000	3.70788   	4.000000	3.70788   	4.000000	3.5914    	4.000000	0.00237937	
4.500000	2.44324   	4.500000	3.30297   	4.500000	3.41734   	4.500000	3.41734   	4.500000	3.30083   	4.500000	0.00214282	
5.000000	2.26502   	5.000000	3.05752   	5.000000	3.17014   	5.000000	3.17014   	5.000000	3.05557   	5.000000	0.00195093	
5.500000	2.11254   	5.500000	2.8502    	5.500000	2.9573    	5.500000	2.9573    	5.500000	2.84841   	5.500000	0.00179199	
6.000000	1.98053   	6.000000	2.67028   	6.000000	2.77212   	6.000000	2.77212   	6.000000	2.66862   	6.000000	0.00165807	
6.500000	1.86508   	6.500000	2.51255   	6.500000	2.60953   	6.500000	2.60953   	6.500000	2.51101   	6.500000	0.00154362	
7.000000	1.76322   	7.000000	2.37306   	7.000000	2.46562   	7.000000	2.46562   	7.000000	2.37162   	7.000000	0.00144461	
7.500000	1.67266   	7.500000	2.24878   	7.500000	2.33734   	7.500000	2.33734   	7.500000	2.24742   	7.500000	0.00135808	
8.000000	1.59158   	8.000000	2.13732   	8.000000	2.22225   	8.000000	2.22225   	8.000000	2.13604   	8.000000	0.00128178	
8.500000	1.51855   	8.500000	2.03677   	8.500000	2.11841   	8.500000	2.11841   	8.500000	2.03556   	8.500000	0.00121396	
9.000000	1.45241   	9.000000	1.9456    	9.000000	2.02423   	9.000000	2.02423   	9.000000	1.94444   	9.000000	0.00115327	
9.500000	1.39222   	9.500000	1.86253   	9.500000	1.93841   	9.500000	1.93841   	9.500000	1.86143   	9.500000	0.00109862	
10.000000	1.33719   	10.000000	1.8115    	10.000000	1.85988   	10.000000	1.85988   	10.000000	1.81045   	10.000000	0.00104914	
11.000000	1.24016   	11.000000	1.68321   	11.000000	1.71923   	11.000000	1.72033   	11.000000	1.68225   	11.000000	0.000962972	
12.000000	1.15727   	12.000000	1.57275   	12.000000	1.59925   	12.000000	1.60106   	12.000000	1.57186   	12.000000	0.000890431	
13.000000	1.0856    	13.000000	1.47665   	13.000000	1.49572   	13.000000	1.49799   	13.000000	1.47582   	13.000000	0.00082848	
14.000000	1.02299   	14.000000	1.39229   	14.000000	1.40548   	14.000000	1.40806   	14.000000	1.39151   	14.000000	0.000774929	
15.000000	0.967789  	15.000000	1.31764   	15.000000	1.32617   	15.000000	1.32894   	15.000000	1.31691   	15.000000	0.000728156	
16.000000	0.918748  	16.000000	1.25111   	16.000000	1.25595   	16.000000	1.25882   	16.000000	1.25042   	16.000000	0.000686934	
17.000000	0.874874  	17.000000	1.19144   	17.000000	1.19339   	17.000000	1.19626   	17.000000	1.19079   	17.000000	0.000650316	
18.000000	0.835377  	18.000000	1.13762   	18.000000	1.13727   	18.000000	1.14013   	18.000000	1.137     	18.000000	0.000617563	
19.000000	0.799626  	19.000000	1.08882   	19.000000	1.08667   	19.000000	1.0895    	19.000000	1.08823   	19.000000	0.000588084	
20.000000	0.767103  	20.000000	1.04437   	20.000000	1.04086   	20.000000	1.04363   	20.000000	1.04381   	20.000000	0.000561406	
21.000000	0.737382  	21.000000	1.0037    	21.000000	0.99923   	21.000000	1.00189   	21.000000	1.00316   	21.000000	0.000537141	
22.000000	0.710112  	22.000000	0.966357  	22.000000	0.961215  	22.000000	0.963771  	22.000000	0.965842  	22.000000	0.000514973	
23.000000	0.684997  	23.000000	0.931937  	23.000000	0.926376  	23.000000	0.928829  	23.000000	0.931443  	23.000000	0.000494638	
24.000000	0.661786  	24.000000	0.90011   	24.000000	0.894344  	24.000000	0.896702  	24.000000	0.899634  	24.000000	0.000475912	
25.000000	0.640267  	25.000000	0.870589  	25.000000	0.864812  	25.000000	0.867077  	25.000000	0.87013   	25.000000	0.000458611	
27.000000	0.601606  	27.000000	0.817524  	27.000000	0.812245  	27.000000	0.814299  	27.000000	0.817097  	27.000000	0.00042767	
29.000000	0.567839  	29.000000	0.771157  	29.000000	0.766969  	29.000000	0.768764  	29.000000	0.770756  	29.000000	0.000400794	
31.000000	0.538078  	31.000000	0.730282  	31.000000	0.726996  	31.000000	0.728467  	31.000000	0.729905  	31.000000	0.000377223	
33.000000	0.511639  	33.000000	0.693969  	33.000000	0.690986  	33.000000	0.692158  	33.000000	0.693613  	33.000000	0.000356375	
35.000000	0.487986  	35.000000	0.661486  	35.000000	0.658788  	35.000000	0.659698  	35.000000	0.661148  	35.000000	0.000337798	
38.000000	0.456822  	38.000000	0.618701  	38.000000	0.616388  	38.000000	0.616965  	38.000000	0.618388  	38.000000	0.00031343	
41.000000	0.429883  	41.000000	0.581734  	41.000000	0.579766  	41.000000	0.580056  	41.000000	0.581441  	41.000000	0.000292466	
44.000000	0.406349  	44.000000	0.54946   	44.000000	0.547718  	44.000000	0.54784   	44.000000	0.549186  	44.000000	0.000274231	
47.000000	0.385603  	47.000000	0.52103   	47.000000	0.519522  	47.000000	0.519463  	47.000000	0.520772  	47.000000	0.000258218	
50.000000	0.367168  	50.000000	0.495788  	50.000000	0.494471  	50.000000	0.494267  	50.000000	0.495544  	50.000000	0.00024404	
55.000000	0.340603  	55.000000	0.459455  	55.000000	0.458344  	55.000000	0.457996  	55.000000	0.459231  	55.000000	0.000223697	
60.000000	0.318163  	60.000000	0.428812  	60.000000	0.427855  	60.000000	0.427398  	60.000000	0.428605  	60.000000	0.000206597	
65.000000	0.298941  	65.000000	0.402607  	65.000000	0.401733  	65.000000	0.401224  	65.000000	0.402415  	65.000000	0.000192013	
70.000000	0.282278  	70.000000	0.37993   	70.000000	0.37917   	70.000000	0.378567  	70.000000	0.379751  	70.000000	0.000179423	
75.000000	0.267685  	75.000000	0.360107  	75.000000	0.359379  	75.000000	0.358755  	75.000000	0.359939  	75.000000	0.00016844	
80.000000	0.254792  	80.000000	0.342625  	80.000000	0.341958  	80.000000	0.341279  	80.000000	0.342467  	80.000000	0.00015877	
85.000000	0.243313  	85.000000	0.327089  	85.000000	0.326431  	85.000000	0.325743  	85.000000	0.326939  	85.000000	0.000150188	
90.000000	0.233021  	90.000000	0.313188  	90.000000	0.31257   	90.000000	0.311838  	90.000000	0.313045  	90.000000	0.00014252	
95.000000	0.223739  	95.000000	0.300673  	95.000000	0.300051  	95.000000	0.299318  	95.000000	0.300538  	95.000000	0.000135623	
100.000000	0.21532   	100.000000	0.289346  	100.000000	0.288718  	100.000000	0.287984  	100.000000	0.289217  	100.000000	0.000129387	
105.000000	0.207647  	105.000000	0.279044  	105.000000	0.278406  	105.000000	0.277673  	105.000000	0.27892   	105.000000	0.00012372	
110.000000	0.200624  	110.000000	0.269632  	110.000000	0.269012  	110.000000	0.268252  	110.000000	0.269513  	110.000000	0.000118546	
115.000000	0.194168  	115.000000	0.260998  	115.000000	0.260378  	115.000000	0.25961   	115.000000	0.260884  	115.000000	0.000113803	
120.000000	0.188213  	120.000000	0.25305   	120.000000	0.252415  	120.000000	0.251653  	120.000000	0.25294   	120.000000	0.000109438	
125.000000	0.1827    	125.000000	0.245707  	125.000000	0.245063  	125.000000	0.244302  	125.000000	0.245602  	125.000000	0.000105407	
130.000000	0.177582  	130.000000	0.238904  	130.000000	0.238249  	130.000000	0.237491  	130.000000	0.238802  	130.000000	0.000101674	
135.000000	0.172815  	135.000000	0.232581  	135.000000	0.231916  	135.000000	0.231161  	135.000000	0.232483  	135.000000	9.82053e-05	
140.000000	0.168365  	140.000000	0.22669   	140.000000	0.226016  	140.000000	0.225263  	140.000000	0.226595  	140.000000	9.49741e-05	
145.000000	0.164199  	145.000000	0.221187  	145.000000	0.220504  	145.000000	0.219755  	145.000000	0.221095  	145.000000	9.19563e-05	
150.000000	0.160291  	150.000000	0.216036  	150.000000	0.215345  	150.000000	0.214598  	150.000000	0.215947  	150.000000	8.91314e-05	
155.000000	0.154789  	155.000000	0.211203  	155.000000	0.210504  	155.000000	0.20976   	155.000000	0.211116  	155.000000	8.6481e-05	
160.000000	0.151563  	160.000000	0.206659  	160.000000	0.205954  	160.000000	0.205213  	160.000000	0.206575  	160.000000	8.39894e-05	
165.000000	0.148522  	165.000000	0.20238   	165.000000	0.201669  	165.000000	0.200931  	165.000000	0.202298  	165.000000	8.16425e-05	
170.000000	0.145649  	170.000000	0.198342  	170.000000	0.197626  	170.000000	0.196891  	170.000000	0.198263  	170.000000	7.94279e-05	
175.000000	0.14293   	175.000000	0.194527  	175.000000	0.193805  	175.000000	0.193073  	175.000000	0.194449  	175.000000	7.73345e-05	
180.000000	0.140354  	180.000000	0.190915  	180.000000	0.190189  	180.000000	0.18946   	180.000000	0.190839  	180.000000	7.53527e-05	
185.000000	0.137908  	185.000000	0.187491  	185.000000	0.186762  	185.000000	0.186036  	185.000000	0.187417  	185.000000	7.34736e-05	
190.000000	0.135585  	190.000000	0.18424   	190.000000	0.183509  	190.000000	0.182786  	190.000000	0.184169  	190.000000	7.16892e-05	
195.000000	0.133373  	195.000000	0.181151  	195.000000	0.180418  	195.000000	0.179697  	195.000000	0.181081  	195.000000	6.99926e-05	
200.000000	0.131266  	200.000000	0.17821   	200.000000	0.177476  	200.000000	0.176758  	200.000000	0.178142  	200.000000	6.83774e-05	
210.000000	0.127336  	210.000000	0.172736  	210.000000	0.172001  	210.000000	0.171288  	210.000000	0.17267   	210.000000	6.53682e-05	
220.000000	0.123744  	220.000000	0.167743  	220.000000	0.167009  	220.000000	0.166302  	220.000000	0.16768   	220.000000	6.26217e-05	
230.000000	0.120448  	230.000000	0.163172  	230.000000	0.162441  	230.000000	0.161739  	230.000000	0.163111  	230.000000	6.01044e-05	
240.000000	0.117413  	240.000000	0.15897   	240.000000	0.158245  	240.000000	0.157548  	240.000000	0.158913  	240.000000	5.77886e-05	
250.000000	0.114608  	250.000000	0.155097  	250.000000	0.15438   	250.000000	0.153686  	250.000000	0.155041  	250.000000	5.56506e-05	
260.000000	0.112009  	260.000000	0.151514  	260.000000	0.150797  	260.000000	0.150115  	260.000000	0.15146   	260.000000	5.36705e-05	
270.000000	0.109593  	270.000000	0.14819   	270.000000	0.147471  	270.000000	0.146805  	270.000000	0.148138  	270.000000	5.18313e-05	
280.000000	0.107342  	280.000000	0.145099  	280.000000	0.144392  	280.000000	0.143729  	280.000000	0.145049  	280.000000	5.01182e-05	
290.000000	0.10524   	290.000000	0.142217  	290.000000	0.141522  	290.000000	0.140862  	290.000000	0.142169  	290.000000	4.85186e-05	
300.000000	0.103271  	300.000000	0.139525  	300.000000	0.138842  	300.000000	0.138186  	300.000000	0.139478  	300.000000	4.70214e-05	
310.000000	0.101425  	310.000000	0.137003  	310.000000	0.136334  	310.000000	0.135681  	310.000000	0.136958  	310.000000	4.5617e-05	
320.000000	0.0996896 	320.000000	0.134638  	320.000000	0.133982  	320.000000	0.133332  	320.000000	0.134593  	320.000000	4.4297e-05	
330.000000	0.0980555 	330.000000	0.132414  	330.000000	0.131772  	330.000000	0.131126  	330.000000	0.132371  	330.000000	4.30537e-05	
340.000000	0.0965143 	340.000000	0.13032   	340.000000	0.129693  	340.000000	0.12905   	340.000000	0.130278  	340.000000	4.18808e-05	
350.000000	0.0950584 	350.000000	0.128345  	350.000000	0.127735  	350.000000	0.127093  	350.000000	0.128304  	350.000000	4.07722e-05	
360.000000	0.0936809 	360.000000	0.12648   	360.000000	0.12588   	360.000000	0.125246  	360.000000	0.12644   	360.000000	3.97228e-05	
370.000000	0.0923759 	370.000000	0.124715  	370.000000	0.124112  	370.000000	0.12349   	370.000000	0.124676  	370.000000	3.87279e-05	
380.000000	0.0911379 	380.000000	0.123044  	380.000000	0.122444  	380.000000	0.121827  	380.000000	0.123006  	380.000000	3.77834e-05	
390.000000	0.089962  	390.000000	0.121458  	390.000000	0.120866  	390.000000	0.12025   	390.000000	0.121421  	390.000000	3.68854e-05	
400.000000	0.0888437 	400.000000	0.119953  	400.000000	0.119368  	400.000000	0.118754  	400.000000	0.119917  	400.000000	3.60305e-05	
410.000000	0.087779  	410.000000	0.118522  	410.000000	0.117944  	410.000000	0.117333  	410.000000	0.118487  	410.000000	3.52157e-05	
420.000000	0.0867644 	420.000000	0.11716   	420.000000	0.116589  	420.000000	0.115981  	420.000000	0.117125  	420.000000	3.44382e-05	
430.000000	0.0857964 	430.000000	0.115862  	430.000000	0.1153    	430.000000	0.114693  	430.000000	0.115828  	430.000000	3.36955e-05	
440.000000	0.084872  	440.000000	0.114624  	440.000000	0.114072  	440.000000	0.113466  	440.000000	0.114591  	440.000000	3.29852e-05	
450.000000	0.0839886 	450.000000	0.113443  	450.000000	0.112899  	450.000000	0.112295  	450.000000	0.113411  	450.000000	3.23053e-05	
460.000000	0.0831435 	460.000000	0.112314  	460.000000	0.111775  	460.000000	0.111177  	460.000000	0.112283  	460.000000	3.16538e-05	
470.000000	0.0823344 	470.000000	0.111235  	470.000000	0.110699  	470.000000	0.110108  	470.000000	0.111204  	470.000000	3.1029e-05	
480.000000	0.0815592 	480.000000	0.110202  	480.000000	0.109671  	480.000000	0.109086  	480.000000	0.110172  	480.000000	3.04291e-05	
490.000000	0.0808159 	490.000000	0.109213  	490.000000	0.10869   	490.000000	0.108107  	490.000000	0.109183  	490.000000	2.98529e-05	
500.000000	0.0801027 	500.000000	0.108265  	500.000000	0.107752  	500.000000	0.10717   	500.000000	0.108235  	500.000000	2.92988e-05	
520.000000	0.0787599 	520.000000	0.106483  	520.000000	0.105988  	520.000000	0.105409  	520.000000	0.106454  	520.000000	2.8252e-05	
540.000000	0.077519  	540.000000	0.104839  	540.000000	0.104362  	540.000000	0.103786  	540.000000	0.104812  	540.000000	2.728e-05 	
560.000000	0.0763694 	560.000000	0.103319  	560.000000	0.102859  	560.000000	0.102286  	560.000000	0.103293  	560.000000	2.63747e-05	
580.000000	0.0753022 	580.000000	0.101911  	580.000000	0.101466  	580.000000	0.100897  	580.000000	0.101885  	580.000000	2.55295e-05	
600.000000	0.0743097 	600.000000	0.100603  	600.000000	0.10017   	600.000000	0.0996078 	600.000000	0.100579  	600.000000	2.47386e-05	
620.000000	0.0733848 	620.000000	0.099387  	620.000000	0.0989647 	620.000000	0.0984088 	620.000000	0.099363  	620.000000	2.39968e-05	
640.000000	0.0725217 	640.000000	0.0982535 	640.000000	0.0978448 	640.000000	0.0972916 	640.000000	0.0982302 	640.000000	2.32996e-05	
660.000000	0.071715  	660.000000	0.0971954 	660.000000	0.0968004 	660.000000	0.0962488 	660.000000	0.0971728 	660.000000	2.26431e-05	
680.000000	0.07096   	680.000000	0.0962064 	680.000000	0.0958233 	680.000000	0.0952738 	680.000000	0.0961844 	680.000000	2.20238e-05	
700.000000	0.0702524 	700.000000	0.0952806 	700.000000	0.0949089 	700.000000	0.0943609 	700.000000	0.0952591 	700.000000	2.14386e-05	
720.000000	0.0695886 	720.000000	0.0944129 	720.000000	0.0940519 	720.000000	0.0935049 	720.000000	0.094392  	720.000000	2.08846e-05	
740.000000	0.0689652 	740.000000	0.0935987 	740.000000	0.0932452 	740.000000	0.0927011 	740.000000	0.0935784 	740.000000	2.03595e-05	
760.000000	0.0683791 	760.000000	0.092834  	760.000000	0.0924838 	760.000000	0.0919454 	760.000000	0.0928141 	760.000000	1.98611e-05	
780.000000	0.0678277 	780.000000	0.0921149 	780.000000	0.0917667 	780.000000	0.0912341 	780.000000	0.0920955 	780.000000	1.93872e-05	
800.000000	0.0673084 	800.000000	0.0914381 	800.000000	0.0910934 	800.000000	0.0905638 	800.000000	0.0914192 	800.000000	1.89362e-05	
820.000000	0.0668192 	820.000000	0.0908007 	820.000000	0.09046   	820.000000	0.0899314 	820.000000	0.0907822 	820.000000	1.85063e-05	
840.000000	0.0663578 	840.000000	0.0901998 	840.000000	0.0898622 	840.000000	0.0893343 	840.000000	0.0901817 	840.000000	1.80962e-05	
860.000000	0.0659226 	860.000000	0.0896331 	860.000000	0.0892966 	860.000000	0.0887699 	860.000000	0.0896154 	860.000000	1.77044e-05	
880.000000	0.0655118 	880.000000	0.0890981 	880.000000	0.0887613 	880.000000	0.088236  	880.000000	0.0890808 	880.000000	1.73298e-05	
900.000000	0.0651239 	900.000000	0.0885929 	900.000000	0.0882549 	900.000000	0.0877305 	900.000000	0.0885759 	900.000000	1.69712e-05	
920.000000	0.0647574 	920.000000	0.0881155 	920.000000	0.0877754 	920.000000	0.0872515 	920.000000	0.0880989 	920.000000	1.66277e-05	
940.000000	0.0644112 	940.000000	0.0876643 	940.000000	0.0873202 	940.000000	0.0867973 	940.000000	0.087648  	940.000000	1.62982e-05	
960.000000	0.0640839 	960.000000	0.0872375 	960.000000	0.0868871 	960.000000	0.0863662 	960.000000	0.0872215 	960.000000	1.5982e-05	
980.000000	0.0637746 	980.000000	0.0868338 	980.000000	0.0864745 	980.000000	0.0859569 	980.000000	0.0868181 	980.000000	1.56782e-05	
1000.000000	0.0634821 	1000.000000	0.0864518 	1000.000000	0.0860818 	1000.000000	0.085568  	1000.000000	0.0864364 	1000.000000	1.53861e-05	
1020.000000	0.0632057 	1020.000000	0.0860902 	1020.000000	0.0857087 	1020.000000	0.0851982 	1020.000000	0.0860751 	1020.000000	1.51051e-05	
1040.000000	0.0629443 	1040.000000	0.0857479 	1040.000000	0.0853547 	1040.000000	0.0848463 	1040.000000	0.0857331 	1040.000000	1.48344e-05	
1060.000000	0.0626972 	1060.000000	0.0854238 	1060.000000	0.0850188 	1060.000000	0.0845115 	1060.000000	0.0854093 	1060.000000	1.45736e-05	
1080.000000	0.0624636 	1080.000000	0.085117  	1080.000000	0.0846993 	1080.000000	0.0841926 	1080.000000	0.0851027 	1080.000000	1.43221e-05	
1100.000000	0.0622429 	1100.000000	0.0848264 	1100.000000	0.0843951 	1100.000000	0.0838887 	1100.000000	0.0848124 	1100.000000	1.40795e-05	
1120.000000	0.0620344 	1120.000000	0.0845514 	1120.000000	0.084105  	1120.000000	0.0835991 	1120.000000	0.0845375 	1120.000000	1.38451e-05	
1140.000000	0.0618375 	1140.000000	0.0842909 	1140.000000	0.0838281 	1140.000000	0.0833229 	1140.000000	0.0842773 	1140.000000	1.36187e-05	
1160.000000	0.0616517 	1160.000000	0.0840444 	1160.000000	0.0835638 	1160.000000	0.0830593 	1160.000000	0.084031  	1160.000000	1.33999e-05	
1180.000000	0.0614764 	1180.000000	0.0838111 	1180.000000	0.0833115 	1180.000000	0.0828078 	1180.000000	0.0837979 	1180.000000	1.31882e-05	
1200.000000	0.0613111 	1200.000000	0.0835903 	1200.000000	0.0830708 	1200.000000	0.0825677 	1200.000000	0.0835773 	1200.000000	1.29832e-05	
1220.000000	0.0611554 	1220.000000	0.0833815 	1220.000000	0.0828411 	1220.000000	0.0823384 	1220.000000	0.0833687 	1220.000000	1.27848e-05	
1240.000000	0.0610088 	1240.000000	0.0831841 	1240.000000	0.0826217 	1240.000000	0.0821193 	1240.000000	0.0831715 	1240.000000	1.25925e-05	
1260.000000	0.0608709 	1260.000000	0.0829976 	1260.000000	0.082412  	1260.000000	0.08191   	1260.000000	0.0829852 	1260.000000	1.24061e-05	
1280.000000	0.0607414 	1280.000000	0.0828214 	1280.000000	0.0822114 	1280.000000	0.0817099 	1280.000000	0.0828092 	1280.000000	1.22254e-05	
1300.000000	0.0606199 	1300.000000	0.0826551 	1300.000000	0.0820192 	1300.000000	0.0815185 	1300.000000	0.0826431 	1300.000000	1.205e-05 	
1320.000000	0.060506  	1320.000000	0.0824983 	1320.000000	0.081835  	1320.000000	0.0813355 	1320.000000	0.0824864 	1320.000000	1.18797e-05	
1340.000000	0.0603995 	1340.000000	0.0823505 	1340.000000	0.0816583 	1340.000000	0.0811605 	1340.000000	0.0823388 	1340.000000	1.17143e-05	
1360.000000	0.0603    	1360.000000	0.0822113 	1360.000000	0.081489  	1360.000000	0.080993  	1360.000000	0.0821997 	1360.000000	1.15536e-05	
1380.000000	0.0602072 	1380.000000	0.0820804 	1380.000000	0.0813269 	1380.000000	0.0808328 	1380.000000	0.082069  	1380.000000	1.13974e-05	
1400.000000	0.060121  	1400.000000	0.0819574 	1400.000000	0.0811717 	1400.000000	0.0806794 	1400.000000	0.0819462 	1400.000000	1.12455e-05	
1420.000000	0.0600409 	1420.000000	0.081842  	1420.000000	0.0810232 	1420.000000	0.0805326 	1420.000000	0.0818309 	1420.000000	1.10978e-05	
1440.000000	0.0599669 	1440.000000	0.0817339 	1440.000000	0.0808813 	1440.000000	0.0803921 	1440.000000	0.0817229 	1440.000000	1.09539e-05	
1460.000000	0.0598986 	1460.000000	0.0816328 	1460.000000	0.0807458 	1460.000000	0.0802575 	1460.000000	0.0816219 	1460.000000	1.08139e-05	
1480.000000	0.0598358 	1480.000000	0.0815383 	1480.000000	0.0806162 	1480.000000	0.0801287 	1480.000000	0.0815277 	1480.000000	1.06776e-05	
1500.000000	0.0597784 	1500.000000	0.0814503 	1500.000000	0.0804924 	1500.000000	0.0800054 	1500.000000	0.0814398 	1500.000000	1.05447e-05	
1520.000000	0.0597261 	1520.000000	0.0813685 	1520.000000	0.0803739 	1520.000000	0.0798873 	1520.000000	0.0813581 	1520.000000	1.04152e-05	
1540.000000	0.0596788 	1540.000000	0.0812927 	1540.000000	0.0802606 	1540.000000	0.0797742 	1540.000000	0.0812824 	1540.000000	1.0289e-05	
1560.000000	0.0596363 	1560.000000	0.0812226 	1560.000000	0.0801521 	1560.000000	0.0796659 	1560.000000	0.0812124 	1560.000000	1.01659e-05	
1580.000000	0.0595984 	1580.000000	0.081158  	1580.000000	0.0800483 	1580.000000	0.0795621 	1580.000000	0.0811479 	1580.000000	1.00458e-05	
1600.000000	0.0595649 	1600.000000	0.0810987 	1600.000000	0.0799488 	1600.000000	0.0794628 	1600.000000	0.0810887 	1600.000000	9.92854e-06	
1620.000000	0.0595358 	1620.000000	0.0810445 	1620.000000	0.0798536 	1620.000000	0.0793677 	1620.000000	0.0810347 	1620.000000	9.81411e-06	
1640.000000	0.0595108 	1640.000000	0.0809952 	1640.000000	0.0797623 	1640.000000	0.0792767 	1640.000000	0.0809855 	1640.000000	9.70238e-06	
1660.000000	0.0594898 	1660.000000	0.0809507 	1660.000000	0.0796749 	1660.000000	0.0791895 	1660.000000	0.0809411 	1660.000000	9.59325e-06	
1680.000000	0.0594728 	1680.000000	0.0809108 	1680.000000	0.0795912 	1680.000000	0.0791061 	1680.000000	0.0809013 	1680.000000	9.48662e-06	
1700.000000	0.0594595 	1700.000000	0.0808753 	1700.000000	0.079511  	1700.000000	0.0790262 	1700.000000	0.0808659 	1700.000000	9.38241e-06	
1750.000000	0.059442  	1750.000000	0.0808049 	1750.000000	0.0793253 	1750.000000	0.0788414 	1750.000000	0.0807957 	1750.000000	9.13195e-06	
1800.000000	0.0594455 	1800.000000	0.0807589 	1800.000000	0.0791589 	1800.000000	0.0786759 	1800.000000	0.0807501 	1800.000000	8.89492e-06	
1850.000000	0.0594686 	1850.000000	0.0807356 	1850.000000	0.0790102 	1850.000000	0.0785282 	1850.000000	0.0807269 	1850.000000	8.67025e-06	
1900.000000	0.0595099 	1900.000000	0.080733  	1900.000000	0.0788775 	1900.000000	0.0783965 	1900.000000	0.0807245 	1900.000000	8.45701e-06	
1950.000000	0.059568  	1950.000000	0.0807495 	1950.000000	0.0787594 	1950.000000	0.0782795 	1950.000000	0.0807413 	1950.000000	8.25432e-06	
2000.000000	0.0596419 	2000.000000	0.0807839 	2000.000000	0.0786545 	2000.000000	0.0781757 	2000.000000	0.0807758 	2000.000000	8.06142e-06	
2100.000000	0.0598329 	2100.000000	0.0809007 	2100.000000	0.0784801 	2100.000000	0.0780039 	2100.000000	0.0808929 	2100.000000	7.70223e-06	
2200.000000	0.0600757 	2200.000000	0.0810744 	2200.000000	0.0783467 	2200.000000	0.077873  	2200.000000	0.081067  	2200.000000	7.37461e-06	
2300.000000	0.0603643 	2300.000000	0.0812977 	2300.000000	0.0782483 	2300.000000	0.0777768 	2300.000000	0.0812906 	2300.000000	7.07451e-06	
2400.000000	0.0606937 	2400.000000	0.0815643 	2400.000000	0.0781798 	2400.000000	0.0777098 	2400.000000	0.0815575 	2400.000000	6.79859e-06	
2500.000000	0.0610597 	2500.000000	0.0818689 	2500.000000	0.0781368 	2500.000000	0.0776677 	2500.000000	0.0818624 	2500.000000	6.544e-06 	
2600.000000	0.0614587 	2600.000000	0.0822073 	2600.000000	0.0781154 	2600.000000	0.0776468 	2600.000000	0.082201  	2600.000000	6.30834e-06	
2700.000000	0.0618876 	2700.000000	0.0825755 	2700.000000	0.0781123 	2700.000000	0.0776441 	2700.000000	0.0825694 	2700.000000	6.08956e-06	
2800.000000	0.0623437 	2800.000000	0.0829703 	2800.000000	0.0781248 	2800.000000	0.077657  	2800.000000	0.0829645 	2800.000000	5.88588e-06	
2900.000000	0.0628247 	2900.000000	0.083389  	2900.000000	0.0781507 	2900.000000	0.0776834 	2900.000000	0.0833833 	2900.000000	5.69578e-06	
3000.000000	0.0633286 	3000.000000	0.0838291 	3000.000000	0.078188  	3000.000000	0.0777213 	3000.000000	0.0838236 	3000.000000	5.51793e-06	
3200.000000	0.0643983 	3200.000000	0.0847654 	3200.000000	0.0782911 	3200.000000	0.0778256 	3200.000000	0.0847602 	3200.000000	5.1945e-06	
3400.000000	0.0655409 	3400.000000	0.085765  	3400.000000	0.0784241 	3400.000000	0.0779599 	3400.000000	0.0857601 	3400.000000	4.90789e-06	
3600.000000	0.0667473 	3600.000000	0.0868172 	3600.000000	0.0785795 	3600.000000	0.0781165 	3600.000000	0.0868126 	3600.000000	4.6521e-06	
3800.000000	0.0680102 	3800.000000	0.0879133 	3800.000000	0.0787516 	3800.000000	0.0782897 	3800.000000	0.0879089 	3800.000000	4.42238e-06	
4000.000000	0.0693235 	4000.000000	0.0890464 	4000.000000	0.078936  	4000.000000	0.0784751 	4000.000000	0.0890422 	4000.000000	4.21489e-06	
4200.000000	0.0706825 	4200.000000	0.0902109 	4200.000000	0.0791294 	4200.000000	0.0786693 	4200.000000	0.0902069 	4200.000000	4.02653e-06	
4400.000000	0.0720832 	4400.000000	0.0914023 	4400.000000	0.0793291 	4400.000000	0.0788699 	4400.000000	0.0913984 	4400.000000	3.85474e-06	
4600.000000	0.0735222 	4600.000000	0.0926168 	4600.000000	0.0795331 	4600.000000	0.0790746 	4600.000000	0.0926131 	4600.000000	3.69742e-06	
4800.000000	0.0749969 	4800.000000	0.0938513 	4800.000000	0.0797399 	4800.000000	0.079282  	4800.000000	0.0938477 	4800.000000	3.55278e-06	
5000.000000	0.0765048 	5000.000000	0.0951031 	5000.000000	0.0799481 	5000.000000	0.0794909 	5000.000000	0.0950997 	5000.000000	3.41935e-06	
5250.000000	0.0784334 	5250.000000	0.0966889 	5250.000000	0.0802089 	5250.000000	0.0797525 	5250.000000	0.0966856 	5250.000000	3.2664e-06	
5500.000000	0.0804076 	5500.000000	0.0982948 	5500.000000	0.0804691 	5500.000000	0.0800134 	5500.000000	0.0982917 	5500.000000	3.12692e-06	
6000.000000	0.0844822 	6000.000000	0.101555  	6000.000000	0.0809833 	6000.000000	0.0805289 	6000.000000	0.101553  	6000.000000	2.88175e-06	
6500.000000	0.0887116 	6500.000000	0.104867  	6500.000000	0.0814852 	6500.000000	0.0810318 	6500.000000	0.104864  	6500.000000	2.67317e-06	
7000.000000	0.0930835 	7000.000000	0.108216  	7000.000000	0.0819717 	7000.000000	0.0815193 	7000.000000	0.108213  	7000.000000	2.49348e-06	
7500.000000	0.0975888 	7500.000000	0.111593  	7500.000000	0.0824397 	7500.000000	0.0819901 	7500.000000	0.111591  	7500.000000	2.33703e-06	
8000.000000	0.102221  	8000.000000	0.114992  	8000.000000	0.082892  	8000.000000	0.0824437 	8000.000000	0.114989  	8000.000000	2.19954e-06	
8500.000000	0.106974  	8500.000000	0.118407  	8500.000000	0.0833288 	8500.000000	0.0828804 	8500.000000	0.118405  	8500.000000	2.07773e-06	
9000.000000	0.111844  	9000.000000	0.121834  	9000.000000	0.0837492 	9000.000000	0.0833005 	9000.000000	0.121832  	9000.000000	1.96905e-06	
9500.000000	0.116829  	9500.000000	0.125271  	9500.000000	0.0841522 	9500.000000	0.0837049 	9500.000000	0.125269  	9500.000000	1.87147e-06	
10000.000000	0.121925  	10000.000000	0.128714  	10000.000000	0.0845387 	10000.000000	0.0840941 	10000.000000	0.128712  	10000.000000	1.78335e-06	
11000.000000	0.132443  	11000.000000	0.135614  	11000.000000	0.0852706 	11000.000000	0.0848304 	11000.000000	0.135613  	11000.000000	1.63043e-06	
12000.000000	0.143387  	12000.000000	0.142524  	12000.000000	0.0859553 	12000.000000	0.0855154 	12000.000000	0.142522  	12000.000000	1.50227e-06	
13000.000000	0.154748  	13000.000000	0.149435  	13000.000000	0.086594  	13000.000000	0.0861548 	13000.000000	0.149434  	13000.000000	1.39326e-06	
14000.000000	0.16652   	14000.000000	0.156344  	14000.000000	0.0871893 	14000.000000	0.0867534 	14000.000000	0.156343  	14000.000000	1.29936e-06	
15000.000000	0.178701  	15000.000000	0.163248  	15000.000000	0.0877466 	15000.000000	0.0873158 	15000.000000	0.163247  	15000.000000	1.21763e-06	
16000.000000	0.191288  	16000.000000	0.170143  	16000.000000	0.0882712 	16000.000000	0.0878455 	16000.000000	0.170142  	16000.000000	1.14581e-06	
17000.000000	0.204279  	17000.000000	0.17703   	17000.000000	0.0887674 	17000.000000	0.088346  	17000.000000	0.177028  	17000.000000	1.0822e-06	
18000.000000	0.217674  	18000.000000	0.183906  	18000.000000	0.0892382 	18000.000000	0.0888201 	18000.000000	0.183905  	18000.000000	1.02546e-06	
19000.000000	0.231473  	19000.000000	0.190771  	19000.000000	0.0896859 	19000.000000	0.0892702 	19000.000000	0.19077   	19000.000000	9.74509e-07	
20000.000000	0.245675  	20000.000000	0.197626  	20000.000000	0.0901126 	20000.000000	0.0896986 	20000.000000	0.197625  	20000.000000	9.2851e-07	
21000.000000	0.260282  	21000.000000	0.204469  	21000.000000	0.0905189 	21000.000000	0.0901071 	21000.000000	0.204468  	21000.000000	8.86764e-07	
22000.000000	0.275293  	22000.000000	0.2113    	22000.000000	0.0909043 	22000.000000	0.0904974 	22000.000000	0.2113    	22000.000000	8.48704e-07	
23000.000000	0.290711  	23000.000000	0.218121  	23000.000000	0.0912734 	23000.000000	0.090871  	23000.000000	0.21812   	23000.000000	8.13858e-07	
24000.000000	0.306537  	24000.000000	0.22493   	24000.000000	0.0916276 	24000.000000	0.0912292 	24000.000000	0.22493   	24000.000000	7.81832e-07	
25000.000000	0.322772  	25000.000000	0.231729  	25000.000000	0.0919671 	25000.000000	0.0915732 	25000.000000	0.231728  	25000.000000	7.52295e-07	
26000.000000	0.339416  	26000.000000	0.238516  	26000.000000	0.0922934 	26000.000000	0.091904  	26000.000000	0.238515  	26000.000000	7.24964e-07	
27000.000000	0.356473  	27000.000000	0.245293  	27000.000000	0.0926077 	27000.000000	0.0922225 	27000.000000	0.245292  	27000.000000	6.99599e-07	
28000.000000	0.373944  	28000.000000	0.252059  	28000.000000	0.0929105 	28000.000000	0.0925297 	28000.000000	0.252058  	28000.000000	6.75994e-07	
29000.000000	0.39183   	29000.000000	0.258815  	29000.000000	0.0932023 	29000.000000	0.0928262 	29000.000000	0.258814  	29000.000000	6.5397e-07	
30000.000000	0.410133  	30000.000000	0.265561  	30000.000000	0.0934838 	30000.000000	0.0931127 	30000.000000	0.26556   	30000.000000	6.33372e-07	
32000.000000	0.447999  	32000.000000	0.279023  	32000.000000	0.0940192 	32000.000000	0.0936585 	32000.000000	0.279022  	32000.000000	5.9593e-07	
34000.000000	0.487558  	34000.000000	0.292447  	34000.000000	0.0945212 	34000.000000	0.0941713 	34000.000000	0.292447  	34000.000000	5.6277e-07	
36000.000000	0.528826  	36000.000000	0.305836  	36000.000000	0.0949924 	36000.000000	0.0946548 	36000.000000	0.305835  	36000.000000	5.33193e-07	
38000.000000	0.571821  	38000.000000	0.31919   	38000.000000	0.0954354 	38000.000000	0.0951121 	38000.000000	0.319189  	38000.000000	5.06642e-07	
40000.000000	0.616559  	40000.000000	0.33251   	40000.000000	0.0958538 	40000.000000	0.0955458 	40000.000000	0.33251   	40000.000000	4.82673e-07	
42000.000000	0.66306   	42000.000000	0.3458    	42000.000000	0.0962509 	42000.000000	0.0959583 	42000.000000	0.345799  	42000.000000	4.60923e-07	
44000.000000	0.71134   	44000.000000	0.359059  	44000.000000	0.0966293 	44000.000000	0.0963514 	44000.000000	0.359058  	44000.000000	4.41096e-07	
46000.000000	0.76142   	46000.000000	0.372289  	46000.000000	0.0969908 	46000.000000	0.0967268 	46000.000000	0.372288  	46000.000000	4.22945e-07	
48000.000000	0.813316  	48000.000000	0.38549   	48000.000000	0.0973367 	48000.000000	0.0970861 	48000.000000	0.38549   	48000.000000	4.06265e-07	
50000.000000	0.86705   	50000.000000	0.398666  	50000.000000	0.0976668 	50000.000000	0.0974306 	50000.000000	0.398665  	50000.000000	3.90882e-07	
