Energy (MeV/u)1	0 - [He-base] F.Hubert et al, AD&ND Tables 46(1990)1	Energy (MeV/u)2	1 - [H -base] J.F.Ziegler et al, Pergamon Press, NY (low energy)	Energy (MeV/u)3	2 - ATIMA 1.2  LS-theory (recommended for high energy)	Energy (MeV/u)4	3 - ATIMA 1.2  without LS-correction	Energy (MeV/u)5	4 - electrical component of [1] - J.F.Ziegler et al	Energy (MeV/u)6	5 - nuclear component of [1] - J.F.Ziegler et al	
0.001000	1.37985   	0.001000	1.37985   	0.001000	1.47837   	0.001000	1.47837   	0.001000	0.578313  	0.001000	0.801541  	
0.002000	1.42947   	0.002000	1.42947   	0.002000	1.55908   	0.002000	1.55908   	0.002000	0.773074  	0.002000	0.656401  	
0.005000	1.5759    	0.005000	1.5759    	0.005000	1.76565   	0.005000	1.76565   	0.005000	1.13653   	0.005000	0.439376  	
0.008000	1.72561   	0.008000	1.72561   	0.008000	1.95828   	0.008000	1.95828   	0.008000	1.38594   	0.008000	0.339672  	
0.010000	1.82065   	0.010000	1.82065   	0.010000	2.07748   	0.010000	2.07748   	0.010000	1.5231    	0.010000	0.297555  	
0.015000	2.07202   	0.015000	2.07202   	0.015000	2.3692    	0.015000	2.3692    	0.015000	1.84147   	0.015000	0.230551  	
0.020000	2.49109   	0.020000	2.49109   	0.020000	2.76937   	0.020000	2.76937   	0.020000	2.30064   	0.020000	0.190445  	
0.025000	2.91188   	0.025000	2.91188   	0.025000	3.1725    	0.025000	3.1725    	0.025000	2.74937   	0.025000	0.162508  	
0.030000	3.32726   	0.030000	3.32726   	0.030000	3.48911   	0.030000	3.48911   	0.030000	3.18428   	0.030000	0.142977  	
0.035000	3.68094   	0.035000	3.68094   	0.035000	3.79236   	0.035000	3.79236   	0.035000	3.55289   	0.035000	0.128043  	
0.040000	3.964     	0.040000	3.964     	0.040000	4.08107   	0.040000	4.08107   	0.040000	3.84826   	0.040000	0.115736  	
0.045000	4.22843   	0.045000	4.22843   	0.045000	4.35589   	0.045000	4.35589   	0.045000	4.12228   	0.045000	0.106147  	
0.050000	4.47409   	0.050000	4.47409   	0.050000	4.61621   	0.050000	4.61621   	0.050000	4.37592   	0.050000	0.0981658 	
0.055000	4.70163   	0.055000	4.70163   	0.055000	4.86213   	0.055000	4.86213   	0.055000	4.61023   	0.055000	0.0914072 	
0.060000	4.91194   	0.060000	4.91194   	0.060000	5.09392   	0.060000	5.09392   	0.060000	4.82634   	0.060000	0.0856023 	
0.070000	5.28502   	0.070000	5.28502   	0.070000	5.51675   	0.070000	5.51675   	0.070000	5.20889   	0.070000	0.0761254 	
0.080000	5.65824   	0.080000	5.65824   	0.080000	5.88879   	0.080000	5.88879   	0.080000	5.58954   	0.080000	0.0686956 	
0.090000	5.98618   	0.090000	5.98618   	0.090000	6.21487   	0.090000	6.21487   	0.090000	5.92348   	0.090000	0.0626983 	
0.100000	6.26708   	0.100000	6.26708   	0.100000	6.5       	0.100000	6.5       	0.100000	6.20934   	0.100000	0.0577451 	
0.120000	6.71632   	0.120000	6.71632   	0.120000	6.96655   	0.120000	6.96655   	0.120000	6.6663    	0.120000	0.0500197 	
0.140000	7.05262   	0.140000	7.05262   	0.140000	7.32243   	0.140000	7.32243   	0.140000	7.00837   	0.140000	0.04425   	
0.160000	7.30801   	0.160000	7.30801   	0.160000	7.59419   	0.160000	7.59419   	0.160000	7.26825   	0.160000	0.0397617 	
0.180000	7.50418   	0.180000	7.50418   	0.180000	7.80167   	0.180000	7.80167   	0.180000	7.46802   	0.180000	0.0361615 	
0.200000	7.6561    	0.200000	7.6561    	0.200000	7.95954   	0.200000	7.95954   	0.200000	7.6229    	0.200000	0.0332037 	
0.250000	7.92582   	0.250000	7.92582   	0.250000	8.20221   	0.250000	8.20221   	0.250000	7.89814   	0.250000	0.0276784 	
0.300000	8.10655   	0.300000	8.10655   	0.300000	8.30626   	0.300000	8.30626   	0.300000	8.08273   	0.300000	0.0238248 	
0.350000	8.19827   	0.350000	8.19827   	0.350000	8.33064   	0.350000	8.33064   	0.350000	8.1773    	0.350000	0.0209717 	
0.400000	8.23498   	0.400000	8.23498   	0.400000	8.30866   	0.400000	8.30866   	0.400000	8.21621   	0.400000	0.0187674 	
0.450000	8.26974   	0.450000	8.26974   	0.450000	8.28881   	0.450000	8.28881   	0.450000	8.25273   	0.450000	0.0170092 	
0.500000	8.27068   	0.500000	8.27068   	0.500000	8.29227   	0.500000	8.29227   	0.500000	8.25511   	0.500000	0.0155717 	
0.600000	8.23798   	0.600000	8.23798   	0.600000	8.22632   	0.600000	8.22632   	0.600000	8.22462   	0.600000	0.0133561 	
0.700000	8.15091   	0.700000	8.15091   	0.700000	8.10449   	0.700000	8.10449   	0.700000	8.13919   	0.700000	0.0117233 	
0.800000	8.04026   	0.800000	8.04026   	0.800000	7.93269   	0.800000	7.93269   	0.800000	8.0298    	0.800000	0.0104665 	
0.900000	7.90275   	0.900000	7.90275   	0.900000	7.75822   	0.900000	7.75822   	0.900000	7.89328   	0.900000	0.00946709	
1.000000	7.75003   	1.000000	7.75003   	1.000000	7.58501   	1.000000	7.58501   	1.000000	7.74137   	1.000000	0.00865205	
1.250000	7.34393   	1.250000	7.34393   	1.250000	7.16819   	1.250000	7.16819   	1.250000	7.33679   	1.250000	0.00714473	
1.500000	6.94261   	1.500000	6.94261   	1.500000	6.74544   	1.500000	6.74544   	1.500000	6.9365    	1.500000	0.00610584	
1.750000	6.56635   	1.750000	6.56635   	1.750000	6.37746   	1.750000	6.37746   	1.750000	6.561     	1.750000	0.00534366	
2.000000	6.20539   	2.000000	6.20539   	2.000000	6.0507    	2.000000	6.0507    	2.000000	6.20063   	2.000000	0.00475914	
2.250000	5.88159   	2.250000	5.88159   	2.250000	5.75717   	2.250000	5.75717   	2.250000	5.87729   	2.250000	0.00429577	
2.500000	5.67893   	2.500000	5.59086   	2.500000	5.49152   	2.500000	5.49152   	2.500000	5.58694   	2.500000	0.00391886	
3.000000	5.16667   	3.000000	5.07403   	3.000000	5.02891   	3.000000	5.02891   	3.000000	5.07069   	3.000000	0.00334166	
3.500000	4.73779   	3.500000	4.65127   	3.500000	4.63974   	3.500000	4.63974   	3.500000	4.64835   	3.500000	0.00291932	
4.000000	4.37535   	4.000000	4.30219   	4.000000	4.308     	4.000000	4.308     	4.000000	4.2996    	4.000000	0.00259613	
4.500000	4.06578   	4.500000	4.00723   	4.500000	4.02201   	4.500000	4.02201   	4.500000	4.00489   	4.500000	0.00234038	
5.000000	3.79864   	5.000000	3.75326   	5.000000	3.773     	5.000000	3.773     	5.000000	3.75113   	5.000000	0.00213267	
5.500000	3.5659    	5.500000	3.53228   	5.500000	3.55425   	5.500000	3.55425   	5.500000	3.53031   	5.500000	0.00196045	
6.000000	3.3614    	6.000000	3.33804   	6.000000	3.36058   	6.000000	3.36058   	6.000000	3.33622   	6.000000	0.0018152 	
6.500000	3.18032   	6.500000	3.16572   	6.500000	3.18788   	6.500000	3.18788   	6.500000	3.16403   	6.500000	0.00169096	
7.000000	3.01885   	7.000000	3.01166   	7.000000	3.03291   	7.000000	3.03291   	7.000000	3.01007   	7.000000	0.00158341	
7.500000	2.87398   	7.500000	2.87299   	7.500000	2.89307   	7.500000	2.89307   	7.500000	2.8715    	7.500000	0.00148934	
8.000000	2.74325   	8.000000	2.74745   	8.000000	2.76621   	8.000000	2.76621   	8.000000	2.74604   	8.000000	0.00140634	
8.500000	2.62469   	8.500000	2.63321   	8.500000	2.65059   	8.500000	2.65059   	8.500000	2.63188   	8.500000	0.00133253	
9.000000	2.51667   	9.000000	2.52877   	9.000000	2.54478   	9.000000	2.54478   	9.000000	2.52751   	9.000000	0.00126644	
9.500000	2.41782   	9.500000	2.4329    	9.500000	2.44755   	9.500000	2.44755   	9.500000	2.4317    	9.500000	0.00120689	
10.000000	2.32702   	10.000000	2.36098   	10.000000	2.3579    	10.000000	2.3579    	10.000000	2.35983   	10.000000	0.00115296	
11.000000	2.1659    	11.000000	2.2026    	11.000000	2.19535   	11.000000	2.19822   	11.000000	2.20154   	11.000000	0.00105897	
12.000000	2.02727   	12.000000	2.0649    	12.000000	2.05464   	12.000000	2.05946   	12.000000	2.06392   	12.000000	0.000979787	
13.000000	1.90668   	13.000000	1.94414   	13.000000	1.93165   	13.000000	1.9378    	13.000000	1.94323   	13.000000	0.000912113	
14.000000	1.80079   	14.000000	1.8374    	14.000000	1.82326   	14.000000	1.83027   	14.000000	1.83654   	14.000000	0.000853577	
15.000000	1.70704   	15.000000	1.74239   	15.000000	1.727     	15.000000	1.73456   	15.000000	1.74159   	15.000000	0.00080242	
16.000000	1.62344   	16.000000	1.6573    	16.000000	1.64095   	16.000000	1.64884   	16.000000	1.65654   	16.000000	0.00075731	
17.000000	1.54839   	17.000000	1.58065   	17.000000	1.56356   	17.000000	1.57162   	17.000000	1.57994   	17.000000	0.000717219	
18.000000	1.48063   	18.000000	1.51126   	18.000000	1.49363   	18.000000	1.50172   	18.000000	1.51058   	18.000000	0.000681342	
19.000000	1.41914   	19.000000	1.44813   	19.000000	1.43013   	19.000000	1.43815   	19.000000	1.44748   	19.000000	0.000649038	
20.000000	1.36307   	20.000000	1.39046   	20.000000	1.37219   	20.000000	1.3801    	20.000000	1.38984   	20.000000	0.000619791	
21.000000	1.31172   	21.000000	1.33757   	21.000000	1.31911   	21.000000	1.32689   	21.000000	1.33698   	21.000000	0.000593181	
22.000000	1.26452   	22.000000	1.28889   	22.000000	1.27033   	22.000000	1.27794   	22.000000	1.28832   	22.000000	0.00056886	
23.000000	1.22097   	23.000000	1.24393   	23.000000	1.22537   	23.000000	1.23279   	23.000000	1.24338   	23.000000	0.000546543	
24.000000	1.18066   	24.000000	1.20228   	24.000000	1.18384   	24.000000	1.191     	24.000000	1.20175   	24.000000	0.000525986	
25.000000	1.14323   	25.000000	1.16358   	25.000000	1.14536   	25.000000	1.15224   	25.000000	1.16308   	25.000000	0.000506987	
27.000000	1.07586   	27.000000	1.09388   	27.000000	1.07629   	27.000000	1.08257   	27.000000	1.09341   	27.000000	0.000472995	
29.000000	1.01687   	29.000000	1.03283   	29.000000	1.01606   	29.000000	1.02179   	29.000000	1.03239   	29.000000	0.000443454	
31.000000	0.96478   	31.000000	0.978909  	31.000000	0.963548  	31.000000	0.968511  	31.000000	0.978491  	31.000000	0.000417532	
33.000000	0.918417  	33.000000	0.930922  	33.000000	0.917203  	33.000000	0.921332  	33.000000	0.930528  	33.000000	0.000394595	
35.000000	0.876872  	35.000000	0.887938  	35.000000	0.875676  	35.000000	0.879083  	35.000000	0.887563  	35.000000	0.000374148	
38.000000	0.822038  	38.000000	0.831239  	38.000000	0.820893  	38.000000	0.823357  	38.000000	0.830892  	38.000000	0.000347314	
41.000000	0.774545  	41.000000	0.782181  	41.000000	0.773345  	41.000000	0.775131  	41.000000	0.781857  	41.000000	0.000324217	
44.000000	0.732987  	44.000000	0.739303  	44.000000	0.73171   	44.000000	0.732963  	44.000000	0.738999  	44.000000	0.000304117	
47.000000	0.696298  	47.000000	0.701497  	47.000000	0.694984  	47.000000	0.695762  	47.000000	0.70121   	47.000000	0.000286459	
50.000000	0.663652  	50.000000	0.667904  	50.000000	0.662251  	50.000000	0.662685  	50.000000	0.667633  	50.000000	0.000270818	
55.000000	0.616534  	55.000000	0.61951   	55.000000	0.61497   	55.000000	0.614991  	55.000000	0.619262  	55.000000	0.000248364	
60.000000	0.576663  	60.000000	0.578663  	60.000000	0.574998  	60.000000	0.574684  	60.000000	0.578434  	60.000000	0.000229479	
65.000000	0.542457  	65.000000	0.543708  	65.000000	0.540746  	65.000000	0.540149  	65.000000	0.543495  	65.000000	0.000213366	
70.000000	0.512765  	70.000000	0.513445  	70.000000	0.51097   	70.000000	0.510213  	70.000000	0.513245  	70.000000	0.000199449	
75.000000	0.486731  	75.000000	0.486978  	75.000000	0.484937  	75.000000	0.484003  	75.000000	0.48679   	75.000000	0.000187302	
80.000000	0.463704  	80.000000	0.463629  	80.000000	0.461886  	80.000000	0.460855  	80.000000	0.463452  	80.000000	0.000176603	
85.000000	0.443181  	85.000000	0.442872  	85.000000	0.441363  	85.000000	0.440257  	85.000000	0.442705  	85.000000	0.000167106	
90.000000	0.424764  	90.000000	0.424294  	90.000000	0.422974  	90.000000	0.421804  	90.000000	0.424135  	90.000000	0.000158616	
95.000000	0.408139  	95.000000	0.407566  	95.000000	0.406399  	95.000000	0.405174  	95.000000	0.407415  	95.000000	0.000150979	
100.000000	0.39305   	100.000000	0.392422  	100.000000	0.391379  	100.000000	0.390108  	100.000000	0.392278  	100.000000	0.000144071	
105.000000	0.379288  	105.000000	0.378645  	105.000000	0.377703  	105.000000	0.376391  	105.000000	0.378507  	105.000000	0.000137791	
110.000000	0.366682  	110.000000	0.366056  	110.000000	0.365197  	110.000000	0.36385   	110.000000	0.365924  	110.000000	0.000132057	
115.000000	0.355088  	115.000000	0.354508  	115.000000	0.353714  	115.000000	0.352338  	115.000000	0.354381  	115.000000	0.000126798	
120.000000	0.344386  	120.000000	0.343874  	120.000000	0.34314   	120.000000	0.341733  	120.000000	0.343752  	120.000000	0.000121958	
125.000000	0.334474  	125.000000	0.33405   	125.000000	0.33335   	125.000000	0.33193   	125.000000	0.333932  	125.000000	0.000117488	
130.000000	0.325265  	130.000000	0.324945  	130.000000	0.324247  	130.000000	0.322841  	130.000000	0.324832  	130.000000	0.000113346	
135.000000	0.316686  	135.000000	0.316484  	135.000000	0.315811  	135.000000	0.314392  	135.000000	0.316374  	135.000000	0.000109498	
140.000000	0.308672  	140.000000	0.308599  	140.000000	0.30796   	140.000000	0.306515  	140.000000	0.308493  	140.000000	0.000105912	
145.000000	0.301168  	145.000000	0.301233  	145.000000	0.300606  	145.000000	0.299155  	145.000000	0.301131  	145.000000	0.000102562	
150.000000	0.294124  	150.000000	0.294337  	150.000000	0.293698  	150.000000	0.292263  	150.000000	0.294238  	150.000000	9.94256e-05	
155.000000	0.285498  	155.000000	0.287867  	155.000000	0.287237  	155.000000	0.285794  	155.000000	0.28777   	155.000000	9.64827e-05	
160.000000	0.27964   	160.000000	0.281784  	160.000000	0.281163  	160.000000	0.279712  	160.000000	0.28169   	160.000000	9.37156e-05	
165.000000	0.274113  	165.000000	0.276054  	165.000000	0.275418  	165.000000	0.273982  	165.000000	0.275962  	165.000000	9.11088e-05	
170.000000	0.268891  	170.000000	0.270647  	170.000000	0.270011  	170.000000	0.268575  	170.000000	0.270558  	170.000000	8.86486e-05	
175.000000	0.263947  	175.000000	0.265537  	175.000000	0.264911  	175.000000	0.263464  	175.000000	0.26545   	175.000000	8.63228e-05	
180.000000	0.259261  	180.000000	0.260699  	180.000000	0.260066  	180.000000	0.258626  	180.000000	0.260615  	180.000000	8.41205e-05	
185.000000	0.254812  	185.000000	0.256114  	185.000000	0.255462  	185.000000	0.254039  	185.000000	0.256032  	185.000000	8.20321e-05	
190.000000	0.250582  	190.000000	0.25176   	190.000000	0.251095  	190.000000	0.249685  	190.000000	0.25168   	190.000000	8.00487e-05	
195.000000	0.246555  	195.000000	0.247622  	195.000000	0.246956  	195.000000	0.245546  	195.000000	0.247544  	195.000000	7.81627e-05	
200.000000	0.242718  	200.000000	0.243683  	200.000000	0.243024  	200.000000	0.241606  	200.000000	0.243606  	200.000000	7.63668e-05	
210.000000	0.235558  	210.000000	0.236349  	210.000000	0.235678  	210.000000	0.234272  	210.000000	0.236276  	210.000000	7.30206e-05	
220.000000	0.229011  	220.000000	0.22966   	220.000000	0.228968  	220.000000	0.227585  	220.000000	0.22959   	220.000000	6.99658e-05	
230.000000	0.223001  	230.000000	0.223534  	230.000000	0.222853  	230.000000	0.221464  	230.000000	0.223467  	230.000000	6.71653e-05	
240.000000	0.217464  	240.000000	0.217905  	240.000000	0.21722   	240.000000	0.21584   	240.000000	0.21784   	240.000000	6.45884e-05	
250.000000	0.212345  	250.000000	0.212714  	250.000000	0.212018  	250.000000	0.210656  	250.000000	0.212652  	250.000000	6.22089e-05	
260.000000	0.207599  	260.000000	0.207912  	260.000000	0.207208  	260.000000	0.205863  	260.000000	0.207852  	260.000000	6.00047e-05	
270.000000	0.203187  	270.000000	0.203457  	270.000000	0.202755  	270.000000	0.20142   	270.000000	0.203399  	270.000000	5.7957e-05	
280.000000	0.199074  	280.000000	0.199314  	280.000000	0.198631  	280.000000	0.19729   	280.000000	0.199258  	280.000000	5.60495e-05	
290.000000	0.195231  	290.000000	0.195452  	290.000000	0.194772  	290.000000	0.193441  	290.000000	0.195397  	290.000000	5.42679e-05	
300.000000	0.191633  	300.000000	0.191842  	300.000000	0.191163  	300.000000	0.189847  	300.000000	0.191789  	300.000000	5.26002e-05	
310.000000	0.188256  	310.000000	0.188462  	310.000000	0.187789  	310.000000	0.186484  	310.000000	0.188411  	310.000000	5.10356e-05	
320.000000	0.185082  	320.000000	0.18529   	320.000000	0.184625  	320.000000	0.183331  	320.000000	0.18524   	320.000000	4.95648e-05	
330.000000	0.182092  	330.000000	0.182308  	330.000000	0.18165   	330.000000	0.180369  	330.000000	0.18226   	330.000000	4.81793e-05	
340.000000	0.179271  	340.000000	0.179501  	340.000000	0.178856  	340.000000	0.177583  	340.000000	0.179454  	340.000000	4.6872e-05	
350.000000	0.176606  	350.000000	0.176853  	350.000000	0.176233  	350.000000	0.174956  	350.000000	0.176807  	350.000000	4.56363e-05	
360.000000	0.174084  	360.000000	0.174351  	360.000000	0.173753  	360.000000	0.172477  	360.000000	0.174307  	360.000000	4.44664e-05	
370.000000	0.171694  	370.000000	0.171985  	370.000000	0.171399  	370.000000	0.170134  	370.000000	0.171942  	370.000000	4.33572e-05	
380.000000	0.169427  	380.000000	0.169744  	380.000000	0.169172  	380.000000	0.167917  	380.000000	0.169701  	380.000000	4.23039e-05	
390.000000	0.167272  	390.000000	0.167617  	390.000000	0.167062  	390.000000	0.165815  	390.000000	0.167576  	390.000000	4.13024e-05	
400.000000	0.165223  	400.000000	0.165598  	400.000000	0.16506   	400.000000	0.163821  	400.000000	0.165558  	400.000000	4.0349e-05	
410.000000	0.163272  	410.000000	0.163679  	410.000000	0.163158  	410.000000	0.161927  	410.000000	0.163639  	410.000000	3.94401e-05	
420.000000	0.161413  	420.000000	0.161852  	420.000000	0.16135   	420.000000	0.160126  	420.000000	0.161813  	420.000000	3.85728e-05	
430.000000	0.159638  	430.000000	0.160111  	430.000000	0.159628  	430.000000	0.158412  	430.000000	0.160073  	430.000000	3.77441e-05	
440.000000	0.157943  	440.000000	0.158451  	440.000000	0.157988  	440.000000	0.156778  	440.000000	0.158414  	440.000000	3.69516e-05	
450.000000	0.156323  	450.000000	0.156866  	450.000000	0.156423  	450.000000	0.15522   	450.000000	0.15683   	450.000000	3.61928e-05	
460.000000	0.154774  	460.000000	0.155352  	460.000000	0.154928  	460.000000	0.153733  	460.000000	0.155316  	460.000000	3.54657e-05	
470.000000	0.15329   	470.000000	0.153904  	470.000000	0.1535    	470.000000	0.152312  	470.000000	0.153869  	470.000000	3.47683e-05	
480.000000	0.151868  	480.000000	0.152518  	480.000000	0.152139  	480.000000	0.150953  	480.000000	0.152484  	480.000000	3.40988e-05	
490.000000	0.150504  	490.000000	0.151191  	490.000000	0.150841  	490.000000	0.149653  	490.000000	0.151157  	490.000000	3.34555e-05	
500.000000	0.149196  	500.000000	0.149919  	500.000000	0.149597  	500.000000	0.148408  	500.000000	0.149886  	500.000000	3.28369e-05	
520.000000	0.146732  	520.000000	0.147527  	520.000000	0.147251  	520.000000	0.146071  	520.000000	0.147496  	520.000000	3.16682e-05	
540.000000	0.144454  	540.000000	0.145321  	540.000000	0.145087  	540.000000	0.143918  	540.000000	0.145291  	540.000000	3.05826e-05	
560.000000	0.142344  	560.000000	0.143282  	560.000000	0.143091  	560.000000	0.141931  	560.000000	0.143252  	560.000000	2.95716e-05	
580.000000	0.140385  	580.000000	0.141392  	580.000000	0.141244  	580.000000	0.140093  	580.000000	0.141363  	580.000000	2.86275e-05	
600.000000	0.138563  	600.000000	0.139636  	600.000000	0.139532  	600.000000	0.138389  	600.000000	0.139609  	600.000000	2.77438e-05	
620.000000	0.136865  	620.000000	0.138003  	620.000000	0.137941  	620.000000	0.136806  	620.000000	0.137976  	620.000000	2.6915e-05	
640.000000	0.13528   	640.000000	0.136481  	640.000000	0.13646   	640.000000	0.135332  	640.000000	0.136455  	640.000000	2.61359e-05	
660.000000	0.133799  	660.000000	0.135061  	660.000000	0.135079  	660.000000	0.133958  	660.000000	0.135035  	660.000000	2.54021e-05	
680.000000	0.132413  	680.000000	0.133733  	680.000000	0.13379   	680.000000	0.132676  	680.000000	0.133708  	680.000000	2.47099e-05	
700.000000	0.131113  	700.000000	0.132489  	700.000000	0.132584  	700.000000	0.131476  	700.000000	0.132465  	700.000000	2.40556e-05	
720.000000	0.129894  	720.000000	0.131324  	720.000000	0.131455  	720.000000	0.130353  	720.000000	0.1313    	720.000000	2.34363e-05	
740.000000	0.12875   	740.000000	0.13023   	740.000000	0.130396  	740.000000	0.1293    	740.000000	0.130207  	740.000000	2.28492e-05	
760.000000	0.127673  	760.000000	0.129203  	760.000000	0.129402  	760.000000	0.128311  	760.000000	0.12918   	760.000000	2.22917e-05	
780.000000	0.126661  	780.000000	0.128237  	780.000000	0.128468  	780.000000	0.127382  	780.000000	0.128215  	780.000000	2.17618e-05	
800.000000	0.125708  	800.000000	0.127327  	800.000000	0.127589  	800.000000	0.126507  	800.000000	0.127306  	800.000000	2.12573e-05	
820.000000	0.12481   	820.000000	0.126471  	820.000000	0.126762  	820.000000	0.125686  	820.000000	0.12645   	820.000000	2.07764e-05	
840.000000	0.123963  	840.000000	0.125663  	840.000000	0.125992  	840.000000	0.12492   	840.000000	0.125643  	840.000000	2.03176e-05	
860.000000	0.123164  	860.000000	0.124901  	860.000000	0.125266  	860.000000	0.124197  	860.000000	0.124881  	860.000000	1.98793e-05	
880.000000	0.122411  	880.000000	0.124182  	880.000000	0.124579  	880.000000	0.123515  	880.000000	0.124162  	880.000000	1.94601e-05	
900.000000	0.121699  	900.000000	0.123502  	900.000000	0.123931  	900.000000	0.122871  	900.000000	0.123483  	900.000000	1.90589e-05	
920.000000	0.121027  	920.000000	0.12286   	920.000000	0.123318  	920.000000	0.122261  	920.000000	0.122842  	920.000000	1.86744e-05	
940.000000	0.120392  	940.000000	0.122253  	940.000000	0.122738  	940.000000	0.121685  	940.000000	0.122235  	940.000000	1.83057e-05	
960.000000	0.119792  	960.000000	0.121679  	960.000000	0.122189  	960.000000	0.121139  	960.000000	0.121661  	960.000000	1.79517e-05	
980.000000	0.119225  	980.000000	0.121136  	980.000000	0.121668  	980.000000	0.120622  	980.000000	0.121119  	980.000000	1.76117e-05	
1000.000000	0.118689  	1000.000000	0.120622  	1000.000000	0.121175  	1000.000000	0.120131  	1000.000000	0.120605  	1000.000000	1.72847e-05	
1020.000000	0.118183  	1020.000000	0.120135  	1020.000000	0.120707  	1020.000000	0.119667  	1020.000000	0.120118  	1020.000000	1.697e-05 	
1040.000000	0.117704  	1040.000000	0.119674  	1040.000000	0.120263  	1040.000000	0.119226  	1040.000000	0.119658  	1040.000000	1.6667e-05	
1060.000000	0.117252  	1060.000000	0.119238  	1060.000000	0.119842  	1060.000000	0.118807  	1060.000000	0.119222  	1060.000000	1.6375e-05	
1080.000000	0.116825  	1080.000000	0.118825  	1080.000000	0.119442  	1080.000000	0.118409  	1080.000000	0.118809  	1080.000000	1.60934e-05	
1100.000000	0.116422  	1100.000000	0.118433  	1100.000000	0.119061  	1100.000000	0.118032  	1100.000000	0.118418  	1100.000000	1.58216e-05	
1120.000000	0.116041  	1120.000000	0.118063  	1120.000000	0.1187    	1120.000000	0.117673  	1120.000000	0.118047  	1120.000000	1.55592e-05	
1140.000000	0.115681  	1140.000000	0.117712  	1140.000000	0.118357  	1140.000000	0.117332  	1140.000000	0.117696  	1140.000000	1.53056e-05	
1160.000000	0.115342  	1160.000000	0.117379  	1160.000000	0.11803   	1160.000000	0.117008  	1160.000000	0.117364  	1160.000000	1.50605e-05	
1180.000000	0.115022  	1180.000000	0.117065  	1180.000000	0.11772   	1180.000000	0.116699  	1180.000000	0.11705   	1180.000000	1.48233e-05	
1200.000000	0.114721  	1200.000000	0.116767  	1200.000000	0.117424  	1200.000000	0.116406  	1200.000000	0.116752  	1200.000000	1.45938e-05	
1220.000000	0.114438  	1220.000000	0.116485  	1220.000000	0.117143  	1220.000000	0.116127  	1220.000000	0.116471  	1220.000000	1.43715e-05	
1240.000000	0.114171  	1240.000000	0.116219  	1240.000000	0.116876  	1240.000000	0.115861  	1240.000000	0.116204  	1240.000000	1.4156e-05	
1260.000000	0.11392   	1260.000000	0.115967  	1260.000000	0.116621  	1260.000000	0.115609  	1260.000000	0.115953  	1260.000000	1.39472e-05	
1280.000000	0.113685  	1280.000000	0.115729  	1280.000000	0.116378  	1280.000000	0.115368  	1280.000000	0.115715  	1280.000000	1.37447e-05	
1300.000000	0.113465  	1300.000000	0.115504  	1300.000000	0.116148  	1300.000000	0.115139  	1300.000000	0.11549   	1300.000000	1.35481e-05	
1320.000000	0.113259  	1320.000000	0.115292  	1320.000000	0.115928  	1320.000000	0.114921  	1320.000000	0.115279  	1320.000000	1.33573e-05	
1340.000000	0.113066  	1340.000000	0.115092  	1340.000000	0.115719  	1340.000000	0.114714  	1340.000000	0.115079  	1340.000000	1.3172e-05	
1360.000000	0.112887  	1360.000000	0.114904  	1360.000000	0.11552   	1360.000000	0.114516  	1360.000000	0.114891  	1360.000000	1.29919e-05	
1380.000000	0.11272   	1380.000000	0.114726  	1380.000000	0.11533   	1380.000000	0.114328  	1380.000000	0.114714  	1380.000000	1.28168e-05	
1400.000000	0.112564  	1400.000000	0.11456   	1400.000000	0.11515   	1400.000000	0.114149  	1400.000000	0.114547  	1400.000000	1.26465e-05	
1420.000000	0.112421  	1420.000000	0.114403  	1420.000000	0.114978  	1420.000000	0.113979  	1420.000000	0.114391  	1420.000000	1.24809e-05	
1440.000000	0.112288  	1440.000000	0.114257  	1440.000000	0.114814  	1440.000000	0.113817  	1440.000000	0.114244  	1440.000000	1.23197e-05	
1460.000000	0.112166  	1460.000000	0.114119  	1460.000000	0.114659  	1460.000000	0.113663  	1460.000000	0.114107  	1460.000000	1.21627e-05	
1480.000000	0.112055  	1480.000000	0.113991  	1480.000000	0.11451   	1480.000000	0.113516  	1480.000000	0.113979  	1480.000000	1.20099e-05	
1500.000000	0.111953  	1500.000000	0.113871  	1500.000000	0.11437   	1500.000000	0.113376  	1500.000000	0.113859  	1500.000000	1.18609e-05	
1520.000000	0.111861  	1520.000000	0.11376   	1520.000000	0.114236  	1520.000000	0.113244  	1520.000000	0.113748  	1520.000000	1.17157e-05	
1540.000000	0.111778  	1540.000000	0.113656  	1540.000000	0.114108  	1540.000000	0.113118  	1540.000000	0.113645  	1540.000000	1.15742e-05	
1560.000000	0.111704  	1560.000000	0.113561  	1560.000000	0.113987  	1560.000000	0.112998  	1560.000000	0.113549  	1560.000000	1.14362e-05	
1580.000000	0.111638  	1580.000000	0.113472  	1580.000000	0.113872  	1580.000000	0.112884  	1580.000000	0.113461  	1580.000000	1.13015e-05	
1600.000000	0.111581  	1600.000000	0.113391  	1600.000000	0.113763  	1600.000000	0.112776  	1600.000000	0.11338   	1600.000000	1.117e-05 	
1620.000000	0.111532  	1620.000000	0.113317  	1620.000000	0.113659  	1620.000000	0.112673  	1620.000000	0.113306  	1620.000000	1.10417e-05	
1640.000000	0.11149   	1640.000000	0.113249  	1640.000000	0.113561  	1640.000000	0.112576  	1640.000000	0.113238  	1640.000000	1.09164e-05	
1660.000000	0.111456  	1660.000000	0.113188  	1660.000000	0.113468  	1660.000000	0.112484  	1660.000000	0.113177  	1660.000000	1.0794e-05	
1680.000000	0.111429  	1680.000000	0.113133  	1680.000000	0.113379  	1680.000000	0.112397  	1680.000000	0.113122  	1680.000000	1.06744e-05	
1700.000000	0.111409  	1700.000000	0.113083  	1700.000000	0.113296  	1700.000000	0.112314  	1700.000000	0.113073  	1700.000000	1.05575e-05	
1750.000000	0.111389  	1750.000000	0.112985  	1750.000000	0.113106  	1750.000000	0.112126  	1750.000000	0.112974  	1750.000000	1.02766e-05	
1800.000000	0.111407  	1800.000000	0.112919  	1800.000000	0.112941  	1800.000000	0.111964  	1800.000000	0.112909  	1800.000000	1.00107e-05	
1850.000000	0.111462  	1850.000000	0.112884  	1850.000000	0.1128    	1850.000000	0.111825  	1850.000000	0.112874  	1850.000000	9.75863e-06	
1900.000000	0.111551  	1900.000000	0.112876  	1900.000000	0.11268   	1900.000000	0.111706  	1900.000000	0.112867  	1900.000000	9.51937e-06	
1950.000000	0.111671  	1950.000000	0.112894  	1950.000000	0.112578  	1950.000000	0.111607  	1950.000000	0.112885  	1950.000000	9.29193e-06	
2000.000000	0.111821  	2000.000000	0.112936  	2000.000000	0.112494  	2000.000000	0.111524  	2000.000000	0.112927  	2000.000000	9.07545e-06	
2100.000000	0.1122    	2100.000000	0.113085  	2100.000000	0.112371  	2100.000000	0.111405  	2100.000000	0.113076  	2100.000000	8.67232e-06	
2200.000000	0.112676  	2200.000000	0.11331   	2200.000000	0.112301  	2200.000000	0.111338  	2200.000000	0.113302  	2200.000000	8.30455e-06	
2300.000000	0.113238  	2300.000000	0.113601  	2300.000000	0.112275  	2300.000000	0.111315  	2300.000000	0.113593  	2300.000000	7.96763e-06	
2400.000000	0.113875  	2400.000000	0.113951  	2400.000000	0.112287  	2400.000000	0.111328  	2400.000000	0.113943  	2400.000000	7.65781e-06	
2500.000000	0.114582  	2500.000000	0.114352  	2500.000000	0.112329  	2500.000000	0.111373  	2500.000000	0.114344  	2500.000000	7.3719e-06	
2600.000000	0.11535   	2600.000000	0.114798  	2600.000000	0.112398  	2600.000000	0.111444  	2600.000000	0.11479   	2600.000000	7.10722e-06	
2700.000000	0.116175  	2700.000000	0.115284  	2700.000000	0.112489  	2700.000000	0.111537  	2700.000000	0.115277  	2700.000000	6.86146e-06	
2800.000000	0.11705   	2800.000000	0.115805  	2800.000000	0.112599  	2800.000000	0.111649  	2800.000000	0.115799  	2800.000000	6.63264e-06	
2900.000000	0.117973  	2900.000000	0.116359  	2900.000000	0.112726  	2900.000000	0.111777  	2900.000000	0.116353  	2900.000000	6.41905e-06	
3000.000000	0.118939  	3000.000000	0.116942  	3000.000000	0.112866  	3000.000000	0.111918  	3000.000000	0.116936  	3000.000000	6.2192e-06	
3200.000000	0.120987  	3200.000000	0.118182  	3200.000000	0.11318   	3200.000000	0.112234  	3200.000000	0.118176  	3200.000000	5.85571e-06	
3400.000000	0.123174  	3400.000000	0.119508  	3400.000000	0.113527  	3400.000000	0.112584  	3400.000000	0.119502  	3400.000000	5.53354e-06	
3600.000000	0.125482  	3600.000000	0.120904  	3600.000000	0.113898  	3600.000000	0.112957  	3600.000000	0.120898  	3600.000000	5.24596e-06	
3800.000000	0.127898  	3800.000000	0.122358  	3800.000000	0.114286  	3800.000000	0.113346  	3800.000000	0.122354  	3800.000000	4.98764e-06	
4000.000000	0.13041   	4000.000000	0.123863  	4000.000000	0.114685  	4000.000000	0.113746  	4000.000000	0.123858  	4000.000000	4.75428e-06	
4200.000000	0.13301   	4200.000000	0.12541   	4200.000000	0.11509   	4200.000000	0.114153  	4200.000000	0.125405  	4200.000000	4.5424e-06	
4400.000000	0.135691  	4400.000000	0.126993  	4400.000000	0.1155    	4400.000000	0.114564  	4400.000000	0.126989  	4400.000000	4.34914e-06	
4600.000000	0.138446  	4600.000000	0.128607  	4600.000000	0.11591   	4600.000000	0.114976  	4600.000000	0.128603  	4600.000000	4.17213e-06	
4800.000000	0.14127   	4800.000000	0.130248  	4800.000000	0.11632   	4800.000000	0.115387  	4800.000000	0.130244  	4800.000000	4.00937e-06	
5000.000000	0.144159  	5000.000000	0.131912  	5000.000000	0.116728  	5000.000000	0.115796  	5000.000000	0.131908  	5000.000000	3.8592e-06	
5250.000000	0.147855  	5250.000000	0.134021  	5250.000000	0.117233  	5250.000000	0.116302  	5250.000000	0.134017  	5250.000000	3.68704e-06	
5500.000000	0.151641  	5500.000000	0.136156  	5500.000000	0.117732  	5500.000000	0.116802  	5500.000000	0.136153  	5500.000000	3.53002e-06	
6000.000000	0.159461  	6000.000000	0.140493  	6000.000000	0.118706  	6000.000000	0.117779  	6000.000000	0.14049   	6000.000000	3.25397e-06	
6500.000000	0.167587  	6500.000000	0.144898  	6500.000000	0.119646  	6500.000000	0.118721  	6500.000000	0.144895  	6500.000000	3.01906e-06	
7000.000000	0.175997  	7000.000000	0.149353  	7000.000000	0.12055   	7000.000000	0.119627  	7000.000000	0.149351  	7000.000000	2.81664e-06	
7500.000000	0.184674  	7500.000000	0.153847  	7500.000000	0.121417  	7500.000000	0.120496  	7500.000000	0.153845  	7500.000000	2.64036e-06	
8000.000000	0.193606  	8000.000000	0.15837   	8000.000000	0.122249  	8000.000000	0.121329  	8000.000000	0.158367  	8000.000000	2.48542e-06	
8500.000000	0.202782  	8500.000000	0.162915  	8500.000000	0.123046  	8500.000000	0.122127  	8500.000000	0.162912  	8500.000000	2.34813e-06	
9000.000000	0.212195  	9000.000000	0.167476  	9000.000000	0.123808  	9000.000000	0.122894  	9000.000000	0.167474  	9000.000000	2.22562e-06	
9500.000000	0.22184   	9500.000000	0.17205   	9500.000000	0.12454   	9500.000000	0.12363   	9500.000000	0.172048  	9500.000000	2.11559e-06	
10000.000000	0.231711  	10000.000000	0.176633  	10000.000000	0.125245  	10000.000000	0.124337  	10000.000000	0.176631  	10000.000000	2.01622e-06	
11000.000000	0.252121  	11000.000000	0.185818  	11000.000000	0.126577  	11000.000000	0.125671  	11000.000000	0.185816  	11000.000000	1.84376e-06	
12000.000000	0.273401  	12000.000000	0.195015  	12000.000000	0.127814  	12000.000000	0.12691   	12000.000000	0.195014  	12000.000000	1.69917e-06	
13000.000000	0.295539  	13000.000000	0.204216  	13000.000000	0.128963  	13000.000000	0.128065  	13000.000000	0.204215  	13000.000000	1.57616e-06	
14000.000000	0.318525  	14000.000000	0.213414  	14000.000000	0.130035  	14000.000000	0.129145  	14000.000000	0.213412  	14000.000000	1.47019e-06	
15000.000000	0.342354  	15000.000000	0.222604  	15000.000000	0.131039  	15000.000000	0.130159  	15000.000000	0.222603  	15000.000000	1.37793e-06	
16000.000000	0.367024  	16000.000000	0.231784  	16000.000000	0.131985  	16000.000000	0.131114  	16000.000000	0.231783  	16000.000000	1.29685e-06	
17000.000000	0.392532  	17000.000000	0.240952  	17000.000000	0.132881  	17000.000000	0.132017  	17000.000000	0.240951  	17000.000000	1.22502e-06	
18000.000000	0.41888   	18000.000000	0.250107  	18000.000000	0.133732  	18000.000000	0.132871  	18000.000000	0.250105  	18000.000000	1.16093e-06	
19000.000000	0.446068  	19000.000000	0.259247  	19000.000000	0.134541  	19000.000000	0.133683  	19000.000000	0.259246  	19000.000000	1.10339e-06	
20000.000000	0.474097  	20000.000000	0.268373  	20000.000000	0.135313  	20000.000000	0.134455  	20000.000000	0.268372  	20000.000000	1.05142e-06	
21000.000000	0.502972  	21000.000000	0.277484  	21000.000000	0.136047  	21000.000000	0.135191  	21000.000000	0.277483  	21000.000000	1.00426e-06	
22000.000000	0.532694  	22000.000000	0.28658   	22000.000000	0.136741  	22000.000000	0.135895  	22000.000000	0.286579  	22000.000000	9.61252e-07	
23000.000000	0.563268  	23000.000000	0.295661  	23000.000000	0.137408  	23000.000000	0.136569  	23000.000000	0.29566   	23000.000000	9.21874e-07	
24000.000000	0.594696  	24000.000000	0.304727  	24000.000000	0.138048  	24000.000000	0.137215  	24000.000000	0.304726  	24000.000000	8.85678e-07	
25000.000000	0.626984  	25000.000000	0.313778  	25000.000000	0.138659  	25000.000000	0.137836  	25000.000000	0.313777  	25000.000000	8.52292e-07	
26000.000000	0.660135  	26000.000000	0.322815  	26000.000000	0.139246  	26000.000000	0.138433  	26000.000000	0.322814  	26000.000000	8.21397e-07	
27000.000000	0.694153  	27000.000000	0.331838  	27000.000000	0.139811  	27000.000000	0.139008  	27000.000000	0.331837  	27000.000000	7.92721e-07	
28000.000000	0.729044  	28000.000000	0.340847  	28000.000000	0.140356  	28000.000000	0.139563  	28000.000000	0.340846  	28000.000000	7.66033e-07	
29000.000000	0.764813  	29000.000000	0.349842  	29000.000000	0.140882  	29000.000000	0.140099  	29000.000000	0.349841  	29000.000000	7.4113e-07	
30000.000000	0.801464  	30000.000000	0.358823  	30000.000000	0.141391  	30000.000000	0.140616  	30000.000000	0.358823  	30000.000000	7.17838e-07	
32000.000000	0.877432  	32000.000000	0.376748  	32000.000000	0.142359  	32000.000000	0.141603  	32000.000000	0.376747  	32000.000000	6.75494e-07	
34000.000000	0.956992  	34000.000000	0.394622  	34000.000000	0.143269  	34000.000000	0.14253   	34000.000000	0.394621  	34000.000000	6.37987e-07	
36000.000000	1.04019   	36000.000000	0.412448  	36000.000000	0.144124  	36000.000000	0.143405  	36000.000000	0.412448  	36000.000000	6.04528e-07	
38000.000000	1.12706   	38000.000000	0.430229  	38000.000000	0.144929  	38000.000000	0.144233  	38000.000000	0.430228  	38000.000000	5.74488e-07	
40000.000000	1.21765   	40000.000000	0.447965  	40000.000000	0.145689  	40000.000000	0.145018  	40000.000000	0.447964  	40000.000000	5.47367e-07	
42000.000000	1.31202   	42000.000000	0.465659  	42000.000000	0.14641   	42000.000000	0.145765  	42000.000000	0.465659  	42000.000000	5.22753e-07	
44000.000000	1.41019   	44000.000000	0.483313  	44000.000000	0.147096  	44000.000000	0.146478  	44000.000000	0.483313  	44000.000000	5.00313e-07	
46000.000000	1.51223   	46000.000000	0.500929  	46000.000000	0.14775   	46000.000000	0.147158  	46000.000000	0.500928  	46000.000000	4.79768e-07	
48000.000000	1.61819   	48000.000000	0.518507  	48000.000000	0.148375  	48000.000000	0.14781   	48000.000000	0.518507  	48000.000000	4.60886e-07	
50000.000000	1.72809   	50000.000000	0.53605   	50000.000000	0.148972  	50000.000000	0.148435  	50000.000000	0.536049  	50000.000000	4.4347e-07	
