Energy (MeV/u)1	0 - [He-base] F.Hubert et al, AD&ND Tables 46(1990)1	Energy (MeV/u)2	1 - [H -base] J.F.Ziegler et al, Pergamon Press, NY (low energy)	Energy (MeV/u)3	2 - ATIMA 1.2  LS-theory (recommended for high energy)	Energy (MeV/u)4	3 - ATIMA 1.2  without LS-correction	Energy (MeV/u)5	4 - electrical component of [1] - J.F.Ziegler et al	Energy (MeV/u)6	5 - nuclear component of [1] - J.F.Ziegler et al	
0.001000	2.59054   	0.001000	1.61596   	0.001000	1.76823   	0.001000	1.76823   	0.001000	0.502767  	0.001000	1.11319   	
0.002000	2.64346   	0.002000	1.60269   	0.002000	1.80422   	0.002000	1.80422   	0.002000	0.672045  	0.002000	0.93065   	
0.005000	2.89916   	0.005000	1.62599   	0.005000	1.92148   	0.005000	1.92148   	0.005000	0.98792   	0.005000	0.638067  	
0.008000	3.16581   	0.008000	1.70288   	0.008000	2.06444   	0.008000	2.06444   	0.008000	1.20467   	0.008000	0.498212  	
0.010000	3.3317    	0.010000	1.76212   	0.010000	2.16055   	0.010000	2.16055   	0.010000	1.32386   	0.010000	0.438253  	
0.015000	3.92774   	0.015000	1.94429   	0.015000	2.41653   	0.015000	2.41653   	0.015000	1.60245   	0.015000	0.341838  	
0.020000	4.50398   	0.020000	2.33772   	0.020000	2.83872   	0.020000	2.83872   	0.020000	2.05419   	0.020000	0.283534  	
0.025000	5.16267   	0.025000	2.759     	0.025000	3.28138   	0.025000	3.28138   	0.025000	2.51507   	0.025000	0.243928  	
0.030000	5.76665   	0.030000	3.18874   	0.030000	3.64501   	0.030000	3.64501   	0.030000	2.97485   	0.030000	0.213897  	
0.035000	6.30341   	0.035000	3.61949   	0.035000	4.00237   	0.035000	4.00237   	0.035000	3.42759   	0.035000	0.191899  	
0.040000	6.76474   	0.040000	4.04294   	0.040000	4.34945   	0.040000	4.34945   	0.040000	3.86853   	0.040000	0.174416  	
0.045000	7.14208   	0.045000	4.45346   	0.045000	4.68387   	0.045000	4.68387   	0.045000	4.29397   	0.045000	0.15949   	
0.050000	7.37527   	0.050000	4.82427   	0.050000	5.00587   	0.050000	5.00587   	0.050000	4.67662   	0.050000	0.147656  	
0.055000	7.77022   	0.055000	5.15335   	0.055000	5.31407   	0.055000	5.31407   	0.055000	5.01573   	0.055000	0.137616  	
0.060000	8.11969   	0.060000	5.46387   	0.060000	5.60813   	0.060000	5.60813   	0.060000	5.33489   	0.060000	0.12898   	
0.070000	8.69028   	0.070000	6.02968   	0.070000	6.15379   	0.070000	6.15379   	0.070000	5.91482   	0.070000	0.114854  	
0.080000	9.29455   	0.080000	6.52582   	0.080000	6.64439   	0.080000	6.64439   	0.080000	6.42206   	0.080000	0.103757  	
0.090000	9.79063   	0.090000	6.95941   	0.090000	7.08337   	0.090000	7.08337   	0.090000	6.86463   	0.090000	0.0947836 	
0.100000	10.1774   	0.100000	7.33566   	0.100000	7.47507   	0.100000	7.47507   	0.100000	7.2483    	0.100000	0.0873625 	
0.120000	10.4396   	0.120000	7.85118   	0.120000	8.13511   	0.120000	8.13511   	0.120000	7.77541   	0.120000	0.0757689 	
0.140000	10.6163   	0.140000	8.25646   	0.140000	8.6595    	0.140000	8.6595    	0.140000	8.18937   	0.140000	0.0670948 	
0.160000	10.7757   	0.160000	8.58275   	0.160000	9.07754   	0.160000	9.07754   	0.160000	8.52241   	0.160000	0.0603376 	
0.180000	10.9459   	0.180000	8.85056   	0.180000	9.41208   	0.180000	9.41208   	0.180000	8.79565   	0.180000	0.0549111 	
0.200000	11.2146   	0.200000	9.13192   	0.200000	9.68059   	0.200000	9.68059   	0.200000	9.08147   	0.200000	0.0504487 	
0.250000	11.5145   	0.250000	9.66699   	0.250000	10.1431   	0.250000	10.1431   	0.250000	9.62489   	0.250000	0.0421018 	
0.300000	11.7815   	0.300000	10.0086   	0.300000	10.4073   	0.300000	10.4073   	0.300000	9.97233   	0.300000	0.0362715 	
0.350000	12.0699   	0.350000	10.2863   	0.350000	10.551    	0.350000	10.551    	0.350000	10.2543   	0.350000	0.0319499 	
0.400000	12.3127   	0.400000	10.4968   	0.400000	10.69     	0.400000	10.69     	0.400000	10.4682   	0.400000	0.028608  	
0.450000	12.4815   	0.450000	10.6316   	0.450000	10.849    	0.450000	10.849    	0.450000	10.6057   	0.450000	0.0259404 	
0.500000	12.5892   	0.500000	10.7122   	0.500000	10.9429   	0.500000	10.9429   	0.500000	10.6884   	0.500000	0.0237579 	
0.600000	12.2943   	0.600000	10.8077   	0.600000	11.0057   	0.600000	11.0057   	0.600000	10.7873   	0.600000	0.0203916 	
0.700000	11.8798   	0.700000	10.8239   	0.700000	10.9681   	0.700000	10.9681   	0.700000	10.806    	0.700000	0.0179085 	
0.800000	11.8312   	0.800000	10.7653   	0.800000	10.8145   	0.800000	10.8145   	0.800000	10.7493   	0.800000	0.0159959 	
0.900000	11.7185   	0.900000	10.6591   	0.900000	10.6393   	0.900000	10.6393   	0.900000	10.6446   	0.900000	0.0144741 	
1.000000	11.5845   	1.000000	10.5404   	1.000000	10.457    	1.000000	10.457    	1.000000	10.5272   	1.000000	0.0132324 	
1.250000	11.1231   	1.250000	10.1745   	1.250000	9.99115   	1.250000	9.99115   	1.250000	10.1636   	1.250000	0.0109345 	
1.500000	10.5396   	1.500000	9.7015    	1.500000	9.47273   	1.500000	9.47273   	1.500000	9.69215   	1.500000	0.00934943	
1.750000	9.97284   	1.750000	9.24247   	1.750000	9.01753   	1.750000	9.01753   	1.750000	9.23428   	1.750000	0.0081858 	
2.000000	9.43386   	2.000000	8.80347   	2.000000	8.60919   	2.000000	8.60919   	2.000000	8.79618   	2.000000	0.00729294	
2.250000	8.95704   	2.250000	8.4026    	2.250000	8.23858   	2.250000	8.23858   	2.250000	8.39601   	2.250000	0.00658483	
2.500000	8.86159   	2.500000	8.02933   	2.500000	7.8998    	2.500000	7.8998    	2.500000	8.02333   	2.500000	0.00600864	
3.000000	8.03384   	3.000000	7.3711    	3.000000	7.30154   	3.000000	7.30154   	3.000000	7.36598   	3.000000	0.00512587	
3.500000	7.3506    	3.500000	6.82285   	3.500000	6.78954   	3.500000	6.78954   	3.500000	6.81837   	3.500000	0.00447961	
4.000000	6.77846   	4.000000	6.35122   	4.000000	6.34647   	4.000000	6.34647   	4.000000	6.34723   	4.000000	0.00398484	
4.500000	6.29282   	4.500000	5.94727   	4.500000	5.9594    	4.500000	5.9594    	4.500000	5.94368   	4.500000	0.00359319	
5.000000	5.87556   	5.000000	5.59699   	5.000000	5.61842   	5.000000	5.61842   	5.000000	5.59372   	5.000000	0.00327502	
5.500000	5.51317   	5.500000	5.28948   	5.500000	5.31577   	5.500000	5.31577   	5.500000	5.28647   	5.500000	0.00301113	
6.000000	5.19544   	6.000000	5.01685   	6.000000	5.04534   	6.000000	5.04534   	6.000000	5.01406   	6.000000	0.00278852	
6.500000	4.91455   	6.500000	4.77299   	6.500000	4.80222   	6.500000	4.80222   	6.500000	4.7704    	6.500000	0.00259806	
7.000000	4.66439   	7.000000	4.55345   	7.000000	4.58246   	7.000000	4.58246   	7.000000	4.55102   	7.000000	0.00243316	
7.500000	4.44011   	7.500000	4.35476   	7.500000	4.38283   	7.500000	4.38283   	7.500000	4.35247   	7.500000	0.00228891	
8.000000	4.23786   	8.000000	4.17396   	8.000000	4.20066   	8.000000	4.20066   	8.000000	4.1718    	8.000000	0.00216161	
8.500000	4.0545    	8.500000	4.00865   	8.500000	4.03373   	8.500000	4.03373   	8.500000	4.0066    	8.500000	0.00204838	
9.000000	3.88747   	9.000000	3.85686   	9.000000	3.8802    	9.000000	3.8802    	9.000000	3.85491   	9.000000	0.00194698	
9.500000	3.73466   	9.500000	3.71694   	9.500000	3.73849   	9.500000	3.73849   	9.500000	3.71509   	9.500000	0.00185562	
10.000000	3.59429   	10.000000	3.61265   	10.000000	3.60729   	10.000000	3.60729   	10.000000	3.61088   	10.000000	0.00177286	
11.000000	3.34522   	11.000000	3.37946   	11.000000	3.36722   	11.000000	3.37385   	11.000000	3.37783   	11.000000	0.00162861	
12.000000	3.13086   	12.000000	3.17541   	12.000000	3.1582    	12.000000	3.16943   	12.000000	3.17391   	12.000000	0.00150705	
13.000000	2.94436   	13.000000	2.99548   	13.000000	2.97463   	13.000000	2.989     	13.000000	2.99408   	13.000000	0.00140314	
14.000000	2.78054   	14.000000	2.83569   	14.000000	2.81208   	14.000000	2.82861   	14.000000	2.83438   	14.000000	0.00131326	
15.000000	2.63544   	15.000000	2.69287   	15.000000	2.66711   	15.000000	2.68512   	15.000000	2.69164   	15.000000	0.00123469	
16.000000	2.506     	16.000000	2.56449   	16.000000	2.53711   	16.000000	2.55603   	16.000000	2.56333   	16.000000	0.00116539	
17.000000	2.38976   	17.000000	2.44848   	17.000000	2.41993   	17.000000	2.4393    	17.000000	2.44738   	17.000000	0.00110381	
18.000000	2.28479   	18.000000	2.34314   	18.000000	2.31368   	18.000000	2.33326   	18.000000	2.3421    	18.000000	0.00104868	
19.000000	2.18949   	19.000000	2.24708   	19.000000	2.2169    	19.000000	2.23653   	19.000000	2.24608   	19.000000	0.000999046	
20.000000	2.10257   	20.000000	2.15912   	20.000000	2.12841   	20.000000	2.14795   	20.000000	2.15817   	20.000000	0.000954102	
21.000000	2.02296   	21.000000	2.07829   	21.000000	2.04724   	21.000000	2.06655   	21.000000	2.07737   	21.000000	0.000913205	
22.000000	1.94975   	22.000000	2.00375   	22.000000	1.97254   	22.000000	1.99152   	22.000000	2.00287   	22.000000	0.000875825	
23.000000	1.88219   	23.000000	1.93479   	23.000000	1.9036    	23.000000	1.92216   	23.000000	1.93395   	23.000000	0.000841519	
24.000000	1.81964   	24.000000	1.87082   	24.000000	1.83978   	24.000000	1.85786   	24.000000	1.87001   	24.000000	0.000809919	
25.000000	1.76156   	25.000000	1.81131   	25.000000	1.78055   	25.000000	1.79811   	25.000000	1.81053   	25.000000	0.000780711	
27.000000	1.65699   	27.000000	1.70392   	27.000000	1.67409   	27.000000	1.69051   	27.000000	1.70319   	27.000000	0.000728446	
29.000000	1.56541   	29.000000	1.60967   	29.000000	1.58116   	29.000000	1.59641   	29.000000	1.60898   	29.000000	0.00068302	
31.000000	1.48452   	31.000000	1.52627   	31.000000	1.50019   	31.000000	1.51359   	31.000000	1.52563   	31.000000	0.000643155	
33.000000	1.41253   	33.000000	1.45195   	33.000000	1.42875   	33.000000	1.44002   	33.000000	1.45135   	33.000000	0.000607875	
35.000000	1.34801   	35.000000	1.3853    	35.000000	1.36455   	35.000000	1.37409   	35.000000	1.38473   	35.000000	0.000576422	
38.000000	1.26285   	38.000000	1.29728   	38.000000	1.27973   	38.000000	1.28708   	38.000000	1.29675   	38.000000	0.000535141	
41.000000	1.18909   	41.000000	1.22103   	41.000000	1.20607   	41.000000	1.21175   	41.000000	1.22053   	41.000000	0.000499603	
44.000000	1.12456   	44.000000	1.15432   	44.000000	1.14155   	44.000000	1.14585   	44.000000	1.15385   	44.000000	0.000468673	
47.000000	1.0676    	47.000000	1.09545   	47.000000	1.08445   	47.000000	1.0877    	47.000000	1.09501   	47.000000	0.000441498	
50.000000	1.01693   	50.000000	1.04311   	50.000000	1.03362   	50.000000	1.03599   	50.000000	1.0427    	50.000000	0.000417425	
55.000000	0.943812  	55.000000	0.96767   	55.000000	0.960091  	55.000000	0.961411  	55.000000	0.967287  	55.000000	0.000382861	
60.000000	0.881971  	60.000000	0.903953  	60.000000	0.898002  	60.000000	0.898378  	60.000000	0.903599  	60.000000	0.000353788	
65.000000	0.828939  	65.000000	0.849403  	65.000000	0.844633  	65.000000	0.844368  	65.000000	0.849074  	65.000000	0.000328978	
70.000000	0.782928  	70.000000	0.80216   	70.000000	0.798247  	70.000000	0.797549  	70.000000	0.801853  	70.000000	0.000307547	
75.000000	0.742605  	75.000000	0.760835  	75.000000	0.757684  	75.000000	0.756558  	75.000000	0.760546  	75.000000	0.00028884	
80.000000	0.706957  	80.000000	0.724372  	80.000000	0.721764  	80.000000	0.720357  	80.000000	0.724099  	80.000000	0.000272362	
85.000000	0.6752    	85.000000	0.691952  	85.000000	0.68978   	85.000000	0.688144  	85.000000	0.691695  	85.000000	0.000257734	
90.000000	0.646717  	90.000000	0.662934  	90.000000	0.661119  	90.000000	0.659287  	90.000000	0.662689  	90.000000	0.000244655	
95.000000	0.621016  	95.000000	0.636802  	95.000000	0.635283  	95.000000	0.633282  	95.000000	0.636569  	95.000000	0.00023289	
100.000000	0.5977    	100.000000	0.613144  	100.000000	0.61187   	100.000000	0.609721  	100.000000	0.612922  	100.000000	0.000222247	
105.000000	0.576445  	105.000000	0.591621  	105.000000	0.590557  	105.000000	0.588274  	105.000000	0.591409  	105.000000	0.000212571	
110.000000	0.556983  	110.000000	0.571954  	110.000000	0.570994  	110.000000	0.568664  	110.000000	0.571751  	110.000000	0.000203735	
115.000000	0.53909   	115.000000	0.553911  	115.000000	0.553079  	115.000000	0.550664  	115.000000	0.553716  	115.000000	0.000195632	
120.000000	0.522581  	120.000000	0.537297  	120.000000	0.53657   	120.000000	0.534082  	120.000000	0.537109  	120.000000	0.000188173	
125.000000	0.507296  	125.000000	0.521948  	125.000000	0.521256  	125.000000	0.518755  	125.000000	0.521767  	125.000000	0.000181284	
130.000000	0.493102  	130.000000	0.507723  	130.000000	0.507071  	130.000000	0.504546  	130.000000	0.507548  	130.000000	0.0001749 	
135.000000	0.479882  	135.000000	0.494502  	135.000000	0.49393   	135.000000	0.491335  	135.000000	0.494333  	135.000000	0.000168968	
140.000000	0.467538  	140.000000	0.482183  	140.000000	0.481654  	140.000000	0.479021  	140.000000	0.482019  	140.000000	0.000163441	
145.000000	0.455982  	145.000000	0.470675  	145.000000	0.470153  	145.000000	0.467515  	145.000000	0.470516  	145.000000	0.000158278	
150.000000	0.44514   	150.000000	0.4599    	150.000000	0.459389  	150.000000	0.45674   	150.000000	0.459746  	150.000000	0.000153443	
155.000000	0.429868  	155.000000	0.44979   	155.000000	0.449287  	155.000000	0.446628  	155.000000	0.449641  	155.000000	0.000148906	
160.000000	0.420919  	160.000000	0.440285  	160.000000	0.439786  	160.000000	0.43712   	160.000000	0.44014   	160.000000	0.00014464	
165.000000	0.412479  	165.000000	0.431332  	165.000000	0.430835  	165.000000	0.428163  	165.000000	0.431191  	165.000000	0.000140622	
170.000000	0.404506  	170.000000	0.422884  	170.000000	0.422388  	170.000000	0.41971   	170.000000	0.422747  	170.000000	0.000136829	
175.000000	0.396961  	175.000000	0.414899  	175.000000	0.414402  	175.000000	0.411721  	175.000000	0.414766  	175.000000	0.000133243	
180.000000	0.38981   	180.000000	0.407341  	180.000000	0.406843  	180.000000	0.404158  	180.000000	0.407211  	180.000000	0.000129847	
185.000000	0.383024  	185.000000	0.400176  	185.000000	0.399675  	185.000000	0.396988  	185.000000	0.400049  	185.000000	0.000126627	
190.000000	0.376573  	190.000000	0.393374  	190.000000	0.392869  	190.000000	0.390182  	190.000000	0.39325   	190.000000	0.000123569	
195.000000	0.370434  	195.000000	0.386907  	195.000000	0.386404  	195.000000	0.383712  	195.000000	0.386787  	195.000000	0.00012066	
200.000000	0.364585  	200.000000	0.380753  	200.000000	0.380249  	200.000000	0.377554  	200.000000	0.380635  	200.000000	0.000117891	
210.000000	0.353675  	210.000000	0.369293  	210.000000	0.368742  	210.000000	0.366091  	210.000000	0.369181  	210.000000	0.000112731	
220.000000	0.343703  	220.000000	0.358842  	220.000000	0.35828   	220.000000	0.355638  	220.000000	0.358734  	220.000000	0.00010802	
230.000000	0.334552  	230.000000	0.349271  	230.000000	0.348711  	230.000000	0.34607   	230.000000	0.349168  	230.000000	0.0001037 	
240.000000	0.326125  	240.000000	0.340475  	240.000000	0.339923  	240.000000	0.33728   	240.000000	0.340376  	240.000000	9.97259e-05	
250.000000	0.318337  	250.000000	0.332364  	250.000000	0.331792  	250.000000	0.329178  	250.000000	0.332268  	250.000000	9.60557e-05	
260.000000	0.31112   	260.000000	0.324861  	260.000000	0.324274  	260.000000	0.321688  	260.000000	0.324768  	260.000000	9.26558e-05	
270.000000	0.304411  	270.000000	0.317901  	270.000000	0.317332  	270.000000	0.314743  	270.000000	0.317812  	270.000000	8.9497e-05	
280.000000	0.29816   	280.000000	0.311428  	280.000000	0.310872  	280.000000	0.308288  	280.000000	0.311341  	280.000000	8.65543e-05	
290.000000	0.292321  	290.000000	0.305392  	290.000000	0.304824  	290.000000	0.302273  	290.000000	0.305308  	290.000000	8.3806e-05	
300.000000	0.286855  	300.000000	0.299752  	300.000000	0.299193  	300.000000	0.296656  	300.000000	0.299671  	300.000000	8.12331e-05	
310.000000	0.281727  	310.000000	0.29447   	310.000000	0.293931  	310.000000	0.2914    	310.000000	0.294391  	310.000000	7.88192e-05	
320.000000	0.276908  	320.000000	0.289515  	320.000000	0.288974  	320.000000	0.286472  	320.000000	0.289438  	320.000000	7.65498e-05	
330.000000	0.272369  	330.000000	0.284856  	330.000000	0.284329  	330.000000	0.281843  	330.000000	0.284782  	330.000000	7.44122e-05	
340.000000	0.268089  	340.000000	0.280469  	340.000000	0.279975  	340.000000	0.277488  	340.000000	0.280397  	340.000000	7.23951e-05	
350.000000	0.264045  	350.000000	0.276332  	350.000000	0.27587   	350.000000	0.273384  	350.000000	0.276261  	350.000000	7.04884e-05	
360.000000	0.26022   	360.000000	0.272423  	360.000000	0.271979  	360.000000	0.269509  	360.000000	0.272355  	360.000000	6.86832e-05	
370.000000	0.256595  	370.000000	0.268726  	370.000000	0.268293  	370.000000	0.265848  	370.000000	0.268659  	370.000000	6.69715e-05	
380.000000	0.253157  	380.000000	0.265224  	380.000000	0.264819  	380.000000	0.262382  	380.000000	0.265158  	380.000000	6.53461e-05	
390.000000	0.249891  	390.000000	0.261901  	390.000000	0.261532  	390.000000	0.259098  	390.000000	0.261838  	390.000000	6.38006e-05	
400.000000	0.246785  	400.000000	0.258747  	400.000000	0.258399  	400.000000	0.255982  	400.000000	0.258684  	400.000000	6.23292e-05	
410.000000	0.243828  	410.000000	0.255747  	410.000000	0.255419  	410.000000	0.253022  	410.000000	0.255686  	410.000000	6.09266e-05	
420.000000	0.241009  	420.000000	0.252893  	420.000000	0.252595  	420.000000	0.250207  	420.000000	0.252833  	420.000000	5.9588e-05	
430.000000	0.238321  	430.000000	0.250173  	430.000000	0.24991   	430.000000	0.247528  	430.000000	0.250114  	430.000000	5.83091e-05	
440.000000	0.235753  	440.000000	0.247579  	440.000000	0.247348  	440.000000	0.244975  	440.000000	0.247522  	440.000000	5.70859e-05	
450.000000	0.233299  	450.000000	0.245102  	450.000000	0.244898  	450.000000	0.24254   	450.000000	0.245047  	450.000000	5.59148e-05	
460.000000	0.230952  	460.000000	0.242737  	460.000000	0.242556  	460.000000	0.240216  	460.000000	0.242682  	460.000000	5.47926e-05	
470.000000	0.228705  	470.000000	0.240474  	470.000000	0.240319  	470.000000	0.237995  	470.000000	0.24042   	470.000000	5.37161e-05	
480.000000	0.226552  	480.000000	0.238309  	480.000000	0.238187  	480.000000	0.235872  	480.000000	0.238256  	480.000000	5.26827e-05	
490.000000	0.224487  	490.000000	0.236235  	490.000000	0.236154  	490.000000	0.23384   	490.000000	0.236183  	490.000000	5.16897e-05	
500.000000	0.222506  	500.000000	0.234247  	500.000000	0.234205  	500.000000	0.231895  	500.000000	0.234197  	500.000000	5.07348e-05	
520.000000	0.218776  	520.000000	0.230511  	520.000000	0.230527  	520.000000	0.228242  	520.000000	0.230462  	520.000000	4.89307e-05	
540.000000	0.215329  	540.000000	0.227064  	540.000000	0.22715   	540.000000	0.224878  	540.000000	0.227017  	540.000000	4.7255e-05	
560.000000	0.212136  	560.000000	0.223877  	560.000000	0.22404   	560.000000	0.221774  	560.000000	0.223831  	560.000000	4.56941e-05	
580.000000	0.209172  	580.000000	0.220924  	580.000000	0.221147  	580.000000	0.218901  	580.000000	0.22088   	580.000000	4.42366e-05	
600.000000	0.206415  	600.000000	0.218181  	600.000000	0.218458  	600.000000	0.216238  	600.000000	0.218138  	600.000000	4.28723e-05	
620.000000	0.203846  	620.000000	0.21563   	620.000000	0.215968  	620.000000	0.213763  	620.000000	0.215588  	620.000000	4.15926e-05	
640.000000	0.201449  	640.000000	0.213252  	640.000000	0.213662  	640.000000	0.211461  	640.000000	0.213211  	640.000000	4.03897e-05	
660.000000	0.199208  	660.000000	0.211032  	660.000000	0.211509  	660.000000	0.209314  	660.000000	0.210993  	660.000000	3.92568e-05	
680.000000	0.197111  	680.000000	0.208957  	680.000000	0.209487  	680.000000	0.207309  	680.000000	0.208919  	680.000000	3.8188e-05	
700.000000	0.195145  	700.000000	0.207014  	700.000000	0.2076    	700.000000	0.205435  	700.000000	0.206977  	700.000000	3.71777e-05	
720.000000	0.193301  	720.000000	0.205193  	720.000000	0.205841  	720.000000	0.20368   	720.000000	0.205157  	720.000000	3.62214e-05	
740.000000	0.19157   	740.000000	0.203484  	740.000000	0.204192  	740.000000	0.202034  	740.000000	0.203449  	740.000000	3.53148e-05	
760.000000	0.189942  	760.000000	0.201879  	760.000000	0.202637  	760.000000	0.200489  	760.000000	0.201844  	760.000000	3.44539e-05	
780.000000	0.18841   	780.000000	0.200369  	780.000000	0.20117   	780.000000	0.199037  	780.000000	0.200336  	780.000000	3.36355e-05	
800.000000	0.186968  	800.000000	0.198948  	800.000000	0.199789  	800.000000	0.19767   	800.000000	0.198916  	800.000000	3.28564e-05	
820.000000	0.185609  	820.000000	0.19761   	820.000000	0.198494  	820.000000	0.196387  	820.000000	0.197578  	820.000000	3.21139e-05	
840.000000	0.184327  	840.000000	0.196348  	840.000000	0.19729   	840.000000	0.19519   	840.000000	0.196317  	840.000000	3.14053e-05	
860.000000	0.183118  	860.000000	0.195158  	860.000000	0.196159  	860.000000	0.194061  	860.000000	0.195127  	860.000000	3.07283e-05	
880.000000	0.181977  	880.000000	0.194034  	880.000000	0.195091  	880.000000	0.192995  	880.000000	0.194004  	880.000000	3.0081e-05	
900.000000	0.1809    	900.000000	0.192972  	900.000000	0.19408   	900.000000	0.191988  	900.000000	0.192943  	900.000000	2.94613e-05	
920.000000	0.179882  	920.000000	0.191969  	920.000000	0.19312   	920.000000	0.191035  	920.000000	0.19194   	920.000000	2.88675e-05	
940.000000	0.17892   	940.000000	0.191021  	940.000000	0.19221   	940.000000	0.190134  	940.000000	0.190992  	940.000000	2.82979e-05	
960.000000	0.178011  	960.000000	0.190124  	960.000000	0.191346  	960.000000	0.189281  	960.000000	0.190096  	960.000000	2.77512e-05	
980.000000	0.177152  	980.000000	0.189275  	980.000000	0.190529  	980.000000	0.188473  	980.000000	0.189248  	980.000000	2.72259e-05	
1000.000000	0.176339  	1000.000000	0.188472  	1000.000000	0.189754  	1000.000000	0.187707  	1000.000000	0.188445  	1000.000000	2.67209e-05	
1020.000000	0.175571  	1020.000000	0.187711  	1020.000000	0.189022  	1020.000000	0.186981  	1020.000000	0.187685  	1020.000000	2.62348e-05	
1040.000000	0.174845  	1040.000000	0.186991  	1040.000000	0.188329  	1040.000000	0.186292  	1040.000000	0.186965  	1040.000000	2.57668e-05	
1060.000000	0.174159  	1060.000000	0.186309  	1060.000000	0.187674  	1060.000000	0.185637  	1060.000000	0.186284  	1060.000000	2.53157e-05	
1080.000000	0.17351   	1080.000000	0.185664  	1080.000000	0.187052  	1080.000000	0.185016  	1080.000000	0.185639  	1080.000000	2.48807e-05	
1100.000000	0.172897  	1100.000000	0.185052  	1100.000000	0.18646   	1100.000000	0.184426  	1100.000000	0.185027  	1100.000000	2.44609e-05	
1120.000000	0.172318  	1120.000000	0.184473  	1120.000000	0.185896  	1120.000000	0.183866  	1120.000000	0.184449  	1120.000000	2.40555e-05	
1140.000000	0.171771  	1140.000000	0.183924  	1140.000000	0.185359  	1140.000000	0.183333  	1140.000000	0.183901  	1140.000000	2.36638e-05	
1160.000000	0.171255  	1160.000000	0.183405  	1160.000000	0.184847  	1160.000000	0.182826  	1160.000000	0.183382  	1160.000000	2.32851e-05	
1180.000000	0.170768  	1180.000000	0.182913  	1180.000000	0.184358  	1180.000000	0.182344  	1180.000000	0.18289   	1180.000000	2.29187e-05	
1200.000000	0.170309  	1200.000000	0.182448  	1200.000000	0.183894  	1200.000000	0.181886  	1200.000000	0.182425  	1200.000000	2.25641e-05	
1220.000000	0.169876  	1220.000000	0.182008  	1220.000000	0.183452  	1220.000000	0.18145   	1220.000000	0.181986  	1220.000000	2.22206e-05	
1240.000000	0.169469  	1240.000000	0.181591  	1240.000000	0.183031  	1240.000000	0.181035  	1240.000000	0.181569  	1240.000000	2.18878e-05	
1260.000000	0.169086  	1260.000000	0.181198  	1260.000000	0.182631  	1260.000000	0.18064   	1260.000000	0.181176  	1260.000000	2.15652e-05	
1280.000000	0.168726  	1280.000000	0.180826  	1280.000000	0.182251  	1280.000000	0.180264  	1280.000000	0.180805  	1280.000000	2.12523e-05	
1300.000000	0.168389  	1300.000000	0.180475  	1300.000000	0.181889  	1300.000000	0.179906  	1300.000000	0.180454  	1300.000000	2.09486e-05	
1320.000000	0.168072  	1320.000000	0.180143  	1320.000000	0.181546  	1320.000000	0.179565  	1320.000000	0.180123  	1320.000000	2.06538e-05	
1340.000000	0.167776  	1340.000000	0.179831  	1340.000000	0.181219  	1340.000000	0.179241  	1340.000000	0.179811  	1340.000000	2.03674e-05	
1360.000000	0.1675    	1360.000000	0.179537  	1360.000000	0.180909  	1360.000000	0.178932  	1360.000000	0.179517  	1360.000000	2.00892e-05	
1380.000000	0.167242  	1380.000000	0.17926   	1380.000000	0.180614  	1380.000000	0.178639  	1380.000000	0.17924   	1380.000000	1.98187e-05	
1400.000000	0.167003  	1400.000000	0.178999  	1400.000000	0.180333  	1400.000000	0.178359  	1400.000000	0.17898   	1400.000000	1.95556e-05	
1420.000000	0.16678   	1420.000000	0.178755  	1420.000000	0.180065  	1420.000000	0.178093  	1420.000000	0.178736  	1420.000000	1.92997e-05	
1440.000000	0.166575  	1440.000000	0.178526  	1440.000000	0.17981   	1440.000000	0.17784   	1440.000000	0.178507  	1440.000000	1.90506e-05	
1460.000000	0.166385  	1460.000000	0.178311  	1460.000000	0.179567  	1460.000000	0.177599  	1460.000000	0.178292  	1460.000000	1.88081e-05	
1480.000000	0.166211  	1480.000000	0.178111  	1480.000000	0.179336  	1480.000000	0.177369  	1480.000000	0.178092  	1480.000000	1.85719e-05	
1500.000000	0.166051  	1500.000000	0.177924  	1500.000000	0.179115  	1500.000000	0.177151  	1500.000000	0.177905  	1500.000000	1.83417e-05	
1520.000000	0.165906  	1520.000000	0.17775   	1520.000000	0.178905  	1520.000000	0.176944  	1520.000000	0.177731  	1520.000000	1.81174e-05	
1540.000000	0.165774  	1540.000000	0.177588  	1540.000000	0.178705  	1540.000000	0.176747  	1540.000000	0.17757   	1540.000000	1.78987e-05	
1560.000000	0.165656  	1560.000000	0.177438  	1560.000000	0.178515  	1560.000000	0.17656   	1560.000000	0.177421  	1560.000000	1.76854e-05	
1580.000000	0.165551  	1580.000000	0.1773    	1580.000000	0.178335  	1580.000000	0.176382  	1580.000000	0.177283  	1580.000000	1.74773e-05	
1600.000000	0.165458  	1600.000000	0.177174  	1600.000000	0.178163  	1600.000000	0.176213  	1600.000000	0.177156  	1600.000000	1.72741e-05	
1620.000000	0.165377  	1620.000000	0.177057  	1620.000000	0.178     	1620.000000	0.176053  	1620.000000	0.17704   	1620.000000	1.70759e-05	
1640.000000	0.165308  	1640.000000	0.176952  	1640.000000	0.177846  	1640.000000	0.175901  	1640.000000	0.176935  	1640.000000	1.68822e-05	
1660.000000	0.16525   	1660.000000	0.176856  	1660.000000	0.177699  	1660.000000	0.175757  	1660.000000	0.176839  	1660.000000	1.66931e-05	
1680.000000	0.165202  	1680.000000	0.176769  	1680.000000	0.17756   	1680.000000	0.17562   	1680.000000	0.176753  	1680.000000	1.65083e-05	
1700.000000	0.165165  	1700.000000	0.176692  	1700.000000	0.177429  	1700.000000	0.175491  	1700.000000	0.176676  	1700.000000	1.63277e-05	
1750.000000	0.165117  	1750.000000	0.176538  	1750.000000	0.17713   	1750.000000	0.175198  	1750.000000	0.176523  	1750.000000	1.58935e-05	
1800.000000	0.165126  	1800.000000	0.176436  	1800.000000	0.176871  	1800.000000	0.174945  	1800.000000	0.17642   	1800.000000	1.54826e-05	
1850.000000	0.165191  	1850.000000	0.17638   	1850.000000	0.176647  	1850.000000	0.174727  	1850.000000	0.176365  	1850.000000	1.5093e-05	
1900.000000	0.165305  	1900.000000	0.176369  	1900.000000	0.176457  	1900.000000	0.174542  	1900.000000	0.176354  	1900.000000	1.47233e-05	
1950.000000	0.165467  	1950.000000	0.176397  	1950.000000	0.176296  	1950.000000	0.174386  	1950.000000	0.176383  	1950.000000	1.43718e-05	
2000.000000	0.165672  	2000.000000	0.176463  	2000.000000	0.176163  	2000.000000	0.174257  	2000.000000	0.176449  	2000.000000	1.40372e-05	
2100.000000	0.166202  	2100.000000	0.176695  	2100.000000	0.175971  	2100.000000	0.174071  	2100.000000	0.176681  	2100.000000	1.34141e-05	
2200.000000	0.166877  	2200.000000	0.177046  	2200.000000	0.175864  	2200.000000	0.173966  	2200.000000	0.177034  	2200.000000	1.28457e-05	
2300.000000	0.167679  	2300.000000	0.177502  	2300.000000	0.175825  	2300.000000	0.17393   	2300.000000	0.17749   	2300.000000	1.23249e-05	
2400.000000	0.168594  	2400.000000	0.178048  	2400.000000	0.175843  	2400.000000	0.173951  	2400.000000	0.178036  	2400.000000	1.1846e-05	
2500.000000	0.16961   	2500.000000	0.178674  	2500.000000	0.17591   	2500.000000	0.174021  	2500.000000	0.178663  	2500.000000	1.1404e-05	
2600.000000	0.170719  	2600.000000	0.179371  	2600.000000	0.176017  	2600.000000	0.174131  	2600.000000	0.17936   	2600.000000	1.09949e-05	
2700.000000	0.17191   	2700.000000	0.180131  	2700.000000	0.176158  	2700.000000	0.174277  	2700.000000	0.18012   	2700.000000	1.06149e-05	
2800.000000	0.173177  	2800.000000	0.180946  	2800.000000	0.176329  	2800.000000	0.174452  	2800.000000	0.180936  	2800.000000	1.02612e-05	
2900.000000	0.174513  	2900.000000	0.181811  	2900.000000	0.176526  	2900.000000	0.174652  	2900.000000	0.181801  	2900.000000	9.931e-06 	
3000.000000	0.175913  	3000.000000	0.182721  	3000.000000	0.176743  	3000.000000	0.174873  	3000.000000	0.182712  	3000.000000	9.62203e-06	
3200.000000	0.178884  	3200.000000	0.184659  	3200.000000	0.177231  	3200.000000	0.175367  	3200.000000	0.18465   	3200.000000	9.06003e-06	
3400.000000	0.182058  	3400.000000	0.18673   	3400.000000	0.177772  	3400.000000	0.175912  	3400.000000	0.186722  	3400.000000	8.56191e-06	
3600.000000	0.185409  	3600.000000	0.188912  	3600.000000	0.17835   	3600.000000	0.176495  	3600.000000	0.188904  	3600.000000	8.11725e-06	
3800.000000	0.188917  	3800.000000	0.191185  	3800.000000	0.178954  	3800.000000	0.177103  	3800.000000	0.191177  	3800.000000	7.71781e-06	
4000.000000	0.192565  	4000.000000	0.193536  	4000.000000	0.179576  	4000.000000	0.177729  	4000.000000	0.193529  	4000.000000	7.35696e-06	
4200.000000	0.19634   	4200.000000	0.195953  	4200.000000	0.180209  	4200.000000	0.178365  	4200.000000	0.195946  	4200.000000	7.02931e-06	
4400.000000	0.200231  	4400.000000	0.198426  	4400.000000	0.180848  	4400.000000	0.179006  	4400.000000	0.19842   	4400.000000	6.73044e-06	
4600.000000	0.204228  	4600.000000	0.200948  	4600.000000	0.181489  	4600.000000	0.179649  	4600.000000	0.200942  	4600.000000	6.45668e-06	
4800.000000	0.208325  	4800.000000	0.203512  	4800.000000	0.182129  	4800.000000	0.180292  	4800.000000	0.203506  	4800.000000	6.20497e-06	
5000.000000	0.212513  	5000.000000	0.206113  	5000.000000	0.182765  	5000.000000	0.180931  	5000.000000	0.206107  	5000.000000	5.97271e-06	
5250.000000	0.217871  	5250.000000	0.209407  	5250.000000	0.183554  	5250.000000	0.181722  	5250.000000	0.209401  	5250.000000	5.70644e-06	
5500.000000	0.223354  	5500.000000	0.212744  	5500.000000	0.184332  	5500.000000	0.182504  	5500.000000	0.212738  	5500.000000	5.46357e-06	
6000.000000	0.234673  	6000.000000	0.21952   	6000.000000	0.185854  	6000.000000	0.18403   	6000.000000	0.219515  	6000.000000	5.03659e-06	
6500.000000	0.246421  	6500.000000	0.226403  	6500.000000	0.187321  	6500.000000	0.185502  	6500.000000	0.226398  	6500.000000	4.67321e-06	
7000.000000	0.258565  	7000.000000	0.233365  	7000.000000	0.188732  	7000.000000	0.186917  	7000.000000	0.23336   	7000.000000	4.36008e-06	
7500.000000	0.27108   	7500.000000	0.240386  	7500.000000	0.190087  	7500.000000	0.188274  	7500.000000	0.240382  	7500.000000	4.08737e-06	
8000.000000	0.283946  	8000.000000	0.247453  	8000.000000	0.191387  	8000.000000	0.189576  	8000.000000	0.247449  	8000.000000	3.84766e-06	
8500.000000	0.29715   	8500.000000	0.254554  	8500.000000	0.192631  	8500.000000	0.190824  	8500.000000	0.254551  	8500.000000	3.63526e-06	
9000.000000	0.310679  	9000.000000	0.261681  	9000.000000	0.193821  	9000.000000	0.192022  	9000.000000	0.261678  	9000.000000	3.4457e-06	
9500.000000	0.324525  	9500.000000	0.268828  	9500.000000	0.194964  	9500.000000	0.193171  	9500.000000	0.268825  	9500.000000	3.27546e-06	
10000.000000	0.33868   	10000.000000	0.275989  	10000.000000	0.196065  	10000.000000	0.194276  	10000.000000	0.275986  	10000.000000	3.1217e-06	
11000.000000	0.367897  	11000.000000	0.290341  	11000.000000	0.198147  	11000.000000	0.196361  	11000.000000	0.290338  	11000.000000	2.85483e-06	
12000.000000	0.398296  	12000.000000	0.304712  	12000.000000	0.200079  	12000.000000	0.198297  	12000.000000	0.304709  	12000.000000	2.63109e-06	
13000.000000	0.429854  	13000.000000	0.319088  	13000.000000	0.201874  	13000.000000	0.200101  	13000.000000	0.319085  	13000.000000	2.44072e-06	
14000.000000	0.462557  	14000.000000	0.333459  	14000.000000	0.20355   	14000.000000	0.201789  	14000.000000	0.333457  	14000.000000	2.27672e-06	
15000.000000	0.496393  	15000.000000	0.347819  	15000.000000	0.20512   	15000.000000	0.203374  	15000.000000	0.347817  	15000.000000	2.13392e-06	
16000.000000	0.531356  	16000.000000	0.362163  	16000.000000	0.206599  	16000.000000	0.204866  	16000.000000	0.362161  	16000.000000	2.00842e-06	
17000.000000	0.567442  	17000.000000	0.376488  	17000.000000	0.207996  	17000.000000	0.206276  	17000.000000	0.376486  	17000.000000	1.89724e-06	
18000.000000	0.604651  	18000.000000	0.390792  	18000.000000	0.209321  	18000.000000	0.207611  	18000.000000	0.39079   	18000.000000	1.79804e-06	
19000.000000	0.64298   	19000.000000	0.405073  	19000.000000	0.21058   	19000.000000	0.208879  	19000.000000	0.405072  	19000.000000	1.70897e-06	
20000.000000	0.68243   	20000.000000	0.419333  	20000.000000	0.21178   	20000.000000	0.210086  	20000.000000	0.419331  	20000.000000	1.62853e-06	
21000.000000	0.723004  	21000.000000	0.433568  	21000.000000	0.212924  	21000.000000	0.211236  	21000.000000	0.433567  	21000.000000	1.55551e-06	
22000.000000	0.764704  	22000.000000	0.447781  	22000.000000	0.214014  	22000.000000	0.212336  	22000.000000	0.447779  	22000.000000	1.48894e-06	
23000.000000	0.807532  	23000.000000	0.46197   	23000.000000	0.215048  	23000.000000	0.213389  	23000.000000	0.461968  	23000.000000	1.42797e-06	
24000.000000	0.851492  	24000.000000	0.476135  	24000.000000	0.216039  	24000.000000	0.214399  	24000.000000	0.476134  	24000.000000	1.37194e-06	
25000.000000	0.896588  	25000.000000	0.490278  	25000.000000	0.216998  	25000.000000	0.215369  	25000.000000	0.490277  	25000.000000	1.32025e-06	
26000.000000	0.942823  	26000.000000	0.504398  	26000.000000	0.217919  	26000.000000	0.216302  	26000.000000	0.504397  	26000.000000	1.27242e-06	
27000.000000	0.990203  	27000.000000	0.518496  	27000.000000	0.2188    	27000.000000	0.2172    	27000.000000	0.518495  	27000.000000	1.22802e-06	
28000.000000	1.03873   	28000.000000	0.532573  	28000.000000	0.219648  	28000.000000	0.218067  	28000.000000	0.532572  	28000.000000	1.1867e-06	
29000.000000	1.08842   	29000.000000	0.546628  	29000.000000	0.220467  	29000.000000	0.218904  	29000.000000	0.546626  	29000.000000	1.14814e-06	
30000.000000	1.13926   	30000.000000	0.560662  	30000.000000	0.22126   	30000.000000	0.219713  	30000.000000	0.56066   	30000.000000	1.11207e-06	
32000.000000	1.24444   	32000.000000	0.588668  	32000.000000	0.222769  	32000.000000	0.221254  	32000.000000	0.588667  	32000.000000	1.04651e-06	
34000.000000	1.35433   	34000.000000	0.616597  	34000.000000	0.224183  	34000.000000	0.222703  	34000.000000	0.616596  	34000.000000	9.88431e-07	
36000.000000	1.46896   	36000.000000	0.64445   	36000.000000	0.225509  	36000.000000	0.22407   	36000.000000	0.644449  	36000.000000	9.36618e-07	
38000.000000	1.58839   	38000.000000	0.672232  	38000.000000	0.226758  	38000.000000	0.225363  	38000.000000	0.672231  	38000.000000	8.90101e-07	
40000.000000	1.71266   	40000.000000	0.699945  	40000.000000	0.227936  	40000.000000	0.226591  	40000.000000	0.699944  	40000.000000	8.481e-07 	
42000.000000	1.84183   	42000.000000	0.727593  	42000.000000	0.229055  	42000.000000	0.227758  	42000.000000	0.727592  	42000.000000	8.09982e-07	
44000.000000	1.97595   	44000.000000	0.755177  	44000.000000	0.230119  	44000.000000	0.228871  	44000.000000	0.755176  	44000.000000	7.75229e-07	
46000.000000	2.11505   	46000.000000	0.782701  	46000.000000	0.231136  	46000.000000	0.229935  	46000.000000	0.7827    	46000.000000	7.43411e-07	
48000.000000	2.25921   	48000.000000	0.810167  	48000.000000	0.232108  	48000.000000	0.230953  	48000.000000	0.810166  	48000.000000	7.14167e-07	
50000.000000	2.40847   	50000.000000	0.837577  	50000.000000	0.233035  	50000.000000	0.231929  	50000.000000	0.837577  	50000.000000	6.87194e-07	
