0.001000	0.297244  	0.001000	0.162802  	0.001000	0.18967   	0.001000	0.18967   	0.001000	0.0778281 	0.001000	0.0849736 	
0.002000	0.366039  	0.002000	0.197848  	0.002000	0.244342  	0.002000	0.244342  	0.002000	0.134682  	0.002000	0.0631653 	
0.005000	0.554351  	0.005000	0.301851  	0.005000	0.392927  	0.005000	0.392927  	0.005000	0.263833  	0.005000	0.038018  	
0.008000	0.69902   	0.008000	0.389526  	0.008000	0.514272  	0.008000	0.514272  	0.008000	0.361371  	0.008000	0.0281557 	
0.010000	0.778952  	0.010000	0.440501  	0.010000	0.584198  	0.010000	0.584198  	0.010000	0.416271  	0.010000	0.0242295 	
0.015000	0.992506  	0.015000	0.595179  	0.015000	0.733926  	0.015000	0.733926  	0.015000	0.577102  	0.015000	0.0180772 	
0.020000	1.17141   	0.020000	0.734283  	0.020000	0.86109   	0.020000	0.86109   	0.020000	0.719605  	0.020000	0.0146777 	
0.025000	1.32405   	0.025000	0.85872   	0.025000	0.974355  	0.025000	0.974355  	0.025000	0.846283  	0.025000	0.012437  	
0.030000	1.45495   	0.030000	0.969401  	0.030000	1.06271   	0.030000	1.06271   	0.030000	0.958564  	0.030000	0.0108372 	
0.035000	1.56684   	0.035000	1.06709   	0.035000	1.13906   	0.035000	1.13906   	0.035000	1.05745   	0.035000	0.00963192	
0.040000	1.66165   	0.040000	1.15251   	0.040000	1.20529   	0.040000	1.20529   	0.040000	1.14382   	0.040000	0.00868781	
0.045000	1.74088   	0.045000	1.22646   	0.045000	1.26277   	0.045000	1.26277   	0.045000	1.21853   	0.045000	0.00792625	
0.050000	1.80593   	0.050000	1.28979   	0.050000	1.31258   	0.050000	1.31258   	0.050000	1.28249   	0.050000	0.00729766	
0.055000	1.85812   	0.055000	1.3434    	0.055000	1.35557   	0.055000	1.35557   	0.055000	1.33663   	0.055000	0.00676914	
0.060000	1.89879   	0.060000	1.38823   	0.060000	1.3925    	0.060000	1.3925    	0.060000	1.38191   	0.060000	0.00631793	
0.070000	1.95079   	0.070000	1.45529   	0.070000	1.45061   	0.070000	1.45061   	0.070000	1.4497    	0.070000	0.0055868 	
0.080000	1.97204   	0.080000	1.49809   	0.080000	1.49126   	0.080000	1.49126   	0.080000	1.49307   	0.080000	0.00501839	
0.090000	1.97148   	0.090000	1.5228    	0.090000	1.518     	0.090000	1.518     	0.090000	1.51824   	0.090000	0.00456267	
0.100000	1.95647   	0.100000	1.53443   	0.100000	1.53376   	0.100000	1.53376   	0.100000	1.53024   	0.100000	0.00418842	
0.120000	1.90383   	0.120000	1.53281   	0.120000	1.54152   	0.120000	1.54152   	0.120000	1.5292    	0.120000	0.00360862	
0.140000	1.84168   	0.140000	1.51328   	0.140000	1.52881   	0.140000	1.52881   	0.140000	1.5101    	0.140000	0.00317882	
0.160000	1.78176   	0.160000	1.486     	0.160000	1.50466   	0.160000	1.50466   	0.160000	1.48315   	0.160000	0.00284644	
0.180000	1.72776   	0.180000	1.45579   	0.180000	1.47461   	0.180000	1.47461   	0.180000	1.45321   	0.180000	0.0025811 	
0.200000	1.67996   	0.200000	1.42487   	0.200000	1.44192   	0.200000	1.44192   	0.200000	1.42251   	0.200000	0.002364  	
0.250000	1.58129   	0.250000	1.34944   	0.250000	1.3589    	0.250000	1.3589    	0.250000	1.34748   	0.250000	0.00196069	
0.300000	1.50071   	0.300000	1.27892   	0.300000	1.2813    	0.300000	1.2813    	0.300000	1.27724   	0.300000	0.00168121	
0.350000	1.42967   	0.350000	1.21357   	0.350000	1.21118   	0.350000	1.21118   	0.350000	1.2121    	0.350000	0.00147533	
0.400000	1.36462   	0.400000	1.15322   	0.400000	1.14814   	0.400000	1.14814   	0.400000	1.15191   	0.400000	0.0013169 	
0.450000	1.3042    	0.450000	1.09767   	0.450000	1.09136   	0.450000	1.09136   	0.450000	1.09648   	0.450000	0.00119095	
0.500000	1.24791   	0.500000	1.04669   	0.500000	1.04008   	0.500000	1.04008   	0.500000	1.0456    	0.500000	0.00108826	
0.600000	1.14677   	0.600000	0.957147  	0.600000	0.951362  	0.600000	0.951362  	0.600000	0.956217  	0.600000	0.000930538	
0.700000	1.05945   	0.700000	0.881914  	0.700000	0.877621  	0.700000	0.877621  	0.700000	0.881099  	0.700000	0.000814747	
0.800000	0.984059  	0.800000	0.818329  	0.800000	0.815557  	0.800000	0.815557  	0.800000	0.817604  	0.800000	0.000725897	
0.900000	0.918712  	0.900000	0.764107  	0.900000	0.762673  	0.900000	0.762673  	0.900000	0.763452  	0.900000	0.00065543	
1.000000	0.861711  	1.000000	0.717399  	1.000000	0.717077  	1.000000	0.717077  	1.000000	0.716801  	1.000000	0.000598089	
1.250000	0.747008  	1.250000	0.624767  	1.250000	0.626356  	1.250000	0.626356  	1.250000	0.624275  	1.250000	0.000492368	
1.500000	0.660399  	1.500000	0.555724  	1.500000	0.558356  	1.500000	0.558356  	1.500000	0.555304  	1.500000	0.000419768	
1.750000	0.592566  	1.750000	0.501987  	1.750000	0.505154  	1.750000	0.505154  	1.750000	0.50162   	1.750000	0.000366659	
2.000000	0.537897  	2.000000	0.458784  	2.000000	0.462192  	2.000000	0.462192  	2.000000	0.458458  	2.000000	0.000326024	
2.250000	0.492838  	2.250000	0.423182  	2.250000	0.42666   	2.250000	0.42666   	2.250000	0.422888  	2.250000	0.000293874	
2.500000	0.447396  	2.500000	0.393274  	2.500000	0.396722  	2.500000	0.396722  	2.500000	0.393006  	2.500000	0.000267767	
3.000000	0.390509  	3.000000	0.345702  	3.000000	0.348944  	3.000000	0.348944  	3.000000	0.345474  	3.000000	0.00022787	
3.500000	0.347387  	3.500000	0.309449  	3.500000	0.312411  	3.500000	0.312411  	3.500000	0.30925   	3.500000	0.000198746	
4.000000	0.313472  	4.000000	0.280835  	4.000000	0.283507  	4.000000	0.283507  	4.000000	0.280658  	4.000000	0.000176502	
4.500000	0.286041  	4.500000	0.257629  	4.500000	0.260028  	4.500000	0.260028  	4.500000	0.257471  	4.500000	0.000158928	
5.000000	0.263359  	5.000000	0.2384    	5.000000	0.240547  	5.000000	0.240547  	5.000000	0.238255  	5.000000	0.000144675	
5.500000	0.244266  	5.500000	0.22218   	5.500000	0.224101  	5.500000	0.224101  	5.500000	0.222047  	5.500000	0.000132872	
6.000000	0.227956  	6.000000	0.208295  	6.000000	0.210014  	6.000000	0.210014  	6.000000	0.208172  	6.000000	0.000122928	
6.500000	0.213849  	6.500000	0.19626   	6.500000	0.197797  	6.500000	0.197797  	6.500000	0.196146  	6.500000	0.000114431	
7.000000	0.201518  	7.000000	0.185717  	7.000000	0.187091  	7.000000	0.187091  	7.000000	0.18561   	7.000000	0.000107081	
7.500000	0.190642  	7.500000	0.176393  	7.500000	0.177621  	7.500000	0.177621  	7.500000	0.176293  	7.500000	0.000100659	
8.000000	0.180971  	8.000000	0.168082  	8.000000	0.169179  	8.000000	0.169179  	8.000000	0.167987  	8.000000	9.49956e-05	
8.500000	0.172313  	8.500000	0.160621  	8.500000	0.161599  	8.500000	0.161599  	8.500000	0.160531  	8.500000	8.99628e-05	
9.000000	0.164512  	9.000000	0.15388   	9.000000	0.154751  	9.000000	0.154751  	9.000000	0.153795  	9.000000	8.54593e-05	
9.500000	0.157445  	9.500000	0.147756  	9.500000	0.14853   	9.500000	0.14853   	9.500000	0.147675  	9.500000	8.14045e-05	
10.000000	0.151012  	10.000000	0.142805  	10.000000	0.142849  	10.000000	0.142849  	10.000000	0.142727  	10.000000	7.77336e-05	
11.000000	0.139725  	11.000000	0.132832  	11.000000	0.132612  	11.000000	0.132621  	11.000000	0.132761  	11.000000	7.13414e-05	
12.000000	0.13014   	12.000000	0.124253  	12.000000	0.123854  	12.000000	0.123869  	12.000000	0.124187  	12.000000	6.59607e-05	
13.000000	0.121893  	13.000000	0.116792  	13.000000	0.116267  	13.000000	0.116284  	13.000000	0.11673   	13.000000	6.13661e-05	
14.000000	0.114716  	14.000000	0.110242  	14.000000	0.109622  	14.000000	0.109638  	14.000000	0.110185  	14.000000	5.73949e-05	
15.000000	0.108411  	15.000000	0.104444  	15.000000	0.103743  	15.000000	0.103759  	15.000000	0.10439   	15.000000	5.39266e-05	
16.000000	0.102825  	16.000000	0.0992747 	16.000000	0.0985019 	16.000000	0.0985169 	16.000000	0.0992238 	16.000000	5.08702e-05	
17.000000	0.0978401 	17.000000	0.0946352 	17.000000	0.0937966 	17.000000	0.0938097 	17.000000	0.094587  	17.000000	4.81555e-05	
18.000000	0.0933617 	18.000000	0.0904472 	18.000000	0.0895464 	18.000000	0.0895563 	18.000000	0.0904014 	18.000000	4.57274e-05	
19.000000	0.0893154 	19.000000	0.086647  	19.000000	0.0856846 	19.000000	0.0856919 	19.000000	0.0866034 	19.000000	4.35422e-05	
20.000000	0.0856404 	20.000000	0.0831824 	20.000000	0.0821562 	20.000000	0.0821635 	20.000000	0.0831409 	20.000000	4.15647e-05	
21.000000	0.0822869 	21.000000	0.0800103 	21.000000	0.0789198 	21.000000	0.0789278 	21.000000	0.0799705 	21.000000	3.97663e-05	
22.000000	0.0792136 	22.000000	0.0770946 	22.000000	0.0759427 	22.000000	0.0759487 	22.000000	0.0770565 	22.000000	3.81234e-05	
23.000000	0.0763863 	23.000000	0.074405  	23.000000	0.0731943 	23.000000	0.073196  	23.000000	0.0743684 	23.000000	3.66163e-05	
24.000000	0.073776  	24.000000	0.0719159 	24.000000	0.0706467 	24.000000	0.0706443 	24.000000	0.0718806 	24.000000	3.52286e-05	
25.000000	0.0713582 	25.000000	0.0696052 	25.000000	0.068278  	25.000000	0.0682718 	25.000000	0.0695713 	25.000000	3.39466e-05	
27.000000	0.0670193 	27.000000	0.0654469 	27.000000	0.0640082 	27.000000	0.0639925 	27.000000	0.0654152 	27.000000	3.16539e-05	
29.000000	0.0632345 	29.000000	0.0618079 	29.000000	0.0602572 	29.000000	0.0602377 	29.000000	0.0617782 	29.000000	2.96627e-05	
31.000000	0.0599024 	31.000000	0.0585954 	31.000000	0.0570579 	31.000000	0.0570373 	31.000000	0.0585675 	31.000000	2.79165e-05	
33.000000	0.0569449 	33.000000	0.0557377 	33.000000	0.0543287 	33.000000	0.0543018 	33.000000	0.0557113 	33.000000	2.6372e-05	
35.000000	0.0543011 	35.000000	0.0531783 	35.000000	0.051875  	35.000000	0.0518494 	35.000000	0.0531533 	35.000000	2.49959e-05	
38.000000	0.0508205 	38.000000	0.0498026 	38.000000	0.0486406 	38.000000	0.0486109 	38.000000	0.0497794 	38.000000	2.31911e-05	
41.000000	0.047814  	41.000000	0.0468815 	41.000000	0.0458345 	41.000000	0.0458041 	41.000000	0.0468599 	41.000000	2.16384e-05	
44.000000	0.0451893 	44.000000	0.044328  	44.000000	0.0433736 	44.000000	0.0433468 	44.000000	0.0443077 	44.000000	2.0288e-05	
47.000000	0.0428767 	47.000000	0.0420759 	47.000000	0.0412067 	47.000000	0.0411762 	47.000000	0.0420568 	47.000000	1.91023e-05	
50.000000	0.0408226 	50.000000	0.0400742 	50.000000	0.0392749 	50.000000	0.0392441 	50.000000	0.0400561 	50.000000	1.80525e-05	
55.000000	0.0378639 	55.000000	0.0371894 	55.000000	0.0364881 	55.000000	0.0364545 	55.000000	0.0371728 	55.000000	1.65462e-05	
60.000000	0.0353657 	60.000000	0.0347532 	60.000000	0.0341244 	60.000000	0.0340935 	60.000000	0.0347379 	60.000000	1.52803e-05	
65.000000	0.0332265 	65.000000	0.0326673 	65.000000	0.0320996 	65.000000	0.0320679 	65.000000	0.0326531 	65.000000	1.42007e-05	
70.000000	0.0313726 	70.000000	0.0308606 	70.000000	0.0303422 	70.000000	0.0303101 	70.000000	0.0308473 	70.000000	1.32688e-05	
75.000000	0.0297494 	75.000000	0.0292798 	75.000000	0.028799  	75.000000	0.0287694 	75.000000	0.0292674 	75.000000	1.24558e-05	
80.000000	0.0283156 	80.000000	0.0278847 	80.000000	0.0274398 	80.000000	0.0274076 	80.000000	0.027873  	80.000000	1.17401e-05	
85.000000	0.027039  	85.000000	0.0266441 	85.000000	0.0262252 	85.000000	0.0261947 	85.000000	0.026633  	85.000000	1.11051e-05	
90.000000	0.0258947 	90.000000	0.0255333 	90.000000	0.0251365 	90.000000	0.0251073 	90.000000	0.0255228 	90.000000	1.05376e-05	
95.000000	0.0248627 	95.000000	0.0245328 	95.000000	0.024158  	95.000000	0.0241268 	95.000000	0.0245228 	95.000000	1.00273e-05	
100.000000	0.0239268 	100.000000	0.0236269 	100.000000	0.0232677 	100.000000	0.0232378 	100.000000	0.0236173 	100.000000	9.56582e-06	
105.000000	0.0230739 	105.000000	0.0228025 	105.000000	0.0224567 	105.000000	0.0224281 	105.000000	0.0227933 	105.000000	9.14648e-06	
110.000000	0.0222932 	110.000000	0.022049  	110.000000	0.0217145 	110.000000	0.0216873 	110.000000	0.0220403 	110.000000	8.76365e-06	
115.000000	0.0215756 	115.000000	0.0213577 	115.000000	0.0210352 	115.000000	0.021007  	115.000000	0.0213493 	115.000000	8.41272e-06	
120.000000	0.0209137 	120.000000	0.020721  	120.000000	0.0204088 	120.000000	0.02038   	120.000000	0.0207129 	120.000000	8.0898e-06	
125.000000	0.020301  	125.000000	0.0201326 	125.000000	0.0198275 	125.000000	0.0198002 	125.000000	0.0201248 	125.000000	7.79163e-06	
130.000000	0.0197322 	130.000000	0.0195873 	130.000000	0.019289  	130.000000	0.0192624 	130.000000	0.0195798 	130.000000	7.51543e-06	
135.000000	0.0192024 	135.000000	0.0190804 	135.000000	0.01879   	135.000000	0.0187623 	135.000000	0.0190732 	135.000000	7.25885e-06	
140.000000	0.0187078 	140.000000	0.018608  	140.000000	0.0183237 	140.000000	0.0182959 	140.000000	0.018601  	140.000000	7.01982e-06	
145.000000	0.0182449 	145.000000	0.0181667 	145.000000	0.0178868 	145.000000	0.01786   	145.000000	0.0181599 	145.000000	6.7966e-06	
150.000000	0.0178106 	150.000000	0.0177534 	150.000000	0.0174778 	150.000000	0.0174517 	150.000000	0.0177468 	150.000000	6.58764e-06	
155.000000	0.0171992 	155.000000	0.0173656 	155.000000	0.0170935 	155.000000	0.0170683 	155.000000	0.0173592 	155.000000	6.39161e-06	
160.000000	0.0168407 	160.000000	0.0170009 	160.000000	0.0167327 	160.000000	0.0167077 	160.000000	0.0169947 	160.000000	6.20731e-06	
165.000000	0.0165028 	165.000000	0.0166574 	165.000000	0.0163939 	165.000000	0.016368  	165.000000	0.0166514 	165.000000	6.03373e-06	
170.000000	0.0161835 	170.000000	0.0163333 	170.000000	0.0160733 	170.000000	0.0160473 	170.000000	0.0163274 	170.000000	5.86994e-06	
175.000000	0.0158814 	175.000000	0.0160269 	175.000000	0.0157693 	175.000000	0.0157441 	175.000000	0.0160212 	175.000000	5.71512e-06	
180.000000	0.0155951 	180.000000	0.0157369 	180.000000	0.0154817 	180.000000	0.015457  	180.000000	0.0157313 	180.000000	5.56855e-06	
185.000000	0.0153234 	185.000000	0.0154619 	185.000000	0.0152089 	185.000000	0.0151848 	185.000000	0.0154564 	185.000000	5.42958e-06	
190.000000	0.0150651 	190.000000	0.0152008 	190.000000	0.0149498 	190.000000	0.0149263 	190.000000	0.0151955 	190.000000	5.29762e-06	
195.000000	0.0148194 	195.000000	0.0149526 	195.000000	0.0147042 	195.000000	0.0146806 	195.000000	0.0149474 	195.000000	5.17216e-06	
200.000000	0.0145852 	200.000000	0.0147163 	200.000000	0.014471  	200.000000	0.0144466 	200.000000	0.0147113 	200.000000	5.05271e-06	
210.000000	0.0141486 	210.000000	0.0142764 	210.000000	0.0140349 	210.000000	0.014011  	210.000000	0.0142716 	210.000000	4.83019e-06	
220.000000	0.0137495 	220.000000	0.0138751 	220.000000	0.0136367 	220.000000	0.0136137 	220.000000	0.0138705 	220.000000	4.62709e-06	
230.000000	0.0133832 	230.000000	0.0135076 	230.000000	0.013272  	230.000000	0.0132498 	230.000000	0.0135032 	230.000000	4.44096e-06	
240.000000	0.013046  	240.000000	0.0131699 	240.000000	0.0129382 	240.000000	0.0129155 	240.000000	0.0131656 	240.000000	4.26973e-06	
250.000000	0.0127343 	250.000000	0.0128584 	250.000000	0.01263   	250.000000	0.0126072 	250.000000	0.0128542 	250.000000	4.11165e-06	
260.000000	0.0124455 	260.000000	0.0125702 	260.000000	0.0123441 	260.000000	0.0123221 	260.000000	0.0125662 	260.000000	3.96525e-06	
270.000000	0.0121771 	270.000000	0.0123029 	270.000000	0.0120792 	270.000000	0.0120577 	270.000000	0.012299  	270.000000	3.82927e-06	
280.000000	0.011927  	280.000000	0.0120542 	280.000000	0.0118328 	280.000000	0.0118119 	280.000000	0.0120505 	280.000000	3.70262e-06	
290.000000	0.0116933 	290.000000	0.0118224 	290.000000	0.0116044 	290.000000	0.0115828 	290.000000	0.0118188 	290.000000	3.58437e-06	
300.000000	0.0114746 	300.000000	0.0116057 	300.000000	0.0113905 	300.000000	0.0113689 	300.000000	0.0116022 	300.000000	3.47368e-06	
310.000000	0.0112695 	310.000000	0.0114028 	310.000000	0.0111896 	310.000000	0.0111686 	310.000000	0.0113995 	310.000000	3.36986e-06	
320.000000	0.0110766 	320.000000	0.0112124 	320.000000	0.0110014 	320.000000	0.0109808 	320.000000	0.0112092 	320.000000	3.27228e-06	
330.000000	0.0108951 	330.000000	0.0110335 	330.000000	0.0108244 	330.000000	0.0108043 	330.000000	0.0110303 	330.000000	3.18038e-06	
340.000000	0.0107238 	340.000000	0.0108649 	340.000000	0.0106582 	340.000000	0.0106383 	340.000000	0.0108618 	340.000000	3.09367e-06	
350.000000	0.0105621 	350.000000	0.010706  	350.000000	0.0105022 	350.000000	0.0104818 	350.000000	0.010703  	350.000000	3.01173e-06	
360.000000	0.010409  	360.000000	0.0105558 	360.000000	0.0103546 	360.000000	0.010334  	360.000000	0.0105529 	360.000000	2.93416e-06	
370.000000	0.010264  	370.000000	0.0104138 	370.000000	0.0102145 	370.000000	0.0101944 	370.000000	0.0104109 	370.000000	2.86062e-06	
380.000000	0.0101264 	380.000000	0.0102792 	380.000000	0.0100819 	380.000000	0.0100621 	380.000000	0.0102764 	380.000000	2.79081e-06	
390.000000	0.00999578	390.000000	0.0101516 	390.000000	0.0099563 	390.000000	0.00993682	390.000000	0.0101488 	390.000000	2.72443e-06	
400.000000	0.00987153	400.000000	0.0100304 	400.000000	0.00983698	400.000000	0.0098179 	400.000000	0.0100277 	400.000000	2.66125e-06	
410.000000	0.00975323	410.000000	0.00991511	410.000000	0.00972381	410.000000	0.00970492	410.000000	0.00991251	410.000000	2.60103e-06	
420.000000	0.00964049	420.000000	0.00980543	420.000000	0.00961665	420.000000	0.00959746	420.000000	0.00980288	420.000000	2.54357e-06	
430.000000	0.00953294	430.000000	0.00970092	430.000000	0.00951468	430.000000	0.00949516	430.000000	0.00969844	430.000000	2.48867e-06	
440.000000	0.00943023	440.000000	0.00960126	440.000000	0.00941711	440.000000	0.00939767	440.000000	0.00959882	440.000000	2.43618e-06	
450.000000	0.00933207	450.000000	0.00950612	450.000000	0.00932379	450.000000	0.00930467	450.000000	0.00950374	450.000000	2.38593e-06	
460.000000	0.00923817	460.000000	0.00941522	460.000000	0.00923473	460.000000	0.00921588	460.000000	0.00941289	460.000000	2.33778e-06	
470.000000	0.00914827	470.000000	0.0093283 	470.000000	0.0091497 	470.000000	0.00913104	470.000000	0.00932601	470.000000	2.2916e-06	
480.000000	0.00906213	480.000000	0.00924511	480.000000	0.00906832	480.000000	0.00904991	480.000000	0.00924287	480.000000	2.24728e-06	
490.000000	0.00897954	490.000000	0.00916544	490.000000	0.00899039	490.000000	0.00897225	490.000000	0.00916324	490.000000	2.20469e-06	
500.000000	0.0089003 	500.000000	0.00908907	500.000000	0.00891589	500.000000	0.00889788	500.000000	0.00908691	500.000000	2.16374e-06	
520.000000	0.00875111	520.000000	0.00894553	520.000000	0.00877667	520.000000	0.00875822	520.000000	0.00894344	520.000000	2.08639e-06	
540.000000	0.00861322	540.000000	0.00881313	540.000000	0.00864807	540.000000	0.00862957	540.000000	0.00881111	540.000000	2.01456e-06	
560.000000	0.00848549	560.000000	0.00869071	560.000000	0.00852884	560.000000	0.00851078	560.000000	0.00868876	560.000000	1.94767e-06	
580.000000	0.00836692	580.000000	0.00857727	580.000000	0.00841861	580.000000	0.00840083	580.000000	0.00857539	580.000000	1.88521e-06	
600.000000	0.00825663	600.000000	0.00847194	600.000000	0.00831627	600.000000	0.00829885	600.000000	0.00847011	600.000000	1.82677e-06	
620.000000	0.00815387	620.000000	0.00837395	620.000000	0.0082213 	620.000000	0.00820408	620.000000	0.00837218	620.000000	1.77196e-06	
640.000000	0.00805797	640.000000	0.00828263	640.000000	0.00813335	640.000000	0.00811584	640.000000	0.00828091	640.000000	1.72045e-06	
660.000000	0.00796833	660.000000	0.00819739	660.000000	0.00805127	660.000000	0.00803354	660.000000	0.00819572	660.000000	1.67194e-06	
680.000000	0.00788444	680.000000	0.00811772	680.000000	0.0079742 	680.000000	0.00795666	680.000000	0.00811609	680.000000	1.62619e-06	
700.000000	0.00780583	700.000000	0.00804313	700.000000	0.00790198	700.000000	0.00788473	700.000000	0.00804155	700.000000	1.58295e-06	
720.000000	0.00773207	720.000000	0.00797323	720.000000	0.0078344 	720.000000	0.00781733	720.000000	0.00797169	720.000000	1.54202e-06	
740.000000	0.0076628 	740.000000	0.00790764	740.000000	0.00777098	740.000000	0.00775411	740.000000	0.00790614	740.000000	1.50323e-06	
760.000000	0.00759768	760.000000	0.00784604	760.000000	0.00771134	760.000000	0.00769472	760.000000	0.00784457	760.000000	1.4664e-06	
780.000000	0.00753641	780.000000	0.00778811	780.000000	0.00765535	780.000000	0.00763887	780.000000	0.00778668	780.000000	1.43139e-06	
800.000000	0.00747872	800.000000	0.00773359	800.000000	0.00760289	800.000000	0.00758629	800.000000	0.0077322 	800.000000	1.39807e-06	
820.000000	0.00742435	820.000000	0.00768225	820.000000	0.00755382	820.000000	0.00753699	820.000000	0.00768088	820.000000	1.36632e-06	
840.000000	0.00737309	840.000000	0.00763385	840.000000	0.00750859	840.000000	0.00749163	840.000000	0.00763251	840.000000	1.33602e-06	
860.000000	0.00732473	860.000000	0.0075882 	860.000000	0.00746569	860.000000	0.00744882	860.000000	0.00758689	860.000000	1.30708e-06	
880.000000	0.00727909	880.000000	0.00754511	880.000000	0.00742506	880.000000	0.00740837	880.000000	0.00754383	880.000000	1.27941e-06	
900.000000	0.00723599	900.000000	0.00750442	900.000000	0.00738663	900.000000	0.00737013	900.000000	0.00750316	900.000000	1.25292e-06	
920.000000	0.00719527	920.000000	0.00746597	920.000000	0.00735031	920.000000	0.00733395	920.000000	0.00746474	920.000000	1.22754e-06	
940.000000	0.0071568 	940.000000	0.00742963	940.000000	0.00731595	940.000000	0.00729969	940.000000	0.00742842	940.000000	1.2032e-06	
960.000000	0.00712044	960.000000	0.00739526	960.000000	0.0072834 	960.000000	0.00726723	960.000000	0.00739408	960.000000	1.17985e-06	
980.000000	0.00708607	980.000000	0.00736275	980.000000	0.00725254	980.000000	0.00723646	980.000000	0.00736159	980.000000	1.1574e-06	
1000.000000	0.00705357	1000.000000	0.00733199	1000.000000	0.00722327	1000.000000	0.00720728	1000.000000	0.00733086	1000.000000	1.13583e-06	
1020.000000	0.00702285	1020.000000	0.00730288	1020.000000	0.00719546	1020.000000	0.00717959	1020.000000	0.00730176	1020.000000	1.11507e-06	
1040.000000	0.00699381	1040.000000	0.00727532	1040.000000	0.00716903	1040.000000	0.00715329	1040.000000	0.00727423	1040.000000	1.09508e-06	
1060.000000	0.00696635	1060.000000	0.00724923	1060.000000	0.00714392	1060.000000	0.00712831	1060.000000	0.00724816	1060.000000	1.07582e-06	
1080.000000	0.0069404 	1080.000000	0.00722453	1080.000000	0.00712008	1080.000000	0.00710458	1080.000000	0.00722348	1080.000000	1.05724e-06	
1100.000000	0.00691588	1100.000000	0.00720115	1100.000000	0.00709746	1100.000000	0.00708201	1100.000000	0.00720011	1100.000000	1.03932e-06	
1120.000000	0.00689271	1120.000000	0.00717901	1120.000000	0.00707603	1120.000000	0.00706055	1120.000000	0.00717799	1120.000000	1.02201e-06	
1140.000000	0.00687084	1140.000000	0.00715805	1140.000000	0.0070557 	1140.000000	0.00704013	1140.000000	0.00715704	1140.000000	1.00529e-06	
1160.000000	0.00685019	1160.000000	0.00713821	1160.000000	0.00703639	1160.000000	0.0070207 	1160.000000	0.00713722	1160.000000	9.89124e-07	
1180.000000	0.00683071	1180.000000	0.00711944	1180.000000	0.00701799	1180.000000	0.0070022 	1180.000000	0.00711847	1180.000000	9.73486e-07	
1200.000000	0.00681234	1200.000000	0.00710168	1200.000000	0.00700045	1200.000000	0.00698458	1200.000000	0.00710073	1200.000000	9.58352e-07	
1220.000000	0.00679504	1220.000000	0.00708489	1220.000000	0.00698368	1220.000000	0.00696781	1220.000000	0.00708395	1220.000000	9.43696e-07	
1240.000000	0.00677875	1240.000000	0.00706902	1240.000000	0.00696766	1240.000000	0.00695183	1240.000000	0.00706809	1240.000000	9.29496e-07	
1260.000000	0.00676344	1260.000000	0.00705402	1260.000000	0.00695236	1260.000000	0.0069366 	1260.000000	0.0070531 	1260.000000	9.15731e-07	
1280.000000	0.00674905	1280.000000	0.00703985	1280.000000	0.00693777	1280.000000	0.00692209	1280.000000	0.00703895	1280.000000	9.0238e-07	
1300.000000	0.00673554	1300.000000	0.00702649	1300.000000	0.00692385	1300.000000	0.00690826	1300.000000	0.0070256 	1300.000000	8.89426e-07	
1320.000000	0.00672289	1320.000000	0.00701388	1320.000000	0.00691059	1320.000000	0.00689508	1320.000000	0.007013  	1320.000000	8.7685e-07	
1340.000000	0.00671106	1340.000000	0.007002  	1340.000000	0.00689797	1340.000000	0.00688252	1340.000000	0.00700114	1340.000000	8.64636e-07	
1360.000000	0.0067    	1360.000000	0.00699082	1360.000000	0.00688594	1360.000000	0.00687054	1360.000000	0.00698997	1360.000000	8.52769e-07	
1380.000000	0.00668969	1380.000000	0.00698031	1380.000000	0.00687447	1380.000000	0.00685912	1380.000000	0.00697947	1380.000000	8.41234e-07	
1400.000000	0.00668011	1400.000000	0.00697044	1400.000000	0.00686354	1400.000000	0.00684824	1400.000000	0.00696961	1400.000000	8.30016e-07	
1420.000000	0.00667121	1420.000000	0.00696117	1420.000000	0.00685312	1420.000000	0.00683786	1420.000000	0.00696036	1420.000000	8.19103e-07	
1440.000000	0.00666299	1440.000000	0.0069525 	1440.000000	0.00684317	1440.000000	0.00682796	1440.000000	0.00695169	1440.000000	8.08483e-07	
1460.000000	0.0066554 	1460.000000	0.00694439	1460.000000	0.00683368	1460.000000	0.00681853	1460.000000	0.00694359	1460.000000	7.98143e-07	
1480.000000	0.00664842	1480.000000	0.00693682	1480.000000	0.00682463	1480.000000	0.00680955	1480.000000	0.00693603	1480.000000	7.88073e-07	
1500.000000	0.00664204	1500.000000	0.00692976	1500.000000	0.006816  	1500.000000	0.00680098	1500.000000	0.00692899	1500.000000	7.78262e-07	
1520.000000	0.00663624	1520.000000	0.00692321	1520.000000	0.00680778	1520.000000	0.00679282	1520.000000	0.00692244	1520.000000	7.687e-07 	
1540.000000	0.00663098	1540.000000	0.00691714	1540.000000	0.00679996	1540.000000	0.00678504	1540.000000	0.00691638	1540.000000	7.59378e-07	
1560.000000	0.00662625	1560.000000	0.00691153	1560.000000	0.00679252	1560.000000	0.00677764	1560.000000	0.00691078	1560.000000	7.50286e-07	
1580.000000	0.00662204	1580.000000	0.00690636	1580.000000	0.00678545	1580.000000	0.00677059	1580.000000	0.00690562	1580.000000	7.41417e-07	
1600.000000	0.00661832	1600.000000	0.00690162	1600.000000	0.00677874	1600.000000	0.00676387	1600.000000	0.00690089	1600.000000	7.32761e-07	
1620.000000	0.00661509	1620.000000	0.0068973 	1620.000000	0.00677237	1620.000000	0.00675749	1620.000000	0.00689657	1620.000000	7.24311e-07	
1640.000000	0.00661231	1640.000000	0.00689337	1640.000000	0.00676633	1640.000000	0.00675141	1640.000000	0.00689265	1640.000000	7.16061e-07	
1660.000000	0.00660998	1660.000000	0.00688983	1660.000000	0.0067606 	1660.000000	0.00674563	1660.000000	0.00688912	1660.000000	7.08002e-07	
1680.000000	0.00660809	1680.000000	0.00688665	1680.000000	0.00675515	1680.000000	0.00674014	1680.000000	0.00688595	1680.000000	7.00128e-07	
1700.000000	0.00660661	1700.000000	0.00688383	1700.000000	0.00674999	1700.000000	0.00673492	1700.000000	0.00688314	1700.000000	6.92433e-07	
1750.000000	0.00660466	1750.000000	0.00687827	1750.000000	0.00673819	1750.000000	0.006723  	1750.000000	0.00687759	1750.000000	6.73939e-07	
1800.000000	0.00660506	1800.000000	0.00687468	1800.000000	0.00672782	1800.000000	0.00671258	1800.000000	0.00687402	1800.000000	6.56437e-07	
1850.000000	0.00660763	1850.000000	0.0068729 	1850.000000	0.00671873	1850.000000	0.0067035 	1850.000000	0.00687226	1850.000000	6.39848e-07	
1900.000000	0.00661221	1900.000000	0.00687281	1900.000000	0.00671082	1900.000000	0.00669564	1900.000000	0.00687218	1900.000000	6.24103e-07	
1950.000000	0.00661867	1950.000000	0.00687426	1950.000000	0.00670399	1950.000000	0.0066889 	1950.000000	0.00687365	1950.000000	6.09137e-07	
2000.000000	0.00662688	2000.000000	0.00687714	2000.000000	0.00669817	2000.000000	0.00668317	2000.000000	0.00687654	2000.000000	5.94894e-07	
2100.000000	0.0066481 	2100.000000	0.00688679	2100.000000	0.00668924	2100.000000	0.00667438	2100.000000	0.00688622	2100.000000	5.68374e-07	
2200.000000	0.00667507	2200.000000	0.00690103	2200.000000	0.00668344	2200.000000	0.00666868	2200.000000	0.00690049	2200.000000	5.44185e-07	
2300.000000	0.00670714	2300.000000	0.00691927	2300.000000	0.00668024	2300.000000	0.00666556	2300.000000	0.00691875	2300.000000	5.2203e-07	
2400.000000	0.00674375	2400.000000	0.006941  	2400.000000	0.00667921	2400.000000	0.0066646 	2400.000000	0.0069405 	2400.000000	5.01659e-07	
2500.000000	0.00678441	2500.000000	0.00696581	2500.000000	0.00668002	2500.000000	0.00666548	2500.000000	0.00696533	2500.000000	4.82864e-07	
2600.000000	0.00682875	2600.000000	0.00699333	2600.000000	0.00668237	2600.000000	0.0066679 	2600.000000	0.00699287	2600.000000	4.65466e-07	
2700.000000	0.0068764 	2700.000000	0.00702326	2700.000000	0.00668604	2700.000000	0.00667163	2700.000000	0.00702281	2700.000000	4.49315e-07	
2800.000000	0.00692708	2800.000000	0.00705534	2800.000000	0.00669083	2800.000000	0.00667648	2800.000000	0.00705491	2800.000000	4.34279e-07	
2900.000000	0.00698053	2900.000000	0.00708935	2900.000000	0.00669658	2900.000000	0.00668227	2900.000000	0.00708893	2900.000000	4.20246e-07	
3000.000000	0.00703652	3000.000000	0.00712508	3000.000000	0.00670315	3000.000000	0.00668886	3000.000000	0.00712467	3000.000000	4.07117e-07	
3200.000000	0.00715537	3200.000000	0.00720107	3200.000000	0.00671824	3200.000000	0.006704  	3200.000000	0.00720068	3200.000000	3.83242e-07	
3400.000000	0.00728233	3400.000000	0.00728217	3400.000000	0.00673532	3400.000000	0.00672112	3400.000000	0.00728181	3400.000000	3.62087e-07	
3600.000000	0.00741637	3600.000000	0.00736751	3600.000000	0.00675382	3600.000000	0.00673964	3600.000000	0.00736716	3600.000000	3.43207e-07	
3800.000000	0.00755668	3800.000000	0.00745639	3800.000000	0.00677329	3800.000000	0.00675915	3800.000000	0.00745606	3800.000000	3.26251e-07	
4000.000000	0.00770261	4000.000000	0.00754825	4000.000000	0.00679343	4000.000000	0.00677933	4000.000000	0.00754794	4000.000000	3.10937e-07	
4200.000000	0.00785361	4200.000000	0.00764266	4200.000000	0.00681398	4200.000000	0.00679992	4200.000000	0.00764236	4200.000000	2.97035e-07	
4400.000000	0.00800924	4400.000000	0.00773923	4400.000000	0.00683478	4400.000000	0.00682075	4400.000000	0.00773894	4400.000000	2.84356e-07	
4600.000000	0.00816914	4600.000000	0.00783766	4600.000000	0.00685568	4600.000000	0.00684168	4600.000000	0.00783739	4600.000000	2.72745e-07	
4800.000000	0.00833299	4800.000000	0.0079377 	4800.000000	0.00687656	4800.000000	0.0068626 	4800.000000	0.00793744	4800.000000	2.62071e-07	
5000.000000	0.00850053	5000.000000	0.00803915	5000.000000	0.00689736	5000.000000	0.00688342	5000.000000	0.00803889	5000.000000	2.52224e-07	
5250.000000	0.00871482	5250.000000	0.00816765	5250.000000	0.00692313	5250.000000	0.00690922	5250.000000	0.00816741	5250.000000	2.40936e-07	
5500.000000	0.00893418	5500.000000	0.00829777	5500.000000	0.00694857	5500.000000	0.00693469	5500.000000	0.00829754	5500.000000	2.30643e-07	
6000.000000	0.00938691	6000.000000	0.00856195	6000.000000	0.00699822	6000.000000	0.00698438	6000.000000	0.00856174	6000.000000	2.12552e-07	
6500.000000	0.00985685	6500.000000	0.00883022	6500.000000	0.007046  	6500.000000	0.0070322 	6500.000000	0.00883002	6500.000000	1.9716e-07	
7000.000000	0.0103426 	7000.000000	0.00910152	7000.000000	0.00709182	7000.000000	0.00707804	7000.000000	0.00910134	7000.000000	1.83902e-07	
7500.000000	0.0108432 	7500.000000	0.00937511	7500.000000	0.00713567	7500.000000	0.00712191	7500.000000	0.00937494	7500.000000	1.72358e-07	
8000.000000	0.0113579 	8000.000000	0.00965043	8000.000000	0.00717761	8000.000000	0.00716386	8000.000000	0.00965026	8000.000000	1.62213e-07	
8500.000000	0.011886  	8500.000000	0.00992705	8500.000000	0.00721768	8500.000000	0.00720396	8500.000000	0.0099269 	8500.000000	1.53226e-07	
9000.000000	0.0124272 	9000.000000	0.0102047 	9000.000000	0.00725596	9000.000000	0.00724232	9000.000000	0.0102045 	9000.000000	1.45208e-07	
9500.000000	0.012981  	9500.000000	0.010483  	9500.000000	0.00729262	9500.000000	0.00727904	9500.000000	0.0104829 	9500.000000	1.38009e-07	
10000.000000	0.0135472 	10000.000000	0.0107619 	10000.000000	0.00732777	10000.000000	0.00731421	10000.000000	0.0107618 	10000.000000	1.31508e-07	
11000.000000	0.0147159 	11000.000000	0.0113208 	11000.000000	0.00739386	11000.000000	0.00738031	11000.000000	0.0113207 	11000.000000	1.20227e-07	
12000.000000	0.0159318 	12000.000000	0.0118805 	12000.000000	0.00745484	12000.000000	0.00744133	12000.000000	0.0118803 	12000.000000	1.10772e-07	
13000.000000	0.0171942 	13000.000000	0.0124403 	13000.000000	0.00751121	13000.000000	0.00749791	13000.000000	0.0124402 	13000.000000	1.02731e-07	
14000.000000	0.0185023 	14000.000000	0.0129998 	14000.000000	0.00756351	14000.000000	0.00755056	14000.000000	0.0129997 	14000.000000	9.5805e-08	
15000.000000	0.0198557 	15000.000000	0.0135589 	15000.000000	0.00761228	15000.000000	0.00759974	15000.000000	0.0135589 	15000.000000	8.9776e-08	
16000.000000	0.0212542 	16000.000000	0.0141174 	16000.000000	0.00765805	16000.000000	0.00764585	16000.000000	0.0141173 	16000.000000	8.4479e-08	
17000.000000	0.0226977 	17000.000000	0.0146751 	17000.000000	0.00770119	17000.000000	0.00768921	17000.000000	0.0146751 	17000.000000	7.97873e-08	
18000.000000	0.024186  	18000.000000	0.015232  	18000.000000	0.00774197	18000.000000	0.00773011	18000.000000	0.015232  	18000.000000	7.56018e-08	
19000.000000	0.0257192 	19000.000000	0.0157881 	19000.000000	0.00778064	19000.000000	0.00776879	19000.000000	0.015788  	19000.000000	7.18443e-08	
20000.000000	0.0272972 	20000.000000	0.0163432 	20000.000000	0.00781736	20000.000000	0.00780546	20000.000000	0.0163431 	20000.000000	6.84518e-08	
21000.000000	0.0289202 	21000.000000	0.0168974 	21000.000000	0.00785221	21000.000000	0.00784031	21000.000000	0.0168973 	21000.000000	6.5373e-08	
22000.000000	0.0305881 	22000.000000	0.0174507 	22000.000000	0.00788507	22000.000000	0.0078735 	22000.000000	0.0174506 	22000.000000	6.25661e-08	
23000.000000	0.0323013 	23000.000000	0.0180031 	23000.000000	0.00791623	23000.000000	0.00790516	23000.000000	0.018003  	23000.000000	5.99963e-08	
24000.000000	0.0340597 	24000.000000	0.0185546 	24000.000000	0.00794622	24000.000000	0.00793544	24000.000000	0.0185545 	24000.000000	5.76345e-08	
25000.000000	0.0358635 	25000.000000	0.0191051 	25000.000000	0.00797525	25000.000000	0.00796443	25000.000000	0.0191051 	25000.000000	5.54562e-08	
26000.000000	0.0377129 	26000.000000	0.0196548 	26000.000000	0.008003  	26000.000000	0.00799223	26000.000000	0.0196548 	26000.000000	5.34407e-08	
27000.000000	0.0396081 	27000.000000	0.0202037 	27000.000000	0.00802933	27000.000000	0.00801894	27000.000000	0.0202036 	27000.000000	5.15703e-08	
28000.000000	0.0415493 	28000.000000	0.0207516 	28000.000000	0.00805453	28000.000000	0.00804463	28000.000000	0.0207516 	28000.000000	4.98296e-08	
29000.000000	0.0435366 	29000.000000	0.0212988 	29000.000000	0.00807885	29000.000000	0.00806937	29000.000000	0.0212987 	29000.000000	4.82055e-08	
30000.000000	0.0455703 	30000.000000	0.0218451 	30000.000000	0.00810238	30000.000000	0.00809322	30000.000000	0.0218451 	30000.000000	4.66866e-08	
32000.000000	0.0497777 	32000.000000	0.0229354 	32000.000000	0.00814708	32000.000000	0.00813851	32000.000000	0.0229353 	32000.000000	4.39257e-08	
34000.000000	0.0541731 	34000.000000	0.0240226 	34000.000000	0.0081888 	34000.000000	0.00818089	34000.000000	0.0240225 	34000.000000	4.14807e-08	
36000.000000	0.0587585 	36000.000000	0.0251069 	36000.000000	0.00822792	36000.000000	0.00822071	36000.000000	0.0251068 	36000.000000	3.92998e-08	
38000.000000	0.0635357 	38000.000000	0.0261884 	38000.000000	0.00826477	38000.000000	0.00825823	38000.000000	0.0261883 	38000.000000	3.73421e-08	
40000.000000	0.0685066 	40000.000000	0.0272672 	40000.000000	0.00829955	40000.000000	0.00829371	40000.000000	0.0272671 	40000.000000	3.55748e-08	
42000.000000	0.0736733 	42000.000000	0.0283434 	42000.000000	0.00833242	42000.000000	0.00832733	42000.000000	0.0283434 	42000.000000	3.39712e-08	
44000.000000	0.0790378 	44000.000000	0.0294172 	44000.000000	0.00836354	44000.000000	0.00835929	44000.000000	0.0294172 	44000.000000	3.25094e-08	
46000.000000	0.0846022 	46000.000000	0.0304887 	46000.000000	0.00839309	46000.000000	0.00838973	46000.000000	0.0304886 	46000.000000	3.11712e-08	
48000.000000	0.0903685 	48000.000000	0.0315578 	48000.000000	0.00842121	48000.000000	0.00841879	48000.000000	0.0315578 	48000.000000	2.99414e-08	
50000.000000	0.0963389 	50000.000000	0.0326248 	50000.000000	0.00844799	50000.000000	0.00844657	50000.000000	0.0326248 	50000.000000	2.88073e-08	
