Energy (MeV/u)1	0 - [He-base] F.Hubert et al, AD&ND Tables 46(1990)1	Energy (MeV/u)2	1 - [H -base] J.F.Ziegler et al, Pergamon Press, NY (low energy)	Energy (MeV/u)3	2 - ATIMA 1.2  LS-theory (recommended for high energy)	Energy (MeV/u)4	3 - ATIMA 1.2  without LS-correction	Energy (MeV/u)5	4 - electrical component of [1] - J.F.Ziegler et al	Energy (MeV/u)6	5 - nuclear component of [1] - J.F.Ziegler et al	
0.001000	6.79307   	0.001000	6.72498   	0.001000	6.51669   	0.001000	6.51669   	0.001000	1.80275   	0.001000	4.92223   	
0.002000	6.87213   	0.002000	6.74632   	0.002000	6.47668   	0.002000	6.47668   	0.002000	2.36314   	0.002000	4.38318   	
0.005000	7.0273    	0.005000	6.63012   	0.005000	6.25822   	0.005000	6.25822   	0.005000	3.38292   	0.005000	3.2472    	
0.008000	7.30716   	0.008000	6.68944   	0.008000	6.25519   	0.008000	6.25519   	0.008000	4.06814   	0.008000	2.62129   	
0.010000	7.51613   	0.010000	6.77931   	0.010000	6.31315   	0.010000	6.31315   	0.010000	4.44092   	0.010000	2.33839   	
0.015000	8.04541   	0.015000	7.0745    	0.015000	6.54679   	0.015000	6.54679   	0.015000	5.20881   	0.015000	1.86568   	
0.020000	8.74121   	0.020000	7.44669   	0.020000	6.95859   	0.020000	6.95859   	0.020000	5.87746   	0.020000	1.56924   	
0.025000	9.64067   	0.025000	8.0548    	0.025000	7.68471   	0.025000	7.68471   	0.025000	6.69154   	0.025000	1.36326   	
0.030000	10.4667   	0.030000	8.68612   	0.030000	8.40874   	0.030000	8.40874   	0.030000	7.47557   	0.030000	1.21055   	
0.035000	11.1992   	0.035000	9.32359   	0.035000	9.15891   	0.035000	9.15891   	0.035000	8.23145   	0.035000	1.09214   	
0.040000	11.8256   	0.040000	9.95663   	0.040000	9.92149   	0.040000	9.92149   	0.040000	8.95938   	0.040000	0.997249  	
0.045000	12.3335   	0.045000	10.5781   	0.045000	10.6873   	0.045000	10.6873   	0.045000	9.65884   	0.045000	0.919258  	
0.050000	12.735    	0.050000	11.1783   	0.050000	11.4454   	0.050000	11.4454   	0.050000	10.329    	0.050000	0.849295  	
0.055000	13.4179   	0.055000	11.8525   	0.055000	12.1982   	0.055000	12.1982   	0.055000	11.0607   	0.055000	0.791754  	
0.060000	14.0353   	0.060000	12.5161   	0.060000	12.9417   	0.060000	12.9417   	0.060000	11.772    	0.060000	0.744108  	
0.070000	15.0805   	0.070000	13.7941   	0.070000	14.3823   	0.070000	14.3823   	0.070000	13.1293   	0.070000	0.664801  	
0.080000	16.4216   	0.080000	15.1345   	0.080000	15.7516   	0.080000	15.7516   	0.080000	14.5317   	0.080000	0.602826  	
0.090000	17.6301   	0.090000	16.4687   	0.090000	17.0403   	0.090000	17.0403   	0.090000	15.9163   	0.090000	0.552409  	
0.100000	18.6924   	0.100000	17.7022   	0.100000	18.2446   	0.100000	18.2446   	0.100000	17.1917   	0.100000	0.510503  	
0.120000	20.0205   	0.120000	19.909    	0.120000	20.399    	0.120000	20.399    	0.120000	19.4644   	0.120000	0.444648  	
0.140000	21.0697   	0.140000	21.7529   	0.140000	22.2317   	0.140000	22.2317   	0.140000	21.3578   	0.140000	0.395062  	
0.160000	21.9917   	0.160000	23.2879   	0.160000	23.7764   	0.160000	23.7764   	0.160000	22.9317   	0.160000	0.356242  	
0.180000	22.8861   	0.180000	24.5903   	0.180000	25.0725   	0.180000	25.0725   	0.180000	24.2654   	0.180000	0.324941  	
0.200000	23.7905   	0.200000	25.7262   	0.200000	26.1592   	0.200000	26.1592   	0.200000	25.4271   	0.200000	0.299115  	
0.250000	25.2046   	0.250000	27.7686   	0.250000	28.1827   	0.250000	28.1827   	0.250000	27.518    	0.250000	0.250588  	
0.300000	26.5019   	0.300000	29.2413   	0.300000	29.5382   	0.300000	29.5382   	0.300000	29.0248   	0.300000	0.216515  	
0.350000	27.8597   	0.350000	30.5882   	0.350000	31.155    	0.350000	31.155    	0.350000	30.397    	0.350000	0.191159  	
0.400000	29.6143   	0.400000	32.3964   	0.400000	32.3919   	0.400000	32.3919   	0.400000	32.2249   	0.400000	0.171489  	
0.450000	31.0868   	0.450000	33.9252   	0.450000	33.3431   	0.450000	33.3431   	0.450000	33.7694   	0.450000	0.155747  	
0.500000	32.3174   	0.500000	35.2455   	0.500000	34.0938   	0.500000	34.0938   	0.500000	35.1026   	0.500000	0.14284   	
0.600000	33.0501   	0.600000	36.4945   	0.600000	35.1907   	0.600000	35.1907   	0.600000	36.3716   	0.600000	0.122879  	
0.700000	33.1355   	0.700000	37.3018   	0.700000	35.9301   	0.700000	35.9301   	0.700000	37.1936   	0.700000	0.108112  	
0.800000	34.0576   	0.800000	37.7891   	0.800000	36.4304   	0.800000	36.4304   	0.800000	37.6924   	0.800000	0.0967103 	
0.900000	34.6755   	0.900000	38.0105   	0.900000	36.7578   	0.900000	36.7578   	0.900000	37.9229   	0.900000	0.0876211 	
1.000000	35.0665   	1.000000	38.0324   	1.000000	36.9541   	1.000000	36.9541   	1.000000	37.9522   	1.000000	0.0801924 	
1.250000	34.8158   	1.250000	37.9436   	1.250000	37.044    	1.250000	37.044    	1.250000	37.8772   	1.250000	0.0664133 	
1.500000	34.1206   	1.500000	37.4644   	1.500000	36.7661   	1.500000	36.7661   	1.500000	37.4075   	1.500000	0.0568827 	
1.750000	33.2844   	1.750000	36.8652   	1.750000	36.2766   	1.750000	36.2766   	1.750000	36.8154   	1.750000	0.0498715 	
2.000000	32.0897   	2.000000	35.8669   	2.000000	35.453    	2.000000	35.453    	2.000000	35.8225   	2.000000	0.0444825 	
2.250000	31.0408   	2.250000	34.7438   	2.250000	34.63     	2.250000	34.63     	2.250000	34.7036   	2.250000	0.0402026 	
2.500000	35.5741   	2.500000	33.7437   	2.500000	33.8292   	2.500000	33.8292   	2.500000	33.7069   	2.500000	0.0367157 	
3.000000	33.4659   	3.000000	31.9579   	3.000000	32.3045   	3.000000	32.3045   	3.000000	31.9266   	3.000000	0.0313656 	
3.500000	31.5282   	3.500000	30.1982   	3.500000	30.8886   	3.500000	30.8886   	3.500000	30.1708   	3.500000	0.0274422 	
4.000000	29.7774   	4.000000	28.7421   	4.000000	29.5798   	4.000000	29.5798   	4.000000	28.7177   	4.000000	0.0244344 	
4.500000	28.2031   	4.500000	27.5148   	4.500000	28.3716   	4.500000	28.3716   	4.500000	27.4927   	4.500000	0.0220508 	
5.000000	26.787    	5.000000	26.3961   	5.000000	27.2558   	5.000000	27.2558   	5.000000	26.376    	5.000000	0.0201124 	
5.500000	25.5099   	5.500000	25.3942   	5.500000	26.2237   	5.500000	26.2237   	5.500000	25.3757   	5.500000	0.0185033 	
6.000000	24.3542   	6.000000	24.4709   	6.000000	25.2672   	6.000000	25.2672   	6.000000	24.4538   	6.000000	0.0171449 	
6.500000	23.3042   	6.500000	23.6117   	6.500000	24.3787   	6.500000	24.3787   	6.500000	23.5957   	6.500000	0.0159819 	
7.000000	22.3466   	7.000000	22.8107   	7.000000	23.5517   	7.000000	23.5517   	7.000000	22.7957   	7.000000	0.0149743 	
7.500000	21.4699   	7.500000	22.0627   	7.500000	22.7801   	7.500000	22.7801   	7.500000	22.0486   	7.500000	0.0140925 	
8.000000	20.6645   	8.000000	21.3627   	8.000000	22.0585   	8.000000	22.0585   	8.000000	21.3494   	8.000000	0.0133138 	
8.500000	19.922    	8.500000	20.7063   	8.500000	21.3824   	8.500000	21.3824   	8.500000	20.6937   	8.500000	0.0126209 	
9.000000	19.2353   	9.000000	20.0898   	9.000000	20.7476   	9.000000	20.7476   	9.000000	20.0778   	9.000000	0.0120001 	
9.500000	18.5983   	9.500000	19.5096   	9.500000	20.1503   	9.500000	20.1503   	9.500000	19.4981   	9.500000	0.0114406 	
10.000000	18.0057   	10.000000	19.543    	10.000000	19.5874   	10.000000	19.5874   	10.000000	19.532    	10.000000	0.0109335 	
11.000000	16.9365   	11.000000	18.5492   	11.000000	18.4757   	11.000000	18.5952   	11.000000	18.5392   	11.000000	0.0100492 	
12.000000	15.9976   	12.000000	17.6538   	12.000000	17.4894   	12.000000	17.7014   	12.000000	17.6445   	12.000000	0.00930351	
13.000000	15.1665   	13.000000	16.8436   	13.000000	16.609    	13.000000	16.8926   	13.000000	16.8349   	13.000000	0.00866578	
14.000000	14.4251   	14.000000	16.1073   	14.000000	15.8185   	14.000000	16.1577   	14.000000	16.0992   	14.000000	0.00811379	
15.000000	13.7596   	15.000000	15.4354   	15.000000	15.105    	15.000000	15.4875   	15.000000	15.4277   	15.000000	0.00763109	
16.000000	13.1586   	16.000000	14.8199   	16.000000	14.458    	16.000000	14.874    	16.000000	14.8127   	16.000000	0.00720519	
17.000000	12.613    	17.000000	14.2542   	17.000000	13.8689   	17.000000	14.3107   	17.000000	14.2474   	17.000000	0.00682649	
18.000000	12.1154   	18.000000	13.7324   	18.000000	13.3307   	18.000000	13.7918   	18.000000	13.726    	18.000000	0.00648743	
19.000000	11.6595   	19.000000	13.2497   	19.000000	12.8374   	19.000000	13.3124   	19.000000	13.2435   	19.000000	0.006182  	
20.000000	11.2403   	20.000000	12.8019   	20.000000	12.3838   	20.000000	12.8685   	20.000000	12.796    	20.000000	0.00590536	
21.000000	10.8534   	21.000000	12.3852   	21.000000	11.9653   	21.000000	12.4565   	21.000000	12.3795   	21.000000	0.00565356	
22.000000	10.4951   	22.000000	11.9966   	22.000000	11.5778   	22.000000	12.0732   	22.000000	11.9912   	22.000000	0.00542334	
23.000000	10.1623   	23.000000	11.6333   	23.000000	11.2185   	23.000000	11.7158   	23.000000	11.6281   	23.000000	0.00521201	
24.000000	9.85238   	24.000000	11.2929   	24.000000	10.8851   	24.000000	11.3821   	24.000000	11.2879   	24.000000	0.00501728	
25.000000	9.56294   	25.000000	10.9734   	25.000000	10.5753   	25.000000	11.0699   	25.000000	10.9685   	25.000000	0.00483726	
27.000000	9.0378    	27.000000	10.3895   	27.000000	10.0164   	27.000000	10.5028   	27.000000	10.385    	27.000000	0.00451502	
29.000000	8.57369   	29.000000	9.8693    	29.000000	9.52603   	29.000000	10.002    	29.000000	9.86506   	29.000000	0.00423482	
31.000000	8.16036   	31.000000	9.40281   	31.000000	9.09604   	31.000000	9.5372    	31.000000	9.39882   	31.000000	0.00398884	
33.000000	7.78976   	33.000000	8.98215   	33.000000	8.71125   	33.000000	9.10076   	33.000000	8.97838   	33.000000	0.00377107	
35.000000	7.45547   	35.000000	8.60086   	35.000000	8.36063   	35.000000	8.70608   	35.000000	8.59728   	35.000000	0.00357685	
38.000000	7.01104   	38.000000	8.09145   	38.000000	7.88905   	38.000000	8.18009   	38.000000	8.08813   	38.000000	0.00332186	
41.000000	6.62316   	41.000000	7.64474   	41.000000	7.47363   	41.000000	7.72005   	41.000000	7.64164   	41.000000	0.00310225	
44.000000	6.2815    	44.000000	7.24981   	44.000000	7.10413   	44.000000	7.31426   	44.000000	7.2469    	44.000000	0.00291105	
47.000000	5.97811   	47.000000	6.89816   	47.000000	6.77359   	47.000000	6.95362   	47.000000	6.89541   	47.000000	0.002743  	
50.000000	5.70679   	50.000000	6.58302   	50.000000	6.47646   	50.000000	6.631     	50.000000	6.58043   	50.000000	0.00259408	
55.000000	5.31293   	55.000000	6.12473   	55.000000	6.0424    	55.000000	6.1627    	55.000000	6.12235   	55.000000	0.00238019	
60.000000	4.97759   	60.000000	5.73404   	60.000000	5.67027   	60.000000	5.7643    	60.000000	5.73184   	60.000000	0.00220019	
65.000000	4.68841   	65.000000	5.39702   	65.000000	5.34768   	65.000000	5.42119   	65.000000	5.39497   	65.000000	0.00204653	
70.000000	4.43631   	70.000000	5.10331   	70.000000	5.06591   	70.000000	5.12258   	70.000000	5.1014    	70.000000	0.00191375	
75.000000	4.21445   	75.000000	4.84506   	75.000000	4.81658   	75.000000	4.86033   	75.000000	4.84326   	75.000000	0.00179781	
80.000000	4.0176    	80.000000	4.61621   	80.000000	4.5954    	80.000000	4.62814   	80.000000	4.61452   	80.000000	0.00169566	
85.000000	3.84167   	85.000000	4.41201   	85.000000	4.39788   	85.000000	4.42113   	85.000000	4.41041   	85.000000	0.00160494	
90.000000	3.68343   	90.000000	4.22867   	90.000000	4.21933   	90.000000	4.2354    	90.000000	4.22715   	90.000000	0.00152381	
95.000000	3.54028   	95.000000	4.06315   	95.000000	4.05854   	95.000000	4.0678    	95.000000	4.0617    	95.000000	0.00145082	
100.000000	3.41013   	100.000000	3.91296   	100.000000	3.9116    	100.000000	3.91582   	100.000000	3.91158   	100.000000	0.00138477	
105.000000	3.29123   	105.000000	3.77608   	105.000000	3.77803   	105.000000	3.77735   	105.000000	3.77475   	105.000000	0.00132471	
110.000000	3.18216   	110.000000	3.65079   	110.000000	3.65546   	110.000000	3.65066   	110.000000	3.64952   	110.000000	0.00126985	
115.000000	3.08173   	115.000000	3.5357    	115.000000	3.54237   	115.000000	3.53431   	115.000000	3.53448   	115.000000	0.00121953	
120.000000	2.98891   	120.000000	3.42959   	120.000000	3.43797   	120.000000	3.42709   	120.000000	3.42842   	120.000000	0.0011732 	
125.000000	2.90287   	125.000000	3.33146   	125.000000	3.34145   	125.000000	3.32794   	125.000000	3.33033   	125.000000	0.00113041	
130.000000	2.82285   	130.000000	3.24044   	130.000000	3.25184   	130.000000	3.23601   	130.000000	3.23935   	130.000000	0.00109075	
135.000000	2.74825   	135.000000	3.15578   	135.000000	3.16817   	135.000000	3.15052   	135.000000	3.15473   	135.000000	0.00105389	
140.000000	2.67851   	140.000000	3.07684   	140.000000	3.09029   	140.000000	3.07082   	140.000000	3.07582   	140.000000	0.00101954	
145.000000	2.61316   	145.000000	3.00305   	145.000000	3.0176    	145.000000	2.99634   	145.000000	3.00206   	145.000000	0.000987444	
150.000000	2.55179   	150.000000	2.93393   	150.000000	2.94924   	150.000000	2.92658   	150.000000	2.93297   	150.000000	0.00095739	
155.000000	2.46492   	155.000000	2.86904   	155.000000	2.88482   	155.000000	2.86112   	155.000000	2.86812   	155.000000	0.000929184	
160.000000	2.41422   	160.000000	2.80802   	160.000000	2.82426   	160.000000	2.79956   	160.000000	2.80712   	160.000000	0.000902658	
165.000000	2.36636   	165.000000	2.75052   	165.000000	2.76737   	165.000000	2.74157   	165.000000	2.74964   	165.000000	0.000877665	
170.000000	2.32112   	170.000000	2.69625   	170.000000	2.71356   	170.000000	2.68684   	170.000000	2.6954    	170.000000	0.000854074	
175.000000	2.27829   	175.000000	2.64494   	175.000000	2.66254   	175.000000	2.63512   	175.000000	2.64411   	175.000000	0.000831768	
180.000000	2.23767   	180.000000	2.59636   	180.000000	2.61424   	180.000000	2.58615   	180.000000	2.59555   	180.000000	0.000810644	
185.000000	2.19909   	185.000000	2.5503    	185.000000	2.56848   	185.000000	2.53974   	185.000000	2.54951   	185.000000	0.000790609	
190.000000	2.1624    	190.000000	2.50656   	190.000000	2.52503   	190.000000	2.49567   	190.000000	2.50579   	190.000000	0.00077158	
195.000000	2.12747   	195.000000	2.46498   	195.000000	2.48359   	195.000000	2.45379   	195.000000	2.46423   	195.000000	0.000753482	
200.000000	2.09417   	200.000000	2.4254    	200.000000	2.44407   	200.000000	2.41393   	200.000000	2.42466   	200.000000	0.000736247	
210.000000	2.03202   	210.000000	2.35168   	210.000000	2.37074   	210.000000	2.33972   	210.000000	2.35098   	210.000000	0.000704128	
220.000000	1.97517   	220.000000	2.28444   	220.000000	2.30369   	220.000000	2.27206   	220.000000	2.28376   	220.000000	0.000674799	
230.000000	1.92297   	230.000000	2.22286   	230.000000	2.24222   	230.000000	2.21013   	230.000000	2.22221   	230.000000	0.000647906	
240.000000	1.87486   	240.000000	2.16625   	240.000000	2.18573   	240.000000	2.15324   	240.000000	2.16563   	240.000000	0.000623154	
250.000000	1.83037   	250.000000	2.11405   	250.000000	2.13368   	250.000000	2.1008    	250.000000	2.11345   	250.000000	0.000600294	
260.000000	1.78912   	260.000000	2.06576   	260.000000	2.08541   	260.000000	2.05232   	260.000000	2.06518   	260.000000	0.000579115	
270.000000	1.75077   	270.000000	2.02096   	270.000000	2.04058   	270.000000	2.00738   	270.000000	2.0204    	270.000000	0.000559436	
280.000000	1.71501   	280.000000	1.97929   	280.000000	1.99906   	280.000000	1.9656    	280.000000	1.97875   	280.000000	0.0005411 	
290.000000	1.68159   	290.000000	1.94044   	290.000000	1.96022   	290.000000	1.92667   	290.000000	1.93992   	290.000000	0.000523973	
300.000000	1.6503    	300.000000	1.90414   	300.000000	1.92386   	300.000000	1.89032   	300.000000	1.90363   	300.000000	0.000507937	
310.000000	1.62094   	310.000000	1.87014   	310.000000	1.88991   	310.000000	1.8563    	310.000000	1.86965   	310.000000	0.000492891	
320.000000	1.59333   	320.000000	1.83824   	320.000000	1.85819   	320.000000	1.8244    	320.000000	1.83776   	320.000000	0.000478744	
330.000000	1.56732   	330.000000	1.80826   	330.000000	1.82829   	330.000000	1.79443   	330.000000	1.80779   	330.000000	0.000465416	
340.000000	1.54279   	340.000000	1.78002   	340.000000	1.80007   	340.000000	1.76623   	340.000000	1.77957   	340.000000	0.000452839	
350.000000	1.51961   	350.000000	1.75339   	350.000000	1.77349   	350.000000	1.73965   	350.000000	1.75295   	350.000000	0.000440949	
360.000000	1.49767   	360.000000	1.72823   	360.000000	1.74839   	360.000000	1.71457   	360.000000	1.7278    	360.000000	0.000429691	
370.000000	1.47688   	370.000000	1.70443   	370.000000	1.72454   	370.000000	1.69073   	370.000000	1.70401   	370.000000	0.000419015	
380.000000	1.45716   	380.000000	1.68189   	380.000000	1.70197   	380.000000	1.66816   	380.000000	1.68148   	380.000000	0.000408876	
390.000000	1.43842   	390.000000	1.6605    	390.000000	1.68055   	390.000000	1.64676   	390.000000	1.6601    	390.000000	0.000399235	
400.000000	1.42059   	400.000000	1.6402    	400.000000	1.66014   	400.000000	1.62646   	400.000000	1.63981   	400.000000	0.000390055	
410.000000	1.40362   	410.000000	1.62089   	410.000000	1.64073   	410.000000	1.60717   	410.000000	1.62051   	410.000000	0.000381304	
420.000000	1.38744   	420.000000	1.60252   	420.000000	1.62233   	420.000000	1.58882   	420.000000	1.60214   	420.000000	0.000372951	
430.000000	1.37201   	430.000000	1.58501   	430.000000	1.60486   	430.000000	1.57135   	430.000000	1.58464   	430.000000	0.000364971	
440.000000	1.35727   	440.000000	1.56831   	440.000000	1.5882    	440.000000	1.5547    	440.000000	1.56796   	440.000000	0.000357337	
450.000000	1.34317   	450.000000	1.55237   	450.000000	1.57229   	450.000000	1.53882   	450.000000	1.55202   	450.000000	0.000350028	
460.000000	1.32969   	460.000000	1.53714   	460.000000	1.55703   	460.000000	1.52365   	460.000000	1.5368    	460.000000	0.000343024	
470.000000	1.31678   	470.000000	1.52258   	470.000000	1.54243   	470.000000	1.50915   	470.000000	1.52225   	470.000000	0.000336305	
480.000000	1.30441   	480.000000	1.50864   	480.000000	1.52849   	480.000000	1.49529   	480.000000	1.50831   	480.000000	0.000329853	
490.000000	1.29255   	490.000000	1.4953    	490.000000	1.5152    	490.000000	1.48202   	490.000000	1.49497   	490.000000	0.000323654	
500.000000	1.28117   	500.000000	1.4825    	500.000000	1.50246   	500.000000	1.46931   	500.000000	1.48218   	500.000000	0.000317693	
520.000000	1.25974   	520.000000	1.45845   	520.000000	1.47843   	520.000000	1.44543   	520.000000	1.45814   	520.000000	0.000306428	
540.000000	1.23993   	540.000000	1.43626   	540.000000	1.45623   	540.000000	1.42343   	540.000000	1.43597   	540.000000	0.000295964	
560.000000	1.22157   	560.000000	1.41575   	560.000000	1.43578   	560.000000	1.40311   	560.000000	1.41546   	560.000000	0.000286215	
580.000000	1.20453   	580.000000	1.39673   	580.000000	1.41691   	580.000000	1.38429   	580.000000	1.39646   	580.000000	0.000277112	
600.000000	1.18868   	600.000000	1.37908   	600.000000	1.39935   	600.000000	1.36683   	600.000000	1.37881   	600.000000	0.00026859	
620.000000	1.17391   	620.000000	1.36265   	620.000000	1.38297   	620.000000	1.3506    	620.000000	1.36239   	620.000000	0.000260595	
640.000000	1.16012   	640.000000	1.34734   	640.000000	1.36771   	640.000000	1.33548   	640.000000	1.34708   	640.000000	0.000253079	
660.000000	1.14724   	660.000000	1.33304   	660.000000	1.35348   	660.000000	1.32137   	660.000000	1.3328    	660.000000	0.000246  	
680.000000	1.13517   	680.000000	1.31968   	680.000000	1.34017   	680.000000	1.30819   	680.000000	1.31944   	680.000000	0.00023932	
700.000000	1.12387   	700.000000	1.30717   	700.000000	1.32772   	700.000000	1.29585   	700.000000	1.30693   	700.000000	0.000233007	
720.000000	1.11326   	720.000000	1.29544   	720.000000	1.31604   	720.000000	1.28428   	720.000000	1.29521   	720.000000	0.00022703	
740.000000	1.1033    	740.000000	1.28443   	740.000000	1.30508   	740.000000	1.27342   	740.000000	1.28421   	740.000000	0.000221362	
760.000000	1.09393   	760.000000	1.27409   	760.000000	1.29477   	760.000000	1.26322   	760.000000	1.27387   	760.000000	0.000215981	
780.000000	1.08512   	780.000000	1.26436   	780.000000	1.28508   	780.000000	1.25362   	780.000000	1.26415   	780.000000	0.000210865	
800.000000	1.07682   	800.000000	1.25521   	800.000000	1.27595   	800.000000	1.24458   	800.000000	1.255     	800.000000	0.000205993	
820.000000	1.069     	820.000000	1.24658   	820.000000	1.26733   	820.000000	1.23605   	820.000000	1.24638   	820.000000	0.00020135	
840.000000	1.06163   	840.000000	1.23845   	840.000000	1.2592    	840.000000	1.228     	840.000000	1.23825   	840.000000	0.000196919	
860.000000	1.05467   	860.000000	1.23077   	860.000000	1.25152   	860.000000	1.2204    	860.000000	1.23058   	860.000000	0.000192686	
880.000000	1.04811   	880.000000	1.22353   	880.000000	1.24426   	880.000000	1.21322   	880.000000	1.22334   	880.000000	0.000188638	
900.000000	1.04191   	900.000000	1.21669   	900.000000	1.23738   	900.000000	1.20642   	900.000000	1.2165    	900.000000	0.000184762	
920.000000	1.03605   	920.000000	1.21022   	920.000000	1.23087   	920.000000	1.19998   	920.000000	1.21003   	920.000000	0.000181047	
940.000000	1.03051   	940.000000	1.2041    	940.000000	1.2247    	940.000000	1.19387   	940.000000	1.20392   	940.000000	0.000177485	
960.000000	1.02528   	960.000000	1.19831   	960.000000	1.21884   	960.000000	1.18808   	960.000000	1.19814   	960.000000	0.000174065	
980.000000	1.02034   	980.000000	1.19283   	980.000000	1.21328   	980.000000	1.18259   	980.000000	1.19266   	980.000000	0.000170779	
1000.000000	1.01566   	1000.000000	1.18765   	1000.000000	1.208     	1000.000000	1.17738   	1000.000000	1.18748   	1000.000000	0.000167619	
1020.000000	1.01124   	1020.000000	1.18274   	1020.000000	1.20299   	1020.000000	1.17242   	1020.000000	1.18258   	1020.000000	0.000164578	
1040.000000	1.00706   	1040.000000	1.17809   	1040.000000	1.19823   	1040.000000	1.16771   	1040.000000	1.17793   	1040.000000	0.000161649	
1060.000000	1.00311   	1060.000000	1.17369   	1060.000000	1.1937    	1060.000000	1.16323   	1060.000000	1.17353   	1060.000000	0.000158827	
1080.000000	0.999376  	1080.000000	1.16952   	1080.000000	1.18939   	1080.000000	1.15897   	1080.000000	1.16936   	1080.000000	0.000156105	
1100.000000	0.995847  	1100.000000	1.16557   	1100.000000	1.18527   	1100.000000	1.15491   	1100.000000	1.16541   	1100.000000	0.000153477	
1120.000000	0.992513  	1120.000000	1.16182   	1120.000000	1.18134   	1120.000000	1.15104   	1120.000000	1.16167   	1120.000000	0.00015094	
1140.000000	0.989365  	1140.000000	1.15828   	1140.000000	1.17758   	1140.000000	1.14736   	1140.000000	1.15813   	1140.000000	0.000148489	
1160.000000	0.986394  	1160.000000	1.15492   	1160.000000	1.174     	1160.000000	1.14385   	1160.000000	1.15477   	1160.000000	0.000146118	
1180.000000	0.983591  	1180.000000	1.15174   	1180.000000	1.17058   	1180.000000	1.1405    	1180.000000	1.15159   	1180.000000	0.000143825	
1200.000000	0.980948  	1200.000000	1.14872   	1200.000000	1.16732   	1200.000000	1.13731   	1200.000000	1.14858   	1200.000000	0.000141605	
1220.000000	0.978458  	1220.000000	1.14587   	1220.000000	1.16422   	1220.000000	1.13426   	1220.000000	1.14574   	1220.000000	0.000139455	
1240.000000	0.976114  	1240.000000	1.14318   	1240.000000	1.16127   	1240.000000	1.13135   	1240.000000	1.14304   	1240.000000	0.000137372	
1260.000000	0.97391   	1260.000000	1.14063   	1260.000000	1.15845   	1260.000000	1.12858   	1260.000000	1.14049   	1260.000000	0.000135352	
1280.000000	0.971839  	1280.000000	1.13822   	1280.000000	1.15577   	1280.000000	1.12593   	1280.000000	1.13808   	1280.000000	0.000133393	
1300.000000	0.969896  	1300.000000	1.13594   	1300.000000	1.15321   	1300.000000	1.1234    	1300.000000	1.13581   	1300.000000	0.000131492	
1320.000000	0.968075  	1320.000000	1.13379   	1320.000000	1.15076   	1320.000000	1.12098   	1320.000000	1.13366   	1320.000000	0.000129646	
1340.000000	0.966372  	1340.000000	1.13176   	1340.000000	1.14843   	1340.000000	1.11867   	1340.000000	1.13163   	1340.000000	0.000127853	
1360.000000	0.964781  	1360.000000	1.12985   	1360.000000	1.14619   	1360.000000	1.11647   	1360.000000	1.12972   	1360.000000	0.000126111	
1380.000000	0.963297  	1380.000000	1.12805   	1380.000000	1.14405   	1380.000000	1.11436   	1380.000000	1.12792   	1380.000000	0.000124417	
1400.000000	0.961918  	1400.000000	1.12635   	1400.000000	1.14201   	1400.000000	1.11234   	1400.000000	1.12623   	1400.000000	0.00012277	
1420.000000	0.960638  	1420.000000	1.12476   	1420.000000	1.14005   	1420.000000	1.11042   	1420.000000	1.12464   	1420.000000	0.000121167	
1440.000000	0.959454  	1440.000000	1.12327   	1440.000000	1.13817   	1440.000000	1.10858   	1440.000000	1.12315   	1440.000000	0.000119607	
1460.000000	0.958362  	1460.000000	1.12187   	1460.000000	1.13637   	1460.000000	1.10682   	1460.000000	1.12175   	1460.000000	0.000118088	
1480.000000	0.957358  	1480.000000	1.12056   	1480.000000	1.13464   	1480.000000	1.10514   	1480.000000	1.12044   	1480.000000	0.000116609	
1500.000000	0.95644   	1500.000000	1.11934   	1500.000000	1.13299   	1500.000000	1.10353   	1500.000000	1.11922   	1500.000000	0.000115167	
1520.000000	0.955605  	1520.000000	1.1182    	1520.000000	1.13141   	1520.000000	1.10199   	1520.000000	1.11808   	1520.000000	0.000113762	
1540.000000	0.954848  	1540.000000	1.11714   	1540.000000	1.1299    	1540.000000	1.10052   	1540.000000	1.11703   	1540.000000	0.000112392	
1560.000000	0.954168  	1560.000000	1.11616   	1560.000000	1.12846   	1560.000000	1.09912   	1560.000000	1.11604   	1560.000000	0.000111056	
1580.000000	0.953562  	1580.000000	1.11525   	1580.000000	1.12708   	1580.000000	1.09778   	1580.000000	1.11514   	1580.000000	0.000109752	
1600.000000	0.953028  	1600.000000	1.11441   	1600.000000	1.12577   	1600.000000	1.0965    	1600.000000	1.1143    	1600.000000	0.00010848	
1620.000000	0.952562  	1620.000000	1.11365   	1620.000000	1.12451   	1620.000000	1.09527   	1620.000000	1.11354   	1620.000000	0.000107237	
1640.000000	0.952162  	1640.000000	1.11294   	1640.000000	1.12332   	1640.000000	1.0941    	1640.000000	1.11284   	1640.000000	0.000106024	
1660.000000	0.951828  	1660.000000	1.11231   	1660.000000	1.12218   	1660.000000	1.09299   	1660.000000	1.1122    	1660.000000	0.000104839	
1680.000000	0.951555  	1680.000000	1.11173   	1680.000000	1.12109   	1680.000000	1.09192   	1680.000000	1.11163   	1680.000000	0.000103682	
1700.000000	0.951343  	1700.000000	1.11122   	1700.000000	1.12005   	1700.000000	1.0909    	1700.000000	1.11111   	1700.000000	0.00010255	
1750.000000	0.951063  	1750.000000	1.11018   	1750.000000	1.11766   	1750.000000	1.08855   	1750.000000	1.11008   	1750.000000	9.98295e-05	
1800.000000	0.951121  	1800.000000	1.10947   	1800.000000	1.11553   	1800.000000	1.08647   	1800.000000	1.10937   	1800.000000	9.72545e-05	
1850.000000	0.951492  	1850.000000	1.10906   	1850.000000	1.11364   	1850.000000	1.08463   	1850.000000	1.10896   	1850.000000	9.48135e-05	
1900.000000	0.952152  	1900.000000	1.10893   	1900.000000	1.11196   	1900.000000	1.083     	1900.000000	1.10884   	1900.000000	9.2496e-05	
1950.000000	0.953083  	1950.000000	1.10906   	1950.000000	1.11049   	1950.000000	1.08157   	1950.000000	1.10897   	1950.000000	9.02929e-05	
2000.000000	0.954265  	2000.000000	1.10943   	2000.000000	1.10919   	2000.000000	1.08032   	2000.000000	1.10934   	2000.000000	8.81958e-05	
2100.000000	0.957322  	2100.000000	1.11082   	2100.000000	1.10708   	2100.000000	1.0783    	2100.000000	1.11074   	2100.000000	8.42901e-05	
2200.000000	0.961207  	2200.000000	1.11298   	2200.000000	1.10554   	2200.000000	1.07683   	2200.000000	1.1129    	2200.000000	8.07263e-05	
2300.000000	0.965825  	2300.000000	1.1158    	2300.000000	1.10446   	2300.000000	1.07583   	2300.000000	1.11573   	2300.000000	7.74611e-05	
2400.000000	0.971097  	2400.000000	1.11921   	2400.000000	1.10378   	2400.000000	1.07522   	2400.000000	1.11914   	2400.000000	7.4458e-05	
2500.000000	0.976953  	2500.000000	1.12314   	2500.000000	1.10343   	2500.000000	1.07494   	2500.000000	1.12306   	2500.000000	7.16863e-05	
2600.000000	0.983338  	2600.000000	1.12751   	2600.000000	1.10337   	2600.000000	1.07495   	2600.000000	1.12744   	2600.000000	6.91201e-05	
2700.000000	0.9902    	2700.000000	1.13229   	2700.000000	1.10356   	2700.000000	1.07519   	2700.000000	1.13222   	2700.000000	6.6737e-05	
2800.000000	0.997498  	2800.000000	1.13743   	2800.000000	1.10396   	2800.000000	1.07565   	2800.000000	1.13736   	2800.000000	6.45179e-05	
2900.000000	1.00519   	2900.000000	1.14289   	2900.000000	1.10455   	2900.000000	1.07628   	2900.000000	1.14282   	2900.000000	6.24463e-05	
3000.000000	1.01326   	3000.000000	1.14864   	3000.000000	1.1053    	3000.000000	1.07707   	3000.000000	1.14857   	3000.000000	6.05078e-05	
3200.000000	1.03037   	3200.000000	1.16089   	3200.000000	1.10719   	3200.000000	1.07901   	3200.000000	1.16083   	3200.000000	5.69813e-05	
3400.000000	1.04865   	3400.000000	1.17399   	3400.000000	1.10947   	3400.000000	1.08135   	3400.000000	1.17394   	3400.000000	5.38551e-05	
3600.000000	1.06796   	3600.000000	1.18781   	3600.000000	1.11205   	3600.000000	1.08397   	3600.000000	1.18776   	3600.000000	5.10641e-05	
3800.000000	1.08816   	3800.000000	1.20222   	3800.000000	1.11484   	3800.000000	1.0868    	3800.000000	1.20217   	3800.000000	4.85566e-05	
4000.000000	1.10918   	4000.000000	1.21713   	4000.000000	1.11778   	4000.000000	1.08979   	4000.000000	1.21708   	4000.000000	4.62911e-05	
4200.000000	1.13092   	4200.000000	1.23246   	4200.000000	1.12083   	4200.000000	1.09288   	4200.000000	1.23241   	4200.000000	4.42338e-05	
4400.000000	1.15333   	4400.000000	1.24815   	4400.000000	1.12395   	4400.000000	1.09604   	4400.000000	1.24811   	4400.000000	4.23569e-05	
4600.000000	1.17636   	4600.000000	1.26416   	4600.000000	1.12712   	4600.000000	1.09925   	4600.000000	1.26412   	4600.000000	4.06376e-05	
4800.000000	1.19995   	4800.000000	1.28044   	4800.000000	1.13031   	4800.000000	1.10248   	4800.000000	1.2804    	4800.000000	3.90566e-05	
5000.000000	1.22408   	5000.000000	1.29695   	5000.000000	1.13351   	5000.000000	1.10572   	5000.000000	1.29691   	5000.000000	3.75977e-05	
5250.000000	1.25493   	5250.000000	1.31787   	5250.000000	1.13751   	5250.000000	1.10977   	5250.000000	1.31784   	5250.000000	3.59249e-05	
5500.000000	1.28652   	5500.000000	1.33907   	5500.000000	1.14148   	5500.000000	1.11379   	5500.000000	1.33903   	5500.000000	3.4399e-05	
6000.000000	1.35172   	6000.000000	1.38212   	6000.000000	1.14931   	6000.000000	1.1217    	6000.000000	1.38209   	6000.000000	3.1716e-05	
6500.000000	1.41939   	6500.000000	1.42586   	6500.000000	1.15693   	6500.000000	1.12938   	6500.000000	1.42583   	6500.000000	2.94322e-05	
7000.000000	1.48934   	7000.000000	1.47011   	7000.000000	1.16431   	7000.000000	1.13681   	7000.000000	1.47008   	7000.000000	2.74638e-05	
7500.000000	1.56142   	7500.000000	1.51474   	7500.000000	1.17144   	7500.000000	1.14398   	7500.000000	1.51472   	7500.000000	2.57493e-05	
8000.000000	1.63553   	8000.000000	1.55967   	8000.000000	1.17823   	8000.000000	1.15087   	8000.000000	1.55964   	8000.000000	2.42421e-05	
8500.000000	1.71158   	8500.000000	1.60482   	8500.000000	1.18478   	8500.000000	1.1575    	8500.000000	1.60479   	8500.000000	2.29064e-05	
9000.000000	1.78951   	9000.000000	1.65014   	9000.000000	1.19112   	9000.000000	1.16387   	9000.000000	1.65011   	9000.000000	2.17142e-05	
9500.000000	1.86926   	9500.000000	1.69558   	9500.000000	1.19721   	9500.000000	1.17      	9500.000000	1.69556   	9500.000000	2.06434e-05	
10000.000000	1.9508    	10000.000000	1.74112   	10000.000000	1.20304   	10000.000000	1.1759    	10000.000000	1.7411    	10000.000000	1.96761e-05	
11000.000000	2.11909   	11000.000000	1.83239   	11000.000000	1.21404   	11000.000000	1.18705   	11000.000000	1.83237   	11000.000000	1.7997e-05	
12000.000000	2.29419   	12000.000000	1.92379   	12000.000000	1.22428   	12000.000000	1.19743   	12000.000000	1.92377   	12000.000000	1.65891e-05	
13000.000000	2.47596   	13000.000000	2.01522   	13000.000000	1.23383   	13000.000000	1.20711   	13000.000000	2.01521   	13000.000000	1.53909e-05	
14000.000000	2.66433   	14000.000000	2.10663   	14000.000000	1.24276   	14000.000000	1.21618   	14000.000000	2.10662   	14000.000000	1.43585e-05	
15000.000000	2.85922   	15000.000000	2.19797   	15000.000000	1.25112   	15000.000000	1.2247    	15000.000000	2.19795   	15000.000000	1.34595e-05	
16000.000000	3.06061   	16000.000000	2.28921   	16000.000000	1.25897   	16000.000000	1.23273   	16000.000000	2.28919   	16000.000000	1.26694e-05	
17000.000000	3.26847   	17000.000000	2.38033   	17000.000000	1.26637   	17000.000000	1.24032   	17000.000000	2.38032   	17000.000000	1.19692e-05	
18000.000000	3.48279   	18000.000000	2.47132   	18000.000000	1.27336   	18000.000000	1.24751   	18000.000000	2.47131   	18000.000000	1.13445e-05	
19000.000000	3.70356   	19000.000000	2.56217   	19000.000000	1.27999   	19000.000000	1.25434   	19000.000000	2.56216   	19000.000000	1.07834e-05	
20000.000000	3.9308    	20000.000000	2.65287   	20000.000000	1.28629   	20000.000000	1.26084   	20000.000000	2.65286   	20000.000000	1.02767e-05	
21000.000000	4.1645    	21000.000000	2.74343   	21000.000000	1.29229   	21000.000000	1.26704   	21000.000000	2.74342   	21000.000000	9.81673e-06	
22000.000000	4.40469   	22000.000000	2.83384   	22000.000000	1.29801   	22000.000000	1.27297   	22000.000000	2.83383   	22000.000000	9.39727e-06	
23000.000000	4.65138   	23000.000000	2.92411   	23000.000000	1.30345   	23000.000000	1.27865   	23000.000000	2.9241    	23000.000000	9.01316e-06	
24000.000000	4.90459   	24000.000000	3.01422   	24000.000000	1.30864   	24000.000000	1.28409   	24000.000000	3.01421   	24000.000000	8.66005e-06	
25000.000000	5.16434   	25000.000000	3.10419   	25000.000000	1.31361   	25000.000000	1.28932   	25000.000000	3.10418   	25000.000000	8.33432e-06	
26000.000000	5.43066   	26000.000000	3.19402   	26000.000000	1.3184    	26000.000000	1.29435   	26000.000000	3.19401   	26000.000000	8.03286e-06	
27000.000000	5.70357   	27000.000000	3.28371   	27000.000000	1.32301   	27000.000000	1.2992    	27000.000000	3.2837    	27000.000000	7.75304e-06	
28000.000000	5.9831    	28000.000000	3.37326   	28000.000000	1.32744   	28000.000000	1.30387   	28000.000000	3.37325   	28000.000000	7.49258e-06	
29000.000000	6.26928   	29000.000000	3.46267   	29000.000000	1.33169   	29000.000000	1.30839   	29000.000000	3.46266   	29000.000000	7.24953e-06	
30000.000000	6.56213   	30000.000000	3.55195   	30000.000000	1.33577   	30000.000000	1.31275   	30000.000000	3.55194   	30000.000000	7.02218e-06	
32000.000000	7.16799   	32000.000000	3.73012   	32000.000000	1.3435    	32000.000000	1.32106   	32000.000000	3.73011   	32000.000000	6.60882e-06	
34000.000000	7.80093   	34000.000000	3.9078    	34000.000000	1.3507    	34000.000000	1.32888   	34000.000000	3.90779   	34000.000000	6.24263e-06	
36000.000000	8.46122   	36000.000000	4.08499   	36000.000000	1.35742   	36000.000000	1.33625   	36000.000000	4.08499   	36000.000000	5.91592e-06	
38000.000000	9.14913   	38000.000000	4.26174   	38000.000000	1.36372   	38000.000000	1.34323   	38000.000000	4.26173   	38000.000000	5.62256e-06	
40000.000000	9.86495   	40000.000000	4.43804   	40000.000000	1.36963   	40000.000000	1.34985   	40000.000000	4.43804   	40000.000000	5.35766e-06	
42000.000000	10.609    	42000.000000	4.61393   	42000.000000	1.37521   	42000.000000	1.35615   	42000.000000	4.61393   	42000.000000	5.11724e-06	
44000.000000	11.3814   	44000.000000	4.78942   	44000.000000	1.38049   	44000.000000	1.36216   	44000.000000	4.78942   	44000.000000	4.89802e-06	
46000.000000	12.1827   	46000.000000	4.96453   	46000.000000	1.3855    	46000.000000	1.3679    	46000.000000	4.96452   	46000.000000	4.69729e-06	
48000.000000	13.0131   	48000.000000	5.13926   	48000.000000	1.39027   	48000.000000	1.37339   	48000.000000	5.13926   	48000.000000	4.51279e-06	
50000.000000	13.8728   	50000.000000	5.31365   	50000.000000	1.39477   	50000.000000	1.37866   	50000.000000	5.31364   	50000.000000	4.34261e-06	
