0.001000	11.0136   	0.001000	7.74183   	0.001000	7.20594   	0.001000	7.20594   	0.001000	1.40978   	0.001000	6.33205   	
0.002000	11.3192   	0.002000	8.10928   	0.002000	7.39238   	0.002000	7.39238   	0.002000	1.95269   	0.002000	6.15658   	
0.005000	11.3259   	0.005000	8.15775   	0.005000	7.10785   	0.005000	7.10785   	0.005000	3.00377   	0.005000	5.15399   	
0.008000	11.4159   	0.008000	8.15403   	0.008000	6.87915   	0.008000	6.87915   	0.008000	3.7463    	0.008000	4.40774   	
0.010000	11.535    	0.010000	8.1927    	0.010000	6.79526   	0.010000	6.79526   	0.010000	4.16054   	0.010000	4.03215   	
0.015000	11.9324   	0.015000	8.38716   	0.015000	6.73723   	0.015000	6.73723   	0.015000	5.034     	0.015000	3.35317   	
0.020000	12.3851   	0.020000	8.6575    	0.020000	6.80225   	0.020000	6.80225   	0.020000	5.76281   	0.020000	2.89469   	
0.025000	12.8477   	0.025000	8.9612    	0.025000	6.92994   	0.025000	6.92994   	0.025000	6.40003   	0.025000	2.56117   	
0.030000	13.3035   	0.030000	9.2785    	0.030000	7.09159   	0.030000	7.09159   	0.030000	6.97264   	0.030000	2.30586   	
0.035000	13.7465   	0.035000	9.59965   	0.035000	7.27226   	0.035000	7.27226   	0.035000	7.49656   	0.035000	2.10309   	
0.040000	14.1744   	0.040000	9.91963   	0.040000	7.46358   	0.040000	7.46358   	0.040000	7.98212   	0.040000	1.93751   	
0.045000	14.5871   	0.045000	10.2358   	0.045000	7.6606    	0.045000	7.6606    	0.045000	8.43645   	0.045000	1.79933   	
0.050000	15.0309   	0.050000	10.5566   	0.050000	7.87263   	0.050000	7.87263   	0.050000	8.87464   	0.050000	1.68198   	
0.055000	15.8665   	0.055000	11.1869   	0.055000	8.51307   	0.055000	8.51307   	0.055000	9.60604   	0.055000	1.58089   	
0.060000	16.6414   	0.060000	11.7951   	0.060000	9.18026   	0.060000	9.18026   	0.060000	10.3024   	0.060000	1.49276   	
0.070000	17.9908   	0.070000	12.9389   	0.070000	10.5651   	0.070000	10.5651   	0.070000	11.5928   	0.070000	1.34616   	
0.080000	19.4807   	0.080000	13.9853   	0.080000	11.9748   	0.080000	11.9748   	0.080000	12.7565   	0.080000	1.22876   	
0.090000	20.8049   	0.090000	14.9402   	0.090000	13.368    	0.090000	13.368    	0.090000	13.8079   	0.090000	1.13232   	
0.100000	21.9939   	0.100000	15.8132   	0.100000	14.7135   	0.100000	14.7135   	0.100000	14.7617   	0.100000	1.0515    	
0.120000	23.5378   	0.120000	17.3441   	0.120000	17.173    	0.120000	17.173    	0.120000	16.4293   	0.120000	0.914797  	
0.140000	24.8416   	0.140000	18.6664   	0.140000	19.2869   	0.140000	19.2869   	0.140000	17.8482   	0.140000	0.818111  	
0.160000	26.0808   	0.160000	19.8239   	0.160000	21.0484   	0.160000	21.0484   	0.160000	19.0823   	0.160000	0.741618  	
0.180000	27.9004   	0.180000	21.3001   	0.180000	22.5044   	0.180000	22.5044   	0.180000	20.6207   	0.180000	0.679421  	
0.200000	29.6651   	0.200000	22.6567   	0.200000	23.7149   	0.200000	23.7149   	0.200000	22.029    	0.200000	0.627746  	
0.250000	32.8909   	0.250000	25.5034   	0.250000	26.0167   	0.250000	26.0167   	0.250000	24.9736   	0.250000	0.529758  	
0.300000	35.8034   	0.300000	27.7764   	0.300000	27.732    	0.300000	27.732    	0.300000	27.3162   	0.300000	0.460231  	
0.350000	38.4189   	0.350000	29.644    	0.350000	29.1588   	0.350000	29.1588   	0.350000	29.2359   	0.350000	0.408084  	
0.400000	41.269    	0.400000	31.5945   	0.400000	30.4221   	0.400000	30.4221   	0.400000	31.2272   	0.400000	0.367381  	
0.450000	43.9327   	0.450000	33.3976   	0.450000	31.573    	0.450000	31.573    	0.450000	33.0629   	0.450000	0.334643  	
0.500000	46.2591   	0.500000	34.9394   	0.500000	32.633    	0.500000	32.633    	0.500000	34.6317   	0.500000	0.307686  	
0.600000	48.3959   	0.600000	37.4254   	0.600000	34.6625   	0.600000	34.6625   	0.600000	37.1596   	0.600000	0.265788  	
0.700000	49.4199   	0.700000	39.3246   	0.700000	36.8679   	0.700000	36.8679   	0.700000	39.09     	0.700000	0.234618  	
0.800000	51.6314   	0.800000	40.8039   	0.800000	38.6864   	0.800000	38.6864   	0.800000	40.5935   	0.800000	0.210445  	
0.900000	53.3573   	0.900000	41.9719   	0.900000	40.1915   	0.900000	40.1915   	0.900000	41.7808   	0.900000	0.191103  	
1.000000	54.7042   	1.000000	42.9025   	1.000000	41.4404   	1.000000	41.4404   	1.000000	42.7273   	1.000000	0.175246  	
1.250000	56.754    	1.250000	44.5002   	1.250000	43.7173   	1.250000	43.7173   	1.250000	44.3545   	1.250000	0.145709  	
1.500000	57.3279   	1.500000	45.1229   	1.500000	45.1464   	1.500000	45.1464   	1.500000	44.9977   	1.500000	0.125177  	
1.750000	57.3585   	1.750000	45.4172   	1.750000	46.0194   	1.750000	46.0194   	1.750000	45.3072   	1.750000	0.110015  	
2.000000	57.0566   	2.000000	45.5024   	2.000000	46.5154   	2.000000	46.5154   	2.000000	45.4041   	2.000000	0.0983247 	
2.250000	56.515    	2.250000	45.3485   	2.250000	46.749    	2.250000	46.749    	2.250000	45.2594   	2.250000	0.0890162 	
2.500000	77.5972   	2.500000	45.0112   	2.500000	46.7962   	2.500000	46.7962   	2.500000	44.9298   	2.500000	0.0814159 	
3.000000	74.6312   	3.000000	44.3026   	3.000000	46.5237   	3.000000	46.5237   	3.000000	44.2329   	3.000000	0.0697232 	
3.500000	71.5759   	3.500000	43.5652   	3.500000	45.956    	3.500000	45.956    	3.500000	43.504    	3.500000	0.0611227 	
4.000000	68.6145   	4.000000	42.8237   	4.000000	45.0665   	4.000000	45.0665   	4.000000	42.7691   	4.000000	0.0545132 	
4.500000	65.8175   	4.500000	42.078    	4.500000	44.1132   	4.500000	44.1132   	4.500000	42.0288   	4.500000	0.0492644 	
5.000000	63.2065   	5.000000	41.3416   	5.000000	43.1733   	5.000000	43.1733   	5.000000	41.2966   	5.000000	0.0449886 	
5.500000	60.7816   	5.500000	40.6151   	5.500000	42.2556   	5.500000	42.2556   	5.500000	40.5737   	5.500000	0.0414338 	
6.000000	58.5332   	6.000000	39.8991   	6.000000	41.3648   	6.000000	41.3648   	6.000000	39.8607   	6.000000	0.0384288 	
6.500000	56.4486   	6.500000	39.1817   	6.500000	40.5034   	6.500000	40.5034   	6.500000	39.1458   	6.500000	0.035853  	
7.000000	54.5136   	7.000000	38.4846   	7.000000	39.6723   	7.000000	39.6723   	7.000000	38.451    	7.000000	0.033619  	
7.500000	52.7147   	7.500000	37.8157   	7.500000	38.8716   	7.500000	38.8716   	7.500000	37.784    	7.500000	0.0316618 	
8.000000	51.0393   	8.000000	37.1721   	8.000000	38.1007   	8.000000	38.1007   	8.000000	37.1422   	8.000000	0.029932  	
8.500000	49.4757   	8.500000	36.5531   	8.500000	37.3588   	8.500000	37.3588   	8.500000	36.5247   	8.500000	0.0283915 	
9.000000	48.0136   	9.000000	35.9526   	9.000000	36.6449   	9.000000	36.6449   	9.000000	35.9256   	9.000000	0.0270103 	
9.500000	46.6436   	9.500000	35.3693   	9.500000	35.9578   	9.500000	35.9578   	9.500000	35.3435   	9.500000	0.0257645 	
10.000000	45.3575   	10.000000	35.1378   	10.000000	35.2962   	10.000000	35.2962   	10.000000	35.1132   	10.000000	0.0246346 	
11.000000	43.0077   	11.000000	33.9921   	11.000000	33.8233   	11.000000	34.2488   	11.000000	33.9694   	11.000000	0.0226627 	
12.000000	40.9141   	12.000000	32.8983   	12.000000	32.4674   	12.000000	33.2439   	12.000000	32.8773   	12.000000	0.020998  	
13.000000	39.0365   	13.000000	31.8604   	13.000000	31.2175   	13.000000	32.2846   	13.000000	31.8408   	13.000000	0.0195729 	
14.000000	37.3427   	14.000000	30.8788   	14.000000	30.0623   	14.000000	31.3713   	14.000000	30.8604   	14.000000	0.0183383 	
15.000000	35.8065   	15.000000	29.9519   	15.000000	28.991    	15.000000	30.5031   	15.000000	29.9347   	15.000000	0.0172578 	
16.000000	34.4064   	16.000000	29.0774   	16.000000	27.9967   	16.000000	29.6782   	16.000000	29.0611   	16.000000	0.0163037 	
17.000000	33.1247   	17.000000	28.252    	17.000000	27.0722   	17.000000	28.8946   	17.000000	28.2366   	17.000000	0.0154548 	
18.000000	31.9467   	18.000000	27.4727   	18.000000	26.2092   	18.000000	28.1501   	18.000000	27.458    	18.000000	0.0146942 	
19.000000	30.8599   	19.000000	26.7364   	19.000000	25.4021   	19.000000	27.4425   	19.000000	26.7224   	19.000000	0.0140087 	
20.000000	29.8539   	20.000000	26.0399   	20.000000	24.6471   	20.000000	26.7694   	20.000000	26.0265   	20.000000	0.0133875 	
21.000000	28.9199   	21.000000	25.3805   	21.000000	23.9395   	21.000000	26.129    	21.000000	25.3677   	21.000000	0.0128217 	
22.000000	28.05     	22.000000	24.7555   	22.000000	23.2744   	22.000000	25.5191   	22.000000	24.7432   	22.000000	0.0123042 	
23.000000	27.2378   	23.000000	24.1625   	23.000000	22.6482   	23.000000	24.9378   	23.000000	24.1507   	23.000000	0.0118289 	
24.000000	26.4776   	24.000000	23.5991   	24.000000	22.0584   	24.000000	24.3836   	24.000000	23.5877   	24.000000	0.0113908 	
25.000000	25.7644   	25.000000	23.0633   	25.000000	21.5023   	25.000000	23.8546   	25.000000	23.0523   	25.000000	0.0109856 	
27.000000	24.462    	27.000000	22.0671   	27.000000	20.4806   	27.000000	22.8668   	27.000000	22.0568   	27.000000	0.0102599 	
29.000000	23.302    	29.000000	21.1602   	29.000000	19.5651   	29.000000	21.9634   	29.000000	21.1506   	29.000000	0.00962838	
31.000000	22.2615   	31.000000	20.3315   	31.000000	18.8105   	31.000000	21.0905   	31.000000	20.3224   	31.000000	0.00907362	
33.000000	21.3226   	33.000000	19.5712   	33.000000	18.1838   	33.000000	20.2509   	33.000000	19.5626   	33.000000	0.00858221	
35.000000	20.4706   	35.000000	18.8714   	35.000000	17.6019   	35.000000	19.4829   	35.000000	18.8633   	35.000000	0.00814371	
38.000000	19.3305   	38.000000	17.9202   	38.000000	16.8061   	38.000000	18.446    	38.000000	17.9127   	38.000000	0.00756761	
41.000000	18.3283   	41.000000	17.0705   	41.000000	16.0877   	41.000000	17.5261   	41.000000	17.0634   	41.000000	0.00707111	
44.000000	17.4399   	44.000000	16.3068   	44.000000	15.4371   	44.000000	16.7041   	44.000000	16.3001   	44.000000	0.00663855	
47.000000	16.6464   	47.000000	15.6167   	47.000000	14.8437   	47.000000	15.965    	47.000000	15.6104   	47.000000	0.00625814	
50.000000	15.933    	50.000000	14.99     	50.000000	14.301    	50.000000	15.2967   	50.000000	14.9841   	50.000000	0.00592087	
55.000000	14.8911   	55.000000	14.0645   	55.000000	13.491    	55.000000	14.3144   	55.000000	14.0591   	55.000000	0.00543611	
60.000000	13.9978   	60.000000	13.262    	60.000000	12.7841   	60.000000	13.4669   	60.000000	13.257    	60.000000	0.00502788	
65.000000	13.2229   	65.000000	12.5594   	65.000000	12.1577   	65.000000	12.7282   	65.000000	12.5547   	65.000000	0.00467915	
70.000000	12.5437   	70.000000	11.9392   	70.000000	11.601    	70.000000	12.0784   	70.000000	11.9348   	70.000000	0.00437761	
75.000000	11.9432   	75.000000	11.3877   	75.000000	11.1023   	75.000000	11.5024   	75.000000	11.3835   	75.000000	0.00411418	
80.000000	11.408    	80.000000	10.894    	80.000000	10.6548   	80.000000	10.9883   	80.000000	10.8901   	80.000000	0.00388195	
85.000000	10.928    	85.000000	10.4496   	85.000000	10.2479   	85.000000	10.5266   	85.000000	10.4459   	85.000000	0.00367563	
90.000000	10.4947   	90.000000	10.0473   	90.000000	9.87893   	90.000000	10.1096   	90.000000	10.0438   	90.000000	0.00349104	
95.000000	10.1015   	95.000000	9.68158   	95.000000	9.54022   	95.000000	9.73124   	95.000000	9.67826   	95.000000	0.00332487	
100.000000	9.74288   	100.000000	9.34758   	100.000000	9.23058   	100.000000	9.3863    	100.000000	9.3444    	100.000000	0.00317447	
105.000000	9.41447   	105.000000	9.04136   	105.000000	8.94653   	105.000000	9.07057   	105.000000	9.03832   	105.000000	0.00303765	
110.000000	9.11245   	110.000000	8.75961   	110.000000	8.68291   	110.000000	8.78049   	110.000000	8.7567    	110.000000	0.00291263	
115.000000	8.83371   	115.000000	8.49951   	115.000000	8.43878   	115.000000	8.51308   	115.000000	8.49671   	115.000000	0.00279793	
120.000000	8.57558   	120.000000	8.25867   	120.000000	8.21299   	120.000000	8.26577   	120.000000	8.25598   	120.000000	0.0026923 	
125.000000	8.3358    	125.000000	8.03503   	125.000000	8.00248   	125.000000	8.03639   	125.000000	8.03244   	125.000000	0.0025947 	
130.000000	8.11243   	130.000000	7.82682   	130.000000	7.80495   	130.000000	7.82308   	130.000000	7.82432   	130.000000	0.00250422	
135.000000	7.9038    	135.000000	7.63251   	135.000000	7.62054   	135.000000	7.62419   	135.000000	7.63008   	135.000000	0.0024201 	
140.000000	7.70845   	140.000000	7.45074   	140.000000	7.44814   	140.000000	7.43833   	140.000000	7.4484    	140.000000	0.00234169	
145.000000	7.52514   	145.000000	7.28035   	145.000000	7.28614   	145.000000	7.26427   	145.000000	7.27808   	145.000000	0.00226841	
150.000000	7.35275   	150.000000	7.12031   	150.000000	7.13336   	150.000000	7.10091   	150.000000	7.11811   	150.000000	0.00219978	
155.000000	7.10635   	155.000000	6.96971   	155.000000	6.9896    	155.000000	6.94732   	155.000000	6.96758   	155.000000	0.00213535	
160.000000	6.96377   	160.000000	6.82774   	160.000000	6.85384   	160.000000	6.80263   	160.000000	6.82567   	160.000000	0.00207475	
165.000000	6.82904   	165.000000	6.69369   	165.000000	6.72513   	165.000000	6.66612   	165.000000	6.69167   	165.000000	0.00201763	
170.000000	6.70153   	170.000000	6.56691   	170.000000	6.60339   	170.000000	6.5371    	170.000000	6.56494   	170.000000	0.00196372	
175.000000	6.58066   	175.000000	6.44683   	175.000000	6.48802   	175.000000	6.41499   	175.000000	6.44492   	175.000000	0.00191272	
180.000000	6.46593   	180.000000	6.33294   	180.000000	6.37817   	180.000000	6.29925   	180.000000	6.33108   	180.000000	0.00186443	
185.000000	6.35687   	185.000000	6.22478   	185.000000	6.27365   	185.000000	6.18939   	185.000000	6.22296   	185.000000	0.00181861	
190.000000	6.25306   	190.000000	6.12192   	190.000000	6.1743    	190.000000	6.08499   	190.000000	6.12015   	190.000000	0.00177508	
195.000000	6.15414   	195.000000	6.024     	195.000000	6.07977   	195.000000	5.98565   	195.000000	6.02226   	195.000000	0.00173368	
200.000000	6.05975   	200.000000	5.93066   	200.000000	5.98961   	200.000000	5.89102   	200.000000	5.92897   	200.000000	0.00169425	
210.000000	5.8834    	210.000000	5.75652   	210.000000	5.82066   	210.000000	5.71462   	210.000000	5.7549    	210.000000	0.00162074	
220.000000	5.72185   	220.000000	5.59733   	220.000000	5.66608   	220.000000	5.55354   	220.000000	5.59578   	220.000000	0.0015536 	
230.000000	5.57331   	230.000000	5.45126   	230.000000	5.52366   	230.000000	5.40588   	230.000000	5.44977   	230.000000	0.00149202	
240.000000	5.43625   	240.000000	5.31678   	240.000000	5.39234   	240.000000	5.27007   	240.000000	5.31534   	240.000000	0.00143533	
250.000000	5.30939   	250.000000	5.19256   	250.000000	5.27109   	250.000000	5.14476   	250.000000	5.19118   	250.000000	0.00138296	
260.000000	5.19163   	260.000000	5.07751   	260.000000	5.15882   	260.000000	5.0288    	260.000000	5.07617   	260.000000	0.00133443	
270.000000	5.08202   	270.000000	4.97064   	270.000000	5.0544    	270.000000	4.9212    	270.000000	4.96935   	270.000000	0.00128932	
280.000000	4.97975   	280.000000	4.87114   	280.000000	4.95678   	280.000000	4.82111   	280.000000	4.8699    	280.000000	0.00124728	
290.000000	4.8841    	290.000000	4.77829   	290.000000	4.86568   	290.000000	4.72778   	290.000000	4.77708   	290.000000	0.00120801	
300.000000	4.79446   	300.000000	4.69144   	300.000000	4.7806    	300.000000	4.64058   	300.000000	4.69027   	300.000000	0.00117123	
310.000000	4.71029   	310.000000	4.61005   	310.000000	4.7007    	310.000000	4.55893   	310.000000	4.60891   	310.000000	0.00113672	
320.000000	4.63109   	320.000000	4.53363   	320.000000	4.62538   	320.000000	4.48233   	320.000000	4.53252   	320.000000	0.00110426	
330.000000	4.55645   	330.000000	4.46174   	330.000000	4.55483   	330.000000	4.41035   	330.000000	4.46067   	330.000000	0.00107368	
340.000000	4.48599   	340.000000	4.39402   	340.000000	4.48852   	340.000000	4.34259   	340.000000	4.39298   	340.000000	0.00104481	
350.000000	4.41938   	350.000000	4.33011   	350.000000	4.42569   	350.000000	4.27871   	350.000000	4.32909   	350.000000	0.00101751	
360.000000	4.35631   	360.000000	4.26971   	360.000000	4.36603   	360.000000	4.21838   	360.000000	4.26872   	360.000000	0.000991666	
370.000000	4.29651   	370.000000	4.21256   	370.000000	4.3095    	370.000000	4.16135   	370.000000	4.21159   	370.000000	0.000967151	
380.000000	4.23975   	380.000000	4.15839   	380.000000	4.25617   	380.000000	4.10735   	380.000000	4.15745   	380.000000	0.000943867	
390.000000	4.1858    	390.000000	4.107     	390.000000	4.2057    	390.000000	4.05615   	390.000000	4.10608   	390.000000	0.000921722	
400.000000	4.13446   	400.000000	4.05818   	400.000000	4.15767   	400.000000	4.00757   	400.000000	4.05728   	400.000000	0.000900633	
410.000000	4.08556   	410.000000	4.01176   	410.000000	4.11195   	410.000000	3.9614    	410.000000	4.01088   	410.000000	0.000880526	
420.000000	4.03892   	420.000000	3.96756   	420.000000	4.06847   	420.000000	3.91748   	420.000000	3.9667    	420.000000	0.000861333	
430.000000	3.99442   	430.000000	3.92545   	430.000000	4.02704   	430.000000	3.87567   	430.000000	3.9246    	430.000000	0.000842991	
440.000000	3.9519    	440.000000	3.88527   	440.000000	3.98745   	440.000000	3.83581   	440.000000	3.88444   	440.000000	0.000825446	
450.000000	3.91124   	450.000000	3.84691   	450.000000	3.94964   	450.000000	3.79779   	450.000000	3.8461    	450.000000	0.000808645	
460.000000	3.87233   	460.000000	3.81026   	460.000000	3.91356   	460.000000	3.76148   	460.000000	3.80946   	460.000000	0.000792541	
470.000000	3.83506   	470.000000	3.7752    	470.000000	3.87907   	470.000000	3.72679   	470.000000	3.77442   	470.000000	0.000777091	
480.000000	3.79934   	480.000000	3.74164   	480.000000	3.84596   	480.000000	3.69361   	480.000000	3.74088   	480.000000	0.000762256	
490.000000	3.76508   	490.000000	3.7095    	490.000000	3.81414   	490.000000	3.66184   	490.000000	3.70875   	490.000000	0.000747999	
500.000000	3.73219   	500.000000	3.67869   	500.000000	3.78368   	500.000000	3.63142   	500.000000	3.67796   	500.000000	0.000734287	
520.000000	3.67025   	520.000000	3.62077   	520.000000	3.72677   	520.000000	3.57428   	520.000000	3.62006   	520.000000	0.000708374	
540.000000	3.61296   	540.000000	3.56733   	540.000000	3.67413   	540.000000	3.52163   	540.000000	3.56664   	540.000000	0.000684296	
560.000000	3.55987   	560.000000	3.51791   	560.000000	3.62539   	560.000000	3.47301   	560.000000	3.51725   	560.000000	0.000661862	
580.000000	3.51056   	580.000000	3.47211   	580.000000	3.58052   	580.000000	3.428     	580.000000	3.47147   	580.000000	0.000640908	
600.000000	3.46467   	600.000000	3.42958   	600.000000	3.53875   	600.000000	3.38624   	600.000000	3.42896   	600.000000	0.000621289	
620.000000	3.4219    	620.000000	3.39001   	620.000000	3.49972   	620.000000	3.34743   	620.000000	3.38941   	620.000000	0.00060288	
640.000000	3.38196   	640.000000	3.35313   	640.000000	3.46338   	640.000000	3.31128   	640.000000	3.35255   	640.000000	0.000585572	
660.000000	3.34462   	660.000000	3.31871   	660.000000	3.42952   	660.000000	3.27756   	660.000000	3.31814   	660.000000	0.000569267	
680.000000	3.30967   	680.000000	3.28653   	680.000000	3.39788   	680.000000	3.24605   	680.000000	3.28597   	680.000000	0.00055388	
700.000000	3.2769    	700.000000	3.2564    	700.000000	3.36815   	700.000000	3.21657   	700.000000	3.25586   	700.000000	0.000539333	
720.000000	3.24614   	720.000000	3.22817   	720.000000	3.34015   	720.000000	3.18894   	720.000000	3.22764   	720.000000	0.00052556	
740.000000	3.21725   	740.000000	3.20167   	740.000000	3.31418   	740.000000	3.16327   	740.000000	3.20116   	740.000000	0.000512499	
760.000000	3.19009   	760.000000	3.17678   	760.000000	3.29015   	760.000000	3.1394    	760.000000	3.17628   	760.000000	0.000500096	
780.000000	3.16453   	780.000000	3.15338   	780.000000	3.26755   	780.000000	3.11696   	780.000000	3.15289   	780.000000	0.000488301	
800.000000	3.14045   	800.000000	3.13135   	800.000000	3.24616   	800.000000	3.09583   	800.000000	3.13088   	800.000000	0.000477071	
820.000000	3.11776   	820.000000	3.11061   	820.000000	3.22593   	820.000000	3.07592   	820.000000	3.11014   	820.000000	0.000466365	
840.000000	3.09636   	840.000000	3.09105   	840.000000	3.2069    	840.000000	3.05714   	840.000000	3.0906    	840.000000	0.000456146	
860.000000	3.07616   	860.000000	3.07261   	860.000000	3.18902   	860.000000	3.03942   	860.000000	3.07216   	860.000000	0.000446383	
880.000000	3.0571    	880.000000	3.0552    	880.000000	3.17215   	880.000000	3.02267   	880.000000	3.05476   	880.000000	0.000437045	
900.000000	3.0391    	900.000000	3.03875   	900.000000	3.15615   	900.000000	3.00684   	900.000000	3.03832   	900.000000	0.000428104	
920.000000	3.02209   	920.000000	3.02322   	920.000000	3.14094   	920.000000	2.99186   	920.000000	3.0228    	920.000000	0.000419535	
940.000000	3.00602   	940.000000	3.00853   	940.000000	3.1265    	940.000000	2.97767   	940.000000	3.00812   	940.000000	0.000411315	
960.000000	2.99083   	960.000000	2.99464   	960.000000	3.11281   	960.000000	2.96424   	960.000000	2.99424   	960.000000	0.000403423	
980.000000	2.97646   	980.000000	2.98151   	980.000000	3.09984   	980.000000	2.9515    	980.000000	2.98111   	980.000000	0.00039584	
1000.000000	2.96288   	1000.000000	2.96908   	1000.000000	3.08754   	1000.000000	2.93941   	1000.000000	2.96869   	1000.000000	0.000388547	
1020.000000	2.95004   	1020.000000	2.95731   	1020.000000	3.07586   	1020.000000	2.92794   	1020.000000	2.95693   	1020.000000	0.000381528	
1040.000000	2.93791   	1040.000000	2.94617   	1040.000000	3.06478   	1040.000000	2.91705   	1040.000000	2.9458    	1040.000000	0.000374767	
1060.000000	2.92643   	1060.000000	2.93563   	1060.000000	3.05424   	1060.000000	2.90671   	1060.000000	2.93526   	1060.000000	0.000368251	
1080.000000	2.91558   	1080.000000	2.92565   	1080.000000	3.04422   	1080.000000	2.89688   	1080.000000	2.92528   	1080.000000	0.000361966	
1100.000000	2.90533   	1100.000000	2.9162    	1100.000000	3.03468   	1100.000000	2.88753   	1100.000000	2.91584   	1100.000000	0.0003559 	
1120.000000	2.89564   	1120.000000	2.90725   	1120.000000	3.02561   	1120.000000	2.87864   	1120.000000	2.9069    	1120.000000	0.000350041	
1140.000000	2.8865    	1140.000000	2.89878   	1140.000000	3.01697   	1140.000000	2.87018   	1140.000000	2.89843   	1140.000000	0.00034438	
1160.000000	2.87787   	1160.000000	2.89076   	1160.000000	3.00875   	1160.000000	2.86213   	1160.000000	2.89042   	1160.000000	0.000338905	
1180.000000	2.86972   	1180.000000	2.88317   	1180.000000	3.00092   	1180.000000	2.85446   	1180.000000	2.88284   	1180.000000	0.000333608	
1200.000000	2.86204   	1200.000000	2.87599   	1200.000000	2.99347   	1200.000000	2.84716   	1200.000000	2.87566   	1200.000000	0.000328481	
1220.000000	2.85481   	1220.000000	2.8692    	1220.000000	2.98638   	1220.000000	2.84021   	1220.000000	2.86888   	1220.000000	0.000323514	
1240.000000	2.848     	1240.000000	2.86279   	1240.000000	2.97962   	1240.000000	2.83359   	1240.000000	2.86247   	1240.000000	0.000318701	
1260.000000	2.84159   	1260.000000	2.85672   	1260.000000	2.97317   	1260.000000	2.82727   	1260.000000	2.85641   	1260.000000	0.000314034	
1280.000000	2.83558   	1280.000000	2.851     	1280.000000	2.96702   	1280.000000	2.82126   	1280.000000	2.85069   	1280.000000	0.000309507	
1300.000000	2.82993   	1300.000000	2.84559   	1300.000000	2.96114   	1300.000000	2.81553   	1300.000000	2.84529   	1300.000000	0.000305114	
1320.000000	2.82464   	1320.000000	2.8405    	1320.000000	2.95551   	1320.000000	2.81006   	1320.000000	2.8402    	1320.000000	0.000300848	
1340.000000	2.8197    	1340.000000	2.8357    	1340.000000	2.95012   	1340.000000	2.80485   	1340.000000	2.8354    	1340.000000	0.000296704	
1360.000000	2.81508   	1360.000000	2.83117   	1360.000000	2.94497   	1360.000000	2.79988   	1360.000000	2.83088   	1360.000000	0.000292678	
1380.000000	2.81077   	1380.000000	2.82692   	1380.000000	2.94006   	1380.000000	2.79514   	1380.000000	2.82664   	1380.000000	0.000288763	
1400.000000	2.80676   	1400.000000	2.82293   	1400.000000	2.93537   	1400.000000	2.79063   	1400.000000	2.82265   	1400.000000	0.000284955	
1420.000000	2.80305   	1420.000000	2.81919   	1420.000000	2.93091   	1420.000000	2.78632   	1420.000000	2.8189    	1420.000000	0.00028125	
1440.000000	2.79961   	1440.000000	2.81568   	1440.000000	2.92666   	1440.000000	2.78221   	1440.000000	2.8154    	1440.000000	0.000277643	
1460.000000	2.79644   	1460.000000	2.8124    	1460.000000	2.92262   	1460.000000	2.7783    	1460.000000	2.81212   	1460.000000	0.000274132	
1480.000000	2.79353   	1480.000000	2.80933   	1480.000000	2.91878   	1480.000000	2.77456   	1480.000000	2.80906   	1480.000000	0.000270711	
1500.000000	2.79086   	1500.000000	2.80648   	1500.000000	2.91512   	1500.000000	2.77101   	1500.000000	2.80622   	1500.000000	0.000267378	
1520.000000	2.78844   	1520.000000	2.80383   	1520.000000	2.91164   	1520.000000	2.76762   	1520.000000	2.80357   	1520.000000	0.000264129	
1540.000000	2.78624   	1540.000000	2.80138   	1540.000000	2.90832   	1540.000000	2.76439   	1540.000000	2.80111   	1540.000000	0.000260961	
1560.000000	2.78427   	1560.000000	2.79911   	1560.000000	2.90515   	1560.000000	2.76131   	1560.000000	2.79885   	1560.000000	0.000257871	
1580.000000	2.78252   	1580.000000	2.79701   	1580.000000	2.90213   	1580.000000	2.75838   	1580.000000	2.79676   	1580.000000	0.000254855	
1600.000000	2.78097   	1600.000000	2.7951    	1600.000000	2.89924   	1600.000000	2.75559   	1600.000000	2.79485   	1600.000000	0.000251912	
1620.000000	2.77962   	1620.000000	2.79335   	1620.000000	2.89648   	1620.000000	2.75293   	1620.000000	2.7931    	1620.000000	0.000249039	
1640.000000	2.77847   	1640.000000	2.79176   	1640.000000	2.89384   	1640.000000	2.7504    	1640.000000	2.79151   	1640.000000	0.000246233	
1660.000000	2.7775    	1660.000000	2.79032   	1660.000000	2.89132   	1660.000000	2.748     	1660.000000	2.79008   	1660.000000	0.000243492	
1680.000000	2.77672   	1680.000000	2.78903   	1680.000000	2.88892   	1680.000000	2.74571   	1680.000000	2.78879   	1680.000000	0.000240813	
1700.000000	2.77611   	1700.000000	2.78789   	1700.000000	2.88664   	1700.000000	2.74354   	1700.000000	2.78765   	1700.000000	0.000238195	
1750.000000	2.77531   	1750.000000	2.78564   	1750.000000	2.8814    	1750.000000	2.73857   	1750.000000	2.7854    	1750.000000	0.000231901	
1800.000000	2.7755    	1800.000000	2.78418   	1800.000000	2.8768    	1800.000000	2.73423   	1800.000000	2.78395   	1800.000000	0.000225943	
1850.000000	2.7766    	1850.000000	2.78346   	1850.000000	2.87279   	1850.000000	2.73044   	1850.000000	2.78324   	1850.000000	0.000220293	
1900.000000	2.77855   	1900.000000	2.78341   	1900.000000	2.86931   	1900.000000	2.72715   	1900.000000	2.78319   	1900.000000	0.00021493	
1950.000000	2.78128   	1950.000000	2.78399   	1950.000000	2.86631   	1950.000000	2.72433   	1950.000000	2.78378   	1950.000000	0.00020983	
2000.000000	2.78474   	2000.000000	2.78514   	2000.000000	2.86375   	2000.000000	2.72192   	2000.000000	2.78494   	2000.000000	0.000204975	
2100.000000	2.79369   	2100.000000	2.78903   	2100.000000	2.85976   	2100.000000	2.71823   	2100.000000	2.78883   	2100.000000	0.000195932	
2200.000000	2.80505   	2200.000000	2.79477   	2200.000000	2.85707   	2200.000000	2.7158    	2200.000000	2.79458   	2200.000000	0.000187679	
2300.000000	2.81854   	2300.000000	2.80213   	2300.000000	2.85546   	2300.000000	2.71445   	2300.000000	2.80195   	2300.000000	0.000180116	
2400.000000	2.83394   	2400.000000	2.81089   	2400.000000	2.85475   	2400.000000	2.714     	2400.000000	2.81072   	2400.000000	0.000173158	
2500.000000	2.85104   	2500.000000	2.8209    	2500.000000	2.85481   	2500.000000	2.7143    	2500.000000	2.82073   	2500.000000	0.000166736	
2600.000000	2.86969   	2600.000000	2.83201   	2600.000000	2.85552   	2600.000000	2.71525   	2600.000000	2.83185   	2600.000000	0.000160789	
2700.000000	2.88972   	2700.000000	2.84409   	2700.000000	2.85678   	2700.000000	2.71674   	2700.000000	2.84393   	2700.000000	0.000155266	
2800.000000	2.91103   	2800.000000	2.85704   	2800.000000	2.85852   	2800.000000	2.7187    	2800.000000	2.85689   	2800.000000	0.000150121	
2900.000000	2.9335    	2900.000000	2.87076   	2900.000000	2.86066   	2900.000000	2.72105   	2900.000000	2.87062   	2900.000000	0.000145318	
3000.000000	2.95703   	3000.000000	2.88519   	3000.000000	2.86315   	3000.000000	2.72373   	3000.000000	2.88505   	3000.000000	0.000140823	
3200.000000	3.00699   	3200.000000	2.91586   	3200.000000	2.86898   	3200.000000	2.72991   	3200.000000	2.91573   	3200.000000	0.000132645	
3400.000000	3.06036   	3400.000000	2.94861   	3400.000000	2.87569   	3400.000000	2.73692   	3400.000000	2.94848   	3400.000000	0.000125393	
3600.000000	3.11669   	3600.000000	2.98306   	3600.000000	2.88303   	3600.000000	2.74452   	3600.000000	2.98294   	3600.000000	0.000118917	
3800.000000	3.17567   	3800.000000	3.01895   	3800.000000	2.89082   	3800.000000	2.75253   	3800.000000	3.01884   	3800.000000	0.000113097	
4000.000000	3.237     	4000.000000	3.05604   	4000.000000	2.89892   	4000.000000	2.76083   	4000.000000	3.05594   	4000.000000	0.000107838	
4200.000000	3.30046   	4200.000000	3.09416   	4200.000000	2.90721   	4200.000000	2.7693    	4200.000000	3.09406   	4200.000000	0.000103062	
4400.000000	3.36586   	4400.000000	3.13316   	4400.000000	2.9156    	4400.000000	2.77789   	4400.000000	3.13306   	4400.000000	9.87037e-05	
4600.000000	3.43306   	4600.000000	3.17291   	4600.000000	2.92405   	4600.000000	2.78651   	4600.000000	3.17281   	4600.000000	9.47107e-05	
4800.000000	3.50192   	4800.000000	3.2133    	4800.000000	2.93249   	4800.000000	2.79514   	4800.000000	3.21321   	4800.000000	9.10382e-05	
5000.000000	3.57234   	5000.000000	3.25427   	5000.000000	2.94091   	5000.000000	2.80373   	5000.000000	3.25418   	5000.000000	8.76488e-05	
5250.000000	3.66239   	5250.000000	3.30616   	5250.000000	2.95133   	5250.000000	2.81438   	5250.000000	3.30608   	5250.000000	8.3762e-05	
5500.000000	3.75458   	5500.000000	3.35871   	5500.000000	2.96163   	5500.000000	2.8249    	5500.000000	3.35863   	5500.000000	8.02158e-05	
6000.000000	3.94484   	6000.000000	3.46539   	6000.000000	2.98176   	6000.000000	2.84544   	6000.000000	3.46532   	6000.000000	7.39789e-05	
6500.000000	4.14233   	6500.000000	3.57373   	6500.000000	3.00121   	6500.000000	2.86523   	6500.000000	3.57366   	6500.000000	6.86685e-05	
7000.000000	4.34648   	7000.000000	3.68329   	7000.000000	3.01966   	7000.000000	2.88421   	7000.000000	3.68322   	7000.000000	6.40905e-05	
7500.000000	4.55685   	7500.000000	3.79377   	7500.000000	3.03742   	7500.000000	2.90238   	7500.000000	3.79371   	7500.000000	6.01019e-05	
8000.000000	4.77314   	8000.000000	3.90496   	8000.000000	3.05449   	8000.000000	2.91977   	8000.000000	3.9049    	8000.000000	5.65946e-05	
8500.000000	4.99509   	8500.000000	4.01668   	8500.000000	3.07077   	8500.000000	2.9364    	8500.000000	4.01662   	8500.000000	5.34857e-05	
9000.000000	5.22251   	9000.000000	4.12879   	9000.000000	3.08627   	9000.000000	2.95232   	9000.000000	4.12874   	9000.000000	5.07104e-05	
9500.000000	5.45526   	9500.000000	4.24121   	9500.000000	3.10111   	9500.000000	2.96756   	9500.000000	4.24116   	9500.000000	4.82172e-05	
10000.000000	5.69321   	10000.000000	4.35384   	10000.000000	3.11536   	10000.000000	2.98217   	10000.000000	4.3538    	10000.000000	4.59647e-05	
11000.000000	6.18435   	11000.000000	4.57956   	11000.000000	3.14202   	11000.000000	3.00964   	11000.000000	4.57951   	11000.000000	4.20536e-05	
12000.000000	6.69536   	12000.000000	4.80557   	12000.000000	3.16637   	12000.000000	3.03501   	12000.000000	4.80553   	12000.000000	3.87731e-05	
13000.000000	7.22585   	13000.000000	5.03164   	13000.000000	3.1889    	13000.000000	3.05854   	13000.000000	5.03161   	13000.000000	3.59807e-05	
14000.000000	7.77558   	14000.000000	5.25763   	14000.000000	3.20993   	14000.000000	3.08046   	14000.000000	5.2576    	14000.000000	3.35741e-05	
15000.000000	8.34436   	15000.000000	5.48343   	15000.000000	3.22957   	15000.000000	3.10093   	15000.000000	5.4834    	15000.000000	3.14778e-05	
16000.000000	8.93209   	16000.000000	5.70898   	16000.000000	3.2478    	16000.000000	3.12014   	16000.000000	5.70895   	16000.000000	2.9635e-05	
17000.000000	9.53871   	17000.000000	5.93422   	17000.000000	3.26475   	17000.000000	3.1382    	17000.000000	5.93419   	17000.000000	2.80019e-05	
18000.000000	10.1642   	18000.000000	6.15913   	18000.000000	3.28054   	18000.000000	3.15524   	18000.000000	6.1591    	18000.000000	2.65443e-05	
19000.000000	10.8085   	19000.000000	6.38369   	19000.000000	3.29533   	19000.000000	3.17136   	19000.000000	6.38366   	19000.000000	2.52351e-05	
20000.000000	11.4717   	20000.000000	6.60788   	20000.000000	3.30925   	20000.000000	3.18665   	20000.000000	6.60786   	20000.000000	2.40525e-05	
21000.000000	12.1537   	21000.000000	6.83171   	21000.000000	3.32243   	21000.000000	3.20117   	21000.000000	6.83169   	21000.000000	2.29789e-05	
22000.000000	12.8547   	22000.000000	7.05517   	22000.000000	3.33494   	22000.000000	3.21501   	22000.000000	7.05514   	22000.000000	2.19997e-05	
23000.000000	13.5746   	23000.000000	7.27825   	23000.000000	3.34676   	23000.000000	3.22821   	23000.000000	7.27823   	23000.000000	2.11029e-05	
24000.000000	14.3136   	24000.000000	7.50097   	24000.000000	3.35796   	24000.000000	3.24084   	24000.000000	7.50095   	24000.000000	2.02783e-05	
25000.000000	15.0716   	25000.000000	7.72333   	25000.000000	3.36861   	25000.000000	3.25293   	25000.000000	7.72331   	25000.000000	1.95176e-05	
26000.000000	15.8489   	26000.000000	7.94533   	26000.000000	3.37873   	26000.000000	3.26452   	26000.000000	7.94531   	26000.000000	1.88135e-05	
27000.000000	16.6453   	27000.000000	8.16698   	27000.000000	3.38834   	27000.000000	3.27566   	27000.000000	8.16697   	27000.000000	1.81599e-05	
28000.000000	17.4611   	28000.000000	8.38829   	28000.000000	3.39747   	28000.000000	3.28637   	28000.000000	8.38827   	28000.000000	1.75514e-05	
29000.000000	18.2963   	29000.000000	8.60926   	29000.000000	3.40617   	29000.000000	3.29669   	29000.000000	8.60925   	29000.000000	1.69836e-05	
30000.000000	19.1509   	30000.000000	8.8299    	30000.000000	3.41447   	30000.000000	3.30664   	30000.000000	8.82989   	30000.000000	1.64523e-05	
32000.000000	20.9191   	32000.000000	9.27022   	32000.000000	3.43      	32000.000000	3.32552   	32000.000000	9.27021   	32000.000000	1.54864e-05	
34000.000000	22.7663   	34000.000000	9.70931   	34000.000000	3.44427   	34000.000000	3.3432    	34000.000000	9.70929   	34000.000000	1.46305e-05	
36000.000000	24.6933   	36000.000000	10.1472   	36000.000000	3.45729   	36000.000000	3.35979   	36000.000000	10.1472   	36000.000000	1.38667e-05	
38000.000000	26.7009   	38000.000000	10.584    	38000.000000	3.46919   	38000.000000	3.37544   	38000.000000	10.584    	38000.000000	1.31808e-05	
40000.000000	28.7899   	40000.000000	11.0197   	40000.000000	3.48011   	40000.000000	3.39022   	40000.000000	11.0197   	40000.000000	1.25613e-05	
42000.000000	30.9612   	42000.000000	11.4543   	42000.000000	3.49022   	42000.000000	3.40424   	42000.000000	11.4543   	42000.000000	1.19991e-05	
44000.000000	33.2156   	44000.000000	11.888    	44000.000000	3.49964   	44000.000000	3.41755   	44000.000000	11.888    	44000.000000	1.14863e-05	
46000.000000	35.5541   	46000.000000	12.3207   	46000.000000	3.50849   	46000.000000	3.43023   	46000.000000	12.3207   	46000.000000	1.10167e-05	
48000.000000	37.9774   	48000.000000	12.7525   	48000.000000	3.51681   	48000.000000	3.44233   	48000.000000	12.7525   	48000.000000	1.05851e-05	
50000.000000	40.4864   	50000.000000	13.1834   	50000.000000	3.52449   	50000.000000	3.4539    	50000.000000	13.1834   	50000.000000	1.01869e-05	
