Energy (MeV/u)1	0 - [He-base] F.Hubert et al, AD&ND Tables 46(1990)1	Energy (MeV/u)2	1 - [H -base] J.F.Ziegler et al, Pergamon Press, NY (low energy)	Energy (MeV/u)3	2 - ATIMA 1.2  LS-theory (recommended for high energy)	Energy (MeV/u)4	3 - ATIMA 1.2  without LS-correction	Energy (MeV/u)5	4 - electrical component of [1] - J.F.Ziegler et al	Energy (MeV/u)6	5 - nuclear component of [1] - J.F.Ziegler et al	
0.001000	12.7779   	0.001000	10.6506   	0.001000	10.0986   	0.001000	10.0986   	0.001000	1.63838   	0.001000	9.01224   	
0.002000	13.2091   	0.002000	11.1349   	0.002000	10.4018   	0.002000	10.4018   	0.002000	2.26933   	0.002000	8.86561   	
0.005000	13.1079   	0.005000	11.0469   	0.005000	9.98487   	0.005000	9.98487   	0.005000	3.49084   	0.005000	7.55604   	
0.008000	13.0279   	0.008000	10.8758   	0.008000	9.59423   	0.008000	9.59423   	0.008000	4.35378   	0.008000	6.52204   	
0.010000	13.0494   	0.010000	10.8265   	0.010000	9.42611   	0.010000	9.42611   	0.010000	4.83519   	0.010000	5.99132   	
0.015000	13.2571   	0.015000	10.8681   	0.015000	9.22456   	0.015000	9.22456   	0.015000	5.85028   	0.015000	5.01787   	
0.020000	13.5754   	0.020000	11.0488   	0.020000	9.209     	0.020000	9.209     	0.020000	6.69727   	0.020000	4.35157   	
0.025000	13.9383   	0.025000	11.3005   	0.025000	9.29347   	0.025000	9.29347   	0.025000	7.43782   	0.025000	3.86272   	
0.030000	14.3174   	0.030000	11.5895   	0.030000	9.43532   	0.030000	9.43532   	0.030000	8.10328   	0.030000	3.48625   	
0.035000	14.6995   	0.035000	11.8981   	0.035000	9.61164   	0.035000	9.61164   	0.035000	8.71216   	0.035000	3.18592   	
0.040000	15.078    	0.040000	12.2162   	0.040000	9.80917   	0.040000	9.80917   	0.040000	9.27645   	0.040000	2.9398    	
0.045000	15.4498   	0.045000	12.5383   	0.045000	10.0199   	0.045000	10.0199   	0.045000	9.80446   	0.045000	2.73382   	
0.050000	15.8132   	0.050000	12.8607   	0.050000	10.2386   	0.050000	10.2386   	0.050000	10.3022   	0.050000	2.55847   	
0.055000	16.1677   	0.055000	13.1813   	0.055000	10.4621   	0.055000	10.4621   	0.055000	10.7742   	0.055000	2.40711   	
0.060000	16.5131   	0.060000	13.4988   	0.060000	10.6881   	0.060000	10.6881   	0.060000	11.2239   	0.060000	2.27492   	
0.070000	17.6799   	0.070000	14.4308   	0.070000	11.4311   	0.070000	11.4311   	0.070000	12.3763   	0.070000	2.05456   	
0.080000	19.7113   	0.080000	16.0787   	0.080000	12.9308   	0.080000	12.9308   	0.080000	14.2011   	0.080000	1.87765   	
0.090000	21.5791   	0.090000	17.6299   	0.090000	14.417    	0.090000	14.417    	0.090000	15.8979   	0.090000	1.73205   	
0.100000	23.3228   	0.100000	19.0754   	0.100000	15.8671   	0.100000	15.8671   	0.100000	17.4656   	0.100000	1.60981   	
0.120000	25.8766   	0.120000	21.6537   	0.120000	18.6067   	0.120000	18.6067   	0.120000	20.2436   	0.120000	1.41008   	
0.140000	28.0662   	0.140000	23.8746   	0.140000	21.109    	0.140000	21.109    	0.140000	22.6191   	0.140000	1.25554   	
0.160000	30.0656   	0.160000	25.8199   	0.160000	23.3832   	0.160000	23.3832   	0.160000	24.6806   	0.160000	1.13929   	
0.180000	31.9767   	0.180000	27.5452   	0.180000	25.4401   	0.180000	25.4401   	0.180000	26.5006   	0.180000	1.0446    	
0.200000	33.8514   	0.200000	29.0991   	0.200000	27.3036   	0.200000	27.3036   	0.200000	28.1333   	0.200000	0.965826  	
0.250000	37.4096   	0.250000	32.5474   	0.250000	31.265    	0.250000	31.265    	0.250000	31.7312   	0.250000	0.816177  	
0.300000	40.7158   	0.300000	35.4611   	0.300000	34.4624   	0.300000	34.4624   	0.300000	34.7513   	0.300000	0.709777  	
0.350000	43.7283   	0.350000	37.9666   	0.350000	37.1099   	0.350000	37.1099   	0.350000	37.3367   	0.350000	0.629853  	
0.400000	46.4467   	0.400000	40.1561   	0.400000	39.3542   	0.400000	39.3542   	0.400000	39.5887   	0.400000	0.567397  	
0.450000	48.8846   	0.450000	42.0893   	0.450000	41.2954   	0.450000	41.2954   	0.450000	41.5722   	0.450000	0.517113  	
0.500000	51.5196   	0.500000	44.1808   	0.500000	43.0025   	0.500000	43.0025   	0.500000	43.7051   	0.500000	0.475676  	
0.600000	54.9357   	0.600000	48.4993   	0.600000	45.8934   	0.600000	45.8934   	0.600000	48.0881   	0.600000	0.411211  	
0.700000	56.9224   	0.700000	51.9313   	0.700000	48.2713   	0.700000	48.2713   	0.700000	51.5681   	0.700000	0.363203  	
0.800000	60.1662   	0.800000	54.6931   	0.800000	50.5644   	0.800000	50.5644   	0.800000	54.3672   	0.800000	0.32594   	
0.900000	62.7789   	0.900000	56.9376   	0.900000	52.85     	0.900000	52.85     	0.900000	56.6415   	0.900000	0.296105  	
1.000000	64.6134   	1.000000	58.5257   	1.000000	54.7758   	1.000000	54.7758   	1.000000	58.2541   	1.000000	0.271631  	
1.250000	67.4869   	1.250000	61.2385   	1.250000	58.4141   	1.250000	58.4141   	1.250000	61.0125   	1.250000	0.226008  	
1.500000	69.0474   	1.500000	62.9145   	1.500000	60.8628   	1.500000	60.8628   	1.500000	62.7202   	1.500000	0.194266  	
1.750000	69.4967   	1.750000	63.663    	1.750000	62.5111   	1.750000	62.5111   	1.750000	63.4922   	1.750000	0.170808  	
2.000000	69.2176   	2.000000	63.7808   	2.000000	63.6      	2.000000	63.6      	2.000000	63.6281   	2.000000	0.152712  	
2.250000	68.863    	2.250000	63.7438   	2.250000	64.2874   	2.250000	64.2874   	2.250000	63.6055   	2.250000	0.138297  	
2.500000	101.77    	2.500000	63.5938   	2.500000	64.6806   	2.500000	64.6806   	2.500000	63.4673   	2.500000	0.126522  	
3.000000	98.7303   	3.000000	63.0789   	3.000000	64.8633   	3.000000	64.8633   	3.000000	62.9705   	3.000000	0.108398  	
3.500000	95.3501   	3.500000	62.3784   	3.500000	64.5325   	3.500000	64.5325   	3.500000	62.2833   	3.500000	0.0950595 	
4.000000	91.937    	4.000000	61.5516   	4.000000	63.8993   	4.000000	63.8993   	4.000000	61.4668   	4.000000	0.0848046 	
4.500000	88.6274   	4.500000	60.6542   	4.500000	63.0863   	4.500000	63.0863   	4.500000	60.5775   	4.500000	0.0766579 	
5.000000	85.4795   	5.000000	59.7203   	5.000000	62.0479   	5.000000	62.0479   	5.000000	59.6503   	5.000000	0.0700195 	
5.500000	82.5137   	5.500000	58.7716   	5.500000	60.9114   	5.500000	60.9114   	5.500000	58.7071   	5.500000	0.0644989 	
6.000000	79.7324   	6.000000	57.822    	6.000000	59.7941   	6.000000	59.7941   	6.000000	57.7622   	6.000000	0.059831  	
6.500000	77.1292   	6.500000	56.8737   	6.500000	58.7022   	6.500000	58.7022   	6.500000	56.8179   	6.500000	0.055829  	
7.000000	74.6937   	7.000000	55.9406   	7.000000	57.6392   	7.000000	57.6392   	7.000000	55.8882   	7.000000	0.0523574 	
7.500000	72.4139   	7.500000	55.0283   	7.500000	56.6071   	7.500000	56.6071   	7.500000	54.979    	7.500000	0.0493154 	
8.000000	70.2777   	8.000000	54.1386   	8.000000	55.6065   	8.000000	55.6065   	8.000000	54.092    	8.000000	0.0466265 	
8.500000	68.2736   	8.500000	53.2583   	8.500000	54.6377   	8.500000	54.6377   	8.500000	53.214    	8.500000	0.0442315 	
9.000000	66.3905   	9.000000	52.4081   	9.000000	53.7002   	9.000000	53.7002   	9.000000	52.366    	9.000000	0.0420838 	
9.500000	64.6184   	9.500000	51.5874   	9.500000	52.7932   	9.500000	52.7932   	9.500000	51.5473   	9.500000	0.0401463 	
10.000000	62.9482   	10.000000	51.1395   	10.000000	51.916    	10.000000	51.916    	10.000000	51.1012   	10.000000	0.0383891 	
11.000000	59.8807   	11.000000	49.6411   	11.000000	49.8176   	11.000000	50.4921   	11.000000	49.6058   	11.000000	0.0353216 	
12.000000	57.1306   	12.000000	48.2024   	12.000000	47.8777   	12.000000	49.1194   	12.000000	48.1696   	12.000000	0.0327316 	
13.000000	54.6509   	13.000000	46.827    	13.000000	46.0821   	13.000000	47.8031   	13.000000	46.7965   	13.000000	0.030514  	
14.000000	52.4033   	14.000000	45.5176   	14.000000	44.4167   	14.000000	46.5448   	14.000000	45.489    	14.000000	0.0285925 	
15.000000	50.3561   	15.000000	44.2738   	15.000000	42.8684   	15.000000	45.3441   	15.000000	44.2469   	15.000000	0.0269106 	
16.000000	48.4831   	16.000000	43.0936   	16.000000	41.426    	16.000000	44.1994   	16.000000	43.0682   	16.000000	0.0254253 	
17.000000	46.7625   	17.000000	41.9741   	17.000000	40.0804   	17.000000	43.1085   	17.000000	41.95     	17.000000	0.0241036 	
18.000000	45.1761   	18.000000	40.9121   	18.000000	38.8237   	18.000000	42.0688   	18.000000	40.8891   	18.000000	0.0229193 	
19.000000	43.7082   	19.000000	39.904    	19.000000	37.647    	19.000000	41.0777   	19.000000	39.8822   	19.000000	0.0218518 	
20.000000	42.3458   	20.000000	38.9467   	20.000000	36.5412   	20.000000	40.1325   	20.000000	38.9258   	20.000000	0.0208842 	
21.000000	41.0775   	21.000000	38.0367   	21.000000	35.5015   	21.000000	39.2307   	21.000000	38.0167   	21.000000	0.020003  	
22.000000	39.8937   	22.000000	37.171    	22.000000	34.5246   	22.000000	38.3698   	22.000000	37.1518   	22.000000	0.0191969 	
23.000000	38.7859   	23.000000	36.3466   	23.000000	33.6056   	23.000000	37.5475   	23.000000	36.3281   	23.000000	0.0184564 	
24.000000	37.7469   	24.000000	35.5609   	24.000000	32.7381   	24.000000	36.7615   	24.000000	35.5431   	24.000000	0.0177739 	
25.000000	36.7702   	25.000000	34.8112   	25.000000	31.9178   	25.000000	36.0098   	25.000000	34.7941   	25.000000	0.0171425 	
27.000000	34.9819   	27.000000	33.4111   	27.000000	30.4084   	27.000000	34.6017   	27.000000	33.3951   	27.000000	0.0160117 	
29.000000	33.3838   	29.000000	32.1295   	29.000000	29.0546   	29.000000	33.3091   	29.000000	32.1145   	29.000000	0.0150276 	
31.000000	31.946    	31.000000	30.9523   	31.000000	27.9829   	31.000000	32.0638   	31.000000	30.9381   	31.000000	0.0141629 	
33.000000	30.6451   	33.000000	29.8672   	33.000000	27.1358   	33.000000	30.8678   	33.000000	29.8538   	33.000000	0.0133969 	
35.000000	29.4617   	35.000000	28.8641   	35.000000	26.344    	35.000000	29.7685   	35.000000	28.8513   	35.000000	0.0127134 	
38.000000	27.8736   	38.000000	27.4936   	38.000000	25.2522   	38.000000	28.276    	38.000000	27.4818   	38.000000	0.0118152 	
41.000000	26.4732   	41.000000	26.2624   	41.000000	24.2625   	41.000000	26.9436   	41.000000	26.2513   	41.000000	0.011041  	
44.000000	25.2283   	44.000000	25.1502   	44.000000	23.3567   	44.000000	25.7462   	44.000000	25.1398   	44.000000	0.0103665 	
47.000000	24.1137   	47.000000	24.1405   	47.000000	22.5269   	47.000000	24.6641   	47.000000	24.1307   	47.000000	0.0097732 	
50.000000	23.1094   	50.000000	23.2197   	50.000000	21.7615   	50.000000	23.6811   	50.000000	23.2104   	50.000000	0.00924714	
55.000000	21.6385   	55.000000	21.8526   	55.000000	20.616    	55.000000	22.228    	55.000000	21.8441   	55.000000	0.00849098	
60.000000	20.3736   	60.000000	20.6601   	60.000000	19.6026   	60.000000	20.9666   	60.000000	20.6523   	60.000000	0.0078541 	
65.000000	19.2732   	65.000000	19.6106   	65.000000	18.7034   	65.000000	19.8608   	65.000000	19.6033   	65.000000	0.00730997	
70.000000	18.3065   	70.000000	18.6798   	70.000000	17.8983   	70.000000	18.8835   	70.000000	18.673    	70.000000	0.00683945	
75.000000	17.4498   	75.000000	17.8485   	75.000000	17.1714   	75.000000	18.0133   	75.000000	17.842    	75.000000	0.00642833	
80.000000	16.685    	80.000000	17.1015   	80.000000	16.5161   	80.000000	17.2335   	80.000000	17.0954   	80.000000	0.00606589	
85.000000	15.9976   	85.000000	16.4266   	85.000000	15.9173   	85.000000	16.5308   	85.000000	16.4208   	85.000000	0.00574385	
90.000000	15.3762   	90.000000	15.8138   	90.000000	15.3722   	90.000000	15.8941   	90.000000	15.8083   	90.000000	0.00545571	
95.000000	14.8114   	95.000000	15.2549   	95.000000	14.8719   	95.000000	15.3147   	95.000000	15.2497   	95.000000	0.00519631	
100.000000	14.2957   	100.000000	14.7431   	100.000000	14.4109   	100.000000	14.7852   	100.000000	14.7382   	100.000000	0.0049615 	
105.000000	13.8227   	105.000000	14.2727   	105.000000	13.9866   	105.000000	14.2993   	105.000000	14.268    	105.000000	0.0047479 	
110.000000	13.3872   	110.000000	13.8389   	110.000000	13.5932   	110.000000	13.8519   	110.000000	13.8344   	110.000000	0.0045527 	
115.000000	12.9849   	115.000000	13.4375   	115.000000	13.2275   	115.000000	13.4387   	115.000000	13.4332   	115.000000	0.0043736 	
120.000000	12.6119   	120.000000	13.0651   	120.000000	12.8863   	120.000000	13.0558   	120.000000	13.0609   	120.000000	0.00420866	
125.000000	12.2651   	125.000000	12.7187   	125.000000	12.5679   	125.000000	12.7001   	125.000000	12.7146   	125.000000	0.00405624	
130.000000	11.9417   	130.000000	12.3955   	130.000000	12.2707   	130.000000	12.3688   	130.000000	12.3916   	130.000000	0.00391494	
135.000000	11.6394   	135.000000	12.0934   	135.000000	11.9914   	135.000000	12.0595   	135.000000	12.0897   	135.000000	0.00378357	
140.000000	11.3561   	140.000000	11.8104   	140.000000	11.7296   	140.000000	11.77     	140.000000	11.8068   	140.000000	0.00366111	
145.000000	11.0901   	145.000000	11.5448   	145.000000	11.4833   	145.000000	11.4986   	145.000000	11.5412   	145.000000	0.00354666	
150.000000	10.8398   	150.000000	11.2949   	150.000000	11.2507   	150.000000	11.2436   	150.000000	11.2914   	150.000000	0.00343946	
155.000000	10.4799   	155.000000	11.0594   	155.000000	11.0314   	155.000000	11.0036   	155.000000	11.0561   	155.000000	0.00333882	
160.000000	10.2727   	160.000000	10.8372   	160.000000	10.8241   	160.000000	10.7773   	160.000000	10.834    	160.000000	0.00324416	
165.000000	10.0769   	165.000000	10.6271   	165.000000	10.6274   	165.000000	10.5636   	165.000000	10.624    	165.000000	0.00315494	
170.000000	9.89139   	170.000000	10.4282   	170.000000	10.4405   	170.000000	10.3614   	170.000000	10.4252   	170.000000	0.00307071	
175.000000	9.71548   	175.000000	10.2397   	175.000000	10.2628   	175.000000	10.1699   	175.000000	10.2367   	175.000000	0.00299105	
180.000000	9.54841   	180.000000	10.0607   	180.000000	10.0941   	180.000000	9.9883    	180.000000	10.0577   	180.000000	0.0029156 	
185.000000	9.38952   	185.000000	9.89047   	185.000000	9.93384   	185.000000	9.81578   	185.000000	9.88763   	185.000000	0.00284402	
190.000000	9.23822   	190.000000	9.72851   	190.000000	9.78122   	190.000000	9.65173   	190.000000	9.72573   	190.000000	0.00277602	
195.000000	9.09396   	195.000000	9.57418   	195.000000	9.63545   	195.000000	9.49553   	195.000000	9.57147   	195.000000	0.00271133	
200.000000	8.95626   	200.000000	9.42697   	200.000000	9.49595   	200.000000	9.34666   	200.000000	9.42432   	200.000000	0.00264972	
210.000000	8.69883   	210.000000	9.15202   	210.000000	9.23466   	210.000000	9.06892   	210.000000	9.14949   	210.000000	0.00253487	
220.000000	8.46282   	220.000000	8.90034   	220.000000	8.99561   	220.000000	8.81506   	220.000000	8.89791   	220.000000	0.00242996	
230.000000	8.24566   	230.000000	8.66912   	230.000000	8.77557   	230.000000	8.58217   	230.000000	8.66679   	230.000000	0.00233373	
240.000000	8.04515   	240.000000	8.456     	240.000000	8.57175   	240.000000	8.3678    	240.000000	8.45376   	240.000000	0.00224514	
250.000000	7.85945   	250.000000	8.25897   	250.000000	8.38305   	250.000000	8.16988   	250.000000	8.25681   	250.000000	0.00216329	
260.000000	7.68697   	260.000000	8.0763    	260.000000	8.20816   	260.000000	7.98661   	260.000000	8.07421   	260.000000	0.00208744	
270.000000	7.52634   	270.000000	7.90649   	270.000000	8.0456    	270.000000	7.81647   	270.000000	7.90448   	270.000000	0.00201695	
280.000000	7.3764    	280.000000	7.74827   	280.000000	7.89413   	280.000000	7.65812   	280.000000	7.74632   	280.000000	0.00195124	
290.000000	7.2361    	290.000000	7.6005    	290.000000	7.75218   	290.000000	7.51042   	290.000000	7.59861   	290.000000	0.00188986	
300.000000	7.10455   	300.000000	7.46221   	300.000000	7.61865   	300.000000	7.37236   	300.000000	7.46038   	300.000000	0.00183237	
310.000000	6.98097   	310.000000	7.33254   	310.000000	7.49345   	310.000000	7.24304   	310.000000	7.33076   	310.000000	0.00177842	
320.000000	6.86466   	320.000000	7.21072   	320.000000	7.37642   	320.000000	7.1217    	320.000000	7.20899   	320.000000	0.00172768	
330.000000	6.755     	330.000000	7.09607   	330.000000	7.26597   	330.000000	7.00763   	330.000000	7.09439   	330.000000	0.00167987	
340.000000	6.65144   	340.000000	6.98801   	340.000000	7.16154   	340.000000	6.90023   	340.000000	6.98637   	340.000000	0.00163475	
350.000000	6.5535    	350.000000	6.88599   	350.000000	7.06307   	350.000000	6.79895   	350.000000	6.8844    	350.000000	0.00159208	
360.000000	6.46075   	360.000000	6.78954   	360.000000	6.97011   	360.000000	6.7033    	360.000000	6.78799   	360.000000	0.00155167	
370.000000	6.37278   	370.000000	6.69823   	370.000000	6.88207   	370.000000	6.61285   	370.000000	6.69672   	370.000000	0.00151334	
380.000000	6.28925   	380.000000	6.61168   	380.000000	6.79835   	380.000000	6.5272    	380.000000	6.6102    	380.000000	0.00147694	
390.000000	6.20984   	390.000000	6.52953   	390.000000	6.71875   	390.000000	6.44599   	390.000000	6.52809   	390.000000	0.00144232	
400.000000	6.13426   	400.000000	6.45147   	400.000000	6.64317   	400.000000	6.3689    	400.000000	6.45006   	400.000000	0.00140934	
410.000000	6.06224   	410.000000	6.37722   	410.000000	6.57135   	410.000000	6.29565   	410.000000	6.37584   	410.000000	0.00137791	
420.000000	5.99356   	420.000000	6.30652   	420.000000	6.50297   	420.000000	6.22597   	420.000000	6.30517   	420.000000	0.0013479 	
430.000000	5.92798   	430.000000	6.23912   	430.000000	6.43783   	430.000000	6.15962   	430.000000	6.2378    	430.000000	0.00131922	
440.000000	5.86532   	440.000000	6.17482   	440.000000	6.37577   	440.000000	6.09637   	440.000000	6.17353   	440.000000	0.00129178	
450.000000	5.8054    	450.000000	6.11341   	450.000000	6.31647   	450.000000	6.03603   	450.000000	6.11215   	450.000000	0.00126551	
460.000000	5.74804   	460.000000	6.05472   	460.000000	6.25965   	460.000000	5.97842   	460.000000	6.05348   	460.000000	0.00124033	
470.000000	5.69309   	470.000000	5.99858   	470.000000	6.20518   	470.000000	5.92336   	470.000000	5.99737   	470.000000	0.00121617	
480.000000	5.64041   	480.000000	5.94484   	480.000000	6.15305   	480.000000	5.87069   	480.000000	5.94364   	480.000000	0.00119297	
490.000000	5.58988   	490.000000	5.89335   	490.000000	6.10317   	490.000000	5.82029   	490.000000	5.89218   	490.000000	0.00117068	
500.000000	5.54137   	500.000000	5.84399   	500.000000	6.05538   	500.000000	5.77201   	500.000000	5.84284   	500.000000	0.00114923	
520.000000	5.44997   	520.000000	5.75116   	520.000000	5.96556   	520.000000	5.68133   	520.000000	5.75005   	520.000000	0.00110871	
540.000000	5.36542   	540.000000	5.66551   	540.000000	5.88284   	540.000000	5.59781   	540.000000	5.66444   	540.000000	0.00107105	
560.000000	5.28704   	560.000000	5.58629   	560.000000	5.80624   	560.000000	5.52067   	560.000000	5.58525   	560.000000	0.00103597	
580.000000	5.21422   	580.000000	5.51285   	580.000000	5.73494   	580.000000	5.44928   	580.000000	5.51185   	580.000000	0.00100319	
600.000000	5.14644   	600.000000	5.44465   	600.000000	5.66905   	600.000000	5.38307   	600.000000	5.44367   	600.000000	0.000972509	
620.000000	5.08325   	620.000000	5.38118   	620.000000	5.60795   	620.000000	5.32154   	620.000000	5.38023   	620.000000	0.000943716	
640.000000	5.02425   	640.000000	5.32202   	640.000000	5.55076   	640.000000	5.26426   	640.000000	5.3211    	640.000000	0.000916644	
660.000000	4.96907   	660.000000	5.26679   	660.000000	5.49725   	660.000000	5.21084   	660.000000	5.2659    	660.000000	0.00089114	
680.000000	4.9174    	680.000000	5.21515   	680.000000	5.44729   	680.000000	5.16094   	680.000000	5.21429   	680.000000	0.00086707	
700.000000	4.86895   	700.000000	5.16681   	700.000000	5.4006    	700.000000	5.11427   	700.000000	5.16597   	700.000000	0.000844316	
720.000000	4.82348   	720.000000	5.1215    	720.000000	5.35686   	720.000000	5.07055   	720.000000	5.12067   	720.000000	0.00082277	
740.000000	4.78077   	740.000000	5.07897   	740.000000	5.31569   	740.000000	5.02955   	740.000000	5.07817   	740.000000	0.000802338	
760.000000	4.74059   	760.000000	5.03902   	760.000000	5.27683   	760.000000	4.99104   	760.000000	5.03824   	760.000000	0.000782935	
780.000000	4.70278   	780.000000	5.00146   	780.000000	5.24028   	780.000000	4.95484   	780.000000	5.00069   	780.000000	0.000764483	
800.000000	4.66717   	800.000000	4.9661    	800.000000	5.20604   	800.000000	4.92077   	800.000000	4.96535   	800.000000	0.000746914	
820.000000	4.6336    	820.000000	4.93279   	820.000000	5.17396   	820.000000	4.88877   	820.000000	4.93206   	820.000000	0.000730164	
840.000000	4.60194   	840.000000	4.9014    	840.000000	5.14407   	840.000000	4.85903   	840.000000	4.90068   	840.000000	0.000714178	
860.000000	4.57206   	860.000000	4.87178   	860.000000	5.11573   	860.000000	4.83096   	860.000000	4.87108   	860.000000	0.000698903	
880.000000	4.54385   	880.000000	4.84383   	880.000000	5.08889   	880.000000	4.80446   	880.000000	4.84314   	880.000000	0.000684293	
900.000000	4.51721   	900.000000	4.81743   	900.000000	5.0635    	900.000000	4.7794    	900.000000	4.81675   	900.000000	0.000670304	
920.000000	4.49204   	920.000000	4.79248   	920.000000	5.03951   	920.000000	4.75571   	920.000000	4.79182   	920.000000	0.000656897	
940.000000	4.46825   	940.000000	4.76889   	940.000000	5.0168    	940.000000	4.73328   	940.000000	4.76825   	940.000000	0.000644036	
960.000000	4.44577   	960.000000	4.74659   	960.000000	4.99529   	960.000000	4.71204   	960.000000	4.74596   	960.000000	0.000631687	
980.000000	4.42451   	980.000000	4.72549   	980.000000	4.97489   	980.000000	4.69192   	980.000000	4.72487   	980.000000	0.000619822	
1000.000000	4.40441   	1000.000000	4.70553   	1000.000000	4.95554   	1000.000000	4.67284   	1000.000000	4.70492   	1000.000000	0.00060841	
1020.000000	4.3854    	1020.000000	4.68663   	1020.000000	4.93718   	1020.000000	4.65474   	1020.000000	4.68603   	1020.000000	0.000597427	
1040.000000	4.36743   	1040.000000	4.66874   	1040.000000	4.91976   	1040.000000	4.63756   	1040.000000	4.66815   	1040.000000	0.000586848	
1060.000000	4.35044   	1060.000000	4.6518    	1060.000000	4.90322   	1060.000000	4.62125   	1060.000000	4.65122   	1060.000000	0.000576652	
1080.000000	4.33438   	1080.000000	4.63576   	1080.000000	4.88749   	1080.000000	4.60576   	1080.000000	4.6352    	1080.000000	0.000566817	
1100.000000	4.31921   	1100.000000	4.62058   	1100.000000	4.87253   	1100.000000	4.59104   	1100.000000	4.62002   	1100.000000	0.000557324	
1120.000000	4.30487   	1120.000000	4.6062    	1120.000000	4.85827   	1120.000000	4.57704   	1120.000000	4.60566   	1120.000000	0.000548157	
1140.000000	4.29133   	1140.000000	4.59259   	1140.000000	4.84468   	1140.000000	4.56374   	1140.000000	4.59205   	1140.000000	0.000539297	
1160.000000	4.27855   	1160.000000	4.57971   	1160.000000	4.83174   	1160.000000	4.55108   	1160.000000	4.57918   	1160.000000	0.000530729	
1180.000000	4.26649   	1180.000000	4.56752   	1180.000000	4.81942   	1180.000000	4.53904   	1180.000000	4.56699   	1180.000000	0.00052244	
1200.000000	4.25513   	1200.000000	4.55598   	1200.000000	4.80769   	1200.000000	4.52758   	1200.000000	4.55547   	1200.000000	0.000514416	
1220.000000	4.24442   	1220.000000	4.54507   	1220.000000	4.79654   	1220.000000	4.51668   	1220.000000	4.54456   	1220.000000	0.000506643	
1240.000000	4.23434   	1240.000000	4.53476   	1240.000000	4.78593   	1240.000000	4.5063    	1240.000000	4.53426   	1240.000000	0.000499111	
1260.000000	4.22486   	1260.000000	4.52501   	1260.000000	4.77583   	1260.000000	4.49641   	1260.000000	4.52452   	1260.000000	0.000491808	
1280.000000	4.21595   	1280.000000	4.51581   	1280.000000	4.7662    	1280.000000	4.487     	1280.000000	4.51532   	1280.000000	0.000484723	
1300.000000	4.2076    	1300.000000	4.50712   	1300.000000	4.75703   	1300.000000	4.47804   	1300.000000	4.50664   	1300.000000	0.000477847	
1320.000000	4.19977   	1320.000000	4.49892   	1320.000000	4.74829   	1320.000000	4.4695    	1320.000000	4.49845   	1320.000000	0.000471171	
1340.000000	4.19245   	1340.000000	4.4912    	1340.000000	4.73996   	1340.000000	4.46137   	1340.000000	4.49074   	1340.000000	0.000464686	
1360.000000	4.18561   	1360.000000	4.48393   	1360.000000	4.73201   	1360.000000	4.45362   	1360.000000	4.48347   	1360.000000	0.000458383	
1380.000000	4.17924   	1380.000000	4.4771    	1380.000000	4.72443   	1380.000000	4.44625   	1380.000000	4.47664   	1380.000000	0.000452256	
1400.000000	4.17332   	1400.000000	4.47067   	1400.000000	4.7172    	1400.000000	4.43922   	1400.000000	4.47023   	1400.000000	0.000446296	
1420.000000	4.16782   	1420.000000	4.46465   	1420.000000	4.71031   	1420.000000	4.43253   	1420.000000	4.46421   	1420.000000	0.000440497	
1440.000000	4.16274   	1440.000000	4.459     	1440.000000	4.70373   	1440.000000	4.42616   	1440.000000	4.45857   	1440.000000	0.000434853	
1460.000000	4.15805   	1460.000000	4.45372   	1460.000000	4.69746   	1460.000000	4.4201    	1460.000000	4.45329   	1460.000000	0.000429356	
1480.000000	4.15375   	1480.000000	4.44879   	1480.000000	4.69149   	1480.000000	4.41432   	1480.000000	4.44837   	1480.000000	0.000424002	
1500.000000	4.14981   	1500.000000	4.4442    	1500.000000	4.68579   	1500.000000	4.40883   	1500.000000	4.44378   	1500.000000	0.000418785	
1520.000000	4.14623   	1520.000000	4.43993   	1520.000000	4.68037   	1520.000000	4.4036    	1520.000000	4.43952   	1520.000000	0.0004137 	
1540.000000	4.14299   	1540.000000	4.43598   	1540.000000	4.6752    	1540.000000	4.39862   	1540.000000	4.43557   	1540.000000	0.000408741	
1560.000000	4.14008   	1560.000000	4.43232   	1560.000000	4.67028   	1560.000000	4.39389   	1560.000000	4.43191   	1560.000000	0.000403904	
1580.000000	4.13749   	1580.000000	4.42895   	1580.000000	4.6656    	1580.000000	4.38939   	1580.000000	4.42855   	1580.000000	0.000399184	
1600.000000	4.13521   	1600.000000	4.42586   	1600.000000	4.66115   	1600.000000	4.38511   	1600.000000	4.42546   	1600.000000	0.000394578	
1620.000000	4.13322   	1620.000000	4.42303   	1620.000000	4.65692   	1620.000000	4.38105   	1620.000000	4.42264   	1620.000000	0.00039008	
1640.000000	4.13153   	1640.000000	4.42047   	1640.000000	4.6529    	1640.000000	4.3772    	1640.000000	4.42008   	1640.000000	0.000385688	
1660.000000	4.13011   	1660.000000	4.41815   	1660.000000	4.64908   	1660.000000	4.37354   	1660.000000	4.41777   	1660.000000	0.000381397	
1680.000000	4.12896   	1680.000000	4.41607   	1680.000000	4.64545   	1680.000000	4.37007   	1680.000000	4.41569   	1680.000000	0.000377204	
1700.000000	4.12807   	1700.000000	4.41422   	1700.000000	4.64201   	1700.000000	4.36678   	1700.000000	4.41385   	1700.000000	0.000373106	
1750.000000	4.12693   	1750.000000	4.41057   	1750.000000	4.63416   	1750.000000	4.35929   	1750.000000	4.4102    	1750.000000	0.000363253	
1800.000000	4.12725   	1800.000000	4.40819   	1800.000000	4.6273    	1800.000000	4.35279   	1800.000000	4.40784   	1800.000000	0.000353926	
1850.000000	4.12891   	1850.000000	4.407     	1850.000000	4.62134   	1850.000000	4.34718   	1850.000000	4.40665   	1850.000000	0.000345083	
1900.000000	4.13184   	1900.000000	4.40689   	1900.000000	4.61619   	1900.000000	4.34238   	1900.000000	4.40655   	1900.000000	0.000336686	
1950.000000	4.13593   	1950.000000	4.40778   	1950.000000	4.61179   	1950.000000	4.33831   	1950.000000	4.40745   	1950.000000	0.000328702	
2000.000000	4.14111   	2000.000000	4.4096    	2000.000000	4.60807   	2000.000000	4.3349    	2000.000000	4.40928   	2000.000000	0.000321102	
2100.000000	4.15445   	2100.000000	4.41577   	2100.000000	4.60244   	2100.000000	4.32986   	2100.000000	4.41546   	2100.000000	0.000306944	
2200.000000	4.17138   	2200.000000	4.42491   	2200.000000	4.59889   	2200.000000	4.32685   	2200.000000	4.42462   	2200.000000	0.000294023	
2300.000000	4.19149   	2300.000000	4.43665   	2300.000000	4.59708   	2300.000000	4.32554   	2300.000000	4.43637   	2300.000000	0.000282182	
2400.000000	4.21441   	2400.000000	4.45065   	2400.000000	4.59674   	2400.000000	4.32566   	2400.000000	4.45038   	2400.000000	0.000271289	
2500.000000	4.23988   	2500.000000	4.46665   	2500.000000	4.59764   	2500.000000	4.32699   	2500.000000	4.46639   	2500.000000	0.000261233	
2600.000000	4.26762   	2600.000000	4.48441   	2600.000000	4.59959   	2600.000000	4.32934   	2600.000000	4.48415   	2600.000000	0.000251921	
2700.000000	4.29744   	2700.000000	4.50373   	2700.000000	4.60243   	2700.000000	4.33255   	2700.000000	4.50348   	2700.000000	0.000243272	
2800.000000	4.32914   	2800.000000	4.52444   	2800.000000	4.60603   	2800.000000	4.3365    	2800.000000	4.5242    	2800.000000	0.000235217	
2900.000000	4.36257   	2900.000000	4.5464    	2900.000000	4.61029   	2900.000000	4.34108   	2900.000000	4.54617   	2900.000000	0.000227696	
3000.000000	4.39759   	3000.000000	4.56948   	3000.000000	4.61509   	3000.000000	4.34618   	3000.000000	4.56926   	3000.000000	0.000220657	
3200.000000	4.47191   	3200.000000	4.61858   	3200.000000	4.62603   	3200.000000	4.35767   	3200.000000	4.61837   	3200.000000	0.000207849	
3400.000000	4.55129   	3400.000000	4.67099   	3400.000000	4.6383    	3400.000000	4.37046   	3400.000000	4.6708    	3400.000000	0.000196492	
3600.000000	4.63509   	3600.000000	4.72616   	3600.000000	4.6515    	3600.000000	4.38418   	3600.000000	4.72597   	3600.000000	0.00018635	
3800.000000	4.72281   	3800.000000	4.78362   	3800.000000	4.66536   	3800.000000	4.39855   	3800.000000	4.78344   	3800.000000	0.000177236	
4000.000000	4.81403   	4000.000000	4.84301   	4000.000000	4.67966   	4000.000000	4.41335   	4000.000000	4.84285   	4000.000000	0.000168999	
4200.000000	4.90842   	4200.000000	4.90406   	4200.000000	4.69426   	4200.000000	4.42842   	4200.000000	4.90389   	4200.000000	0.000161518	
4400.000000	5.0057    	4400.000000	4.9665    	4400.000000	4.70904   	4400.000000	4.44364   	4400.000000	4.96635   	4400.000000	0.000154692	
4600.000000	5.10564   	4600.000000	5.03016   	4600.000000	4.7239    	4600.000000	4.45892   	4600.000000	5.03001   	4600.000000	0.000148437	
4800.000000	5.20805   	4800.000000	5.09486   	4800.000000	4.73879   	4800.000000	4.47418   	4800.000000	5.09472   	4800.000000	0.000142685	
5000.000000	5.31278   	5000.000000	5.16047   	5000.000000	4.75363   	5000.000000	4.48937   	5000.000000	5.16033   	5000.000000	0.000137375	
5250.000000	5.44672   	5250.000000	5.24359   	5250.000000	4.77205   	5250.000000	4.50819   	5250.000000	5.24345   	5250.000000	0.000131287	
5500.000000	5.58382   	5500.000000	5.32775   	5500.000000	4.79028   	5500.000000	4.52677   	5500.000000	5.32762   	5500.000000	0.000125731	
6000.000000	5.86679   	6000.000000	5.49863   	6000.000000	4.82588   	6000.000000	4.56308   	6000.000000	5.49852   	6000.000000	0.000115961	
6500.000000	6.1605    	6500.000000	5.67216   	6500.000000	4.85982   	6500.000000	4.59808   	6500.000000	5.67206   	6500.000000	0.000107641	
7000.000000	6.46411   	7000.000000	5.84767   	7000.000000	4.89271   	7000.000000	4.63172   	7000.000000	5.84757   	7000.000000	0.000100469	
7500.000000	6.77699   	7500.000000	6.02466   	7500.000000	4.92414   	7500.000000	4.66397   	7500.000000	6.02456   	7500.000000	9.42192e-05	
8000.000000	7.09865   	8000.000000	6.20277   	8000.000000	4.9541    	8000.000000	4.69489   	8000.000000	6.20268   	8000.000000	8.87238e-05	
8500.000000	7.42874   	8500.000000	6.38173   	8500.000000	4.98281   	8500.000000	4.72452   	8500.000000	6.38164   	8500.000000	8.38525e-05	
9000.000000	7.76696   	9000.000000	6.56133   	9000.000000	5.01035   	9000.000000	4.75294   	9000.000000	6.56125   	9000.000000	7.95037e-05	
9500.000000	8.11311   	9500.000000	6.74142   	9500.000000	5.03674   	9500.000000	4.7802    	9500.000000	6.74134   	9500.000000	7.55967e-05	
10000.000000	8.46699   	10000.000000	6.92186   	10000.000000	5.06201   	10000.000000	4.80639   	10000.000000	6.92179   	10000.000000	7.2067e-05	
11000.000000	9.19742   	11000.000000	7.28345   	11000.000000	5.10945   	11000.000000	4.85576   	11000.000000	7.28339   	11000.000000	6.59379e-05	
12000.000000	9.9574    	12000.000000	7.64552   	12000.000000	5.15317   	12000.000000	4.90156   	12000.000000	7.64546   	12000.000000	6.07965e-05	
13000.000000	10.7464   	13000.000000	8.00771   	13000.000000	5.19357   	13000.000000	4.94419   	13000.000000	8.00765   	13000.000000	5.64201e-05	
14000.000000	11.5639   	14000.000000	8.36975   	14000.000000	5.23107   	14000.000000	4.98404   	14000.000000	8.3697    	14000.000000	5.26481e-05	
15000.000000	12.4098   	15000.000000	8.7315    	15000.000000	5.266     	15000.000000	5.02141   	15000.000000	8.73145   	15000.000000	4.93625e-05	
16000.000000	13.2839   	16000.000000	9.09283   	16000.000000	5.2986    	16000.000000	5.05658   	16000.000000	9.09278   	16000.000000	4.6474e-05	
17000.000000	14.1861   	17000.000000	9.45368   	17000.000000	5.32913   	17000.000000	5.08976   	17000.000000	9.45364   	17000.000000	4.39141e-05	
18000.000000	15.1163   	18000.000000	9.814     	18000.000000	5.35786   	18000.000000	5.12117   	18000.000000	9.81396   	18000.000000	4.16292e-05	
19000.000000	16.0745   	19000.000000	10.1738   	19000.000000	5.38501   	19000.000000	5.15096   	19000.000000	10.1737   	19000.000000	3.9577e-05	
20000.000000	17.0608   	20000.000000	10.5329   	20000.000000	5.41079   	20000.000000	5.1793    	20000.000000	10.5329   	20000.000000	3.77232e-05	
21000.000000	18.0751   	21000.000000	10.8915   	21000.000000	5.43515   	21000.000000	5.20631   	21000.000000	10.8915   	21000.000000	3.60401e-05	
22000.000000	19.1176   	22000.000000	11.2495   	22000.000000	5.45787   	22000.000000	5.2321    	22000.000000	11.2495   	22000.000000	3.4505e-05	
23000.000000	20.1883   	23000.000000	11.6069   	23000.000000	5.47942   	23000.000000	5.25678   	23000.000000	11.6069   	23000.000000	3.3099e-05	
24000.000000	21.2873   	24000.000000	11.9637   	24000.000000	5.49997   	24000.000000	5.28043   	24000.000000	11.9637   	24000.000000	3.18063e-05	
25000.000000	22.4147   	25000.000000	12.32     	25000.000000	5.51957   	25000.000000	5.30313   	25000.000000	12.3199   	25000.000000	3.06137e-05	
26000.000000	23.5706   	26000.000000	12.6756   	26000.000000	5.5382    	26000.000000	5.32496   	26000.000000	12.6756   	26000.000000	2.95098e-05	
27000.000000	24.7551   	27000.000000	13.0307   	27000.000000	5.55592   	27000.000000	5.34597   	27000.000000	13.0307   	27000.000000	2.8485e-05	
28000.000000	25.9683   	28000.000000	13.3853   	28000.000000	5.57281   	28000.000000	5.36622   	28000.000000	13.3853   	28000.000000	2.7531e-05	
29000.000000	27.2104   	29000.000000	13.7393   	29000.000000	5.58895   	29000.000000	5.38577   	29000.000000	13.7393   	29000.000000	2.66406e-05	
30000.000000	28.4815   	30000.000000	14.0928   	30000.000000	5.60438   	30000.000000	5.40466   	30000.000000	14.0928   	30000.000000	2.58077e-05	
32000.000000	31.1111   	32000.000000	14.7982   	32000.000000	5.6333    	32000.000000	5.44061   	32000.000000	14.7982   	32000.000000	2.42931e-05	
34000.000000	33.8582   	34000.000000	15.5017   	34000.000000	5.6599    	34000.000000	5.47439   	34000.000000	15.5016   	34000.000000	2.2951e-05	
36000.000000	36.724    	36000.000000	16.2032   	36000.000000	5.68432   	36000.000000	5.50622   	36000.000000	16.2032   	36000.000000	2.17533e-05	
38000.000000	39.7098   	38000.000000	16.903    	38000.000000	5.70682   	38000.000000	5.53632   	38000.000000	16.903    	38000.000000	2.06778e-05	
40000.000000	42.8166   	40000.000000	17.601    	40000.000000	5.72765   	40000.000000	5.56486   	40000.000000	17.601    	40000.000000	1.97064e-05	
42000.000000	46.0458   	42000.000000	18.2974   	42000.000000	5.74703   	42000.000000	5.59199   	42000.000000	18.2973   	42000.000000	1.88247e-05	
44000.000000	49.3986   	44000.000000	18.9921   	44000.000000	5.76517   	44000.000000	5.61784   	44000.000000	18.9921   	44000.000000	1.80205e-05	
46000.000000	52.8764   	46000.000000	19.6854   	46000.000000	5.78228   	46000.000000	5.64253   	46000.000000	19.6854   	46000.000000	1.72841e-05	
48000.000000	56.4803   	48000.000000	20.3772   	48000.000000	5.7984    	48000.000000	5.66614   	48000.000000	20.3772   	48000.000000	1.66072e-05	
50000.000000	60.2118   	50000.000000	21.0676   	50000.000000	5.8134    	50000.000000	5.68878   	50000.000000	21.0675   	50000.000000	1.59827e-05	
