Energy (MeV/u)1	0 - [He-base] F.Hubert et al, AD&ND Tables 46(1990)1	Energy (MeV/u)2	1 - [H -base] J.F.Ziegler et al, Pergamon Press, NY (low energy)	Energy (MeV/u)3	2 - ATIMA 1.2  LS-theory (recommended for high energy)	Energy (MeV/u)4	3 - ATIMA 1.2  without LS-correction	Energy (MeV/u)5	4 - electrical component of [1] - J.F.Ziegler et al	Energy (MeV/u)6	5 - nuclear component of [1] - J.F.Ziegler et al	
0.001000	8.4772    	0.001000	8.26459   	0.001000	6.92948   	0.001000	6.92948   	0.001000	2.50041   	0.001000	5.76418   	
0.002000	8.62548   	0.002000	8.39366   	0.002000	6.79895   	0.002000	6.79895   	0.002000	3.24263   	0.002000	5.15103   	
0.005000	8.73614   	0.005000	8.40371   	0.005000	6.437     	0.005000	6.437     	0.005000	4.5722    	0.005000	3.83151   	
0.008000	8.97598   	0.008000	8.55137   	0.008000	6.39361   	0.008000	6.39361   	0.008000	5.45344   	0.008000	3.09793   	
0.010000	9.17249   	0.010000	8.69478   	0.010000	6.45004   	0.010000	6.45004   	0.010000	5.92941   	0.010000	2.76537   	
0.015000	9.70043   	0.015000	9.1117    	0.015000	6.72132   	0.015000	6.72132   	0.015000	6.90313   	0.015000	2.20857   	
0.020000	10.2268   	0.020000	9.54825   	0.020000	7.06961   	0.020000	7.06961   	0.020000	7.6895    	0.020000	1.85875   	
0.025000	10.7307   	0.025000	9.97606   	0.025000	7.44134   	0.025000	7.44134   	0.025000	8.36063   	0.025000	1.61543   	
0.030000	11.46     	0.030000	10.5965   	0.030000	8.07197   	0.030000	8.07197   	0.030000	9.16163   	0.030000	1.43491   	
0.035000	12.2175   	0.035000	11.3949   	0.035000	8.95601   	0.035000	8.95601   	0.035000	10.1      	0.035000	1.29485   	
0.040000	12.8717   	0.040000	12.1917   	0.040000	9.87168   	0.040000	9.87168   	0.040000	11.0092   	0.040000	1.18257   	
0.045000	13.4137   	0.045000	12.9787   	0.045000	10.8032   	0.045000	10.8032   	0.045000	11.8884   	0.045000	1.09025   	
0.050000	13.8313   	0.050000	13.7498   	0.050000	11.7388   	0.050000	11.7388   	0.050000	12.737    	0.050000	1.01283   	
0.055000	14.5634   	0.055000	14.4921   	0.055000	12.6605   	0.055000	12.6605   	0.055000	13.5541   	0.055000	0.937933  	
0.060000	15.23     	0.060000	15.2209   	0.060000	13.5796   	0.060000	13.5796   	0.060000	14.3393   	0.060000	0.881638  	
0.070000	16.3703   	0.070000	16.601    	0.070000	15.3595   	0.070000	15.3595   	0.070000	15.8121   	0.070000	0.788895  	
0.080000	17.6157   	0.080000	17.8707   	0.080000	17.0379   	0.080000	17.0379   	0.080000	17.1553   	0.080000	0.715451  	
0.090000	18.6986   	0.090000	19.0277   	0.090000	18.5975   	0.090000	18.5975   	0.090000	18.372    	0.090000	0.655689  	
0.100000	19.6532   	0.100000	20.0745   	0.100000	20.0307   	0.100000	20.0307   	0.100000	19.4685   	0.100000	0.606007  	
0.120000	21.376    	0.120000	22.4464   	0.120000	22.5209   	0.120000	22.5209   	0.120000	21.9185   	0.120000	0.527915  	
0.140000	22.8099   	0.140000	24.4205   	0.140000	24.5516   	0.140000	24.5516   	0.140000	23.9514   	0.140000	0.4691    	
0.160000	24.086    	0.160000	26.0188   	0.160000	26.1965   	0.160000	26.1965   	0.160000	25.5957   	0.160000	0.423047  	
0.180000	25.2917   	0.180000	27.3178   	0.180000	27.533    	0.180000	27.533    	0.180000	26.9318   	0.180000	0.385908  	
0.200000	26.4694   	0.200000	28.385    	0.200000	28.6307   	0.200000	28.6307   	0.200000	28.0297   	0.200000	0.35526   	
0.250000	28.5359   	0.250000	30.4632   	0.250000	30.6715   	0.250000	30.6715   	0.250000	30.1655   	0.250000	0.297667  	
0.300000	30.5933   	0.300000	32.1366   	0.300000	32.122    	0.300000	32.122    	0.300000	31.8794   	0.300000	0.257219  	
0.350000	32.4064   	0.350000	33.4345   	0.350000	33.2612   	0.350000	33.2612   	0.350000	33.2074   	0.350000	0.227115  	
0.400000	33.9863   	0.400000	34.5036   	0.400000	34.4942   	0.400000	34.4942   	0.400000	34.2998   	0.400000	0.203759  	
0.450000	35.3519   	0.450000	35.4156   	0.450000	35.8401   	0.450000	35.8401   	0.450000	35.2306   	0.450000	0.185066  	
0.500000	37.1274   	0.500000	36.7979   	0.500000	36.9815   	0.500000	36.9815   	0.500000	36.6282   	0.500000	0.169736  	
0.600000	38.8729   	0.600000	39.2938   	0.600000	38.7987   	0.600000	38.7987   	0.600000	39.1478   	0.600000	0.146029  	
0.700000	39.6431   	0.700000	41.1836   	0.700000	40.1473   	0.700000	40.1473   	0.700000	41.0551   	0.700000	0.128488  	
0.800000	41.315    	0.800000	42.6181   	0.800000	41.1466   	0.800000	41.1466   	0.800000	42.5031   	0.800000	0.114944  	
0.900000	42.3052   	0.900000	43.4398   	0.900000	41.8781   	0.900000	41.8781   	0.900000	43.3357   	0.900000	0.104145  	
1.000000	42.9405   	1.000000	43.958    	1.000000	42.4012   	1.000000	42.4012   	1.000000	43.8627   	1.000000	0.0953196 	
1.250000	43.6148   	1.250000	44.5925   	1.250000	43.0635   	1.250000	43.0635   	1.250000	44.5136   	1.250000	0.0789473 	
1.500000	43.3286   	1.500000	44.3661   	1.500000	43.1309   	1.500000	43.1309   	1.500000	44.2985   	1.500000	0.0676222 	
1.750000	42.3923   	1.750000	43.5188   	1.750000	42.8514   	1.750000	42.8514   	1.750000	43.4595   	1.750000	0.0592901 	
2.000000	41.4242   	2.000000	42.6576   	2.000000	42.3663   	2.000000	42.3663   	2.000000	42.6048   	2.000000	0.0528855 	
2.250000	40.5206   	2.250000	41.7988   	2.250000	41.7595   	2.250000	41.7595   	2.250000	41.751    	2.250000	0.0477987 	
2.500000	49.5432   	2.500000	40.9281   	2.500000	40.9917   	2.500000	40.9917   	2.500000	40.8844   	2.500000	0.0436542 	
3.000000	47.0429   	3.000000	39.2342   	3.000000	39.2968   	3.000000	39.2968   	3.000000	39.1969   	3.000000	0.0372949 	
3.500000	44.6522   	3.500000	37.6756   	3.500000	37.7138   	3.500000	37.7138   	3.500000	37.643    	3.500000	0.0326312 	
4.000000	42.4361   	4.000000	36.2378   	4.000000	36.2438   	4.000000	36.2438   	4.000000	36.2087   	4.000000	0.0290556 	
4.500000	40.4063   	4.500000	34.865    	4.500000	34.8808   	4.500000	34.8808   	4.500000	34.8388   	4.500000	0.0262219 	
5.000000	38.5543   	5.000000	33.6084   	5.000000	33.6164   	5.000000	33.6164   	5.000000	33.5845   	5.000000	0.0239174 	
5.500000	36.8649   	5.500000	32.4575   	5.500000	32.442    	5.500000	32.442    	5.500000	32.4355   	5.500000	0.0220044 	
6.000000	35.3214   	6.000000	31.3999   	6.000000	31.3489   	6.000000	31.3489   	6.000000	31.3796   	6.000000	0.0203894 	
6.500000	33.9078   	6.500000	30.4115   	6.500000	30.3294   	6.500000	30.3294   	6.500000	30.3925   	6.500000	0.0190066 	
7.000000	32.6095   	7.000000	29.4855   	7.000000	29.3764   	7.000000	29.3764   	7.000000	29.4677   	7.000000	0.0178086 	
7.500000	31.4137   	7.500000	28.6156   	7.500000	28.4838   	7.500000	28.4838   	7.500000	28.5989   	7.500000	0.0167601 	
8.000000	30.309    	8.000000	27.7969   	8.000000	27.646    	8.000000	27.646    	8.000000	27.7811   	8.000000	0.0158342 	
8.500000	29.2856   	8.500000	27.0256   	8.500000	26.858    	8.500000	26.858    	8.500000	27.0106   	8.500000	0.0150104 	
9.000000	28.3349   	9.000000	26.2976   	9.000000	26.1155   	9.000000	26.1155   	9.000000	26.2833   	9.000000	0.0142722 	
9.500000	27.4495   	9.500000	25.609    	9.500000	25.4145   	9.500000	25.4145   	9.500000	25.5954   	9.500000	0.0136069 	
10.000000	26.6228   	10.000000	24.632    	10.000000	24.7516   	10.000000	24.7516   	10.000000	24.619    	10.000000	0.0130038 	
11.000000	25.1234   	11.000000	23.5321   	11.000000	23.3964   	11.000000	23.5887   	11.000000	23.5202   	11.000000	0.0119523 	
12.000000	23.7992   	12.000000	22.5258   	12.000000	22.1936   	12.000000	22.5391   	12.000000	22.5147   	12.000000	0.0110656 	
13.000000	22.6207   	13.000000	21.6031   	13.000000	21.1196   	13.000000	21.5875   	13.000000	21.5928   	13.000000	0.0103073 	
14.000000	21.5648   	14.000000	20.7549   	14.000000	20.1552   	14.000000	20.7214   	14.000000	20.7452   	14.000000	0.00965085	
15.000000	20.6129   	15.000000	19.9731   	15.000000	19.285    	15.000000	19.93     	15.000000	19.964    	15.000000	0.00907681	
16.000000	19.7501   	16.000000	19.2505   	16.000000	18.496    	16.000000	19.2043   	16.000000	19.2419   	16.000000	0.00857033	
17.000000	18.9642   	17.000000	18.5809   	17.000000	17.7779   	17.000000	18.5369   	17.000000	18.5727   	17.000000	0.00811997	
18.000000	18.2452   	18.000000	17.9587   	18.000000	17.1218   	18.000000	17.9212   	18.000000	17.951    	18.000000	0.00771674	
19.000000	17.5847   	19.000000	17.3793   	19.000000	16.5209   	19.000000	17.3517   	19.000000	17.372    	19.000000	0.0073535 	
20.000000	16.9756   	20.000000	16.8384   	20.000000	15.9691   	20.000000	16.8236   	20.000000	16.8314   	20.000000	0.0070245 	
21.000000	16.4121   	21.000000	16.3323   	21.000000	15.4608   	21.000000	16.3328   	21.000000	16.3256   	21.000000	0.00672503	
22.000000	15.8892   	22.000000	15.8578   	22.000000	14.9905   	22.000000	15.8757   	22.000000	15.8513   	22.000000	0.00645123	
23.000000	15.4024   	23.000000	15.412    	23.000000	14.5547   	23.000000	15.4492   	23.000000	15.4058   	23.000000	0.00619988	
24.000000	14.9482   	24.000000	14.9924   	24.000000	14.1506   	24.000000	15.0505   	24.000000	14.9864   	24.000000	0.00596829	
25.000000	14.5232   	25.000000	14.5968   	25.000000	13.7752   	25.000000	14.6772   	25.000000	14.5911   	25.000000	0.00575418	
27.000000	13.7502   	27.000000	13.8697   	27.000000	13.0988   	27.000000	13.9986   	27.000000	13.8643   	27.000000	0.00537092	
29.000000	13.0648   	29.000000	13.2172   	29.000000	12.5081   	29.000000	13.3987   	29.000000	13.2121   	29.000000	0.00503767	
31.000000	12.4528   	31.000000	12.6283   	31.000000	11.9896   	31.000000	12.8237   	31.000000	12.6235   	31.000000	0.0047451 	
33.000000	11.9026   	33.000000	12.0941   	33.000000	11.5198   	33.000000	12.2651   	33.000000	12.0896   	33.000000	0.00448608	
35.000000	11.4052   	35.000000	11.6074   	35.000000	11.09     	35.000000	11.7574   	35.000000	11.6031   	35.000000	0.00425508	
38.000000	10.7422   	38.000000	10.9532   	38.000000	10.5064   	38.000000	11.077    	38.000000	10.9493   	38.000000	0.00395179	
41.000000	10.1619   	41.000000	10.3759   	41.000000	9.98751   	41.000000	10.4784   	41.000000	10.3722   	41.000000	0.00369058	
44.000000	9.64947   	44.000000	9.86262   	44.000000	9.52278   	44.000000	9.94753   	44.000000	9.85916   	44.000000	0.00346315	
47.000000	9.19344   	47.000000	9.40327   	47.000000	9.10434   	47.000000	9.47352   	47.000000	9.40001   	47.000000	0.00326326	
50.000000	8.78478   	50.000000	8.98976   	50.000000	8.72626   	50.000000	9.04769   	50.000000	8.98668   	50.000000	0.00308612	
55.000000	8.19016   	55.000000	8.38523   	55.000000	8.16905   	55.000000	8.42661   	55.000000	8.3824    	55.000000	0.00283169	
60.000000	7.68255   	60.000000	7.86687   	60.000000	7.68779   	60.000000	7.89544   	60.000000	7.86426   	60.000000	0.00261758	
65.000000	7.24381   	65.000000	7.41749   	65.000000	7.26881   	65.000000	7.43598   	65.000000	7.41506   	65.000000	0.0024348 	
70.000000	6.86054   	70.000000	7.02417   	70.000000	6.90014   	70.000000	7.0346    	70.000000	7.0219    	70.000000	0.00227685	
75.000000	6.52266   	75.000000	6.67704   	75.000000	6.57254   	75.000000	6.68095   	75.000000	6.6749    	75.000000	0.00213893	
80.000000	6.22238   	80.000000	6.36841   	80.000000	6.28091   	80.000000	6.36698   	80.000000	6.3664    	80.000000	0.00201741	
85.000000	5.95364   	85.000000	6.09222   	85.000000	6.01881   	85.000000	6.08638   	85.000000	6.09031   	85.000000	0.00190949	
90.000000	5.71161   	90.000000	5.84361   	90.000000	5.78188   	90.000000	5.83408   	90.000000	5.8418    	90.000000	0.00181299	
95.000000	5.49241   	95.000000	5.61865   	95.000000	5.56664   	95.000000	5.60602   	95.000000	5.61693   	95.000000	0.00172615	
100.000000	5.29289   	100.000000	5.41412   	100.000000	5.37084   	100.000000	5.39885   	100.000000	5.41247   	100.000000	0.00164757	
105.000000	5.11045   	105.000000	5.22735   	105.000000	5.19134   	105.000000	5.20984   	105.000000	5.22578   	105.000000	0.00157612	
110.000000	4.94295   	110.000000	5.05614   	110.000000	5.02671   	110.000000	5.03669   	110.000000	5.05463   	110.000000	0.00151086	
115.000000	4.78857   	115.000000	4.89862   	115.000000	4.87475   	115.000000	4.8775    	115.000000	4.89716   	115.000000	0.001451  	
120.000000	4.6458    	120.000000	4.7532    	120.000000	4.73427   	120.000000	4.73063   	120.000000	4.75181   	120.000000	0.00139589	
125.000000	4.51335   	125.000000	4.61856   	125.000000	4.60403   	125.000000	4.59472   	125.000000	4.61721   	125.000000	0.00134498	
130.000000	4.3901    	130.000000	4.49353   	130.000000	4.48267   	130.000000	4.46859   	130.000000	4.49223   	130.000000	0.0012978 	
135.000000	4.27512   	135.000000	4.37712   	135.000000	4.36971   	135.000000	4.35121   	135.000000	4.37587   	135.000000	0.00125394	
140.000000	4.16757   	140.000000	4.26848   	140.000000	4.26401   	140.000000	4.2417    	140.000000	4.26727   	140.000000	0.00121308	
145.000000	4.06674   	145.000000	4.16685   	145.000000	4.16487   	145.000000	4.13931   	145.000000	4.16567   	145.000000	0.0011749 	
150.000000	3.972     	150.000000	4.07157   	150.000000	4.07196   	150.000000	4.04336   	150.000000	4.07043   	150.000000	0.00113914	
155.000000	3.83748   	155.000000	3.98207   	155.000000	3.98471   	155.000000	3.95327   	155.000000	3.98097   	155.000000	0.00110558	
160.000000	3.75917   	160.000000	3.89785   	160.000000	3.90246   	160.000000	3.86851   	160.000000	3.89677   	160.000000	0.00107403	
165.000000	3.68524   	165.000000	3.81844   	165.000000	3.82468   	165.000000	3.78864   	165.000000	3.8174    	165.000000	0.00104429	
170.000000	3.61532   	170.000000	3.74345   	170.000000	3.75116   	170.000000	3.71323   	170.000000	3.74243   	170.000000	0.00101623	
175.000000	3.54909   	175.000000	3.67252   	175.000000	3.68168   	175.000000	3.64193   	175.000000	3.67153   	175.000000	0.000989688	
180.000000	3.48626   	180.000000	3.60533   	180.000000	3.61588   	180.000000	3.57441   	180.000000	3.60437   	180.000000	0.000964557	
185.000000	3.42657   	185.000000	3.5416    	185.000000	3.55331   	185.000000	3.51038   	185.000000	3.54066   	185.000000	0.000940721	
190.000000	3.36979   	190.000000	3.48106   	190.000000	3.49369   	190.000000	3.44958   	190.000000	3.48014   	190.000000	0.000918081	
195.000000	3.31571   	195.000000	3.42348   	195.000000	3.43714   	195.000000	3.39178   	195.000000	3.42258   	195.000000	0.000896549	
200.000000	3.26414   	200.000000	3.36865   	200.000000	3.38343   	200.000000	3.33675   	200.000000	3.36778   	200.000000	0.000876044	
210.000000	3.16787   	210.000000	3.2665    	210.000000	3.2826    	210.000000	3.23428   	210.000000	3.26567   	210.000000	0.000837831	
220.000000	3.07975   	220.000000	3.17327   	220.000000	3.19071   	220.000000	3.14081   	220.000000	3.17247   	220.000000	0.000802936	
230.000000	2.9988    	230.000000	3.08786   	230.000000	3.10666   	230.000000	3.05522   	230.000000	3.08708   	230.000000	0.00077094	
240.000000	2.92417   	240.000000	3.00931   	240.000000	3.02908   	240.000000	2.97656   	240.000000	3.00857   	240.000000	0.000741491	
250.000000	2.85514   	250.000000	2.93685   	250.000000	2.95742   	250.000000	2.90404   	250.000000	2.93614   	250.000000	0.000714294	
260.000000	2.7911    	260.000000	2.8698    	260.000000	2.89114   	260.000000	2.83698   	260.000000	2.86911   	260.000000	0.000689096	
270.000000	2.73154   	270.000000	2.80759   	270.000000	2.82965   	270.000000	2.77478   	270.000000	2.80692   	270.000000	0.000665681	
280.000000	2.67599   	280.000000	2.74971   	280.000000	2.77245   	280.000000	2.71696   	280.000000	2.74906   	280.000000	0.000643865	
290.000000	2.62408   	290.000000	2.69573   	290.000000	2.71887   	290.000000	2.66307   	290.000000	2.69511   	290.000000	0.000623487	
300.000000	2.57545   	300.000000	2.64528   	300.000000	2.66895   	300.000000	2.61273   	300.000000	2.64468   	300.000000	0.000604408	
310.000000	2.5298    	310.000000	2.59804   	310.000000	2.62228   	310.000000	2.5656    	310.000000	2.59745   	310.000000	0.000586506	
320.000000	2.48687   	320.000000	2.5537    	320.000000	2.57829   	320.000000	2.52141   	320.000000	2.55313   	320.000000	0.000569674	
330.000000	2.44644   	330.000000	2.51201   	330.000000	2.53694   	330.000000	2.47989   	330.000000	2.51146   	330.000000	0.000553817	
340.000000	2.40828   	340.000000	2.47276   	340.000000	2.49803   	340.000000	2.44081   	340.000000	2.47222   	340.000000	0.000538852	
350.000000	2.37221   	350.000000	2.43573   	350.000000	2.46132   	350.000000	2.40396   	350.000000	2.43521   	350.000000	0.000524705	
360.000000	2.33808   	360.000000	2.40075   	360.000000	2.42669   	360.000000	2.36917   	360.000000	2.40024   	360.000000	0.00051131	
370.000000	2.30573   	370.000000	2.36766   	370.000000	2.39391   	370.000000	2.33628   	370.000000	2.36716   	370.000000	0.000498607	
380.000000	2.27503   	380.000000	2.33631   	380.000000	2.36274   	380.000000	2.30514   	380.000000	2.33583   	380.000000	0.000486544	
390.000000	2.24586   	390.000000	2.30658   	390.000000	2.33316   	390.000000	2.27561   	390.000000	2.3061    	390.000000	0.000475073	
400.000000	2.21811   	400.000000	2.27834   	400.000000	2.3052    	400.000000	2.24759   	400.000000	2.27788   	400.000000	0.000464151	
410.000000	2.19168   	410.000000	2.25149   	410.000000	2.27864   	410.000000	2.22095   	410.000000	2.25104   	410.000000	0.000453738	
420.000000	2.16649   	420.000000	2.22594   	420.000000	2.25325   	420.000000	2.19562   	420.000000	2.22549   	420.000000	0.0004438 	
430.000000	2.14245   	430.000000	2.20159   	430.000000	2.22905   	430.000000	2.17149   	430.000000	2.20116   	430.000000	0.000434304	
440.000000	2.11949   	440.000000	2.17837   	440.000000	2.20591   	440.000000	2.14833   	440.000000	2.17795   	440.000000	0.000425221	
450.000000	2.09754   	450.000000	2.1562    	450.000000	2.18377   	450.000000	2.12613   	450.000000	2.15579   	450.000000	0.000416525	
460.000000	2.07654   	460.000000	2.13503   	460.000000	2.16256   	460.000000	2.10494   	460.000000	2.13462   	460.000000	0.000408191	
470.000000	2.05643   	470.000000	2.11477   	470.000000	2.14222   	470.000000	2.08468   	470.000000	2.11437   	470.000000	0.000400196	
480.000000	2.03716   	480.000000	2.09539   	480.000000	2.12275   	480.000000	2.06529   	480.000000	2.095     	480.000000	0.00039252	
490.000000	2.01868   	490.000000	2.07683   	490.000000	2.10412   	490.000000	2.04673   	490.000000	2.07644   	490.000000	0.000385143	
500.000000	2.00094   	500.000000	2.05903   	500.000000	2.08627   	500.000000	2.02895   	500.000000	2.05866   	500.000000	0.00037805	
520.000000	1.96754   	520.000000	2.02559   	520.000000	2.05273   	520.000000	1.99554   	520.000000	2.02522   	520.000000	0.000364647	
540.000000	1.93666   	540.000000	1.99474   	540.000000	2.02178   	540.000000	1.96474   	540.000000	1.99438   	540.000000	0.000352195	
560.000000	1.90804   	560.000000	1.96621   	560.000000	1.99319   	560.000000	1.93627   	560.000000	1.96587   	560.000000	0.000340596	
580.000000	1.88148   	580.000000	1.93978   	580.000000	1.9667    	580.000000	1.9099    	580.000000	1.93945   	580.000000	0.000329763	
600.000000	1.85676   	600.000000	1.91523   	600.000000	1.94199   	600.000000	1.88542   	600.000000	1.91491   	600.000000	0.000319623	
620.000000	1.83373   	620.000000	1.89239   	620.000000	1.91897   	620.000000	1.86264   	620.000000	1.89208   	620.000000	0.00031011	
640.000000	1.81223   	640.000000	1.87111   	640.000000	1.89759   	640.000000	1.84141   	640.000000	1.87081   	640.000000	0.000301167	
660.000000	1.79213   	660.000000	1.85124   	660.000000	1.87768   	660.000000	1.82159   	660.000000	1.85095   	660.000000	0.000292744	
680.000000	1.77331   	680.000000	1.83267   	680.000000	1.85906   	680.000000	1.80306   	680.000000	1.83239   	680.000000	0.000284796	
700.000000	1.75568   	700.000000	1.81529   	700.000000	1.84154   	700.000000	1.7857    	700.000000	1.81501   	700.000000	0.000277283	
720.000000	1.73913   	720.000000	1.79899   	720.000000	1.82505   	720.000000	1.76941   	720.000000	1.79872   	720.000000	0.000270171	
740.000000	1.72359   	740.000000	1.7837    	740.000000	1.80958   	740.000000	1.75412   	740.000000	1.78344   	740.000000	0.000263427	
760.000000	1.70898   	760.000000	1.76933   	760.000000	1.7951    	760.000000	1.73973   	760.000000	1.76908   	760.000000	0.000257024	
780.000000	1.69523   	780.000000	1.75583   	780.000000	1.78147   	780.000000	1.72619   	780.000000	1.75557   	780.000000	0.000250936	
800.000000	1.68228   	800.000000	1.74311   	800.000000	1.76857   	800.000000	1.71342   	800.000000	1.74287   	800.000000	0.00024514	
820.000000	1.67008   	820.000000	1.73114   	820.000000	1.75636   	820.000000	1.70137   	820.000000	1.7309    	820.000000	0.000239615	
840.000000	1.65857   	840.000000	1.71985   	840.000000	1.74481   	840.000000	1.68999   	840.000000	1.71961   	840.000000	0.000234342	
860.000000	1.64772   	860.000000	1.7092    	860.000000	1.73388   	860.000000	1.67923   	860.000000	1.70897   	860.000000	0.000229305	
880.000000	1.63747   	880.000000	1.69914   	880.000000	1.72356   	880.000000	1.66905   	880.000000	1.69892   	880.000000	0.000224487	
900.000000	1.62779   	900.000000	1.68965   	900.000000	1.71382   	900.000000	1.65941   	900.000000	1.68943   	900.000000	0.000219875	
920.000000	1.61865   	920.000000	1.68067   	920.000000	1.7046    	920.000000	1.65026   	920.000000	1.68046   	920.000000	0.000215456	
940.000000	1.61001   	940.000000	1.67219   	940.000000	1.69586   	940.000000	1.64159   	940.000000	1.67198   	940.000000	0.000211216	
960.000000	1.60185   	960.000000	1.66417   	960.000000	1.68755   	960.000000	1.63335   	960.000000	1.66396   	960.000000	0.000207147	
980.000000	1.59413   	980.000000	1.65658   	980.000000	1.67963   	980.000000	1.62553   	980.000000	1.65637   	980.000000	0.000203236	
1000.000000	1.58683   	1000.000000	1.64939   	1000.000000	1.67207   	1000.000000	1.61809   	1000.000000	1.64919   	1000.000000	0.000199476	
1020.000000	1.57993   	1020.000000	1.64259   	1020.000000	1.66488   	1020.000000	1.61102   	1020.000000	1.64239   	1020.000000	0.000195858	
1040.000000	1.57341   	1040.000000	1.63615   	1040.000000	1.65804   	1040.000000	1.60429   	1040.000000	1.63596   	1040.000000	0.000192373	
1060.000000	1.56724   	1060.000000	1.63005   	1060.000000	1.65153   	1060.000000	1.59788   	1060.000000	1.62987   	1060.000000	0.000189014	
1080.000000	1.56141   	1080.000000	1.62428   	1080.000000	1.64532   	1080.000000	1.59177   	1080.000000	1.62409   	1080.000000	0.000185775	
1100.000000	1.55591   	1100.000000	1.61881   	1100.000000	1.63941   	1100.000000	1.58594   	1100.000000	1.61863   	1100.000000	0.000182649	
1120.000000	1.5507    	1120.000000	1.61363   	1120.000000	1.63376   	1120.000000	1.58039   	1120.000000	1.61345   	1120.000000	0.00017963	
1140.000000	1.54579   	1140.000000	1.60873   	1140.000000	1.62838   	1140.000000	1.57509   	1140.000000	1.60855   	1140.000000	0.000176712	
1160.000000	1.54115   	1160.000000	1.60409   	1160.000000	1.62323   	1160.000000	1.57003   	1160.000000	1.60391   	1160.000000	0.000173892	
1180.000000	1.53678   	1180.000000	1.59969   	1180.000000	1.61832   	1180.000000	1.5652    	1180.000000	1.59952   	1180.000000	0.000171163	
1200.000000	1.53265   	1200.000000	1.59553   	1200.000000	1.61362   	1200.000000	1.56058   	1200.000000	1.59537   	1200.000000	0.000168521	
1220.000000	1.52876   	1220.000000	1.5916    	1220.000000	1.60914   	1220.000000	1.55617   	1220.000000	1.59143   	1220.000000	0.000165963	
1240.000000	1.5251    	1240.000000	1.58788   	1240.000000	1.60485   	1240.000000	1.55196   	1240.000000	1.58772   	1240.000000	0.000163484	
1260.000000	1.52166   	1260.000000	1.58436   	1260.000000	1.60074   	1260.000000	1.54792   	1260.000000	1.5842    	1260.000000	0.00016108	
1280.000000	1.51843   	1280.000000	1.58104   	1280.000000	1.59682   	1280.000000	1.54407   	1280.000000	1.58088   	1280.000000	0.000158749	
1300.000000	1.5154    	1300.000000	1.5779    	1300.000000	1.59306   	1300.000000	1.54037   	1300.000000	1.57775   	1300.000000	0.000156486	
1320.000000	1.51256   	1320.000000	1.57494   	1320.000000	1.58946   	1320.000000	1.53684   	1320.000000	1.57479   	1320.000000	0.00015429	
1340.000000	1.5099    	1340.000000	1.57215   	1340.000000	1.58601   	1340.000000	1.53346   	1340.000000	1.572     	1340.000000	0.000152156	
1360.000000	1.50741   	1360.000000	1.56952   	1360.000000	1.58271   	1360.000000	1.53022   	1360.000000	1.56937   	1360.000000	0.000150083	
1380.000000	1.5051    	1380.000000	1.56705   	1380.000000	1.57955   	1380.000000	1.52712   	1380.000000	1.5669    	1380.000000	0.000148067	
1400.000000	1.50295   	1400.000000	1.56473   	1400.000000	1.57653   	1400.000000	1.52415   	1400.000000	1.56458   	1400.000000	0.000146107	
1420.000000	1.50095   	1420.000000	1.56255   	1420.000000	1.57362   	1420.000000	1.5213    	1420.000000	1.5624    	1420.000000	0.0001442 	
1440.000000	1.4991    	1440.000000	1.5605    	1440.000000	1.57084   	1440.000000	1.51858   	1440.000000	1.56036   	1440.000000	0.000142343	
1460.000000	1.49739   	1460.000000	1.55858   	1460.000000	1.56817   	1460.000000	1.51596   	1460.000000	1.55844   	1460.000000	0.000140536	
1480.000000	1.49583   	1480.000000	1.5568    	1480.000000	1.56561   	1480.000000	1.51346   	1480.000000	1.55666   	1480.000000	0.000138775	
1500.000000	1.4944    	1500.000000	1.55513   	1500.000000	1.56316   	1500.000000	1.51106   	1500.000000	1.55499   	1500.000000	0.00013706	
1520.000000	1.49309   	1520.000000	1.55358   	1520.000000	1.56081   	1520.000000	1.50875   	1520.000000	1.55344   	1520.000000	0.000135388	
1540.000000	1.49191   	1540.000000	1.55214   	1540.000000	1.55856   	1540.000000	1.50655   	1540.000000	1.552     	1540.000000	0.000133758	
1560.000000	1.49085   	1560.000000	1.5508    	1560.000000	1.55639   	1560.000000	1.50443   	1560.000000	1.55067   	1560.000000	0.000132168	
1580.000000	1.48991   	1580.000000	1.54957   	1580.000000	1.55432   	1580.000000	1.5024    	1580.000000	1.54944   	1580.000000	0.000130616	
1600.000000	1.48907   	1600.000000	1.54844   	1600.000000	1.55233   	1600.000000	1.50045   	1600.000000	1.54832   	1600.000000	0.000129102	
1620.000000	1.48834   	1620.000000	1.54741   	1620.000000	1.55043   	1620.000000	1.49859   	1620.000000	1.54728   	1620.000000	0.000127624	
1640.000000	1.48772   	1640.000000	1.54647   	1640.000000	1.5486    	1640.000000	1.4968    	1640.000000	1.54634   	1640.000000	0.00012618	
1660.000000	1.4872    	1660.000000	1.54562   	1660.000000	1.54684   	1660.000000	1.49509   	1660.000000	1.54549   	1660.000000	0.00012477	
1680.000000	1.48677   	1680.000000	1.54485   	1680.000000	1.54516   	1680.000000	1.49344   	1680.000000	1.54473   	1680.000000	0.000123392	
1700.000000	1.48644   	1700.000000	1.54417   	1700.000000	1.54355   	1700.000000	1.49186   	1700.000000	1.54405   	1700.000000	0.000122045	
1750.000000	1.48601   	1750.000000	1.5428    	1750.000000	1.53979   	1750.000000	1.4882    	1750.000000	1.54268   	1750.000000	0.000118808	
1800.000000	1.4861    	1800.000000	1.5419    	1800.000000	1.53641   	1800.000000	1.48491   	1800.000000	1.54178   	1800.000000	0.000115744	
1850.000000	1.48668   	1850.000000	1.54142   	1850.000000	1.53335   	1850.000000	1.48196   	1850.000000	1.54131   	1850.000000	0.000112839	
1900.000000	1.48772   	1900.000000	1.54133   	1900.000000	1.53061   	1900.000000	1.47931   	1900.000000	1.54122   	1900.000000	0.000110081	
1950.000000	1.48917   	1950.000000	1.54159   	1950.000000	1.52814   	1950.000000	1.47693   	1950.000000	1.54149   	1950.000000	0.000107459	
2000.000000	1.49102   	2000.000000	1.5422    	2000.000000	1.52594   	2000.000000	1.47481   	2000.000000	1.54209   	2000.000000	0.000104964	
2100.000000	1.4958    	2100.000000	1.5443    	2100.000000	1.52222   	2100.000000	1.47125   	2100.000000	1.5442    	2100.000000	0.000100316	
2200.000000	1.50187   	2200.000000	1.54748   	2200.000000	1.5193    	2200.000000	1.46847   	2200.000000	1.54738   	2200.000000	9.60749e-05	
2300.000000	1.50909   	2300.000000	1.55158   	2300.000000	1.51706   	2300.000000	1.46634   	2300.000000	1.55149   	2300.000000	9.21892e-05	
2400.000000	1.51733   	2400.000000	1.5565    	2400.000000	1.51539   	2400.000000	1.46477   	2400.000000	1.55641   	2400.000000	8.86154e-05	
2500.000000	1.52648   	2500.000000	1.56213   	2500.000000	1.51419   	2500.000000	1.46367   	2500.000000	1.56204   	2500.000000	8.53169e-05	
2600.000000	1.53646   	2600.000000	1.56839   	2600.000000	1.51341   	2600.000000	1.46298   	2600.000000	1.56831   	2600.000000	8.2263e-05	
2700.000000	1.54718   	2700.000000	1.57522   	2700.000000	1.51298   	2700.000000	1.46264   	2700.000000	1.57514   	2700.000000	7.9427e-05	
2800.000000	1.55858   	2800.000000	1.58254   	2800.000000	1.51285   	2800.000000	1.46259   	2800.000000	1.58246   	2800.000000	7.67861e-05	
2900.000000	1.57061   	2900.000000	1.59031   	2900.000000	1.51298   	2900.000000	1.4628    	2900.000000	1.59024   	2900.000000	7.43208e-05	
3000.000000	1.58321   	3000.000000	1.59848   	3000.000000	1.51334   	3000.000000	1.46323   	3000.000000	1.59841   	3000.000000	7.20138e-05	
3200.000000	1.60995   	3200.000000	1.61588   	3200.000000	1.51462   	3200.000000	1.46464   	3200.000000	1.61581   	3200.000000	6.78171e-05	
3400.000000	1.63852   	3400.000000	1.63447   	3400.000000	1.51649   	3400.000000	1.46663   	3400.000000	1.63441   	3400.000000	6.40967e-05	
3600.000000	1.66868   	3600.000000	1.65404   	3600.000000	1.5188    	3600.000000	1.46905   	3600.000000	1.65398   	3600.000000	6.07752e-05	
3800.000000	1.70025   	3800.000000	1.67444   	3800.000000	1.52146   	3800.000000	1.47179   	3800.000000	1.67438   	3800.000000	5.7791e-05	
4000.000000	1.73308   	4000.000000	1.69553   	4000.000000	1.52436   	4000.000000	1.47477   	4000.000000	1.69548   	4000.000000	5.50948e-05	
4200.000000	1.76706   	4200.000000	1.71722   	4200.000000	1.52745   	4200.000000	1.47792   	4200.000000	1.71716   	4200.000000	5.26464e-05	
4400.000000	1.80208   	4400.000000	1.7394    	4400.000000	1.53067   	4400.000000	1.4812    	4400.000000	1.73935   	4400.000000	5.04128e-05	
4600.000000	1.83805   	4600.000000	1.76203   	4600.000000	1.53397   	4600.000000	1.48457   	4600.000000	1.76198   	4600.000000	4.83666e-05	
4800.000000	1.87492   	4800.000000	1.78502   	4800.000000	1.53734   	4800.000000	1.488     	4800.000000	1.78498   	4800.000000	4.64851e-05	
5000.000000	1.91262   	5000.000000	1.80834   	5000.000000	1.54074   	5000.000000	1.49146   	5000.000000	1.8083    	5000.000000	4.47488e-05	
5250.000000	1.96083   	5250.000000	1.83789   	5250.000000	1.54501   	5250.000000	1.4958    	5250.000000	1.83785   	5250.000000	4.2758e-05	
5500.000000	2.01019   	5500.000000	1.86782   	5500.000000	1.54928   	5500.000000	1.50014   	5500.000000	1.86778   	5500.000000	4.0942e-05	
6000.000000	2.11205   	6000.000000	1.92859   	6000.000000	1.55773   	6000.000000	1.50874   	6000.000000	1.92855   	6000.000000	3.77488e-05	
6500.000000	2.21779   	6500.000000	1.99031   	6500.000000	1.56601   	6500.000000	1.51713   	6500.000000	1.99027   	6500.000000	3.50307e-05	
7000.000000	2.32709   	7000.000000	2.05274   	7000.000000	1.57404   	7000.000000	1.52527   	7000.000000	2.0527    	7000.000000	3.26882e-05	
7500.000000	2.43972   	7500.000000	2.1157    	7500.000000	1.5817    	7500.000000	1.53312   	7500.000000	2.11567   	7500.000000	3.06477e-05	
8000.000000	2.55552   	8000.000000	2.17906   	8000.000000	1.58919   	8000.000000	1.54068   	8000.000000	2.17904   	8000.000000	2.88538e-05	
8500.000000	2.67435   	8500.000000	2.24274   	8500.000000	1.59639   	8500.000000	1.54795   	8500.000000	2.24271   	8500.000000	2.72641e-05	
9000.000000	2.79611   	9000.000000	2.30664   	9000.000000	1.60325   	9000.000000	1.55493   	9000.000000	2.30662   	9000.000000	2.58452e-05	
9500.000000	2.92072   	9500.000000	2.37072   	9500.000000	1.6098    	9500.000000	1.56164   	9500.000000	2.3707    	9500.000000	2.45707e-05	
10000.000000	3.04812   	10000.000000	2.43493   	10000.000000	1.61609   	10000.000000	1.56809   	10000.000000	2.43491   	10000.000000	2.34195e-05	
11000.000000	3.31107   	11000.000000	2.56361   	11000.000000	1.62796   	11000.000000	1.58026   	11000.000000	2.56359   	11000.000000	2.14211e-05	
12000.000000	3.58466   	12000.000000	2.69246   	12000.000000	1.63898   	12000.000000	1.59154   	12000.000000	2.69244   	12000.000000	1.97454e-05	
13000.000000	3.86869   	13000.000000	2.82135   	13000.000000	1.6492    	13000.000000	1.60203   	13000.000000	2.82133   	13000.000000	1.83193e-05	
14000.000000	4.16301   	14000.000000	2.9502    	14000.000000	1.65869   	14000.000000	1.61182   	14000.000000	2.95019   	14000.000000	1.70906e-05	
15000.000000	4.46753   	15000.000000	3.07895   	15000.000000	1.66754   	15000.000000	1.62098   	15000.000000	3.07893   	15000.000000	1.60206e-05	
16000.000000	4.7822    	16000.000000	3.20755   	16000.000000	1.6758    	16000.000000	1.62959   	16000.000000	3.20754   	16000.000000	1.50801e-05	
17000.000000	5.10698   	17000.000000	3.33598   	17000.000000	1.68354   	17000.000000	1.63769   	17000.000000	3.33597   	17000.000000	1.42468e-05	
18000.000000	5.44185   	18000.000000	3.46423   	18000.000000	1.69081   	18000.000000	1.64534   	18000.000000	3.46421   	18000.000000	1.35032e-05	
19000.000000	5.78682   	19000.000000	3.59227   	19000.000000	1.69767   	19000.000000	1.65259   	19000.000000	3.59226   	19000.000000	1.28354e-05	
20000.000000	6.14187   	20000.000000	3.72011   	20000.000000	1.70416   	20000.000000	1.65947   	20000.000000	3.7201    	20000.000000	1.22323e-05	
21000.000000	6.50704   	21000.000000	3.84774   	21000.000000	1.71031   	21000.000000	1.66601   	21000.000000	3.84773   	21000.000000	1.16849e-05	
22000.000000	6.88233   	22000.000000	3.97517   	22000.000000	1.71609   	22000.000000	1.67224   	22000.000000	3.97515   	22000.000000	1.11856e-05	
23000.000000	7.26779   	23000.000000	4.10238   	23000.000000	1.72159   	23000.000000	1.67819   	23000.000000	4.10237   	23000.000000	1.07284e-05	
24000.000000	7.66343   	24000.000000	4.22938   	24000.000000	1.72683   	24000.000000	1.68388   	24000.000000	4.22937   	24000.000000	1.03082e-05	
25000.000000	8.06929   	25000.000000	4.35618   	25000.000000	1.7318    	25000.000000	1.68933   	25000.000000	4.35617   	25000.000000	9.92045e-06	
26000.000000	8.48541   	26000.000000	4.48277   	26000.000000	1.73653   	26000.000000	1.69457   	26000.000000	4.48276   	26000.000000	9.56164e-06	
27000.000000	8.91183   	27000.000000	4.60917   	27000.000000	1.74104   	27000.000000	1.69959   	27000.000000	4.60916   	27000.000000	9.22858e-06	
28000.000000	9.34859   	28000.000000	4.73537   	28000.000000	1.74537   	28000.000000	1.70443   	28000.000000	4.73536   	28000.000000	8.91857e-06	
29000.000000	9.79574   	29000.000000	4.86138   	29000.000000	1.74951   	29000.000000	1.70909   	29000.000000	4.86137   	29000.000000	8.62928e-06	
30000.000000	10.2533   	30000.000000	4.9872    	30000.000000	1.75349   	30000.000000	1.71359   	30000.000000	4.98719   	30000.000000	8.35868e-06	
32000.000000	11.2      	32000.000000	5.23829   	32000.000000	1.76096   	32000.000000	1.72213   	32000.000000	5.23828   	32000.000000	7.86667e-06	
34000.000000	12.189    	34000.000000	5.48868   	34000.000000	1.76784   	34000.000000	1.73013   	34000.000000	5.48867   	34000.000000	7.43081e-06	
36000.000000	13.2207   	36000.000000	5.7384    	36000.000000	1.77413   	36000.000000	1.73764   	36000.000000	5.73839   	36000.000000	7.04193e-06	
38000.000000	14.2955   	38000.000000	5.98747   	38000.000000	1.7799    	38000.000000	1.74473   	38000.000000	5.98746   	38000.000000	6.69276e-06	
40000.000000	15.414    	40000.000000	6.23593   	40000.000000	1.78523   	40000.000000	1.75143   	40000.000000	6.23592   	40000.000000	6.37745e-06	
42000.000000	16.5765   	42000.000000	6.4838    	42000.000000	1.79019   	42000.000000	1.75779   	42000.000000	6.48379   	42000.000000	6.09128e-06	
44000.000000	17.7835   	44000.000000	6.7311    	44000.000000	1.79486   	44000.000000	1.76383   	44000.000000	6.7311    	44000.000000	5.83035e-06	
46000.000000	19.0355   	46000.000000	6.97787   	46000.000000	1.79928   	46000.000000	1.76959   	46000.000000	6.97786   	46000.000000	5.59142e-06	
48000.000000	20.3329   	48000.000000	7.22411   	48000.000000	1.80346   	48000.000000	1.77509   	48000.000000	7.2241    	48000.000000	5.37182e-06	
50000.000000	21.6762   	50000.000000	7.46985   	50000.000000	1.80734   	50000.000000	1.78036   	50000.000000	7.46985   	50000.000000	5.16925e-06	
