Energy (MeV/u)1	0 - [He-base] F.Hubert et al, AD&ND Tables 46(1990)1	Energy (MeV/u)2	1 - [H -base] J.F.Ziegler et al, Pergamon Press, NY (low energy)	Energy (MeV/u)3	2 - ATIMA 1.2  LS-theory (recommended for high energy)	Energy (MeV/u)4	3 - ATIMA 1.2  without LS-correction	Energy (MeV/u)5	4 - electrical component of [1] - J.F.Ziegler et al	Energy (MeV/u)6	5 - nuclear component of [1] - J.F.Ziegler et al	
0.001000	1.44002   	0.001000	1.44002   	0.001000	1.53685   	0.001000	1.53685   	0.001000	0.649005  	0.001000	0.791012  	
0.002000	1.51152   	0.002000	1.51152   	0.002000	1.63325   	0.002000	1.63325   	0.002000	0.863026  	0.002000	0.648491  	
0.005000	1.69484   	0.005000	1.69484   	0.005000	1.86222   	0.005000	1.86222   	0.005000	1.25989   	0.005000	0.434942  	
0.008000	1.8674    	0.008000	1.8674    	0.008000	2.06613   	0.008000	2.06613   	0.008000	1.53082   	0.008000	0.336582  	
0.010000	1.97439   	0.010000	1.97439   	0.010000	2.19047   	0.010000	2.19047   	0.010000	1.67941   	0.010000	0.294979  	
0.015000	2.28232   	0.015000	2.28232   	0.015000	2.52322   	0.015000	2.52322   	0.015000	2.0536    	0.015000	0.228726  	
0.020000	2.75615   	0.020000	2.75615   	0.020000	2.95679   	0.020000	2.95679   	0.020000	2.56712   	0.020000	0.189028  	
0.025000	3.23582   	0.025000	3.23582   	0.025000	3.39312   	0.025000	3.39312   	0.025000	3.07425   	0.025000	0.161564  	
0.030000	3.71092   	0.030000	3.71092   	0.030000	3.74541   	0.030000	3.74541   	0.030000	3.56875   	0.030000	0.142169  	
0.035000	4.09495   	0.035000	4.09495   	0.035000	4.08178   	0.035000	4.08178   	0.035000	3.96761   	0.035000	0.127339  	
0.040000	4.42534   	0.040000	4.42534   	0.040000	4.40072   	0.040000	4.40072   	0.040000	4.31036   	0.040000	0.11498   	
0.045000	4.73221   	0.045000	4.73221   	0.045000	4.70303   	0.045000	4.70303   	0.045000	4.62674   	0.045000	0.105471  	
0.050000	5.01478   	0.050000	5.01478   	0.050000	4.98792   	0.050000	4.98792   	0.050000	4.91722   	0.050000	0.0975539 	
0.055000	5.2735    	0.055000	5.2735    	0.055000	5.2555    	0.055000	5.2555    	0.055000	5.18265   	0.055000	0.0908482 	
0.060000	5.50926   	0.060000	5.50926   	0.060000	5.50612   	0.060000	5.50612   	0.060000	5.42417   	0.060000	0.0850875 	
0.070000	5.91911   	0.070000	5.91911   	0.070000	5.9586    	0.070000	5.9586    	0.070000	5.84343   	0.070000	0.0756806 	
0.080000	6.31713   	0.080000	6.31713   	0.080000	6.35057   	0.080000	6.35057   	0.080000	6.24883   	0.080000	0.0683038 	
0.090000	6.64738   	0.090000	6.64738   	0.090000	6.68821   	0.090000	6.68821   	0.090000	6.58503   	0.090000	0.0623479 	
0.100000	6.91675   	0.100000	6.91675   	0.100000	6.97794   	0.100000	6.97794   	0.100000	6.85932   	0.100000	0.0574281 	
0.120000	7.31507   	0.120000	7.31507   	0.120000	7.43791   	0.120000	7.43791   	0.120000	7.26531   	0.120000	0.049753  	
0.140000	7.5818    	0.140000	7.5818    	0.140000	7.77334   	0.140000	7.77334   	0.140000	7.53778   	0.140000	0.0440197 	
0.160000	7.76404   	0.160000	7.76404   	0.160000	8.01722   	0.160000	8.01722   	0.160000	7.72449   	0.160000	0.0395589 	
0.180000	7.89175   	0.180000	7.89175   	0.180000	8.19366   	0.180000	8.19366   	0.180000	7.85577   	0.180000	0.0359801 	
0.200000	7.98351   	0.200000	7.98351   	0.200000	8.32001   	0.200000	8.32001   	0.200000	7.95047   	0.200000	0.0330396 	
0.250000	8.14358   	0.250000	8.14358   	0.250000	8.49036   	0.250000	8.49036   	0.250000	8.11603   	0.250000	0.0275457 	
0.300000	8.25575   	0.300000	8.25575   	0.300000	8.53655   	0.300000	8.53655   	0.300000	8.23204   	0.300000	0.0237133 	
0.350000	8.30478   	0.350000	8.30478   	0.350000	8.51689   	0.350000	8.51689   	0.350000	8.2839    	0.350000	0.0208754 	
0.400000	8.3136    	0.400000	8.3136    	0.400000	8.46169   	0.400000	8.46169   	0.400000	8.29492   	0.400000	0.0186826 	
0.450000	8.32827   	0.450000	8.32827   	0.450000	8.41867   	0.450000	8.41867   	0.450000	8.31134   	0.450000	0.0169334 	
0.500000	8.31301   	0.500000	8.31301   	0.500000	8.40224   	0.500000	8.40224   	0.500000	8.2975    	0.500000	0.0155031 	
0.600000	8.25539   	0.600000	8.25539   	0.600000	8.30719   	0.600000	8.30719   	0.600000	8.24209   	0.600000	0.0132985 	
0.700000	8.14854   	0.700000	8.14854   	0.700000	8.16464   	0.700000	8.16464   	0.700000	8.13686   	0.700000	0.0116736 	
0.800000	8.02138   	0.800000	8.02138   	0.800000	7.978     	0.800000	7.978     	0.800000	8.01096   	0.800000	0.0104227 	
0.900000	7.8704    	0.900000	7.8704    	0.900000	7.79198   	0.900000	7.79198   	0.900000	7.86097   	0.900000	0.00942795	
1.000000	7.70677   	1.000000	7.70677   	1.000000	7.6095    	1.000000	7.6095    	1.000000	7.69815   	1.000000	0.00861665	
1.250000	7.28201   	1.250000	7.28201   	1.250000	7.17592   	1.250000	7.17592   	1.250000	7.2749    	1.250000	0.00711613	
1.500000	6.87055   	1.500000	6.87055   	1.500000	6.74282   	1.500000	6.74282   	1.500000	6.86447   	1.500000	0.00608181	
1.750000	6.48937   	1.750000	6.48937   	1.750000	6.36801   	1.750000	6.36801   	1.750000	6.48405   	1.750000	0.00532292	
2.000000	6.12712   	2.000000	6.12712   	2.000000	6.03669   	2.000000	6.03669   	2.000000	6.12238   	2.000000	0.00474088	
2.250000	5.80384   	2.250000	5.80384   	2.250000	5.74016   	2.250000	5.74016   	2.250000	5.79956   	2.250000	0.00427945	
2.500000	5.68536   	2.500000	5.51462   	2.500000	5.47259   	2.500000	5.47259   	2.500000	5.51072   	2.500000	0.00390411	
3.000000	5.16925   	3.000000	5.00276   	3.000000	5.00819   	3.000000	5.00819   	3.000000	4.99943   	3.000000	0.00332928	
3.500000	4.73786   	3.500000	4.5854    	3.500000	4.61879   	3.500000	4.61879   	3.500000	4.58249   	3.500000	0.00290863	
4.000000	4.3737    	4.000000	4.24142   	4.000000	4.28762   	4.000000	4.28762   	4.000000	4.23883   	4.000000	0.00258672	
4.500000	4.06295   	4.500000	3.95115   	4.500000	4.0026    	4.500000	4.0026    	4.500000	3.94882   	4.500000	0.00233197	
5.000000	3.79497   	5.000000	3.70146   	5.000000	3.75473   	5.000000	3.75473   	5.000000	3.69934   	5.000000	0.00212508	
5.500000	3.56164   	5.500000	3.48435   	5.500000	3.53718   	5.500000	3.53718   	5.500000	3.4824    	5.500000	0.00195352	
6.000000	3.35671   	6.000000	3.29361   	6.000000	3.3447    	6.000000	3.3447    	6.000000	3.2918    	6.000000	0.00180882	
6.500000	3.17533   	6.500000	3.12444   	6.500000	3.17315   	6.500000	3.17315   	6.500000	3.12276   	6.500000	0.00168505	
7.000000	3.01365   	7.000000	2.97322   	7.000000	3.01929   	7.000000	3.01929   	7.000000	2.97165   	7.000000	0.00157791	
7.500000	2.86863   	7.500000	2.83713   	7.500000	2.88047   	7.500000	2.88047   	7.500000	2.83564   	7.500000	0.00148419	
8.000000	2.73781   	8.000000	2.71392   	8.000000	2.75458   	8.000000	2.75458   	8.000000	2.71252   	8.000000	0.0014015 	
8.500000	2.61919   	8.500000	2.60181   	8.500000	2.63987   	8.500000	2.63987   	8.500000	2.60048   	8.500000	0.00132796	
9.000000	2.51113   	9.000000	2.49931   	9.000000	2.53489   	9.000000	2.53489   	9.000000	2.49805   	9.000000	0.00126211	
9.500000	2.41228   	9.500000	2.40521   	9.500000	2.43844   	9.500000	2.43844   	9.500000	2.40401   	9.500000	0.00120279	
10.000000	2.32149   	10.000000	2.33426   	10.000000	2.34952   	10.000000	2.34952   	10.000000	2.33311   	10.000000	0.00114905	
11.000000	2.16042   	11.000000	2.17968   	11.000000	2.18809   	11.000000	2.19095   	11.000000	2.17862   	11.000000	0.00105541	
12.000000	2.02188   	12.000000	2.04496   	12.000000	2.0483    	12.000000	2.05312   	12.000000	2.04399   	12.000000	0.000976505	
13.000000	1.9014    	13.000000	1.9266    	13.000000	1.92606   	13.000000	1.9322    	13.000000	1.92569   	13.000000	0.000909074	
14.000000	1.79562   	14.000000	1.82182   	14.000000	1.81826   	14.000000	1.82527   	14.000000	1.82096   	14.000000	0.000850746	
15.000000	1.70199   	15.000000	1.72843   	15.000000	1.72248   	15.000000	1.73004   	15.000000	1.72763   	15.000000	0.000799771	
16.000000	1.6185    	16.000000	1.6447    	16.000000	1.6368    	16.000000	1.64469   	16.000000	1.64395   	16.000000	0.000754819	
17.000000	1.54357   	17.000000	1.56921   	17.000000	1.5597    	17.000000	1.56776   	17.000000	1.56849   	17.000000	0.000714869	
18.000000	1.47593   	18.000000	1.5008    	18.000000	1.48998   	18.000000	1.49806   	18.000000	1.50012   	18.000000	0.000679117	
19.000000	1.41455   	19.000000	1.43853   	19.000000	1.42663   	19.000000	1.43464   	19.000000	1.43788   	19.000000	0.000646926	
20.000000	1.35859   	20.000000	1.3816    	20.000000	1.36878   	20.000000	1.37669   	20.000000	1.38098   	20.000000	0.000617781	
21.000000	1.30735   	21.000000	1.32936   	21.000000	1.31575   	21.000000	1.32352   	21.000000	1.32877   	21.000000	0.000591262	
22.000000	1.26025   	22.000000	1.28125   	22.000000	1.26698   	22.000000	1.27459   	22.000000	1.28068   	22.000000	0.000567026	
23.000000	1.2168    	23.000000	1.23679   	23.000000	1.222     	23.000000	1.22941   	23.000000	1.23625   	23.000000	0.000544785	
24.000000	1.17658   	24.000000	1.1956    	24.000000	1.18042   	24.000000	1.18758   	24.000000	1.19507   	24.000000	0.000524299	
25.000000	1.13924   	25.000000	1.15731   	25.000000	1.14186   	25.000000	1.14873   	25.000000	1.1568    	25.000000	0.000505365	
27.000000	1.07204   	27.000000	1.0883    	27.000000	1.07257   	27.000000	1.07885   	27.000000	1.08783   	27.000000	0.000471488	
29.000000	1.01321   	29.000000	1.02782   	29.000000	1.01206   	29.000000	1.01778   	29.000000	1.02738   	29.000000	0.000442047	
31.000000	0.961257  	31.000000	0.974372  	31.000000	0.959511  	31.000000	0.964471  	31.000000	0.973956  	31.000000	0.000416213	
33.000000	0.915025  	33.000000	0.926786  	33.000000	0.913394  	33.000000	0.917521  	33.000000	0.926393  	33.000000	0.000393352	
35.000000	0.8736    	35.000000	0.884143  	35.000000	0.87207   	35.000000	0.875474  	35.000000	0.88377   	35.000000	0.000372973	
38.000000	0.818931  	38.000000	0.827871  	38.000000	0.817551  	38.000000	0.820013  	38.000000	0.827524  	38.000000	0.000346229	
41.000000	0.771586  	41.000000	0.779159  	41.000000	0.770228  	41.000000	0.772013  	41.000000	0.778835  	41.000000	0.000323208	
44.000000	0.730161  	44.000000	0.736567  	44.000000	0.728789  	44.000000	0.73004   	44.000000	0.736263  	44.000000	0.000303175	
47.000000	0.693591  	47.000000	0.698999  	47.000000	0.692232  	47.000000	0.693009  	47.000000	0.698714  	47.000000	0.000285575	
50.000000	0.661054  	50.000000	0.665609  	50.000000	0.659649  	50.000000	0.660082  	50.000000	0.665339  	50.000000	0.000269985	
55.000000	0.614097  	55.000000	0.617491  	55.000000	0.612581  	55.000000	0.612602  	55.000000	0.617244  	55.000000	0.000247603	
60.000000	0.574367  	60.000000	0.576862  	60.000000	0.572787  	60.000000	0.572473  	60.000000	0.576633  	60.000000	0.00022878	
65.000000	0.540283  	65.000000	0.542083  	65.000000	0.538685  	65.000000	0.538088  	65.000000	0.54187   	65.000000	0.000212718	
70.000000	0.510699  	70.000000	0.511964  	70.000000	0.509037  	70.000000	0.50828   	70.000000	0.511765  	70.000000	0.000198845	
75.000000	0.484762  	75.000000	0.485617  	75.000000	0.483115  	75.000000	0.482182  	75.000000	0.48543   	75.000000	0.000186737	
80.000000	0.461821  	80.000000	0.46237   	80.000000	0.460162  	80.000000	0.459132  	80.000000	0.462194  	80.000000	0.000176073	
85.000000	0.441375  	85.000000	0.4417    	85.000000	0.439725  	85.000000	0.438619  	85.000000	0.441533  	85.000000	0.000166606	
90.000000	0.423029  	90.000000	0.423197  	90.000000	0.421412  	90.000000	0.420243  	90.000000	0.423039  	90.000000	0.000158143	
95.000000	0.406468  	95.000000	0.406534  	95.000000	0.404905  	95.000000	0.403681  	95.000000	0.406384  	95.000000	0.00015053	
100.000000	0.391438  	100.000000	0.391447  	100.000000	0.389947  	100.000000	0.388676  	100.000000	0.391304  	100.000000	0.000143643	
105.000000	0.37773   	105.000000	0.377721  	105.000000	0.376326  	105.000000	0.375015  	105.000000	0.377584  	105.000000	0.000137383	
110.000000	0.365173  	110.000000	0.365178  	110.000000	0.363871  	110.000000	0.362525  	110.000000	0.365046  	110.000000	0.000131666	
115.000000	0.353625  	115.000000	0.35367   	115.000000	0.352433  	115.000000	0.351058  	115.000000	0.353543  	115.000000	0.000126424	
120.000000	0.342965  	120.000000	0.343072  	120.000000	0.341901  	120.000000	0.340495  	120.000000	0.34295   	120.000000	0.000121599	
125.000000	0.333093  	125.000000	0.333281  	125.000000	0.33215   	125.000000	0.330731  	125.000000	0.333164  	125.000000	0.000117143	
130.000000	0.323921  	130.000000	0.324206  	130.000000	0.323083  	130.000000	0.321678  	130.000000	0.324093  	130.000000	0.000113014	
135.000000	0.315377  	135.000000	0.315772  	135.000000	0.314679  	135.000000	0.313261  	135.000000	0.315662  	135.000000	0.000109177	
140.000000	0.307395  	140.000000	0.307912  	140.000000	0.306859  	140.000000	0.305415  	140.000000	0.307806  	140.000000	0.000105602	
145.000000	0.299921  	145.000000	0.300569  	145.000000	0.299533  	145.000000	0.298084  	145.000000	0.300467  	145.000000	0.000102263	
150.000000	0.292906  	150.000000	0.293694  	150.000000	0.292652  	150.000000	0.291218  	150.000000	0.293595  	150.000000	9.9136e-05	
155.000000	0.283905  	155.000000	0.287243  	155.000000	0.286216  	155.000000	0.284774  	155.000000	0.287147  	155.000000	9.62021e-05	
160.000000	0.278081  	160.000000	0.281177  	160.000000	0.280165  	160.000000	0.278715  	160.000000	0.281084  	160.000000	9.34435e-05	
165.000000	0.272587  	165.000000	0.275464  	165.000000	0.274441  	165.000000	0.273007  	165.000000	0.275373  	165.000000	9.08446e-05	
170.000000	0.267395  	170.000000	0.270073  	170.000000	0.269055  	170.000000	0.26762   	170.000000	0.269985  	170.000000	8.83919e-05	
175.000000	0.262481  	175.000000	0.264978  	175.000000	0.263974  	175.000000	0.262528  	175.000000	0.264892  	175.000000	8.60731e-05	
180.000000	0.257822  	180.000000	0.260154  	180.000000	0.259147  	180.000000	0.257708  	180.000000	0.26007   	180.000000	8.38776e-05	
185.000000	0.2534    	185.000000	0.255581  	185.000000	0.254561  	185.000000	0.253139  	185.000000	0.255499  	185.000000	8.17954e-05	
190.000000	0.249195  	190.000000	0.251239  	190.000000	0.25021   	190.000000	0.2488    	190.000000	0.25116   	190.000000	7.98181e-05	
195.000000	0.245193  	195.000000	0.247112  	195.000000	0.246086  	195.000000	0.244677  	195.000000	0.247034  	195.000000	7.79377e-05	
200.000000	0.241378  	200.000000	0.243184  	200.000000	0.242169  	200.000000	0.240752  	200.000000	0.243108  	200.000000	7.61473e-05	
210.000000	0.234261  	210.000000	0.23587   	210.000000	0.23485   	210.000000	0.233445  	210.000000	0.235797  	210.000000	7.28112e-05	
220.000000	0.227754  	220.000000	0.229198  	220.000000	0.228163  	220.000000	0.226782  	220.000000	0.229129  	220.000000	6.97655e-05	
230.000000	0.22178   	230.000000	0.223089  	230.000000	0.22207   	230.000000	0.220682  	230.000000	0.223022  	230.000000	6.69735e-05	
240.000000	0.216276  	240.000000	0.217474  	240.000000	0.216457  	240.000000	0.215079  	240.000000	0.21741   	240.000000	6.44042e-05	
250.000000	0.211188  	250.000000	0.212296  	250.000000	0.211274  	250.000000	0.209913  	250.000000	0.212234  	250.000000	6.20319e-05	
260.000000	0.206471  	260.000000	0.207507  	260.000000	0.206481  	260.000000	0.205137  	260.000000	0.207447  	260.000000	5.98343e-05	
270.000000	0.202085  	270.000000	0.203063  	270.000000	0.202044  	270.000000	0.20071   	270.000000	0.203006  	270.000000	5.77927e-05	
280.000000	0.197998  	280.000000	0.198931  	280.000000	0.197934  	280.000000	0.196594  	280.000000	0.198875  	280.000000	5.58907e-05	
290.000000	0.194178  	290.000000	0.195077  	290.000000	0.194089  	290.000000	0.192759  	290.000000	0.195023  	290.000000	5.41145e-05	
300.000000	0.190602  	300.000000	0.191477  	300.000000	0.190492  	300.000000	0.189177  	300.000000	0.191424  	300.000000	5.24517e-05	
310.000000	0.187246  	310.000000	0.188105  	310.000000	0.187129  	310.000000	0.185825  	310.000000	0.188054  	310.000000	5.08918e-05	
320.000000	0.184091  	320.000000	0.184941  	320.000000	0.183976  	320.000000	0.182683  	320.000000	0.184892  	320.000000	4.94252e-05	
330.000000	0.18112   	330.000000	0.181967  	330.000000	0.181011  	330.000000	0.179731  	330.000000	0.181919  	330.000000	4.80439e-05	
340.000000	0.178317  	340.000000	0.179166  	340.000000	0.178226  	340.000000	0.176953  	340.000000	0.17912   	340.000000	4.67404e-05	
350.000000	0.175669  	350.000000	0.176525  	350.000000	0.175612  	350.000000	0.174336  	350.000000	0.176479  	350.000000	4.55083e-05	
360.000000	0.173162  	360.000000	0.17403   	360.000000	0.173139  	360.000000	0.171865  	360.000000	0.173985  	360.000000	4.43419e-05	
370.000000	0.170787  	370.000000	0.171669  	370.000000	0.170793  	370.000000	0.169529  	370.000000	0.171626  	370.000000	4.32359e-05	
380.000000	0.168534  	380.000000	0.169433  	380.000000	0.168573  	380.000000	0.167319  	380.000000	0.169391  	380.000000	4.21857e-05	
390.000000	0.166393  	390.000000	0.167312  	390.000000	0.16647   	390.000000	0.165224  	390.000000	0.167271  	390.000000	4.11871e-05	
400.000000	0.164357  	400.000000	0.165298  	400.000000	0.164474  	400.000000	0.163236  	400.000000	0.165258  	400.000000	4.02364e-05	
410.000000	0.162418  	410.000000	0.163384  	410.000000	0.162578  	410.000000	0.161348  	410.000000	0.163344  	410.000000	3.93302e-05	
420.000000	0.160571  	420.000000	0.161561  	420.000000	0.160775  	420.000000	0.159552  	420.000000	0.161523  	420.000000	3.84654e-05	
430.000000	0.158807  	430.000000	0.159825  	430.000000	0.159059  	430.000000	0.157843  	430.000000	0.159787  	430.000000	3.76392e-05	
440.000000	0.157123  	440.000000	0.158169  	440.000000	0.157423  	440.000000	0.156214  	440.000000	0.158132  	440.000000	3.68489e-05	
450.000000	0.155514  	450.000000	0.156588  	450.000000	0.155863  	450.000000	0.154661  	450.000000	0.156552  	450.000000	3.60924e-05	
460.000000	0.153974  	460.000000	0.155078  	460.000000	0.154372  	460.000000	0.153178  	460.000000	0.155043  	460.000000	3.53674e-05	
470.000000	0.1525    	470.000000	0.153634  	470.000000	0.152949  	470.000000	0.151761  	470.000000	0.153599  	470.000000	3.4672e-05	
480.000000	0.151087  	480.000000	0.152252  	480.000000	0.151592  	480.000000	0.150406  	480.000000	0.152218  	480.000000	3.40044e-05	
490.000000	0.149732  	490.000000	0.150928  	490.000000	0.150297  	490.000000	0.14911   	490.000000	0.150895  	490.000000	3.3363e-05	
500.000000	0.148432  	500.000000	0.149659  	500.000000	0.149057  	500.000000	0.147868  	500.000000	0.149626  	500.000000	3.27462e-05	
520.000000	0.145984  	520.000000	0.147274  	520.000000	0.146717  	520.000000	0.145537  	520.000000	0.147243  	520.000000	3.15808e-05	
540.000000	0.143722  	540.000000	0.145075  	540.000000	0.144558  	540.000000	0.14339   	540.000000	0.145044  	540.000000	3.04984e-05	
560.000000	0.141626  	560.000000	0.143041  	560.000000	0.142567  	560.000000	0.141408  	560.000000	0.143011  	560.000000	2.94902e-05	
580.000000	0.13968   	580.000000	0.141156  	580.000000	0.140725  	580.000000	0.139574  	580.000000	0.141127  	580.000000	2.85488e-05	
600.000000	0.13787   	600.000000	0.139406  	600.000000	0.139016  	600.000000	0.137874  	600.000000	0.139378  	600.000000	2.76677e-05	
620.000000	0.136183  	620.000000	0.137778  	620.000000	0.137428  	620.000000	0.136294  	620.000000	0.137751  	620.000000	2.68412e-05	
640.000000	0.134609  	640.000000	0.136261  	640.000000	0.13595   	640.000000	0.134823  	640.000000	0.136235  	640.000000	2.60643e-05	
660.000000	0.133138  	660.000000	0.134845  	660.000000	0.134572  	660.000000	0.133452  	660.000000	0.134819  	660.000000	2.53327e-05	
680.000000	0.131762  	680.000000	0.133521  	680.000000	0.133285  	680.000000	0.132171  	680.000000	0.133496  	680.000000	2.46424e-05	
700.000000	0.130471  	700.000000	0.132282  	700.000000	0.132081  	700.000000	0.130974  	700.000000	0.132258  	700.000000	2.399e-05 	
720.000000	0.129261  	720.000000	0.13112   	720.000000	0.130953  	720.000000	0.129852  	720.000000	0.131097  	720.000000	2.33725e-05	
740.000000	0.128124  	740.000000	0.13003   	740.000000	0.129896  	740.000000	0.1288    	740.000000	0.130008  	740.000000	2.2787e-05	
760.000000	0.127056  	760.000000	0.129007  	760.000000	0.128903  	760.000000	0.127812  	760.000000	0.128984  	760.000000	2.22311e-05	
780.000000	0.126051  	780.000000	0.128044  	780.000000	0.127969  	780.000000	0.126884  	780.000000	0.128022  	780.000000	2.17027e-05	
800.000000	0.125105  	800.000000	0.127138  	800.000000	0.12709   	800.000000	0.12601   	800.000000	0.127117  	800.000000	2.11996e-05	
820.000000	0.124213  	820.000000	0.126285  	820.000000	0.126265  	820.000000	0.125189  	820.000000	0.126264  	820.000000	2.07201e-05	
840.000000	0.123373  	840.000000	0.125481  	840.000000	0.125498  	840.000000	0.124426  	840.000000	0.125461  	840.000000	2.02626e-05	
860.000000	0.12258   	860.000000	0.124722  	860.000000	0.124774  	860.000000	0.123707  	860.000000	0.124702  	860.000000	1.98255e-05	
880.000000	0.121832  	880.000000	0.124006  	880.000000	0.12409   	880.000000	0.123027  	880.000000	0.123987  	880.000000	1.94075e-05	
900.000000	0.121126  	900.000000	0.12333   	900.000000	0.123444  	900.000000	0.122385  	900.000000	0.123311  	900.000000	1.90074e-05	
920.000000	0.12046   	920.000000	0.122691  	920.000000	0.122833  	920.000000	0.121777  	920.000000	0.122672  	920.000000	1.8624e-05	
940.000000	0.11983   	940.000000	0.122087  	940.000000	0.122255  	940.000000	0.121202  	940.000000	0.122069  	940.000000	1.82563e-05	
960.000000	0.119235  	960.000000	0.121516  	960.000000	0.121707  	960.000000	0.120658  	960.000000	0.121498  	960.000000	1.79034e-05	
980.000000	0.118672  	980.000000	0.120975  	980.000000	0.121188  	980.000000	0.120142  	980.000000	0.120958  	980.000000	1.75643e-05	
1000.000000	0.118141  	1000.000000	0.120464  	1000.000000	0.120695  	1000.000000	0.119653  	1000.000000	0.120447  	1000.000000	1.72382e-05	
1020.000000	0.117639  	1020.000000	0.11998   	1020.000000	0.120228  	1020.000000	0.119189  	1020.000000	0.119963  	1020.000000	1.69244e-05	
1040.000000	0.117165  	1040.000000	0.119522  	1040.000000	0.119785  	1040.000000	0.118748  	1040.000000	0.119505  	1040.000000	1.66223e-05	
1060.000000	0.116716  	1060.000000	0.119088  	1060.000000	0.119365  	1060.000000	0.11833   	1060.000000	0.119072  	1060.000000	1.63311e-05	
1080.000000	0.116293  	1080.000000	0.118678  	1080.000000	0.118965  	1080.000000	0.117933  	1080.000000	0.118662  	1080.000000	1.60502e-05	
1100.000000	0.115893  	1100.000000	0.118289  	1100.000000	0.118585  	1100.000000	0.117556  	1100.000000	0.118273  	1100.000000	1.57792e-05	
1120.000000	0.115516  	1120.000000	0.117921  	1120.000000	0.118224  	1120.000000	0.117197  	1120.000000	0.117905  	1120.000000	1.55175e-05	
1140.000000	0.11516   	1140.000000	0.117572  	1140.000000	0.11788   	1140.000000	0.116856  	1140.000000	0.117557  	1140.000000	1.52647e-05	
1160.000000	0.114824  	1160.000000	0.117242  	1160.000000	0.117554  	1160.000000	0.116532  	1160.000000	0.117227  	1160.000000	1.50202e-05	
1180.000000	0.114507  	1180.000000	0.11693   	1180.000000	0.117243  	1180.000000	0.116223  	1180.000000	0.116915  	1180.000000	1.47837e-05	
1200.000000	0.114209  	1200.000000	0.116635  	1200.000000	0.116947  	1200.000000	0.11593   	1200.000000	0.11662   	1200.000000	1.45548e-05	
1220.000000	0.113929  	1220.000000	0.116355  	1220.000000	0.116666  	1220.000000	0.11565   	1220.000000	0.116341  	1220.000000	1.43331e-05	
1240.000000	0.113665  	1240.000000	0.116091  	1240.000000	0.116398  	1240.000000	0.115384  	1240.000000	0.116077  	1240.000000	1.41183e-05	
1260.000000	0.113417  	1260.000000	0.115842  	1260.000000	0.116142  	1260.000000	0.115131  	1260.000000	0.115828  	1260.000000	1.391e-05 	
1280.000000	0.113184  	1280.000000	0.115606  	1280.000000	0.115899  	1280.000000	0.11489   	1280.000000	0.115592  	1280.000000	1.3708e-05	
1300.000000	0.112967  	1300.000000	0.115384  	1300.000000	0.115668  	1300.000000	0.11466   	1300.000000	0.11537   	1300.000000	1.3512e-05	
1320.000000	0.112763  	1320.000000	0.115174  	1320.000000	0.115447  	1320.000000	0.114441  	1320.000000	0.115161  	1320.000000	1.33217e-05	
1340.000000	0.112573  	1340.000000	0.114976  	1340.000000	0.115237  	1340.000000	0.114233  	1340.000000	0.114963  	1340.000000	1.31369e-05	
1360.000000	0.112395  	1360.000000	0.11479   	1360.000000	0.115037  	1360.000000	0.114034  	1360.000000	0.114777  	1360.000000	1.29573e-05	
1380.000000	0.112231  	1380.000000	0.114615  	1380.000000	0.114847  	1380.000000	0.113845  	1380.000000	0.114602  	1380.000000	1.27827e-05	
1400.000000	0.112078  	1400.000000	0.114451  	1400.000000	0.114665  	1400.000000	0.113665  	1400.000000	0.114438  	1400.000000	1.2613e-05	
1420.000000	0.111936  	1420.000000	0.114296  	1420.000000	0.114492  	1420.000000	0.113494  	1420.000000	0.114284  	1420.000000	1.24478e-05	
1440.000000	0.111805  	1440.000000	0.114152  	1440.000000	0.114327  	1440.000000	0.113331  	1440.000000	0.114139  	1440.000000	1.2287e-05	
1460.000000	0.111686  	1460.000000	0.114016  	1460.000000	0.114171  	1460.000000	0.113175  	1460.000000	0.114004  	1460.000000	1.21305e-05	
1480.000000	0.111576  	1480.000000	0.11389   	1480.000000	0.114021  	1480.000000	0.113027  	1480.000000	0.113878  	1480.000000	1.1978e-05	
1500.000000	0.111476  	1500.000000	0.113773  	1500.000000	0.113879  	1500.000000	0.112886  	1500.000000	0.113761  	1500.000000	1.18295e-05	
1520.000000	0.111386  	1520.000000	0.113663  	1520.000000	0.113744  	1520.000000	0.112752  	1520.000000	0.113652  	1520.000000	1.16847e-05	
1540.000000	0.111304  	1540.000000	0.113562  	1540.000000	0.113615  	1540.000000	0.112625  	1540.000000	0.113551  	1540.000000	1.15436e-05	
1560.000000	0.111232  	1560.000000	0.113468  	1560.000000	0.113493  	1560.000000	0.112504  	1560.000000	0.113457  	1560.000000	1.14059e-05	
1580.000000	0.111168  	1580.000000	0.113382  	1580.000000	0.113376  	1580.000000	0.112388  	1580.000000	0.113371  	1580.000000	1.12716e-05	
1600.000000	0.111112  	1600.000000	0.113303  	1600.000000	0.113265  	1600.000000	0.112279  	1600.000000	0.113292  	1600.000000	1.11405e-05	
1620.000000	0.111064  	1620.000000	0.113231  	1620.000000	0.11316   	1620.000000	0.112175  	1620.000000	0.11322   	1620.000000	1.10125e-05	
1640.000000	0.111024  	1640.000000	0.113165  	1640.000000	0.11306   	1640.000000	0.112076  	1640.000000	0.113154  	1640.000000	1.08876e-05	
1660.000000	0.110991  	1660.000000	0.113106  	1660.000000	0.112966  	1660.000000	0.111982  	1660.000000	0.113095  	1660.000000	1.07655e-05	
1680.000000	0.110966  	1680.000000	0.113052  	1680.000000	0.112876  	1680.000000	0.111893  	1680.000000	0.113042  	1680.000000	1.06462e-05	
1700.000000	0.110947  	1700.000000	0.113005  	1700.000000	0.11279   	1700.000000	0.111809  	1700.000000	0.112995  	1700.000000	1.05297e-05	
1750.000000	0.11093   	1750.000000	0.112911  	1750.000000	0.112596  	1750.000000	0.111617  	1750.000000	0.112901  	1750.000000	1.02495e-05	
1800.000000	0.110951  	1800.000000	0.112851  	1800.000000	0.112427  	1800.000000	0.111451  	1800.000000	0.112841  	1800.000000	9.98434e-06	
1850.000000	0.111009  	1850.000000	0.11282   	1850.000000	0.112281  	1850.000000	0.111307  	1850.000000	0.11281   	1850.000000	9.73297e-06	
1900.000000	0.1111    	1900.000000	0.112817  	1900.000000	0.112156  	1900.000000	0.111184  	1900.000000	0.112808  	1900.000000	9.49436e-06	
1950.000000	0.111222  	1950.000000	0.11284   	1950.000000	0.11205   	1950.000000	0.111079  	1950.000000	0.112831  	1950.000000	9.26754e-06	
2000.000000	0.111374  	2000.000000	0.112887  	2000.000000	0.111961  	2000.000000	0.110992  	2000.000000	0.112878  	2000.000000	9.05165e-06	
2100.000000	0.111757  	2100.000000	0.113045  	2100.000000	0.111828  	2100.000000	0.110863  	2100.000000	0.113036  	2100.000000	8.64962e-06	
2200.000000	0.112236  	2200.000000	0.113279  	2200.000000	0.111748  	2200.000000	0.110786  	2200.000000	0.11327   	2200.000000	8.28285e-06	
2300.000000	0.1128    	2300.000000	0.113579  	2300.000000	0.111712  	2300.000000	0.110752  	2300.000000	0.113571  	2300.000000	7.94684e-06	
2400.000000	0.11344   	2400.000000	0.113937  	2400.000000	0.111712  	2400.000000	0.110755  	2400.000000	0.11393   	2400.000000	7.63786e-06	
2500.000000	0.114148  	2500.000000	0.114347  	2500.000000	0.111744  	2500.000000	0.110789  	2500.000000	0.11434   	2500.000000	7.35272e-06	
2600.000000	0.114917  	2600.000000	0.114801  	2600.000000	0.111802  	2600.000000	0.110849  	2600.000000	0.114794  	2600.000000	7.08875e-06	
2700.000000	0.115743  	2700.000000	0.115296  	2700.000000	0.111883  	2700.000000	0.110931  	2700.000000	0.115289  	2700.000000	6.84365e-06	
2800.000000	0.116619  	2800.000000	0.115826  	2800.000000	0.111982  	2800.000000	0.111032  	2800.000000	0.11582   	2800.000000	6.61545e-06	
2900.000000	0.117542  	2900.000000	0.116388  	2900.000000	0.112097  	2900.000000	0.111149  	2900.000000	0.116382  	2900.000000	6.40243e-06	
3000.000000	0.118507  	3000.000000	0.116979  	3000.000000	0.112227  	3000.000000	0.11128   	3000.000000	0.116973  	3000.000000	6.20312e-06	
3200.000000	0.120555  	3200.000000	0.118236  	3200.000000	0.112518  	3200.000000	0.111574  	3200.000000	0.11823   	3200.000000	5.8406e-06	
3400.000000	0.12274   	3400.000000	0.119578  	3400.000000	0.112843  	3400.000000	0.111901  	3400.000000	0.119572  	3400.000000	5.51929e-06	
3600.000000	0.125045  	3600.000000	0.12099   	3600.000000	0.113193  	3600.000000	0.112252  	3600.000000	0.120985  	3600.000000	5.23248e-06	
3800.000000	0.127458  	3800.000000	0.122461  	3800.000000	0.113559  	3800.000000	0.11262   	3800.000000	0.122456  	3800.000000	4.97484e-06	
4000.000000	0.129967  	4000.000000	0.123982  	4000.000000	0.113936  	4000.000000	0.112999  	4000.000000	0.123977  	4000.000000	4.7421e-06	
4200.000000	0.132562  	4200.000000	0.125544  	4200.000000	0.114321  	4200.000000	0.113385  	4200.000000	0.12554   	4200.000000	4.53079e-06	
4400.000000	0.135238  	4400.000000	0.127143  	4400.000000	0.11471   	4400.000000	0.113774  	4400.000000	0.127139  	4400.000000	4.33804e-06	
4600.000000	0.137987  	4600.000000	0.128772  	4600.000000	0.115099  	4600.000000	0.114165  	4600.000000	0.128768  	4600.000000	4.16149e-06	
4800.000000	0.140805  	4800.000000	0.130429  	4800.000000	0.115489  	4800.000000	0.114556  	4800.000000	0.130425  	4800.000000	3.99916e-06	
5000.000000	0.143688  	5000.000000	0.132108  	5000.000000	0.115877  	5000.000000	0.114945  	5000.000000	0.132105  	5000.000000	3.84938e-06	
5250.000000	0.147376  	5250.000000	0.134236  	5250.000000	0.116357  	5250.000000	0.115427  	5250.000000	0.134232  	5250.000000	3.67768e-06	
5500.000000	0.151152  	5500.000000	0.136391  	5500.000000	0.116831  	5500.000000	0.115902  	5500.000000	0.136387  	5500.000000	3.52107e-06	
6000.000000	0.158952  	6000.000000	0.140765  	6000.000000	0.117758  	6000.000000	0.116832  	6000.000000	0.140762  	6000.000000	3.24575e-06	
6500.000000	0.167057  	6500.000000	0.145208  	6500.000000	0.118652  	6500.000000	0.117728  	6500.000000	0.145205  	6500.000000	3.01144e-06	
7000.000000	0.175443  	7000.000000	0.149701  	7000.000000	0.119511  	7000.000000	0.118589  	7000.000000	0.149698  	7000.000000	2.80955e-06	
7500.000000	0.184094  	7500.000000	0.154231  	7500.000000	0.120336  	7500.000000	0.119415  	7500.000000	0.154229  	7500.000000	2.63373e-06	
8000.000000	0.192998  	8000.000000	0.158791  	8000.000000	0.121127  	8000.000000	0.120206  	8000.000000	0.158789  	8000.000000	2.47919e-06	
8500.000000	0.202144  	8500.000000	0.163372  	8500.000000	0.121883  	8500.000000	0.120965  	8500.000000	0.16337   	8500.000000	2.34226e-06	
9000.000000	0.211527  	9000.000000	0.16797   	9000.000000	0.122606  	9000.000000	0.121693  	9000.000000	0.167968  	9000.000000	2.22006e-06	
9500.000000	0.221139  	9500.000000	0.17258   	9500.000000	0.1233    	9500.000000	0.122391  	9500.000000	0.172578  	9500.000000	2.11032e-06	
10000.000000	0.230976  	10000.000000	0.1772    	10000.000000	0.123968  	10000.000000	0.123061  	10000.000000	0.177198  	10000.000000	2.0112e-06	
11000.000000	0.251311  	11000.000000	0.186457  	11000.000000	0.12523   	11000.000000	0.124325  	11000.000000	0.186455  	11000.000000	1.83918e-06	
12000.000000	0.272511  	12000.000000	0.195726  	12000.000000	0.126401  	12000.000000	0.125498  	12000.000000	0.195724  	12000.000000	1.69497e-06	
13000.000000	0.294561  	13000.000000	0.204997  	13000.000000	0.127487  	13000.000000	0.126589  	13000.000000	0.204996  	13000.000000	1.57227e-06	
14000.000000	0.317454  	14000.000000	0.214266  	14000.000000	0.128499  	14000.000000	0.127609  	14000.000000	0.214264  	14000.000000	1.46657e-06	
15000.000000	0.341183  	15000.000000	0.223526  	15000.000000	0.129445  	15000.000000	0.128566  	15000.000000	0.223525  	15000.000000	1.37454e-06	
16000.000000	0.365746  	16000.000000	0.232777  	16000.000000	0.130337  	16000.000000	0.129467  	16000.000000	0.232775  	16000.000000	1.29367e-06	
17000.000000	0.39114   	17000.000000	0.242014  	17000.000000	0.13118   	17000.000000	0.130316  	17000.000000	0.242013  	17000.000000	1.22202e-06	
18000.000000	0.417367  	18000.000000	0.251239  	18000.000000	0.13198   	18000.000000	0.13112   	18000.000000	0.251237  	18000.000000	1.15809e-06	
19000.000000	0.444427  	19000.000000	0.260448  	19000.000000	0.132741  	19000.000000	0.131883  	19000.000000	0.260447  	19000.000000	1.10069e-06	
20000.000000	0.472322  	20000.000000	0.269643  	20000.000000	0.133466  	20000.000000	0.132609  	20000.000000	0.269642  	20000.000000	1.04886e-06	
21000.000000	0.501055  	21000.000000	0.278823  	21000.000000	0.134155  	21000.000000	0.1333    	21000.000000	0.278822  	21000.000000	1.00181e-06	
22000.000000	0.530628  	22000.000000	0.287988  	22000.000000	0.134806  	22000.000000	0.13396   	22000.000000	0.287987  	22000.000000	9.58914e-07	
23000.000000	0.561045  	23000.000000	0.297137  	23000.000000	0.135431  	23000.000000	0.134592  	23000.000000	0.297136  	23000.000000	9.19634e-07	
24000.000000	0.59231   	24000.000000	0.306272  	24000.000000	0.13603   	24000.000000	0.135198  	24000.000000	0.306271  	24000.000000	8.83529e-07	
25000.000000	0.624426  	25000.000000	0.315391  	25000.000000	0.136602  	25000.000000	0.135779  	25000.000000	0.31539   	25000.000000	8.50226e-07	
26000.000000	0.657398  	26000.000000	0.324496  	26000.000000	0.13715   	26000.000000	0.136338  	26000.000000	0.324495  	26000.000000	8.19408e-07	
27000.000000	0.69123   	27000.000000	0.333587  	27000.000000	0.137678  	27000.000000	0.136876  	27000.000000	0.333586  	27000.000000	7.90804e-07	
28000.000000	0.725926  	28000.000000	0.342663  	28000.000000	0.138187  	28000.000000	0.137394  	28000.000000	0.342663  	28000.000000	7.64182e-07	
29000.000000	0.761492  	29000.000000	0.351726  	29000.000000	0.138678  	29000.000000	0.137895  	29000.000000	0.351725  	29000.000000	7.39341e-07	
30000.000000	0.797932  	30000.000000	0.360775  	30000.000000	0.139152  	30000.000000	0.138378  	30000.000000	0.360775  	30000.000000	7.16107e-07	
32000.000000	0.873454  	32000.000000	0.378834  	32000.000000	0.140055  	32000.000000	0.139299  	32000.000000	0.378834  	32000.000000	6.73868e-07	
34000.000000	0.952534  	34000.000000	0.396843  	34000.000000	0.140902  	34000.000000	0.140164  	34000.000000	0.396842  	34000.000000	6.36454e-07	
36000.000000	1.03521   	36000.000000	0.414803  	36000.000000	0.141697  	36000.000000	0.140979  	36000.000000	0.414802  	36000.000000	6.03077e-07	
38000.000000	1.12153   	38000.000000	0.432716  	38000.000000	0.142445  	38000.000000	0.141749  	38000.000000	0.432716  	38000.000000	5.73112e-07	
40000.000000	1.21154   	40000.000000	0.450586  	40000.000000	0.143151  	40000.000000	0.14248   	40000.000000	0.450585  	40000.000000	5.46057e-07	
42000.000000	1.30528   	42000.000000	0.468412  	42000.000000	0.143819  	42000.000000	0.143175  	42000.000000	0.468412  	42000.000000	5.21504e-07	
44000.000000	1.4028    	44000.000000	0.486199  	44000.000000	0.144454  	44000.000000	0.143837  	44000.000000	0.486198  	44000.000000	4.99119e-07	
46000.000000	1.50414   	46000.000000	0.503946  	46000.000000	0.14506   	46000.000000	0.144469  	46000.000000	0.503945  	46000.000000	4.78624e-07	
48000.000000	1.60935   	48000.000000	0.521656  	48000.000000	0.145638  	48000.000000	0.145073  	48000.000000	0.521655  	48000.000000	4.59788e-07	
50000.000000	1.71848   	50000.000000	0.53933   	50000.000000	0.14619   	50000.000000	0.145653  	50000.000000	0.539329  	50000.000000	4.42415e-07	
