0.001000	2.85181   	0.001000	1.72543   	0.001000	1.89382   	0.001000	1.89382   	0.001000	0.532659  	0.001000	1.19277   	
0.002000	2.81725   	0.002000	1.73916   	0.002000	1.94191   	0.002000	1.94191   	0.002000	0.690773  	0.002000	1.04839   	
0.005000	2.91459   	0.005000	1.73733   	0.005000	1.99466   	0.005000	1.99466   	0.005000	0.974009  	0.005000	0.763326  	
0.008000	3.09266   	0.008000	1.77308   	0.008000	2.06284   	0.008000	2.06284   	0.008000	1.16174   	0.008000	0.611346  	
0.010000	3.21595   	0.010000	1.80665   	0.010000	2.11292   	0.010000	2.11292   	0.010000	1.26313   	0.010000	0.543518  	
0.015000	3.7426    	0.015000	1.96632   	0.015000	2.29792   	0.015000	2.29792   	0.015000	1.53507   	0.015000	0.431242  	
0.020000	4.26875   	0.020000	2.39582   	0.020000	2.7237    	0.020000	2.7237    	0.020000	2.03436   	0.020000	0.361463  	
0.025000	4.90149   	0.025000	2.86612   	0.025000	3.18747   	0.025000	3.18747   	0.025000	2.55287   	0.025000	0.313253  	
0.030000	5.5005    	0.030000	3.36071   	0.030000	3.62954   	0.030000	3.62954   	0.030000	3.08306   	0.030000	0.277653  	
0.035000	6.04604   	0.035000	3.85811   	0.035000	4.06892   	0.035000	4.06892   	0.035000	3.60798   	0.035000	0.25013   	
0.040000	6.52694   	0.040000	4.34709   	0.040000	4.49923   	0.040000	4.49923   	0.040000	4.11896   	0.040000	0.228126  	
0.045000	6.93649   	0.045000	4.81936   	0.045000	4.91596   	0.045000	4.91596   	0.045000	4.60929   	0.045000	0.210076  	
0.050000	7.27167   	0.050000	5.26725   	0.050000	5.31414   	0.050000	5.31414   	0.050000	5.0741    	0.050000	0.193147  	
0.055000	7.7648    	0.055000	5.69073   	0.055000	5.69542   	0.055000	5.69542   	0.055000	5.51029   	0.055000	0.180445  	
0.060000	8.21395   	0.060000	6.08565   	0.060000	6.05647   	0.060000	6.05647   	0.060000	5.91618   	0.060000	0.169472  	
0.070000	8.95353   	0.070000	6.77104   	0.070000	6.71567   	0.070000	6.71567   	0.070000	6.61961   	0.070000	0.151433  	
0.080000	9.72459   	0.080000	7.33926   	0.080000	7.29172   	0.080000	7.29172   	0.080000	7.20208   	0.080000	0.137181  	
0.090000	10.3808   	0.090000	7.81073   	0.090000	7.78957   	0.090000	7.78957   	0.090000	7.68512   	0.090000	0.125607  	
0.100000	10.9434   	0.100000	8.20133   	0.100000	8.21681   	0.100000	8.21681   	0.100000	8.08533   	0.100000	0.115999  	
0.120000	11.5887   	0.120000	8.79942   	0.120000	8.894     	0.120000	8.894     	0.120000	8.69849   	0.120000	0.100923  	
0.140000	12.086    	0.140000	9.24413   	0.140000	9.38959   	0.140000	9.38959   	0.140000	9.15454   	0.140000	0.0895915 	
0.160000	12.5123   	0.160000	9.59259   	0.160000	9.75793   	0.160000	9.75793   	0.160000	9.51186   	0.160000	0.0807314 	
0.180000	12.904    	0.180000	9.8713    	0.180000	10.0388   	0.180000	10.0388   	0.180000	9.79771   	0.180000	0.073595  	
0.200000	13.2827   	0.200000	10.1032   	0.200000	10.2596   	0.200000	10.2596   	0.200000	10.0355   	0.200000	0.0677119 	
0.250000	13.82     	0.250000	10.5944   	0.250000	10.6548   	0.250000	10.6548   	0.250000	10.5377   	0.250000	0.0566709 	
0.300000	14.3868   	0.300000	11.0403   	0.300000	10.9269   	0.300000	10.9269   	0.300000	10.9914   	0.300000	0.0489289 	
0.350000	14.8362   	0.350000	11.3643   	0.350000	11.2231   	0.350000	11.2231   	0.350000	11.3211   	0.350000	0.0431733 	
0.400000	15.1817   	0.400000	11.6001   	0.400000	11.6011   	0.400000	11.6011   	0.400000	11.5614   	0.400000	0.0387122 	
0.450000	15.6077   	0.450000	11.8946   	0.450000	11.8938   	0.450000	11.8938   	0.450000	11.8595   	0.450000	0.0351444 	
0.500000	15.9572   	0.500000	12.1437   	0.500000	12.1191   	0.500000	12.1191   	0.500000	12.1115   	0.500000	0.0322205 	
0.600000	15.8524   	0.600000	12.4668   	0.600000	12.4171   	0.600000	12.4171   	0.600000	12.4391   	0.600000	0.027702  	
0.700000	15.4737   	0.700000	12.6204   	0.700000	12.5611   	0.700000	12.5611   	0.700000	12.5961   	0.700000	0.0243617 	
0.800000	15.4589   	0.800000	12.5984   	0.800000	12.4928   	0.800000	12.4928   	0.800000	12.5766   	0.800000	0.0217842 	
0.900000	15.3563   	0.900000	12.5186   	0.900000	12.386    	0.900000	12.386    	0.900000	12.4988   	0.900000	0.0197305 	
1.000000	15.0952   	1.000000	12.3181   	1.000000	12.2532   	1.000000	12.2532   	1.000000	12.3001   	1.000000	0.0180527 	
1.250000	14.3405   	1.250000	11.7818   	1.250000	11.825    	1.250000	11.825    	1.250000	11.7669   	1.250000	0.0149425 	
1.500000	13.5631   	1.500000	11.2359   	1.500000	11.3036   	1.500000	11.3036   	1.500000	11.2231   	1.500000	0.0127927 	
1.750000	12.8313   	1.750000	10.7259   	1.750000	10.8346   	1.750000	10.8346   	1.750000	10.7146   	1.750000	0.011212  	
2.000000	12.1744   	2.000000	10.2708   	2.000000	10.4073   	2.000000	10.4073   	2.000000	10.2608   	2.000000	0.00999763	
2.250000	11.6111   	2.250000	9.86968   	2.250000	10.0151   	2.250000	10.0151   	2.250000	9.86065   	2.250000	0.00903349	
2.500000	12.0084   	2.500000	9.50894   	2.500000	9.65319   	2.500000	9.65319   	2.500000	9.5007    	2.500000	0.00824824	
3.000000	10.9663   	3.000000	8.87452   	3.000000	9.00689   	3.000000	9.00689   	3.000000	8.86747   	3.000000	0.00704385	
3.500000	10.0908   	3.500000	8.32889   	3.500000	8.44633   	3.500000	8.44633   	3.500000	8.32273   	3.500000	0.00616102	
4.000000	9.34815   	4.000000	7.8531    	4.000000	7.95542   	4.000000	7.95542   	4.000000	7.84762   	4.000000	0.00548444	
4.500000	8.71141   	4.500000	7.43319   	4.500000	7.52186   	4.500000	7.52186   	4.500000	7.42824   	4.500000	0.00494841	
5.000000	8.15987   	5.000000	7.05889   	5.000000	7.13606   	5.000000	7.13606   	5.000000	7.05438   	5.000000	0.00451262	
5.500000	7.67763   	5.500000	6.72264   	5.500000	6.79047   	5.500000	6.79047   	5.500000	6.71849   	5.500000	0.00415095	
6.000000	7.25242   	6.000000	6.41901   	6.000000	6.47901   	6.000000	6.47901   	6.000000	6.41516   	6.000000	0.00384568	
6.500000	6.87466   	6.500000	6.14347   	6.500000	6.19679   	6.500000	6.19679   	6.500000	6.13989   	6.500000	0.00358437	
7.000000	6.53678   	7.000000	5.8923    	7.000000	5.9398    	7.000000	5.9398    	7.000000	5.88894   	7.000000	0.00335801	
7.500000	6.23273   	7.500000	5.66236   	7.500000	5.70475   	7.500000	5.70475   	7.500000	5.6592    	7.500000	0.00315992	
8.000000	5.95762   	8.000000	5.45104   	8.000000	5.48888   	8.000000	5.48888   	8.000000	5.44805   	8.000000	0.00298504	
8.500000	5.70745   	8.500000	5.25612   	8.500000	5.2899    	8.500000	5.2899    	8.500000	5.25329   	8.500000	0.00282943	
9.000000	5.47896   	9.000000	5.07575   	9.000000	5.10586   	9.000000	5.10586   	9.000000	5.07306   	9.000000	0.00269004	
9.500000	5.26939   	9.500000	4.90832   	9.500000	4.9351    	9.500000	4.9351    	9.500000	4.90576   	9.500000	0.00256441	
10.000000	5.07647   	10.000000	4.77387   	10.000000	4.77622   	10.000000	4.77622   	10.000000	4.77142   	10.000000	0.00245056	
11.000000	4.7331    	11.000000	4.48843   	11.000000	4.4796    	11.000000	4.49234   	11.000000	4.48618   	11.000000	0.00225207	
12.000000	4.43656   	12.000000	4.23544   	12.000000	4.21881   	12.000000	4.24054   	12.000000	4.23335   	12.000000	0.00208472	
13.000000	4.17777   	13.000000	4.00995   	13.000000	3.9876    	13.000000	4.01567   	13.000000	4.00801   	13.000000	0.00194161	
14.000000	3.94985   	14.000000	3.80791   	14.000000	3.78109   	14.000000	3.81361   	14.000000	3.80609   	14.000000	0.00181776	
15.000000	3.74752   	15.000000	3.62594   	15.000000	3.59541   	15.000000	3.63104   	15.000000	3.62423   	15.000000	0.00170946	
16.000000	3.56664   	16.000000	3.46129   	16.000000	3.42758   	16.000000	3.46525   	16.000000	3.45968   	16.000000	0.00161393	
17.000000	3.40392   	17.000000	3.31164   	17.000000	3.27514   	17.000000	3.314     	17.000000	3.31011   	17.000000	0.00152898	
18.000000	3.25672   	18.000000	3.17506   	18.000000	3.13597   	18.000000	3.17547   	18.000000	3.17361   	18.000000	0.00145294	
19.000000	3.12289   	19.000000	3.04994   	19.000000	3.00834   	19.000000	3.04809   	19.000000	3.04856   	19.000000	0.00138444	
20.000000	3.00066   	20.000000	2.93492   	20.000000	2.89081   	20.000000	2.93058   	20.000000	2.93359   	20.000000	0.00132241	
21.000000	2.88856   	21.000000	2.82882   	21.000000	2.78227   	21.000000	2.82183   	21.000000	2.82755   	21.000000	0.00126595	
22.000000	2.78536   	22.000000	2.73066   	22.000000	2.68179   	22.000000	2.72089   	22.000000	2.72945   	22.000000	0.00121433	
23.000000	2.69003   	23.000000	2.63959   	23.000000	2.58853   	23.000000	2.62695   	23.000000	2.63842   	23.000000	0.00116695	
24.000000	2.60169   	24.000000	2.55487   	24.000000	2.50175   	24.000000	2.53932   	24.000000	2.55374   	24.000000	0.0011233 	
25.000000	2.51959   	25.000000	2.47585   	25.000000	2.42077   	25.000000	2.45738   	25.000000	2.47477   	25.000000	0.00108294	
27.000000	2.37158   	27.000000	2.33281   	27.000000	2.27383   	27.000000	2.30853   	27.000000	2.3318    	27.000000	0.00101071	
29.000000	2.24178   	29.000000	2.20677   	29.000000	2.1442    	29.000000	2.17685   	29.000000	2.20582   	29.000000	0.000947912	
31.000000	2.12699   	31.000000	2.09488   	31.000000	2.0336    	31.000000	2.06275   	31.000000	2.09399   	31.000000	0.000892785	
33.000000	2.0247    	33.000000	1.99489   	33.000000	1.93883   	33.000000	1.96387   	33.000000	1.99404   	33.000000	0.000843986	
35.000000	1.93294   	35.000000	1.90499   	35.000000	1.85372   	35.000000	1.87513   	35.000000	1.90419   	35.000000	0.00080047	
38.000000	1.81171   	38.000000	1.78594   	38.000000	1.7408    	38.000000	1.75783   	38.000000	1.7852    	38.000000	0.00074334	
41.000000	1.7066    	41.000000	1.68254   	41.000000	1.64269   	41.000000	1.65609   	41.000000	1.68184   	41.000000	0.000694143	
44.000000	1.61454   	44.000000	1.59187   	44.000000	1.5562    	44.000000	1.56698   	44.000000	1.59122   	44.000000	0.000651313	
47.000000	1.53322   	47.000000	1.51171   	47.000000	1.4798    	47.000000	1.48824   	47.000000	1.5111    	47.000000	0.000613673	
50.000000	1.46082   	50.000000	1.44033   	50.000000	1.41156   	50.000000	1.41815   	50.000000	1.43975   	50.000000	0.00058032	
55.000000	1.35627   	55.000000	1.33726   	55.000000	1.3126    	55.000000	1.31696   	55.000000	1.33672   	55.000000	0.00053242	
60.000000	1.26777   	60.000000	1.25005   	60.000000	1.22881   	60.000000	1.23133   	60.000000	1.24955   	60.000000	0.000492116	
65.000000	1.19182   	65.000000	1.17528   	65.000000	1.15679   	65.000000	1.15789   	65.000000	1.17482   	65.000000	0.000457712	
70.000000	1.12588   	70.000000	1.11045   	70.000000	1.09411   	70.000000	1.09417   	70.000000	1.11002   	70.000000	0.000427985	
75.000000	1.06807   	75.000000	1.05369   	75.000000	1.03918   	75.000000	1.03834   	75.000000	1.05328   	75.000000	0.000402031	
80.000000	1.01694   	80.000000	1.00356   	80.000000	0.99045   	80.000000	0.989012  	80.000000	1.00318   	80.000000	0.000379165	
85.000000	0.971367  	85.000000	0.958969  	85.000000	0.947034  	85.000000	0.945091  	85.000000	0.95861   	85.000000	0.00035886	
90.000000	0.930483  	90.000000	0.919031  	90.000000	0.908105  	90.000000	0.905728  	90.000000	0.918691  	90.000000	0.000340703	
95.000000	0.893582  	95.000000	0.88305   	95.000000	0.872994  	95.000000	0.870239  	95.000000	0.882726  	95.000000	0.000324366	
100.000000	0.860097  	100.000000	0.850461  	100.000000	0.841162  	100.000000	0.838075  	100.000000	0.850152  	100.000000	0.000309585	
105.000000	0.829564  	105.000000	0.820803  	105.000000	0.812053  	105.000000	0.808785  	105.000000	0.820507  	105.000000	0.000296145	
110.000000	0.801601  	110.000000	0.793693  	110.000000	0.785514  	110.000000	0.781995  	110.000000	0.79341   	110.000000	0.000283869	
115.000000	0.77589   	115.000000	0.768816  	115.000000	0.761093  	115.000000	0.757398  	115.000000	0.768543  	115.000000	0.00027261	
120.000000	0.752162  	120.000000	0.745903  	120.000000	0.738536  	120.000000	0.734731  	120.000000	0.74564   	120.000000	0.000262246	
125.000000	0.730191  	125.000000	0.724729  	125.000000	0.717692  	125.000000	0.713776  	125.000000	0.724476  	125.000000	0.000252671	
130.000000	0.709785  	130.000000	0.705103  	130.000000	0.698355  	130.000000	0.694343  	130.000000	0.704859  	130.000000	0.000243798	
135.000000	0.690778  	135.000000	0.686859  	135.000000	0.680371  	135.000000	0.676272  	135.000000	0.686623  	135.000000	0.000235552	
140.000000	0.673028  	140.000000	0.669855  	140.000000	0.663597  	140.000000	0.659424  	140.000000	0.669628  	140.000000	0.000227868	
145.000000	0.65641   	145.000000	0.65397   	145.000000	0.647924  	145.000000	0.643678  	145.000000	0.653749  	145.000000	0.000220688	
150.000000	0.640817  	150.000000	0.639094  	150.000000	0.633242  	150.000000	0.628929  	150.000000	0.63888   	150.000000	0.000213965	
155.000000	0.618844  	155.000000	0.625134  	155.000000	0.619408  	155.000000	0.615085  	155.000000	0.624927  	155.000000	0.000207656	
160.000000	0.605972  	160.000000	0.612009  	160.000000	0.60639   	160.000000	0.602066  	160.000000	0.611807  	160.000000	0.000201723	
165.000000	0.593832  	165.000000	0.599645  	165.000000	0.594171  	165.000000	0.589799  	165.000000	0.599448  	165.000000	0.000196133	
170.000000	0.582363  	170.000000	0.587976  	170.000000	0.582648  	170.000000	0.578222  	170.000000	0.587786  	170.000000	0.000190856	
175.000000	0.571509  	175.000000	0.576948  	175.000000	0.571736  	175.000000	0.567277  	175.000000	0.576762  	175.000000	0.000185868	
180.000000	0.561221  	180.000000	0.566506  	180.000000	0.561373  	180.000000	0.556915  	180.000000	0.566325  	180.000000	0.000181143	
185.000000	0.551457  	185.000000	0.556607  	185.000000	0.55153   	185.000000	0.54709   	185.000000	0.556431  	185.000000	0.000176662	
190.000000	0.542176  	190.000000	0.547209  	190.000000	0.542186  	190.000000	0.537761  	190.000000	0.547036  	190.000000	0.000172407	
195.000000	0.533343  	195.000000	0.538274  	195.000000	0.533331  	195.000000	0.528893  	195.000000	0.538106  	195.000000	0.000168359	
200.000000	0.524926  	200.000000	0.52977   	200.000000	0.524921  	200.000000	0.520452  	200.000000	0.529605  	200.000000	0.000164505	
210.000000	0.509226  	210.000000	0.513933  	210.000000	0.509198  	210.000000	0.504734  	210.000000	0.513776  	210.000000	0.000157323	
220.000000	0.494876  	220.000000	0.499488  	220.000000	0.49483   	220.000000	0.490399  	220.000000	0.499337  	220.000000	0.000150764	
230.000000	0.481706  	230.000000	0.486259  	230.000000	0.481736  	230.000000	0.477274  	230.000000	0.486115  	230.000000	0.000144751	
240.000000	0.469577  	240.000000	0.4741    	240.000000	0.46967   	240.000000	0.465214  	240.000000	0.473961  	240.000000	0.000139217	
250.000000	0.458368  	250.000000	0.462887  	250.000000	0.458522  	250.000000	0.454095  	250.000000	0.462753  	250.000000	0.000134106	
260.000000	0.447979  	260.000000	0.452514  	260.000000	0.448219  	260.000000	0.443813  	260.000000	0.452384  	260.000000	0.00012937	
270.000000	0.438323  	270.000000	0.44289   	270.000000	0.438662  	270.000000	0.43428   	270.000000	0.442765  	270.000000	0.000124971	
280.000000	0.429325  	280.000000	0.433939  	280.000000	0.429777  	280.000000	0.425416  	280.000000	0.433819  	280.000000	0.000120871	
290.000000	0.420919  	290.000000	0.425594  	290.000000	0.421496  	290.000000	0.417156  	290.000000	0.425477  	290.000000	0.000117043	
300.000000	0.413051  	300.000000	0.417794  	300.000000	0.41376   	300.000000	0.409442  	300.000000	0.417681  	300.000000	0.000113458	
310.000000	0.405669  	310.000000	0.41049   	310.000000	0.40652   	310.000000	0.402222  	310.000000	0.41038   	310.000000	0.000110094	
320.000000	0.39873   	320.000000	0.403637  	320.000000	0.399729  	320.000000	0.395451  	320.000000	0.40353   	320.000000	0.000106932	
330.000000	0.392197  	330.000000	0.397194  	330.000000	0.39335   	330.000000	0.389091  	330.000000	0.397091  	330.000000	0.000103953	
340.000000	0.386035  	340.000000	0.391128  	340.000000	0.387346  	340.000000	0.383105  	340.000000	0.391026  	340.000000	0.000101141	
350.000000	0.380213  	350.000000	0.385405  	350.000000	0.381686  	350.000000	0.377463  	350.000000	0.385307  	350.000000	9.84838e-05	
360.000000	0.374705  	360.000000	0.38      	360.000000	0.376343  	360.000000	0.372138  	360.000000	0.379904  	360.000000	9.59675e-05	
370.000000	0.369487  	370.000000	0.374886  	370.000000	0.371292  	370.000000	0.367103  	370.000000	0.374792  	370.000000	9.35813e-05	
380.000000	0.364537  	380.000000	0.370042  	380.000000	0.36651   	380.000000	0.362338  	380.000000	0.369951  	380.000000	9.13153e-05	
390.000000	0.359834  	390.000000	0.365447  	390.000000	0.361977  	390.000000	0.357821  	390.000000	0.365358  	390.000000	8.91605e-05	
400.000000	0.355362  	400.000000	0.361084  	400.000000	0.357676  	400.000000	0.353535  	400.000000	0.360997  	400.000000	8.71089e-05	
410.000000	0.351105  	410.000000	0.356935  	410.000000	0.353589  	410.000000	0.349464  	410.000000	0.35685   	410.000000	8.51531e-05	
420.000000	0.347047  	420.000000	0.352987  	420.000000	0.349701  	420.000000	0.345591  	420.000000	0.352904  	420.000000	8.32864e-05	
430.000000	0.343176  	430.000000	0.349225  	430.000000	0.346001  	430.000000	0.341904  	430.000000	0.349144  	430.000000	8.15029e-05	
440.000000	0.339479  	440.000000	0.345637  	440.000000	0.342478  	440.000000	0.338391  	440.000000	0.345558  	440.000000	7.97969e-05	
450.000000	0.335946  	450.000000	0.342213  	450.000000	0.339113  	450.000000	0.33504   	450.000000	0.342135  	450.000000	7.81636e-05	
460.000000	0.332566  	460.000000	0.33894   	460.000000	0.335887  	460.000000	0.33184   	460.000000	0.338864  	460.000000	7.65983e-05	
470.000000	0.329331  	470.000000	0.335811  	470.000000	0.332798  	470.000000	0.328783  	470.000000	0.335736  	470.000000	7.50968e-05	
480.000000	0.32623   	480.000000	0.332817  	480.000000	0.32985   	480.000000	0.325859  	480.000000	0.332743  	480.000000	7.36552e-05	
490.000000	0.323258  	490.000000	0.329949  	490.000000	0.32704   	490.000000	0.323061  	490.000000	0.329876  	490.000000	7.227e-05 	
500.000000	0.320405  	500.000000	0.3272    	500.000000	0.324352  	500.000000	0.320381  	500.000000	0.327129  	500.000000	7.09378e-05	
520.000000	0.315035  	520.000000	0.322032  	520.000000	0.319298  	520.000000	0.315349  	520.000000	0.321964  	520.000000	6.84208e-05	
540.000000	0.310072  	540.000000	0.317266  	540.000000	0.314646  	540.000000	0.310714  	540.000000	0.3172    	540.000000	6.60826e-05	
560.000000	0.305474  	560.000000	0.312859  	560.000000	0.310341  	560.000000	0.306434  	560.000000	0.312795  	560.000000	6.39045e-05	
580.000000	0.301206  	580.000000	0.308776  	580.000000	0.306337  	580.000000	0.302473  	580.000000	0.308714  	580.000000	6.18704e-05	
600.000000	0.297236  	600.000000	0.304984  	600.000000	0.302635  	600.000000	0.298799  	600.000000	0.304924  	600.000000	5.99664e-05	
620.000000	0.293537  	620.000000	0.301456  	620.000000	0.299208  	620.000000	0.295384  	620.000000	0.301398  	620.000000	5.81802e-05	
640.000000	0.290085  	640.000000	0.298169  	640.000000	0.296014  	640.000000	0.292205  	640.000000	0.298113  	640.000000	5.65011e-05	
660.000000	0.286858  	660.000000	0.295101  	660.000000	0.293035  	660.000000	0.28924   	660.000000	0.295046  	660.000000	5.49196e-05	
680.000000	0.283838  	680.000000	0.292233  	680.000000	0.290254  	680.000000	0.286471  	680.000000	0.292179  	680.000000	5.34274e-05	
700.000000	0.281008  	700.000000	0.289548  	700.000000	0.287644  	700.000000	0.283879  	700.000000	0.289496  	700.000000	5.20169e-05	
720.000000	0.278353  	720.000000	0.287032  	720.000000	0.285187  	720.000000	0.281452  	720.000000	0.286981  	720.000000	5.06817e-05	
740.000000	0.27586   	740.000000	0.284671  	740.000000	0.282884  	740.000000	0.279174  	740.000000	0.284621  	740.000000	4.94157e-05	
760.000000	0.273515  	760.000000	0.282453  	760.000000	0.28073   	760.000000	0.277035  	760.000000	0.282405  	760.000000	4.82136e-05	
780.000000	0.27131   	780.000000	0.280367  	780.000000	0.278711  	780.000000	0.275023  	780.000000	0.28032   	780.000000	4.70707e-05	
800.000000	0.269233  	800.000000	0.278405  	800.000000	0.27681   	800.000000	0.273129  	800.000000	0.278359  	800.000000	4.59826e-05	
820.000000	0.267276  	820.000000	0.276557  	820.000000	0.275025  	820.000000	0.271353  	820.000000	0.276512  	820.000000	4.49454e-05	
840.000000	0.265431  	840.000000	0.274814  	840.000000	0.273377  	840.000000	0.269719  	840.000000	0.27477   	840.000000	4.39557e-05	
860.000000	0.26369   	860.000000	0.273171  	860.000000	0.271815  	860.000000	0.268177  	860.000000	0.273128  	860.000000	4.30102e-05	
880.000000	0.262047  	880.000000	0.27162   	880.000000	0.270337  	880.000000	0.26672   	880.000000	0.271578  	880.000000	4.21059e-05	
900.000000	0.260495  	900.000000	0.270155  	900.000000	0.268944  	900.000000	0.265342  	900.000000	0.270114  	900.000000	4.12402e-05	
920.000000	0.259029  	920.000000	0.268771  	920.000000	0.267631  	920.000000	0.264039  	920.000000	0.268731  	920.000000	4.04106e-05	
940.000000	0.257644  	940.000000	0.267463  	940.000000	0.26639   	940.000000	0.262805  	940.000000	0.267423  	940.000000	3.96149e-05	
960.000000	0.256335  	960.000000	0.266226  	960.000000	0.265217  	960.000000	0.261636  	960.000000	0.266187  	960.000000	3.88511e-05	
980.000000	0.255098  	980.000000	0.265056  	980.000000	0.264104  	980.000000	0.260527  	980.000000	0.265017  	980.000000	3.81171e-05	
1000.000000	0.253928  	1000.000000	0.263948  	1000.000000	0.263047  	1000.000000	0.259476  	1000.000000	0.263911  	1000.000000	3.74114e-05	
1020.000000	0.252822  	1020.000000	0.2629    	1020.000000	0.262042  	1020.000000	0.258478  	1020.000000	0.262864  	1020.000000	3.67323e-05	
1040.000000	0.251777  	1040.000000	0.261908  	1040.000000	0.261083  	1040.000000	0.257531  	1040.000000	0.261872  	1040.000000	3.60782e-05	
1060.000000	0.250788  	1060.000000	0.260969  	1060.000000	0.260169  	1060.000000	0.256632  	1060.000000	0.260934  	1060.000000	3.54478e-05	
1080.000000	0.249854  	1080.000000	0.26008   	1080.000000	0.2593    	1080.000000	0.255777  	1080.000000	0.260045  	1080.000000	3.48399e-05	
1100.000000	0.248971  	1100.000000	0.259238  	1100.000000	0.258475  	1100.000000	0.254964  	1100.000000	0.259204  	1100.000000	3.42532e-05	
1120.000000	0.248137  	1120.000000	0.258441  	1120.000000	0.257694  	1120.000000	0.254191  	1120.000000	0.258407  	1120.000000	3.36866e-05	
1140.000000	0.24735   	1140.000000	0.257687  	1140.000000	0.256953  	1140.000000	0.253455  	1140.000000	0.257654  	1140.000000	3.31391e-05	
1160.000000	0.246607  	1160.000000	0.256973  	1160.000000	0.256249  	1160.000000	0.252755  	1160.000000	0.25694   	1160.000000	3.26098e-05	
1180.000000	0.245905  	1180.000000	0.256297  	1180.000000	0.255579  	1180.000000	0.252089  	1180.000000	0.256265  	1180.000000	3.20977e-05	
1200.000000	0.245244  	1200.000000	0.255658  	1200.000000	0.254939  	1200.000000	0.251454  	1200.000000	0.255626  	1200.000000	3.1602e-05	
1220.000000	0.244621  	1220.000000	0.255053  	1220.000000	0.254328  	1220.000000	0.25085   	1220.000000	0.255022  	1220.000000	3.11219e-05	
1240.000000	0.244035  	1240.000000	0.254482  	1240.000000	0.253743  	1240.000000	0.250275  	1240.000000	0.254451  	1240.000000	3.06567e-05	
1260.000000	0.243484  	1260.000000	0.253942  	1260.000000	0.253184  	1260.000000	0.249726  	1260.000000	0.253912  	1260.000000	3.02056e-05	
1280.000000	0.242966  	1280.000000	0.253432  	1280.000000	0.252652  	1280.000000	0.249204  	1280.000000	0.253402  	1280.000000	2.97681e-05	
1300.000000	0.24248   	1300.000000	0.252951  	1300.000000	0.252145  	1300.000000	0.248705  	1300.000000	0.252921  	1300.000000	2.93436e-05	
1320.000000	0.242024  	1320.000000	0.252497  	1320.000000	0.251663  	1320.000000	0.248231  	1320.000000	0.252468  	1320.000000	2.89314e-05	
1340.000000	0.241598  	1340.000000	0.25207   	1340.000000	0.251204  	1340.000000	0.247778  	1340.000000	0.252041  	1340.000000	2.85311e-05	
1360.000000	0.2412    	1360.000000	0.251667  	1360.000000	0.250769  	1360.000000	0.247347  	1360.000000	0.251639  	1360.000000	2.8142e-05	
1380.000000	0.240829  	1380.000000	0.251289  	1380.000000	0.250354  	1380.000000	0.246935  	1380.000000	0.251261  	1380.000000	2.77638e-05	
1400.000000	0.240484  	1400.000000	0.250933  	1400.000000	0.249959  	1400.000000	0.246543  	1400.000000	0.250906  	1400.000000	2.7396e-05	
1420.000000	0.240164  	1420.000000	0.2506    	1420.000000	0.249583  	1420.000000	0.246169  	1420.000000	0.250573  	1420.000000	2.70381e-05	
1440.000000	0.239867  	1440.000000	0.250288  	1440.000000	0.249225  	1440.000000	0.245813  	1440.000000	0.250261  	1440.000000	2.66898e-05	
1460.000000	0.239594  	1460.000000	0.249996  	1460.000000	0.248884  	1460.000000	0.245473  	1460.000000	0.249969  	1460.000000	2.63507e-05	
1480.000000	0.239343  	1480.000000	0.249723  	1480.000000	0.248558  	1480.000000	0.24515   	1480.000000	0.249697  	1480.000000	2.60203e-05	
1500.000000	0.239114  	1500.000000	0.249469  	1500.000000	0.248247  	1500.000000	0.244841  	1500.000000	0.249444  	1500.000000	2.56985e-05	
1520.000000	0.238904  	1520.000000	0.249233  	1520.000000	0.247951  	1520.000000	0.244547  	1520.000000	0.249208  	1520.000000	2.53848e-05	
1540.000000	0.238715  	1540.000000	0.249015  	1540.000000	0.247668  	1540.000000	0.244267  	1540.000000	0.24899   	1540.000000	2.50789e-05	
1560.000000	0.238545  	1560.000000	0.248813  	1560.000000	0.247398  	1560.000000	0.244     	1560.000000	0.248788  	1560.000000	2.47805e-05	
1580.000000	0.238393  	1580.000000	0.248627  	1580.000000	0.247141  	1580.000000	0.243746  	1580.000000	0.248602  	1580.000000	2.44894e-05	
1600.000000	0.23826   	1600.000000	0.248456  	1600.000000	0.246895  	1600.000000	0.243504  	1600.000000	0.248432  	1600.000000	2.42054e-05	
1620.000000	0.238143  	1620.000000	0.248301  	1620.000000	0.24666   	1620.000000	0.243274  	1620.000000	0.248277  	1620.000000	2.3928e-05	
1640.000000	0.238043  	1640.000000	0.248159  	1640.000000	0.246435  	1640.000000	0.243055  	1640.000000	0.248136  	1640.000000	2.36572e-05	
1660.000000	0.237959  	1660.000000	0.248032  	1660.000000	0.246222  	1660.000000	0.242847  	1660.000000	0.248008  	1660.000000	2.33926e-05	
1680.000000	0.237891  	1680.000000	0.247917  	1680.000000	0.246018  	1680.000000	0.242649  	1680.000000	0.247894  	1680.000000	2.31341e-05	
1700.000000	0.237838  	1700.000000	0.247816  	1700.000000	0.245825  	1700.000000	0.242461  	1700.000000	0.247793  	1700.000000	2.28815e-05	
1750.000000	0.237768  	1750.000000	0.247616  	1750.000000	0.245384  	1750.000000	0.242032  	1750.000000	0.247593  	1750.000000	2.22741e-05	
1800.000000	0.237782  	1800.000000	0.247486  	1800.000000	0.244999  	1800.000000	0.241657  	1800.000000	0.247465  	1800.000000	2.16993e-05	
1850.000000	0.237875  	1850.000000	0.247423  	1850.000000	0.244666  	1850.000000	0.241329  	1850.000000	0.247402  	1850.000000	2.11543e-05	
1900.000000	0.23804   	1900.000000	0.247419  	1900.000000	0.24438   	1900.000000	0.241046  	1900.000000	0.247399  	1900.000000	2.06369e-05	
1950.000000	0.238272  	1950.000000	0.247471  	1950.000000	0.244134  	1950.000000	0.240803  	1950.000000	0.247451  	1950.000000	2.01451e-05	
2000.000000	0.238568  	2000.000000	0.247575  	2000.000000	0.243924  	2000.000000	0.240597  	2000.000000	0.247556  	2000.000000	1.9677e-05	
2100.000000	0.239332  	2100.000000	0.247923  	2100.000000	0.243596  	2100.000000	0.24028   	2100.000000	0.247904  	2100.000000	1.88051e-05	
2200.000000	0.240303  	2200.000000	0.248436  	2200.000000	0.243375  	2200.000000	0.240075  	2200.000000	0.248418  	2200.000000	1.80096e-05	
2300.000000	0.241457  	2300.000000	0.249092  	2300.000000	0.243249  	2300.000000	0.239962  	2300.000000	0.249075  	2300.000000	1.72807e-05	
2400.000000	0.242775  	2400.000000	0.249875  	2400.000000	0.243204  	2400.000000	0.239928  	2400.000000	0.249858  	2400.000000	1.66104e-05	
2500.000000	0.244239  	2500.000000	0.250768  	2500.000000	0.243229  	2500.000000	0.239959  	2500.000000	0.250752  	2500.000000	1.59917e-05	
2600.000000	0.245835  	2600.000000	0.251759  	2600.000000	0.243312  	2600.000000	0.240046  	2600.000000	0.251743  	2600.000000	1.54189e-05	
2700.000000	0.24755   	2700.000000	0.252836  	2700.000000	0.243444  	2700.000000	0.24018   	2700.000000	0.252821  	2700.000000	1.4887e-05	
2800.000000	0.249375  	2800.000000	0.253991  	2800.000000	0.243615  	2800.000000	0.240354  	2800.000000	0.253977  	2800.000000	1.43917e-05	
2900.000000	0.251299  	2900.000000	0.255215  	2900.000000	0.243819  	2900.000000	0.240563  	2900.000000	0.255201  	2900.000000	1.39294e-05	
3000.000000	0.253315  	3000.000000	0.256502  	3000.000000	0.244051  	3000.000000	0.2408    	3000.000000	0.256488  	3000.000000	1.34967e-05	
3200.000000	0.257593  	3200.000000	0.259237  	3200.000000	0.244584  	3200.000000	0.241345  	3200.000000	0.259225  	3200.000000	1.27097e-05	
3400.000000	0.262164  	3400.000000	0.262157  	3400.000000	0.245189  	3400.000000	0.241961  	3400.000000	0.262145  	3400.000000	1.20121e-05	
3600.000000	0.266989  	3600.000000	0.265229  	3600.000000	0.245847  	3600.000000	0.242628  	3600.000000	0.265218  	3600.000000	1.13892e-05	
3800.000000	0.272041  	3800.000000	0.268429  	3800.000000	0.246541  	3800.000000	0.24333   	3800.000000	0.268418  	3800.000000	1.08297e-05	
4000.000000	0.277294  	4000.000000	0.271736  	4000.000000	0.247262  	4000.000000	0.244056  	4000.000000	0.271726  	4000.000000	1.03241e-05	
4200.000000	0.28273   	4200.000000	0.275135  	4200.000000	0.247998  	4200.000000	0.244797  	4200.000000	0.275125  	4200.000000	9.86504e-06	
4400.000000	0.288333  	4400.000000	0.278611  	4400.000000	0.248743  	4400.000000	0.245547  	4400.000000	0.278602  	4400.000000	9.44626e-06	
4600.000000	0.294089  	4600.000000	0.282155  	4600.000000	0.249493  	4600.000000	0.246301  	4600.000000	0.282146  	4600.000000	9.06263e-06	
4800.000000	0.299987  	4800.000000	0.285757  	4800.000000	0.250242  	4800.000000	0.247054  	4800.000000	0.285748  	4800.000000	8.70987e-06	
5000.000000	0.306019  	5000.000000	0.289409  	5000.000000	0.250987  	5000.000000	0.247803  	5000.000000	0.2894    	5000.000000	8.38436e-06	
5250.000000	0.313734  	5250.000000	0.294035  	5250.000000	0.251911  	5250.000000	0.248732  	5250.000000	0.294027  	5250.000000	8.01115e-06	
5500.000000	0.32163   	5500.000000	0.298719  	5500.000000	0.252823  	5500.000000	0.249649  	5500.000000	0.298712  	5500.000000	7.67071e-06	
6000.000000	0.337929  	6000.000000	0.30823   	6000.000000	0.254603  	6000.000000	0.251438  	6000.000000	0.308223  	6000.000000	7.07212e-06	
6500.000000	0.354846  	6500.000000	0.317887  	6500.000000	0.256316  	6500.000000	0.253159  	6500.000000	0.317881  	6500.000000	6.56262e-06	
7000.000000	0.372334  	7000.000000	0.327654  	7000.000000	0.257961  	7000.000000	0.254809  	7000.000000	0.327648  	7000.000000	6.12353e-06	
7500.000000	0.390355  	7500.000000	0.337503  	7500.000000	0.259535  	7500.000000	0.256389  	7500.000000	0.337498  	7500.000000	5.74108e-06	
8000.000000	0.408883  	8000.000000	0.347415  	8000.000000	0.261039  	8000.000000	0.257899  	8000.000000	0.347409  	8000.000000	5.40487e-06	
8500.000000	0.427896  	8500.000000	0.357373  	8500.000000	0.26248   	8500.000000	0.259343  	8500.000000	0.357368  	8500.000000	5.10692e-06	
9000.000000	0.447378  	9000.000000	0.367368  	9000.000000	0.263859  	9000.000000	0.260723  	9000.000000	0.367363  	9000.000000	4.841e-06 	
9500.000000	0.467316  	9500.000000	0.377389  	9500.000000	0.265176  	9500.000000	0.262045  	9500.000000	0.377384  	9500.000000	4.60216e-06	
10000.000000	0.487699  	10000.000000	0.387429  	10000.000000	0.266434  	10000.000000	0.263311  	10000.000000	0.387425  	10000.000000	4.38643e-06	
11000.000000	0.529772  	11000.000000	0.40755   	11000.000000	0.268795  	11000.000000	0.265691  	11000.000000	0.407546  	11000.000000	4.01195e-06	
12000.000000	0.573546  	12000.000000	0.427696  	12000.000000	0.270982  	12000.000000	0.267888  	12000.000000	0.427693  	12000.000000	3.69794e-06	
13000.000000	0.61899   	13000.000000	0.447849  	13000.000000	0.273008  	13000.000000	0.269924  	13000.000000	0.447845  	13000.000000	3.43074e-06	
14000.000000	0.666081  	14000.000000	0.467994  	14000.000000	0.27489   	14000.000000	0.27182   	14000.000000	0.46799   	14000.000000	3.20052e-06	
15000.000000	0.714805  	15000.000000	0.488122  	15000.000000	0.276644  	15000.000000	0.273591  	15000.000000	0.488119  	15000.000000	3.00004e-06	
16000.000000	0.765152  	16000.000000	0.508227  	16000.000000	0.278284  	16000.000000	0.27525   	16000.000000	0.508224  	16000.000000	2.82384e-06	
17000.000000	0.817117  	17000.000000	0.528305  	17000.000000	0.279825  	17000.000000	0.276811  	17000.000000	0.528302  	17000.000000	2.66773e-06	
18000.000000	0.870697  	18000.000000	0.548353  	18000.000000	0.281276  	18000.000000	0.278284  	18000.000000	0.548351  	18000.000000	2.52842e-06	
19000.000000	0.925891  	19000.000000	0.56837   	19000.000000	0.282648  	19000.000000	0.279676  	19000.000000	0.568368  	19000.000000	2.40332e-06	
20000.000000	0.9827    	20000.000000	0.588355  	20000.000000	0.283948  	20000.000000	0.280996  	20000.000000	0.588352  	20000.000000	2.29034e-06	
21000.000000	1.04113   	21000.000000	0.608307  	21000.000000	0.285182  	21000.000000	0.282251  	21000.000000	0.608304  	21000.000000	2.18779e-06	
22000.000000	1.10117   	22000.000000	0.628225  	22000.000000	0.286357  	22000.000000	0.283446  	22000.000000	0.628223  	22000.000000	2.09427e-06	
23000.000000	1.16285   	23000.000000	0.648111  	23000.000000	0.287485  	23000.000000	0.284586  	23000.000000	0.648109  	23000.000000	2.00863e-06	
24000.000000	1.22615   	24000.000000	0.667964  	24000.000000	0.288557  	24000.000000	0.285676  	24000.000000	0.667962  	24000.000000	1.92991e-06	
25000.000000	1.29109   	25000.000000	0.687785  	25000.000000	0.289565  	25000.000000	0.286719  	25000.000000	0.687783  	25000.000000	1.85729e-06	
26000.000000	1.35767   	26000.000000	0.707574  	26000.000000	0.290534  	26000.000000	0.28772   	26000.000000	0.707572  	26000.000000	1.79008e-06	
27000.000000	1.42589   	27000.000000	0.727332  	27000.000000	0.291478  	27000.000000	0.288682  	27000.000000	0.72733   	27000.000000	1.7277e-06	
28000.000000	1.49578   	28000.000000	0.747059  	28000.000000	0.292385  	28000.000000	0.289606  	28000.000000	0.747057  	28000.000000	1.66963e-06	
29000.000000	1.56732   	29000.000000	0.766756  	29000.000000	0.293251  	29000.000000	0.290497  	29000.000000	0.766755  	29000.000000	1.61545e-06	
30000.000000	1.64053   	30000.000000	0.786424  	30000.000000	0.294078  	30000.000000	0.291356  	30000.000000	0.786422  	30000.000000	1.56477e-06	
32000.000000	1.792     	32000.000000	0.825674  	32000.000000	0.295641  	32000.000000	0.292986  	32000.000000	0.825672  	32000.000000	1.47262e-06	
34000.000000	1.95023   	34000.000000	0.864813  	34000.000000	0.297106  	34000.000000	0.294512  	34000.000000	0.864812  	34000.000000	1.391e-06 	
36000.000000	2.11531   	36000.000000	0.903847  	36000.000000	0.298476  	36000.000000	0.295945  	36000.000000	0.903846  	36000.000000	1.31817e-06	
38000.000000	2.28728   	38000.000000	0.942781  	38000.000000	0.299757  	38000.000000	0.297296  	38000.000000	0.94278   	38000.000000	1.25278e-06	
40000.000000	2.46624   	40000.000000	0.981618  	40000.000000	0.30096   	40000.000000	0.298573  	40000.000000	0.981617  	40000.000000	1.19373e-06	
42000.000000	2.65224   	42000.000000	1.02036   	42000.000000	0.302094  	42000.000000	0.299784  	42000.000000	1.02036   	42000.000000	1.14014e-06	
44000.000000	2.84536   	44000.000000	1.05902   	44000.000000	0.303169  	44000.000000	0.300934  	44000.000000	1.05902   	44000.000000	1.09128e-06	
46000.000000	3.04568   	46000.000000	1.09759   	46000.000000	0.304192  	46000.000000	0.30203   	46000.000000	1.09759   	46000.000000	1.04654e-06	
48000.000000	3.25327   	48000.000000	1.13608   	48000.000000	0.305166  	48000.000000	0.303076  	48000.000000	1.13608   	48000.000000	1.00542e-06	
50000.000000	3.4682    	50000.000000	1.17449   	50000.000000	0.30609   	50000.000000	0.304077  	50000.000000	1.17449   	50000.000000	9.67494e-07	
