Energy (MeV/u)1	0 - [He-base] F.Hubert et al, AD&ND Tables 46(1990)1	Energy (MeV/u)2	1 - [H -base] J.F.Ziegler et al, Pergamon Press, NY (low energy)	Energy (MeV/u)3	2 - ATIMA 1.2  LS-theory (recommended for high energy)	Energy (MeV/u)4	3 - ATIMA 1.2  without LS-correction	Energy (MeV/u)5	4 - electrical component of [1] - J.F.Ziegler et al	Energy (MeV/u)6	5 - nuclear component of [1] - J.F.Ziegler et al	
0.001000	0.0487696 	0.001000	0.0487696 	0.001000	0.044701  	0.001000	0.044701  	0.001000	0.0396345 	0.001000	0.00913505	
0.002000	0.077672  	0.002000	0.077672  	0.002000	0.0706313 	0.002000	0.0706313 	0.002000	0.068588  	0.002000	0.00908405	
0.005000	0.142228  	0.005000	0.142228  	0.005000	0.128436  	0.005000	0.128436  	0.005000	0.134359  	0.005000	0.00786937	
0.008000	0.19088   	0.008000	0.19088   	0.008000	0.171988  	0.008000	0.171988  	0.008000	0.18403   	0.008000	0.00684912	
0.010000	0.218304  	0.010000	0.218304  	0.010000	0.196542  	0.010000	0.196542  	0.010000	0.211989  	0.010000	0.00631532	
0.015000	0.278645  	0.015000	0.278645  	0.015000	0.248504  	0.015000	0.248504  	0.015000	0.273322  	0.015000	0.00532258	
0.020000	0.323082  	0.020000	0.323082  	0.020000	0.292169  	0.020000	0.292169  	0.020000	0.318447  	0.020000	0.0046344 	
0.025000	0.363315  	0.025000	0.363315  	0.025000	0.330899  	0.025000	0.330899  	0.025000	0.359189  	0.025000	0.00412552	
0.030000	0.400392  	0.030000	0.400392  	0.030000	0.397566  	0.030000	0.397566  	0.030000	0.396661  	0.030000	0.0037315 	
0.035000	0.433917  	0.035000	0.433917  	0.035000	0.441478  	0.035000	0.441478  	0.035000	0.430501  	0.035000	0.00341587	
0.040000	0.463842  	0.040000	0.463842  	0.040000	0.472024  	0.040000	0.472024  	0.040000	0.460685  	0.040000	0.0031564 	
0.045000	0.490398  	0.045000	0.490398  	0.045000	0.4961    	0.045000	0.4961    	0.045000	0.48746   	0.045000	0.00293868	
0.050000	0.513921  	0.050000	0.513921  	0.050000	0.516782  	0.050000	0.516782  	0.050000	0.511168  	0.050000	0.00275296	
0.055000	0.534753  	0.055000	0.534753  	0.055000	0.535245  	0.055000	0.535245  	0.055000	0.53216   	0.055000	0.00259234	
0.060000	0.55321   	0.060000	0.55321   	0.060000	0.551941  	0.060000	0.551941  	0.060000	0.550759  	0.060000	0.00245185	
0.070000	0.584072  	0.070000	0.584072  	0.070000	0.580758  	0.070000	0.580758  	0.070000	0.581855  	0.070000	0.00221719	
0.080000	0.608278  	0.080000	0.608278  	0.080000	0.604189  	0.080000	0.604189  	0.080000	0.606249  	0.080000	0.00202841	
0.090000	0.627129  	0.090000	0.627129  	0.090000	0.622949  	0.090000	0.622949  	0.090000	0.625256  	0.090000	0.00187276	
0.100000	0.641603  	0.100000	0.641603  	0.100000	0.637691  	0.100000	0.637691  	0.100000	0.639861  	0.100000	0.0017419 	
0.120000	0.660306  	0.120000	0.660306  	0.120000	0.657388  	0.120000	0.657388  	0.120000	0.658773  	0.120000	0.00153338	
0.140000	0.668878  	0.140000	0.668878  	0.140000	0.667119  	0.140000	0.667119  	0.140000	0.667517  	0.140000	0.00136136	
0.160000	0.67045   	0.160000	0.67045   	0.160000	0.669803  	0.160000	0.669803  	0.160000	0.669213  	0.160000	0.00123637	
0.180000	0.667214  	0.180000	0.667214  	0.180000	0.667567  	0.180000	0.667567  	0.180000	0.666079  	0.180000	0.00113442	
0.200000	0.660746  	0.200000	0.660746  	0.200000	0.661973  	0.200000	0.661973  	0.200000	0.659697  	0.200000	0.0010495 	
0.250000	0.636984  	0.250000	0.636984  	0.250000	0.639876  	0.250000	0.639876  	0.250000	0.636096  	0.250000	0.000887924	
0.300000	0.609238  	0.300000	0.609238  	0.300000	0.613207  	0.300000	0.613207  	0.300000	0.608465  	0.300000	0.000772838	
0.350000	0.581522  	0.350000	0.581522  	0.350000	0.586158  	0.350000	0.586158  	0.350000	0.580836  	0.350000	0.000686277	
0.400000	0.555319  	0.400000	0.555319  	0.400000	0.560342  	0.400000	0.560342  	0.400000	0.5547    	0.400000	0.000618565	
0.450000	0.531087  	0.450000	0.531087  	0.450000	0.536308  	0.450000	0.536308  	0.450000	0.530523  	0.450000	0.000564006	
0.500000	0.508877  	0.500000	0.508877  	0.500000	0.51417   	0.500000	0.51417   	0.500000	0.508358  	0.500000	0.000519014	
0.600000	0.47003   	0.600000	0.47003   	0.600000	0.47524   	0.600000	0.47524   	0.600000	0.469581  	0.600000	0.000448962	
0.700000	0.437477  	0.700000	0.437477  	0.700000	0.442447  	0.700000	0.442447  	0.700000	0.437081  	0.700000	0.000396747	
0.800000	0.409928  	0.800000	0.409928  	0.800000	0.414595  	0.800000	0.414595  	0.800000	0.409572  	0.800000	0.00035619	
0.900000	0.386332  	0.900000	0.386332  	0.900000	0.390678  	0.900000	0.390678  	0.900000	0.386008  	0.900000	0.000323698	
1.000000	0.365877  	1.000000	0.365877  	1.000000	0.369906  	1.000000	0.369906  	1.000000	0.36558   	1.000000	0.000297033	
1.250000	0.324773  	1.250000	0.324773  	1.250000	0.328074  	1.250000	0.328074  	1.250000	0.324526  	1.250000	0.000247291	
1.500000	0.293488  	1.500000	0.293488  	1.500000	0.296175  	1.500000	0.296175  	1.500000	0.293275  	1.500000	0.000212656	
1.750000	0.268641  	1.750000	0.268641  	1.750000	0.270817  	1.750000	0.270817  	1.750000	0.268454  	1.750000	0.000187045	
2.000000	0.248295  	2.000000	0.248295  	2.000000	0.250046  	2.000000	0.250046  	2.000000	0.248127  	2.000000	0.000167279	
2.250000	0.231255  	2.250000	0.231255  	2.250000	0.23265   	2.250000	0.23265   	2.250000	0.231104  	2.250000	0.000151527	
2.500000	0.209428  	2.500000	0.216737  	2.500000	0.217831  	2.500000	0.217831  	2.500000	0.216599  	2.500000	0.000138656	
3.000000	0.188498  	3.000000	0.193243  	3.000000	0.193859  	3.000000	0.193859  	3.000000	0.193124  	3.000000	0.000118837	
3.500000	0.171881  	3.500000	0.174993  	3.500000	0.175252  	3.500000	0.175252  	3.500000	0.174888  	3.500000	0.000104244	
4.000000	0.158319  	4.000000	0.160369  	4.000000	0.160355  	4.000000	0.160355  	4.000000	0.160276  	4.000000	9.30211e-05	
4.500000	0.147009  	4.500000	0.148365  	4.500000	0.148135  	4.500000	0.148135  	4.500000	0.14828   	4.500000	8.41024e-05	
5.000000	0.137411  	5.000000	0.138314  	5.000000	0.137913  	5.000000	0.137913  	5.000000	0.138237  	5.000000	7.6833e-05	
5.500000	0.129149  	5.500000	0.129762  	5.500000	0.129222  	5.500000	0.129222  	5.500000	0.129692  	5.500000	7.07863e-05	
6.000000	0.121952  	6.000000	0.122385  	6.000000	0.121731  	6.000000	0.121731  	6.000000	0.12232   	6.000000	6.56726e-05	
6.500000	0.115619  	6.500000	0.115947  	6.500000	0.115199  	6.500000	0.115199  	6.500000	0.115886  	6.500000	6.12875e-05	
7.000000	0.109996  	7.000000	0.110272  	7.000000	0.109444  	7.000000	0.109444  	7.000000	0.110215  	7.000000	5.7483e-05	
7.500000	0.104967  	7.500000	0.105225  	7.500000	0.10433   	7.500000	0.10433   	7.500000	0.105171  	7.500000	5.41488e-05	
8.000000	0.100438  	8.000000	0.100703  	8.000000	0.099751  	8.000000	0.099751  	8.000000	0.100652  	8.000000	5.12013e-05	
8.500000	0.0963363 	8.500000	0.096623  	8.500000	0.0956228 	8.500000	0.0956228 	8.500000	0.0965745 	8.500000	4.85755e-05	
9.000000	0.0926011 	9.000000	0.0929206 	9.000000	0.0918788 	9.000000	0.0918788 	9.000000	0.0928744 	9.000000	4.62207e-05	
9.500000	0.0891838 	9.500000	0.0895427 	9.500000	0.088465  	9.500000	0.088465  	9.500000	0.0894986 	9.500000	4.40962e-05	
10.000000	0.0860439 	10.000000	0.0870189 	10.000000	0.0853374 	10.000000	0.0853374 	10.000000	0.0869767 	10.000000	4.21691e-05	
11.000000	0.0804674 	11.000000	0.0820188 	11.000000	0.079997  	11.000000	0.0800045 	11.000000	0.08198   	11.000000	3.88046e-05	
12.000000	0.0756601 	12.000000	0.0775576 	12.000000	0.0753932 	12.000000	0.0754056 	12.000000	0.0775216 	12.000000	3.59634e-05	
13.000000	0.0714682 	13.000000	0.0735645 	13.000000	0.0713777 	13.000000	0.0713915 	13.000000	0.073531  	13.000000	3.35304e-05	
14.000000	0.067777  	14.000000	0.0699762 	14.000000	0.0678385 	14.000000	0.0678517 	14.000000	0.0699448 	14.000000	3.14219e-05	
15.000000	0.0644991 	15.000000	0.0667379 	15.000000	0.0646898 	15.000000	0.0647027 	15.000000	0.0667083 	15.000000	2.95761e-05	
16.000000	0.0615666 	16.000000	0.063803  	16.000000	0.0618678 	16.000000	0.0618804 	16.000000	0.063775  	16.000000	2.7946e-05	
17.000000	0.0589261 	17.000000	0.061132  	17.000000	0.0593231 	17.000000	0.0593341 	17.000000	0.0611055 	17.000000	2.64952e-05	
18.000000	0.0565345 	18.000000	0.0586918 	18.000000	0.057015  	18.000000	0.0570233 	18.000000	0.0586666 	18.000000	2.51951e-05	
19.000000	0.0543572 	19.000000	0.0564541 	19.000000	0.0549094 	19.000000	0.0549155 	19.000000	0.0564301 	19.000000	2.40231e-05	
20.000000	0.0523658 	20.000000	0.054395  	20.000000	0.0529777 	20.000000	0.0529838 	20.000000	0.0543721 	20.000000	2.29608e-05	
21.000000	0.0505366 	21.000000	0.0524942 	21.000000	0.0511971 	21.000000	0.0512037 	21.000000	0.0524722 	21.000000	2.19932e-05	
22.000000	0.0488501 	22.000000	0.0507341 	22.000000	0.0495542 	22.000000	0.0495592 	22.000000	0.050713  	22.000000	2.1108e-05	
23.000000	0.0472896 	23.000000	0.0490997 	23.000000	0.0480358 	23.000000	0.0480373 	23.000000	0.0490795 	23.000000	2.02949e-05	
24.000000	0.0458412 	24.000000	0.0475781 	24.000000	0.0466244 	24.000000	0.0466223 	24.000000	0.0475585 	24.000000	1.95453e-05	
25.000000	0.0444927 	25.000000	0.0461578 	25.000000	0.0453081 	25.000000	0.0453029 	25.000000	0.046139  	25.000000	1.88519e-05	
27.000000	0.0420557 	27.000000	0.0435834 	27.000000	0.0429266 	27.000000	0.0429135 	27.000000	0.0435658 	27.000000	1.76098e-05	
29.000000	0.0399115 	29.000000	0.0413114 	29.000000	0.0408222 	29.000000	0.0408059 	29.000000	0.0412949 	29.000000	1.65287e-05	
31.000000	0.038009  	31.000000	0.0392912 	31.000000	0.0388983 	31.000000	0.0388811 	31.000000	0.0392756 	31.000000	1.55788e-05	
33.000000	0.0363083 	33.000000	0.0374828 	33.000000	0.0371346 	33.000000	0.0371122 	33.000000	0.0374681 	33.000000	1.47372e-05	
35.000000	0.034778  	35.000000	0.0358543 	35.000000	0.0355424 	35.000000	0.0355211 	35.000000	0.0358404 	35.000000	1.39861e-05	
38.000000	0.0327484 	38.000000	0.0336939 	38.000000	0.0334366 	38.000000	0.0334118 	38.000000	0.0336809 	38.000000	1.29991e-05	
41.000000	0.0309812 	41.000000	0.031813  	41.000000	0.0316013 	41.000000	0.031576  	41.000000	0.0318008 	41.000000	1.21483e-05	
44.000000	0.0294272 	44.000000	0.0301602 	44.000000	0.0299846 	44.000000	0.0299622 	44.000000	0.0301488 	44.000000	1.14069e-05	
47.000000	0.0280489 	47.000000	0.028696  	47.000000	0.028557  	47.000000	0.0285316 	47.000000	0.0286852 	47.000000	1.07547e-05	
50.000000	0.0268173 	50.000000	0.0273895 	50.000000	0.0272795 	50.000000	0.0272538 	50.000000	0.0273793 	50.000000	1.01765e-05	
55.000000	0.0250308 	55.000000	0.0254983 	55.000000	0.0254295 	55.000000	0.0254015 	55.000000	0.025489  	55.000000	9.34514e-06	
60.000000	0.0235103 	60.000000	0.0238937 	60.000000	0.0238523 	60.000000	0.0238266 	60.000000	0.023885  	60.000000	8.64489e-06	
65.000000	0.022199  	65.000000	0.0225144 	65.000000	0.0224963 	65.000000	0.0224699 	65.000000	0.0225063 	65.000000	8.04657e-06	
70.000000	0.0210554 	70.000000	0.0213156 	70.000000	0.0213151 	70.000000	0.0212883 	70.000000	0.0213081 	70.000000	7.52913e-06	
75.000000	0.0200484 	75.000000	0.0202638 	75.000000	0.020274  	75.000000	0.0202493 	75.000000	0.0202567 	75.000000	7.07699e-06	
80.000000	0.0191543 	80.000000	0.0193332 	80.000000	0.019355  	80.000000	0.0193282 	80.000000	0.0193265 	80.000000	6.67835e-06	
85.000000	0.0183545 	85.000000	0.0185038 	85.000000	0.0185311 	85.000000	0.0185056 	85.000000	0.0184975 	85.000000	6.32412e-06	
90.000000	0.0176345 	90.000000	0.0177598 	90.000000	0.0177908 	90.000000	0.0177665 	90.000000	0.0177538 	90.000000	6.00716e-06	
95.000000	0.0169826 	95.000000	0.0170885 	95.000000	0.0171244 	95.000000	0.0170984 	95.000000	0.0170828 	95.000000	5.72181e-06	
100.000000	0.0163893 	100.000000	0.0164797 	100.000000	0.0165164 	100.000000	0.0164915 	100.000000	0.0164743 	100.000000	5.46349e-06	
105.000000	0.0158467 	105.000000	0.0159249 	105.000000	0.0159616 	105.000000	0.0159376 	105.000000	0.0159197 	105.000000	5.22848e-06	
110.000000	0.0153485 	110.000000	0.0154173 	110.000000	0.0154528 	110.000000	0.0154301 	110.000000	0.0154123 	110.000000	5.01372e-06	
115.000000	0.0148892 	115.000000	0.0149509 	115.000000	0.0149868 	115.000000	0.0149633 	115.000000	0.0149461 	115.000000	4.81665e-06	
120.000000	0.0144644 	120.000000	0.014521  	120.000000	0.0145564 	120.000000	0.0145324 	120.000000	0.0145163 	120.000000	4.63516e-06	
125.000000	0.0140701 	125.000000	0.0141233 	125.000000	0.0141561 	125.000000	0.0141333 	125.000000	0.0141188 	125.000000	4.46743e-06	
130.000000	0.0137031 	130.000000	0.0137544 	130.000000	0.0137849 	130.000000	0.0137628 	130.000000	0.01375   	130.000000	4.31194e-06	
135.000000	0.0133606 	135.000000	0.0134111 	135.000000	0.0134409 	135.000000	0.0134177 	135.000000	0.013407  	135.000000	4.16738e-06	
140.000000	0.0130401 	140.000000	0.013091  	140.000000	0.0131188 	140.000000	0.0130956 	140.000000	0.013087  	140.000000	4.03261e-06	
145.000000	0.0127395 	145.000000	0.0127918 	145.000000	0.0128166 	145.000000	0.0127942 	145.000000	0.0127879 	145.000000	3.90665e-06	
150.000000	0.012457  	150.000000	0.0125114 	150.000000	0.0125334 	150.000000	0.0125116 	150.000000	0.0125076 	150.000000	3.78867e-06	
155.000000	0.0120217 	155.000000	0.0122481 	155.000000	0.0122671 	155.000000	0.0122461 	155.000000	0.0122444 	155.000000	3.6779e-06	
160.000000	0.0117874 	160.000000	0.0120003 	160.000000	0.012017  	160.000000	0.0119961 	160.000000	0.0119968 	160.000000	3.57371e-06	
165.000000	0.0115661 	165.000000	0.0117669 	165.000000	0.011782  	165.000000	0.0117604 	165.000000	0.0117634 	165.000000	3.47551e-06	
170.000000	0.0113567 	170.000000	0.0115464 	170.000000	0.0115594 	170.000000	0.0115377 	170.000000	0.0115431 	170.000000	3.3828e-06	
175.000000	0.0111582 	175.000000	0.011338  	175.000000	0.011348  	175.000000	0.011327  	175.000000	0.0113347 	175.000000	3.29512e-06	
180.000000	0.0109699 	180.000000	0.0111405 	180.000000	0.0111479 	180.000000	0.0111274 	180.000000	0.0111373 	180.000000	3.21206e-06	
185.000000	0.0107909 	185.000000	0.0109533 	185.000000	0.0109581 	185.000000	0.0109379 	185.000000	0.0109502 	185.000000	3.13326e-06	
190.000000	0.0106206 	190.000000	0.0107754 	190.000000	0.0107776 	190.000000	0.010758  	190.000000	0.0107724 	190.000000	3.05841e-06	
195.000000	0.0104583 	195.000000	0.0106063 	195.000000	0.0106065 	195.000000	0.0105868 	195.000000	0.0106033 	195.000000	2.9872e-06	
200.000000	0.0103035 	200.000000	0.0104452 	200.000000	0.010444  	200.000000	0.0104237 	200.000000	0.0104423 	200.000000	2.91937e-06	
210.000000	0.0100142 	210.000000	0.0101452 	210.000000	0.0101398 	210.000000	0.0101199 	210.000000	0.0101424 	210.000000	2.79293e-06	
220.000000	0.00974927	220.000000	0.0098713 	220.000000	0.00986171	220.000000	0.00984248	220.000000	0.00986862	220.000000	2.67743e-06	
230.000000	0.00950567	230.000000	0.00962036	230.000000	0.00960673	230.000000	0.00958827	230.000000	0.00961779	230.000000	2.57148e-06	
240.000000	0.00928092	240.000000	0.0093896 	240.000000	0.00937347	240.000000	0.00935449	240.000000	0.00938713	240.000000	2.47394e-06	
250.000000	0.00907288	250.000000	0.00917669	250.000000	0.00915783	250.000000	0.00913881	250.000000	0.0091743 	250.000000	2.38382e-06	
260.000000	0.00887976	260.000000	0.00897965	260.000000	0.00895763	260.000000	0.00893926	260.000000	0.00897734	260.000000	2.3003e-06	
270.000000	0.0087    	270.000000	0.00879678	270.000000	0.00877199	270.000000	0.00875411	270.000000	0.00879456	270.000000	2.22267e-06	
280.000000	0.00853227	280.000000	0.00862663	280.000000	0.00859934	280.000000	0.0085819 	280.000000	0.00862448	280.000000	2.15032e-06	
290.000000	0.00837538	290.000000	0.00846794	290.000000	0.00843932	290.000000	0.00842136	290.000000	0.00846586	290.000000	2.08273e-06	
300.000000	0.00822834	300.000000	0.00831959	300.000000	0.00828938	300.000000	0.00827136	300.000000	0.00831757	300.000000	2.01942e-06	
310.000000	0.00809024	310.000000	0.00818063	310.000000	0.00814845	310.000000	0.00813094	310.000000	0.00817867	310.000000	1.96e-06  	
320.000000	0.0079603 	320.000000	0.00805021	320.000000	0.00801642	320.000000	0.00799923	320.000000	0.00804831	320.000000	1.90412e-06	
330.000000	0.00783783	330.000000	0.00792758	330.000000	0.00789223	330.000000	0.00787548	330.000000	0.00792573	330.000000	1.85147e-06	
340.000000	0.0077222 	340.000000	0.00781208	340.000000	0.00777559	340.000000	0.00775901	340.000000	0.00781028	340.000000	1.80177e-06	
350.000000	0.00761287	350.000000	0.00770311	350.000000	0.00766623	350.000000	0.00764923	350.000000	0.00770136	350.000000	1.75477e-06	
360.000000	0.00750935	360.000000	0.00760016	360.000000	0.00756272	360.000000	0.00754559	360.000000	0.00759845	360.000000	1.71027e-06	
370.000000	0.00741119	370.000000	0.00750276	370.000000	0.0074644 	370.000000	0.00744762	370.000000	0.00750109	370.000000	1.66805e-06	
380.000000	0.00731801	380.000000	0.00741047	380.000000	0.00737137	380.000000	0.00735489	380.000000	0.00740884	380.000000	1.62796e-06	
390.000000	0.00722943	390.000000	0.00732293	390.000000	0.00728326	390.000000	0.00726701	390.000000	0.00732134	390.000000	1.58982e-06	
400.000000	0.00714514	400.000000	0.00723978	400.000000	0.00719955	400.000000	0.00718363	400.000000	0.00723822	400.000000	1.5535e-06	
410.000000	0.00706485	410.000000	0.00716072	410.000000	0.00712019	410.000000	0.00710444	410.000000	0.0071592 	410.000000	1.51887e-06	
420.000000	0.00698828	420.000000	0.00708546	420.000000	0.00704513	420.000000	0.00702913	420.000000	0.00708397	420.000000	1.48581e-06	
430.000000	0.00691519	430.000000	0.00701375	430.000000	0.00697373	430.000000	0.00695746	430.000000	0.0070123 	430.000000	1.45422e-06	
440.000000	0.00684537	440.000000	0.00694536	440.000000	0.00690538	440.000000	0.00688917	440.000000	0.00694394	440.000000	1.424e-06 	
450.000000	0.0067786 	450.000000	0.00688007	450.000000	0.00684   	450.000000	0.00682406	450.000000	0.00687867	450.000000	1.39506e-06	
460.000000	0.0067147 	460.000000	0.00681768	460.000000	0.00677764	460.000000	0.00676192	460.000000	0.00681631	460.000000	1.36732e-06	
470.000000	0.0066535 	470.000000	0.00675802	470.000000	0.00671812	470.000000	0.00670257	470.000000	0.00675668	470.000000	1.3407e-06	
480.000000	0.00659484	480.000000	0.00670092	480.000000	0.00666134	480.000000	0.00664598	480.000000	0.0066996 	480.000000	1.31515e-06	
490.000000	0.00653858	490.000000	0.00664623	490.000000	0.0066071 	490.000000	0.00659198	490.000000	0.00664494	490.000000	1.29059e-06	
500.000000	0.00648458	500.000000	0.00659381	500.000000	0.00655529	500.000000	0.00654027	500.000000	0.00659254	500.000000	1.26696e-06	
520.000000	0.00638288	520.000000	0.00649527	520.000000	0.00645859	520.000000	0.0064432 	520.000000	0.00649404	520.000000	1.22232e-06	
540.000000	0.00628884	540.000000	0.00640437	540.000000	0.00636927	540.000000	0.00635385	540.000000	0.00640319	540.000000	1.18083e-06	
560.000000	0.00620169	560.000000	0.00632034	560.000000	0.00628647	560.000000	0.00627141	560.000000	0.00631919	560.000000	1.14217e-06	
580.000000	0.00612078	580.000000	0.00624246	580.000000	0.00621   	580.000000	0.00619517	580.000000	0.00624136	580.000000	1.10606e-06	
600.000000	0.00604551	600.000000	0.00617016	600.000000	0.00613906	600.000000	0.00612453	600.000000	0.00616909	600.000000	1.07225e-06	
620.000000	0.00597537	620.000000	0.0061029 	620.000000	0.00607331	620.000000	0.00605896	620.000000	0.00610186	620.000000	1.04053e-06	
640.000000	0.00590992	640.000000	0.00604022	640.000000	0.00601258	640.000000	0.00599798	640.000000	0.00603921	640.000000	1.0107e-06	
660.000000	0.00584876	660.000000	0.00598173	660.000000	0.00595598	660.000000	0.00594119	660.000000	0.00598074	660.000000	9.82593e-07	
680.000000	0.00579152	680.000000	0.00592706	680.000000	0.00590285	680.000000	0.00588822	680.000000	0.0059261 	680.000000	9.5607e-07	
700.000000	0.00573791	700.000000	0.00587589	700.000000	0.00585312	700.000000	0.00583874	700.000000	0.00587496	700.000000	9.30996e-07	
720.000000	0.00568762	720.000000	0.00582794	720.000000	0.00580669	720.000000	0.00579246	720.000000	0.00582703	720.000000	9.07253e-07	
740.000000	0.00564043	740.000000	0.00578296	740.000000	0.0057632 	740.000000	0.00574913	740.000000	0.00578207	740.000000	8.84737e-07	
760.000000	0.00559608	760.000000	0.00574071	760.000000	0.00572238	760.000000	0.00570852	760.000000	0.00573985	760.000000	8.63354e-07	
780.000000	0.00555439	780.000000	0.005701  	780.000000	0.00568415	780.000000	0.0056704 	780.000000	0.00570016	780.000000	8.4302e-07	
800.000000	0.00551517	800.000000	0.00566364	800.000000	0.00564844	800.000000	0.0056346 	800.000000	0.00566281	800.000000	8.23658e-07	
820.000000	0.00547824	820.000000	0.00562846	820.000000	0.00561498	820.000000	0.00560094	820.000000	0.00562765	820.000000	8.05199e-07	
840.000000	0.00544345	840.000000	0.0055953 	840.000000	0.00558341	840.000000	0.00556928	840.000000	0.00559452	840.000000	7.87581e-07	
860.000000	0.00541067	860.000000	0.00556404	860.000000	0.00555353	860.000000	0.00553946	860.000000	0.00556327	860.000000	7.70746e-07	
880.000000	0.00537977	880.000000	0.00553455	880.000000	0.00552527	880.000000	0.00551135	880.000000	0.00553379	880.000000	7.54643e-07	
900.000000	0.00535063	900.000000	0.0055067 	900.000000	0.00549862	900.000000	0.00548486	900.000000	0.00550596	900.000000	7.39225e-07	
920.000000	0.00532315	920.000000	0.0054804 	920.000000	0.0054735 	920.000000	0.00545985	920.000000	0.00547968	920.000000	7.24449e-07	
940.000000	0.00529722	940.000000	0.00545556	940.000000	0.00544981	940.000000	0.00543625	940.000000	0.00545485	940.000000	7.10273e-07	
960.000000	0.00527276	960.000000	0.00543207	960.000000	0.00542744	960.000000	0.00541395	960.000000	0.00543137	960.000000	6.96663e-07	
980.000000	0.00524968	980.000000	0.00540986	980.000000	0.00540629	980.000000	0.00539288	980.000000	0.00540918	980.000000	6.83585e-07	
1000.000000	0.0052279 	1000.000000	0.00538886	1000.000000	0.00538629	1000.000000	0.00537296	1000.000000	0.00538818	1000.000000	6.71007e-07	
1020.000000	0.00520736	1020.000000	0.00536899	1020.000000	0.00536735	1020.000000	0.00535412	1020.000000	0.00536833	1020.000000	6.58901e-07	
1040.000000	0.00518799	1040.000000	0.00535019	1040.000000	0.00534942	1040.000000	0.00533629	1040.000000	0.00534954	1040.000000	6.47241e-07	
1060.000000	0.00516973	1060.000000	0.00533241	1060.000000	0.00533243	1060.000000	0.00531941	1060.000000	0.00533177	1060.000000	6.36001e-07	
1080.000000	0.00515251	1080.000000	0.00531558	1080.000000	0.00531636	1080.000000	0.00530344	1080.000000	0.00531496	1080.000000	6.25161e-07	
1100.000000	0.0051363 	1100.000000	0.00529966	1100.000000	0.0053012 	1100.000000	0.00528831	1100.000000	0.00529905	1100.000000	6.14697e-07	
1120.000000	0.00512103	1120.000000	0.0052846 	1120.000000	0.00528689	1120.000000	0.00527398	1120.000000	0.00528399	1120.000000	6.04591e-07	
1140.000000	0.00510667	1140.000000	0.00527035	1140.000000	0.00527339	1140.000000	0.0052604 	1140.000000	0.00526976	1140.000000	5.94825e-07	
1160.000000	0.00509316	1160.000000	0.00525688	1160.000000	0.00526063	1160.000000	0.00524754	1160.000000	0.00525629	1160.000000	5.85381e-07	
1180.000000	0.00508047	1180.000000	0.00524414	1180.000000	0.00524853	1180.000000	0.00523535	1180.000000	0.00524356	1180.000000	5.76244e-07	
1200.000000	0.00506857	1200.000000	0.0052321 	1200.000000	0.00523704	1200.000000	0.00522381	1200.000000	0.00523153	1200.000000	5.67398e-07	
1220.000000	0.00505741	1220.000000	0.00522072	1220.000000	0.0052261 	1220.000000	0.00521286	1220.000000	0.00522016	1220.000000	5.5883e-07	
1240.000000	0.00504696	1240.000000	0.00520998	1240.000000	0.0052157 	1240.000000	0.00520249	1240.000000	0.00520943	1240.000000	5.50526e-07	
1260.000000	0.00503719	1260.000000	0.00519984	1260.000000	0.00520581	1260.000000	0.00519266	1260.000000	0.0051993 	1260.000000	5.42475e-07	
1280.000000	0.00502808	1280.000000	0.00519028	1280.000000	0.00519643	1280.000000	0.00518335	1280.000000	0.00518974	1280.000000	5.34665e-07	
1300.000000	0.00501959	1300.000000	0.00518126	1300.000000	0.00518753	1300.000000	0.00517453	1300.000000	0.00518074	1300.000000	5.27085e-07	
1320.000000	0.0050117 	1320.000000	0.00517278	1320.000000	0.00517911	1320.000000	0.00516618	1320.000000	0.00517226	1320.000000	5.19725e-07	
1340.000000	0.00500438	1340.000000	0.00516479	1340.000000	0.00517115	1340.000000	0.00515827	1340.000000	0.00516428	1340.000000	5.12576e-07	
1360.000000	0.00499762	1360.000000	0.00515729	1360.000000	0.00516362	1360.000000	0.00515078	1360.000000	0.00515678	1360.000000	5.05628e-07	
1380.000000	0.00499138	1380.000000	0.00515024	1380.000000	0.00515649	1380.000000	0.00514369	1380.000000	0.00514974	1380.000000	4.98872e-07	
1400.000000	0.00498566	1400.000000	0.00514364	1400.000000	0.00514975	1400.000000	0.00513698	1400.000000	0.00514315	1400.000000	4.92302e-07	
1420.000000	0.00498042	1420.000000	0.00513746	1420.000000	0.00514337	1420.000000	0.00513064	1420.000000	0.00513697	1420.000000	4.85909e-07	
1440.000000	0.00497565	1440.000000	0.00513168	1440.000000	0.00513733	1440.000000	0.00512465	1440.000000	0.0051312 	1440.000000	4.79686e-07	
1460.000000	0.00497134	1460.000000	0.00512629	1460.000000	0.00513161	1460.000000	0.00511898	1460.000000	0.00512582	1460.000000	4.73627e-07	
1480.000000	0.00496746	1480.000000	0.00512128	1480.000000	0.00512621	1480.000000	0.00511364	1480.000000	0.00512081	1480.000000	4.67724e-07	
1500.000000	0.004964  	1500.000000	0.00511662	1500.000000	0.00512111	1500.000000	0.00510859	1500.000000	0.00511616	1500.000000	4.61972e-07	
1520.000000	0.00496095	1520.000000	0.00511231	1520.000000	0.00511631	1520.000000	0.00510383	1520.000000	0.00511186	1520.000000	4.56365e-07	
1540.000000	0.00495829	1540.000000	0.00510833	1540.000000	0.00511179	1540.000000	0.00509935	1540.000000	0.00510788	1540.000000	4.50898e-07	
1560.000000	0.004956  	1560.000000	0.00510467	1560.000000	0.00510754	1560.000000	0.00509513	1560.000000	0.00510422	1560.000000	4.45565e-07	
1580.000000	0.00495409	1580.000000	0.00510131	1580.000000	0.00510356	1580.000000	0.00509117	1580.000000	0.00510087	1580.000000	4.40361e-07	
1600.000000	0.00495252	1600.000000	0.00509825	1600.000000	0.00509984	1600.000000	0.00508744	1600.000000	0.00509782	1600.000000	4.35283e-07	
1620.000000	0.00495129	1620.000000	0.00509548	1620.000000	0.00509636	1620.000000	0.00508395	1620.000000	0.00509505	1620.000000	4.30324e-07	
1640.000000	0.0049504 	1640.000000	0.00509298	1640.000000	0.00509312	1640.000000	0.00508067	1640.000000	0.00509255	1640.000000	4.25481e-07	
1660.000000	0.00494982	1660.000000	0.00509074	1660.000000	0.00509009	1660.000000	0.00507761	1660.000000	0.00509032	1660.000000	4.2075e-07	
1680.000000	0.00494955	1680.000000	0.00508876	1680.000000	0.00508728	1680.000000	0.00507475	1680.000000	0.00508834	1680.000000	4.16127e-07	
1700.000000	0.00494958	1700.000000	0.00508703	1700.000000	0.00508465	1700.000000	0.00507208	1700.000000	0.00508661	1700.000000	4.11608e-07	
1750.000000	0.00495091	1750.000000	0.00508371	1750.000000	0.00507888	1750.000000	0.00506622	1750.000000	0.00508331	1750.000000	4.00745e-07	
1800.000000	0.00495391	1800.000000	0.00508176	1800.000000	0.00507411	1800.000000	0.0050614 	1800.000000	0.00508137	1800.000000	3.9046e-07	
1850.000000	0.00495848	1850.000000	0.00508106	1850.000000	0.00507023	1850.000000	0.00505753	1850.000000	0.00508068	1850.000000	3.80709e-07	
1900.000000	0.00496449	1900.000000	0.00508152	1900.000000	0.00506716	1900.000000	0.00505451	1900.000000	0.00508115	1900.000000	3.7145e-07	
1950.000000	0.00497185	1950.000000	0.00508305	1950.000000	0.00506485	1950.000000	0.00505227	1950.000000	0.00508268	1950.000000	3.62647e-07	
2000.000000	0.00498047	2000.000000	0.00508556	2000.000000	0.00506324	2000.000000	0.00505073	2000.000000	0.00508521	2000.000000	3.54266e-07	
2100.000000	0.0050012 	2100.000000	0.00509327	2100.000000	0.00506189	2100.000000	0.00504949	2100.000000	0.00509294	2100.000000	3.38654e-07	
2200.000000	0.00502611	2200.000000	0.00510416	2200.000000	0.00506269	2200.000000	0.00505037	2200.000000	0.00510383	2200.000000	3.24406e-07	
2300.000000	0.00505473	2300.000000	0.0051178 	2300.000000	0.00506525	2300.000000	0.00505299	2300.000000	0.00511749	2300.000000	3.11347e-07	
2400.000000	0.00508667	2400.000000	0.00513385	2400.000000	0.00506924	2400.000000	0.00505706	2400.000000	0.00513356	2400.000000	2.99335e-07	
2500.000000	0.00512161	2500.000000	0.00515203	2500.000000	0.00507452	2500.000000	0.00506242	2500.000000	0.00515174	2500.000000	2.88245e-07	
2600.000000	0.00515925	2600.000000	0.00517208	2600.000000	0.00508136	2600.000000	0.00506933	2600.000000	0.0051718 	2600.000000	2.77976e-07	
2700.000000	0.00519937	2700.000000	0.0051938 	2700.000000	0.00508903	2700.000000	0.00507706	2700.000000	0.00519353	2700.000000	2.68437e-07	
2800.000000	0.00524174	2800.000000	0.00521699	2800.000000	0.00509742	2800.000000	0.00508548	2800.000000	0.00521673	2800.000000	2.59553e-07	
2900.000000	0.00528619	2900.000000	0.00524152	2900.000000	0.0051064 	2900.000000	0.00509446	2900.000000	0.00524127	2900.000000	2.51258e-07	
3000.000000	0.00533256	3000.000000	0.00526724	3000.000000	0.00511589	3000.000000	0.00510392	3000.000000	0.00526699	3000.000000	2.43495e-07	
3200.000000	0.00543052	3200.000000	0.00532179	3200.000000	0.00513598	3200.000000	0.00512393	3200.000000	0.00532156	3200.000000	2.29368e-07	
3400.000000	0.0055347 	3400.000000	0.00537988	3400.000000	0.00515713	3400.000000	0.00514498	3400.000000	0.00537966	3400.000000	2.16841e-07	
3600.000000	0.00564437	3600.000000	0.00544089	3600.000000	0.00517891	3600.000000	0.0051667 	3600.000000	0.00544068	3600.000000	2.05654e-07	
3800.000000	0.00575895	3800.000000	0.00550434	3800.000000	0.00520104	3800.000000	0.00518882	3800.000000	0.00550415	3800.000000	1.956e-07 	
4000.000000	0.00587798	4000.000000	0.00556986	4000.000000	0.00522333	4000.000000	0.00521111	4000.000000	0.00556967	4000.000000	1.86515e-07	
4200.000000	0.00600107	4200.000000	0.00563712	4200.000000	0.00524562	4200.000000	0.00523343	4200.000000	0.00563694	4200.000000	1.78262e-07	
4400.000000	0.00612792	4400.000000	0.00570587	4400.000000	0.00526782	4400.000000	0.00525566	4400.000000	0.0057057 	4400.000000	1.70731e-07	
4600.000000	0.00625825	4600.000000	0.00577591	4600.000000	0.00528984	4600.000000	0.00527772	4600.000000	0.00577575	4600.000000	1.63832e-07	
4800.000000	0.00639185	4800.000000	0.00584706	4800.000000	0.00531163	4800.000000	0.00529955	4800.000000	0.0058469 	4800.000000	1.57485e-07	
5000.000000	0.00652854	5000.000000	0.00591917	5000.000000	0.00533315	5000.000000	0.00532109	5000.000000	0.00591902	5000.000000	1.51628e-07	
5250.000000	0.00670351	5250.000000	0.00601048	5250.000000	0.00535961	5250.000000	0.00534758	5250.000000	0.00601033	5250.000000	1.44911e-07	
5500.000000	0.00688279	5500.000000	0.0061029 	5500.000000	0.00538554	5500.000000	0.00537354	5500.000000	0.00610276	5500.000000	1.38782e-07	
6000.000000	0.0072535 	6000.000000	0.00629045	6000.000000	0.00543573	6000.000000	0.00542377	6000.000000	0.00629033	6000.000000	1.28002e-07	
6500.000000	0.00763932	6500.000000	0.00648081	6500.000000	0.00548363	6500.000000	0.0054717 	6500.000000	0.00648069	6500.000000	1.18822e-07	
7000.000000	0.00803931	7000.000000	0.00667324	7000.000000	0.00552928	7000.000000	0.00551738	7000.000000	0.00667313	7000.000000	1.10908e-07	
7500.000000	0.00845276	7500.000000	0.00686724	7500.000000	0.00557277	7500.000000	0.00556089	7500.000000	0.00686713	7500.000000	1.04012e-07	
8000.000000	0.00887915	8000.000000	0.00706241	8000.000000	0.00561427	8000.000000	0.00560235	8000.000000	0.00706232	8000.000000	9.7948e-08	
8500.000000	0.00931809	8500.000000	0.00725848	8500.000000	0.0056537 	8500.000000	0.00564188	8500.000000	0.00725839	8500.000000	9.25725e-08	
9000.000000	0.00976928	9000.000000	0.00745522	9000.000000	0.00569116	9000.000000	0.00567963	9000.000000	0.00745513	9000.000000	8.77734e-08	
9500.000000	0.0102325 	9500.000000	0.00765245	9500.000000	0.00572701	9500.000000	0.00571569	9500.000000	0.00765237	9500.000000	8.34619e-08	
10000.000000	0.0107075 	10000.000000	0.00785005	10000.000000	0.00576145	10000.000000	0.0057502 	10000.000000	0.00784997	10000.000000	7.95665e-08	
11000.000000	0.0116926 	11000.000000	0.00824596	11000.000000	0.00582625	11000.000000	0.00581496	11000.000000	0.00824589	11000.000000	7.28023e-08	
12000.000000	0.0127237 	12000.000000	0.00864234	12000.000000	0.00588602	12000.000000	0.00587468	12000.000000	0.00864227	12000.000000	6.7128e-08	
13000.000000	0.0138004 	13000.000000	0.00903878	13000.000000	0.00594132	13000.000000	0.00592999	13000.000000	0.00903872	13000.000000	6.22976e-08	
14000.000000	0.0149225 	14000.000000	0.00943504	14000.000000	0.00599271	14000.000000	0.00598145	14000.000000	0.00943498	14000.000000	5.81344e-08	
15000.000000	0.01609   	15000.000000	0.00983093	15000.000000	0.00604066	15000.000000	0.00602951	15000.000000	0.00983088	15000.000000	5.45077e-08	
16000.000000	0.0173029 	16000.000000	0.0102264 	16000.000000	0.00608559	16000.000000	0.00607455	16000.000000	0.0102263 	16000.000000	5.13194e-08	
17000.000000	0.0185612 	17000.000000	0.0106212 	17000.000000	0.00612785	17000.000000	0.00611691	17000.000000	0.0106212 	17000.000000	4.84937e-08	
18000.000000	0.0198653 	18000.000000	0.0110155 	18000.000000	0.00616771	18000.000000	0.00615686	18000.000000	0.0110155 	18000.000000	4.59715e-08	
19000.000000	0.0212154 	19000.000000	0.0114091 	19000.000000	0.00620543	19000.000000	0.00619464	19000.000000	0.0114091 	19000.000000	4.3706e-08	
20000.000000	0.0226116 	20000.000000	0.0118021 	20000.000000	0.0062412 	20000.000000	0.00623046	20000.000000	0.0118021 	20000.000000	4.16595e-08	
21000.000000	0.0240542 	21000.000000	0.0121945 	21000.000000	0.00627524	21000.000000	0.00626451	21000.000000	0.0121944 	21000.000000	3.98015e-08	
22000.000000	0.0255437 	22000.000000	0.0125862 	22000.000000	0.00630772	22000.000000	0.00629693	22000.000000	0.0125861 	22000.000000	3.81068e-08	
23000.000000	0.0270803 	23000.000000	0.0129772 	23000.000000	0.00633838	23000.000000	0.00632787	23000.000000	0.0129772 	23000.000000	3.65547e-08	
24000.000000	0.0286643 	24000.000000	0.0133676 	24000.000000	0.00636766	24000.000000	0.00635744	24000.000000	0.0133675 	24000.000000	3.51276e-08	
25000.000000	0.0302962 	25000.000000	0.0137573 	25000.000000	0.00639599	25000.000000	0.00638577	25000.000000	0.0137573 	25000.000000	3.38109e-08	
26000.000000	0.0319762 	26000.000000	0.0141464 	26000.000000	0.00642315	26000.000000	0.00641293	26000.000000	0.0141464 	26000.000000	3.25921e-08	
27000.000000	0.0337048 	27000.000000	0.0145349 	27000.000000	0.00644907	27000.000000	0.00643903	27000.000000	0.0145349 	27000.000000	3.14607e-08	
28000.000000	0.0354824 	28000.000000	0.0149228 	28000.000000	0.00647394	28000.000000	0.00646412	28000.000000	0.0149228 	28000.000000	3.04074e-08	
29000.000000	0.0373093 	29000.000000	0.0153101 	29000.000000	0.00649792	29000.000000	0.00648829	29000.000000	0.01531   	29000.000000	2.94244e-08	
30000.000000	0.0391859 	30000.000000	0.0156968 	30000.000000	0.00652109	30000.000000	0.0065116 	30000.000000	0.0156968 	30000.000000	2.85047e-08	
32000.000000	0.0430899 	32000.000000	0.0164685 	32000.000000	0.00656503	32000.000000	0.00655584	32000.000000	0.0164685 	32000.000000	2.68324e-08	
34000.000000	0.0471977 	34000.000000	0.017238  	34000.000000	0.00660602	34000.000000	0.00659723	34000.000000	0.017238  	34000.000000	2.53505e-08	
36000.000000	0.0515127 	36000.000000	0.0180055 	36000.000000	0.00664448	36000.000000	0.00663611	36000.000000	0.0180055 	36000.000000	2.40281e-08	
38000.000000	0.0560382 	38000.000000	0.018771  	38000.000000	0.00668075	38000.000000	0.00667274	38000.000000	0.018771  	38000.000000	2.28405e-08	
40000.000000	0.0607777 	40000.000000	0.0195346 	40000.000000	0.00671504	40000.000000	0.00670736	40000.000000	0.0195345 	40000.000000	2.17679e-08	
42000.000000	0.0657347 	42000.000000	0.0202963 	42000.000000	0.00674751	42000.000000	0.00674016	42000.000000	0.0202963 	42000.000000	2.07942e-08	
44000.000000	0.0709126 	44000.000000	0.0210563 	44000.000000	0.00677829	44000.000000	0.00677133	44000.000000	0.0210563 	44000.000000	1.99063e-08	
46000.000000	0.076315  	46000.000000	0.0218147 	46000.000000	0.00680755	46000.000000	0.006801  	46000.000000	0.0218147 	46000.000000	1.90931e-08	
48000.000000	0.0819456 	48000.000000	0.0225714 	48000.000000	0.00683542	48000.000000	0.00682931	48000.000000	0.0225714 	48000.000000	1.83456e-08	
50000.000000	0.0878078 	50000.000000	0.0233266 	50000.000000	0.006862  	50000.000000	0.00685638	50000.000000	0.0233266 	50000.000000	1.76559e-08	
