0.001000	2.87072   	0.001000	1.89994   	0.001000	2.01381   	0.001000	2.01381   	0.001000	0.453599  	0.001000	1.44634   	
0.002000	2.82943   	0.002000	1.83686   	0.002000	1.98728   	0.002000	1.98728   	0.002000	0.606305  	0.002000	1.23055   	
0.005000	2.92047   	0.005000	1.75274   	0.005000	1.97316   	0.005000	1.97316   	0.005000	0.891251  	0.005000	0.861488  	
0.008000	3.09653   	0.008000	1.76539   	0.008000	2.03521   	0.008000	2.03521   	0.008000	1.08677   	0.008000	0.678615  	
0.010000	3.21911   	0.010000	1.79344   	0.010000	2.0909    	0.010000	2.0909    	0.010000	1.19429   	0.010000	0.599153  	
0.015000	3.74475   	0.015000	1.91987   	0.015000	2.27333   	0.015000	2.27333   	0.015000	1.44975   	0.015000	0.470123  	
0.020000	4.27038   	0.020000	2.2642    	0.020000	2.67571   	0.020000	2.67571   	0.020000	1.87283   	0.020000	0.391368  	
0.025000	4.9028    	0.025000	2.64812   	0.025000	3.11905   	0.025000	3.11905   	0.025000	2.31056   	0.025000	0.33756   	
0.030000	5.5016    	0.030000	3.05944   	0.030000	3.50554   	0.030000	3.50554   	0.030000	2.76131   	0.030000	0.298133  	
0.035000	6.04698   	0.035000	3.47825   	0.035000	3.89255   	0.035000	3.89255   	0.035000	3.21181   	0.035000	0.266436  	
0.040000	6.52776   	0.040000	3.8992    	0.040000	4.27789   	0.040000	4.27789   	0.040000	3.65672   	0.040000	0.24248   	
0.045000	6.93722   	0.045000	4.31465   	0.045000	4.65646   	0.045000	4.65646   	0.045000	4.09177   	0.045000	0.222883  	
0.050000	7.27233   	0.050000	4.71934   	0.050000	5.02496   	0.050000	5.02496   	0.050000	4.51367   	0.050000	0.205668  	
0.055000	7.76539   	0.055000	5.11193   	0.055000	5.38346   	0.055000	5.38346   	0.055000	4.92009   	0.055000	0.191843  	
0.060000	8.2145    	0.060000	5.48941   	0.060000	5.72985   	0.060000	5.72985   	0.060000	5.30947   	0.060000	0.179934  	
0.070000	8.954     	0.070000	6.18017   	0.070000	6.38362   	0.070000	6.38362   	0.070000	6.01975   	0.070000	0.160421  	
0.080000	9.725     	0.080000	6.79685   	0.080000	6.98381   	0.080000	6.98381   	0.080000	6.65179   	0.080000	0.145062  	
0.090000	10.3811   	0.090000	7.3497    	0.090000	7.5312    	0.090000	7.5312    	0.090000	7.21708   	0.090000	0.132624  	
0.100000	10.9437   	0.100000	7.84429   	0.100000	8.02847   	0.100000	8.02847   	0.100000	7.72196   	0.100000	0.122324  	
0.120000	11.589    	0.120000	8.68378   	0.120000	8.88744   	0.120000	8.88744   	0.120000	8.57757   	0.120000	0.106209  	
0.140000	12.0862   	0.140000	9.37467   	0.140000	9.59213   	0.140000	9.59213   	0.140000	9.28054   	0.140000	0.0941321 	
0.160000	12.5125   	0.160000	9.94928   	0.160000	10.1717   	0.160000	10.1717   	0.160000	9.86457   	0.160000	0.0847122 	
0.180000	12.9041   	0.180000	10.4231   	0.180000	10.6503   	0.180000	10.6503   	0.180000	10.3459   	0.180000	0.0771397 	
0.200000	13.2829   	0.200000	10.8174   	0.200000	11.0472   	0.200000	11.0472   	0.200000	10.7465   	0.200000	0.070907  	
0.250000	13.8201   	0.250000	11.5962   	0.250000	11.7736   	0.250000	11.7736   	0.250000	11.537    	0.250000	0.0592354 	
0.300000	14.387    	0.300000	12.2198   	0.300000	12.2388   	0.300000	12.2388   	0.300000	12.1687   	0.300000	0.0510716 	
0.350000	14.8363   	0.350000	12.6482   	0.350000	12.6401   	0.350000	12.6401   	0.350000	12.6032   	0.350000	0.0450141 	
0.400000	15.1818   	0.400000	12.9459   	0.400000	13.0816   	0.400000	13.0816   	0.400000	12.9056   	0.400000	0.040326  	
0.450000	15.6078   	0.450000	13.2914   	0.450000	13.3948   	0.450000	13.3948   	0.450000	13.2548   	0.450000	0.0365813 	
0.500000	15.9573   	0.500000	13.5786   	0.500000	13.6154   	0.500000	13.6154   	0.500000	13.5451   	0.500000	0.0335157 	
0.600000	15.8525   	0.600000	13.944    	0.600000	13.8697   	0.600000	13.8697   	0.600000	13.9153   	0.600000	0.0287842 	
0.700000	15.4737   	0.700000	14.1123   	0.700000	13.9573   	0.700000	13.9573   	0.700000	14.087    	0.700000	0.0252914 	
0.800000	15.4589   	0.800000	14.0799   	0.800000	13.8226   	0.800000	13.8226   	0.800000	14.0573   	0.800000	0.0225993 	
0.900000	15.3563   	0.900000	13.981    	0.900000	13.6604   	0.900000	13.6604   	0.900000	13.9605   	0.900000	0.0204562 	
1.000000	15.0953   	1.000000	13.7464   	1.000000	13.4815   	1.000000	13.4815   	1.000000	13.7277   	1.000000	0.0187069 	
1.250000	14.3406   	1.250000	13.1185   	1.250000	12.9619   	1.250000	12.9619   	1.250000	13.103    	1.250000	0.0154674 	
1.500000	13.5631   	1.500000	12.4808   	1.500000	12.3647   	1.500000	12.3647   	1.500000	12.4676   	1.500000	0.0132313 	
1.750000	12.8313   	1.750000	11.8857   	1.750000	11.8359   	1.750000	11.8359   	1.750000	11.8742   	1.750000	0.0115888 	
2.000000	12.1744   	2.000000	11.3548   	2.000000	11.3573   	2.000000	11.3573   	2.000000	11.3445   	2.000000	0.0103279 	
2.250000	11.6111   	2.250000	10.8867   	2.250000	10.9191   	2.250000	10.9191   	2.250000	10.8773   	2.250000	0.00932758	
2.500000	12.0084   	2.500000	10.466    	2.500000	10.515    	2.500000	10.515    	2.500000	10.4575   	2.500000	0.00851332	
3.000000	10.9663   	3.000000	9.7281    	3.000000	9.793     	3.000000	9.793     	3.000000	9.72083   	3.000000	0.00726532	
3.500000	10.0908   	3.500000	9.09623   	3.500000	9.16613   	3.500000	9.16613   	3.500000	9.08988   	3.500000	0.00635126	
4.000000	9.34815   	4.000000	8.54766   	4.000000	8.61673   	4.000000	8.61673   	4.000000	8.54201   	4.000000	0.00565122	
4.500000	8.71141   	4.500000	8.06558   	4.500000	8.13137   	4.500000	8.13137   	4.500000	8.06048   	4.500000	0.0050969 	
5.000000	8.15987   	5.000000	7.63762   	5.000000	7.69956   	5.000000	7.69956   	5.000000	7.63298   	5.000000	0.00464646	
5.500000	7.67763   	5.500000	7.25465   	5.500000	7.3129    	5.500000	7.3129    	5.500000	7.25038   	5.500000	0.00427278	
6.000000	7.25242   	6.000000	6.91004   	6.000000	6.96468   	6.000000	6.96468   	6.000000	6.90608   	6.000000	0.00395749	
6.500000	6.87466   	6.500000	6.59833   	6.500000	6.64941   	6.500000	6.64941   	6.500000	6.59465   	6.500000	0.0036877 	
7.000000	6.53678   	7.000000	6.31504   	7.000000	6.36261   	7.000000	6.36261   	7.000000	6.31158   	7.000000	0.00345406	
7.500000	6.23273   	7.500000	6.05641   	7.500000	6.10056   	7.500000	6.10056   	7.500000	6.05316   	7.500000	0.00324965	
8.000000	5.95762   	8.000000	5.81934   	8.000000	5.86017   	8.000000	5.86017   	8.000000	5.81627   	8.000000	0.00306923	
8.500000	5.70745   	8.500000	5.60121   	8.500000	5.63883   	8.500000	5.63883   	8.500000	5.5983    	8.500000	0.00290875	
9.000000	5.47896   	9.000000	5.39982   	9.000000	5.43434   	9.000000	5.43434   	9.000000	5.39705   	9.000000	0.00276501	
9.500000	5.26939   	9.500000	5.21328   	9.500000	5.24484   	9.500000	5.24484   	9.500000	5.21064   	9.500000	0.00263548	
10.000000	5.07647   	10.000000	5.07528   	10.000000	5.06872   	10.000000	5.06872   	10.000000	5.07276   	10.000000	0.00251813	
11.000000	4.7331    	11.000000	4.76125   	11.000000	4.74315   	11.000000	4.75591   	11.000000	4.75894   	11.000000	0.00231357	
12.000000	4.43656   	12.000000	4.48461   	12.000000	4.45824   	12.000000	4.48001   	12.000000	4.48247   	12.000000	0.00214116	
13.000000	4.17777   	13.000000	4.23925   	13.000000	4.20685   	13.000000	4.23496   	13.000000	4.23726   	13.000000	0.00199377	
14.000000	3.94985   	14.000000	4.02028   	14.000000	3.98335   	14.000000	4.01593   	14.000000	4.01842   	14.000000	0.00186624	
15.000000	3.74752   	15.000000	3.82374   	15.000000	3.78333   	15.000000	3.81902   	15.000000	3.82199   	15.000000	0.00175476	
16.000000	3.56664   	16.000000	3.6464    	16.000000	3.60337   	16.000000	3.6411    	16.000000	3.64474   	16.000000	0.00165643	
17.000000	3.40392   	17.000000	3.48561   	17.000000	3.44066   	17.000000	3.47959   	17.000000	3.48404   	17.000000	0.00156902	
18.000000	3.25672   	18.000000	3.33918   	18.000000	3.29279   	18.000000	3.33235   	18.000000	3.33769   	18.000000	0.00149078	
19.000000	3.12289   	19.000000	3.20528   	19.000000	3.15778   	19.000000	3.1976    	19.000000	3.20386   	19.000000	0.00142032	
20.000000	3.00066   	20.000000	3.08239   	20.000000	3.03403   	20.000000	3.07387   	20.000000	3.08104   	20.000000	0.00135652	
21.000000	2.88856   	21.000000	2.96921   	21.000000	2.92024   	21.000000	2.95987   	21.000000	2.96791   	21.000000	0.00129845	
22.000000	2.78536   	22.000000	2.86463   	22.000000	2.81537   	22.000000	2.85454   	22.000000	2.86338   	22.000000	0.00124538	
23.000000	2.69003   	23.000000	2.76771   	23.000000	2.71846   	23.000000	2.75695   	23.000000	2.76651   	23.000000	0.00119667	
24.000000	2.60169   	24.000000	2.67765   	24.000000	2.62867   	24.000000	2.66631   	24.000000	2.6765    	24.000000	0.00115179	
25.000000	2.51959   	25.000000	2.59374   	25.000000	2.54524   	25.000000	2.58192   	25.000000	2.59263   	25.000000	0.00111031	
27.000000	2.37158   	27.000000	2.44202   	27.000000	2.39484   	27.000000	2.4296    	27.000000	2.44099   	27.000000	0.00103608	
29.000000	2.24178   	29.000000	2.30855   	29.000000	2.2633    	29.000000	2.296     	29.000000	2.30758   	29.000000	0.000971555	
31.000000	2.12699   	31.000000	2.19021   	31.000000	2.14865   	31.000000	2.17785   	31.000000	2.1893    	31.000000	0.000914923	
33.000000	2.0247    	33.000000	2.08458   	33.000000	2.04739   	33.000000	2.07247   	33.000000	2.08371   	33.000000	0.0008648 	
35.000000	1.93294   	35.000000	1.9897    	35.000000	1.95651   	35.000000	1.97795   	35.000000	1.98888   	35.000000	0.00082011	
38.000000	1.81171   	38.000000	1.8642    	38.000000	1.83604   	38.000000	1.8531    	38.000000	1.86344   	38.000000	0.00076145	
41.000000	1.7066    	41.000000	1.75531   	41.000000	1.73148   	41.000000	1.7449    	41.000000	1.75459   	41.000000	0.000710945	
44.000000	1.61454   	44.000000	1.65992   	44.000000	1.6394    	44.000000	1.65019   	44.000000	1.65925   	44.000000	0.000666985	
47.000000	1.53322   	47.000000	1.57565   	47.000000	1.5581    	47.000000	1.56657   	47.000000	1.57503   	47.000000	0.000628357	
50.000000	1.46082   	50.000000	1.50067   	50.000000	1.48556   	50.000000	1.49217   	50.000000	1.50008   	50.000000	0.000594135	
55.000000	1.35627   	55.000000	1.39248   	55.000000	1.38046   	55.000000	1.38483   	55.000000	1.39194   	55.000000	0.000544996	
60.000000	1.26777   	60.000000	1.30102   	60.000000	1.29156   	60.000000	1.29408   	60.000000	1.30052   	60.000000	0.000503657	
65.000000	1.19182   	65.000000	1.22267   	65.000000	1.21519   	65.000000	1.21629   	65.000000	1.2222    	65.000000	0.000468377	
70.000000	1.12588   	70.000000	1.15477   	70.000000	1.14879   	70.000000	1.14885   	70.000000	1.15433   	70.000000	0.000437898	
75.000000	1.06807   	75.000000	1.09536   	75.000000	1.09064   	75.000000	1.0898    	75.000000	1.09495   	75.000000	0.000411292	
80.000000	1.01694   	80.000000	1.04292   	80.000000	1.03908   	80.000000	1.03764   	80.000000	1.04253   	80.000000	0.000387854	
85.000000	0.971367  	85.000000	0.996278  	85.000000	0.993176  	85.000000	0.99123   	85.000000	0.995911  	85.000000	0.000367045	
90.000000	0.930483  	90.000000	0.954524  	90.000000	0.952032  	90.000000	0.949651  	90.000000	0.954176  	90.000000	0.000348439	
95.000000	0.893582  	95.000000	0.91692   	95.000000	0.914941  	95.000000	0.912181  	95.000000	0.916588  	95.000000	0.000331701	
100.000000	0.860097  	100.000000	0.88287   	100.000000	0.881326  	100.000000	0.878234  	100.000000	0.882554  	100.000000	0.000316558	
105.000000	0.829564  	105.000000	0.85189   	105.000000	0.850605  	105.000000	0.847331  	105.000000	0.851587  	105.000000	0.00030279	
110.000000	0.801601  	110.000000	0.82358   	110.000000	0.822601  	110.000000	0.819076  	110.000000	0.823289  	110.000000	0.000290216	
115.000000	0.77589   	115.000000	0.797605  	115.000000	0.796842  	115.000000	0.793141  	115.000000	0.797326  	115.000000	0.000278685	
120.000000	0.752162  	120.000000	0.773687  	120.000000	0.773059  	120.000000	0.769249  	120.000000	0.773418  	120.000000	0.00026807	
125.000000	0.730191  	125.000000	0.751588  	125.000000	0.751089  	125.000000	0.747166  	125.000000	0.751329  	125.000000	0.000258266	
130.000000	0.709785  	130.000000	0.731107  	130.000000	0.730712  	130.000000	0.726693  	130.000000	0.730858  	130.000000	0.000249181	
135.000000	0.690778  	135.000000	0.712072  	135.000000	0.711766  	135.000000	0.70766   	135.000000	0.711831  	135.000000	0.000240738	
140.000000	0.673028  	140.000000	0.694334  	140.000000	0.694099  	140.000000	0.689919  	140.000000	0.694101  	140.000000	0.000232871	
145.000000	0.65641   	145.000000	0.677763  	145.000000	0.677595  	145.000000	0.673342  	145.000000	0.677538  	145.000000	0.000225521	
150.000000	0.640817  	150.000000	0.662249  	150.000000	0.662138  	150.000000	0.657818  	150.000000	0.66203   	150.000000	0.000218639	
155.000000	0.618844  	155.000000	0.647691  	155.000000	0.647579  	155.000000	0.64325   	155.000000	0.647479  	155.000000	0.000212181	
160.000000	0.605972  	160.000000	0.634005  	160.000000	0.633883  	160.000000	0.629551  	160.000000	0.633799  	160.000000	0.000206108	
165.000000	0.593832  	165.000000	0.621113  	165.000000	0.621026  	165.000000	0.616647  	165.000000	0.620913  	165.000000	0.000200387	
170.000000	0.582363  	170.000000	0.608949  	170.000000	0.608904  	170.000000	0.604471  	170.000000	0.608754  	170.000000	0.000194987	
175.000000	0.571509  	175.000000	0.597452  	175.000000	0.597428  	175.000000	0.592961  	175.000000	0.597262  	175.000000	0.000189882	
180.000000	0.561221  	180.000000	0.586568  	180.000000	0.586532  	180.000000	0.582066  	180.000000	0.586383  	180.000000	0.000185047	
185.000000	0.551457  	185.000000	0.576251  	185.000000	0.576185  	185.000000	0.571737  	185.000000	0.57607   	185.000000	0.000180463	
190.000000	0.542176  	190.000000	0.566455  	190.000000	0.566365  	190.000000	0.561932  	190.000000	0.566279  	190.000000	0.000176108	
195.000000	0.533343  	195.000000	0.557144  	195.000000	0.557057  	195.000000	0.552612  	195.000000	0.556972  	195.000000	0.000171967	
200.000000	0.524926  	200.000000	0.548282  	200.000000	0.548218  	200.000000	0.543742  	200.000000	0.548114  	200.000000	0.000168024	
210.000000	0.509226  	210.000000	0.53178   	210.000000	0.5317    	210.000000	0.527229  	210.000000	0.53162   	210.000000	0.000160676	
220.000000	0.494876  	220.000000	0.51673   	220.000000	0.51661   	220.000000	0.512172  	220.000000	0.516576  	220.000000	0.000153967	
230.000000	0.481706  	230.000000	0.502949  	230.000000	0.50286   	230.000000	0.49839   	230.000000	0.502801  	230.000000	0.000147816	
240.000000	0.469577  	240.000000	0.490283  	240.000000	0.490192  	240.000000	0.485728  	240.000000	0.490141  	240.000000	0.000142156	
250.000000	0.458368  	250.000000	0.478603  	250.000000	0.478492  	250.000000	0.474057  	250.000000	0.478466  	250.000000	0.000136929	
260.000000	0.447979  	260.000000	0.467799  	260.000000	0.467681  	260.000000	0.463268  	260.000000	0.467667  	260.000000	0.000132087	
270.000000	0.438323  	270.000000	0.457776  	270.000000	0.457654  	270.000000	0.453265  	270.000000	0.457649  	270.000000	0.000127588	
280.000000	0.429325  	280.000000	0.448454  	280.000000	0.448334  	280.000000	0.443967  	280.000000	0.448331  	280.000000	0.000123396	
290.000000	0.420919  	290.000000	0.439763  	290.000000	0.439649  	290.000000	0.435303  	290.000000	0.439644  	290.000000	0.000119481	
300.000000	0.413051  	300.000000	0.431642  	300.000000	0.431538  	300.000000	0.427213  	300.000000	0.431526  	300.000000	0.000115816	
310.000000	0.405669  	310.000000	0.424036  	310.000000	0.423948  	310.000000	0.419643  	310.000000	0.423924  	310.000000	0.000112378	
320.000000	0.39873   	320.000000	0.4169    	320.000000	0.41683   	320.000000	0.412545  	320.000000	0.416791  	320.000000	0.000109145	
330.000000	0.392197  	330.000000	0.410192  	330.000000	0.410144  	330.000000	0.405878  	330.000000	0.410086  	330.000000	0.0001061 	
340.000000	0.386035  	340.000000	0.403875  	340.000000	0.403852  	340.000000	0.399605  	340.000000	0.403771  	340.000000	0.000103226	
350.000000	0.380213  	350.000000	0.397917  	350.000000	0.397923  	350.000000	0.393693  	350.000000	0.397816  	350.000000	0.00010051	
360.000000	0.374705  	360.000000	0.392289  	360.000000	0.392325  	360.000000	0.388113  	360.000000	0.392191  	360.000000	9.79376e-05	
370.000000	0.369487  	370.000000	0.386964  	370.000000	0.387035  	370.000000	0.38284   	370.000000	0.386869  	370.000000	9.54989e-05	
380.000000	0.364537  	380.000000	0.381921  	380.000000	0.382027  	380.000000	0.377848  	380.000000	0.381828  	380.000000	9.31831e-05	
390.000000	0.359834  	390.000000	0.377137  	390.000000	0.377281  	390.000000	0.373118  	390.000000	0.377046  	390.000000	9.0981e-05	
400.000000	0.355362  	400.000000	0.372594  	400.000000	0.372778  	400.000000	0.36863   	400.000000	0.372505  	400.000000	8.88845e-05	
410.000000	0.351105  	410.000000	0.368275  	410.000000	0.368499  	410.000000	0.364367  	410.000000	0.368188  	410.000000	8.68859e-05	
420.000000	0.347047  	420.000000	0.364164  	420.000000	0.36443   	420.000000	0.360313  	420.000000	0.36408   	420.000000	8.49785e-05	
430.000000	0.343176  	430.000000	0.360248  	430.000000	0.360557  	430.000000	0.356454  	430.000000	0.360165  	430.000000	8.31562e-05	
440.000000	0.339479  	440.000000	0.356512  	440.000000	0.356871  	440.000000	0.352777  	440.000000	0.356431  	440.000000	8.14132e-05	
450.000000	0.335946  	450.000000	0.352947  	450.000000	0.35335   	450.000000	0.34927   	450.000000	0.352867  	450.000000	7.97444e-05	
460.000000	0.332566  	460.000000	0.34954   	460.000000	0.349976  	460.000000	0.345923  	460.000000	0.349462  	460.000000	7.81452e-05	
470.000000	0.329331  	470.000000	0.346282  	470.000000	0.346746  	470.000000	0.342725  	470.000000	0.346205  	470.000000	7.66112e-05	
480.000000	0.32623   	480.000000	0.343164  	480.000000	0.343664  	480.000000	0.339667  	480.000000	0.343089  	480.000000	7.51384e-05	
490.000000	0.323258  	490.000000	0.340178  	490.000000	0.340726  	490.000000	0.336741  	490.000000	0.340104  	490.000000	7.37233e-05	
500.000000	0.320405  	500.000000	0.337315  	500.000000	0.337915  	500.000000	0.333938  	500.000000	0.337243  	500.000000	7.23625e-05	
520.000000	0.315035  	520.000000	0.331935  	520.000000	0.332633  	520.000000	0.328678  	520.000000	0.331865  	520.000000	6.97914e-05	
540.000000	0.310072  	540.000000	0.326972  	540.000000	0.327772  	540.000000	0.323834  	540.000000	0.326904  	540.000000	6.7403e-05	
560.000000	0.305474  	560.000000	0.322383  	560.000000	0.323276  	560.000000	0.319362  	560.000000	0.322317  	560.000000	6.51784e-05	
580.000000	0.301206  	580.000000	0.31813   	580.000000	0.319095  	580.000000	0.315225  	580.000000	0.318067  	580.000000	6.3101e-05	
600.000000	0.297236  	600.000000	0.314181  	600.000000	0.315232  	600.000000	0.311389  	600.000000	0.314119  	600.000000	6.11565e-05	
620.000000	0.293537  	620.000000	0.310506  	620.000000	0.311656  	620.000000	0.307826  	620.000000	0.310447  	620.000000	5.93324e-05	
640.000000	0.290085  	640.000000	0.307082  	640.000000	0.308324  	640.000000	0.30451   	640.000000	0.307024  	640.000000	5.76178e-05	
660.000000	0.286858  	660.000000	0.303886  	660.000000	0.305219  	660.000000	0.301418  	660.000000	0.30383   	660.000000	5.60029e-05	
680.000000	0.283838  	680.000000	0.300897  	680.000000	0.302321  	680.000000	0.298531  	680.000000	0.300843  	680.000000	5.44792e-05	
700.000000	0.281008  	700.000000	0.2981    	700.000000	0.299603  	700.000000	0.295832  	700.000000	0.298047  	700.000000	5.30391e-05	
720.000000	0.278353  	720.000000	0.295478  	720.000000	0.297046  	720.000000	0.293304  	720.000000	0.295426  	720.000000	5.16758e-05	
740.000000	0.27586   	740.000000	0.293017  	740.000000	0.29465   	740.000000	0.290934  	740.000000	0.292967  	740.000000	5.03832e-05	
760.000000	0.273515  	760.000000	0.290705  	760.000000	0.29241   	760.000000	0.288708  	760.000000	0.290656  	760.000000	4.9156e-05	
780.000000	0.27131   	780.000000	0.288531  	780.000000	0.290311  	780.000000	0.286617  	780.000000	0.288483  	780.000000	4.79892e-05	
800.000000	0.269233  	800.000000	0.286485  	800.000000	0.288337  	800.000000	0.284649  	800.000000	0.286438  	800.000000	4.68785e-05	
820.000000	0.267276  	820.000000	0.284558  	820.000000	0.286479  	820.000000	0.282801  	820.000000	0.284512  	820.000000	4.58198e-05	
840.000000	0.265431  	840.000000	0.282741  	840.000000	0.284741  	840.000000	0.281077  	840.000000	0.282696  	840.000000	4.48095e-05	
860.000000	0.26369   	860.000000	0.281026  	860.000000	0.283095  	860.000000	0.279451  	860.000000	0.280983  	860.000000	4.38444e-05	
880.000000	0.262047  	880.000000	0.279408  	880.000000	0.28154   	880.000000	0.277916  	880.000000	0.279365  	880.000000	4.29214e-05	
900.000000	0.260495  	900.000000	0.27788   	900.000000	0.280074  	900.000000	0.276466  	900.000000	0.277838  	900.000000	4.20378e-05	
920.000000	0.259029  	920.000000	0.276435  	920.000000	0.278692  	920.000000	0.275094  	920.000000	0.276394  	920.000000	4.11911e-05	
940.000000	0.257644  	940.000000	0.275069  	940.000000	0.277388  	940.000000	0.273796  	940.000000	0.275029  	940.000000	4.0379e-05	
960.000000	0.256335  	960.000000	0.273778  	960.000000	0.276155  	960.000000	0.272568  	960.000000	0.273738  	960.000000	3.95994e-05	
980.000000	0.255098  	980.000000	0.272556  	980.000000	0.274987  	980.000000	0.271404  	980.000000	0.272517  	980.000000	3.88504e-05	
1000.000000	0.253928  	1000.000000	0.271399  	1000.000000	0.273878  	1000.000000	0.270301  	1000.000000	0.271361  	1000.000000	3.81302e-05	
1020.000000	0.252822  	1020.000000	0.270304  	1020.000000	0.272824  	1020.000000	0.269255  	1020.000000	0.270266  	1020.000000	3.74372e-05	
1040.000000	0.251777  	1040.000000	0.269267  	1040.000000	0.27182   	1040.000000	0.268262  	1040.000000	0.26923   	1040.000000	3.67697e-05	
1060.000000	0.250788  	1060.000000	0.268285  	1060.000000	0.270863  	1060.000000	0.26732   	1060.000000	0.268249  	1060.000000	3.61265e-05	
1080.000000	0.249854  	1080.000000	0.267355  	1080.000000	0.269955  	1080.000000	0.266426  	1080.000000	0.26732   	1080.000000	3.55062e-05	
1100.000000	0.248971  	1100.000000	0.266474  	1100.000000	0.269093  	1100.000000	0.265576  	1100.000000	0.26644   	1100.000000	3.49075e-05	
1120.000000	0.248137  	1120.000000	0.26564   	1120.000000	0.268277  	1120.000000	0.264768  	1120.000000	0.265606  	1120.000000	3.43294e-05	
1140.000000	0.24735   	1140.000000	0.264851  	1140.000000	0.267505  	1140.000000	0.264001  	1140.000000	0.264817  	1140.000000	3.37708e-05	
1160.000000	0.246607  	1160.000000	0.264103  	1160.000000	0.266771  	1160.000000	0.263271  	1160.000000	0.26407   	1160.000000	3.32307e-05	
1180.000000	0.245905  	1180.000000	0.263395  	1180.000000	0.266073  	1180.000000	0.262577  	1180.000000	0.263362  	1180.000000	3.27082e-05	
1200.000000	0.245244  	1200.000000	0.262725  	1200.000000	0.265408  	1200.000000	0.261917  	1200.000000	0.262693  	1200.000000	3.22024e-05	
1220.000000	0.244621  	1220.000000	0.262091  	1220.000000	0.264772  	1220.000000	0.261289  	1220.000000	0.262059  	1220.000000	3.17126e-05	
1240.000000	0.244035  	1240.000000	0.261491  	1240.000000	0.264165  	1240.000000	0.260691  	1240.000000	0.26146   	1240.000000	3.1238e-05	
1260.000000	0.243484  	1260.000000	0.260925  	1260.000000	0.263587  	1260.000000	0.260123  	1260.000000	0.260894  	1260.000000	3.07778e-05	
1280.000000	0.242966  	1280.000000	0.260389  	1280.000000	0.263035  	1280.000000	0.259581  	1280.000000	0.260359  	1280.000000	3.03315e-05	
1300.000000	0.24248   	1300.000000	0.259883  	1300.000000	0.262511  	1300.000000	0.259066  	1300.000000	0.259853  	1300.000000	2.98984e-05	
1320.000000	0.242024  	1320.000000	0.259406  	1320.000000	0.262013  	1320.000000	0.258576  	1320.000000	0.259377  	1320.000000	2.9478e-05	
1340.000000	0.241598  	1340.000000	0.258956  	1340.000000	0.261541  	1340.000000	0.258109  	1340.000000	0.258927  	1340.000000	2.90695e-05	
1360.000000	0.2412    	1360.000000	0.258533  	1360.000000	0.261092  	1360.000000	0.257664  	1360.000000	0.258504  	1360.000000	2.86727e-05	
1380.000000	0.240829  	1380.000000	0.258134  	1380.000000	0.260665  	1380.000000	0.257241  	1380.000000	0.258105  	1380.000000	2.82869e-05	
1400.000000	0.240484  	1400.000000	0.257759  	1400.000000	0.26026   	1400.000000	0.256838  	1400.000000	0.257731  	1400.000000	2.79117e-05	
1420.000000	0.240164  	1420.000000	0.257407  	1420.000000	0.259874  	1420.000000	0.256455  	1420.000000	0.257379  	1420.000000	2.75466e-05	
1440.000000	0.239867  	1440.000000	0.257077  	1440.000000	0.259508  	1440.000000	0.25609   	1440.000000	0.25705   	1440.000000	2.71914e-05	
1460.000000	0.239594  	1460.000000	0.256768  	1460.000000	0.259159  	1460.000000	0.255743  	1460.000000	0.256741  	1460.000000	2.68454e-05	
1480.000000	0.239343  	1480.000000	0.256479  	1480.000000	0.258827  	1480.000000	0.255413  	1480.000000	0.256452  	1480.000000	2.65085e-05	
1500.000000	0.239114  	1500.000000	0.25621   	1500.000000	0.258511  	1500.000000	0.255099  	1500.000000	0.256184  	1500.000000	2.61802e-05	
1520.000000	0.238904  	1520.000000	0.255959  	1520.000000	0.25821   	1520.000000	0.2548    	1520.000000	0.255933  	1520.000000	2.58603e-05	
1540.000000	0.238715  	1540.000000	0.255726  	1540.000000	0.257923  	1540.000000	0.254517  	1540.000000	0.255701  	1540.000000	2.55483e-05	
1560.000000	0.238545  	1560.000000	0.255511  	1560.000000	0.257651  	1560.000000	0.254247  	1560.000000	0.255486  	1560.000000	2.5244e-05	
1580.000000	0.238393  	1580.000000	0.255312  	1580.000000	0.257391  	1580.000000	0.253991  	1580.000000	0.255287  	1580.000000	2.49471e-05	
1600.000000	0.23826   	1600.000000	0.25513   	1600.000000	0.257143  	1600.000000	0.253748  	1600.000000	0.255105  	1600.000000	2.46574e-05	
1620.000000	0.238143  	1620.000000	0.254962  	1620.000000	0.256908  	1620.000000	0.253517  	1620.000000	0.254938  	1620.000000	2.43745e-05	
1640.000000	0.238043  	1640.000000	0.25481   	1640.000000	0.256684  	1640.000000	0.253298  	1640.000000	0.254786  	1640.000000	2.40983e-05	
1660.000000	0.237959  	1660.000000	0.254672  	1660.000000	0.256471  	1660.000000	0.25309   	1660.000000	0.254648  	1660.000000	2.38285e-05	
1680.000000	0.237891  	1680.000000	0.254548  	1680.000000	0.256269  	1680.000000	0.252894  	1680.000000	0.254524  	1680.000000	2.35649e-05	
1700.000000	0.237838  	1700.000000	0.254437  	1700.000000	0.256077  	1700.000000	0.252708  	1700.000000	0.254414  	1700.000000	2.33072e-05	
1750.000000	0.237768  	1750.000000	0.254215  	1750.000000	0.255643  	1750.000000	0.252286  	1750.000000	0.254192  	1750.000000	2.26879e-05	
1800.000000	0.237782  	1800.000000	0.254067  	1800.000000	0.255269  	1800.000000	0.251921  	1800.000000	0.254045  	1800.000000	2.21017e-05	
1850.000000	0.237875  	1850.000000	0.253988  	1850.000000	0.25495   	1850.000000	0.251608  	1850.000000	0.253966  	1850.000000	2.1546e-05	
1900.000000	0.23804   	1900.000000	0.253971  	1900.000000	0.25468   	1900.000000	0.251341  	1900.000000	0.25395   	1900.000000	2.10184e-05	
1950.000000	0.238272  	1950.000000	0.254012  	1950.000000	0.254452  	1950.000000	0.251117  	1950.000000	0.253991  	1950.000000	2.0517e-05	
2000.000000	0.238568  	2000.000000	0.254106  	2000.000000	0.254263  	2000.000000	0.250931  	2000.000000	0.254086  	2000.000000	2.00396e-05	
2100.000000	0.239332  	2100.000000	0.25444   	2100.000000	0.253983  	2100.000000	0.250662  	2100.000000	0.254421  	2100.000000	1.91507e-05	
2200.000000	0.240303  	2200.000000	0.254947  	2200.000000	0.253817  	2200.000000	0.250512  	2200.000000	0.254928  	2200.000000	1.83397e-05	
2300.000000	0.241457  	2300.000000	0.255603  	2300.000000	0.253751  	2300.000000	0.250459  	2300.000000	0.255585  	2300.000000	1.75966e-05	
2400.000000	0.242775  	2400.000000	0.256389  	2400.000000	0.253771  	2400.000000	0.25049   	2400.000000	0.256372  	2400.000000	1.69133e-05	
2500.000000	0.244239  	2500.000000	0.257291  	2500.000000	0.253866  	2500.000000	0.25059   	2500.000000	0.257275  	2500.000000	1.62827e-05	
2600.000000	0.245835  	2600.000000	0.258294  	2600.000000	0.254021  	2600.000000	0.250749  	2600.000000	0.258279  	2600.000000	1.56988e-05	
2700.000000	0.24755   	2700.000000	0.259388  	2700.000000	0.254228  	2700.000000	0.250959  	2700.000000	0.259373  	2700.000000	1.51567e-05	
2800.000000	0.249375  	2800.000000	0.260562  	2800.000000	0.254476  	2800.000000	0.251211  	2800.000000	0.260547  	2800.000000	1.46519e-05	
2900.000000	0.251299  	2900.000000	0.261808  	2900.000000	0.25476   	2900.000000	0.251499  	2900.000000	0.261794  	2900.000000	1.41807e-05	
3000.000000	0.253315  	3000.000000	0.263119  	3000.000000	0.255074  	3000.000000	0.251817  	3000.000000	0.263105  	3000.000000	1.37398e-05	
3200.000000	0.257593  	3200.000000	0.265909  	3200.000000	0.255773  	3200.000000	0.252528  	3200.000000	0.265896  	3200.000000	1.29378e-05	
3400.000000	0.262164  	3400.000000	0.268892  	3400.000000	0.256548  	3400.000000	0.253314  	3400.000000	0.26888   	3400.000000	1.22268e-05	
3600.000000	0.266989  	3600.000000	0.272033  	3600.000000	0.257377  	3600.000000	0.254153  	3600.000000	0.272021  	3600.000000	1.15922e-05	
3800.000000	0.272041  	3800.000000	0.275306  	3800.000000	0.258246  	3800.000000	0.255029  	3800.000000	0.275295  	3800.000000	1.10221e-05	
4000.000000	0.277294  	4000.000000	0.278692  	4000.000000	0.25914   	4000.000000	0.255929  	4000.000000	0.278681  	4000.000000	1.05071e-05	
4200.000000	0.28273   	4200.000000	0.282172  	4200.000000	0.260051  	4200.000000	0.256845  	4200.000000	0.282162  	4200.000000	1.00394e-05	
4400.000000	0.288333  	4400.000000	0.285734  	4400.000000	0.26097   	4400.000000	0.257769  	4400.000000	0.285724  	4400.000000	9.61279e-06	
4600.000000	0.294089  	4600.000000	0.289366  	4600.000000	0.261892  	4600.000000	0.258695  	4600.000000	0.289356  	4600.000000	9.22201e-06	
4800.000000	0.299987  	4800.000000	0.293058  	4800.000000	0.262813  	4800.000000	0.25962   	4800.000000	0.293049  	4800.000000	8.86269e-06	
5000.000000	0.306019  	5000.000000	0.296802  	5000.000000	0.26373   	5000.000000	0.26054   	5000.000000	0.296793  	5000.000000	8.53114e-06	
5250.000000	0.313734  	5250.000000	0.301546  	5250.000000	0.264865  	5250.000000	0.26168   	5250.000000	0.301538  	5250.000000	8.15103e-06	
5500.000000	0.32163   	5500.000000	0.306351  	5500.000000	0.265985  	5500.000000	0.262806  	5500.000000	0.306343  	5500.000000	7.80431e-06	
6000.000000	0.337929  	6000.000000	0.316109  	6000.000000	0.268174  	6000.000000	0.265004  	6000.000000	0.316102  	6000.000000	7.19473e-06	
6500.000000	0.354846  	6500.000000	0.32602   	6500.000000	0.270286  	6500.000000	0.267123  	6500.000000	0.326013  	6500.000000	6.67591e-06	
7000.000000	0.372334  	7000.000000	0.336045  	7000.000000	0.272317  	7000.000000	0.26916   	7000.000000	0.336039  	7000.000000	6.22883e-06	
7500.000000	0.390355  	7500.000000	0.346156  	7500.000000	0.274267  	7500.000000	0.271115  	7500.000000	0.34615   	7500.000000	5.83944e-06	
8000.000000	0.408883  	8000.000000	0.356332  	8000.000000	0.276134  	8000.000000	0.272989  	8000.000000	0.356327  	8000.000000	5.49716e-06	
8500.000000	0.427896  	8500.000000	0.366558  	8500.000000	0.277928  	8500.000000	0.274787  	8500.000000	0.366553  	8500.000000	5.19385e-06	
9000.000000	0.447378  	9000.000000	0.376821  	9000.000000	0.279651  	9000.000000	0.276511  	9000.000000	0.376816  	9000.000000	4.92316e-06	
9500.000000	0.467316  	9500.000000	0.387112  	9500.000000	0.281302  	9500.000000	0.278167  	9500.000000	0.387108  	9500.000000	4.68005e-06	
10000.000000	0.487699  	10000.000000	0.397425  	10000.000000	0.282883  	10000.000000	0.279757  	10000.000000	0.39742   	10000.000000	4.46047e-06	
11000.000000	0.529772  	11000.000000	0.41809   	11000.000000	0.285868  	11000.000000	0.28276   	11000.000000	0.418086  	11000.000000	4.07934e-06	
12000.000000	0.573546  	12000.000000	0.438785  	12000.000000	0.288645  	12000.000000	0.285548  	12000.000000	0.438781  	12000.000000	3.75978e-06	
13000.000000	0.61899   	13000.000000	0.459486  	13000.000000	0.291232  	13000.000000	0.288146  	13000.000000	0.459483  	13000.000000	3.48788e-06	
14000.000000	0.666081  	14000.000000	0.480181  	14000.000000	0.293648  	14000.000000	0.290577  	14000.000000	0.480178  	14000.000000	3.25363e-06	
15000.000000	0.714805  	15000.000000	0.500859  	15000.000000	0.295912  	15000.000000	0.292859  	15000.000000	0.500856  	15000.000000	3.04965e-06	
16000.000000	0.765152  	16000.000000	0.521514  	16000.000000	0.298041  	16000.000000	0.295008  	16000.000000	0.521511  	16000.000000	2.87039e-06	
17000.000000	0.817117  	17000.000000	0.542142  	17000.000000	0.300049  	17000.000000	0.297037  	17000.000000	0.542139  	17000.000000	2.71157e-06	
18000.000000	0.870697  	18000.000000	0.56274   	18000.000000	0.301951  	18000.000000	0.29896   	18000.000000	0.562737  	18000.000000	2.56986e-06	
19000.000000	0.925891  	19000.000000	0.583306  	19000.000000	0.303756  	19000.000000	0.300786  	19000.000000	0.583303  	19000.000000	2.4426e-06	
20000.000000	0.9827    	20000.000000	0.603839  	20000.000000	0.305473  	20000.000000	0.302523  	20000.000000	0.603836  	20000.000000	2.32769e-06	
21000.000000	1.04113   	21000.000000	0.624338  	21000.000000	0.30711   	21000.000000	0.30418   	21000.000000	0.624336  	21000.000000	2.22338e-06	
22000.000000	1.10117   	22000.000000	0.644804  	22000.000000	0.308673  	22000.000000	0.305764  	22000.000000	0.644802  	22000.000000	2.12826e-06	
23000.000000	1.16285   	23000.000000	0.665236  	23000.000000	0.310176  	23000.000000	0.30728   	23000.000000	0.665234  	23000.000000	2.04116e-06	
24000.000000	1.22615   	24000.000000	0.685635  	24000.000000	0.311611  	24000.000000	0.308734  	24000.000000	0.685633  	24000.000000	1.9611e-06	
25000.000000	1.29109   	25000.000000	0.706001  	25000.000000	0.312972  	25000.000000	0.310131  	25000.000000	0.705999  	25000.000000	1.88725e-06	
26000.000000	1.35767   	26000.000000	0.726334  	26000.000000	0.314284  	26000.000000	0.311474  	26000.000000	0.726332  	26000.000000	1.8189e-06	
27000.000000	1.42589   	27000.000000	0.746635  	27000.000000	0.315558  	27000.000000	0.312768  	27000.000000	0.746633  	27000.000000	1.75547e-06	
28000.000000	1.49578   	28000.000000	0.766905  	28000.000000	0.316788  	28000.000000	0.314017  	28000.000000	0.766903  	28000.000000	1.69642e-06	
29000.000000	1.56732   	29000.000000	0.787144  	29000.000000	0.317968  	29000.000000	0.315222  	29000.000000	0.787142  	29000.000000	1.64133e-06	
30000.000000	1.64053   	30000.000000	0.807353  	30000.000000	0.3191    	30000.000000	0.316387  	30000.000000	0.807351  	30000.000000	1.58979e-06	
32000.000000	1.792     	32000.000000	0.847683  	32000.000000	0.321252  	32000.000000	0.318606  	32000.000000	0.847681  	32000.000000	1.4961e-06	
34000.000000	1.95023   	34000.000000	0.8879    	34000.000000	0.323275  	34000.000000	0.320693  	34000.000000	0.887898  	34000.000000	1.41311e-06	
36000.000000	2.11531   	36000.000000	0.928009  	36000.000000	0.325177  	36000.000000	0.322661  	36000.000000	0.928007  	36000.000000	1.33907e-06	
38000.000000	2.28728   	38000.000000	0.968014  	38000.000000	0.326967  	38000.000000	0.324523  	38000.000000	0.968013  	38000.000000	1.27259e-06	
40000.000000	2.46624   	40000.000000	1.00792   	40000.000000	0.328657  	40000.000000	0.326291  	40000.000000	1.00792   	40000.000000	1.21257e-06	
42000.000000	2.65224   	42000.000000	1.04773   	42000.000000	0.330259  	42000.000000	0.327972  	42000.000000	1.04773   	42000.000000	1.15809e-06	
44000.000000	2.84536   	44000.000000	1.08746   	44000.000000	0.331785  	44000.000000	0.329575  	44000.000000	1.08745   	44000.000000	1.10843e-06	
46000.000000	3.04568   	46000.000000	1.12709   	46000.000000	0.333242  	46000.000000	0.331106  	46000.000000	1.12709   	46000.000000	1.06295e-06	
48000.000000	3.25327   	48000.000000	1.16664   	48000.000000	0.334634  	48000.000000	0.332572  	48000.000000	1.16664   	48000.000000	1.02115e-06	
50000.000000	3.4682    	50000.000000	1.20611   	50000.000000	0.33596   	50000.000000	0.333978  	50000.000000	1.20611   	50000.000000	9.82603e-07	
