Energy (MeV/u)1	0 - [He-base] F.Hubert et al, AD&ND Tables 46(1990)1	Energy (MeV/u)2	1 - [H -base] J.F.Ziegler et al, Pergamon Press, NY (low energy)	Energy (MeV/u)3	2 - ATIMA 1.2  LS-theory (recommended for high energy)	Energy (MeV/u)4	3 - ATIMA 1.2  without LS-correction	Energy (MeV/u)5	4 - electrical component of [1] - J.F.Ziegler et al	Energy (MeV/u)6	5 - nuclear component of [1] - J.F.Ziegler et al	
0.001000	1.07879   	0.001000	0.601918  	0.001000	0.724879  	0.001000	0.724879  	0.001000	0.345367  	0.001000	0.256551  	
0.002000	1.18043   	0.002000	0.649077  	0.002000	0.7981    	0.002000	0.7981    	0.002000	0.447886  	0.002000	0.201191  	
0.005000	1.44815   	0.005000	0.759658  	0.005000	0.950721  	0.005000	0.950721  	0.005000	0.631531  	0.005000	0.128127  	
0.008000	1.65904   	0.008000	0.850279  	0.008000	1.0667    	0.008000	1.0667    	0.008000	0.753251  	0.008000	0.0970278 	
0.010000	1.77832   	0.010000	0.903262  	0.010000	1.13271   	0.010000	1.13271   	0.010000	0.818995  	0.010000	0.0842676 	
0.015000	2.0819    	0.015000	1.04653   	0.015000	1.29299   	0.015000	1.29299   	0.015000	0.982138  	0.015000	0.0643933 	
0.020000	2.32526   	0.020000	1.28084   	0.020000	1.51046   	0.020000	1.51046   	0.020000	1.2281    	0.020000	0.0527385 	
0.025000	2.59914   	0.025000	1.51055   	0.025000	1.72181   	0.025000	1.72181   	0.025000	1.46599   	0.025000	0.0445647 	
0.030000	2.8318    	0.030000	1.73124   	0.030000	1.90193   	0.030000	1.90193   	0.030000	1.69221   	0.030000	0.0390296 	
0.035000	3.02333   	0.035000	1.93763   	0.035000	2.06813   	0.035000	2.06813   	0.035000	1.9028    	0.035000	0.0348254 	
0.040000	3.17436   	0.040000	2.12781   	0.040000	2.2207    	0.040000	2.2207    	0.040000	2.0963    	0.040000	0.0315117 	
0.045000	3.28564   	0.045000	2.3007    	0.045000	2.36      	0.045000	2.36      	0.045000	2.27187   	0.045000	0.0288254 	
0.050000	3.3544    	0.050000	2.45265   	0.050000	2.48645   	0.050000	2.48645   	0.050000	2.42605   	0.050000	0.026599  	
0.055000	3.49642   	0.055000	2.58542   	0.055000	2.60061   	0.055000	2.60061   	0.055000	2.5607    	0.055000	0.0247205 	
0.060000	3.61615   	0.060000	2.70181   	0.060000	2.70306   	0.060000	2.70306   	0.060000	2.6787    	0.060000	0.0231121 	
0.070000	3.79536   	0.070000	2.88987   	0.070000	2.87564   	0.070000	2.87564   	0.070000	2.86937   	0.070000	0.0204961 	
0.080000	3.98663   	0.080000	3.02691   	0.080000	3.01      	0.080000	3.01      	0.080000	3.00845   	0.080000	0.0184538 	
0.090000	4.12915   	0.090000	3.12348   	0.090000	3.11206   	0.090000	3.11206   	0.090000	3.10667   	0.090000	0.0168109 	
0.100000	4.2352    	0.100000	3.18913   	0.100000	3.18745   	0.100000	3.18745   	0.100000	3.17367   	0.100000	0.0154579 	
0.120000	4.27316   	0.120000	3.2576    	0.120000	3.27774   	0.120000	3.27774   	0.120000	3.24424   	0.120000	0.0133547 	
0.140000	4.2684    	0.140000	3.27657   	0.140000	3.31311   	0.140000	3.31311   	0.140000	3.26478   	0.140000	0.0117897 	
0.160000	4.27442   	0.160000	3.28375   	0.160000	3.31556   	0.160000	3.31556   	0.160000	3.27317   	0.160000	0.0105759 	
0.180000	4.29956   	0.180000	3.29665   	0.180000	3.29919   	0.180000	3.29919   	0.180000	3.28705   	0.180000	0.00960452	
0.200000	4.32184   	0.200000	3.29527   	0.200000	3.27261   	0.200000	3.27261   	0.200000	3.28646   	0.200000	0.00880811	
0.250000	4.269     	0.250000	3.28285   	0.250000	3.18996   	0.250000	3.18996   	0.250000	3.27552   	0.250000	0.00732442	
0.300000	4.25141   	0.300000	3.27203   	0.300000	3.10577   	0.300000	3.10577   	0.300000	3.26573   	0.300000	0.00629292	
0.350000	4.22696   	0.350000	3.24942   	0.350000	3.04714   	0.350000	3.04714   	0.350000	3.24389   	0.350000	0.00553108	
0.400000	4.22132   	0.400000	3.23928   	0.400000	2.99383   	0.400000	2.99383   	0.400000	3.23434   	0.400000	0.00494364	
0.450000	4.19164   	0.450000	3.2131    	0.450000	2.93796   	0.450000	2.93796   	0.450000	3.20862   	0.450000	0.00447585	
0.500000	4.13848   	0.500000	3.17002   	0.500000	2.88032   	0.500000	2.88032   	0.500000	3.16593   	0.500000	0.00409388	
0.600000	3.8549    	0.600000	3.05357   	0.600000	2.76082   	0.600000	2.76082   	0.600000	3.05007   	0.600000	0.00350619	
0.700000	3.55792   	0.700000	2.92349   	0.700000	2.64954   	0.700000	2.64954   	0.700000	2.92041   	0.700000	0.00307387	
0.800000	3.39065   	0.800000	2.78306   	0.800000	2.54601   	0.800000	2.54601   	0.800000	2.78032   	0.800000	0.00274161	
0.900000	3.2323    	0.900000	2.65308   	0.900000	2.44965   	0.900000	2.44965   	0.900000	2.65061   	0.900000	0.00247774	
1.000000	3.08435   	1.000000	2.53358   	1.000000	2.35983   	1.000000	2.35983   	1.000000	2.53132   	1.000000	0.00226277	
1.250000	2.74087   	1.250000	2.26479   	1.250000	2.15051   	1.250000	2.15051   	1.250000	2.26292   	1.250000	0.00186581	
1.500000	2.4636    	1.500000	2.05133   	1.500000	1.97787   	1.500000	1.97787   	1.500000	2.04973   	1.500000	0.00159269	
1.750000	2.23717   	1.750000	1.87865   	1.750000	1.83252   	1.750000	1.83252   	1.750000	1.87726   	1.750000	0.00139259	
2.000000	2.03803   	2.000000	1.72558   	2.000000	1.70754   	2.000000	1.70754   	2.000000	1.72434   	2.000000	0.0012393 	
2.250000	1.87382   	2.250000	1.59716   	2.250000	1.59871   	2.250000	1.59871   	2.250000	1.59604   	2.250000	0.0011179 	
2.500000	1.70108   	2.500000	1.49118   	2.500000	1.50308   	2.500000	1.50308   	2.500000	1.49016   	2.500000	0.00101924	
3.000000	1.50152   	3.000000	1.32388   	3.000000	1.34327   	3.000000	1.34327   	3.000000	1.32302   	3.000000	0.000868288	
3.500000	1.34619   	3.500000	1.19555   	3.500000	1.21518   	3.500000	1.21518   	3.500000	1.19479   	3.500000	0.000757961	
4.000000	1.22169   	4.000000	1.09277   	4.000000	1.11053   	4.000000	1.11053   	4.000000	1.09209   	4.000000	0.000673611	
4.500000	1.11958   	4.500000	1.00809   	4.500000	1.02357   	4.500000	1.02357   	4.500000	1.00749   	4.500000	0.000606915	
5.000000	1.03423   	5.000000	0.936911  	5.000000	0.950245  	5.000000	0.950245  	5.000000	0.936358  	5.000000	0.000552785	
5.500000	0.961769  	5.500000	0.876128  	5.500000	0.887587  	5.500000	0.887587  	5.500000	0.87562   	5.500000	0.000507928	
6.000000	0.899448  	6.000000	0.823558  	6.000000	0.833424  	6.000000	0.833424  	6.000000	0.823088  	6.000000	0.000470117	
6.500000	0.845246  	6.500000	0.7776    	6.500000	0.786122  	6.500000	0.786122  	6.500000	0.777163  	6.500000	0.000437788	
7.000000	0.797649  	7.000000	0.737051  	7.000000	0.744437  	7.000000	0.744437  	7.000000	0.736641  	7.000000	0.000409814	
7.500000	0.755502  	7.500000	0.700984  	7.500000	0.707407  	7.500000	0.707407  	7.500000	0.700598  	7.500000	0.000385358	
8.000000	0.717906  	8.000000	0.668676  	8.000000	0.674276  	8.000000	0.674276  	8.000000	0.668312  	8.000000	0.000363785	
8.500000	0.684149  	8.500000	0.639553  	8.500000	0.644445  	8.500000	0.644445  	8.500000	0.639208  	8.500000	0.000344607	
9.000000	0.653663  	9.000000	0.613152  	9.000000	0.61743   	9.000000	0.61743   	9.000000	0.612825  	9.000000	0.000327439	
9.500000	0.625988  	9.500000	0.589098  	9.500000	0.592839  	9.500000	0.592839  	9.500000	0.588786  	9.500000	0.000311978	
10.000000	0.600745  	10.000000	0.569635  	10.000000	0.570351  	10.000000	0.570351  	10.000000	0.569337  	10.000000	0.000297976	
11.000000	0.556359  	11.000000	0.530249  	11.000000	0.529765  	11.000000	0.529947  	11.000000	0.529975  	11.000000	0.000273585	
12.000000	0.518568  	12.000000	0.496261  	12.000000	0.494978  	12.000000	0.495274  	12.000000	0.496008  	12.000000	0.000253044	
13.000000	0.485983  	13.000000	0.466638  	13.000000	0.46479   	13.000000	0.465155  	13.000000	0.466402  	13.000000	0.000235497	
14.000000	0.457582  	14.000000	0.440588  	14.000000	0.438312  	14.000000	0.438718  	14.000000	0.440368  	14.000000	0.000220324	
15.000000	0.432596  	15.000000	0.417501  	15.000000	0.414875  	15.000000	0.415304  	15.000000	0.417294  	15.000000	0.000207068	
16.000000	0.410435  	16.000000	0.396895  	16.000000	0.393971  	16.000000	0.394405  	16.000000	0.3967    	16.000000	0.000195382	
17.000000	0.390638  	17.000000	0.378389  	17.000000	0.375198  	17.000000	0.375622  	17.000000	0.378204  	17.000000	0.000184999	
18.000000	0.372839  	18.000000	0.361674  	18.000000	0.35823   	18.000000	0.358639  	18.000000	0.361499  	18.000000	0.000175711	
19.000000	0.356747  	19.000000	0.346501  	19.000000	0.342804  	19.000000	0.343201  	19.000000	0.346333  	19.000000	0.000167349	
20.000000	0.342122  	20.000000	0.332662  	20.000000	0.328709  	20.000000	0.329099  	20.000000	0.332502  	20.000000	0.00015978	
21.000000	0.32877   	21.000000	0.319989  	21.000000	0.315783  	21.000000	0.316162  	21.000000	0.319836  	21.000000	0.000152895	
22.000000	0.316529  	22.000000	0.308337  	22.000000	0.303894  	22.000000	0.304248  	22.000000	0.30819   	22.000000	0.000146603	
23.000000	0.305262  	23.000000	0.297587  	23.000000	0.292918  	23.000000	0.293236  	23.000000	0.297446  	23.000000	0.000140831	
24.000000	0.294857  	24.000000	0.287637  	24.000000	0.282738  	24.000000	0.283026  	24.000000	0.287501  	24.000000	0.000135515	
25.000000	0.285217  	25.000000	0.278399  	25.000000	0.273265  	25.000000	0.273532  	25.000000	0.278268  	25.000000	0.000130603	
27.000000	0.267909  	27.000000	0.261772  	27.000000	0.256183  	27.000000	0.256403  	27.000000	0.261651  	27.000000	0.000121816	
29.000000	0.252805  	29.000000	0.24722   	29.000000	0.241205  	29.000000	0.241371  	29.000000	0.247106  	29.000000	0.000114183	
31.000000	0.239504  	31.000000	0.234373  	31.000000	0.228434  	31.000000	0.228535  	31.000000	0.234266  	31.000000	0.000107486	
33.000000	0.227694  	33.000000	0.222944  	33.000000	0.217507  	33.000000	0.217546  	33.000000	0.222842  	33.000000	0.000101562	
35.000000	0.217134  	35.000000	0.212708  	35.000000	0.207685  	35.000000	0.207698  	35.000000	0.212611  	35.000000	9.62815e-05	
38.000000	0.203229  	38.000000	0.199206  	38.000000	0.194744  	38.000000	0.194697  	38.000000	0.199117  	38.000000	8.93542e-05	
41.000000	0.191216  	41.000000	0.187522  	41.000000	0.183516  	41.000000	0.183433  	41.000000	0.187439  	41.000000	8.33932e-05	
44.000000	0.180726  	44.000000	0.177309  	44.000000	0.173676  	44.000000	0.173574  	44.000000	0.17723   	44.000000	7.8207e-05	
47.000000	0.171482  	47.000000	0.168301  	47.000000	0.16499   	47.000000	0.164868  	47.000000	0.168227  	47.000000	7.36521e-05	
50.000000	0.163271  	50.000000	0.160294  	50.000000	0.157254  	50.000000	0.15712   	50.000000	0.160224  	50.000000	6.96183e-05	
55.000000	0.151442  	55.000000	0.148755  	55.000000	0.146114  	55.000000	0.145936  	55.000000	0.148691  	55.000000	6.3829e-05	
60.000000	0.141453  	60.000000	0.139011  	60.000000	0.13666   	60.000000	0.136472  	60.000000	0.138952  	60.000000	5.89614e-05	
65.000000	0.132899  	65.000000	0.130667  	65.000000	0.128538  	65.000000	0.128355  	65.000000	0.130613  	65.000000	5.48094e-05	
70.000000	0.125485  	70.000000	0.12344   	70.000000	0.121507  	70.000000	0.121312  	70.000000	0.123389  	70.000000	5.12241e-05	
75.000000	0.118994  	75.000000	0.117118  	75.000000	0.115342  	75.000000	0.11514   	75.000000	0.11707   	75.000000	4.80956e-05	
80.000000	0.113259  	80.000000	0.111537  	80.000000	0.109894  	80.000000	0.109684  	80.000000	0.111492  	80.000000	4.53408e-05	
85.000000	0.108154  	85.000000	0.106575  	85.000000	0.105041  	85.000000	0.104827  	85.000000	0.106532  	85.000000	4.28958e-05	
90.000000	0.103577  	90.000000	0.102132  	90.000000	0.100676  	90.000000	0.100472  	90.000000	0.102091  	90.000000	4.07105e-05	
95.000000	0.0994492 	95.000000	0.09813   	95.000000	0.0967532 	95.000000	0.0965449 	95.000000	0.0980913 	95.000000	3.8745e-05	
100.000000	0.0957059 	100.000000	0.0945062 	100.000000	0.0931969 	100.000000	0.0929852 	100.000000	0.0944692 	100.000000	3.69675e-05	
105.000000	0.0922946 	105.000000	0.0912087 	105.000000	0.0899584 	105.000000	0.0897429 	105.000000	0.0911733 	105.000000	3.53518e-05	
110.000000	0.0891719 	110.000000	0.0881949 	110.000000	0.0869849 	110.000000	0.0867771 	110.000000	0.0881611 	110.000000	3.38766e-05	
115.000000	0.0863019 	115.000000	0.0854296 	115.000000	0.0842592 	115.000000	0.0840534 	115.000000	0.085397  	115.000000	3.25241e-05	
120.000000	0.0836544 	120.000000	0.0828828 	120.000000	0.0817538 	120.000000	0.0815432 	120.000000	0.0828515 	120.000000	3.12793e-05	
125.000000	0.0812037 	125.000000	0.0805295 	125.000000	0.0794315 	125.000000	0.0792221 	125.000000	0.0804994 	125.000000	3.01299e-05	
130.000000	0.0789283 	130.000000	0.0783482 	130.000000	0.0772717 	130.000000	0.0770695 	130.000000	0.0783192 	130.000000	2.9065e-05	
135.000000	0.0768094 	135.000000	0.0763207 	135.000000	0.0752698 	135.000000	0.0750674 	135.000000	0.0762927 	135.000000	2.80755e-05	
140.000000	0.0748311 	140.000000	0.0744311 	140.000000	0.0734066 	140.000000	0.0732006 	140.000000	0.074404  	140.000000	2.71537e-05	
145.000000	0.0729794 	145.000000	0.0726658 	145.000000	0.0716606 	145.000000	0.0714557 	145.000000	0.0726395 	145.000000	2.62927e-05	
150.000000	0.0712423 	150.000000	0.0710127 	150.000000	0.0700199 	150.000000	0.0698212 	150.000000	0.0709872 	150.000000	2.54867e-05	
155.000000	0.0687964 	155.000000	0.0694615 	155.000000	0.0684853 	155.000000	0.0682869 	155.000000	0.0694368 	155.000000	2.47304e-05	
160.000000	0.0673628 	160.000000	0.068003  	160.000000	0.0670425 	160.000000	0.0668438 	160.000000	0.0679789 	160.000000	2.40194e-05	
165.000000	0.0660109 	165.000000	0.066629  	165.000000	0.0656774 	165.000000	0.065484  	165.000000	0.0666057 	165.000000	2.33496e-05	
170.000000	0.0647338 	170.000000	0.0653325 	170.000000	0.0643916 	170.000000	0.0642005 	170.000000	0.0653097 	170.000000	2.27175e-05	
175.000000	0.0635254 	175.000000	0.0641069 	175.000000	0.0631801 	175.000000	0.062987  	175.000000	0.0640848 	175.000000	2.212e-05 	
180.000000	0.0623803 	180.000000	0.0629467 	180.000000	0.0620331 	180.000000	0.0618381 	180.000000	0.0629252 	180.000000	2.15543e-05	
185.000000	0.0612934 	185.000000	0.0618468 	185.000000	0.0609422 	185.000000	0.0607487 	185.000000	0.0618257 	185.000000	2.10179e-05	
190.000000	0.0602605 	190.000000	0.0608024 	190.000000	0.0599032 	190.000000	0.0597142 	190.000000	0.0607819 	190.000000	2.05085e-05	
195.000000	0.0592775 	195.000000	0.0598096 	195.000000	0.0589182 	195.000000	0.0587308 	195.000000	0.0597896 	195.000000	2.00241e-05	
200.000000	0.0583409 	200.000000	0.0588647 	200.000000	0.0579832 	200.000000	0.0577946 	200.000000	0.0588451 	200.000000	1.95629e-05	
210.000000	0.0565942 	210.000000	0.0571049 	210.000000	0.0562342 	210.000000	0.0560513 	210.000000	0.0570862 	210.000000	1.87037e-05	
220.000000	0.0549978 	220.000000	0.0554999 	220.000000	0.0546443 	220.000000	0.0544613 	220.000000	0.055482  	220.000000	1.79194e-05	
230.000000	0.0535329 	230.000000	0.05403   	230.000000	0.0531837 	230.000000	0.0530053 	230.000000	0.0540128 	230.000000	1.72005e-05	
240.000000	0.0521838 	240.000000	0.0526789 	240.000000	0.051844  	240.000000	0.0516673 	240.000000	0.0526624 	240.000000	1.6539e-05	
250.000000	0.0509373 	250.000000	0.0514329 	250.000000	0.0506127 	250.000000	0.0504338 	250.000000	0.051417  	250.000000	1.59283e-05	
260.000000	0.0497821 	260.000000	0.0502803 	260.000000	0.0494693 	260.000000	0.049293  	260.000000	0.0502649 	260.000000	1.53626e-05	
270.000000	0.0487083 	270.000000	0.049211  	270.000000	0.0484078 	270.000000	0.0482351 	270.000000	0.0491962 	270.000000	1.48372e-05	
280.000000	0.0477078 	280.000000	0.0482164 	280.000000	0.0474251 	280.000000	0.0472516 	280.000000	0.0482021 	280.000000	1.43477e-05	
290.000000	0.0467733 	290.000000	0.0472891 	290.000000	0.0465045 	290.000000	0.046335  	290.000000	0.0472752 	290.000000	1.38906e-05	
300.000000	0.0458985 	300.000000	0.0464225 	300.000000	0.0456471 	300.000000	0.0454789 	300.000000	0.046409  	300.000000	1.34628e-05	
310.000000	0.0450779 	310.000000	0.0456109 	310.000000	0.0448459 	310.000000	0.0446776 	310.000000	0.0455978 	310.000000	1.30615e-05	
320.000000	0.0443066 	320.000000	0.0448494 	320.000000	0.0440906 	320.000000	0.0439261 	320.000000	0.0448367 	320.000000	1.26842e-05	
330.000000	0.0435803 	330.000000	0.0441335 	330.000000	0.043384  	330.000000	0.0432202 	330.000000	0.0441212 	330.000000	1.23288e-05	
340.000000	0.0428953 	340.000000	0.0434594 	340.000000	0.0427199 	340.000000	0.0425558 	340.000000	0.0434474 	340.000000	1.19936e-05	
350.000000	0.0422482 	350.000000	0.0428235 	350.000000	0.0420904 	350.000000	0.0419296 	350.000000	0.0428119 	350.000000	1.16767e-05	
360.000000	0.041636  	360.000000	0.0422229 	360.000000	0.0414979 	360.000000	0.0413385 	360.000000	0.0422115 	360.000000	1.13767e-05	
370.000000	0.041056  	370.000000	0.0416547 	370.000000	0.0409398 	370.000000	0.0407797 	370.000000	0.0416436 	370.000000	1.10923e-05	
380.000000	0.0405058 	380.000000	0.0411164 	380.000000	0.0404089 	380.000000	0.0402507 	380.000000	0.0411056 	380.000000	1.08222e-05	
390.000000	0.0399831 	390.000000	0.0406059 	390.000000	0.0399049 	390.000000	0.0397493 	390.000000	0.0405953 	390.000000	1.05655e-05	
400.000000	0.0394861 	400.000000	0.0401211 	400.000000	0.0394291 	400.000000	0.0392735 	400.000000	0.0401108 	400.000000	1.0321e-05	
410.000000	0.0390129 	410.000000	0.0396601 	410.000000	0.0389774 	410.000000	0.0388215 	410.000000	0.03965   	410.000000	1.00881e-05	
420.000000	0.038562  	420.000000	0.0392214 	420.000000	0.0385456 	420.000000	0.0383916 	420.000000	0.0392115 	420.000000	9.86574e-06	
430.000000	0.0381317 	430.000000	0.0388034 	430.000000	0.0381341 	430.000000	0.0379823 	430.000000	0.0387937 	430.000000	9.65335e-06	
440.000000	0.0377209 	440.000000	0.0384047 	440.000000	0.0377439 	440.000000	0.0375922 	440.000000	0.0383953 	440.000000	9.45022e-06	
450.000000	0.0373283 	450.000000	0.0380242 	450.000000	0.0373724 	450.000000	0.0372202 	450.000000	0.0380149 	450.000000	9.25577e-06	
460.000000	0.0369527 	460.000000	0.0376606 	460.000000	0.037016  	460.000000	0.0368649 	460.000000	0.0376515 	460.000000	9.06943e-06	
470.000000	0.0365931 	470.000000	0.0373129 	470.000000	0.0366745 	470.000000	0.0365255 	470.000000	0.037304  	470.000000	8.89071e-06	
480.000000	0.0362485 	480.000000	0.0369802 	480.000000	0.0363488 	480.000000	0.0362009 	480.000000	0.0369715 	480.000000	8.71915e-06	
490.000000	0.0359182 	490.000000	0.0366615 	490.000000	0.0360385 	490.000000	0.0358902 	490.000000	0.0366529 	490.000000	8.55431e-06	
500.000000	0.0356012 	500.000000	0.036356  	500.000000	0.0357412 	500.000000	0.0355927 	500.000000	0.0363476 	500.000000	8.3958e-06	
520.000000	0.0350044 	520.000000	0.0357819 	520.000000	0.0351795 	520.000000	0.035034  	520.000000	0.0357738 	520.000000	8.09638e-06	
540.000000	0.0344529 	540.000000	0.0352523 	540.000000	0.0346639 	540.000000	0.0345193 	540.000000	0.0352445 	540.000000	7.81827e-06	
560.000000	0.033942  	560.000000	0.0347626 	560.000000	0.0341887 	560.000000	0.034044  	560.000000	0.0347551 	560.000000	7.55927e-06	
580.000000	0.0334677 	580.000000	0.0343089 	580.000000	0.0337462 	580.000000	0.0336042 	580.000000	0.0343015 	580.000000	7.31744e-06	
600.000000	0.0330265 	600.000000	0.0338875 	600.000000	0.0333375 	600.000000	0.0331962 	600.000000	0.0338804 	600.000000	7.09112e-06	
620.000000	0.0326155 	620.000000	0.0334956 	620.000000	0.0329587 	620.000000	0.0328171 	620.000000	0.0334887 	620.000000	6.87885e-06	
640.000000	0.0322319 	640.000000	0.0331303 	640.000000	0.0326037 	640.000000	0.0324641 	640.000000	0.0331236 	640.000000	6.67933e-06	
660.000000	0.0318733 	660.000000	0.0327894 	660.000000	0.0322728 	660.000000	0.0321348 	660.000000	0.0327829 	660.000000	6.49144e-06	
680.000000	0.0315378 	680.000000	0.0324707 	680.000000	0.0319656 	680.000000	0.0318272 	680.000000	0.0324644 	680.000000	6.31419e-06	
700.000000	0.0312233 	700.000000	0.0321723 	700.000000	0.0316777 	700.000000	0.0315395 	700.000000	0.0321662 	700.000000	6.14668e-06	
720.000000	0.0309283 	720.000000	0.0318928 	720.000000	0.0314063 	720.000000	0.0312699 	720.000000	0.0318868 	720.000000	5.98812e-06	
740.000000	0.0306512 	740.000000	0.0316304 	740.000000	0.031152  	740.000000	0.031017  	740.000000	0.0316246 	740.000000	5.83781e-06	
760.000000	0.0303907 	760.000000	0.031384  	760.000000	0.0309146 	760.000000	0.0307794 	760.000000	0.0313783 	760.000000	5.69511e-06	
780.000000	0.0301456 	780.000000	0.0311523 	780.000000	0.0306914 	780.000000	0.0305559 	780.000000	0.0311467 	780.000000	5.55945e-06	
800.000000	0.0299149 	800.000000	0.0309342 	800.000000	0.0304802 	800.000000	0.0303456 	800.000000	0.0309288 	800.000000	5.43032e-06	
820.000000	0.0296974 	820.000000	0.0307288 	820.000000	0.0302814 	820.000000	0.0301484 	820.000000	0.0307235 	820.000000	5.30725e-06	
840.000000	0.0294924 	840.000000	0.0305352 	840.000000	0.0300991 	840.000000	0.0299669 	840.000000	0.03053   	840.000000	5.18982e-06	
860.000000	0.0292989 	860.000000	0.0303526 	860.000000	0.0299279 	860.000000	0.0297956 	860.000000	0.0303476 	860.000000	5.07764e-06	
880.000000	0.0291164 	880.000000	0.0301803 	880.000000	0.0297664 	880.000000	0.0296338 	880.000000	0.0301753 	880.000000	4.97038e-06	
900.000000	0.0289439 	900.000000	0.0300175 	900.000000	0.0296131 	900.000000	0.0294808 	900.000000	0.0300127 	900.000000	4.8677e-06	
920.000000	0.0287811 	920.000000	0.0298637 	920.000000	0.0294673 	920.000000	0.0293361 	920.000000	0.029859  	920.000000	4.76932e-06	
940.000000	0.0286272 	940.000000	0.0297184 	940.000000	0.0293291 	940.000000	0.029199  	940.000000	0.0297137 	940.000000	4.67497e-06	
960.000000	0.0284818 	960.000000	0.0295809 	960.000000	0.0291986 	960.000000	0.0290692 	960.000000	0.0295763 	960.000000	4.5844e-06	
980.000000	0.0283443 	980.000000	0.0294509 	980.000000	0.0290755 	980.000000	0.0289461 	980.000000	0.0294464 	980.000000	4.49739e-06	
1000.000000	0.0282143 	1000.000000	0.0293278 	1000.000000	0.028959  	1000.000000	0.0288294 	1000.000000	0.0293234 	1000.000000	4.41374e-06	
1020.000000	0.0280914 	1020.000000	0.0292114 	1020.000000	0.0288484 	1020.000000	0.0287186 	1020.000000	0.0292071 	1020.000000	4.33324e-06	
1040.000000	0.0279752 	1040.000000	0.0291012 	1040.000000	0.0287428 	1040.000000	0.0286134 	1040.000000	0.0290969 	1040.000000	4.25572e-06	
1060.000000	0.0278654 	1060.000000	0.0289968 	1060.000000	0.0286421 	1060.000000	0.0285135 	1060.000000	0.0289926 	1060.000000	4.18102e-06	
1080.000000	0.0277616 	1080.000000	0.028898  	1080.000000	0.0285462 	1080.000000	0.0284185 	1080.000000	0.0288939 	1080.000000	4.10898e-06	
1100.000000	0.0276635 	1100.000000	0.0288045 	1100.000000	0.0284553 	1100.000000	0.0283282 	1100.000000	0.0288004 	1100.000000	4.03947e-06	
1120.000000	0.0275709 	1120.000000	0.0287159 	1120.000000	0.0283691 	1120.000000	0.0282424 	1120.000000	0.0287119 	1120.000000	3.97234e-06	
1140.000000	0.0274834 	1140.000000	0.0286321 	1140.000000	0.0282874 	1140.000000	0.0281607 	1140.000000	0.0286282 	1140.000000	3.90749e-06	
1160.000000	0.0274008 	1160.000000	0.0285527 	1160.000000	0.0282099 	1160.000000	0.028083  	1160.000000	0.0285489 	1160.000000	3.84479e-06	
1180.000000	0.0273228 	1180.000000	0.0284777 	1180.000000	0.028136  	1180.000000	0.028009  	1180.000000	0.0284739 	1180.000000	3.78413e-06	
1200.000000	0.0272494 	1200.000000	0.0284066 	1200.000000	0.0280655 	1200.000000	0.0279385 	1200.000000	0.0284029 	1200.000000	3.72542e-06	
1220.000000	0.0271802 	1220.000000	0.0283395 	1220.000000	0.0279981 	1220.000000	0.0278714 	1220.000000	0.0283358 	1220.000000	3.66857e-06	
1240.000000	0.027115  	1240.000000	0.028276  	1240.000000	0.0279336 	1240.000000	0.0278075 	1240.000000	0.0282723 	1240.000000	3.61348e-06	
1260.000000	0.0270537 	1260.000000	0.028216  	1260.000000	0.0278721 	1260.000000	0.0277466 	1260.000000	0.0282124 	1260.000000	3.56008e-06	
1280.000000	0.0269962 	1280.000000	0.0281593 	1280.000000	0.0278134 	1280.000000	0.0276885 	1280.000000	0.0281558 	1280.000000	3.50829e-06	
1300.000000	0.0269422 	1300.000000	0.0281058 	1300.000000	0.0277576 	1300.000000	0.0276332 	1300.000000	0.0281024 	1300.000000	3.45803e-06	
1320.000000	0.0268916 	1320.000000	0.0280554 	1320.000000	0.0277046 	1320.000000	0.0275805 	1320.000000	0.028052  	1320.000000	3.40923e-06	
1340.000000	0.0268442 	1340.000000	0.0280079 	1340.000000	0.0276543 	1340.000000	0.0275302 	1340.000000	0.0280046 	1340.000000	3.36184e-06	
1360.000000	0.0268    	1360.000000	0.0279632 	1360.000000	0.0276065 	1360.000000	0.0274823 	1360.000000	0.0279599 	1360.000000	3.3158e-06	
1380.000000	0.0267588 	1380.000000	0.0279211 	1380.000000	0.0275609 	1380.000000	0.0274366 	1380.000000	0.0279179 	1380.000000	3.27104e-06	
1400.000000	0.0267204 	1400.000000	0.0278817 	1400.000000	0.0275175 	1400.000000	0.0273931 	1400.000000	0.0278784 	1400.000000	3.22751e-06	
1420.000000	0.0266849 	1420.000000	0.0278446 	1420.000000	0.0274761 	1420.000000	0.0273515 	1420.000000	0.0278414 	1420.000000	3.18516e-06	
1440.000000	0.0266519 	1440.000000	0.0278099 	1440.000000	0.0274364 	1440.000000	0.027312  	1440.000000	0.0278068 	1440.000000	3.14395e-06	
1460.000000	0.0266216 	1460.000000	0.0277775 	1460.000000	0.0273985 	1460.000000	0.0272742 	1460.000000	0.0277744 	1460.000000	3.10382e-06	
1480.000000	0.0265937 	1480.000000	0.0277472 	1480.000000	0.0273622 	1480.000000	0.0272383 	1480.000000	0.0277441 	1480.000000	3.06474e-06	
1500.000000	0.0265682 	1500.000000	0.027719  	1500.000000	0.0273275 	1500.000000	0.027204  	1500.000000	0.0277159 	1500.000000	3.02666e-06	
1520.000000	0.0265449 	1520.000000	0.0276928 	1520.000000	0.0272945 	1520.000000	0.0271714 	1520.000000	0.0276898 	1520.000000	2.98955e-06	
1540.000000	0.0265239 	1540.000000	0.0276685 	1540.000000	0.0272629 	1540.000000	0.0271403 	1540.000000	0.0276655 	1540.000000	2.95337e-06	
1560.000000	0.026505  	1560.000000	0.027646  	1560.000000	0.0272329 	1560.000000	0.0271106 	1560.000000	0.0276431 	1560.000000	2.91808e-06	
1580.000000	0.0264882 	1580.000000	0.0276254 	1580.000000	0.0272044 	1580.000000	0.0270824 	1580.000000	0.0276225 	1580.000000	2.88365e-06	
1600.000000	0.0264733 	1600.000000	0.0276064 	1600.000000	0.0271774 	1600.000000	0.0270556 	1600.000000	0.0276036 	1600.000000	2.85006e-06	
1620.000000	0.0264603 	1620.000000	0.0275891 	1620.000000	0.0271517 	1620.000000	0.02703   	1620.000000	0.0275863 	1620.000000	2.81726e-06	
1640.000000	0.0264492 	1640.000000	0.0275734 	1640.000000	0.0271274 	1640.000000	0.0270057 	1640.000000	0.0275706 	1640.000000	2.78523e-06	
1660.000000	0.0264399 	1660.000000	0.0275592 	1660.000000	0.0271043 	1660.000000	0.0269826 	1660.000000	0.0275565 	1660.000000	2.75395e-06	
1680.000000	0.0264323 	1680.000000	0.0275465 	1680.000000	0.0270824 	1680.000000	0.0269606 	1680.000000	0.0275438 	1680.000000	2.72338e-06	
1700.000000	0.0264264 	1700.000000	0.0275352 	1700.000000	0.0270616 	1700.000000	0.0269397 	1700.000000	0.0275326 	1700.000000	2.69351e-06	
1750.000000	0.0264186 	1750.000000	0.027513  	1750.000000	0.0270141 	1750.000000	0.0268921 	1750.000000	0.0275104 	1750.000000	2.62171e-06	
1800.000000	0.0264202 	1800.000000	0.0274986 	1800.000000	0.0269723 	1800.000000	0.0268504 	1800.000000	0.0274961 	1800.000000	2.55376e-06	
1850.000000	0.0264305 	1850.000000	0.0274915 	1850.000000	0.0269356 	1850.000000	0.026814  	1850.000000	0.0274891 	1850.000000	2.48935e-06	
1900.000000	0.0264488 	1900.000000	0.0274912 	1900.000000	0.0269037 	1900.000000	0.0267826 	1900.000000	0.0274887 	1900.000000	2.42821e-06	
1950.000000	0.0264747 	1950.000000	0.027497  	1950.000000	0.0268761 	1950.000000	0.0267556 	1950.000000	0.0274946 	1950.000000	2.3701e-06	
2000.000000	0.0265075 	2000.000000	0.0275085 	2000.000000	0.0268526 	2000.000000	0.0267327 	2000.000000	0.0275062 	2000.000000	2.31479e-06	
2100.000000	0.0265924 	2100.000000	0.0275471 	2100.000000	0.0268166 	2100.000000	0.0266976 	2100.000000	0.0275449 	2100.000000	2.21179e-06	
2200.000000	0.0267003 	2200.000000	0.0276041 	2200.000000	0.0267934 	2200.000000	0.0266748 	2200.000000	0.027602  	2200.000000	2.11784e-06	
2300.000000	0.0268286 	2300.000000	0.027677  	2300.000000	0.0267806 	2300.000000	0.0266623 	2300.000000	0.027675  	2300.000000	2.03178e-06	
2400.000000	0.026975  	2400.000000	0.027764  	2400.000000	0.0267767 	2400.000000	0.0266584 	2400.000000	0.027762  	2400.000000	1.95264e-06	
2500.000000	0.0271377 	2500.000000	0.0278632 	2500.000000	0.02678   	2500.000000	0.0266619 	2500.000000	0.0278613 	2500.000000	1.87962e-06	
2600.000000	0.027315  	2600.000000	0.0279733 	2600.000000	0.0267895 	2600.000000	0.0266716 	2600.000000	0.0279715 	2600.000000	1.81203e-06	
2700.000000	0.0275056 	2700.000000	0.028093  	2700.000000	0.0268042 	2700.000000	0.0266865 	2700.000000	0.0280913 	2700.000000	1.74927e-06	
2800.000000	0.0277083 	2800.000000	0.0282213 	2800.000000	0.0268234 	2800.000000	0.0267059 	2800.000000	0.0282196 	2800.000000	1.69084e-06	
2900.000000	0.0279221 	2900.000000	0.0283574 	2900.000000	0.0268462 	2900.000000	0.0267291 	2900.000000	0.0283557 	2900.000000	1.6363e-06	
3000.000000	0.0281461 	3000.000000	0.0285003 	3000.000000	0.0268722 	3000.000000	0.0267555 	3000.000000	0.0284987 	3000.000000	1.58528e-06	
3200.000000	0.0286215 	3200.000000	0.0288042 	3200.000000	0.0269321 	3200.000000	0.026816  	3200.000000	0.0288027 	3200.000000	1.49248e-06	
3400.000000	0.0291293 	3400.000000	0.0291286 	3400.000000	0.0269999 	3400.000000	0.0268845 	3400.000000	0.0291272 	3400.000000	1.41024e-06	
3600.000000	0.0296655 	3600.000000	0.02947   	3600.000000	0.0270736 	3600.000000	0.0269586 	3600.000000	0.0294687 	3600.000000	1.33683e-06	
3800.000000	0.0302267 	3800.000000	0.0298255 	3800.000000	0.0271513 	3800.000000	0.0270366 	3800.000000	0.0298242 	3800.000000	1.2709e-06	
4000.000000	0.0308104 	4000.000000	0.030193  	4000.000000	0.0272318 	4000.000000	0.0271173 	4000.000000	0.0301918 	4000.000000	1.21135e-06	
4200.000000	0.0314144 	4200.000000	0.0305706 	4200.000000	0.0273141 	4200.000000	0.0271997 	4200.000000	0.0305694 	4200.000000	1.15729e-06	
4400.000000	0.032037  	4400.000000	0.0309569 	4400.000000	0.0273973 	4400.000000	0.027283  	4400.000000	0.0309558 	4400.000000	1.10797e-06	
4600.000000	0.0326765 	4600.000000	0.0313506 	4600.000000	0.027481  	4600.000000	0.0273667 	4600.000000	0.0313495 	4600.000000	1.06281e-06	
4800.000000	0.0333319 	4800.000000	0.0317508 	4800.000000	0.0275646 	4800.000000	0.0274504 	4800.000000	0.0317498 	4800.000000	1.02129e-06	
5000.000000	0.0340021 	5000.000000	0.0321566 	5000.000000	0.0276478 	5000.000000	0.0275337 	5000.000000	0.0321556 	5000.000000	9.82978e-07	
5250.000000	0.0348593 	5250.000000	0.0326706 	5250.000000	0.0277508 	5250.000000	0.0276369 	5250.000000	0.0326696 	5250.000000	9.39063e-07	
5500.000000	0.0357367 	5500.000000	0.0331911 	5500.000000	0.0278525 	5500.000000	0.0277387 	5500.000000	0.0331902 	5500.000000	8.99012e-07	
6000.000000	0.0375476 	6000.000000	0.0342478 	6000.000000	0.028051  	6000.000000	0.0279375 	6000.000000	0.034247  	6000.000000	8.2861e-07	
6500.000000	0.0394274 	6500.000000	0.0353209 	6500.000000	0.028242  	6500.000000	0.0281288 	6500.000000	0.0353201 	6500.000000	7.68706e-07	
7000.000000	0.0413704 	7000.000000	0.0364061 	7000.000000	0.0284251 	7000.000000	0.0283122 	7000.000000	0.0364053 	7000.000000	7.17095e-07	
7500.000000	0.0433728 	7500.000000	0.0375004 	7500.000000	0.0286004 	7500.000000	0.0284876 	7500.000000	0.0374997 	7500.000000	6.72153e-07	
8000.000000	0.0454314 	8000.000000	0.0386017 	8000.000000	0.0287682 	8000.000000	0.0286554 	8000.000000	0.0386011 	8000.000000	6.32655e-07	
8500.000000	0.047544  	8500.000000	0.0397082 	8500.000000	0.0289283 	8500.000000	0.0288158 	8500.000000	0.0397076 	8500.000000	5.97661e-07	
9000.000000	0.0497086 	9000.000000	0.0408187 	9000.000000	0.0290811 	9000.000000	0.0289693 	9000.000000	0.0408181 	9000.000000	5.66435e-07	
9500.000000	0.0519239 	9500.000000	0.0419321 	9500.000000	0.0292272 	9500.000000	0.0291161 	9500.000000	0.0419316 	9500.000000	5.38395e-07	
10000.000000	0.0541888 	10000.000000	0.0430477 	10000.000000	0.0293673 	10000.000000	0.0292568 	10000.000000	0.0430472 	10000.000000	5.13072e-07	
11000.000000	0.0588635 	11000.000000	0.0452833 	11000.000000	0.0296309 	11000.000000	0.0295212 	11000.000000	0.0452828 	11000.000000	4.69128e-07	
12000.000000	0.0637274 	12000.000000	0.0475218 	12000.000000	0.0298747 	12000.000000	0.0297653 	12000.000000	0.0475214 	12000.000000	4.32291e-07	
13000.000000	0.0687767 	13000.000000	0.049761  	13000.000000	0.0301005 	13000.000000	0.0299916 	13000.000000	0.0497606 	13000.000000	4.00955e-07	
14000.000000	0.074009  	14000.000000	0.0519993 	14000.000000	0.0303102 	14000.000000	0.0302022 	14000.000000	0.0519989 	14000.000000	3.73964e-07	
15000.000000	0.0794228 	15000.000000	0.0542358 	15000.000000	0.0305058 	15000.000000	0.030399  	15000.000000	0.0542354 	15000.000000	3.50465e-07	
16000.000000	0.0850169 	16000.000000	0.0564696 	16000.000000	0.0306891 	16000.000000	0.0305834 	16000.000000	0.0564693 	16000.000000	3.29817e-07	
17000.000000	0.0907908 	17000.000000	0.0587005 	17000.000000	0.0308614 	17000.000000	0.0307568 	17000.000000	0.0587002 	17000.000000	3.11527e-07	
18000.000000	0.0967441 	18000.000000	0.0609281 	18000.000000	0.0310239 	18000.000000	0.0309204 	18000.000000	0.0609278 	18000.000000	2.95208e-07	
19000.000000	0.102877  	19000.000000	0.0631522 	19000.000000	0.0311777 	19000.000000	0.0310751 	19000.000000	0.063152  	19000.000000	2.80557e-07	
20000.000000	0.109189  	20000.000000	0.0653728 	20000.000000	0.0313236 	20000.000000	0.0312218 	20000.000000	0.0653725 	20000.000000	2.67328e-07	
21000.000000	0.115681  	21000.000000	0.0675896 	21000.000000	0.0314618 	21000.000000	0.0313612 	21000.000000	0.0675894 	21000.000000	2.55322e-07	
22000.000000	0.122353  	22000.000000	0.0698028 	22000.000000	0.0315926 	22000.000000	0.031494  	22000.000000	0.0698026 	22000.000000	2.44374e-07	
23000.000000	0.129205  	23000.000000	0.0720124 	23000.000000	0.0317181 	23000.000000	0.0316206 	23000.000000	0.0720121 	23000.000000	2.34351e-07	
24000.000000	0.136239  	24000.000000	0.0742183 	24000.000000	0.0318386 	24000.000000	0.0317417 	24000.000000	0.074218  	24000.000000	2.25139e-07	
25000.000000	0.143454  	25000.000000	0.0764206 	25000.000000	0.0319535 	25000.000000	0.0318577 	25000.000000	0.0764204 	25000.000000	2.16642e-07	
26000.000000	0.150852  	26000.000000	0.0786194 	26000.000000	0.0320632 	26000.000000	0.0319689 	26000.000000	0.0786191 	26000.000000	2.08779e-07	
27000.000000	0.158433  	27000.000000	0.0808147 	27000.000000	0.0321682 	27000.000000	0.0320757 	27000.000000	0.0808145 	27000.000000	2.01482e-07	
28000.000000	0.166197  	28000.000000	0.0830066 	28000.000000	0.032269  	28000.000000	0.0321785 	28000.000000	0.0830064 	28000.000000	1.9469e-07	
29000.000000	0.174147  	29000.000000	0.0851951 	29000.000000	0.032366  	29000.000000	0.0322775 	29000.000000	0.085195  	29000.000000	1.88354e-07	
30000.000000	0.182281  	30000.000000	0.0873804 	30000.000000	0.0324596 	30000.000000	0.0323729 	30000.000000	0.0873803 	30000.000000	1.82427e-07	
32000.000000	0.199111  	32000.000000	0.0917415 	32000.000000	0.0326373 	32000.000000	0.032554  	32000.000000	0.0917413 	32000.000000	1.71653e-07	
34000.000000	0.216693  	34000.000000	0.0960904 	34000.000000	0.0328035 	34000.000000	0.0327236 	34000.000000	0.0960902 	34000.000000	1.62111e-07	
36000.000000	0.235034  	36000.000000	0.100427  	36000.000000	0.0329588 	36000.000000	0.0328828 	36000.000000	0.100427  	36000.000000	1.536e-07 	
38000.000000	0.254143  	38000.000000	0.104753  	38000.000000	0.0331042 	38000.000000	0.0330329 	38000.000000	0.104753  	38000.000000	1.45958e-07	
40000.000000	0.274026  	40000.000000	0.109069  	40000.000000	0.0332411 	40000.000000	0.0331748 	40000.000000	0.109069  	40000.000000	1.3906e-07	
42000.000000	0.294693  	42000.000000	0.113374  	42000.000000	0.0333708 	42000.000000	0.0333093 	42000.000000	0.113374  	42000.000000	1.328e-07 	
44000.000000	0.316151  	44000.000000	0.117669  	44000.000000	0.0334943 	44000.000000	0.0334372 	44000.000000	0.117669  	44000.000000	1.27093e-07	
46000.000000	0.338409  	46000.000000	0.121955  	46000.000000	0.0336121 	46000.000000	0.0335589 	46000.000000	0.121955  	46000.000000	1.21868e-07	
48000.000000	0.361474  	48000.000000	0.126231  	48000.000000	0.0337246 	48000.000000	0.0336751 	48000.000000	0.126231  	48000.000000	1.17066e-07	
50000.000000	0.385355  	50000.000000	0.130499  	50000.000000	0.0338317 	50000.000000	0.0337863 	50000.000000	0.130499  	50000.000000	1.12638e-07	
