Energy (MeV/u)1	0 - [He-base] F.Hubert et al, AD&ND Tables 46(1990)1	Energy (MeV/u)2	1 - [H -base] J.F.Ziegler et al, Pergamon Press, NY (low energy)	Energy (MeV/u)3	2 - ATIMA 1.2  LS-theory (recommended for high energy)	Energy (MeV/u)4	3 - ATIMA 1.2  without LS-correction	Energy (MeV/u)5	4 - electrical component of [1] - J.F.Ziegler et al	Energy (MeV/u)6	5 - nuclear component of [1] - J.F.Ziegler et al	
0.001000	10.0354   	0.001000	3.16853   	0.001000	3.03318   	0.001000	3.03318   	0.001000	0.449651  	0.001000	2.71888   	
0.002000	10.2593   	0.002000	3.37912   	0.002000	3.20075   	0.002000	3.20075   	0.002000	0.622816  	0.002000	2.7563    	
0.005000	10.3076   	0.005000	3.41871   	0.005000	3.16335   	0.005000	3.16335   	0.005000	0.958058  	0.005000	2.46065   	
0.008000	10.4754   	0.008000	3.37094   	0.008000	3.06488   	0.008000	3.06488   	0.008000	1.19489   	0.008000	2.17605   	
0.010000	10.6383   	0.010000	3.34819   	0.010000	3.01491   	0.010000	3.01491   	0.010000	1.32702   	0.010000	2.02117   	
0.015000	11.1172   	0.015000	3.33048   	0.015000	2.94192   	0.015000	2.94192   	0.015000	1.60561   	0.015000	1.72487   	
0.020000	11.6242   	0.020000	3.35213   	0.020000	2.91939   	0.020000	2.91939   	0.020000	1.83806   	0.020000	1.51407   	
0.025000	12.1244   	0.025000	3.39695   	0.025000	2.92684   	0.025000	2.92684   	0.025000	2.0413    	0.025000	1.35565   	
0.030000	12.6074   	0.030000	3.45554   	0.030000	2.95274   	0.030000	2.95274   	0.030000	2.22394   	0.030000	1.2316    	
0.035000	13.0702   	0.035000	3.58003   	0.035000	3.04675   	0.035000	3.04675   	0.035000	2.44864   	0.035000	1.13138   	
0.040000	13.6135   	0.040000	3.7844    	0.040000	3.22134   	0.040000	3.22134   	0.040000	2.73595   	0.040000	1.04846   	
0.045000	14.1908   	0.045000	4.00537   	0.045000	3.41381   	0.045000	3.41381   	0.045000	3.02688   	0.045000	0.978497  	
0.050000	14.6535   	0.050000	4.2394    	0.050000	3.61982   	0.050000	3.61982   	0.050000	3.32085   	0.050000	0.918553  	
0.055000	15.436    	0.055000	4.44235   	0.055000	3.8361    	0.055000	3.8361    	0.055000	3.57584   	0.055000	0.866517  	
0.060000	16.1438   	0.060000	4.64765   	0.060000	4.06011   	0.060000	4.06011   	0.060000	3.8268    	0.060000	0.82085   	
0.070000	17.3903   	0.070000	5.05957   	0.070000	4.52368   	0.070000	4.52368   	0.070000	4.3153    	0.070000	0.744272  	
0.080000	18.7549   	0.080000	5.41416   	0.080000	4.99861   	0.080000	4.99861   	0.080000	4.73178   	0.080000	0.682382  	
0.090000	19.9548   	0.090000	5.74808   	0.090000	5.47676   	0.090000	5.47676   	0.090000	5.11692   	0.090000	0.631166  	
0.100000	21.0231   	0.100000	6.0585    	0.100000	5.95239   	0.100000	5.95239   	0.100000	5.47052   	0.100000	0.587976  	
0.120000	22.3628   	0.120000	6.79709   	0.120000	6.88089   	0.120000	6.88089   	0.120000	6.27818   	0.120000	0.518906  	
0.140000	23.7661   	0.140000	7.60441   	0.140000	7.7636    	0.140000	7.7636    	0.140000	7.13853   	0.140000	0.46588   	
0.160000	25.4407   	0.160000	8.4172    	0.160000	8.58699   	0.160000	8.58699   	0.160000	7.99739   	0.160000	0.419806  	
0.180000	27.019    	0.180000	9.16372   	0.180000	9.35592   	0.180000	9.35592   	0.180000	8.77795   	0.180000	0.385771  	
0.200000	28.5497   	0.200000	9.84302   	0.200000	10.0664   	0.200000	10.0664   	0.200000	9.48568   	0.200000	0.357346  	
0.250000	31.2624   	0.250000	11.3575   	0.250000	11.606    	0.250000	11.606    	0.250000	11.0544   	0.250000	0.303077  	
0.300000	33.7126   	0.300000	12.5975   	0.300000	12.859    	0.300000	12.859    	0.300000	12.3332   	0.300000	0.264276  	
0.350000	35.9837   	0.350000	13.6653   	0.350000	13.8896   	0.350000	13.8896   	0.350000	13.4303   	0.350000	0.23501   	
0.400000	37.9929   	0.400000	14.5808   	0.400000	14.7516   	0.400000	14.7516   	0.400000	14.3687   	0.400000	0.212067  	
0.450000	39.7547   	0.450000	15.382    	0.450000	15.4858   	0.450000	15.4858   	0.450000	15.1884   	0.450000	0.193548  	
0.500000	41.2936   	0.500000	16.0946   	0.500000	16.1223   	0.500000	16.1223   	0.500000	15.9164   	0.500000	0.178254  	
0.600000	42.4172   	0.600000	17.3877   	0.600000	17.5073   	0.600000	17.5073   	0.600000	17.2333   	0.600000	0.1544    	
0.700000	43.2716   	0.700000	18.6759   	0.700000	18.6285   	0.700000	18.6285   	0.700000	18.5393   	0.700000	0.136587  	
0.800000	45.1534   	0.800000	19.7347   	0.800000	19.5431   	0.800000	19.5431   	0.800000	19.612    	0.800000	0.12273   	
0.900000	46.6012   	0.900000	20.6362   	0.900000	20.3032   	0.900000	20.3032   	0.900000	20.5246   	0.900000	0.111615  	
1.000000	47.7122   	1.000000	21.4114   	1.000000	20.9428   	1.000000	20.9428   	1.000000	21.309    	1.000000	0.102484  	
1.250000	49.1543   	1.250000	22.5087   	1.250000	22.1536   	1.250000	22.1536   	1.250000	22.4232   	1.250000	0.0854275 	
1.500000	49.6609   	1.500000	23.167    	1.500000	22.9732   	1.500000	22.9732   	1.500000	23.0935   	1.500000	0.0735319 	
1.750000	49.6504   	1.750000	23.5475   	1.750000	23.528    	1.750000	23.528    	1.750000	23.4828   	1.750000	0.0647248 	
2.000000	49.1534   	2.000000	23.6535   	2.000000	23.8958   	2.000000	23.8958   	2.000000	23.5956   	2.000000	0.0579209 	
2.250000	48.5629   	2.250000	23.7114   	2.250000	24.1277   	2.250000	24.1277   	2.250000	23.6589   	2.250000	0.052494  	
2.500000	64.5389   	2.500000	23.6934   	2.500000	24.2593   	2.500000	24.2593   	2.500000	23.6454   	2.500000	0.0480568 	
3.000000	61.7401   	3.000000	23.5001   	3.000000	24.314    	3.000000	24.314    	3.000000	23.4589   	3.000000	0.0412185 	
3.500000	58.9564   	3.500000	23.1297   	3.500000	24.0667   	3.500000	24.0667   	3.500000	23.0935   	3.500000	0.0361788 	
4.000000	56.3128   	4.000000	22.7039   	4.000000	23.7539   	4.000000	23.7539   	4.000000	22.6716   	4.000000	0.0322998 	
4.500000	53.8501   	4.500000	22.261    	4.500000	23.4095   	4.500000	23.4095   	4.500000	22.2317   	4.500000	0.0292153 	
5.000000	51.5744   	5.000000	21.7897   	5.000000	23.0481   	5.000000	23.0481   	5.000000	21.763    	5.000000	0.0266999 	
5.500000	49.4775   	5.500000	21.6541   	5.500000	22.679    	5.500000	22.679    	5.500000	21.6295   	5.500000	0.0246066 	
6.000000	47.5458   	6.000000	21.5032   	6.000000	22.3084   	6.000000	22.3084   	6.000000	21.4803   	6.000000	0.0228355 	
6.500000	45.7642   	6.500000	21.3447   	6.500000	21.9403   	6.500000	21.9403   	6.500000	21.3234   	6.500000	0.0213162 	
7.000000	44.1182   	7.000000	21.1819   	7.000000	21.5773   	7.000000	21.5773   	7.000000	21.1619   	7.000000	0.0199976 	
7.500000	42.594    	7.500000	20.8939   	7.500000	21.2214   	7.500000	21.2214   	7.500000	20.8751   	7.500000	0.0188417 	
8.000000	41.1795   	8.000000	20.61     	8.000000	20.8734   	8.000000	20.8734   	8.000000	20.5922   	8.000000	0.0178196 	
8.500000	39.8635   	8.500000	20.3311   	8.500000	20.5341   	8.500000	20.5341   	8.500000	20.3142   	8.500000	0.0169088 	
9.000000	38.6364   	9.000000	20.0579   	9.000000	20.2039   	9.000000	20.2039   	9.000000	20.0418   	9.000000	0.0160918 	
9.500000	37.4896   	9.500000	19.7907   	9.500000	19.8829   	9.500000	19.8829   	9.500000	19.7753   	9.500000	0.0153546 	
10.000000	36.4155   	10.000000	19.6614   	10.000000	19.5711   	10.000000	19.5711   	10.000000	19.6468   	10.000000	0.0146857 	
11.000000	34.4592   	11.000000	19.1676   	11.000000	18.9606   	11.000000	19.244    	11.000000	19.1541   	11.000000	0.0135176 	
12.000000	32.7228   	12.000000	18.6632   	12.000000	18.3761   	12.000000	18.8901   	12.000000	18.6507   	12.000000	0.0125309 	
13.000000	31.1706   	13.000000	18.1619   	13.000000	17.8186   	13.000000	18.5214   	13.000000	18.1502   	13.000000	0.0116856 	
14.000000	29.7744   	14.000000	17.6715   	14.000000	17.2884   	14.000000	18.1459   	14.000000	17.6605   	14.000000	0.0109529 	
15.000000	28.5113   	15.000000	17.1966   	15.000000	16.7849   	15.000000	17.7694   	15.000000	17.1863   	15.000000	0.0103114 	
16.000000	27.3629   	16.000000	16.7395   	16.000000	16.3066   	16.000000	17.3957   	16.000000	16.7297   	16.000000	0.00974464	
17.000000	26.3139   	17.000000	16.3013   	17.000000	15.8519   	17.000000	17.0273   	17.000000	16.2921   	17.000000	0.00924014	
18.000000	25.3515   	18.000000	15.8823   	18.000000	15.4197   	18.000000	16.6661   	18.000000	15.8735   	18.000000	0.008788  	
19.000000	24.4653   	19.000000	15.4821   	19.000000	14.9894   	19.000000	16.2933   	19.000000	15.4738   	19.000000	0.00838031	
20.000000	23.6464   	20.000000	15.1004   	20.000000	14.6      	20.000000	15.9498   	20.000000	15.0924   	20.000000	0.00801072	
21.000000	22.8872   	21.000000	14.7363   	21.000000	14.2299   	21.000000	15.6163   	21.000000	14.7286   	21.000000	0.00767403	
22.000000	22.1812   	22.000000	14.389    	22.000000	13.8767   	22.000000	15.2928   	22.000000	14.3816   	22.000000	0.00736596	
23.000000	21.5228   	23.000000	14.0577   	23.000000	13.5399   	23.000000	14.9793   	23.000000	14.0506   	23.000000	0.00708294	
24.000000	20.9074   	24.000000	13.7416   	24.000000	13.2197   	24.000000	14.6757   	24.000000	13.7347   	24.000000	0.00682199	
25.000000	20.3307   	25.000000	13.4397   	25.000000	12.9149   	25.000000	14.3817   	25.000000	13.4331   	25.000000	0.00658058	
27.000000	19.2795   	27.000000	12.8756   	27.000000	12.3447   	27.000000	13.8217   	27.000000	12.8694   	27.000000	0.00614806	
29.000000	18.3449   	29.000000	12.3593   	29.000000	11.8218   	29.000000	13.297    	29.000000	12.3535   	29.000000	0.00577154	
31.000000	17.5082   	31.000000	11.8855   	31.000000	11.3705   	31.000000	12.764    	31.000000	11.8801   	31.000000	0.00544064	
33.000000	16.7545   	33.000000	11.4494   	33.000000	10.9823   	33.000000	12.238    	33.000000	11.4443   	33.000000	0.00514741	
35.000000	16.0716   	35.000000	11.0469   	35.000000	10.6237   	35.000000	11.7593   	35.000000	11.0421   	35.000000	0.00488567	
38.000000	15.1594   	38.000000	10.4985   	38.000000	10.1333   	38.000000	11.1165   	38.000000	10.4939   	38.000000	0.00454167	
41.000000	14.359    	41.000000	10.0073   	41.000000	9.69385   	41.000000	10.5492   	41.000000	10.0031   	41.000000	0.00424506	
44.000000	13.6506   	44.000000	9.56513   	44.000000	9.29623   	44.000000	10.0446   	44.000000	9.56115   	44.000000	0.00398656	
47.000000	13.0189   	47.000000	9.16508   	47.000000	8.93549   	47.000000	9.59272   	47.000000	9.16132   	47.000000	0.00375914	
50.000000	12.4518   	50.000000	8.80147   	50.000000	8.60563   	50.000000	9.18546   	50.000000	8.79791   	50.000000	0.00355744	
55.000000	11.6248   	55.000000	8.26401   	55.000000	8.11691   	55.000000	8.58908   	55.000000	8.26074   	55.000000	0.00326743	
60.000000	10.9172   	60.000000	7.79765   	60.000000	7.68893   	60.000000	8.07655   	60.000000	7.79462   	60.000000	0.00302309	
65.000000	10.3043   	65.000000	7.38925   	65.000000	7.31111   	65.000000	7.63118   	65.000000	7.38643   	65.000000	0.00281428	
70.000000	9.76785   	70.000000	7.02869   	70.000000	6.97679   	70.000000	7.24046   	70.000000	7.02606   	70.000000	0.00263366	
75.000000	9.29416   	75.000000	6.70808   	75.000000	6.67762   	75.000000	6.89484   	75.000000	6.7056    	75.000000	0.00247581	
80.000000	8.87257   	80.000000	6.42115   	80.000000	6.40835   	80.000000	6.5869    	80.000000	6.41881   	80.000000	0.00233662	
85.000000	8.49475   	85.000000	6.16287   	85.000000	6.16461   	85.000000	6.31075   	85.000000	6.16066   	85.000000	0.00221291	
90.000000	8.15406   	90.000000	5.92919   	90.000000	5.94291   	90.000000	6.06169   	90.000000	5.92708   	90.000000	0.00210221	
95.000000	7.84517   	95.000000	5.71675   	95.000000	5.74121   	95.000000	5.8359    	95.000000	5.71475   	95.000000	0.00200254	
100.000000	7.56373   	100.000000	5.5228    	100.000000	5.55517   	100.000000	5.63027   	100.000000	5.52089   	100.000000	0.00191229	
105.000000	7.30614   	105.000000	5.34503   	105.000000	5.38543   	105.000000	5.44219   	105.000000	5.3432    	105.000000	0.00183019	
110.000000	7.06943   	110.000000	5.18151   	110.000000	5.22788   	110.000000	5.26951   	110.000000	5.17975   	110.000000	0.00175515	
115.000000	6.85109   	115.000000	5.0306    	115.000000	5.08212   	115.000000	5.11041   	115.000000	5.02891   	115.000000	0.00168628	
120.000000	6.64903   	120.000000	4.89089   	120.000000	4.94684   	120.000000	4.96334   	120.000000	4.88927   	120.000000	0.00162286	
125.000000	6.46143   	125.000000	4.76119   	125.000000	4.82077   	125.000000	4.82699   	125.000000	4.75963   	125.000000	0.00156424	
130.000000	6.28676   	130.000000	4.64047   	130.000000	4.70341   	130.000000	4.70023   	130.000000	4.63896   	130.000000	0.00150989	
135.000000	6.1237    	135.000000	4.52783   	135.000000	4.59337   	135.000000	4.58208   	135.000000	4.52637   	135.000000	0.00145935	
140.000000	5.9711    	140.000000	4.42248   	140.000000	4.49023   	140.000000	4.4717    	140.000000	4.42107   	140.000000	0.00141224	
145.000000	5.82796   	145.000000	4.32375   	145.000000	4.39369   	145.000000	4.36834   	145.000000	4.32238   	145.000000	0.00136821	
150.000000	5.6934    	150.000000	4.23103   	150.000000	4.30298   	150.000000	4.27136   	150.000000	4.22971   	150.000000	0.00132695	
155.000000	5.50165   	155.000000	4.1438    	155.000000	4.21682   	155.000000	4.18018   	155.000000	4.14251   	155.000000	0.00128823	
160.000000	5.39039   	160.000000	4.06158   	160.000000	4.13542   	160.000000	4.0943    	160.000000	4.06032   	160.000000	0.00125179	
165.000000	5.2853    	165.000000	3.98395   	165.000000	4.05896   	165.000000	4.01328   	165.000000	3.98273   	165.000000	0.00121745	
170.000000	5.18586   	170.000000	3.91054   	170.000000	3.98642   	170.000000	3.93672   	170.000000	3.90936   	170.000000	0.00118503	
175.000000	5.09164   	175.000000	3.84103   	175.000000	3.91744   	175.000000	3.86425   	175.000000	3.83988   	175.000000	0.00115436	
180.000000	5.00223   	180.000000	3.77511   	180.000000	3.85209   	180.000000	3.79557   	180.000000	3.77398   	180.000000	0.00112531	
185.000000	4.91726   	185.000000	3.7125    	185.000000	3.7899    	185.000000	3.73038   	185.000000	3.71141   	185.000000	0.00109775	
190.000000	4.8364    	190.000000	3.65298   	190.000000	3.73052   	190.000000	3.66843   	190.000000	3.65191   	190.000000	0.00107157	
195.000000	4.75937   	195.000000	3.59632   	195.000000	3.67391   	195.000000	3.60948   	195.000000	3.59527   	195.000000	0.00104666	
200.000000	4.68589   	200.000000	3.54231   	200.000000	3.62      	200.000000	3.55333   	200.000000	3.54129   	200.000000	0.00102293	
210.000000	4.54865   	210.000000	3.44156   	210.000000	3.51946   	210.000000	3.44865   	210.000000	3.44059   	210.000000	0.000978701	
220.000000	4.42298   	220.000000	3.34948   	220.000000	3.42697   	220.000000	3.35305   	220.000000	3.34854   	220.000000	0.000938289	
230.000000	4.30747   	230.000000	3.265     	230.000000	3.34254   	230.000000	3.26542   	230.000000	3.2641    	230.000000	0.000901218	
240.000000	4.20093   	240.000000	3.18722   	240.000000	3.26413   	240.000000	3.18481   	240.000000	3.18635   	240.000000	0.000867085	
250.000000	4.10235   	250.000000	3.11539   	250.000000	3.1917    	250.000000	3.11042   	250.000000	3.11456   	250.000000	0.000835548	
260.000000	4.01087   	260.000000	3.04886   	260.000000	3.12473   	260.000000	3.04157   	260.000000	3.04806   	260.000000	0.000806319	
270.000000	3.92575   	270.000000	2.98708   	270.000000	3.06215   	270.000000	2.97768   	270.000000	2.9863    	270.000000	0.000779149	
280.000000	3.84635   	280.000000	2.92955   	280.000000	3.00389   	280.000000	2.91824   	280.000000	2.9288    	280.000000	0.000753825	
290.000000	3.77212   	290.000000	2.87587   	290.000000	2.94967   	290.000000	2.86281   	290.000000	2.87514   	290.000000	0.000730163	
300.000000	3.70256   	300.000000	2.82566   	300.000000	2.89893   	300.000000	2.81101   	300.000000	2.82495   	300.000000	0.000708002	
310.000000	3.63725   	310.000000	2.77861   	310.000000	2.85135   	310.000000	2.7625    	310.000000	2.77792   	310.000000	0.000687201	
320.000000	3.57582   	320.000000	2.73443   	320.000000	2.8067    	320.000000	2.71699   	320.000000	2.73376   	320.000000	0.000667638	
330.000000	3.51794   	330.000000	2.69288   	330.000000	2.76453   	330.000000	2.67422   	330.000000	2.69223   	330.000000	0.000649204	
340.000000	3.46331   	340.000000	2.65373   	340.000000	2.72469   	340.000000	2.63395   	340.000000	2.6531    	340.000000	0.000631802	
350.000000	3.41167   	350.000000	2.61679   	350.000000	2.68714   	350.000000	2.59598   	350.000000	2.61617   	350.000000	0.000615346	
360.000000	3.36278   	360.000000	2.58187   	360.000000	2.65165   	360.000000	2.56012   	360.000000	2.58127   	360.000000	0.000599761	
370.000000	3.31644   	370.000000	2.54883   	370.000000	2.61808   	370.000000	2.52622   	370.000000	2.54825   	370.000000	0.000584978	
380.000000	3.27246   	380.000000	2.51752   	380.000000	2.58632   	380.000000	2.49411   	380.000000	2.51695   	380.000000	0.000570937	
390.000000	3.23066   	390.000000	2.48782   	390.000000	2.55614   	390.000000	2.46367   	390.000000	2.48726   	390.000000	0.000557581	
400.000000	3.19089   	400.000000	2.4596    	400.000000	2.52732   	400.000000	2.43477   	400.000000	2.45906   	400.000000	0.000544861	
410.000000	3.15301   	410.000000	2.43277   	410.000000	2.49992   	410.000000	2.40731   	410.000000	2.43223   	410.000000	0.000532732	
420.000000	3.1169    	420.000000	2.40722   	420.000000	2.474     	420.000000	2.38119   	420.000000	2.4067    	420.000000	0.000521154	
430.000000	3.08244   	430.000000	2.38287   	430.000000	2.44933   	430.000000	2.35632   	430.000000	2.38236   	430.000000	0.000510089	
440.000000	3.04951   	440.000000	2.35965   	440.000000	2.42569   	440.000000	2.33261   	440.000000	2.35915   	440.000000	0.000499502	
450.000000	3.01804   	450.000000	2.33748   	450.000000	2.40306   	450.000000	2.30999   	450.000000	2.33699   	450.000000	0.000489365	
460.000000	2.98791   	460.000000	2.31629   	460.000000	2.38145   	460.000000	2.28838   	460.000000	2.31581   	460.000000	0.000479647	
470.000000	2.95907   	470.000000	2.29603   	470.000000	2.36081   	470.000000	2.26774   	470.000000	2.29556   	470.000000	0.000470324	
480.000000	2.93142   	480.000000	2.27664   	480.000000	2.34106   	480.000000	2.24799   	480.000000	2.27617   	480.000000	0.000461371	
490.000000	2.90491   	490.000000	2.25806   	490.000000	2.32215   	490.000000	2.22909   	490.000000	2.25761   	490.000000	0.000452766	
500.000000	2.87946   	500.000000	2.24025   	500.000000	2.30415   	500.000000	2.2111    	500.000000	2.23981   	500.000000	0.000444489	
520.000000	2.83153   	520.000000	2.20677   	520.000000	2.27065   	520.000000	2.17766   	520.000000	2.20634   	520.000000	0.000428847	
540.000000	2.78721   	540.000000	2.17589   	540.000000	2.23983   	540.000000	2.14686   	540.000000	2.17547   	540.000000	0.00041431	
560.000000	2.74614   	560.000000	2.14733   	560.000000	2.21129   	560.000000	2.11842   	560.000000	2.14693   	560.000000	0.000400765	
580.000000	2.708     	580.000000	2.12086   	580.000000	2.1847    	580.000000	2.09211   	580.000000	2.12047   	580.000000	0.000388112	
600.000000	2.67251   	600.000000	2.09629   	600.000000	2.16017   	600.000000	2.06772   	600.000000	2.09591   	600.000000	0.000376263	
620.000000	2.63944   	620.000000	2.07342   	620.000000	2.13745   	620.000000	2.04507   	620.000000	2.07306   	620.000000	0.000365145	
640.000000	2.60856   	640.000000	2.05212   	640.000000	2.11617   	640.000000	2.02399   	640.000000	2.05176   	640.000000	0.00035469	
660.000000	2.57969   	660.000000	2.03223   	660.000000	2.09626   	660.000000	2.00434   	660.000000	2.03189   	660.000000	0.00034484	
680.000000	2.55267   	680.000000	2.01364   	680.000000	2.07767   	680.000000	1.986     	680.000000	2.01331   	680.000000	0.000335544	
700.000000	2.52734   	700.000000	1.99624   	700.000000	2.06037   	700.000000	1.96886   	700.000000	1.99591   	700.000000	0.000326755	
720.000000	2.50357   	720.000000	1.97994   	720.000000	2.04426   	720.000000	1.95281   	720.000000	1.97962   	720.000000	0.000318433	
740.000000	2.48124   	740.000000	1.96464   	740.000000	2.02913   	740.000000	1.93778   	740.000000	1.96433   	740.000000	0.00031054	
760.000000	2.46025   	760.000000	1.95027   	760.000000	2.01485   	760.000000	1.92367   	760.000000	1.94996   	760.000000	0.000303044	
780.000000	2.44049   	780.000000	1.93676   	780.000000	2.0014    	780.000000	1.91042   	780.000000	1.93646   	780.000000	0.000295915	
800.000000	2.42189   	800.000000	1.92405   	800.000000	1.98874   	800.000000	1.89797   	800.000000	1.92376   	800.000000	0.000289127	
820.000000	2.40435   	820.000000	1.91208   	820.000000	1.97685   	820.000000	1.88625   	820.000000	1.9118    	820.000000	0.000282656	
840.000000	2.38782   	840.000000	1.9008    	840.000000	1.96565   	840.000000	1.87521   	840.000000	1.90052   	840.000000	0.000276479	
860.000000	2.37221   	860.000000	1.89016   	860.000000	1.95511   	860.000000	1.8648    	860.000000	1.88989   	860.000000	0.000270576	
880.000000	2.35749   	880.000000	1.88012   	880.000000	1.94513   	880.000000	1.85498   	880.000000	1.87985   	880.000000	0.00026493	
900.000000	2.34358   	900.000000	1.87064   	900.000000	1.93567   	900.000000	1.84571   	900.000000	1.87038   	900.000000	0.000259524	
920.000000	2.33044   	920.000000	1.86169   	920.000000	1.92669   	920.000000	1.83696   	920.000000	1.86143   	920.000000	0.000254343	
940.000000	2.31802   	940.000000	1.85323   	940.000000	1.9182    	940.000000	1.82868   	940.000000	1.85298   	940.000000	0.000249372	
960.000000	2.30629   	960.000000	1.84523   	960.000000	1.91017   	960.000000	1.82085   	960.000000	1.84498   	960.000000	0.000244599	
980.000000	2.29519   	980.000000	1.83766   	980.000000	1.90261   	980.000000	1.81345   	980.000000	1.83742   	980.000000	0.000240013	
1000.000000	2.2847    	1000.000000	1.83051   	1000.000000	1.89547   	1000.000000	1.80643   	1000.000000	1.83027   	1000.000000	0.000235602	
1020.000000	2.27478   	1020.000000	1.82374   	1020.000000	1.88873   	1020.000000	1.79979   	1020.000000	1.82351   	1020.000000	0.000231357	
1040.000000	2.2654    	1040.000000	1.81734   	1040.000000	1.88233   	1040.000000	1.79349   	1040.000000	1.81711   	1040.000000	0.000227267	
1060.000000	2.25654   	1060.000000	1.81127   	1060.000000	1.87627   	1060.000000	1.78753   	1060.000000	1.81105   	1060.000000	0.000223325	
1080.000000	2.24816   	1080.000000	1.80554   	1080.000000	1.8705    	1080.000000	1.78187   	1080.000000	1.80532   	1080.000000	0.000219523	
1100.000000	2.24024   	1100.000000	1.80011   	1100.000000	1.86501   	1100.000000	1.7765    	1100.000000	1.79989   	1100.000000	0.000215853	
1120.000000	2.23276   	1120.000000	1.79497   	1120.000000	1.85978   	1120.000000	1.7714    	1120.000000	1.79476   	1120.000000	0.000212309	
1140.000000	2.2257    	1140.000000	1.79011   	1140.000000	1.85479   	1140.000000	1.76657   	1140.000000	1.7899    	1140.000000	0.000208883	
1160.000000	2.21903   	1160.000000	1.78551   	1160.000000	1.85005   	1160.000000	1.76198   	1160.000000	1.78531   	1160.000000	0.000205571	
1180.000000	2.21274   	1180.000000	1.78117   	1180.000000	1.84554   	1180.000000	1.75762   	1180.000000	1.78096   	1180.000000	0.000202366	
1200.000000	2.20681   	1200.000000	1.77706   	1200.000000	1.84128   	1200.000000	1.75348   	1200.000000	1.77686   	1200.000000	0.000199263	
1220.000000	2.20122   	1220.000000	1.77317   	1220.000000	1.83724   	1220.000000	1.74955   	1220.000000	1.77297   	1220.000000	0.000196257	
1240.000000	2.19596   	1240.000000	1.7695    	1240.000000	1.83342   	1240.000000	1.74582   	1240.000000	1.76931   	1240.000000	0.000193345	
1260.000000	2.19101   	1260.000000	1.76604   	1260.000000	1.8298    	1260.000000	1.74227   	1260.000000	1.76585   	1260.000000	0.00019052	
1280.000000	2.18637   	1280.000000	1.76277   	1280.000000	1.82636   	1280.000000	1.7389    	1280.000000	1.76258   	1280.000000	0.000187781	
1300.000000	2.182     	1300.000000	1.75969   	1300.000000	1.82308   	1300.000000	1.7357    	1300.000000	1.7595    	1300.000000	0.000185122	
1320.000000	2.17792   	1320.000000	1.75678   	1320.000000	1.81995   	1320.000000	1.73266   	1320.000000	1.7566    	1320.000000	0.00018254	
1340.000000	2.1741    	1340.000000	1.75405   	1340.000000	1.81697   	1340.000000	1.72977   	1340.000000	1.75387   	1340.000000	0.000180031	
1360.000000	2.17053   	1360.000000	1.75148   	1360.000000	1.81413   	1360.000000	1.72703   	1360.000000	1.7513    	1360.000000	0.000177594	
1380.000000	2.1672    	1380.000000	1.74907   	1380.000000	1.81142   	1380.000000	1.72443   	1380.000000	1.74889   	1380.000000	0.000175224	
1400.000000	2.1641    	1400.000000	1.7468    	1400.000000	1.80884   	1400.000000	1.72195   	1400.000000	1.74663   	1400.000000	0.000172919	
1420.000000	2.16123   	1420.000000	1.74468   	1420.000000	1.80639   	1420.000000	1.71961   	1420.000000	1.74451   	1420.000000	0.000170676	
1440.000000	2.15858   	1440.000000	1.7427    	1440.000000	1.80406   	1440.000000	1.71738   	1440.000000	1.74253   	1440.000000	0.000168492	
1460.000000	2.15613   	1460.000000	1.74085   	1460.000000	1.80186   	1460.000000	1.71527   	1460.000000	1.74068   	1460.000000	0.000166366	
1480.000000	2.15388   	1480.000000	1.73912   	1480.000000	1.79976   	1480.000000	1.71327   	1480.000000	1.73896   	1480.000000	0.000164295	
1500.000000	2.15182   	1500.000000	1.73752   	1500.000000	1.79778   	1500.000000	1.71137   	1500.000000	1.73736   	1500.000000	0.000162277	
1520.000000	2.14994   	1520.000000	1.73603   	1520.000000	1.7959    	1520.000000	1.70957   	1520.000000	1.73587   	1520.000000	0.00016031	
1540.000000	2.14825   	1540.000000	1.73466   	1540.000000	1.79411   	1540.000000	1.70786   	1540.000000	1.7345    	1540.000000	0.000158391	
1560.000000	2.14672   	1560.000000	1.7334    	1560.000000	1.79242   	1560.000000	1.70625   	1560.000000	1.73324   	1560.000000	0.00015652	
1580.000000	2.14536   	1580.000000	1.73224   	1580.000000	1.79082   	1580.000000	1.70473   	1580.000000	1.73208   	1580.000000	0.000154694	
1600.000000	2.14417   	1600.000000	1.73118   	1600.000000	1.7893    	1600.000000	1.70329   	1600.000000	1.73102   	1600.000000	0.000152912	
1620.000000	2.14312   	1620.000000	1.73021   	1620.000000	1.78786   	1620.000000	1.70192   	1620.000000	1.73006   	1620.000000	0.000151172	
1640.000000	2.14223   	1640.000000	1.72934   	1640.000000	1.7865    	1640.000000	1.70064   	1640.000000	1.72919   	1640.000000	0.000149473	
1660.000000	2.14148   	1660.000000	1.72856   	1660.000000	1.78521   	1660.000000	1.69943   	1660.000000	1.72841   	1660.000000	0.000147813	
1680.000000	2.14087   	1680.000000	1.72787   	1680.000000	1.784     	1680.000000	1.69828   	1680.000000	1.72772   	1680.000000	0.00014619	
1700.000000	2.1404    	1700.000000	1.72726   	1700.000000	1.78285   	1700.000000	1.69721   	1700.000000	1.72711   	1700.000000	0.000144604	
1750.000000	2.13978   	1750.000000	1.72608   	1750.000000	1.78027   	1750.000000	1.6948    	1750.000000	1.72594   	1750.000000	0.000140792	
1800.000000	2.13992   	1800.000000	1.72536   	1800.000000	1.77807   	1800.000000	1.69276   	1800.000000	1.72522   	1800.000000	0.000137183	
1850.000000	2.14076   	1850.000000	1.72507   	1850.000000	1.77622   	1850.000000	1.69105   	1850.000000	1.72494   	1850.000000	0.000133761	
1900.000000	2.14225   	1900.000000	1.72517   	1900.000000	1.77467   	1900.000000	1.68964   	1900.000000	1.72504   	1900.000000	0.000130511	
1950.000000	2.14435   	1950.000000	1.72564   	1950.000000	1.77341   	1950.000000	1.68849   	1950.000000	1.72551   	1950.000000	0.000127421	
2000.000000	2.14702   	2000.000000	1.72644   	2000.000000	1.7724    	2000.000000	1.6876    	2000.000000	1.72632   	2000.000000	0.00012448	
2100.000000	2.15391   	2100.000000	1.72895   	2100.000000	1.77104   	2100.000000	1.68646   	2100.000000	1.72883   	2100.000000	0.000119  	
2200.000000	2.16266   	2200.000000	1.73254   	2200.000000	1.77045   	2200.000000	1.68607   	2200.000000	1.73243   	2200.000000	0.000113998	
2300.000000	2.17306   	2300.000000	1.73707   	2300.000000	1.77051   	2300.000000	1.68631   	2300.000000	1.73696   	2300.000000	0.000109414	
2400.000000	2.18492   	2400.000000	1.74242   	2400.000000	1.77111   	2400.000000	1.68706   	2400.000000	1.74231   	2400.000000	0.000105197	
2500.000000	2.19811   	2500.000000	1.74849   	2500.000000	1.77217   	2500.000000	1.68825   	2500.000000	1.74838   	2500.000000	0.000101304	
2600.000000	2.21248   	2600.000000	1.75519   	2600.000000	1.77361   	2600.000000	1.68981   	2600.000000	1.75509   	2600.000000	9.76983e-05	
2700.000000	2.22792   	2700.000000	1.76246   	2700.000000	1.77537   	2700.000000	1.69168   	2700.000000	1.76237   	2700.000000	9.43492e-05	
2800.000000	2.24434   	2800.000000	1.77023   	2800.000000	1.77739   	2800.000000	1.69381   	2800.000000	1.77014   	2800.000000	9.12299e-05	
2900.000000	2.26166   	2900.000000	1.77846   	2900.000000	1.77964   	2900.000000	1.69615   	2900.000000	1.77837   	2900.000000	8.83172e-05	
3000.000000	2.27981   	3000.000000	1.78709   	3000.000000	1.78207   	3000.000000	1.69869   	3000.000000	1.787     	3000.000000	8.5591e-05	
3200.000000	2.31832   	3200.000000	1.80541   	3200.000000	1.78737   	3200.000000	1.70419   	3200.000000	1.80532   	3200.000000	8.06303e-05	
3400.000000	2.35946   	3400.000000	1.82492   	3400.000000	1.79312   	3400.000000	1.71013   	3400.000000	1.82485   	3400.000000	7.62309e-05	
3600.000000	2.40289   	3600.000000	1.84544   	3600.000000	1.79918   	3600.000000	1.71637   	3600.000000	1.84536   	3600.000000	7.23018e-05	
3800.000000	2.44835   	3800.000000	1.86678   	3800.000000	1.80545   	3800.000000	1.7228    	3800.000000	1.86671   	3800.000000	6.87707e-05	
4000.000000	2.49564   	4000.000000	1.88882   	4000.000000	1.81185   	4000.000000	1.72935   	4000.000000	1.88875   	4000.000000	6.55792e-05	
4200.000000	2.54456   	4200.000000	1.91145   	4200.000000	1.81832   	4200.000000	1.73596   	4200.000000	1.91139   	4200.000000	6.26803e-05	
4400.000000	2.59499   	4400.000000	1.9346    	4400.000000	1.82481   	4400.000000	1.74258   	4400.000000	1.93454   	4400.000000	6.00349e-05	
4600.000000	2.64679   	4600.000000	1.95818   	4600.000000	1.83129   	4600.000000	1.74919   	4600.000000	1.95812   	4600.000000	5.76109e-05	
4800.000000	2.69988   	4800.000000	1.98213   	4800.000000	1.83774   	4800.000000	1.75576   	4800.000000	1.98208   	4800.000000	5.53813e-05	
5000.000000	2.75417   	5000.000000	2.00642   	5000.000000	1.84413   	5000.000000	1.76227   	5000.000000	2.00636   	5000.000000	5.33234e-05	
5250.000000	2.8236    	5250.000000	2.03717   	5250.000000	1.85203   	5250.000000	1.7703    	5250.000000	2.03712   	5250.000000	5.09633e-05	
5500.000000	2.89467   	5500.000000	2.0683    	5500.000000	1.85979   	5500.000000	1.77819   	5500.000000	2.06825   	5500.000000	4.88098e-05	
6000.000000	3.04136   	6000.000000	2.13149   	6000.000000	1.8749    	6000.000000	1.79353   	6000.000000	2.13144   	6000.000000	4.50218e-05	
6500.000000	3.19362   	6500.000000	2.19563   	6500.000000	1.88941   	6500.000000	1.80824   	6500.000000	2.19559   	6500.000000	4.17959e-05	
7000.000000	3.351     	7000.000000	2.26047   	7000.000000	1.9033    	7000.000000	1.8223    	7000.000000	2.26044   	7000.000000	3.90145e-05	
7500.000000	3.5132    	7500.000000	2.32585   	7500.000000	1.91646   	7500.000000	1.83573   	7500.000000	2.32582   	7500.000000	3.65908e-05	
8000.000000	3.67995   	8000.000000	2.39164   	8000.000000	1.92907   	8000.000000	1.84855   	8000.000000	2.3916    	8000.000000	3.44593e-05	
8500.000000	3.85106   	8500.000000	2.45772   	8500.000000	1.94111   	8500.000000	1.86081   	8500.000000	2.45769   	8500.000000	3.25697e-05	
9000.000000	4.0264    	9000.000000	2.52404   	9000.000000	1.95258   	9000.000000	1.87253   	9000.000000	2.52401   	9000.000000	3.08827e-05	
9500.000000	4.20584   	9500.000000	2.59052   	9500.000000	1.96353   	9500.000000	1.88374   	9500.000000	2.59049   	9500.000000	2.9367e-05	
10000.000000	4.38929   	10000.000000	2.65714   	10000.000000	1.97401   	10000.000000	1.89448   	10000.000000	2.65711   	10000.000000	2.79975e-05	
11000.000000	4.76794   	11000.000000	2.7906    	11000.000000	1.99366   	11000.000000	1.91467   	11000.000000	2.79058   	11000.000000	2.56192e-05	
12000.000000	5.16192   	12000.000000	2.92423   	12000.000000	2.01177   	12000.000000	1.93332   	12000.000000	2.92421   	12000.000000	2.3624e-05	
13000.000000	5.57091   	13000.000000	3.05789   	13000.000000	2.02855   	13000.000000	1.95062   	13000.000000	3.05787   	13000.000000	2.19254e-05	
14000.000000	5.99473   	14000.000000	3.19149   	14000.000000	2.04416   	14000.000000	1.96674   	14000.000000	3.19147   	14000.000000	2.04613e-05	
15000.000000	6.43325   	15000.000000	3.32497   	15000.000000	2.05871   	15000.000000	1.9818    	15000.000000	3.32495   	15000.000000	1.91859e-05	
16000.000000	6.88637   	16000.000000	3.45829   	16000.000000	2.07224   	16000.000000	1.99594   	16000.000000	3.45827   	16000.000000	1.80645e-05	
17000.000000	7.35405   	17000.000000	3.59143   	17000.000000	2.08485   	17000.000000	2.00924   	17000.000000	3.59141   	17000.000000	1.70706e-05	
18000.000000	7.83627   	18000.000000	3.72437   	18000.000000	2.09664   	18000.000000	2.0218    	18000.000000	3.72435   	18000.000000	1.61834e-05	
19000.000000	8.33302   	19000.000000	3.8571    	19000.000000	2.10771   	19000.000000	2.03368   	19000.000000	3.85708   	19000.000000	1.53865e-05	
20000.000000	8.8443    	20000.000000	3.98961   	20000.000000	2.11816   	20000.000000	2.04496   	20000.000000	3.98959   	20000.000000	1.46666e-05	
21000.000000	9.37013   	21000.000000	4.1219    	21000.000000	2.12806   	21000.000000	2.05568   	21000.000000	4.12188   	21000.000000	1.4013e-05	
22000.000000	9.91056   	22000.000000	4.25397   	22000.000000	2.13746   	22000.000000	2.06589   	22000.000000	4.25395   	22000.000000	1.34168e-05	
23000.000000	10.4656   	23000.000000	4.38582   	23000.000000	2.14633   	23000.000000	2.07565   	23000.000000	4.3858    	23000.000000	1.28707e-05	
24000.000000	11.0353   	24000.000000	4.51745   	24000.000000	2.15476   	24000.000000	2.08497   	24000.000000	4.51743   	24000.000000	1.23686e-05	
25000.000000	11.6198   	25000.000000	4.64886   	25000.000000	2.1628    	25000.000000	2.09391   	25000.000000	4.64885   	25000.000000	1.19053e-05	
26000.000000	12.219    	26000.000000	4.78007   	26000.000000	2.17047   	26000.000000	2.10249   	26000.000000	4.78006   	26000.000000	1.14765e-05	
27000.000000	12.833    	27000.000000	4.91106   	27000.000000	2.17777   	27000.000000	2.11073   	27000.000000	4.91105   	27000.000000	1.10783e-05	
28000.000000	13.462    	28000.000000	5.04185   	28000.000000	2.18472   	28000.000000	2.11866   	28000.000000	5.04184   	28000.000000	1.07077e-05	
29000.000000	14.1059   	29000.000000	5.17245   	29000.000000	2.19135   	29000.000000	2.1263    	29000.000000	5.17243   	29000.000000	1.03618e-05	
30000.000000	14.7648   	30000.000000	5.30284   	30000.000000	2.1977    	30000.000000	2.13366   	30000.000000	5.30283   	30000.000000	1.00382e-05	
32000.000000	16.128    	32000.000000	5.56306   	32000.000000	2.20958   	32000.000000	2.14766   	32000.000000	5.56305   	32000.000000	9.44967e-06	
34000.000000	17.5521   	34000.000000	5.82255   	34000.000000	2.22051   	34000.000000	2.16076   	34000.000000	5.82254   	34000.000000	8.92817e-06	
36000.000000	19.0377   	36000.000000	6.08134   	36000.000000	2.23057   	36000.000000	2.17307   	36000.000000	6.08133   	36000.000000	8.46276e-06	
38000.000000	20.5856   	38000.000000	6.33946   	38000.000000	2.23987   	38000.000000	2.18468   	38000.000000	6.33945   	38000.000000	8.04477e-06	
40000.000000	22.1961   	40000.000000	6.59694   	40000.000000	2.24849   	40000.000000	2.19566   	40000.000000	6.59693   	40000.000000	7.66724e-06	
42000.000000	23.8702   	42000.000000	6.8538    	42000.000000	2.25648   	42000.000000	2.20606   	42000.000000	6.8538    	42000.000000	7.32452e-06	
44000.000000	25.6082   	44000.000000	7.11008   	44000.000000	2.26392   	44000.000000	2.21596   	44000.000000	7.11008   	44000.000000	7.01196e-06	
46000.000000	27.4111   	46000.000000	7.3658    	46000.000000	2.27089   	46000.000000	2.22538   	46000.000000	7.36579   	46000.000000	6.72572e-06	
48000.000000	29.2794   	48000.000000	7.62098   	48000.000000	2.27741   	48000.000000	2.23437   	48000.000000	7.62097   	48000.000000	6.46256e-06	
50000.000000	31.2138   	50000.000000	7.87563   	50000.000000	2.28347   	50000.000000	2.24297   	50000.000000	7.87563   	50000.000000	6.21979e-06	
