0.001000	2.65075   	0.001000	1.37206   	0.001000	1.44402   	0.001000	1.44402   	0.001000	0.426317  	0.001000	0.945743  	
0.002000	2.68106   	0.002000	1.39655   	0.002000	1.5107    	0.002000	1.5107    	0.002000	0.590496  	0.002000	0.806052  	
0.005000	2.91681   	0.005000	1.47314   	0.005000	1.67894   	0.005000	1.67894   	0.005000	0.90834   	0.005000	0.564802  	
0.008000	3.17734   	0.008000	1.57778   	0.008000	1.85418   	0.008000	1.85418   	0.008000	1.13288   	0.008000	0.4449    	
0.010000	3.34106   	0.010000	1.65093   	0.010000	1.9684    	0.010000	1.9684    	0.010000	1.25815   	0.010000	0.392776  	
0.015000	3.93411   	0.015000	1.86795   	0.015000	2.26275   	0.015000	2.26275   	0.015000	1.55981   	0.015000	0.308132  	
0.020000	4.5088    	0.020000	2.28727   	0.020000	2.66307   	0.020000	2.66307   	0.020000	2.03079   	0.020000	0.256474  	
0.025000	5.16652   	0.025000	2.73563   	0.025000	3.08148   	0.025000	3.08148   	0.025000	2.51444   	0.025000	0.221183  	
0.030000	5.76986   	0.030000	3.1903    	0.030000	3.35717   	0.030000	3.35717   	0.030000	2.99498   	0.030000	0.195328  	
0.035000	6.30616   	0.035000	3.63812   	0.035000	3.64487   	0.035000	3.64487   	0.035000	3.46267   	0.035000	0.175458  	
0.040000	6.76715   	0.040000	4.06952   	0.040000	3.93865   	0.040000	3.93865   	0.040000	3.91136   	0.040000	0.158156  	
0.045000	7.14422   	0.045000	4.4827    	0.045000	4.23812   	0.045000	4.23812   	0.045000	4.33731   	0.045000	0.145391  	
0.050000	7.3772    	0.050000	4.84556   	0.050000	4.53859   	0.050000	4.53859   	0.050000	4.71084   	0.050000	0.134723  	
0.055000	7.77197   	0.055000	5.164     	0.055000	4.83747   	0.055000	4.83747   	0.055000	5.03834   	0.055000	0.125659  	
0.060000	8.1213    	0.060000	5.45923   	0.060000	5.13241   	0.060000	5.13241   	0.060000	5.34138   	0.060000	0.117851  	
0.070000	8.69166   	0.070000	5.98439   	0.070000	5.7025    	0.070000	5.7025    	0.070000	5.87933   	0.070000	0.10506   	
0.080000	9.29575   	0.080000	6.43149   	0.080000	6.23542   	0.080000	6.23542   	0.080000	6.33649   	0.080000	0.0949937 	
0.090000	9.7917    	0.090000	6.81189   	0.090000	6.7219    	0.090000	6.7219    	0.090000	6.72505   	0.090000	0.0868428 	
0.100000	10.1784   	0.100000	7.13165   	0.100000	7.15655   	0.100000	7.15655   	0.100000	7.05155   	0.100000	0.0800939 	
0.120000	10.4404   	0.120000	7.54448   	0.120000	7.8656    	0.120000	7.8656    	0.120000	7.47495   	0.120000	0.0695358 	
0.140000	10.617    	0.140000	7.8543    	0.140000	8.3764    	0.140000	8.3764    	0.140000	7.79268   	0.140000	0.0616247 	
0.160000	10.7763   	0.160000	8.09398   	0.160000	8.72467   	0.160000	8.72467   	0.160000	8.03853   	0.160000	0.0554547 	
0.180000	10.9464   	0.180000	8.28418   	0.180000	8.95083   	0.180000	8.95083   	0.180000	8.23369   	0.180000	0.050495  	
0.200000	11.2151   	0.200000	8.49308   	0.200000	9.0907    	0.200000	9.0907    	0.200000	8.44666   	0.200000	0.0464132 	
0.250000	11.5148   	0.250000	8.87438   	0.250000	9.22805   	0.250000	9.22805   	0.250000	8.83561   	0.250000	0.0387701 	
0.300000	11.7818   	0.300000	9.09777   	0.300000	9.23727   	0.300000	9.23727   	0.300000	9.06435   	0.300000	0.0334248 	
0.350000	12.0702   	0.350000	9.2761    	0.350000	9.21286   	0.350000	9.21286   	0.350000	9.24664   	0.350000	0.0294589 	
0.400000	12.313    	0.400000	9.4017    	0.400000	9.24483   	0.400000	9.24483   	0.400000	9.37531   	0.400000	0.0263897 	
0.450000	12.4817   	0.450000	9.46625   	0.450000	9.33383   	0.450000	9.33383   	0.450000	9.44231   	0.450000	0.0239383 	
0.500000	12.5894   	0.500000	9.48853   	0.500000	9.39368   	0.500000	9.39368   	0.500000	9.4666    	0.500000	0.0219316 	
0.600000	12.2944   	0.600000	9.4909    	0.600000	9.44925   	0.600000	9.44925   	0.600000	9.47207   	0.600000	0.0188345 	
0.700000	11.88     	0.700000	9.44113   	0.700000	9.44176   	0.700000	9.44176   	0.700000	9.42458   	0.700000	0.0165484 	
0.800000	11.8313   	0.800000	9.34076   	0.800000	9.33846   	0.800000	9.33846   	0.800000	9.32598   	0.800000	0.0147864 	
0.900000	11.7187   	0.900000	9.21091   	0.900000	9.21378   	0.900000	9.21378   	0.900000	9.19753   	0.900000	0.0133839 	
1.000000	11.5846   	1.000000	9.07984   	1.000000	9.07859   	1.000000	9.07859   	1.000000	9.0676    	1.000000	0.012239  	
1.250000	11.1232   	1.250000	8.72107   	1.250000	8.71426   	1.250000	8.71426   	1.250000	8.71095   	1.250000	0.0101191 	
1.500000	10.5397   	1.500000	8.29697   	1.500000	8.28758   	1.500000	8.28758   	1.500000	8.28832   	1.500000	0.00865589	
1.750000	9.9729    	1.750000	7.89912   	1.750000	7.90666   	1.750000	7.90666   	1.750000	7.89154   	1.750000	0.00758114	
2.000000	9.43391   	2.000000	7.52617   	2.000000	7.56153   	2.000000	7.56153   	2.000000	7.51942   	2.000000	0.00675614	
2.250000	8.95708   	2.250000	7.18986   	2.250000	7.24638   	2.250000	7.24638   	2.250000	7.18376   	2.250000	0.00610162	
2.500000	8.86159   	2.500000	6.87916   	2.500000	6.95717   	2.500000	6.95717   	2.500000	6.87359   	2.500000	0.00556887	
3.000000	8.03384   	3.000000	6.33517   	3.000000	6.44462   	3.000000	6.44462   	3.000000	6.33042   	3.000000	0.00475236	
3.500000	7.3506    	3.500000	5.88464   	3.500000	6.00462   	3.500000	6.00462   	3.500000	5.88048   	3.500000	0.00415436	
4.000000	6.77846   	4.000000	5.49771   	4.000000	5.62302   	4.000000	5.62302   	4.000000	5.49401   	4.000000	0.00369638	
4.500000	6.29282   	4.500000	5.16652   	4.500000	5.28906   	4.500000	5.28906   	4.500000	5.16319   	4.500000	0.00333375	
5.000000	5.87556   	5.000000	4.87922   	5.000000	4.99438   	5.000000	4.99438   	5.000000	4.87618   	5.000000	0.00303908	
5.500000	5.51317   	5.500000	4.62671   	5.500000	4.73243   	5.500000	4.73243   	5.500000	4.62392   	5.500000	0.00279464	
6.000000	5.19544   	6.000000	4.40248   	6.000000	4.49802   	6.000000	4.49802   	6.000000	4.39989   	6.000000	0.00258839	
6.500000	4.91455   	6.500000	4.20153   	6.500000	4.28699   	6.500000	4.28699   	6.500000	4.19912   	6.500000	0.0024119 	
7.000000	4.66439   	7.000000	4.02025   	7.000000	4.09598   	7.000000	4.09598   	7.000000	4.01799   	7.000000	0.00225907	
7.500000	4.44011   	7.500000	3.85584   	7.500000	3.92223   	7.500000	3.92223   	7.500000	3.85371   	7.500000	0.00212536	
8.000000	4.23786   	8.000000	3.70591   	8.000000	3.76348   	8.000000	3.76348   	8.000000	3.7039    	8.000000	0.00200735	
8.500000	4.0545    	8.500000	3.56853   	8.500000	3.61784   	8.500000	3.61784   	8.500000	3.56663   	8.500000	0.00190237	
9.000000	3.88747   	9.000000	3.44212   	9.000000	3.48373   	9.000000	3.48373   	9.000000	3.44031   	9.000000	0.00180835	
9.500000	3.73466   	9.500000	3.32535   	9.500000	3.35981   	9.500000	3.35981   	9.500000	3.32363   	9.500000	0.00172363	
10.000000	3.59429   	10.000000	3.24807   	10.000000	3.24494   	10.000000	3.24494   	10.000000	3.24642   	10.000000	0.00164687	
11.000000	3.34522   	11.000000	3.04695   	11.000000	3.03604   	11.000000	3.04247   	11.000000	3.04544   	11.000000	0.00151307	
12.000000	3.13086   	12.000000	2.86966   	12.000000	2.8536    	12.000000	2.86449   	12.000000	2.86826   	12.000000	0.0014003 	
13.000000	2.94436   	13.000000	2.71239   	13.000000	2.6929    	13.000000	2.70684   	13.000000	2.71109   	13.000000	0.00130389	
14.000000	2.78054   	14.000000	2.57203   	14.000000	2.55021   	14.000000	2.56624   	14.000000	2.57081   	14.000000	0.00122048	
15.000000	2.63544   	15.000000	2.44607   	15.000000	2.42261   	15.000000	2.44008   	15.000000	2.44493   	15.000000	0.00114756	
16.000000	2.506     	16.000000	2.33245   	16.000000	2.30791   	16.000000	2.32626   	16.000000	2.33136   	16.000000	0.00108325	
17.000000	2.38976   	17.000000	2.22946   	17.000000	2.20428   	17.000000	2.22307   	17.000000	2.22844   	17.000000	0.00102608	
18.000000	2.28479   	18.000000	2.13571   	18.000000	2.1101    	18.000000	2.12909   	18.000000	2.13473   	18.000000	0.00097491	
19.000000	2.18949   	19.000000	2.05001   	19.000000	2.02412   	19.000000	2.04316   	19.000000	2.04908   	19.000000	0.000928826	
20.000000	2.10257   	20.000000	1.97138   	20.000000	1.94534   	20.000000	1.96429   	20.000000	1.9705    	20.000000	0.000887096	
21.000000	2.02296   	21.000000	1.89899   	21.000000	1.87292   	21.000000	1.89166   	21.000000	1.89815   	21.000000	0.000849121	
22.000000	1.94975   	22.000000	1.83213   	22.000000	1.80616   	22.000000	1.82457   	22.000000	1.83132   	22.000000	0.000814409	
23.000000	1.88219   	23.000000	1.77019   	23.000000	1.74442   	23.000000	1.76242   	23.000000	1.76941   	23.000000	0.00078255	
24.000000	1.81964   	24.000000	1.71265   	24.000000	1.68716   	24.000000	1.7047    	24.000000	1.7119    	24.000000	0.000753201	
25.000000	1.76156   	25.000000	1.65906   	25.000000	1.63393   	25.000000	1.65096   	25.000000	1.65833   	25.000000	0.000726073	
27.000000	1.65699   	27.000000	1.56219   	27.000000	1.538     	27.000000	1.55393   	27.000000	1.56151   	27.000000	0.000677525	
29.000000	1.56541   	29.000000	1.47701   	29.000000	1.45398   	29.000000	1.46877   	29.000000	1.47638   	29.000000	0.000635326	
31.000000	1.48452   	31.000000	1.40152   	31.000000	1.38042   	31.000000	1.39343   	31.000000	1.40093   	31.000000	0.000598289	
33.000000	1.41253   	33.000000	1.33416   	33.000000	1.31534   	33.000000	1.32627   	33.000000	1.33359   	33.000000	0.000565509	
35.000000	1.34801   	35.000000	1.27367   	35.000000	1.25681   	35.000000	1.26606   	35.000000	1.27313   	35.000000	0.000536282	
38.000000	1.26285   	38.000000	1.19367   	38.000000	1.17943   	38.000000	1.18655   	38.000000	1.19318   	38.000000	0.00049792	
41.000000	1.18909   	41.000000	1.12428   	41.000000	1.11216   	41.000000	1.11767   	41.000000	1.12381   	41.000000	0.000464891	
44.000000	1.12456   	44.000000	1.0635    	44.000000	1.0532    	44.000000	1.05737   	44.000000	1.06306   	44.000000	0.000436142	
47.000000	1.0676    	47.000000	1.00981   	47.000000	1.00099   	47.000000	1.00414   	47.000000	1.0094    	47.000000	0.000410881	
50.000000	1.01693   	50.000000	0.96203   	50.000000	0.954469  	50.000000	0.956769  	50.000000	0.961641  	50.000000	0.000388501	
55.000000	0.943812  	55.000000	0.893089  	55.000000	0.887133  	55.000000	0.888414  	55.000000	0.892733  	55.000000	0.000356366	
60.000000	0.881971  	60.000000	0.834801  	60.000000	0.830233  	60.000000	0.830597  	60.000000	0.834472  	60.000000	0.000329333	
65.000000	0.828939  	65.000000	0.784854  	65.000000	0.781281  	65.000000	0.781024  	65.000000	0.784548  	65.000000	0.000306262	
70.000000	0.782928  	70.000000	0.741563  	70.000000	0.738702  	70.000000	0.738026  	70.000000	0.741277  	70.000000	0.00028633	
75.000000	0.742605  	75.000000	0.70367   	75.000000	0.701451  	75.000000	0.700359  	75.000000	0.703401  	75.000000	0.000268932	
80.000000	0.706957  	80.000000	0.670215  	80.000000	0.668442  	80.000000	0.667078  	80.000000	0.669961  	80.000000	0.000253605	
85.000000	0.6752    	85.000000	0.640455  	85.000000	0.639036  	85.000000	0.63745   	85.000000	0.640215  	85.000000	0.000239997	
90.000000	0.646717  	90.000000	0.613805  	90.000000	0.612674  	90.000000	0.610897  	90.000000	0.613577  	90.000000	0.000227831	
95.000000	0.621016  	95.000000	0.589797  	95.000000	0.5889    	95.000000	0.586959  	95.000000	0.58958   	95.000000	0.000216885	
100.000000	0.5977    	100.000000	0.568054  	100.000000	0.567347  	100.000000	0.565263  	100.000000	0.567847  	100.000000	0.000206983	
105.000000	0.576445  	105.000000	0.548266  	105.000000	0.547721  	105.000000	0.545507  	105.000000	0.548068  	105.000000	0.00019798	
110.000000	0.556983  	110.000000	0.530179  	110.000000	0.529697  	110.000000	0.527437  	110.000000	0.529989  	110.000000	0.000189758	
115.000000	0.53909   	115.000000	0.513581  	115.000000	0.513188  	115.000000	0.510846  	115.000000	0.513399  	115.000000	0.000182218	
120.000000	0.522581  	120.000000	0.498294  	120.000000	0.49797   	120.000000	0.495558  	120.000000	0.498119  	120.000000	0.000175277	
125.000000	0.507296  	125.000000	0.484168  	125.000000	0.483848  	125.000000	0.481423  	125.000000	0.483999  	125.000000	0.000168866	
130.000000	0.493102  	130.000000	0.471073  	130.000000	0.470764  	130.000000	0.468315  	130.000000	0.47091   	130.000000	0.000162925	
135.000000	0.479882  	135.000000	0.458901  	135.000000	0.458642  	135.000000	0.456126  	135.000000	0.458744  	135.000000	0.000157404	
140.000000	0.467538  	140.000000	0.447556  	140.000000	0.447315  	140.000000	0.444761  	140.000000	0.447404  	140.000000	0.00015226	
145.000000	0.455982  	145.000000	0.436957  	145.000000	0.436699  	145.000000	0.43414   	145.000000	0.43681   	145.000000	0.000147454	
150.000000	0.44514   	150.000000	0.427031  	150.000000	0.426761  	150.000000	0.424192  	150.000000	0.426889  	150.000000	0.000142954	
155.000000	0.429868  	155.000000	0.417717  	155.000000	0.417433  	155.000000	0.414853  	155.000000	0.417578  	155.000000	0.000138731	
160.000000	0.420919  	160.000000	0.408959  	160.000000	0.408657  	160.000000	0.406071  	160.000000	0.408824  	160.000000	0.00013476	
165.000000	0.412479  	165.000000	0.400709  	165.000000	0.400388  	165.000000	0.397796  	165.000000	0.400578  	165.000000	0.000131019	
170.000000	0.404506  	170.000000	0.392923  	170.000000	0.392583  	170.000000	0.389986  	170.000000	0.392795  	170.000000	0.000127488	
175.000000	0.396961  	175.000000	0.385563  	175.000000	0.385204  	175.000000	0.382603  	175.000000	0.385439  	175.000000	0.00012415	
180.000000	0.38981   	180.000000	0.378596  	180.000000	0.378217  	180.000000	0.375613  	180.000000	0.378475  	180.000000	0.000120989	
185.000000	0.383024  	185.000000	0.37199   	185.000000	0.371591  	185.000000	0.368985  	185.000000	0.371872  	185.000000	0.000117991	
190.000000	0.376573  	190.000000	0.365718  	190.000000	0.365298  	190.000000	0.362692  	190.000000	0.365603  	190.000000	0.000115144	
195.000000	0.370434  	195.000000	0.359756  	195.000000	0.35932   	195.000000	0.356709  	195.000000	0.359643  	195.000000	0.000112436	
200.000000	0.364585  	200.000000	0.35408   	200.000000	0.353628  	200.000000	0.351015  	200.000000	0.35397   	200.000000	0.000109858	
210.000000	0.353675  	210.000000	0.343511  	210.000000	0.342982  	210.000000	0.340411  	210.000000	0.343406  	210.000000	0.000105053	
220.000000	0.343703  	220.000000	0.333871  	220.000000	0.333301  	220.000000	0.33074   	220.000000	0.33377   	220.000000	0.000100667	
230.000000	0.334552  	230.000000	0.325042  	230.000000	0.324446  	230.000000	0.321884  	230.000000	0.324945  	230.000000	9.66447e-05	
240.000000	0.326125  	240.000000	0.316927  	240.000000	0.31631   	240.000000	0.313747  	240.000000	0.316834  	240.000000	9.29436e-05	
250.000000	0.318337  	250.000000	0.309442  	250.000000	0.308781  	250.000000	0.306246  	250.000000	0.309353  	250.000000	8.95258e-05	
260.000000	0.31112   	260.000000	0.302519  	260.000000	0.301817  	260.000000	0.299308  	260.000000	0.302432  	260.000000	8.63596e-05	
270.000000	0.304411  	270.000000	0.296096  	270.000000	0.295387  	270.000000	0.292875  	270.000000	0.296012  	270.000000	8.34179e-05	
280.000000	0.29816   	280.000000	0.290121  	280.000000	0.289401  	280.000000	0.286895  	280.000000	0.29004   	280.000000	8.06772e-05	
290.000000	0.292321  	290.000000	0.28455   	290.000000	0.283795  	290.000000	0.281321  	290.000000	0.284472  	290.000000	7.81175e-05	
300.000000	0.286855  	300.000000	0.279344  	300.000000	0.278576  	300.000000	0.276115  	300.000000	0.279268  	300.000000	7.57212e-05	
310.000000	0.281727  	310.000000	0.274469  	310.000000	0.273698  	310.000000	0.271243  	310.000000	0.274395  	310.000000	7.34729e-05	
320.000000	0.276908  	320.000000	0.269894  	320.000000	0.2691    	320.000000	0.266673  	320.000000	0.269822  	320.000000	7.13591e-05	
330.000000	0.272369  	330.000000	0.265593  	330.000000	0.264792  	330.000000	0.262381  	330.000000	0.265524  	330.000000	6.9368e-05	
340.000000	0.268089  	340.000000	0.261543  	340.000000	0.260754  	340.000000	0.258341  	340.000000	0.261476  	340.000000	6.7489e-05	
350.000000	0.264045  	350.000000	0.257723  	350.000000	0.256945  	350.000000	0.254533  	350.000000	0.257657  	350.000000	6.57129e-05	
360.000000	0.26022   	360.000000	0.254114  	360.000000	0.253334  	360.000000	0.250939  	360.000000	0.25405   	360.000000	6.40313e-05	
370.000000	0.256595  	370.000000	0.250701  	370.000000	0.249912  	370.000000	0.247541  	370.000000	0.250638  	370.000000	6.24368e-05	
380.000000	0.253157  	380.000000	0.247467  	380.000000	0.246688  	380.000000	0.244324  	380.000000	0.247406  	380.000000	6.09226e-05	
390.000000	0.249891  	390.000000	0.244399  	390.000000	0.243636  	390.000000	0.241275  	390.000000	0.24434   	390.000000	5.94828e-05	
400.000000	0.246785  	400.000000	0.241486  	400.000000	0.240728  	400.000000	0.238382  	400.000000	0.241428  	400.000000	5.8112e-05	
410.000000	0.243828  	410.000000	0.238717  	410.000000	0.237958  	410.000000	0.235633  	410.000000	0.23866   	410.000000	5.68053e-05	
420.000000	0.241009  	420.000000	0.236081  	420.000000	0.235329  	420.000000	0.233019  	420.000000	0.236025  	420.000000	5.55582e-05	
430.000000	0.238321  	430.000000	0.233569  	430.000000	0.232832  	430.000000	0.23053   	430.000000	0.233515  	430.000000	5.43666e-05	
440.000000	0.235753  	440.000000	0.231174  	440.000000	0.230453  	440.000000	0.228157  	440.000000	0.231121  	440.000000	5.3227e-05	
450.000000	0.233299  	450.000000	0.228888  	450.000000	0.22818   	450.000000	0.225895  	450.000000	0.228835  	450.000000	5.21359e-05	
460.000000	0.230952  	460.000000	0.226703  	460.000000	0.226005  	460.000000	0.223734  	460.000000	0.226652  	460.000000	5.10903e-05	
470.000000	0.228705  	470.000000	0.224614  	470.000000	0.223924  	470.000000	0.22167   	470.000000	0.224564  	470.000000	5.00873e-05	
480.000000	0.226552  	480.000000	0.222615  	480.000000	0.221941  	480.000000	0.219695  	480.000000	0.222565  	480.000000	4.91244e-05	
490.000000	0.224487  	490.000000	0.2207    	490.000000	0.220049  	490.000000	0.217805  	490.000000	0.220651  	490.000000	4.81992e-05	
500.000000	0.222506  	500.000000	0.218864  	500.000000	0.218236  	500.000000	0.215995  	500.000000	0.218817  	500.000000	4.73094e-05	
520.000000	0.218776  	520.000000	0.215414  	520.000000	0.214813  	520.000000	0.212596  	520.000000	0.215368  	520.000000	4.56284e-05	
540.000000	0.215329  	540.000000	0.212232  	540.000000	0.211668  	540.000000	0.209465  	540.000000	0.212188  	540.000000	4.40668e-05	
560.000000	0.212136  	560.000000	0.209289  	560.000000	0.208771  	560.000000	0.206573  	560.000000	0.209247  	560.000000	4.26123e-05	
580.000000	0.209172  	580.000000	0.206563  	580.000000	0.206074  	580.000000	0.203896  	580.000000	0.206522  	580.000000	4.1254e-05	
600.000000	0.206415  	600.000000	0.204031  	600.000000	0.203567  	600.000000	0.201413  	600.000000	0.203991  	600.000000	3.99827e-05	
620.000000	0.203846  	620.000000	0.201676  	620.000000	0.201243  	620.000000	0.199105  	620.000000	0.201637  	620.000000	3.87901e-05	
640.000000	0.201449  	640.000000	0.199481  	640.000000	0.19909   	640.000000	0.196956  	640.000000	0.199443  	640.000000	3.7669e-05	
660.000000	0.199208  	660.000000	0.197432  	660.000000	0.197079  	660.000000	0.194951  	660.000000	0.197395  	660.000000	3.66132e-05	
680.000000	0.197111  	680.000000	0.195516  	680.000000	0.19519   	680.000000	0.193077  	680.000000	0.195481  	680.000000	3.56169e-05	
700.000000	0.195145  	700.000000	0.193724  	700.000000	0.193424  	700.000000	0.191324  	700.000000	0.193689  	700.000000	3.46754e-05	
720.000000	0.193301  	720.000000	0.192043  	720.000000	0.191778  	720.000000	0.189682  	720.000000	0.19201   	720.000000	3.37841e-05	
740.000000	0.19157   	740.000000	0.190467  	740.000000	0.190249  	740.000000	0.188156  	740.000000	0.190434  	740.000000	3.2939e-05	
760.000000	0.189942  	760.000000	0.188986  	760.000000	0.18882   	760.000000	0.186737  	760.000000	0.188954  	760.000000	3.21366e-05	
780.000000	0.18841   	780.000000	0.187593  	780.000000	0.187472  	780.000000	0.185402  	780.000000	0.187562  	780.000000	3.13738e-05	
800.000000	0.186968  	800.000000	0.186283  	800.000000	0.186202  	800.000000	0.184146  	800.000000	0.186252  	800.000000	3.06476e-05	
820.000000	0.185609  	820.000000	0.185048  	820.000000	0.185007  	820.000000	0.182963  	820.000000	0.185018  	820.000000	2.99554e-05	
840.000000	0.184327  	840.000000	0.183885  	840.000000	0.183884  	840.000000	0.181847  	840.000000	0.183855  	840.000000	2.92949e-05	
860.000000	0.183118  	860.000000	0.182787  	860.000000	0.182828  	860.000000	0.180793  	860.000000	0.182759  	860.000000	2.86638e-05	
880.000000	0.181977  	880.000000	0.181751  	880.000000	0.181831  	880.000000	0.179798  	880.000000	0.181723  	880.000000	2.80604e-05	
900.000000	0.1809    	900.000000	0.180773  	900.000000	0.180886  	900.000000	0.178856  	900.000000	0.180746  	900.000000	2.74827e-05	
920.000000	0.179882  	920.000000	0.179849  	920.000000	0.179988  	920.000000	0.177966  	920.000000	0.179822  	920.000000	2.69291e-05	
940.000000	0.17892   	940.000000	0.178975  	940.000000	0.179136  	940.000000	0.177123  	940.000000	0.178949  	940.000000	2.63982e-05	
960.000000	0.178011  	960.000000	0.178149  	960.000000	0.178327  	960.000000	0.176324  	960.000000	0.178123  	960.000000	2.58885e-05	
980.000000	0.177152  	980.000000	0.177367  	980.000000	0.17756   	980.000000	0.175567  	980.000000	0.177342  	980.000000	2.53988e-05	
1000.000000	0.176339  	1000.000000	0.176628  	1000.000000	0.176834  	1000.000000	0.174849  	1000.000000	0.176603  	1000.000000	2.49279e-05	
1020.000000	0.175571  	1020.000000	0.175928  	1020.000000	0.176147  	1020.000000	0.174167  	1020.000000	0.175903  	1020.000000	2.44748e-05	
1040.000000	0.174845  	1040.000000	0.175265  	1040.000000	0.175496  	1040.000000	0.17352   	1040.000000	0.175241  	1040.000000	2.40385e-05	
1060.000000	0.174159  	1060.000000	0.174638  	1060.000000	0.17488   	1060.000000	0.172905  	1060.000000	0.174614  	1060.000000	2.36179e-05	
1080.000000	0.17351   	1080.000000	0.174044  	1080.000000	0.174295  	1080.000000	0.17232   	1080.000000	0.174021  	1080.000000	2.32123e-05	
1100.000000	0.172897  	1100.000000	0.173482  	1100.000000	0.173737  	1100.000000	0.171765  	1100.000000	0.173459  	1100.000000	2.28209e-05	
1120.000000	0.172318  	1120.000000	0.172949  	1120.000000	0.173206  	1120.000000	0.171236  	1120.000000	0.172927  	1120.000000	2.2443e-05	
1140.000000	0.171771  	1140.000000	0.172445  	1140.000000	0.172699  	1140.000000	0.170733  	1140.000000	0.172423  	1140.000000	2.20778e-05	
1160.000000	0.171255  	1160.000000	0.171968  	1160.000000	0.172215  	1160.000000	0.170255  	1160.000000	0.171946  	1160.000000	2.17246e-05	
1180.000000	0.170768  	1180.000000	0.171517  	1180.000000	0.171753  	1180.000000	0.169799  	1180.000000	0.171495  	1180.000000	2.1383e-05	
1200.000000	0.170309  	1200.000000	0.17109   	1200.000000	0.171313  	1200.000000	0.169366  	1200.000000	0.171069  	1200.000000	2.10524e-05	
1220.000000	0.169876  	1220.000000	0.170686  	1220.000000	0.170894  	1220.000000	0.168952  	1220.000000	0.170665  	1220.000000	2.07321e-05	
1240.000000	0.169469  	1240.000000	0.170304  	1240.000000	0.170496  	1240.000000	0.168559  	1240.000000	0.170284  	1240.000000	2.04218e-05	
1260.000000	0.169086  	1260.000000	0.169943  	1260.000000	0.170116  	1260.000000	0.168184  	1260.000000	0.169923  	1260.000000	2.0121e-05	
1280.000000	0.168726  	1280.000000	0.169603  	1280.000000	0.169754  	1280.000000	0.167826  	1280.000000	0.169583  	1280.000000	1.98292e-05	
1300.000000	0.168389  	1300.000000	0.169281  	1300.000000	0.169409  	1300.000000	0.167485  	1300.000000	0.169262  	1300.000000	1.95461e-05	
1320.000000	0.168072  	1320.000000	0.168978  	1320.000000	0.169081  	1320.000000	0.16716   	1320.000000	0.168959  	1320.000000	1.92712e-05	
1340.000000	0.167776  	1340.000000	0.168692  	1340.000000	0.168768  	1340.000000	0.166851  	1340.000000	0.168673  	1340.000000	1.90041e-05	
1360.000000	0.1675    	1360.000000	0.168423  	1360.000000	0.16847   	1360.000000	0.166555  	1360.000000	0.168405  	1360.000000	1.87447e-05	
1380.000000	0.167242  	1380.000000	0.168171  	1380.000000	0.168186  	1380.000000	0.166274  	1380.000000	0.168152  	1380.000000	1.84925e-05	
1400.000000	0.167003  	1400.000000	0.167933  	1400.000000	0.167916  	1400.000000	0.166005  	1400.000000	0.167915  	1400.000000	1.82472e-05	
1420.000000	0.16678   	1420.000000	0.16771   	1420.000000	0.167658  	1420.000000	0.16575   	1420.000000	0.167692  	1420.000000	1.80085e-05	
1440.000000	0.166575  	1440.000000	0.167501  	1440.000000	0.167412  	1440.000000	0.165505  	1440.000000	0.167484  	1440.000000	1.77762e-05	
1460.000000	0.166385  	1460.000000	0.167306  	1460.000000	0.167177  	1460.000000	0.165273  	1460.000000	0.167289  	1460.000000	1.75501e-05	
1480.000000	0.166211  	1480.000000	0.167124  	1480.000000	0.166954  	1480.000000	0.165051  	1480.000000	0.167107  	1480.000000	1.73298e-05	
1500.000000	0.166051  	1500.000000	0.166954  	1500.000000	0.166741  	1500.000000	0.16484   	1500.000000	0.166937  	1500.000000	1.71152e-05	
1520.000000	0.165906  	1520.000000	0.166797  	1520.000000	0.166537  	1520.000000	0.164638  	1520.000000	0.16678   	1520.000000	1.6906e-05	
1540.000000	0.165774  	1540.000000	0.166651  	1540.000000	0.166344  	1540.000000	0.164446  	1540.000000	0.166634  	1540.000000	1.6702e-05	
1560.000000	0.165656  	1560.000000	0.166515  	1560.000000	0.166159  	1560.000000	0.164263  	1560.000000	0.166499  	1560.000000	1.65031e-05	
1580.000000	0.165551  	1580.000000	0.166391  	1580.000000	0.165983  	1580.000000	0.164089  	1580.000000	0.166375  	1580.000000	1.6309e-05	
1600.000000	0.165458  	1600.000000	0.166277  	1600.000000	0.165815  	1600.000000	0.163923  	1600.000000	0.166261  	1600.000000	1.61196e-05	
1620.000000	0.165377  	1620.000000	0.166173  	1620.000000	0.165655  	1620.000000	0.163765  	1620.000000	0.166157  	1620.000000	1.59346e-05	
1640.000000	0.165308  	1640.000000	0.166078  	1640.000000	0.165502  	1640.000000	0.163615  	1640.000000	0.166062  	1640.000000	1.57541e-05	
1660.000000	0.16525   	1660.000000	0.165993  	1660.000000	0.165357  	1660.000000	0.163472  	1660.000000	0.165977  	1660.000000	1.55777e-05	
1680.000000	0.165202  	1680.000000	0.165916  	1680.000000	0.165219  	1680.000000	0.163337  	1680.000000	0.165901  	1680.000000	1.54053e-05	
1700.000000	0.165165  	1700.000000	0.165848  	1700.000000	0.165087  	1700.000000	0.163207  	1700.000000	0.165833  	1700.000000	1.52369e-05	
1750.000000	0.165117  	1750.000000	0.165714  	1750.000000	0.164786  	1750.000000	0.162913  	1750.000000	0.165699  	1750.000000	1.4832e-05	
1800.000000	0.165126  	1800.000000	0.165627  	1800.000000	0.164522  	1800.000000	0.162654  	1800.000000	0.165613  	1800.000000	1.44487e-05	
1850.000000	0.165191  	1850.000000	0.165584  	1850.000000	0.164292  	1850.000000	0.162429  	1850.000000	0.16557   	1850.000000	1.40854e-05	
1900.000000	0.165305  	1900.000000	0.165582  	1900.000000	0.164092  	1900.000000	0.162234  	1900.000000	0.165568  	1900.000000	1.37405e-05	
1950.000000	0.165467  	1950.000000	0.165616  	1950.000000	0.16392   	1950.000000	0.162066  	1950.000000	0.165602  	1950.000000	1.34127e-05	
2000.000000	0.165672  	2000.000000	0.165685  	2000.000000	0.163773  	2000.000000	0.161924  	2000.000000	0.165672  	2000.000000	1.31006e-05	
2100.000000	0.166202  	2100.000000	0.165916  	2100.000000	0.163547  	2100.000000	0.161704  	2100.000000	0.165903  	2100.000000	1.25194e-05	
2200.000000	0.166877  	2200.000000	0.166257  	2200.000000	0.163398  	2200.000000	0.16156   	2200.000000	0.166245  	2200.000000	1.19892e-05	
2300.000000	0.167679  	2300.000000	0.166695  	2300.000000	0.163314  	2300.000000	0.16148   	2300.000000	0.166683  	2300.000000	1.15034e-05	
2400.000000	0.168594  	2400.000000	0.167216  	2400.000000	0.163284  	2400.000000	0.161454  	2400.000000	0.167205  	2400.000000	1.10567e-05	
2500.000000	0.16961   	2500.000000	0.167812  	2500.000000	0.1633    	2500.000000	0.161472  	2500.000000	0.167801  	2500.000000	1.06444e-05	
2600.000000	0.170719  	2600.000000	0.168472  	2600.000000	0.163354  	2600.000000	0.161529  	2600.000000	0.168462  	2600.000000	1.02627e-05	
2700.000000	0.17191   	2700.000000	0.169191  	2700.000000	0.163441  	2700.000000	0.161618  	2700.000000	0.169181  	2700.000000	9.90832e-06	
2800.000000	0.173177  	2800.000000	0.169961  	2800.000000	0.163555  	2800.000000	0.161734  	2800.000000	0.169952  	2800.000000	9.57831e-06	
2900.000000	0.174513  	2900.000000	0.170778  	2900.000000	0.163692  	2900.000000	0.161874  	2900.000000	0.170769  	2900.000000	9.27025e-06	
3000.000000	0.175913  	3000.000000	0.171636  	3000.000000	0.163849  	3000.000000	0.162034  	3000.000000	0.171627  	3000.000000	8.982e-06 	
3200.000000	0.178884  	3200.000000	0.173461  	3200.000000	0.164212  	3200.000000	0.162402  	3200.000000	0.173452  	3200.000000	8.45767e-06	
3400.000000	0.182058  	3400.000000	0.175409  	3400.000000	0.164624  	3400.000000	0.162819  	3400.000000	0.175401  	3400.000000	7.99292e-06	
3600.000000	0.185409  	3600.000000	0.177458  	3600.000000	0.165071  	3600.000000	0.163272  	3600.000000	0.177451  	3600.000000	7.57803e-06	
3800.000000	0.188917  	3800.000000	0.179593  	3800.000000	0.165544  	3800.000000	0.163749  	3800.000000	0.179586  	3800.000000	7.20532e-06	
4000.000000	0.192565  	4000.000000	0.1818    	4000.000000	0.166033  	4000.000000	0.164242  	4000.000000	0.181793  	4000.000000	6.86861e-06	
4200.000000	0.19634   	4200.000000	0.184067  	4200.000000	0.166534  	4200.000000	0.164747  	4200.000000	0.184061  	4200.000000	6.56287e-06	
4400.000000	0.200231  	4400.000000	0.186387  	4400.000000	0.167041  	4400.000000	0.165257  	4400.000000	0.186381  	4400.000000	6.28398e-06	
4600.000000	0.204228  	4600.000000	0.188751  	4600.000000	0.167551  	4600.000000	0.16577   	4600.000000	0.188745  	4600.000000	6.02852e-06	
4800.000000	0.208325  	4800.000000	0.191155  	4800.000000	0.168062  	4800.000000	0.166284  	4800.000000	0.191149  	4800.000000	5.79362e-06	
5000.000000	0.212513  	5000.000000	0.193592  	5000.000000	0.16857   	5000.000000	0.166795  	5000.000000	0.193586  	5000.000000	5.57687e-06	
5250.000000	0.217871  	5250.000000	0.196679  	5250.000000	0.169201  	5250.000000	0.167429  	5250.000000	0.196673  	5250.000000	5.32837e-06	
5500.000000	0.223354  	5500.000000	0.199804  	5500.000000	0.169823  	5500.000000	0.168054  	5500.000000	0.199799  	5500.000000	5.10171e-06	
6000.000000	0.234673  	6000.000000	0.206151  	6000.000000	0.17104   	6000.000000	0.169277  	6000.000000	0.206146  	6000.000000	4.70321e-06	
6500.000000	0.246421  	6500.000000	0.212595  	6500.000000	0.172213  	6500.000000	0.170454  	6500.000000	0.212591  	6500.000000	4.36404e-06	
7000.000000	0.258565  	7000.000000	0.219113  	7000.000000	0.173339  	7000.000000	0.171583  	7000.000000	0.219109  	7000.000000	4.07177e-06	
7500.000000	0.27108   	7500.000000	0.225686  	7500.000000	0.174417  	7500.000000	0.172664  	7500.000000	0.225682  	7500.000000	3.81722e-06	
8000.000000	0.283946  	8000.000000	0.2323    	8000.000000	0.17545   	8000.000000	0.173699  	8000.000000	0.232296  	8000.000000	3.59346e-06	
8500.000000	0.29715   	8500.000000	0.238946  	8500.000000	0.176437  	8500.000000	0.174688  	8500.000000	0.238942  	8500.000000	3.39518e-06	
9000.000000	0.310679  	9000.000000	0.245615  	9000.000000	0.177379  	9000.000000	0.175635  	9000.000000	0.245612  	9000.000000	3.21823e-06	
9500.000000	0.324525  	9500.000000	0.252303  	9500.000000	0.178281  	9500.000000	0.176542  	9500.000000	0.2523    	9500.000000	3.0593e-06	
10000.000000	0.33868   	10000.000000	0.259003  	10000.000000	0.179147  	10000.000000	0.177411  	10000.000000	0.259001  	10000.000000	2.91576e-06	
11000.000000	0.367897  	11000.000000	0.272431  	11000.000000	0.180773  	11000.000000	0.179045  	11000.000000	0.272428  	11000.000000	2.66661e-06	
12000.000000	0.398296  	12000.000000	0.285876  	12000.000000	0.182272  	12000.000000	0.180554  	12000.000000	0.285873  	12000.000000	2.45771e-06	
13000.000000	0.429854  	13000.000000	0.299324  	13000.000000	0.183662  	13000.000000	0.181954  	13000.000000	0.299322  	13000.000000	2.27996e-06	
14000.000000	0.462557  	14000.000000	0.312768  	14000.000000	0.184958  	14000.000000	0.183258  	14000.000000	0.312766  	14000.000000	2.12683e-06	
15000.000000	0.496393  	15000.000000	0.326201  	15000.000000	0.186169  	15000.000000	0.184476  	15000.000000	0.326199  	15000.000000	1.99349e-06	
16000.000000	0.531356  	16000.000000	0.339618  	16000.000000	0.187303  	16000.000000	0.185619  	16000.000000	0.339616  	16000.000000	1.87631e-06	
17000.000000	0.567442  	17000.000000	0.353017  	17000.000000	0.188366  	17000.000000	0.186693  	17000.000000	0.353016  	17000.000000	1.77249e-06	
18000.000000	0.604651  	18000.000000	0.366397  	18000.000000	0.189366  	18000.000000	0.187707  	18000.000000	0.366395  	18000.000000	1.67985e-06	
19000.000000	0.64298   	19000.000000	0.379755  	19000.000000	0.19031   	19000.000000	0.188666  	19000.000000	0.379754  	19000.000000	1.59666e-06	
20000.000000	0.68243   	20000.000000	0.393092  	20000.000000	0.191204  	20000.000000	0.189575  	20000.000000	0.393091  	20000.000000	1.52154e-06	
21000.000000	0.723004  	21000.000000	0.406408  	21000.000000	0.192054  	21000.000000	0.19044   	21000.000000	0.406406  	21000.000000	1.45336e-06	
22000.000000	0.764704  	22000.000000	0.419701  	22000.000000	0.192866  	22000.000000	0.191263  	22000.000000	0.419699  	22000.000000	1.39118e-06	
23000.000000	0.807532  	23000.000000	0.432972  	23000.000000	0.193635  	23000.000000	0.192048  	23000.000000	0.43297   	23000.000000	1.33424e-06	
24000.000000	0.851492  	24000.000000	0.446221  	24000.000000	0.194367  	24000.000000	0.192799  	24000.000000	0.44622   	24000.000000	1.28191e-06	
25000.000000	0.896588  	25000.000000	0.459449  	25000.000000	0.19507   	25000.000000	0.193518  	25000.000000	0.459447  	25000.000000	1.23363e-06	
26000.000000	0.942823  	26000.000000	0.472655  	26000.000000	0.195745  	26000.000000	0.194208  	26000.000000	0.472654  	26000.000000	1.18895e-06	
27000.000000	0.990203  	27000.000000	0.485841  	27000.000000	0.196391  	27000.000000	0.194871  	27000.000000	0.48584   	27000.000000	1.14749e-06	
28000.000000	1.03873   	28000.000000	0.499006  	28000.000000	0.19701   	28000.000000	0.195508  	28000.000000	0.499005  	28000.000000	1.10889e-06	
29000.000000	1.08842   	29000.000000	0.512151  	29000.000000	0.197605  	29000.000000	0.196122  	29000.000000	0.51215   	29000.000000	1.07287e-06	
30000.000000	1.13926   	30000.000000	0.525277  	30000.000000	0.198176  	30000.000000	0.196714  	30000.000000	0.525276  	30000.000000	1.03919e-06	
32000.000000	1.24444   	32000.000000	0.551471  	32000.000000	0.199261  	32000.000000	0.197837  	32000.000000	0.55147   	32000.000000	9.77943e-07	
34000.000000	1.35433   	34000.000000	0.577591  	34000.000000	0.200275  	34000.000000	0.198889  	34000.000000	0.57759   	34000.000000	9.23693e-07	
36000.000000	1.46896   	36000.000000	0.603641  	36000.000000	0.20122   	36000.000000	0.199876  	36000.000000	0.60364   	36000.000000	8.75293e-07	
38000.000000	1.58839   	38000.000000	0.629624  	38000.000000	0.202101  	38000.000000	0.200807  	38000.000000	0.629623  	38000.000000	8.31839e-07	
40000.000000	1.71266   	40000.000000	0.655543  	40000.000000	0.202926  	40000.000000	0.201686  	40000.000000	0.655542  	40000.000000	7.92602e-07	
42000.000000	1.84183   	42000.000000	0.6814    	42000.000000	0.203705  	42000.000000	0.20252   	42000.000000	0.681399  	42000.000000	7.56993e-07	
44000.000000	1.97595   	44000.000000	0.707198  	44000.000000	0.204444  	44000.000000	0.203312  	44000.000000	0.707198  	44000.000000	7.24526e-07	
46000.000000	2.11505   	46000.000000	0.73294   	46000.000000	0.205148  	46000.000000	0.204066  	46000.000000	0.732939  	46000.000000	6.948e-07 	
48000.000000	2.25921   	48000.000000	0.758627  	48000.000000	0.20582   	48000.000000	0.204786  	48000.000000	0.758627  	48000.000000	6.67479e-07	
50000.000000	2.40847   	50000.000000	0.784262  	50000.000000	0.206456  	50000.000000	0.205474  	50000.000000	0.784262  	50000.000000	6.4228e-07	
