Energy (MeV/u)1	0 - [He-base] F.Hubert et al, AD&ND Tables 46(1990)1	Energy (MeV/u)2	1 - [H -base] J.F.Ziegler et al, Pergamon Press, NY (low energy)	Energy (MeV/u)3	2 - ATIMA 1.2  LS-theory (recommended for high energy)	Energy (MeV/u)4	3 - ATIMA 1.2  without LS-correction	Energy (MeV/u)5	4 - electrical component of [1] - J.F.Ziegler et al	Energy (MeV/u)6	5 - nuclear component of [1] - J.F.Ziegler et al	
0.001000	0.566916  	0.001000	0.301609  	0.001000	0.487681  	0.001000	0.487681  	0.001000	0.160196  	0.001000	0.141413  	
0.002000	0.66329   	0.002000	0.345858  	0.002000	0.552655  	0.002000	0.552655  	0.002000	0.234541  	0.002000	0.111317  	
0.005000	0.933788  	0.005000	0.45941   	0.005000	0.679387  	0.005000	0.679387  	0.005000	0.388227  	0.005000	0.0711832 	
0.008000	1.1603    	0.008000	0.556744  	0.008000	0.770947  	0.008000	0.770947  	0.008000	0.50275   	0.008000	0.0539945 	
0.010000	1.295     	0.010000	0.615323  	0.010000	0.822117  	0.010000	0.822117  	0.010000	0.568398  	0.010000	0.0469255 	
0.015000	1.52091   	0.015000	0.757787  	0.015000	0.943049  	0.015000	0.943049  	0.015000	0.72189   	0.015000	0.0358971 	
0.020000	1.698     	0.020000	0.93125   	0.020000	1.09938   	0.020000	1.09938   	0.020000	0.901831  	0.020000	0.0294196 	
0.025000	1.89061   	0.025000	1.09681   	0.025000	1.24957   	0.025000	1.24957   	0.025000	1.07194   	0.025000	0.0248704 	
0.030000	2.04676   	0.030000	1.25151   	0.030000	1.37581   	0.030000	1.37581   	0.030000	1.22972   	0.030000	0.0217898 	
0.035000	2.17166   	0.035000	1.39177   	0.035000	1.49123   	0.035000	1.49123   	0.035000	1.37233   	0.035000	0.0194484 	
0.040000	2.26747   	0.040000	1.5196    	0.040000	1.59628   	0.040000	1.59628   	0.040000	1.502     	0.040000	0.017602  	
0.045000	2.33575   	0.045000	1.6346    	0.045000	1.69139   	0.045000	1.69139   	0.045000	1.61849   	0.045000	0.0161047 	
0.050000	2.37844   	0.050000	1.73678   	0.050000	1.77698   	0.050000	1.77698   	0.050000	1.72192   	0.050000	0.0148633 	
0.055000	2.47309   	0.055000	1.82652   	0.055000	1.85354   	0.055000	1.85354   	0.055000	1.81271   	0.055000	0.0138156 	
0.060000	2.5518    	0.060000	1.90447   	0.060000	1.92158   	0.060000	1.92158   	0.060000	1.89155   	0.060000	0.0129183 	
0.070000	2.66645   	0.070000	2.02839   	0.070000	2.03433   	0.070000	2.03433   	0.070000	2.01693   	0.070000	0.0114586 	
0.080000	2.78936   	0.080000	2.11616   	0.080000	2.11974   	0.080000	2.11974   	0.080000	2.10584   	0.080000	0.0103186 	
0.090000	2.87795   	0.090000	2.17552   	0.090000	2.18233   	0.090000	2.18233   	0.090000	2.16612   	0.090000	0.00940132	
0.100000	2.94334   	0.100000	2.21336   	0.100000	2.22626   	0.100000	2.22626   	0.100000	2.20471   	0.100000	0.00864573	
0.120000	2.98487   	0.120000	2.27345   	0.120000	2.27238   	0.120000	2.27238   	0.120000	2.26598   	0.120000	0.0074709 	
0.140000	2.9921    	0.140000	2.2956    	0.140000	2.28137   	0.140000	2.28137   	0.140000	2.28901   	0.140000	0.00659648	
0.160000	2.99236   	0.160000	2.30214   	0.160000	2.2688    	0.160000	2.2688    	0.160000	2.29623   	0.160000	0.0059181 	
0.180000	2.98871   	0.180000	2.29347   	0.180000	2.24448   	0.180000	2.24448   	0.180000	2.28809   	0.180000	0.00537515	
0.200000	2.99663   	0.200000	2.28763   	0.200000	2.21431   	0.200000	2.21431   	0.200000	2.2827    	0.200000	0.0049299 	
0.250000	2.93531   	0.250000	2.25899   	0.250000	2.13221   	0.250000	2.13221   	0.250000	2.25489   	0.250000	0.00410026	
0.300000	2.92573   	0.300000	2.25953   	0.300000	2.06765   	0.300000	2.06765   	0.300000	2.25601   	0.300000	0.00352333	
0.350000	2.89172   	0.350000	2.23303   	0.350000	2.00962   	0.350000	2.00962   	0.350000	2.22993   	0.350000	0.00309714	
0.400000	2.84291   	0.400000	2.19352   	0.400000	1.95225   	0.400000	1.95225   	0.400000	2.19075   	0.400000	0.00276847	
0.450000	2.77866   	0.450000	2.14145   	0.450000	1.89492   	0.450000	1.89492   	0.450000	2.13894   	0.450000	0.00250671	
0.500000	2.7162    	0.500000	2.09166   	0.500000	1.84161   	0.500000	1.84161   	0.500000	2.08937   	0.500000	0.00229294	
0.600000	2.49273   	0.600000	1.98626   	0.600000	1.74526   	0.600000	1.74526   	0.600000	1.98429   	0.600000	0.00196401	
0.700000	2.26899   	0.700000	1.87525   	0.700000	1.66009   	0.700000	1.66009   	0.700000	1.87353   	0.700000	0.00172201	
0.800000	2.17012   	0.800000	1.7952    	0.800000	1.58384   	0.800000	1.58384   	0.800000	1.79367   	0.800000	0.00153599	
0.900000	2.06479   	0.900000	1.7103    	0.900000	1.51488   	0.900000	1.51488   	0.900000	1.70891   	0.900000	0.00138825	
1.000000	1.96024   	1.000000	1.62575   	1.000000	1.44829   	1.000000	1.44829   	1.000000	1.62448   	1.000000	0.00126788	
1.250000	1.72045   	1.250000	1.43599   	1.250000	1.30865   	1.250000	1.30865   	1.250000	1.43495   	1.250000	0.00104557	
1.500000	1.49373   	1.500000	1.25021   	1.500000	1.1959    	1.500000	1.1959    	1.500000	1.24932   	1.500000	0.000892598	
1.750000	1.32757   	1.750000	1.11768   	1.750000	1.10131   	1.750000	1.10131   	1.750000	1.11689   	1.750000	0.000780513	
2.000000	1.19909   	2.000000	1.01702   	2.000000	1.02046   	2.000000	1.02046   	2.000000	1.01632   	2.000000	0.000694643	
2.250000	1.09765   	2.250000	0.937038  	2.250000	0.950271  	2.250000	0.950271  	2.250000	0.936411  	2.250000	0.000626629	
2.500000	0.979644  	2.500000	0.871306  	2.500000	0.888917  	2.500000	0.888917  	2.500000	0.870735  	2.500000	0.000571348	
3.000000	0.860778  	3.000000	0.76824   	3.000000	0.78724   	3.000000	0.78724   	3.000000	0.767753  	3.000000	0.000486768	
3.500000	0.769179  	3.500000	0.689921  	3.500000	0.70689   	3.500000	0.70689   	3.500000	0.689496  	3.500000	0.000424944	
4.000000	0.696309  	4.000000	0.627759  	4.000000	0.642116  	4.000000	0.642116  	4.000000	0.627381  	4.000000	0.000377673	
4.500000	0.636875  	4.500000	0.576984  	4.500000	0.588946  	4.500000	0.588946  	4.500000	0.576643  	4.500000	0.000340294	
5.000000	0.587421  	5.000000	0.534635  	5.000000	0.54459   	5.000000	0.54459   	5.000000	0.534325  	5.000000	0.000309955	
5.500000	0.545589  	5.500000	0.498729  	5.500000	0.507049  	5.500000	0.507049  	5.500000	0.498444  	5.500000	0.000284813	
6.000000	0.509716  	6.000000	0.467872  	6.000000	0.474866  	6.000000	0.474866  	6.000000	0.467608  	6.000000	0.000263619	
6.500000	0.478593  	6.500000	0.441045  	6.500000	0.446963  	6.500000	0.446963  	6.500000	0.440799  	6.500000	0.000245497	
7.000000	0.45132   	7.000000	0.417489  	7.000000	0.422526  	7.000000	0.422526  	7.000000	0.417259  	7.000000	0.000229816	
7.500000	0.427213  	7.500000	0.396625  	7.500000	0.400936  	7.500000	0.400936  	7.500000	0.396409  	7.500000	0.000216106	
8.000000	0.405742  	8.000000	0.378003  	8.000000	0.381709  	8.000000	0.381709  	8.000000	0.377799  	8.000000	0.000204013	
8.500000	0.386489  	8.500000	0.361269  	8.500000	0.364466  	8.500000	0.364466  	8.500000	0.361075  	8.500000	0.000193261	
9.000000	0.369122  	9.000000	0.34614   	9.000000	0.348905  	9.000000	0.348905  	9.000000	0.345956  	9.000000	0.000183637	
9.500000	0.353373  	9.500000	0.332387  	9.500000	0.334783  	9.500000	0.334783  	9.500000	0.332212  	9.500000	0.000174968	
10.000000	0.339021  	10.000000	0.321265  	10.000000	0.321901  	10.000000	0.321901  	10.000000	0.321098  	10.000000	0.000167118	
11.000000	0.313814  	11.000000	0.298849  	11.000000	0.298709  	11.000000	0.298763  	11.000000	0.298695  	11.000000	0.000153443	
12.000000	0.29238   	12.000000	0.279557  	12.000000	0.278905  	12.000000	0.278994  	12.000000	0.279415  	12.000000	0.000141927	
13.000000	0.273919  	13.000000	0.262775  	13.000000	0.261769  	13.000000	0.261878  	13.000000	0.262643  	13.000000	0.000132088	
14.000000	0.257842  	14.000000	0.248041  	14.000000	0.246773  	14.000000	0.246891  	14.000000	0.247918  	14.000000	0.00012358	
15.000000	0.243709  	15.000000	0.234998  	15.000000	0.233525  	15.000000	0.233642  	15.000000	0.234882  	15.000000	0.000116147	
16.000000	0.231182  	16.000000	0.223367  	16.000000	0.221718  	16.000000	0.221833  	16.000000	0.223257  	16.000000	0.000109594	
17.000000	0.219996  	17.000000	0.212928  	17.000000	0.211119  	17.000000	0.211232  	17.000000	0.212824  	17.000000	0.000103772	
18.000000	0.209945  	18.000000	0.203505  	18.000000	0.201549  	18.000000	0.201654  	18.000000	0.203406  	18.000000	9.85632e-05	
19.000000	0.20086   	19.000000	0.194954  	19.000000	0.192857  	19.000000	0.192953  	19.000000	0.19486   	19.000000	9.38741e-05	
20.000000	0.192607  	20.000000	0.187159  	20.000000	0.184917  	20.000000	0.18501   	20.000000	0.187069  	20.000000	8.96296e-05	
21.000000	0.185075  	21.000000	0.180021  	21.000000	0.177636  	21.000000	0.177726  	21.000000	0.179936  	21.000000	8.57684e-05	
22.000000	0.17817   	22.000000	0.173461  	22.000000	0.170941  	22.000000	0.17102   	22.000000	0.173379  	22.000000	8.22402e-05	
23.000000	0.171818  	23.000000	0.167409  	23.000000	0.16476   	23.000000	0.164823  	23.000000	0.16733   	23.000000	7.90031e-05	
24.000000	0.165952  	24.000000	0.161809  	24.000000	0.159028  	24.000000	0.159079  	24.000000	0.161733  	24.000000	7.60219e-05	
25.000000	0.160518  	25.000000	0.15661   	25.000000	0.153694  	25.000000	0.153738  	25.000000	0.156536  	25.000000	7.3267e-05	
27.000000	0.150764  	27.000000	0.147253  	27.000000	0.144074  	27.000000	0.144105  	27.000000	0.147185  	27.000000	6.83391e-05	
29.000000	0.142255  	29.000000	0.139065  	29.000000	0.135639  	29.000000	0.135652  	29.000000	0.139001  	29.000000	6.40577e-05	
31.000000	0.134763  	31.000000	0.131837  	31.000000	0.128445  	31.000000	0.128441  	31.000000	0.131777  	31.000000	6.03017e-05	
33.000000	0.128112  	33.000000	0.125408  	33.000000	0.122292  	33.000000	0.122273  	33.000000	0.125351  	33.000000	5.69789e-05	
35.000000	0.122166  	35.000000	0.119649  	35.000000	0.116777  	35.000000	0.116745  	35.000000	0.119595  	35.000000	5.40174e-05	
38.000000	0.114338  	38.000000	0.112054  	38.000000	0.109494  	38.000000	0.109445  	38.000000	0.112004  	38.000000	5.0132e-05	
41.000000	0.107576  	41.000000	0.105482  	41.000000	0.103182  	41.000000	0.103119  	41.000000	0.105435  	41.000000	4.67884e-05	
44.000000	0.101671  	44.000000	0.0997362 	44.000000	0.0976549 	44.000000	0.097582  	44.000000	0.0996924 	44.000000	4.38794e-05	
47.000000	0.0964691 	47.000000	0.0946691 	47.000000	0.0927756 	47.000000	0.0926915 	47.000000	0.0946278 	47.000000	4.13244e-05	
50.000000	0.0918481 	50.000000	0.0901653 	50.000000	0.0884222 	50.000000	0.0883388 	50.000000	0.0901263 	50.000000	3.90617e-05	
55.000000	0.0851919 	55.000000	0.0836747 	55.000000	0.0821428 	55.000000	0.0820551 	55.000000	0.0836389 	55.000000	3.58141e-05	
60.000000	0.0795716 	60.000000	0.0781933 	60.000000	0.0768317 	60.000000	0.0767374 	60.000000	0.0781603 	60.000000	3.30836e-05	
65.000000	0.0747588 	65.000000	0.0735003 	65.000000	0.0722674 	65.000000	0.0721757 	65.000000	0.0734696 	65.000000	3.07544e-05	
70.000000	0.0705878 	70.000000	0.0694352 	70.000000	0.0683178 	70.000000	0.0682172 	70.000000	0.0694065 	70.000000	2.87431e-05	
75.000000	0.0669357 	75.000000	0.0658786 	75.000000	0.0648436 	75.000000	0.0647481 	75.000000	0.0658516 	75.000000	2.6988e-05	
80.000000	0.0637096 	80.000000	0.0627397 	80.000000	0.0617814 	80.000000	0.0616818 	80.000000	0.0627143 	80.000000	2.54426e-05	
85.000000	0.0608375 	85.000000	0.0599483 	85.000000	0.0590457 	85.000000	0.058951  	85.000000	0.0599242 	85.000000	2.40709e-05	
90.000000	0.0582629 	90.000000	0.0574491 	90.000000	0.0566013 	90.000000	0.056503  	90.000000	0.0574262 	90.000000	2.28448e-05	
95.000000	0.0559408 	95.000000	0.0551981 	95.000000	0.0543891 	95.000000	0.0542954 	95.000000	0.0551763 	95.000000	2.17422e-05	
100.000000	0.0538351 	100.000000	0.0531597 	100.000000	0.0523911 	100.000000	0.0522942 	100.000000	0.0531389 	100.000000	2.07449e-05	
105.000000	0.0519162 	105.000000	0.0513048 	105.000000	0.0505642 	105.000000	0.0504714 	105.000000	0.051285  	105.000000	1.98384e-05	
110.000000	0.0501596 	110.000000	0.0496096 	110.000000	0.0488987 	110.000000	0.0488039 	110.000000	0.0495906 	110.000000	1.90108e-05	
115.000000	0.0485451 	115.000000	0.0480541 	115.000000	0.0473653 	115.000000	0.0472725 	115.000000	0.0480358 	115.000000	1.82519e-05	
120.000000	0.0470558 	120.000000	0.0466215 	120.000000	0.0459529 	120.000000	0.0458612 	120.000000	0.046604  	120.000000	1.75535e-05	
125.000000	0.0456773 	125.000000	0.0452978 	125.000000	0.0446495 	125.000000	0.0445561 	125.000000	0.0452809 	125.000000	1.69086e-05	
130.000000	0.0443973 	130.000000	0.0440708 	130.000000	0.0434357 	130.000000	0.0433457 	130.000000	0.0440545 	130.000000	1.63111e-05	
135.000000	0.0432054 	135.000000	0.0429304 	135.000000	0.0423064 	135.000000	0.04222   	135.000000	0.0429146 	135.000000	1.5756e-05	
140.000000	0.0420926 	140.000000	0.0418675 	140.000000	0.0412574 	140.000000	0.0411703 	140.000000	0.0418522 	140.000000	1.52387e-05	
145.000000	0.041051  	145.000000	0.0408745 	145.000000	0.0402771 	145.000000	0.0401892 	145.000000	0.0408597 	145.000000	1.47557e-05	
150.000000	0.0400739 	150.000000	0.0399446 	150.000000	0.0393552 	150.000000	0.0392701 	150.000000	0.0399303 	150.000000	1.43034e-05	
155.000000	0.0386981 	155.000000	0.0390721 	155.000000	0.0384929 	155.000000	0.0384073 	155.000000	0.0390582 	155.000000	1.3879e-05	
160.000000	0.0378917 	160.000000	0.0382516 	160.000000	0.0376822 	160.000000	0.0375958 	160.000000	0.0382382 	160.000000	1.34801e-05	
165.000000	0.0371312 	165.000000	0.0374788 	165.000000	0.0369151 	165.000000	0.0368311 	165.000000	0.0374657 	165.000000	1.31043e-05	
170.000000	0.0364128 	170.000000	0.0367495 	170.000000	0.0361931 	170.000000	0.0361094 	170.000000	0.0367367 	170.000000	1.27496e-05	
175.000000	0.0357331 	175.000000	0.0360601 	175.000000	0.035512  	175.000000	0.035427  	175.000000	0.0360477 	175.000000	1.24143e-05	
180.000000	0.0350889 	180.000000	0.0354075 	180.000000	0.0348648 	180.000000	0.0347809 	180.000000	0.0353954 	180.000000	1.20969e-05	
185.000000	0.0344776 	185.000000	0.0347888 	185.000000	0.0342496 	185.000000	0.0341682 	185.000000	0.034777  	185.000000	1.17959e-05	
190.000000	0.0338966 	190.000000	0.0342013 	190.000000	0.0336659 	190.000000	0.0335865 	190.000000	0.0341898 	190.000000	1.15101e-05	
195.000000	0.0333436 	195.000000	0.0336429 	195.000000	0.0331128 	195.000000	0.0330335 	195.000000	0.0336317 	195.000000	1.12383e-05	
200.000000	0.0328168 	200.000000	0.0331113 	200.000000	0.0325875 	200.000000	0.032507  	200.000000	0.0331004 	200.000000	1.09795e-05	
210.000000	0.0318343 	210.000000	0.0321215 	210.000000	0.0316048 	210.000000	0.0315266 	210.000000	0.032111  	210.000000	1.04973e-05	
220.000000	0.0309363 	220.000000	0.0312187 	220.000000	0.0307114 	220.000000	0.0306324 	220.000000	0.0312086 	220.000000	1.00572e-05	
230.000000	0.0301123 	230.000000	0.0303918 	230.000000	0.0298912 	230.000000	0.0298136 	230.000000	0.0303822 	230.000000	9.65381e-06	
240.000000	0.0293534 	240.000000	0.0296319 	240.000000	0.0291356 	240.000000	0.0290612 	240.000000	0.0296226 	240.000000	9.28263e-06	
250.000000	0.0286523 	250.000000	0.028931  	250.000000	0.0284422 	250.000000	0.0283674 	250.000000	0.0289221 	250.000000	8.93993e-06	
260.000000	0.0280024 	260.000000	0.0282826 	260.000000	0.0278004 	260.000000	0.0277259 	260.000000	0.028274  	260.000000	8.6225e-06	
270.000000	0.0273984 	270.000000	0.0276812 	270.000000	0.0272038 	270.000000	0.0271309 	270.000000	0.0276728 	270.000000	8.32764e-06	
280.000000	0.0268357 	280.000000	0.0271217 	280.000000	0.0266517 	280.000000	0.0265778 	280.000000	0.0271137 	280.000000	8.05297e-06	
290.000000	0.02631   	290.000000	0.0266001 	290.000000	0.026135  	290.000000	0.0260623 	290.000000	0.0265923 	290.000000	7.79647e-06	
300.000000	0.0258179 	300.000000	0.0261126 	300.000000	0.0256512 	300.000000	0.0255808 	300.000000	0.0261051 	300.000000	7.55639e-06	
310.000000	0.0253563 	310.000000	0.0256561 	310.000000	0.0251997 	310.000000	0.0251301 	310.000000	0.0256488 	310.000000	7.33116e-06	
320.000000	0.0249224 	320.000000	0.0252278 	320.000000	0.024778  	320.000000	0.0247075 	320.000000	0.0252206 	320.000000	7.11944e-06	
330.000000	0.0245139 	330.000000	0.0248251 	330.000000	0.0243805 	330.000000	0.0243104 	330.000000	0.0248182 	330.000000	6.92003e-06	
340.000000	0.0241286 	340.000000	0.0244459 	340.000000	0.0240051 	340.000000	0.0239368 	340.000000	0.0244392 	340.000000	6.73188e-06	
350.000000	0.0237646 	350.000000	0.0240882 	350.000000	0.0236514 	350.000000	0.0235846 	350.000000	0.0240817 	350.000000	6.55404e-06	
360.000000	0.0234203 	360.000000	0.0237504 	360.000000	0.0233189 	360.000000	0.0232521 	360.000000	0.023744  	360.000000	6.38569e-06	
370.000000	0.023094  	370.000000	0.0234308 	370.000000	0.0230053 	370.000000	0.0229378 	370.000000	0.0234245 	370.000000	6.22608e-06	
380.000000	0.0227845 	380.000000	0.023128  	380.000000	0.0227071 	380.000000	0.0226403 	380.000000	0.0231219 	380.000000	6.07453e-06	
390.000000	0.0224905 	390.000000	0.0228408 	390.000000	0.022424  	390.000000	0.0223583 	390.000000	0.0228349 	390.000000	5.93044e-06	
400.000000	0.0222109 	400.000000	0.0225681 	400.000000	0.0221566 	400.000000	0.0220907 	400.000000	0.0225623 	400.000000	5.79326e-06	
410.000000	0.0219448 	410.000000	0.0223088 	410.000000	0.0219029 	410.000000	0.0218365 	410.000000	0.0223031 	410.000000	5.66251e-06	
420.000000	0.0216911 	420.000000	0.022062  	420.000000	0.0216606 	420.000000	0.0215947 	420.000000	0.0220565 	420.000000	5.53774e-06	
430.000000	0.0214491 	430.000000	0.0218269 	430.000000	0.0214293 	430.000000	0.0213645 	430.000000	0.0218215 	430.000000	5.41854e-06	
440.000000	0.021218  	440.000000	0.0216027 	440.000000	0.0212087 	440.000000	0.0211451 	440.000000	0.0215974 	440.000000	5.30454e-06	
450.000000	0.0209972 	450.000000	0.0213886 	450.000000	0.0209988 	450.000000	0.0209358 	450.000000	0.0213834 	450.000000	5.19541e-06	
460.000000	0.0207859 	460.000000	0.0211841 	460.000000	0.0207991 	460.000000	0.020736  	460.000000	0.021179  	460.000000	5.09083e-06	
470.000000	0.0205836 	470.000000	0.0209885 	470.000000	0.0206087 	470.000000	0.0205451 	470.000000	0.0209835 	470.000000	4.99053e-06	
480.000000	0.0203898 	480.000000	0.0208013 	480.000000	0.0204262 	480.000000	0.0203626 	480.000000	0.0207964 	480.000000	4.89425e-06	
490.000000	0.020204  	490.000000	0.0206221 	490.000000	0.0202509 	490.000000	0.0201878 	490.000000	0.0206173 	490.000000	4.80173e-06	
500.000000	0.0200257 	500.000000	0.0204503 	500.000000	0.0200827 	500.000000	0.0200205 	500.000000	0.0204455 	500.000000	4.71278e-06	
520.000000	0.01969   	520.000000	0.0201273 	520.000000	0.0197668 	520.000000	0.0197062 	520.000000	0.0201227 	520.000000	4.54473e-06	
540.000000	0.0193797 	540.000000	0.0198294 	540.000000	0.0194775 	540.000000	0.0194167 	540.000000	0.019825  	540.000000	4.38865e-06	
560.000000	0.0190924 	560.000000	0.019554  	560.000000	0.0192105 	560.000000	0.0191494 	560.000000	0.0195497 	560.000000	4.24328e-06	
580.000000	0.0188256 	580.000000	0.0192987 	580.000000	0.0189619 	580.000000	0.018902  	580.000000	0.0192946 	580.000000	4.10756e-06	
600.000000	0.0185774 	600.000000	0.0190617 	600.000000	0.0187323 	600.000000	0.0186726 	600.000000	0.0190578 	600.000000	3.98054e-06	
620.000000	0.0183462 	620.000000	0.0188413 	620.000000	0.0185196 	620.000000	0.0184593 	620.000000	0.0188374 	620.000000	3.8614e-06	
640.000000	0.0181304 	640.000000	0.0186358 	640.000000	0.0183205 	640.000000	0.0182608 	640.000000	0.018632  	640.000000	3.74942e-06	
660.000000	0.0179288 	660.000000	0.018444  	660.000000	0.0181342 	660.000000	0.0180756 	660.000000	0.0184404 	660.000000	3.64396e-06	
680.000000	0.01774   	680.000000	0.0182647 	680.000000	0.0179602 	680.000000	0.0179026 	680.000000	0.0182612 	680.000000	3.54448e-06	
700.000000	0.0175631 	700.000000	0.0180969 	700.000000	0.0177981 	700.000000	0.0177407 	700.000000	0.0180935 	700.000000	3.45046e-06	
720.000000	0.0173972 	720.000000	0.0179397 	720.000000	0.0176469 	720.000000	0.0175891 	720.000000	0.0179363 	720.000000	3.36147e-06	
740.000000	0.0172413 	740.000000	0.0177921 	740.000000	0.0175048 	740.000000	0.0174468 	740.000000	0.0177888 	740.000000	3.2771e-06	
760.000000	0.0170948 	760.000000	0.0176535 	760.000000	0.0173708 	760.000000	0.0173132 	760.000000	0.0176503 	760.000000	3.19701e-06	
780.000000	0.0169569 	780.000000	0.0175231 	780.000000	0.0172444 	780.000000	0.0171875 	780.000000	0.01752   	780.000000	3.12087e-06	
800.000000	0.0168271 	800.000000	0.0174005 	800.000000	0.0171253 	800.000000	0.0170692 	800.000000	0.0173974 	800.000000	3.04839e-06	
820.000000	0.0167048 	820.000000	0.017285  	820.000000	0.0170138 	820.000000	0.0169583 	820.000000	0.017282  	820.000000	2.97931e-06	
840.000000	0.0165895 	840.000000	0.0171761 	840.000000	0.0169115 	840.000000	0.0168562 	840.000000	0.0171732 	840.000000	2.9134e-06	
860.000000	0.0164807 	860.000000	0.0170733 	860.000000	0.0168154 	860.000000	0.0167599 	860.000000	0.0170705 	860.000000	2.85044e-06	
880.000000	0.016378  	880.000000	0.0169764 	880.000000	0.0167247 	880.000000	0.0166689 	880.000000	0.0169736 	880.000000	2.79023e-06	
900.000000	0.016281  	900.000000	0.0168848 	900.000000	0.0166387 	900.000000	0.0165828 	900.000000	0.0168821 	900.000000	2.7326e-06	
920.000000	0.0161894 	920.000000	0.0167983 	920.000000	0.016557  	920.000000	0.0165014 	920.000000	0.0167957 	920.000000	2.67738e-06	
940.000000	0.0161028 	940.000000	0.0167166 	940.000000	0.0164794 	940.000000	0.0164243 	940.000000	0.016714  	940.000000	2.62442e-06	
960.000000	0.016021  	960.000000	0.0166393 	960.000000	0.0164058 	960.000000	0.0163513 	960.000000	0.0166367 	960.000000	2.57359e-06	
980.000000	0.0159436 	980.000000	0.0165661 	980.000000	0.0163361 	980.000000	0.0162821 	980.000000	0.0165636 	980.000000	2.52475e-06	
1000.000000	0.0158705 	1000.000000	0.0164969 	1000.000000	0.01627   	1000.000000	0.0162164 	1000.000000	0.0164944 	1000.000000	2.4778e-06	
1020.000000	0.0158014 	1020.000000	0.0164314 	1020.000000	0.0162075 	1020.000000	0.0161541 	1020.000000	0.016429  	1020.000000	2.43261e-06	
1040.000000	0.0157361 	1040.000000	0.0163694 	1040.000000	0.0161483 	1040.000000	0.0160949 	1040.000000	0.016367  	1040.000000	2.3891e-06	
1060.000000	0.0156743 	1060.000000	0.0163107 	1060.000000	0.0160923 	1060.000000	0.0160387 	1060.000000	0.0163084 	1060.000000	2.34717e-06	
1080.000000	0.0156159 	1080.000000	0.0162551 	1080.000000	0.0160391 	1080.000000	0.0159853 	1080.000000	0.0162528 	1080.000000	2.30674e-06	
1100.000000	0.0155607 	1100.000000	0.0162025 	1100.000000	0.0159885 	1100.000000	0.0159345 	1100.000000	0.0162002 	1100.000000	2.26772e-06	
1120.000000	0.0155086 	1120.000000	0.0161527 	1120.000000	0.0159401 	1120.000000	0.0158862 	1120.000000	0.0161505 	1120.000000	2.23004e-06	
1140.000000	0.0154594 	1140.000000	0.0161055 	1140.000000	0.0158939 	1140.000000	0.0158403 	1140.000000	0.0161034 	1140.000000	2.19364e-06	
1160.000000	0.0154129 	1160.000000	0.0160609 	1160.000000	0.0158498 	1160.000000	0.0157966 	1160.000000	0.0160588 	1160.000000	2.15844e-06	
1180.000000	0.0153691 	1180.000000	0.0160187 	1180.000000	0.0158079 	1180.000000	0.015755  	1180.000000	0.0160166 	1180.000000	2.12439e-06	
1200.000000	0.0153278 	1200.000000	0.0159787 	1200.000000	0.0157681 	1200.000000	0.0157153 	1200.000000	0.0159766 	1200.000000	2.09144e-06	
1220.000000	0.0152888 	1220.000000	0.0159409 	1220.000000	0.0157303 	1220.000000	0.0156776 	1220.000000	0.0159389 	1220.000000	2.05953e-06	
1240.000000	0.0152522 	1240.000000	0.0159052 	1240.000000	0.0156944 	1240.000000	0.0156416 	1240.000000	0.0159032 	1240.000000	2.02861e-06	
1260.000000	0.0152177 	1260.000000	0.0158715 	1260.000000	0.0156603 	1260.000000	0.0156074 	1260.000000	0.0158695 	1260.000000	1.99863e-06	
1280.000000	0.0151854 	1280.000000	0.0158396 	1280.000000	0.0156278 	1280.000000	0.0155747 	1280.000000	0.0158376 	1280.000000	1.96956e-06	
1300.000000	0.015155  	1300.000000	0.0158095 	1300.000000	0.0155968 	1300.000000	0.0155436 	1300.000000	0.0158076 	1300.000000	1.94135e-06	
1320.000000	0.0151265 	1320.000000	0.0157812 	1320.000000	0.0155672 	1320.000000	0.0155139 	1320.000000	0.0157793 	1320.000000	1.91396e-06	
1340.000000	0.0150999 	1340.000000	0.0157545 	1340.000000	0.0155388 	1340.000000	0.0154857 	1340.000000	0.0157526 	1340.000000	1.88736e-06	
1360.000000	0.015075  	1360.000000	0.0157293 	1360.000000	0.0155118 	1360.000000	0.0154587 	1360.000000	0.0157274 	1360.000000	1.86151e-06	
1380.000000	0.0150518 	1380.000000	0.0157056 	1380.000000	0.0154859 	1380.000000	0.015433  	1380.000000	0.0157038 	1380.000000	1.83638e-06	
1400.000000	0.0150302 	1400.000000	0.0156834 	1400.000000	0.0154612 	1400.000000	0.0154085 	1400.000000	0.0156816 	1400.000000	1.81195e-06	
1420.000000	0.0150102 	1420.000000	0.0156626 	1420.000000	0.0154376 	1420.000000	0.0153852 	1420.000000	0.0156608 	1420.000000	1.78818e-06	
1440.000000	0.0149917 	1440.000000	0.0156431 	1440.000000	0.0154151 	1440.000000	0.0153629 	1440.000000	0.0156413 	1440.000000	1.76504e-06	
1460.000000	0.0149746 	1460.000000	0.0156248 	1460.000000	0.0153936 	1460.000000	0.0153417 	1460.000000	0.0156231 	1460.000000	1.74252e-06	
1480.000000	0.014959  	1480.000000	0.0156078 	1480.000000	0.0153732 	1480.000000	0.0153215 	1480.000000	0.0156061 	1480.000000	1.72058e-06	
1500.000000	0.0149446 	1500.000000	0.0155919 	1500.000000	0.0153537 	1500.000000	0.0153022 	1500.000000	0.0155902 	1500.000000	1.69921e-06	
1520.000000	0.0149315 	1520.000000	0.0155772 	1520.000000	0.0153352 	1520.000000	0.0152838 	1520.000000	0.0155755 	1520.000000	1.67838e-06	
1540.000000	0.0149197 	1540.000000	0.0155635 	1540.000000	0.0153175 	1540.000000	0.0152663 	1540.000000	0.0155619 	1540.000000	1.65807e-06	
1560.000000	0.0149091 	1560.000000	0.0155509 	1560.000000	0.0153008 	1560.000000	0.0152497 	1560.000000	0.0155493 	1560.000000	1.63826e-06	
1580.000000	0.0148996 	1580.000000	0.0155393 	1580.000000	0.0152848 	1580.000000	0.0152338 	1580.000000	0.0155376 	1580.000000	1.61893e-06	
1600.000000	0.0148912 	1600.000000	0.0155286 	1600.000000	0.0152697 	1600.000000	0.0152187 	1600.000000	0.015527  	1600.000000	1.60007e-06	
1620.000000	0.0148839 	1620.000000	0.0155189 	1620.000000	0.0152553 	1620.000000	0.0152043 	1620.000000	0.0155173 	1620.000000	1.58166e-06	
1640.000000	0.0148777 	1640.000000	0.01551   	1640.000000	0.0152417 	1640.000000	0.0151907 	1640.000000	0.0155085 	1640.000000	1.56368e-06	
1660.000000	0.0148725 	1660.000000	0.0155021 	1660.000000	0.0152287 	1660.000000	0.0151777 	1660.000000	0.0155005 	1660.000000	1.54612e-06	
1680.000000	0.0148682 	1680.000000	0.0154949 	1680.000000	0.0152165 	1680.000000	0.0151653 	1680.000000	0.0154934 	1680.000000	1.52897e-06	
1700.000000	0.0148649 	1700.000000	0.0154886 	1700.000000	0.0152048 	1700.000000	0.0151536 	1700.000000	0.0154871 	1700.000000	1.5122e-06	
1750.000000	0.0148605 	1750.000000	0.0154761 	1750.000000	0.0151781 	1750.000000	0.0151267 	1750.000000	0.0154746 	1750.000000	1.47189e-06	
1800.000000	0.0148614 	1800.000000	0.015468  	1800.000000	0.0151547 	1800.000000	0.0151033 	1800.000000	0.0154665 	1800.000000	1.43375e-06	
1850.000000	0.0148672 	1850.000000	0.015464  	1850.000000	0.0151342 	1850.000000	0.0150829 	1850.000000	0.0154626 	1850.000000	1.39759e-06	
1900.000000	0.0148775 	1900.000000	0.0154638 	1900.000000	0.0151164 	1900.000000	0.0150652 	1900.000000	0.0154624 	1900.000000	1.36327e-06	
1950.000000	0.014892  	1950.000000	0.015467  	1950.000000	0.0151009 	1950.000000	0.01505   	1950.000000	0.0154657 	1950.000000	1.33065e-06	
2000.000000	0.0149105 	2000.000000	0.0154735 	2000.000000	0.0150878 	2000.000000	0.0150371 	2000.000000	0.0154722 	2000.000000	1.2996e-06	
2100.000000	0.0149582 	2100.000000	0.0154952 	2100.000000	0.0150675 	2100.000000	0.0150174 	2100.000000	0.015494  	2100.000000	1.24178e-06	
2200.000000	0.0150189 	2200.000000	0.0155273 	2200.000000	0.0150542 	2200.000000	0.0150045 	2200.000000	0.0155261 	2200.000000	1.18904e-06	
2300.000000	0.0150911 	2300.000000	0.0155683 	2300.000000	0.0150469 	2300.000000	0.0149975 	2300.000000	0.0155672 	2300.000000	1.14073e-06	
2400.000000	0.0151734 	2400.000000	0.0156172 	2400.000000	0.0150447 	2400.000000	0.0149953 	2400.000000	0.0156161 	2400.000000	1.09631e-06	
2500.000000	0.0152649 	2500.000000	0.015673  	2500.000000	0.0150467 	2500.000000	0.0149973 	2500.000000	0.015672  	2500.000000	1.05531e-06	
2600.000000	0.0153647 	2600.000000	0.015735  	2600.000000	0.0150523 	2600.000000	0.0150028 	2600.000000	0.0157339 	2600.000000	1.01737e-06	
2700.000000	0.0154719 	2700.000000	0.0158023 	2700.000000	0.0150608 	2700.000000	0.0150112 	2700.000000	0.0158013 	2700.000000	9.82136e-07	
2800.000000	0.0155859 	2800.000000	0.0158745 	2800.000000	0.0150718 	2800.000000	0.0150221 	2800.000000	0.0158735 	2800.000000	9.49335e-07	
2900.000000	0.0157062 	2900.000000	0.015951  	2900.000000	0.0150849 	2900.000000	0.0150351 	2900.000000	0.0159501 	2900.000000	9.18718e-07	
3000.000000	0.0158322 	3000.000000	0.0160314 	3000.000000	0.0150997 	3000.000000	0.0150499 	3000.000000	0.0160305 	3000.000000	8.90074e-07	
3200.000000	0.0160996 	3200.000000	0.0162024 	3200.000000	0.0151335 	3200.000000	0.015084  	3200.000000	0.0162015 	3200.000000	8.37977e-07	
3400.000000	0.0163852 	3400.000000	0.0163849 	3400.000000	0.0151717 	3400.000000	0.0151225 	3400.000000	0.0163841 	3400.000000	7.91807e-07	
3600.000000	0.0166868 	3600.000000	0.0165769 	3600.000000	0.0152131 	3600.000000	0.0151642 	3600.000000	0.0165761 	3600.000000	7.50599e-07	
3800.000000	0.0170025 	3800.000000	0.0167769 	3800.000000	0.0152568 	3800.000000	0.0152081 	3800.000000	0.0167761 	3800.000000	7.13586e-07	
4000.000000	0.0173309 	4000.000000	0.0169836 	4000.000000	0.015302  	4000.000000	0.0152535 	4000.000000	0.0169829 	4000.000000	6.80152e-07	
4200.000000	0.0176706 	4200.000000	0.017196  	4200.000000	0.0153482 	4200.000000	0.0152998 	4200.000000	0.0171953 	4200.000000	6.49799e-07	
4400.000000	0.0180208 	4400.000000	0.0174132 	4400.000000	0.015395  	4400.000000	0.0153467 	4400.000000	0.0174126 	4400.000000	6.22114e-07	
4600.000000	0.0183806 	4600.000000	0.0176347 	4600.000000	0.015442  	4600.000000	0.0153938 	4600.000000	0.0176341 	4600.000000	5.96759e-07	
4800.000000	0.0187492 	4800.000000	0.0178598 	4800.000000	0.0154889 	4800.000000	0.0154408 	4800.000000	0.0178592 	4800.000000	5.73447e-07	
5000.000000	0.0191262 	5000.000000	0.0180881 	5000.000000	0.0155357 	5000.000000	0.0154877 	5000.000000	0.0180875 	5000.000000	5.51939e-07	
5250.000000	0.0196083 	5250.000000	0.0183772 	5250.000000	0.0155937 	5250.000000	0.0155457 	5250.000000	0.0183767 	5250.000000	5.27284e-07	
5500.000000	0.0201019 	5500.000000	0.01867   	5500.000000	0.0156509 	5500.000000	0.015603  	5500.000000	0.0186695 	5500.000000	5.04798e-07	
6000.000000	0.0211206 	6000.000000	0.0192644 	6000.000000	0.0157625 	6000.000000	0.0157148 	6000.000000	0.0192639 	6000.000000	4.65271e-07	
6500.000000	0.0221779 	6500.000000	0.019868  	6500.000000	0.01587   	6500.000000	0.0158224 	6500.000000	0.0198675 	6500.000000	4.31638e-07	
7000.000000	0.0232709 	7000.000000	0.0204784 	7000.000000	0.0159731 	7000.000000	0.0159256 	7000.000000	0.020478  	7000.000000	4.02661e-07	
7500.000000	0.0243972 	7500.000000	0.021094  	7500.000000	0.0160717 	7500.000000	0.0160243 	7500.000000	0.0210936 	7500.000000	3.77428e-07	
8000.000000	0.0255552 	8000.000000	0.0217134 	8000.000000	0.0161661 	8000.000000	0.0161187 	8000.000000	0.0217131 	8000.000000	3.55252e-07	
8500.000000	0.0267435 	8500.000000	0.0223359 	8500.000000	0.0162562 	8500.000000	0.0162089 	8500.000000	0.0223355 	8500.000000	3.35604e-07	
9000.000000	0.0279611 	9000.000000	0.0229605 	9000.000000	0.0163421 	9000.000000	0.0162952 	9000.000000	0.0229602 	9000.000000	3.18072e-07	
9500.000000	0.0292072 	9500.000000	0.0235868 	9500.000000	0.0164245 	9500.000000	0.0163778 	9500.000000	0.0235865 	9500.000000	3.02328e-07	
10000.000000	0.0304812 	10000.000000	0.0242144 	10000.000000	0.0165037 	10000.000000	0.016457  	10000.000000	0.0242141 	10000.000000	2.8811e-07	
11000.000000	0.0331107 	11000.000000	0.0254719 	11000.000000	0.0166523 	11000.000000	0.0166057 	11000.000000	0.0254716 	11000.000000	2.63436e-07	
12000.000000	0.0358466 	12000.000000	0.026731  	12000.000000	0.0167889 	12000.000000	0.016743  	12000.000000	0.0267308 	12000.000000	2.42753e-07	
13000.000000	0.0386869 	13000.000000	0.0279906 	13000.000000	0.0169156 	13000.000000	0.0168703 	13000.000000	0.0279903 	13000.000000	2.25158e-07	
14000.000000	0.0416301 	14000.000000	0.0292496 	14000.000000	0.0170338 	14000.000000	0.0169887 	14000.000000	0.0292494 	14000.000000	2.10003e-07	
15000.000000	0.0446753 	15000.000000	0.0305076 	15000.000000	0.0171445 	15000.000000	0.0170994 	15000.000000	0.0305074 	15000.000000	1.96808e-07	
16000.000000	0.047822  	16000.000000	0.0317642 	16000.000000	0.0172482 	16000.000000	0.0172032 	16000.000000	0.031764  	16000.000000	1.85214e-07	
17000.000000	0.0510698 	17000.000000	0.0330191 	17000.000000	0.0173456 	17000.000000	0.0173007 	17000.000000	0.0330189 	17000.000000	1.74944e-07	
18000.000000	0.0544185 	18000.000000	0.0342721 	18000.000000	0.0174371 	18000.000000	0.0173927 	18000.000000	0.0342719 	18000.000000	1.65781e-07	
19000.000000	0.0578682 	19000.000000	0.0355231 	19000.000000	0.0175235 	19000.000000	0.0174798 	19000.000000	0.035523  	19000.000000	1.57554e-07	
20000.000000	0.0614187 	20000.000000	0.0367722 	20000.000000	0.0176053 	20000.000000	0.0175623 	20000.000000	0.036772  	20000.000000	1.50125e-07	
21000.000000	0.0650704 	21000.000000	0.0380192 	21000.000000	0.0176829 	21000.000000	0.0176407 	21000.000000	0.038019  	21000.000000	1.43384e-07	
22000.000000	0.0688233 	22000.000000	0.0392641 	22000.000000	0.0177571 	22000.000000	0.0177154 	22000.000000	0.0392639 	22000.000000	1.37236e-07	
23000.000000	0.0726779 	23000.000000	0.0405069 	23000.000000	0.0178281 	23000.000000	0.0177866 	23000.000000	0.0405068 	23000.000000	1.31608e-07	
24000.000000	0.0766343 	24000.000000	0.0417478 	24000.000000	0.0178958 	24000.000000	0.0178547 	24000.000000	0.0417476 	24000.000000	1.26435e-07	
25000.000000	0.0806929 	25000.000000	0.0429866 	25000.000000	0.0179604 	25000.000000	0.01792   	25000.000000	0.0429864 	25000.000000	1.21664e-07	
26000.000000	0.0848541 	26000.000000	0.0442234 	26000.000000	0.0180222 	26000.000000	0.0179825 	26000.000000	0.0442233 	26000.000000	1.17249e-07	
27000.000000	0.0891183 	27000.000000	0.0454582 	27000.000000	0.0180815 	27000.000000	0.0180426 	27000.000000	0.0454581 	27000.000000	1.13151e-07	
28000.000000	0.0934859 	28000.000000	0.0466912 	28000.000000	0.0181386 	28000.000000	0.0181004 	28000.000000	0.0466911 	28000.000000	1.09337e-07	
29000.000000	0.0979574 	29000.000000	0.0479223 	29000.000000	0.0181935 	29000.000000	0.0181561 	29000.000000	0.0479222 	29000.000000	1.05779e-07	
30000.000000	0.102533  	30000.000000	0.0491515 	30000.000000	0.0182463 	30000.000000	0.0182097 	30000.000000	0.0491514 	30000.000000	1.02451e-07	
32000.000000	0.112     	32000.000000	0.0516046 	32000.000000	0.0183467 	32000.000000	0.0183116 	32000.000000	0.0516045 	32000.000000	9.6401e-08	
34000.000000	0.12189   	34000.000000	0.0540508 	34000.000000	0.0184406 	34000.000000	0.018407  	34000.000000	0.0540507 	34000.000000	9.10426e-08	
36000.000000	0.132207  	36000.000000	0.0564905 	36000.000000	0.0185286 	36000.000000	0.0184966 	36000.000000	0.0564904 	36000.000000	8.62628e-08	
38000.000000	0.142955  	38000.000000	0.0589238 	38000.000000	0.0186114 	38000.000000	0.018581  	38000.000000	0.0589237 	38000.000000	8.19719e-08	
40000.000000	0.15414   	40000.000000	0.0613511 	40000.000000	0.0186894 	40000.000000	0.0186608 	40000.000000	0.0613511 	40000.000000	7.80979e-08	
42000.000000	0.165765  	42000.000000	0.0637727 	42000.000000	0.0187631 	42000.000000	0.0187365 	42000.000000	0.0637726 	42000.000000	7.45824e-08	
44000.000000	0.177835  	44000.000000	0.0661887 	44000.000000	0.0188331 	44000.000000	0.0188084 	44000.000000	0.0661887 	44000.000000	7.13775e-08	
46000.000000	0.190355  	46000.000000	0.0685995 	46000.000000	0.0188997 	46000.000000	0.0188769 	46000.000000	0.0685994 	46000.000000	6.84434e-08	
48000.000000	0.203329  	48000.000000	0.0710051 	48000.000000	0.0189631 	48000.000000	0.0189423 	48000.000000	0.0710051 	48000.000000	6.57469e-08	
50000.000000	0.216762  	50000.000000	0.0734059 	50000.000000	0.0190236 	50000.000000	0.0190048 	50000.000000	0.0734058 	50000.000000	6.326e-08 	
