Energy (MeV/u)1	0 - [He-base] F.Hubert et al, AD&ND Tables 46(1990)1	Energy (MeV/u)2	1 - [H -base] J.F.Ziegler et al, Pergamon Press, NY (low energy)	Energy (MeV/u)3	2 - ATIMA 1.2  LS-theory (recommended for high energy)	Energy (MeV/u)4	3 - ATIMA 1.2  without LS-correction	Energy (MeV/u)5	4 - electrical component of [1] - J.F.Ziegler et al	Energy (MeV/u)6	5 - nuclear component of [1] - J.F.Ziegler et al	
0.001000	10.2441   	0.001000	7.12072   	0.001000	6.63946   	0.001000	6.63946   	0.001000	1.32447   	0.001000	5.79625   	
0.002000	10.4857   	0.002000	7.38983   	0.002000	6.74772   	0.002000	6.74772   	0.002000	1.83453   	0.002000	5.5553    	
0.005000	10.5283   	0.005000	7.37492   	0.005000	6.43821   	0.005000	6.43821   	0.005000	2.822     	0.005000	4.55292   	
0.008000	10.6831   	0.008000	7.37233   	0.008000	6.23741   	0.008000	6.23741   	0.008000	3.5196    	0.008000	3.85273   	
0.010000	10.8388   	0.010000	7.41666   	0.010000	6.17402   	0.010000	6.17402   	0.010000	3.90878   	0.010000	3.50788   	
0.015000	11.3049   	0.015000	7.62368   	0.015000	6.15961   	0.015000	6.15961   	0.015000	4.72938   	0.015000	2.8943    	
0.020000	11.8041   	0.020000	7.90018   	0.020000	6.25653   	0.020000	6.25653   	0.020000	5.41409   	0.020000	2.48609   	
0.025000	12.2996   	0.025000	8.20462   	0.025000	6.40733   	0.025000	6.40733   	0.025000	6.01275   	0.025000	2.19187   	
0.030000	12.7795   	0.030000	8.51881   	0.030000	6.58589   	0.030000	6.58589   	0.030000	6.55071   	0.030000	1.9681    	
0.035000	13.2406   	0.035000	8.83416   	0.035000	6.77901   	0.035000	6.77901   	0.035000	7.04293   	0.035000	1.79123   	
0.040000	13.6982   	0.040000	9.14645   	0.040000	6.9795    	0.040000	6.9795    	0.040000	7.49911   	0.040000	1.64734   	
0.045000	14.2856   	0.045000	9.64744   	0.045000	7.40163   	0.045000	7.40163   	0.045000	8.1198    	0.045000	1.52763   	
0.050000	14.7588   	0.050000	10.2756   	0.050000	8.01513   	0.050000	8.01513   	0.050000	8.84941   	0.050000	1.42624   	
0.055000	15.5534   	0.055000	10.8811   	0.055000	8.65764   	0.055000	8.65764   	0.055000	9.54207   	0.055000	1.33907   	
0.060000	16.2845   	0.060000	11.4615   	0.060000	9.32112   	0.060000	9.32112   	0.060000	10.1983   	0.060000	1.26322   	
0.070000	17.5447   	0.070000	12.5438   	0.070000	10.6833   	0.070000	10.6833   	0.070000	11.4065   	0.070000	1.13735   	
0.080000	18.9362   	0.080000	13.5247   	0.080000	12.0534   	0.080000	12.0534   	0.080000	12.4879   	0.080000	1.03681   	
0.090000	20.1623   	0.090000	14.4132   	0.090000	13.3936   	0.090000	13.3936   	0.090000	13.4588   	0.090000	0.954393  	
0.100000	21.2556   	0.100000	15.2122   	0.100000	14.6676   	0.100000	14.6676   	0.100000	14.335    	0.100000	0.87728   	
0.120000	22.6361   	0.120000	16.6267   	0.120000	16.991    	0.120000	16.991    	0.120000	15.8575   	0.120000	0.769274  	
0.140000	23.8869   	0.140000	17.8422   	0.140000	18.9482   	0.140000	18.9482   	0.140000	17.1551   	0.140000	0.687067  	
0.160000	25.6131   	0.160000	19.3991   	0.160000	20.5539   	0.160000	20.5539   	0.160000	18.7769   	0.160000	0.622171  	
0.180000	27.241    	0.180000	20.7695   	0.180000	21.8612   	0.180000	21.8612   	0.180000	20.2      	0.180000	0.569496  	
0.200000	28.8196   	0.200000	21.9858   	0.200000	22.9329   	0.200000	22.9329   	0.200000	21.46     	0.200000	0.525794  	
0.250000	31.6357   	0.250000	24.5095   	0.250000	24.9304   	0.250000	24.9304   	0.250000	24.0664   	0.250000	0.443081  	
0.300000	34.1788   	0.300000	26.4982   	0.300000	26.3905   	0.300000	26.3905   	0.300000	26.1137   	0.300000	0.384517  	
0.350000	36.5738   	0.350000	28.2004   	0.350000	27.5959   	0.350000	27.5959   	0.350000	27.8598   	0.350000	0.340662  	
0.400000	38.731    	0.400000	29.6512   	0.400000	28.6615   	0.400000	28.6615   	0.400000	29.3447   	0.400000	0.306474  	
0.450000	40.6202   	0.450000	30.8722   	0.450000	29.6324   	0.450000	29.6324   	0.450000	30.5932   	0.450000	0.279003  	
0.500000	42.2692   	0.500000	31.9134   	0.500000	30.5263   	0.500000	30.5263   	0.500000	31.657    	0.500000	0.256402  	
0.600000	43.4606   	0.600000	33.5896   	0.600000	32.7636   	0.600000	32.7636   	0.600000	33.3683   	0.600000	0.22131   	
0.700000	44.3127   	0.700000	35.2336   	0.700000	34.6037   	0.700000	34.6037   	0.700000	35.0384   	0.700000	0.195232  	
0.800000	46.2843   	0.800000	36.5537   	0.800000	36.102    	0.800000	36.102    	0.800000	36.3786   	0.800000	0.175025  	
0.900000	47.808    	0.900000	37.5846   	0.900000	37.325    	0.900000	37.325    	0.900000	37.4257   	0.900000	0.158869  	
1.000000	48.9836   	1.000000	38.3959   	1.000000	38.3243   	1.000000	38.3243   	1.000000	38.2503   	1.000000	0.145632  	
1.250000	50.3853   	1.250000	39.4903   	1.250000	40.0904   	1.250000	40.0904   	1.250000	39.3693   	1.250000	0.120995  	
1.500000	50.7625   	1.500000	39.9395   	1.500000	41.1312   	1.500000	41.1312   	1.500000	39.8356   	1.500000	0.103885  	
1.750000	50.6826   	1.750000	40.1181   	1.750000	41.7039   	1.750000	41.7039   	1.750000	40.0268   	1.750000	0.0912598 	
2.000000	50.2757   	2.000000	40.084    	2.000000	41.9645   	2.000000	41.9645   	2.000000	40.0025   	2.000000	0.0815313 	
2.250000	49.7579   	2.250000	39.9163   	2.250000	42.012    	2.250000	42.012    	2.250000	39.8425   	2.250000	0.0737886 	
2.500000	67.1166   	2.500000	39.6847   	2.500000	41.9111   	2.500000	41.9111   	2.500000	39.6172   	2.500000	0.0674696 	
3.000000	64.2779   	3.000000	39.0993   	3.000000	41.4262   	3.000000	41.4262   	3.000000	39.0415   	3.000000	0.057753  	
3.500000	61.4355   	3.500000	38.4383   	3.500000	40.5633   	3.500000	40.5633   	3.500000	38.3877   	3.500000	0.0506101 	
4.000000	58.7252   	4.000000	37.7316   	4.000000	39.6039   	4.000000	39.6039   	4.000000	37.6865   	4.000000	0.0451233 	
4.500000	56.1934   	4.500000	36.9936   	4.500000	38.6592   	4.500000	38.6592   	4.500000	36.9528   	4.500000	0.0407678 	
5.000000	53.8491   	5.000000	36.2555   	5.000000	37.7402   	5.000000	37.7402   	5.000000	36.2183   	5.000000	0.037221  	
5.500000	51.6855   	5.500000	35.5241   	5.500000	36.8523   	5.500000	36.8523   	5.500000	35.4899   	5.500000	0.034273  	
6.000000	49.6897   	6.000000	34.7999   	6.000000	35.9979   	6.000000	35.9979   	6.000000	34.7681   	6.000000	0.0317816 	
6.500000	47.8471   	6.500000	34.1049   	6.500000	35.1776   	6.500000	35.1776   	6.500000	34.0753   	6.500000	0.0296465 	
7.000000	46.143    	7.000000	33.4375   	7.000000	34.3913   	7.000000	34.3913   	7.000000	33.4097   	7.000000	0.0277952 	
7.500000	44.5638   	7.500000	32.7976   	7.500000	33.6379   	7.500000	33.6379   	7.500000	32.7714   	7.500000	0.0261735 	
8.000000	43.0971   	8.000000	32.1816   	8.000000	32.9162   	8.000000	32.9162   	8.000000	32.1569   	8.000000	0.0247405 	
8.500000	41.7317   	8.500000	31.5878   	8.500000	32.2247   	8.500000	32.2247   	8.500000	31.5644   	8.500000	0.0234645 	
9.000000	40.4578   	9.000000	31.0156   	9.000000	31.562    	9.000000	31.562    	9.000000	30.9933   	9.000000	0.0223207 	
9.500000	39.2666   	9.500000	30.464    	9.500000	30.9266   	9.500000	30.9266   	9.500000	30.4427   	9.500000	0.021289  	
10.000000	38.1504   	10.000000	30.22     	10.000000	30.317    	10.000000	30.317    	10.000000	30.1996   	10.000000	0.0203536 	
11.000000	36.1161   	11.000000	29.1551   	11.000000	28.9966   	11.000000	29.3327   	11.000000	29.1364   	11.000000	0.0187211 	
12.000000	34.309    	12.000000	28.1476   	12.000000	27.7871   	12.000000	28.3976   	12.000000	28.1302   	12.000000	0.0173434 	
13.000000	32.6926   	13.000000	27.1985   	13.000000	26.6768   	13.000000	27.5122   	13.000000	27.1823   	13.000000	0.0161641 	
14.000000	31.2378   	14.000000	26.3064   	14.000000	25.6547   	14.000000	26.6751   	14.000000	26.2913   	14.000000	0.0151426 	
15.000000	29.921    	15.000000	25.4687   	15.000000	24.7108   	15.000000	25.8841   	15.000000	25.4544   	15.000000	0.0142488 	
16.000000	28.7231   	16.000000	24.6818   	16.000000	23.837    	16.000000	25.1365   	16.000000	24.6683   	16.000000	0.0134597 	
17.000000	27.6283   	17.000000	23.9423   	17.000000	23.0262   	17.000000	24.4296   	17.000000	23.9295   	17.000000	0.0127576 	
18.000000	26.6237   	18.000000	23.2467   	18.000000	22.272    	18.000000	23.7609   	18.000000	23.2345   	18.000000	0.0121287 	
19.000000	25.6982   	19.000000	22.5916   	19.000000	21.5689   	19.000000	23.1276   	19.000000	22.58     	19.000000	0.0115619 	
20.000000	24.8427   	20.000000	21.9739   	20.000000	20.9119   	20.000000	22.5275   	20.000000	21.9628   	20.000000	0.0110483 	
21.000000	24.0492   	21.000000	21.3907   	21.000000	20.2967   	21.000000	21.9582   	21.000000	21.3801   	21.000000	0.0105806 	
22.000000	23.3112   	22.000000	20.8394   	22.000000	19.7195   	22.000000	21.4177   	22.000000	20.8293   	22.000000	0.0101529 	
23.000000	22.6228   	23.000000	20.3176   	23.000000	19.1771   	23.000000	20.904    	23.000000	20.3078   	23.000000	0.00976004	
24.000000	21.9791   	24.000000	19.823    	24.000000	18.6672   	24.000000	20.4154   	24.000000	19.8136   	24.000000	0.00939797	
25.000000	21.3758   	25.000000	19.3537   	25.000000	18.187    	25.000000	19.9503   	25.000000	19.3446   	25.000000	0.00906311	
27.000000	20.2756   	27.000000	18.4835   	27.000000	17.3042   	27.000000	19.0845   	27.000000	18.475    	27.000000	0.00846345	
29.000000	19.2971   	29.000000	17.6943   	29.000000	16.515    	29.000000	18.2961   	29.000000	17.6864   	29.000000	0.00794173	
31.000000	18.4208   	31.000000	16.9754   	31.000000	15.8581   	31.000000	17.5418   	31.000000	16.9679   	31.000000	0.00748346	
33.000000	17.6311   	33.000000	16.3179   	33.000000	15.304    	33.000000	16.8225   	33.000000	16.3108   	33.000000	0.00707756	
35.000000	16.9154   	35.000000	15.7143   	35.000000	14.7916   	35.000000	16.1661   	35.000000	15.7076   	35.000000	0.0067154 	
38.000000	15.9589   	38.000000	14.8964   	38.000000	14.0912   	38.000000	15.2822   	38.000000	14.8901   	38.000000	0.00623966	
41.000000	15.1194   	41.000000	14.1681   	41.000000	13.4611   	41.000000	14.5001   	41.000000	14.1623   	41.000000	0.00582971	
44.000000	14.3762   	44.000000	13.5155   	44.000000	12.8925   	44.000000	13.8032   	44.000000	13.5101   	44.000000	0.00547259	
47.000000	13.7132   	47.000000	12.9275   	47.000000	12.3776   	47.000000	13.178    	47.000000	12.9223   	47.000000	0.00515856	
50.000000	13.1178   	50.000000	12.3948   	50.000000	11.9073   	50.000000	12.6139   	50.000000	12.3899   	50.000000	0.00488017	
55.000000	12.2493   	55.000000	11.6104   	55.000000	11.2092   	55.000000	11.787    	55.000000	11.6059   	55.000000	0.0044801 	
60.000000	11.5059   	60.000000	10.9324   	60.000000	10.5992   	60.000000	11.0757   	60.000000	10.9282   	60.000000	0.00414322	
65.000000	10.8617   	65.000000	10.3405   	65.000000	10.0637   	65.000000	10.4572   	65.000000	10.3367   	65.000000	0.00385548	
70.000000	10.2978   	70.000000	9.81939   	70.000000	9.58906   	70.000000	9.9145    	70.000000	9.81579   	70.000000	0.00360671	
75.000000	9.79971   	75.000000	9.35703   	75.000000	9.16454   	75.000000	9.43437   	75.000000	9.35364   	75.000000	0.0033894 	
80.000000	9.35629   	80.000000	8.94402   	80.000000	8.78415   	80.000000	9.00657   	80.000000	8.94082   	80.000000	0.00319785	
85.000000	8.95881   	85.000000	8.57288   	85.000000	8.4405    	85.000000	8.623     	85.000000	8.56985   	85.000000	0.00302767	
90.000000	8.60033   	90.000000	8.23756   	90.000000	8.12836   	90.000000	8.27711   	90.000000	8.23468   	90.000000	0.00287544	
95.000000	8.27524   	95.000000	7.93311   	95.000000	7.84351   	95.000000	7.96363   	95.000000	7.93037   	95.000000	0.00273841	
100.000000	7.979     	100.000000	7.65547   	100.000000	7.58247   	100.000000	7.6782    	100.000000	7.65285   	100.000000	0.00261439	
105.000000	7.70782   	105.000000	7.40125   	105.000000	7.3433    	105.000000	7.41721   	105.000000	7.39875   	105.000000	0.00250158	
110.000000	7.45858   	110.000000	7.16761   	110.000000	7.12248   	110.000000	7.17767   	110.000000	7.16521   	110.000000	0.00239851	
115.000000	7.22867   	115.000000	6.95217   	115.000000	6.91858   	115.000000	6.95703   	115.000000	6.94986   	115.000000	0.00230395	
120.000000	7.01586   	120.000000	6.75287   	120.000000	6.72955   	120.000000	6.75316   	120.000000	6.75065   	120.000000	0.00221687	
125.000000	6.81826   	125.000000	6.56798   	125.000000	6.5533    	125.000000	6.5642    	125.000000	6.56584   	125.000000	0.00213641	
130.000000	6.63427   	130.000000	6.39599   	130.000000	6.3888    	130.000000	6.3886    	130.000000	6.39393   	130.000000	0.00206182	
135.000000	6.46249   	135.000000	6.2356    	135.000000	6.2354    	135.000000	6.22497   	135.000000	6.23361   	135.000000	0.00199249	
140.000000	6.3017    	140.000000	6.08568   	140.000000	6.09155   	140.000000	6.07216   	140.000000	6.08375   	140.000000	0.00192786	
145.000000	6.15087   	145.000000	5.94524   	145.000000	5.95639   	145.000000	5.92911   	145.000000	5.94338   	145.000000	0.00186747	
150.000000	6.00907   	150.000000	5.81342   	150.000000	5.82954   	150.000000	5.79493   	150.000000	5.81161   	150.000000	0.0018109 	
155.000000	5.8069    	155.000000	5.68945   	155.000000	5.71026   	155.000000	5.66883   	155.000000	5.68769   	155.000000	0.00175781	
160.000000	5.68965   	160.000000	5.57264   	160.000000	5.59769   	160.000000	5.55009   	160.000000	5.57094   	160.000000	0.00170787	
165.000000	5.57888   	165.000000	5.46241   	165.000000	5.49107   	165.000000	5.4381    	165.000000	5.46075   	165.000000	0.0016608 	
170.000000	5.47408   	170.000000	5.35821   	170.000000	5.38984   	170.000000	5.3323    	170.000000	5.35659   	170.000000	0.00161637	
175.000000	5.37477   	175.000000	5.25956   	175.000000	5.29392   	175.000000	5.2322    	175.000000	5.25799   	175.000000	0.00157435	
180.000000	5.28052   	180.000000	5.16604   	180.000000	5.20332   	180.000000	5.13735   	180.000000	5.1645    	180.000000	0.00153456	
185.000000	5.19094   	185.000000	5.07725   	185.000000	5.11731   	185.000000	5.04735   	185.000000	5.07576   	185.000000	0.00149681	
190.000000	5.1057    	190.000000	4.99286   	190.000000	5.03522   	190.000000	4.96184   	190.000000	4.9914    	190.000000	0.00146095	
195.000000	5.02449   	195.000000	4.91254   	195.000000	4.95681   	195.000000	4.8805    	195.000000	4.91111   	195.000000	0.00142684	
200.000000	4.94701   	200.000000	4.836     	200.000000	4.88195   	200.000000	4.80303   	200.000000	4.83461   	200.000000	0.00139435	
210.000000	4.8023    	210.000000	4.69329   	210.000000	4.74233   	210.000000	4.65867   	210.000000	4.69195   	210.000000	0.0013338 	
220.000000	4.66978   	220.000000	4.56289   	220.000000	4.61475   	220.000000	4.5269    	220.000000	4.56161   	220.000000	0.00127849	
230.000000	4.54797   	230.000000	4.44331   	230.000000	4.49779   	230.000000	4.40616   	230.000000	4.44208   	230.000000	0.00122776	
240.000000	4.43561   	240.000000	4.33326   	240.000000	4.38972   	240.000000	4.29514   	240.000000	4.33208   	240.000000	0.00118106	
250.000000	4.33163   	250.000000	4.23165   	250.000000	4.28978   	250.000000	4.19273   	250.000000	4.23052   	250.000000	0.00113793	
260.000000	4.23514   	260.000000	4.13758   	260.000000	4.19728   	260.000000	4.09799   	260.000000	4.13648   	260.000000	0.00109795	
270.000000	4.14535   	270.000000	4.05023   	270.000000	4.11142   	270.000000	4.0101    	270.000000	4.04917   	270.000000	0.0010608 	
280.000000	4.06159   	280.000000	3.96892   	280.000000	4.0315    	280.000000	3.92835   	280.000000	3.96789   	280.000000	0.00102618	
290.000000	3.98328   	290.000000	3.89306   	290.000000	3.95662   	290.000000	3.85215   	290.000000	3.89207   	290.000000	0.000993841	
300.000000	3.90989   	300.000000	3.82213   	300.000000	3.88652   	300.000000	3.78096   	300.000000	3.82117   	300.000000	0.000963555	
310.000000	3.84099   	310.000000	3.75567   	310.000000	3.82094   	310.000000	3.71431   	310.000000	3.75474   	310.000000	0.000935132	
320.000000	3.77617   	320.000000	3.69329   	320.000000	3.7594    	320.000000	3.6518    	320.000000	3.69238   	320.000000	0.000908404	
330.000000	3.7151    	330.000000	3.63462   	330.000000	3.70127   	330.000000	3.59305   	330.000000	3.63373   	330.000000	0.000883222	
340.000000	3.65745   	340.000000	3.57935   	340.000000	3.64651   	340.000000	3.53777   	340.000000	3.57849   	340.000000	0.000859453	
350.000000	3.60296   	350.000000	3.5272    	350.000000	3.59512   	350.000000	3.48565   	350.000000	3.52636   	350.000000	0.00083698	
360.000000	3.55137   	360.000000	3.47793   	360.000000	3.54648   	360.000000	3.43644   	360.000000	3.47711   	360.000000	0.000815698	
370.000000	3.50247   	370.000000	3.4313    	370.000000	3.50029   	370.000000	3.38991   	370.000000	3.43051   	370.000000	0.000795514	
380.000000	3.45605   	380.000000	3.38713   	380.000000	3.45653   	380.000000	3.34587   	380.000000	3.38635   	380.000000	0.000776345	
390.000000	3.41194   	390.000000	3.34521   	390.000000	3.41508   	390.000000	3.30411   	390.000000	3.34446   	390.000000	0.000758113	
400.000000	3.36997   	400.000000	3.30541   	400.000000	3.37573   	400.000000	3.26449   	400.000000	3.30467   	400.000000	0.000740752	
410.000000	3.32999   	410.000000	3.26755   	410.000000	3.33831   	410.000000	3.22684   	410.000000	3.26683   	410.000000	0.000724199	
420.000000	3.29188   	420.000000	3.23152   	420.000000	3.3027    	420.000000	3.19103   	420.000000	3.23081   	420.000000	0.000708399	
430.000000	3.2555    	430.000000	3.19718   	430.000000	3.2688    	430.000000	3.15694   	430.000000	3.19649   	430.000000	0.000693301	
440.000000	3.22075   	440.000000	3.16443   	440.000000	3.23651   	440.000000	3.12444   	440.000000	3.16375   	440.000000	0.000678858	
450.000000	3.18753   	450.000000	3.13316   	450.000000	3.20566   	450.000000	3.09344   	450.000000	3.1325    	450.000000	0.000665028	
460.000000	3.15574   	460.000000	3.10329   	460.000000	3.17607   	460.000000	3.06385   	460.000000	3.10264   	460.000000	0.000651773	
470.000000	3.12529   	470.000000	3.07471   	470.000000	3.14773   	470.000000	3.03556   	470.000000	3.07408   	470.000000	0.000639056	
480.000000	3.0961    	480.000000	3.04737   	480.000000	3.12069   	480.000000	3.00851   	480.000000	3.04674   	480.000000	0.000626845	
490.000000	3.06812   	490.000000	3.02117   	490.000000	3.09491   	490.000000	2.98262   	490.000000	3.02056   	490.000000	0.000615111	
500.000000	3.04125   	500.000000	2.99607   	500.000000	3.07022   	500.000000	2.95782   	500.000000	2.99546   	500.000000	0.000603825	
520.000000	2.99066   	520.000000	2.94886   	520.000000	3.02357   	520.000000	2.91124   	520.000000	2.94828   	520.000000	0.000582497	
540.000000	2.94387   	540.000000	2.90532   	540.000000	2.98051   	540.000000	2.86834   	540.000000	2.90476   	540.000000	0.000562681	
560.000000	2.90052   	560.000000	2.86506   	560.000000	2.94076   	560.000000	2.82871   	560.000000	2.86452   	560.000000	0.000544218	
580.000000	2.86025   	580.000000	2.82775   	580.000000	2.90394   	580.000000	2.79203   	580.000000	2.82722   	580.000000	0.000526974	
600.000000	2.82279   	600.000000	2.7931    	600.000000	2.86981   	600.000000	2.758     	600.000000	2.79259   	600.000000	0.000510829	
620.000000	2.78787   	620.000000	2.76087   	620.000000	2.83802   	620.000000	2.72637   	620.000000	2.76037   	620.000000	0.00049568	
640.000000	2.75527   	640.000000	2.73082   	640.000000	2.80824   	640.000000	2.69692   	640.000000	2.73034   	640.000000	0.000481438	
660.000000	2.72479   	660.000000	2.70278   	660.000000	2.78048   	660.000000	2.66944   	660.000000	2.70231   	660.000000	0.000468021	
680.000000	2.69626   	680.000000	2.67657   	680.000000	2.75469   	680.000000	2.64377   	680.000000	2.67611   	680.000000	0.00045536	
700.000000	2.66952   	700.000000	2.65203   	700.000000	2.7305    	700.000000	2.61975   	700.000000	2.65159   	700.000000	0.000443391	
720.000000	2.64442   	720.000000	2.62903   	720.000000	2.70769   	720.000000	2.59723   	720.000000	2.6286    	720.000000	0.000432058	
740.000000	2.62084   	740.000000	2.60745   	740.000000	2.68652   	740.000000	2.57632   	740.000000	2.60703   	740.000000	0.000421312	
760.000000	2.59868   	760.000000	2.58718   	760.000000	2.66694   	760.000000	2.55687   	760.000000	2.58676   	760.000000	0.000411108	
780.000000	2.57782   	780.000000	2.56811   	780.000000	2.64854   	780.000000	2.53859   	780.000000	2.56771   	780.000000	0.000401404	
800.000000	2.55817   	800.000000	2.55018   	800.000000	2.63114   	800.000000	2.52137   	800.000000	2.54978   	800.000000	0.000392164	
820.000000	2.53966   	820.000000	2.53328   	820.000000	2.61468   	820.000000	2.50515   	820.000000	2.5329    	820.000000	0.000383357	
840.000000	2.5222    	840.000000	2.51735   	840.000000	2.59914   	840.000000	2.48985   	840.000000	2.51698   	840.000000	0.000374951	
860.000000	2.50572   	860.000000	2.50233   	860.000000	2.58447   	860.000000	2.47541   	860.000000	2.50196   	860.000000	0.000366919	
880.000000	2.49017   	880.000000	2.48815   	880.000000	2.57063   	880.000000	2.46177   	880.000000	2.48779   	880.000000	0.000359237	
900.000000	2.47549   	900.000000	2.47476   	900.000000	2.55753   	900.000000	2.44887   	900.000000	2.4744    	900.000000	0.000351882	
920.000000	2.46161   	920.000000	2.4621    	920.000000	2.54514   	920.000000	2.43667   	920.000000	2.46176   	920.000000	0.000344833	
940.000000	2.4485    	940.000000	2.45014   	940.000000	2.53339   	940.000000	2.42511   	940.000000	2.4498    	940.000000	0.000338071	
960.000000	2.43611   	960.000000	2.43883   	960.000000	2.52226   	960.000000	2.41417   	960.000000	2.4385    	960.000000	0.00033158	
980.000000	2.42439   	980.000000	2.42813   	980.000000	2.51171   	980.000000	2.40379   	980.000000	2.42781   	980.000000	0.000325342	
1000.000000	2.41331   	1000.000000	2.41801   	1000.000000	2.5017    	1000.000000	2.39394   	1000.000000	2.41769   	1000.000000	0.000319343	
1020.000000	2.40284   	1020.000000	2.40843   	1020.000000	2.49219   	1020.000000	2.3846    	1020.000000	2.40811   	1020.000000	0.00031357	
1040.000000	2.39294   	1040.000000	2.39936   	1040.000000	2.48316   	1040.000000	2.37573   	1040.000000	2.39905   	1040.000000	0.000308009	
1060.000000	2.38358   	1060.000000	2.39077   	1060.000000	2.47458   	1060.000000	2.3673    	1060.000000	2.39047   	1060.000000	0.000302649	
1080.000000	2.37473   	1080.000000	2.38264   	1080.000000	2.46642   	1080.000000	2.35929   	1080.000000	2.38234   	1080.000000	0.00029748	
1100.000000	2.36637   	1100.000000	2.37494   	1100.000000	2.45867   	1100.000000	2.35168   	1100.000000	2.37465   	1100.000000	0.000292491	
1120.000000	2.35847   	1120.000000	2.36765   	1120.000000	2.4513    	1120.000000	2.34444   	1120.000000	2.36737   	1120.000000	0.000287672	
1140.000000	2.35101   	1140.000000	2.36076   	1140.000000	2.44429   	1140.000000	2.33755   	1140.000000	2.36047   	1140.000000	0.000283016	
1160.000000	2.34397   	1160.000000	2.35423   	1160.000000	2.43761   	1160.000000	2.33099   	1160.000000	2.35395   	1160.000000	0.000278513	
1180.000000	2.33733   	1180.000000	2.34805   	1180.000000	2.43124   	1180.000000	2.32474   	1180.000000	2.34777   	1180.000000	0.000274157	
1200.000000	2.33106   	1200.000000	2.3422    	1200.000000	2.42515   	1200.000000	2.3188    	1200.000000	2.34193   	1200.000000	0.00026994	
1220.000000	2.32516   	1220.000000	2.33667   	1220.000000	2.41933   	1220.000000	2.31313   	1220.000000	2.33641   	1220.000000	0.000265855	
1240.000000	2.31961   	1240.000000	2.33145   	1240.000000	2.41376   	1240.000000	2.30774   	1240.000000	2.33118   	1240.000000	0.000261897	
1260.000000	2.31438   	1260.000000	2.32651   	1260.000000	2.40845   	1260.000000	2.3026    	1260.000000	2.32625   	1260.000000	0.000258059	
1280.000000	2.30948   	1280.000000	2.32184   	1280.000000	2.40338   	1280.000000	2.2977    	1280.000000	2.32159   	1280.000000	0.000254337	
1300.000000	2.30487   	1300.000000	2.31744   	1300.000000	2.39856   	1300.000000	2.29303   	1300.000000	2.31719   	1300.000000	0.000250724	
1320.000000	2.30056   	1320.000000	2.31329   	1320.000000	2.39398   	1320.000000	2.28857   	1320.000000	2.31305   	1320.000000	0.000247216	
1340.000000	2.29652   	1340.000000	2.30938   	1340.000000	2.38962   	1340.000000	2.28433   	1340.000000	2.30914   	1340.000000	0.000243808	
1360.000000	2.29275   	1360.000000	2.3057    	1360.000000	2.38547   	1360.000000	2.28028   	1360.000000	2.30546   	1360.000000	0.000240497	
1380.000000	2.28924   	1380.000000	2.30224   	1380.000000	2.38153   	1380.000000	2.27642   	1380.000000	2.302     	1380.000000	0.000237277	
1400.000000	2.28597   	1400.000000	2.29899   	1400.000000	2.37777   	1400.000000	2.27274   	1400.000000	2.29875   	1400.000000	0.000234146	
1420.000000	2.28294   	1420.000000	2.29594   	1420.000000	2.37419   	1420.000000	2.26923   	1420.000000	2.29571   	1420.000000	0.000231099	
1440.000000	2.28013   	1440.000000	2.29308   	1440.000000	2.37077   	1440.000000	2.26589   	1440.000000	2.29285   	1440.000000	0.000228134	
1460.000000	2.27755   	1460.000000	2.29041   	1460.000000	2.36752   	1460.000000	2.2627    	1460.000000	2.29018   	1460.000000	0.000225246	
1480.000000	2.27517   	1480.000000	2.28791   	1480.000000	2.3644    	1480.000000	2.25966   	1480.000000	2.28769   	1480.000000	0.000222434	
1500.000000	2.273     	1500.000000	2.28559   	1500.000000	2.36143   	1500.000000	2.25676   	1500.000000	2.28537   	1500.000000	0.000219693	
1520.000000	2.27102   	1520.000000	2.28343   	1520.000000	2.3586    	1520.000000	2.254     	1520.000000	2.28321   	1520.000000	0.000217021	
1540.000000	2.26923   	1540.000000	2.28143   	1540.000000	2.35589   	1540.000000	2.25137   	1540.000000	2.28122   	1540.000000	0.000214416	
1560.000000	2.26762   	1560.000000	2.27958   	1560.000000	2.35331   	1560.000000	2.24886   	1560.000000	2.27937   	1560.000000	0.000211875	
1580.000000	2.26618   	1580.000000	2.27788   	1580.000000	2.35084   	1580.000000	2.24648   	1580.000000	2.27767   	1580.000000	0.000209396	
1600.000000	2.26492   	1600.000000	2.27632   	1600.000000	2.34848   	1600.000000	2.2442    	1600.000000	2.27611   	1600.000000	0.000206976	
1620.000000	2.26382   	1620.000000	2.27489   	1620.000000	2.34624   	1620.000000	2.24204   	1620.000000	2.27469   	1620.000000	0.000204614	
1640.000000	2.26287   	1640.000000	2.2736    	1640.000000	2.34409   	1640.000000	2.23998   	1640.000000	2.2734    	1640.000000	0.000202307	
1660.000000	2.26208   	1660.000000	2.27243   	1660.000000	2.34204   	1660.000000	2.23802   	1660.000000	2.27223   	1660.000000	0.000200053	
1680.000000	2.26144   	1680.000000	2.27138   	1680.000000	2.3401    	1680.000000	2.23616   	1680.000000	2.27118   	1680.000000	0.000197851	
1700.000000	2.26094   	1700.000000	2.27045   	1700.000000	2.33824   	1700.000000	2.23439   	1700.000000	2.27026   	1700.000000	0.000195698	
1750.000000	2.26029   	1750.000000	2.26861   	1750.000000	2.33398   	1750.000000	2.23034   	1750.000000	2.26842   	1750.000000	0.000190523	
1800.000000	2.26044   	1800.000000	2.26743   	1800.000000	2.33024   	1800.000000	2.2268    	1800.000000	2.26724   	1800.000000	0.000185625	
1850.000000	2.26133   	1850.000000	2.26684   	1850.000000	2.32698   	1850.000000	2.22371   	1850.000000	2.26666   	1850.000000	0.00018098	
1900.000000	2.26291   	1900.000000	2.2668    	1900.000000	2.32413   	1900.000000	2.22104   	1900.000000	2.26662   	1900.000000	0.00017657	
1950.000000	2.26513   	1950.000000	2.26727   	1950.000000	2.32167   	1950.000000	2.21874   	1950.000000	2.2671    	1950.000000	0.000172378	
2000.000000	2.26794   	2000.000000	2.26821   	2000.000000	2.31956   	2000.000000	2.21678   	2000.000000	2.26804   	2000.000000	0.000168387	
2100.000000	2.27522   	2100.000000	2.27138   	2100.000000	2.31627   	2100.000000	2.21377   	2100.000000	2.27122   	2100.000000	0.000160953	
2200.000000	2.28447   	2200.000000	2.27605   	2200.000000	2.31404   	2200.000000	2.21179   	2200.000000	2.2759    	2200.000000	0.000154168	
2300.000000	2.29545   	2300.000000	2.28204   	2300.000000	2.3127    	2300.000000	2.21069   	2300.000000	2.28189   	2300.000000	0.000147951	
2400.000000	2.30799   	2400.000000	2.28918   	2400.000000	2.31212   	2400.000000	2.21032   	2400.000000	2.28904   	2400.000000	0.000142233	
2500.000000	2.32191   	2500.000000	2.29733   	2500.000000	2.31218   	2500.000000	2.21057   	2500.000000	2.2972    	2500.000000	0.000136954	
2600.000000	2.33709   	2600.000000	2.30638   	2600.000000	2.31279   	2600.000000	2.21134   	2600.000000	2.30625   	2600.000000	0.000132066	
2700.000000	2.35341   	2700.000000	2.31622   	2700.000000	2.31385   	2700.000000	2.21256   	2700.000000	2.31609   	2700.000000	0.000127526	
2800.000000	2.37076   	2800.000000	2.32676   	2800.000000	2.31531   	2800.000000	2.21415   	2800.000000	2.32664   	2800.000000	0.000123298	
2900.000000	2.38905   	2900.000000	2.33794   	2900.000000	2.3171    	2900.000000	2.21606   	2900.000000	2.33782   	2900.000000	0.000119351	
3000.000000	2.40822   	3000.000000	2.34969   	3000.000000	2.31918   	3000.000000	2.21825   	3000.000000	2.34957   	3000.000000	0.000115657	
3200.000000	2.4489    	3200.000000	2.37467   	3200.000000	2.32401   	3200.000000	2.22328   	3200.000000	2.37456   	3200.000000	0.000108935	
3400.000000	2.49236   	3400.000000	2.40134   	3400.000000	2.32954   	3400.000000	2.22899   	3400.000000	2.40123   	3400.000000	0.000102976	
3600.000000	2.53824   	3600.000000	2.4294    	3600.000000	2.33556   	3600.000000	2.23517   	3600.000000	2.4293    	3600.000000	9.76542e-05	
3800.000000	2.58626   	3800.000000	2.45862   	3800.000000	2.34192   	3800.000000	2.2417    	3800.000000	2.45853   	3800.000000	9.28723e-05	
4000.000000	2.63621   	4000.000000	2.48883   	4000.000000	2.34852   	4000.000000	2.24846   	4000.000000	2.48874   	4000.000000	8.85511e-05	
4200.000000	2.68789   	4200.000000	2.51988   	4200.000000	2.35527   	4200.000000	2.25536   	4200.000000	2.51979   	4200.000000	8.46266e-05	
4400.000000	2.74115   	4400.000000	2.55163   	4400.000000	2.36211   	4400.000000	2.26235   	4400.000000	2.55155   	4400.000000	8.10458e-05	
4600.000000	2.79588   	4600.000000	2.584     	4600.000000	2.36898   	4600.000000	2.26937   	4600.000000	2.58392   	4600.000000	7.7765e-05	
4800.000000	2.85196   	4800.000000	2.6169    	4800.000000	2.37586   	4800.000000	2.2764    	4800.000000	2.61683   	4800.000000	7.47478e-05	
5000.000000	2.9093    	5000.000000	2.65026   	5000.000000	2.38271   	5000.000000	2.28339   	5000.000000	2.65019   	5000.000000	7.19632e-05	
5250.000000	2.98264   	5250.000000	2.69253   	5250.000000	2.3912    	5250.000000	2.29207   	5250.000000	2.69246   	5250.000000	6.87701e-05	
5500.000000	3.05772   	5500.000000	2.73532   	5500.000000	2.3996    	5500.000000	2.30064   	5500.000000	2.73525   	5500.000000	6.58569e-05	
6000.000000	3.21267   	6000.000000	2.8222    	6000.000000	2.41602   	6000.000000	2.31736   	6000.000000	2.82214   	6000.000000	6.07335e-05	
6500.000000	3.3735    	6500.000000	2.91043   	6500.000000	2.43188   	6500.000000	2.33348   	6500.000000	2.91037   	6500.000000	5.63714e-05	
7000.000000	3.53976   	7000.000000	2.99966   	7000.000000	2.44696   	7000.000000	2.34893   	7000.000000	2.9996    	7000.000000	5.26111e-05	
7500.000000	3.71109   	7500.000000	3.08964   	7500.000000	2.46162   	7500.000000	2.36374   	7500.000000	3.08959   	7500.000000	4.9335e-05	
8000.000000	3.88723   	8000.000000	3.18019   	8000.000000	2.47543   	8000.000000	2.3779    	8000.000000	3.18014   	8000.000000	4.64544e-05	
8500.000000	4.06798   	8500.000000	3.27117   	8500.000000	2.48859   	8500.000000	2.39144   	8500.000000	3.27112   	8500.000000	4.39012e-05	
9000.000000	4.25319   	9000.000000	3.36247   	9000.000000	2.50128   	9000.000000	2.40441   	9000.000000	3.36243   	9000.000000	4.16219e-05	
9500.000000	4.44274   	9500.000000	3.45402   	9500.000000	2.51343   	9500.000000	2.41682   	9500.000000	3.45398   	9500.000000	3.95744e-05	
10000.000000	4.63653   	10000.000000	3.54575   	10000.000000	2.52503   	10000.000000	2.42872   	10000.000000	3.54572   	10000.000000	3.77247e-05	
11000.000000	5.03651   	11000.000000	3.72957   	11000.000000	2.54673   	11000.000000	2.45109   	11000.000000	3.72954   	11000.000000	3.45131e-05	
12000.000000	5.45267   	12000.000000	3.91363   	12000.000000	2.5667    	12000.000000	2.47175   	12000.000000	3.9136    	12000.000000	3.18193e-05	
13000.000000	5.88471   	13000.000000	4.09775   	13000.000000	2.58517   	13000.000000	2.49091   	13000.000000	4.09772   	13000.000000	2.95265e-05	
14000.000000	6.3324    	14000.000000	4.2818    	14000.000000	2.60235   	14000.000000	2.50876   	14000.000000	4.28177   	14000.000000	2.75506e-05	
15000.000000	6.79561   	15000.000000	4.46569   	15000.000000	2.61837   	15000.000000	2.52544   	15000.000000	4.46566   	15000.000000	2.58295e-05	
16000.000000	7.27426   	16000.000000	4.64937   	16000.000000	2.63327   	16000.000000	2.54108   	16000.000000	4.64935   	16000.000000	2.43166e-05	
17000.000000	7.76829   	17000.000000	4.83281   	17000.000000	2.64717   	17000.000000	2.55579   	17000.000000	4.83278   	17000.000000	2.29759e-05	
18000.000000	8.27767   	18000.000000	5.01597   	18000.000000	2.66018   	18000.000000	2.56967   	18000.000000	5.01595   	18000.000000	2.17793e-05	
19000.000000	8.80239   	19000.000000	5.19885   	19000.000000	2.67242   	19000.000000	2.58279   	19000.000000	5.19883   	19000.000000	2.07046e-05	
20000.000000	9.34247   	20000.000000	5.38143   	20000.000000	2.68397   	20000.000000	2.59524   	20000.000000	5.38142   	20000.000000	1.97339e-05	
21000.000000	9.89793   	21000.000000	5.56372   	21000.000000	2.69486   	21000.000000	2.60707   	21000.000000	5.5637    	21000.000000	1.88526e-05	
22000.000000	10.4688   	22000.000000	5.7457    	22000.000000	2.70503   	22000.000000	2.61834   	22000.000000	5.74568   	22000.000000	1.80488e-05	
23000.000000	11.0551   	23000.000000	5.92738   	23000.000000	2.7147    	23000.000000	2.6291    	23000.000000	5.92736   	23000.000000	1.73127e-05	
24000.000000	11.6569   	24000.000000	6.10876   	24000.000000	2.72396   	24000.000000	2.63938   	24000.000000	6.10875   	24000.000000	1.66359e-05	
25000.000000	12.2743   	25000.000000	6.28985   	25000.000000	2.7328    	25000.000000	2.64922   	25000.000000	6.28984   	25000.000000	1.60116e-05	
26000.000000	12.9073   	26000.000000	6.47065   	26000.000000	2.74116   	26000.000000	2.65867   	26000.000000	6.47063   	26000.000000	1.54337e-05	
27000.000000	13.5559   	27000.000000	6.65116   	27000.000000	2.74902   	27000.000000	2.66774   	27000.000000	6.65115   	27000.000000	1.48972e-05	
28000.000000	14.2203   	28000.000000	6.83139   	28000.000000	2.75651   	28000.000000	2.67646   	28000.000000	6.83138   	28000.000000	1.43978e-05	
29000.000000	14.9004   	29000.000000	7.01135   	29000.000000	2.76372   	29000.000000	2.68486   	29000.000000	7.01134   	29000.000000	1.39318e-05	
30000.000000	15.5964   	30000.000000	7.19104   	30000.000000	2.77066   	30000.000000	2.69297   	30000.000000	7.19103   	30000.000000	1.34958e-05	
32000.000000	17.0364   	32000.000000	7.54963   	32000.000000	2.78365   	32000.000000	2.70835   	32000.000000	7.54962   	32000.000000	1.2703e-05	
34000.000000	18.5408   	34000.000000	7.90722   	34000.000000	2.79548   	34000.000000	2.72274   	34000.000000	7.90721   	34000.000000	1.20006e-05	
36000.000000	20.1101   	36000.000000	8.26385   	36000.000000	2.80627   	36000.000000	2.73626   	36000.000000	8.26384   	36000.000000	1.13739e-05	
38000.000000	21.7451   	38000.000000	8.61956   	38000.000000	2.81618   	38000.000000	2.749     	38000.000000	8.61955   	38000.000000	1.0811e-05	
40000.000000	23.4464   	40000.000000	8.97438   	40000.000000	2.82533   	40000.000000	2.76104   	40000.000000	8.97437   	40000.000000	1.03027e-05	
42000.000000	25.2147   	42000.000000	9.32837   	42000.000000	2.83382   	42000.000000	2.77245   	42000.000000	9.32836   	42000.000000	9.84132e-06	
44000.000000	27.0507   	44000.000000	9.68154   	44000.000000	2.84176   	44000.000000	2.78329   	44000.000000	9.68153   	44000.000000	9.42057e-06	
46000.000000	28.9551   	46000.000000	10.0339   	46000.000000	2.84923   	46000.000000	2.79362   	46000.000000	10.0339   	46000.000000	9.03528e-06	
48000.000000	30.9286   	48000.000000	10.3856   	48000.000000	2.85624   	48000.000000	2.80347   	48000.000000	10.3856   	48000.000000	8.68111e-06	
50000.000000	32.972    	50000.000000	10.7366   	50000.000000	2.86272   	50000.000000	2.8129    	50000.000000	10.7365   	50000.000000	8.3544e-06	
