0.001000	5.22815   	0.001000	3.24202   	0.001000	3.27916   	0.001000	3.27916   	0.001000	0.841912  	0.001000	2.40011   	
0.002000	5.29195   	0.002000	3.29014   	0.002000	3.36713   	0.002000	3.36713   	0.002000	1.16614   	0.002000	2.124     	
0.005000	5.55263   	0.005000	3.35386   	0.005000	3.52555   	0.005000	3.52555   	0.005000	1.79384   	0.005000	1.56002   	
0.008000	5.89396   	0.008000	3.49152   	0.008000	3.74045   	0.008000	3.74045   	0.008000	2.23727   	0.008000	1.25424   	
0.010000	6.1241    	0.010000	3.60157   	0.010000	3.89657   	0.010000	3.89657   	0.010000	2.48466   	0.010000	1.11691   	
0.015000	6.98013   	0.015000	3.89483   	0.015000	4.2929    	0.015000	4.2929    	0.015000	3.00628   	0.015000	0.888544  	
0.020000	7.78905   	0.020000	4.33959   	0.020000	4.86131   	0.020000	4.86131   	0.020000	3.59359   	0.020000	0.745995  	
0.025000	8.73998   	0.025000	4.86471   	0.025000	5.49654   	0.025000	5.49654   	0.025000	4.21747   	0.025000	0.647241  	
0.030000	9.60359   	0.030000	5.38671   	0.030000	5.9732    	0.030000	5.9732    	0.030000	4.81253   	0.030000	0.57418   	
0.035000	10.373    	0.035000	5.89592   	0.035000	6.42717   	0.035000	6.42717   	0.035000	5.37831   	0.035000	0.517617  	
0.040000	11.0303   	0.040000	6.38716   	0.040000	6.85554   	0.040000	6.85554   	0.040000	5.91481   	0.040000	0.472344  	
0.045000	11.5669   	0.045000	6.85799   	0.045000	7.2572    	0.045000	7.2572    	0.045000	6.42281   	0.045000	0.435173  	
0.050000	11.932    	0.050000	7.29691   	0.050000	7.63221   	0.050000	7.63221   	0.050000	6.89288   	0.050000	0.404031  	
0.055000	12.5599   	0.055000	7.65288   	0.055000	7.97792   	0.055000	7.97792   	0.055000	7.27885   	0.055000	0.374032  	
0.060000	13.1197   	0.060000	7.99165   	0.060000	8.30289   	0.060000	8.30289   	0.060000	7.64025   	0.060000	0.351406  	
0.070000	14.0461   	0.070000	8.61549   	0.070000	8.88586   	0.070000	8.88586   	0.070000	8.30131   	0.070000	0.314177  	
0.080000	15.0399   	0.080000	9.16752   	0.080000	9.39174   	0.080000	9.39174   	0.080000	8.88278   	0.080000	0.284738  	
0.090000	15.8718   	0.090000	9.67706   	0.090000	9.83473   	0.090000	9.83473   	0.090000	9.41625   	0.090000	0.26081   	
0.100000	16.5774   	0.100000	10.1563   	0.100000	10.2274   	0.100000	10.2274   	0.100000	9.9154    	0.100000	0.240936  	
0.120000	17.3169   	0.120000	10.7963   	0.120000	10.9011   	0.120000	10.9011   	0.120000	10.5865   	0.120000	0.20973   	
0.140000	17.8678   	0.140000	11.3629   	0.140000	11.472    	0.140000	11.472    	0.140000	11.1767   	0.140000	0.186255  	
0.160000	18.3542   	0.160000	11.88     	0.160000	11.9743   	0.160000	11.9743   	0.160000	11.7121   	0.160000	0.16789   	
0.180000	18.8335   	0.180000	12.3588   	0.180000	12.4274   	0.180000	12.4274   	0.180000	12.2057   	0.180000	0.15309   	
0.200000	19.3276   	0.200000	12.8052   	0.200000	12.8422   	0.200000	12.8422   	0.200000	12.6643   	0.200000	0.140884  	
0.250000	20.2669   	0.250000	13.7686   	0.250000	13.7488   	0.250000	13.7488   	0.250000	13.6506   	0.250000	0.117965  	
0.300000	21.392    	0.300000	14.7211   	0.300000	14.5058   	0.300000	14.5058   	0.300000	14.6192   	0.300000	0.101885  	
0.350000	22.3301   	0.350000	15.4268   	0.350000	15.1414   	0.350000	15.1414   	0.350000	15.3369   	0.350000	0.0899243 	
0.400000	23.0997   	0.400000	15.9428   	0.400000	15.7572   	0.400000	15.7572   	0.400000	15.8621   	0.400000	0.0806503 	
0.450000	23.9496   	0.450000	16.4594   	0.450000	16.7455   	0.450000	16.7455   	0.450000	16.3861   	0.450000	0.073231  	
0.500000	24.6916   	0.500000	16.8873   	0.500000	17.5834   	0.500000	17.5834   	0.500000	16.8202   	0.500000	0.0671493 	
0.600000	24.895    	0.600000	17.676    	0.600000	18.5781   	0.600000	18.5781   	0.600000	17.6182   	0.600000	0.0577478 	
0.700000	24.6288   	0.700000	18.1533   	0.700000	19.028    	0.700000	19.028    	0.700000	18.1025   	0.700000	0.0507954 	
0.800000	24.5815   	0.800000	18.377    	0.800000	19.2982   	0.800000	19.2982   	0.800000	18.3316   	0.800000	0.0454292 	
0.900000	24.4293   	0.900000	18.5058   	0.900000	19.4416   	0.900000	19.4416   	0.900000	18.4647   	0.900000	0.0411525 	
1.000000	24.2341   	1.000000	18.6009   	1.000000	19.494    	1.000000	19.494    	1.000000	18.5633   	1.000000	0.0376579 	
1.250000	23.5598   	1.250000	18.399    	1.250000	19.3243   	1.250000	19.3243   	1.250000	18.3678   	1.250000	0.0311779 	
1.500000	22.7827   	1.500000	18.0991   	1.500000	18.8293   	1.500000	18.8293   	1.500000	18.0724   	1.500000	0.0266977 	
1.750000	22.0708   	1.750000	17.8314   	1.750000	18.3225   	1.750000	18.3225   	1.750000	17.808    	1.750000	0.0234026 	
2.000000	21.3658   	2.000000	17.5495   	2.000000	17.8208   	2.000000	17.8208   	2.000000	17.5286   	2.000000	0.0208706 	
2.250000	20.6869   	2.250000	17.1113   	2.250000	17.3328   	2.250000	17.3328   	2.250000	17.0924   	2.250000	0.01886   	
2.500000	22.9346   	2.500000	16.6787   	2.500000	16.8629   	2.500000	16.8629   	2.500000	16.6615   	2.500000	0.0172223 	
3.000000	21.3099   	3.000000	15.8159   	3.000000	15.9831   	3.000000	15.9831   	3.000000	15.8012   	3.000000	0.0147099 	
3.500000	19.8785   	3.500000	15.0443   	3.500000	15.1834   	3.500000	15.1834   	3.500000	15.0314   	3.500000	0.012868  	
4.000000	18.622    	4.000000	14.3697   	4.000000	14.4581   	4.000000	14.4581   	4.000000	14.3583   	4.000000	0.0114561 	
4.500000	17.5162   	4.500000	13.7515   	4.500000	13.7994   	4.500000	13.7994   	4.500000	13.7411   	4.500000	0.0103374 	
5.000000	16.5381   	5.000000	13.1819   	5.000000	13.1995   	5.000000	13.1995   	5.000000	13.1725   	5.000000	0.0094278 	
5.500000	15.6681   	5.500000	12.6572   	5.500000	12.6514   	5.500000	12.6514   	5.500000	12.6485   	5.500000	0.00867281	
6.000000	14.8897   	6.000000	12.1731   	6.000000	12.1488   	6.000000	12.1488   	6.000000	12.1651   	6.000000	0.0080355 	
6.500000	14.1895   	6.500000	11.7257   	6.500000	11.6866   	6.500000	11.6866   	6.500000	11.7182   	6.500000	0.00748993	
7.000000	13.5564   	7.000000	11.3112   	7.000000	11.2599   	7.000000	11.2599   	7.000000	11.3042   	7.000000	0.0070173 	
7.500000	12.9812   	7.500000	10.9263   	7.500000	10.8649   	7.500000	10.8649   	7.500000	10.9197   	7.500000	0.00660367	
8.000000	12.4562   	8.000000	10.568    	8.000000	10.4981   	8.000000	10.4981   	8.000000	10.5618   	8.000000	0.00623847	
8.500000	11.9751   	8.500000	10.2337   	8.500000	10.1566   	8.500000	10.1566   	8.500000	10.2278   	8.500000	0.00591351	
9.000000	11.5327   	9.000000	9.92104   	9.000000	9.83782   	9.000000	9.83782   	9.000000	9.91541   	9.000000	0.0056224 	
9.500000	11.1243   	9.500000	9.62802   	9.500000	9.53953   	9.500000	9.53953   	9.500000	9.62266   	9.500000	0.00536001	
10.000000	10.7462   	10.000000	9.39756   	10.000000	9.25978   	10.000000	9.25978   	10.000000	9.39244   	10.000000	0.00512223	
11.000000	10.0679   	11.000000	8.91738   	11.000000	8.73635   	11.000000	8.78376   	11.000000	8.91267   	11.000000	0.00470761	
12.000000	9.47681   	12.000000	8.48196   	12.000000	8.27363   	12.000000	8.35638   	12.000000	8.4776    	12.000000	0.00435802	
13.000000	8.95679   	13.000000	8.08634   	13.000000	7.86168   	13.000000	7.97075   	13.000000	8.08228   	13.000000	0.00405906	
14.000000	8.49559   	14.000000	7.72593   	14.000000	7.49259   	14.000000	7.62115   	14.000000	7.72213   	14.000000	0.00380031	
15.000000	8.08362   	15.000000	7.39664   	15.000000	7.15996   	15.000000	7.30284   	15.000000	7.39306   	15.000000	0.00357405	
16.000000	7.71328   	16.000000	7.09485   	16.000000	6.85843   	16.000000	7.01185   	16.000000	7.09148   	16.000000	0.00337444	
17.000000	7.37846   	17.000000	6.81744   	17.000000	6.58377   	17.000000	6.74486   	17.000000	6.81424   	17.000000	0.00319695	
18.000000	7.0742    	18.000000	6.56168   	18.000000	6.33265   	18.000000	6.49907   	18.000000	6.55864   	18.000000	0.00303805	
19.000000	6.79643   	19.000000	6.32522   	19.000000	6.10235   	19.000000	6.2721    	19.000000	6.32232   	19.000000	0.00289491	
20.000000	6.54179   	20.000000	6.10602   	20.000000	5.89052   	20.000000	6.06191   	20.000000	6.10325   	20.000000	0.00276528	
21.000000	6.30745   	21.000000	5.90229   	21.000000	5.69493   	21.000000	5.86675   	21.000000	5.89965   	21.000000	0.00264728	
22.000000	6.09103   	22.000000	5.7125    	22.000000	5.51353   	22.000000	5.68511   	22.000000	5.70996   	22.000000	0.00253941	
23.000000	5.89053   	23.000000	5.53528   	23.000000	5.34487   	23.000000	5.51569   	23.000000	5.53284   	23.000000	0.00244039	
24.000000	5.70421   	24.000000	5.36943   	24.000000	5.18785   	24.000000	5.35732   	24.000000	5.36708   	24.000000	0.00234915	
25.000000	5.53061   	25.000000	5.21393   	25.000000	5.04148   	25.000000	5.20902   	25.000000	5.21166   	25.000000	0.0022648 	
27.000000	5.21657   	27.000000	4.93032   	27.000000	4.77708   	27.000000	4.93914   	27.000000	4.92821   	27.000000	0.00211383	
29.000000	4.94003   	29.000000	4.67823   	29.000000	4.54437   	29.000000	4.70011   	29.000000	4.67625   	29.000000	0.00198256	
31.000000	4.69456   	31.000000	4.45273   	31.000000	4.33467   	31.000000	4.47714   	31.000000	4.45086   	31.000000	0.00186733	
33.000000	4.4751    	33.000000	4.24984   	33.000000	4.14339   	33.000000	4.26787   	33.000000	4.24807   	33.000000	0.00176532	
35.000000	4.27768   	35.000000	4.06633   	35.000000	3.9708    	35.000000	4.07932   	35.000000	4.06466   	35.000000	0.00167435	
38.000000	4.01597   	38.000000	3.82178   	38.000000	3.73934   	38.000000	3.82904   	38.000000	3.82023   	38.000000	0.00155491	
41.000000	3.78829   	41.000000	3.60793   	41.000000	3.53667   	41.000000	3.61104   	41.000000	3.60648   	41.000000	0.00145206	
44.000000	3.5883    	44.000000	3.41935   	44.000000	3.35727   	44.000000	3.41943   	44.000000	3.41799   	44.000000	0.00136251	
47.000000	3.41115   	47.000000	3.25182   	47.000000	3.19765   	47.000000	3.24965   	47.000000	3.25054   	47.000000	0.0012838 	
50.000000	3.25309   	50.000000	3.102     	50.000000	3.05487   	50.000000	3.09814   	50.000000	3.10079   	50.000000	0.00121407	
55.000000	3.02422   	55.000000	2.88465   	55.000000	2.8463    	55.000000	2.87883   	55.000000	2.88354   	55.000000	0.00111391	
60.000000	2.82992   	60.000000	2.69985   	60.000000	2.66907   	60.000000	2.69278   	60.000000	2.69882   	60.000000	0.00102962	
65.000000	2.66277   	65.000000	2.5408    	65.000000	2.51557   	65.000000	2.5329    	65.000000	2.53984   	65.000000	0.000957675	
70.000000	2.51736   	70.000000	2.40244   	70.000000	2.38179   	70.000000	2.39398   	70.000000	2.40155   	70.000000	0.000895507	
75.000000	2.38964   	75.000000	2.28099   	75.000000	2.26409   	75.000000	2.27213   	75.000000	2.28015   	75.000000	0.000841225	
80.000000	2.27649   	80.000000	2.17351   	80.000000	2.15989   	80.000000	2.16437   	80.000000	2.17272   	80.000000	0.000793401	
85.000000	2.17553   	85.000000	2.07772   	85.000000	2.06663   	85.000000	2.06835   	85.000000	2.07696   	85.000000	0.000750932	
90.000000	2.08483   	90.000000	1.99179   	90.000000	1.98263   	90.000000	1.98226   	90.000000	1.99108   	90.000000	0.000712955	
95.000000	2.00288   	95.000000	1.91428   	95.000000	1.9068    	95.000000	1.9046    	95.000000	1.9136    	95.000000	0.000678784	
100.000000	1.92845   	100.000000	1.844     	100.000000	1.83801   	100.000000	1.8342    	100.000000	1.84336   	100.000000	0.000647866	
105.000000	1.86052   	105.000000	1.77999   	105.000000	1.77532   	105.000000	1.77007   	105.000000	1.77937   	105.000000	0.000619753	
110.000000	1.79827   	110.000000	1.72142   	110.000000	1.71774   	110.000000	1.71141   	110.000000	1.72083   	110.000000	0.000594073	
115.000000	1.74098   	115.000000	1.66765   	115.000000	1.66479   	115.000000	1.65754   	115.000000	1.66708   	115.000000	0.000570521	
120.000000	1.68808   	120.000000	1.61809   	120.000000	1.61598   	120.000000	1.60789   	120.000000	1.61754   	120.000000	0.000548839	
125.000000	1.63907   	125.000000	1.57227   	125.000000	1.57084   	125.000000	1.56198   	125.000000	1.57174   	125.000000	0.000528809	
130.000000	1.59353   	130.000000	1.52978   	130.000000	1.52894   	130.000000	1.51941   	130.000000	1.52927   	130.000000	0.000510247	
135.000000	1.55109   	135.000000	1.49026   	135.000000	1.48981   	135.000000	1.47982   	135.000000	1.48977   	135.000000	0.000492996	
140.000000	1.51144   	140.000000	1.45342   	140.000000	1.4534    	140.000000	1.44291   	140.000000	1.45295   	140.000000	0.00047692	
145.000000	1.4743    	145.000000	1.419     	145.000000	1.41941   	145.000000	1.40841   	145.000000	1.41854   	145.000000	0.0004619 	
150.000000	1.43944   	150.000000	1.38675   	150.000000	1.38743   	150.000000	1.37609   	150.000000	1.3863    	150.000000	0.000447834	
155.000000	1.39023   	155.000000	1.35648   	155.000000	1.3574    	155.000000	1.34576   	155.000000	1.35605   	155.000000	0.000434634	
160.000000	1.36144   	160.000000	1.32802   	160.000000	1.32917   	160.000000	1.31724   	160.000000	1.3276    	160.000000	0.000422221	
165.000000	1.33429   	165.000000	1.3012    	165.000000	1.30257   	165.000000	1.29036   	165.000000	1.30079   	165.000000	0.000410525	
170.000000	1.30862   	170.000000	1.27589   	170.000000	1.27736   	170.000000	1.26499   	170.000000	1.27549   	170.000000	0.000399485	
175.000000	1.28433   	175.000000	1.25196   	175.000000	1.2535    	175.000000	1.24101   	175.000000	1.25157   	175.000000	0.000389047	
180.000000	1.26129   	180.000000	1.2293    	180.000000	1.231     	180.000000	1.21831   	180.000000	1.22892   	180.000000	0.000379162	
185.000000	1.23943   	185.000000	1.20781   	185.000000	1.20966   	185.000000	1.19679   	185.000000	1.20744   	185.000000	0.000369787	
190.000000	1.21864   	190.000000	1.18742   	190.000000	1.18931   	190.000000	1.17635   	190.000000	1.18705   	190.000000	0.000360883	
195.000000	1.19885   	195.000000	1.16802   	195.000000	1.16994   	195.000000	1.15692   	195.000000	1.16767   	195.000000	0.000352414	
200.000000	1.17999   	200.000000	1.14956   	200.000000	1.15151   	200.000000	1.13843   	200.000000	1.14921   	200.000000	0.000344349	
210.000000	1.14481   	210.000000	1.11518   	210.000000	1.11735   	210.000000	1.104     	210.000000	1.11485   	210.000000	0.00032932	
220.000000	1.11263   	220.000000	1.08381   	220.000000	1.08608   	220.000000	1.0726    	220.000000	1.08349   	220.000000	0.000315597	
230.000000	1.0831    	230.000000	1.05508   	230.000000	1.05741   	230.000000	1.04385   	230.000000	1.05478   	230.000000	0.000303014	
240.000000	1.05589   	240.000000	1.02867   	240.000000	1.03101   	240.000000	1.01743   	240.000000	1.02838   	240.000000	0.000291433	
250.000000	1.03075   	250.000000	1.00432   	250.000000	1.00665   	250.000000	0.993079  	250.000000	1.00404   	250.000000	0.000280738	
260.000000	1.00743   	260.000000	0.981786  	260.000000	0.984169  	260.000000	0.970561  	260.000000	0.981515  	260.000000	0.000270829	
270.000000	0.985759  	270.000000	0.960882  	270.000000	0.963341  	270.000000	0.949681  	270.000000	0.960621  	270.000000	0.000261621	
280.000000	0.96556   	280.000000	0.941438  	280.000000	0.943965  	280.000000	0.930271  	280.000000	0.941185  	280.000000	0.000253043	
290.000000	0.946689  	290.000000	0.923308  	290.000000	0.925815  	290.000000	0.912183  	290.000000	0.923063  	290.000000	0.00024503	
300.000000	0.92902   	300.000000	0.906364  	300.000000	0.908916  	300.000000	0.895289  	300.000000	0.906127  	300.000000	0.000237528	
310.000000	0.912443  	310.000000	0.890497  	310.000000	0.89312   	310.000000	0.879479  	310.000000	0.890266  	310.000000	0.000230489	
320.000000	0.896859  	320.000000	0.875607  	320.000000	0.878229  	320.000000	0.864654  	320.000000	0.875384  	320.000000	0.000223871	
330.000000	0.882184  	330.000000	0.861611  	330.000000	0.864293  	330.000000	0.850726  	330.000000	0.861393  	330.000000	0.000217636	
340.000000	0.868341  	340.000000	0.84843   	340.000000	0.851199  	340.000000	0.837621  	340.000000	0.848218  	340.000000	0.000211752	
350.000000	0.855263  	350.000000	0.835998  	350.000000	0.838795  	350.000000	0.825268  	350.000000	0.835791  	350.000000	0.00020619	
360.000000	0.842888  	360.000000	0.824254  	360.000000	0.827074  	360.000000	0.813608  	360.000000	0.824053  	360.000000	0.000200924	
370.000000	0.831163  	370.000000	0.813144  	370.000000	0.816003  	370.000000	0.802586  	370.000000	0.812948  	370.000000	0.000195929	
380.000000	0.820038  	380.000000	0.802619  	380.000000	0.805512  	380.000000	0.792152  	380.000000	0.802428  	380.000000	0.000191187	
390.000000	0.809471  	390.000000	0.792637  	390.000000	0.795579  	390.000000	0.782264  	390.000000	0.792451  	390.000000	0.000186677	
400.000000	0.799421  	400.000000	0.783158  	400.000000	0.786194  	400.000000	0.77288   	400.000000	0.782975  	400.000000	0.000182383	
410.000000	0.789852  	410.000000	0.774145  	410.000000	0.777283  	410.000000	0.763966  	410.000000	0.773967  	410.000000	0.000178289	
420.000000	0.780732  	420.000000	0.765567  	420.000000	0.768772  	420.000000	0.755488  	420.000000	0.765393  	420.000000	0.000174382	
430.000000	0.772031  	430.000000	0.757395  	430.000000	0.760648  	430.000000	0.747418  	430.000000	0.757224  	430.000000	0.000170649	
440.000000	0.763721  	440.000000	0.749601  	440.000000	0.75291   	440.000000	0.739726  	440.000000	0.749434  	440.000000	0.000167079	
450.000000	0.755779  	450.000000	0.742161  	450.000000	0.745534  	450.000000	0.73239   	450.000000	0.741997  	450.000000	0.00016366	
460.000000	0.748181  	460.000000	0.735053  	460.000000	0.738491  	460.000000	0.725386  	460.000000	0.734892  	460.000000	0.000160384	
470.000000	0.740907  	470.000000	0.728255  	470.000000	0.731758  	470.000000	0.718693  	470.000000	0.728098  	470.000000	0.000157241	
480.000000	0.733937  	480.000000	0.721751  	480.000000	0.72532   	480.000000	0.712293  	480.000000	0.721596  	480.000000	0.000154223	
490.000000	0.727253  	490.000000	0.715521  	490.000000	0.719157  	490.000000	0.706168  	490.000000	0.715369  	490.000000	0.000151324	
500.000000	0.72084   	500.000000	0.70955   	500.000000	0.713254  	500.000000	0.700302  	500.000000	0.709401  	500.000000	0.000148535	
520.000000	0.708766  	520.000000	0.698326  	520.000000	0.702169  	520.000000	0.689286  	520.000000	0.698183  	520.000000	0.000143267	
540.000000	0.697606  	540.000000	0.687975  	540.000000	0.691957  	540.000000	0.67914   	540.000000	0.687836  	540.000000	0.000138372	
560.000000	0.687267  	560.000000	0.678405  	560.000000	0.682526  	560.000000	0.669771  	560.000000	0.678271  	560.000000	0.000133813	
580.000000	0.677669  	580.000000	0.669537  	580.000000	0.673796  	580.000000	0.6611    	580.000000	0.669408  	580.000000	0.000129555	
600.000000	0.668741  	600.000000	0.661304  	600.000000	0.665695  	600.000000	0.653057  	600.000000	0.661178  	600.000000	0.00012557	
620.000000	0.660423  	620.000000	0.653645  	620.000000	0.658169  	620.000000	0.645583  	620.000000	0.653524  	620.000000	0.00012183	
640.000000	0.652659  	640.000000	0.646509  	640.000000	0.651167  	640.000000	0.638625  	640.000000	0.646391  	640.000000	0.000118315	
660.000000	0.645402  	660.000000	0.639849  	660.000000	0.644616  	660.000000	0.632135  	660.000000	0.639734  	660.000000	0.000115005	
680.000000	0.63861   	680.000000	0.633624  	680.000000	0.638467  	680.000000	0.626072  	680.000000	0.633512  	680.000000	0.000111881	
700.000000	0.632245  	700.000000	0.627797  	700.000000	0.632721  	700.000000	0.6204    	700.000000	0.627688  	700.000000	0.000108928	
720.000000	0.626273  	720.000000	0.622337  	720.000000	0.627363  	720.000000	0.615085  	720.000000	0.622231  	720.000000	0.000106133	
740.000000	0.620664  	740.000000	0.617215  	740.000000	0.622384  	740.000000	0.61014   	740.000000	0.617111  	740.000000	0.000103483	
760.000000	0.615392  	760.000000	0.612404  	760.000000	0.617793  	760.000000	0.605587  	760.000000	0.612303  	760.000000	0.000100966	
780.000000	0.610431  	780.000000	0.607881  	780.000000	0.613473  	780.000000	0.601304  	780.000000	0.607783  	780.000000	9.85734e-05	
800.000000	0.605759  	800.000000	0.603626  	800.000000	0.609411  	800.000000	0.597272  	800.000000	0.603529  	800.000000	9.62955e-05	
820.000000	0.601357  	820.000000	0.599618  	820.000000	0.60558   	820.000000	0.593472  	820.000000	0.599524  	820.000000	9.41243e-05	
840.000000	0.597206  	840.000000	0.595841  	840.000000	0.601954  	840.000000	0.589887  	840.000000	0.595749  	840.000000	9.20522e-05	
860.000000	0.59329   	860.000000	0.592279  	860.000000	0.598515  	860.000000	0.586502  	860.000000	0.592189  	860.000000	9.00726e-05	
880.000000	0.589594  	880.000000	0.588918  	880.000000	0.595261  	880.000000	0.583303  	880.000000	0.58883   	880.000000	8.81794e-05	
900.000000	0.586104  	900.000000	0.585745  	900.000000	0.592192  	900.000000	0.580278  	900.000000	0.585658  	900.000000	8.6367e-05	
920.000000	0.582807  	920.000000	0.582747  	920.000000	0.589298  	920.000000	0.577415  	920.000000	0.582662  	920.000000	8.46302e-05	
940.000000	0.579691  	940.000000	0.579914  	940.000000	0.586564  	940.000000	0.574704  	940.000000	0.579831  	940.000000	8.29643e-05	
960.000000	0.576747  	960.000000	0.577235  	960.000000	0.583976  	960.000000	0.572135  	960.000000	0.577154  	960.000000	8.13651e-05	
980.000000	0.573963  	980.000000	0.574702  	980.000000	0.581522  	980.000000	0.569699  	980.000000	0.574623  	980.000000	7.98285e-05	
1000.000000	0.571332  	1000.000000	0.572306  	1000.000000	0.579189  	1000.000000	0.567388  	1000.000000	0.572228  	1000.000000	7.83509e-05	
1020.000000	0.568844  	1020.000000	0.570039  	1020.000000	0.576969  	1020.000000	0.565193  	1020.000000	0.569962  	1020.000000	7.6929e-05	
1040.000000	0.566492  	1040.000000	0.567894  	1040.000000	0.574853  	1040.000000	0.56311   	1040.000000	0.567818  	1040.000000	7.55596e-05	
1060.000000	0.564268  	1060.000000	0.565864  	1060.000000	0.572836  	1060.000000	0.561129  	1060.000000	0.565789  	1060.000000	7.42398e-05	
1080.000000	0.562167  	1080.000000	0.563942  	1080.000000	0.570917  	1080.000000	0.559247  	1080.000000	0.563869  	1080.000000	7.2967e-05	
1100.000000	0.560181  	1100.000000	0.562123  	1100.000000	0.569093  	1100.000000	0.557457  	1100.000000	0.562052  	1100.000000	7.17386e-05	
1120.000000	0.558305  	1120.000000	0.560402  	1120.000000	0.567362  	1120.000000	0.555754  	1120.000000	0.560332  	1120.000000	7.05523e-05	
1140.000000	0.556533  	1140.000000	0.558774  	1140.000000	0.565719  	1140.000000	0.554133  	1140.000000	0.558704  	1140.000000	6.9406e-05	
1160.000000	0.554861  	1160.000000	0.557233  	1160.000000	0.564159  	1160.000000	0.552589  	1160.000000	0.557164  	1160.000000	6.82977e-05	
1180.000000	0.553283  	1180.000000	0.555775  	1180.000000	0.562675  	1180.000000	0.55112   	1180.000000	0.555708  	1180.000000	6.72254e-05	
1200.000000	0.551796  	1200.000000	0.554397  	1200.000000	0.561263  	1200.000000	0.54972   	1200.000000	0.554331  	1200.000000	6.61875e-05	
1220.000000	0.550395  	1220.000000	0.553094  	1220.000000	0.559918  	1220.000000	0.548386  	1220.000000	0.553029  	1220.000000	6.51823e-05	
1240.000000	0.549076  	1240.000000	0.551864  	1240.000000	0.558635  	1240.000000	0.547115  	1240.000000	0.5518    	1240.000000	6.42082e-05	
1260.000000	0.547835  	1260.000000	0.550702  	1260.000000	0.55741   	1260.000000	0.545903  	1260.000000	0.550638  	1260.000000	6.32638e-05	
1280.000000	0.54667   	1280.000000	0.549605  	1280.000000	0.55624   	1280.000000	0.544748  	1280.000000	0.549543  	1280.000000	6.23478e-05	
1300.000000	0.545576  	1300.000000	0.548571  	1300.000000	0.555122  	1300.000000	0.543646  	1300.000000	0.548509  	1300.000000	6.14589e-05	
1320.000000	0.544552  	1320.000000	0.547596  	1320.000000	0.554052  	1320.000000	0.542595  	1320.000000	0.547535  	1320.000000	6.05958e-05	
1340.000000	0.543593  	1340.000000	0.546678  	1340.000000	0.553028  	1340.000000	0.541593  	1340.000000	0.546618  	1340.000000	5.97575e-05	
1360.000000	0.542698  	1360.000000	0.545815  	1360.000000	0.552049  	1360.000000	0.540638  	1360.000000	0.545756  	1360.000000	5.89429e-05	
1380.000000	0.541863  	1380.000000	0.545004  	1380.000000	0.551115  	1380.000000	0.539726  	1380.000000	0.544946  	1380.000000	5.8151e-05	
1400.000000	0.541087  	1400.000000	0.544243  	1400.000000	0.550223  	1400.000000	0.538856  	1400.000000	0.544186  	1400.000000	5.73808e-05	
1420.000000	0.540366  	1420.000000	0.54353   	1420.000000	0.549374  	1420.000000	0.538027  	1420.000000	0.543474  	1420.000000	5.66314e-05	
1440.000000	0.5397    	1440.000000	0.542863  	1440.000000	0.548566  	1440.000000	0.537235  	1440.000000	0.542807  	1440.000000	5.59021e-05	
1460.000000	0.539085  	1460.000000	0.54224   	1460.000000	0.547798  	1460.000000	0.536481  	1460.000000	0.542185  	1460.000000	5.5192e-05	
1480.000000	0.538521  	1480.000000	0.54166   	1480.000000	0.547067  	1480.000000	0.535761  	1480.000000	0.541605  	1480.000000	5.45003e-05	
1500.000000	0.538004  	1500.000000	0.54112   	1500.000000	0.546371  	1500.000000	0.535074  	1500.000000	0.541066  	1500.000000	5.38263e-05	
1520.000000	0.537534  	1520.000000	0.540619  	1520.000000	0.545708  	1520.000000	0.534419  	1520.000000	0.540566  	1520.000000	5.31694e-05	
1540.000000	0.537108  	1540.000000	0.540156  	1540.000000	0.545076  	1540.000000	0.533795  	1540.000000	0.540103  	1540.000000	5.25289e-05	
1560.000000	0.536725  	1560.000000	0.539729  	1560.000000	0.544472  	1560.000000	0.5332    	1560.000000	0.539677  	1560.000000	5.19042e-05	
1580.000000	0.536384  	1580.000000	0.539336  	1580.000000	0.543896  	1580.000000	0.532632  	1580.000000	0.539285  	1580.000000	5.12947e-05	
1600.000000	0.536083  	1600.000000	0.538978  	1600.000000	0.543344  	1600.000000	0.532092  	1600.000000	0.538927  	1600.000000	5.06998e-05	
1620.000000	0.535821  	1620.000000	0.538651  	1620.000000	0.542817  	1620.000000	0.531577  	1620.000000	0.538601  	1620.000000	5.01191e-05	
1640.000000	0.535596  	1640.000000	0.538356  	1640.000000	0.542313  	1640.000000	0.531086  	1640.000000	0.538306  	1640.000000	4.95519e-05	
1660.000000	0.535407  	1660.000000	0.53809   	1660.000000	0.541831  	1660.000000	0.53062   	1660.000000	0.538041  	1660.000000	4.89979e-05	
1680.000000	0.535254  	1680.000000	0.537854  	1680.000000	0.541372  	1680.000000	0.530175  	1680.000000	0.537805  	1680.000000	4.84566e-05	
1700.000000	0.535134  	1700.000000	0.537645  	1700.000000	0.540935  	1700.000000	0.529753  	1700.000000	0.537597  	1700.000000	4.79276e-05	
1750.000000	0.534977  	1750.000000	0.53724   	1750.000000	0.539934  	1750.000000	0.528786  	1750.000000	0.537193  	1750.000000	4.66558e-05	
1800.000000	0.535009  	1800.000000	0.536989  	1800.000000	0.539057  	1800.000000	0.527936  	1800.000000	0.536944  	1800.000000	4.5452e-05	
1850.000000	0.535217  	1850.000000	0.536881  	1850.000000	0.538294  	1850.000000	0.527193  	1850.000000	0.536837  	1850.000000	4.43108e-05	
1900.000000	0.535588  	1900.000000	0.536904  	1900.000000	0.537633  	1900.000000	0.526546  	1900.000000	0.536861  	1900.000000	4.32274e-05	
1950.000000	0.536112  	1950.000000	0.537048  	1950.000000	0.537062  	1950.000000	0.525987  	1950.000000	0.537006  	1950.000000	4.21975e-05	
2000.000000	0.536777  	2000.000000	0.537304  	2000.000000	0.536571  	2000.000000	0.525508  	2000.000000	0.537263  	2000.000000	4.12171e-05	
2100.000000	0.538496  	2100.000000	0.53812   	2100.000000	0.535794  	2100.000000	0.524763  	2100.000000	0.538081  	2100.000000	3.93913e-05	
2200.000000	0.540681  	2200.000000	0.539296  	2200.000000	0.535254  	2200.000000	0.524261  	2200.000000	0.539258  	2200.000000	3.77253e-05	
2300.000000	0.543278  	2300.000000	0.540785  	2300.000000	0.534918  	2300.000000	0.523963  	2300.000000	0.540748  	2300.000000	3.61989e-05	
2400.000000	0.546243  	2400.000000	0.542547  	2400.000000	0.534758  	2400.000000	0.523837  	2400.000000	0.542512  	2400.000000	3.47951e-05	
2500.000000	0.549537  	2500.000000	0.544549  	2500.000000	0.534748  	2500.000000	0.523855  	2500.000000	0.544516  	2500.000000	3.34995e-05	
2600.000000	0.553128  	2600.000000	0.546765  	2600.000000	0.534867  	2600.000000	0.523997  	2600.000000	0.546732  	2600.000000	3.22999e-05	
2700.000000	0.556988  	2700.000000	0.549168  	2700.000000	0.535093  	2700.000000	0.524243  	2700.000000	0.549137  	2700.000000	3.1186e-05	
2800.000000	0.561093  	2800.000000	0.551741  	2800.000000	0.53541   	2800.000000	0.524577  	2800.000000	0.55171   	2800.000000	3.01487e-05	
2900.000000	0.565422  	2900.000000	0.554463  	2900.000000	0.535805  	2900.000000	0.524987  	2900.000000	0.554434  	2900.000000	2.91804e-05	
3000.000000	0.569958  	3000.000000	0.557321  	3000.000000	0.536266  	3000.000000	0.525461  	3000.000000	0.557293  	3000.000000	2.82743e-05	
3200.000000	0.579585  	3200.000000	0.56339   	3200.000000	0.537348  	3200.000000	0.526565  	3200.000000	0.563364  	3200.000000	2.66259e-05	
3400.000000	0.589868  	3400.000000	0.56986   	3400.000000	0.538591  	3400.000000	0.527828  	3400.000000	0.569835  	3400.000000	2.51647e-05	
3600.000000	0.600726  	3600.000000	0.576661  	3600.000000	0.539949  	3600.000000	0.529204  	3600.000000	0.576637  	3600.000000	2.38602e-05	
3800.000000	0.612091  	3800.000000	0.583739  	3800.000000	0.541387  	3800.000000	0.530661  	3800.000000	0.583717  	3800.000000	2.26882e-05	
4000.000000	0.623911  	4000.000000	0.591051  	4000.000000	0.542882  	4000.000000	0.532172  	4000.000000	0.591029  	4000.000000	2.16294e-05	
4200.000000	0.636142  	4200.000000	0.598561  	4200.000000	0.544412  	4200.000000	0.53372   	4200.000000	0.59854   	4200.000000	2.06678e-05	
4400.000000	0.648748  	4400.000000	0.60624   	4400.000000	0.545963  	4400.000000	0.535288  	4400.000000	0.606221  	4400.000000	1.97907e-05	
4600.000000	0.6617    	4600.000000	0.614066  	4600.000000	0.547525  	4600.000000	0.536866  	4600.000000	0.614047  	4600.000000	1.89871e-05	
4800.000000	0.674972  	4800.000000	0.622017  	4800.000000	0.549089  	4800.000000	0.538446  	4800.000000	0.621998  	4800.000000	1.82482e-05	
5000.000000	0.688543  	5000.000000	0.630077  	5000.000000	0.550647  	5000.000000	0.540019  	5000.000000	0.630059  	5000.000000	1.75664e-05	
5250.000000	0.705901  	5250.000000	0.640285  	5250.000000	0.552581  	5250.000000	0.541971  	5250.000000	0.640268  	5250.000000	1.67847e-05	
5500.000000	0.723668  	5500.000000	0.65062   	5500.000000	0.554492  	5500.000000	0.5439    	5500.000000	0.650604  	5500.000000	1.60715e-05	
6000.000000	0.76034   	6000.000000	0.671596  	6000.000000	0.558228  	6000.000000	0.547667  	6000.000000	0.671581  	6000.000000	1.48177e-05	
6500.000000	0.798404  	6500.000000	0.692891  	6500.000000	0.561831  	6500.000000	0.551296  	6500.000000	0.692877  	6500.000000	1.37504e-05	
7000.000000	0.837752  	7000.000000	0.714422  	7000.000000	0.565294  	7000.000000	0.554778  	7000.000000	0.71441   	7000.000000	1.28306e-05	
7500.000000	0.878299  	7500.000000	0.736132  	7500.000000	0.568613  	7500.000000	0.558112  	7500.000000	0.73612   	7500.000000	1.20294e-05	
8000.000000	0.919987  	8000.000000	0.757976  	8000.000000	0.571756  	8000.000000	0.561301  	8000.000000	0.757964  	8000.000000	1.13251e-05	
8500.000000	0.962766  	8500.000000	0.779921  	8500.000000	0.574774  	8500.000000	0.564351  	8500.000000	0.77991   	8500.000000	1.07009e-05	
9000.000000	1.0066    	9000.000000	0.801943  	9000.000000	0.577686  	9000.000000	0.56727   	9000.000000	0.801933  	9000.000000	1.01438e-05	
9500.000000	1.05146   	9500.000000	0.824022  	9500.000000	0.580469  	9500.000000	0.570064  	9500.000000	0.824013  	9500.000000	9.64349e-06	
10000.000000	1.09732   	10000.000000	0.846144  	10000.000000	0.583119  	10000.000000	0.572742  	10000.000000	0.846135  	10000.000000	9.19153e-06	
11000.000000	1.19199   	11000.000000	0.890469  	11000.000000	0.588086  	11000.000000	0.577775  	11000.000000	0.89046   	11000.000000	8.40698e-06	
12000.000000	1.29048   	12000.000000	0.934849  	12000.000000	0.592681  	12000.000000	0.582424  	12000.000000	0.934841  	12000.000000	7.74911e-06	
13000.000000	1.39273   	13000.000000	0.979239  	13000.000000	0.596939  	13000.000000	0.586735  	13000.000000	0.979232  	13000.000000	7.1893e-06	
14000.000000	1.49868   	14000.000000	1.02361   	14000.000000	0.600892  	14000.000000	0.590749  	14000.000000	1.0236    	14000.000000	6.70696e-06	
15000.000000	1.60831   	15000.000000	1.06794   	15000.000000	0.604576  	15000.000000	0.5945    	15000.000000	1.06794   	15000.000000	6.28692e-06	
16000.000000	1.72159   	16000.000000	1.11222   	16000.000000	0.608022  	16000.000000	0.598017  	16000.000000	1.11222   	16000.000000	5.91775e-06	
17000.000000	1.83851   	17000.000000	1.15644   	17000.000000	0.611258  	17000.000000	0.601325  	17000.000000	1.15644   	17000.000000	5.59066e-06	
18000.000000	1.95907   	18000.000000	1.20059   	18000.000000	0.614309  	18000.000000	0.604447  	18000.000000	1.20059   	18000.000000	5.29877e-06	
19000.000000	2.08325   	19000.000000	1.24468   	19000.000000	0.617193  	19000.000000	0.607399  	19000.000000	1.24467   	19000.000000	5.03665e-06	
20000.000000	2.21107   	20000.000000	1.28869   	20000.000000	0.619929  	20000.000000	0.6102    	20000.000000	1.28868   	20000.000000	4.79993e-06	
21000.000000	2.34253   	21000.000000	1.33263   	21000.000000	0.622517  	21000.000000	0.612862  	21000.000000	1.33262   	21000.000000	4.58505e-06	
22000.000000	2.47764   	22000.000000	1.37649   	22000.000000	0.624954  	22000.000000	0.615397  	22000.000000	1.37649   	22000.000000	4.38909e-06	
23000.000000	2.6164    	23000.000000	1.42029   	23000.000000	0.627289  	23000.000000	0.617818  	23000.000000	1.42028   	23000.000000	4.20965e-06	
24000.000000	2.75883   	24000.000000	1.46401   	24000.000000	0.629523  	24000.000000	0.620132  	24000.000000	1.464     	24000.000000	4.04469e-06	
25000.000000	2.90494   	25000.000000	1.50765   	25000.000000	0.631644  	25000.000000	0.622348  	25000.000000	1.50765   	25000.000000	3.89252e-06	
26000.000000	3.05475   	26000.000000	1.55123   	26000.000000	0.633671  	26000.000000	0.624475  	26000.000000	1.55123   	26000.000000	3.7517e-06	
27000.000000	3.20826   	27000.000000	1.59474   	27000.000000	0.635617  	27000.000000	0.626518  	27000.000000	1.59474   	27000.000000	3.62098e-06	
28000.000000	3.36549   	28000.000000	1.63818   	28000.000000	0.637482  	28000.000000	0.628484  	28000.000000	1.63818   	28000.000000	3.49931e-06	
29000.000000	3.52647   	29000.000000	1.68156   	29000.000000	0.639268  	29000.000000	0.630378  	29000.000000	1.68155   	29000.000000	3.38577e-06	
30000.000000	3.6912    	30000.000000	1.72487   	30000.000000	0.640981  	30000.000000	0.632204  	30000.000000	1.72486   	30000.000000	3.27957e-06	
32000.000000	4.03199   	32000.000000	1.8113    	32000.000000	0.644215  	32000.000000	0.635673  	32000.000000	1.8113    	32000.000000	3.08648e-06	
34000.000000	4.38802   	34000.000000	1.89749   	34000.000000	0.647225  	34000.000000	0.638921  	34000.000000	1.89748   	34000.000000	2.91543e-06	
36000.000000	4.75944   	36000.000000	1.98344   	36000.000000	0.650023  	36000.000000	0.641973  	36000.000000	1.98344   	36000.000000	2.76281e-06	
38000.000000	5.14639   	38000.000000	2.06917   	38000.000000	0.652625  	38000.000000	0.644851  	38000.000000	2.06917   	38000.000000	2.62578e-06	
40000.000000	5.54903   	40000.000000	2.15469   	40000.000000	0.655058  	40000.000000	0.647574  	40000.000000	2.15469   	40000.000000	2.50205e-06	
42000.000000	5.96754   	42000.000000	2.24001   	42000.000000	0.657347  	42000.000000	0.650155  	42000.000000	2.24001   	42000.000000	2.38974e-06	
44000.000000	6.40206   	44000.000000	2.32513   	44000.000000	0.659511  	44000.000000	0.65261   	44000.000000	2.32513   	44000.000000	2.28735e-06	
46000.000000	6.85278   	46000.000000	2.41007   	46000.000000	0.661568  	46000.000000	0.654949  	46000.000000	2.41007   	46000.000000	2.19359e-06	
48000.000000	7.31985   	48000.000000	2.49483   	48000.000000	0.663522  	48000.000000	0.657182  	48000.000000	2.49482   	48000.000000	2.10741e-06	
50000.000000	7.80345   	50000.000000	2.57941   	50000.000000	0.665363  	50000.000000	0.659319  	50000.000000	2.57941   	50000.000000	2.02793e-06	
