Energy (MeV/u)1	0 - [He-base] F.Hubert et al, AD&ND Tables 46(1990)1	Energy (MeV/u)2	1 - [H -base] J.F.Ziegler et al, Pergamon Press, NY (low energy)	Energy (MeV/u)3	2 - ATIMA 1.2  LS-theory (recommended for high energy)	Energy (MeV/u)4	3 - ATIMA 1.2  without LS-correction	Energy (MeV/u)5	4 - electrical component of [1] - J.F.Ziegler et al	Energy (MeV/u)6	5 - nuclear component of [1] - J.F.Ziegler et al	
0.001000	12.7779   	0.001000	18.9311   	0.001000	15.0289   	0.001000	15.0289   	0.001000	6.27413   	0.001000	12.6569   	
0.002000	13.2091   	0.002000	20.0708   	0.002000	15.2886   	0.002000	15.2886   	0.002000	8.13654   	0.002000	11.9343   	
0.005000	13.1079   	0.005000	21.0256   	0.005000	14.8563   	0.005000	14.8563   	0.005000	11.4727   	0.005000	9.55288   	
0.008000	13.0279   	0.008000	21.6754   	0.008000	14.6998   	0.008000	14.6998   	0.008000	13.684    	0.008000	7.99145   	
0.010000	13.0494   	0.010000	22.1177   	0.010000	14.7395   	0.010000	14.7395   	0.010000	14.8783   	0.010000	7.23942   	
0.015000	13.2571   	0.015000	23.2447   	0.015000	15.1088   	0.015000	15.1088   	0.015000	17.3216   	0.015000	5.92314   	
0.020000	13.5754   	0.020000	24.3556   	0.020000	15.6674   	0.020000	15.6674   	0.020000	19.2948   	0.020000	5.06082   	
0.025000	13.9383   	0.025000	25.424    	0.025000	16.3037   	0.025000	16.3037   	0.025000	20.9788   	0.025000	4.44521   	
0.030000	14.3174   	0.030000	26.4434   	0.030000	16.9704   	0.030000	16.9704   	0.030000	22.4633   	0.030000	3.9801    	
0.035000	14.6995   	0.035000	27.4144   	0.035000	17.6455   	0.035000	17.6455   	0.035000	23.8001   	0.035000	3.61433   	
0.040000	15.078    	0.040000	28.3401   	0.040000	18.3179   	0.040000	18.3179   	0.040000	25.0222   	0.040000	3.31793   	
0.045000	15.4498   	0.045000	29.2243   	0.045000	18.9819   	0.045000	18.9819   	0.045000	26.1522   	0.045000	3.07212   	
0.050000	15.8132   	0.050000	30.0706   	0.050000	19.6349   	0.050000	19.6349   	0.050000	27.2062   	0.050000	2.86446   	
0.055000	16.1677   	0.055000	30.8825   	0.055000	20.2753   	0.055000	20.2753   	0.055000	28.1961   	0.055000	2.68635   	
0.060000	16.5131   	0.060000	31.663    	0.060000	20.9027   	0.060000	20.9027   	0.060000	29.1313   	0.060000	2.53166   	
0.070000	17.6799   	0.070000	34.1935   	0.070000	22.906    	0.070000	22.906    	0.070000	31.918    	0.070000	2.27556   	
0.080000	19.7113   	0.080000	38.7353   	0.080000	26.5596   	0.080000	26.5596   	0.080000	36.6637   	0.080000	2.07156   	
0.090000	21.5791   	0.090000	42.9062   	0.090000	30.1308   	0.090000	30.1308   	0.090000	41.0189   	0.090000	1.88724   	
0.100000	23.3228   	0.100000	46.6861   	0.100000	33.5977   	0.100000	33.5977   	0.100000	44.9366   	0.100000	1.74948   	
0.120000	25.8766   	0.120000	52.9736   	0.120000	40.0238   	0.120000	40.0238   	0.120000	51.4422   	0.120000	1.53139   	
0.140000	28.0662   	0.140000	57.7238   	0.140000	45.6802   	0.140000	45.6802   	0.140000	56.3579   	0.140000	1.36588   	
0.160000	30.0656   	0.160000	61.2642   	0.160000	50.5677   	0.160000	50.5677   	0.160000	60.0287   	0.160000	1.23552   	
0.180000	31.9767   	0.180000	63.9341   	0.180000	54.7535   	0.180000	54.7535   	0.180000	62.8042   	0.180000	1.12989   	
0.200000	33.8514   	0.200000	66.0119   	0.200000	58.3296   	0.200000	58.3296   	0.200000	64.9695   	0.200000	1.04238   	
0.250000	37.4096   	0.250000	70.0281   	0.250000	65.2021   	0.250000	65.2021   	0.250000	69.151    	0.250000	0.877079  	
0.300000	40.7158   	0.300000	73.1683   	0.300000	70.0415   	0.300000	70.0415   	0.300000	72.408    	0.300000	0.760296  	
0.350000	43.7283   	0.350000	75.928    	0.350000	73.6328   	0.350000	73.6328   	0.350000	75.255    	0.350000	0.672987  	
0.400000	46.4467   	0.400000	78.4644   	0.400000	76.4402   	0.400000	76.4402   	0.400000	77.8593   	0.400000	0.605011  	
0.450000	48.8846   	0.450000	80.808    	0.450000	78.7325   	0.450000	78.7325   	0.450000	80.2575   	0.450000	0.550448  	
0.500000	51.5196   	0.500000	83.6775   	0.500000	80.6673   	0.500000	80.6673   	0.500000	83.172    	0.500000	0.505596  	
0.600000	54.9357   	0.600000	89.9958   	0.600000	83.8085   	0.600000	83.8085   	0.600000	89.5598   	0.600000	0.436028  	
0.700000	56.9224   	0.700000	94.9052   	0.700000	86.2807   	0.700000	86.2807   	0.700000	94.5208   	0.700000	0.384391  	
0.800000	60.1662   	0.800000	98.7048   	0.800000	88.7967   	0.800000	88.7967   	0.800000	98.3604   	0.800000	0.344416  	
0.900000	62.7789   	0.900000	101.628   	0.900000	91.4238   	0.900000	91.4238   	0.900000	101.316   	0.900000	0.312477  	
1.000000	64.6134   	1.000000	103.414   	1.000000	93.526    	1.000000	93.526    	1.000000	103.128   	1.000000	0.286326  	
1.250000	67.4869   	1.250000	105.786   	1.250000	97.1292   	1.250000	97.1292   	1.250000	105.549   	1.250000	0.237696  	
1.500000	69.0474   	1.500000	106.501   	1.500000	99.1391   	1.500000	99.1391   	1.500000	106.297   	1.500000	0.203959  	
1.750000	69.4967   	1.750000	105.787   	1.750000	100.14    	1.750000	100.14    	1.750000	105.608   	1.750000	0.179083  	
2.000000	69.2176   	2.000000	104.183   	2.000000	100.477   	2.000000	100.477   	2.000000	104.023   	2.000000	0.159927  	
2.250000	68.863    	2.250000	102.477   	2.250000	100.364   	2.250000	100.364   	2.250000	102.332   	2.250000	0.14469   	
2.500000	101.77    	2.500000	100.726   	2.500000	99.9425   	2.500000	99.9425   	2.500000	100.593   	2.500000	0.132259  	
3.000000	98.7303   	3.000000	97.2404   	3.000000	98.5197   	3.000000	98.5197   	3.000000	97.1272   	3.000000	0.113156  	
3.500000	95.3501   	3.500000	93.8671   	3.500000	96.6671   	3.500000	96.6671   	3.500000	93.768    	3.500000	0.0991209 	
4.000000	91.937    	4.000000	90.6298   	4.000000	94.6172   	4.000000	94.6172   	4.000000	90.5415   	4.000000	0.0883456 	
4.500000	88.6274   	4.500000	87.5582   	4.500000	92.4943   	4.500000	92.4943   	4.500000	87.4784   	4.500000	0.0797955 	
5.000000	85.4795   	5.000000	84.6592   	5.000000	90.1923   	5.000000	90.1923   	5.000000	84.5864   	5.000000	0.0728352 	
5.500000	82.5137   	5.500000	81.9292   	5.500000	87.8702   	5.500000	87.8702   	5.500000	81.8622   	5.500000	0.067052  	
6.000000	79.7324   	6.000000	79.36     	6.000000	85.6743   	6.000000	85.6743   	6.000000	79.2978   	6.000000	0.0621658 	
6.500000	77.1292   	6.500000	76.9317   	6.500000	83.5952   	6.500000	83.5952   	6.500000	76.8737   	6.500000	0.0579795 	
7.000000	74.6937   	7.000000	74.6444   	7.000000	81.6239   	7.000000	81.6239   	7.000000	74.5901   	7.000000	0.0543502 	
7.500000	72.4139   	7.500000	72.4903   	7.500000	79.7522   	7.500000	79.7522   	7.500000	72.4391   	7.500000	0.0511718 	
8.000000	70.2777   	8.000000	70.4581   	8.000000	77.9725   	8.000000	77.9725   	8.000000	70.4097   	8.000000	0.0483638 	
8.500000	68.2736   	8.500000	68.5198   	8.500000	76.2781   	8.500000	76.2781   	8.500000	68.4739   	8.500000	0.0458639 	
9.000000	66.3905   	9.000000	66.693    	9.000000	74.6626   	9.000000	74.6626   	9.000000	66.6493   	9.000000	0.0436231 	
9.500000	64.6184   	9.500000	64.9683   	9.500000	73.1205   	9.500000	73.1205   	9.500000	64.9267   	9.500000	0.0416024 	
10.000000	62.9482   	10.000000	63.9559   	10.000000	71.6466   	10.000000	71.6466   	10.000000	63.9161   	10.000000	0.0397704 	
11.000000	59.8807   	11.000000	62.2474   	11.000000	68.2694   	11.000000	68.9413   	11.000000	62.2108   	11.000000	0.036574  	
12.000000	57.1306   	12.000000	60.5727   	12.000000	65.216    	12.000000	66.4528   	12.000000	60.5389   	12.000000	0.0338769 	
13.000000	54.6509   	13.000000	58.9472   	13.000000	62.4421   	13.000000	64.1563   	13.000000	58.9156   	13.000000	0.0315688 	
14.000000	52.4033   	14.000000	57.3815   	14.000000	59.9108   	14.000000	62.0305   	14.000000	57.3519   	14.000000	0.02957   	
15.000000	50.3561   	15.000000	55.8805   	15.000000	57.5911   	15.000000	60.0571   	15.000000	55.8527   	15.000000	0.0278211 	
16.000000	48.4831   	16.000000	54.4456   	16.000000	55.4579   	16.000000	58.2204   	16.000000	54.4193   	16.000000	0.0262774 	
17.000000	46.7625   	17.000000	53.0762   	17.000000	53.4906   	17.000000	56.5067   	17.000000	53.0513   	17.000000	0.0249042 	
18.000000	45.1761   	18.000000	51.7704   	18.000000	51.6719   	18.000000	54.9042   	18.000000	51.7468   	18.000000	0.0236742 	
19.000000	43.7082   	19.000000	50.5256   	19.000000	49.9855   	19.000000	53.4027   	19.000000	50.5031   	19.000000	0.0225658 	
20.000000	42.3458   	20.000000	49.3389   	20.000000	48.416    	20.000000	51.9931   	20.000000	49.3174   	20.000000	0.0215616 	
21.000000	41.0775   	21.000000	48.2073   	21.000000	46.9529   	21.000000	50.6675   	21.000000	48.1866   	21.000000	0.0206472 	
22.000000	39.8937   	22.000000	47.1276   	22.000000	45.5887   	22.000000	49.4188   	22.000000	47.1078   	22.000000	0.019811  	
23.000000	38.7859   	23.000000	46.0969   	23.000000	44.3144   	23.000000	48.2408   	23.000000	46.0778   	23.000000	0.0190432 	
24.000000	37.7469   	24.000000	45.1122   	24.000000	43.1203   	24.000000	47.1279   	24.000000	45.0939   	24.000000	0.0183355 	
25.000000	36.7702   	25.000000	44.171    	25.000000	41.9994   	25.000000	46.0752   	25.000000	44.1533   	25.000000	0.017681  	
27.000000	34.9819   	27.000000	42.4082   	27.000000	39.9563   	27.000000	44.1331   	27.000000	42.3917   	27.000000	0.0165092 	
29.000000	33.3838   	29.000000	40.79     	29.000000	38.1461   	29.000000	42.3839   	29.000000	40.7745   	29.000000	0.0154898 	
31.000000	31.946    	31.000000	39.2997   	31.000000	36.684    	31.000000	40.7488   	31.000000	39.2851   	31.000000	0.0145945 	
33.000000	30.6451   	33.000000	37.9232   	33.000000	35.4859   	33.000000	39.2033   	33.000000	37.9094   	33.000000	0.0138017 	
35.000000	29.4617   	35.000000	36.6483   	35.000000	34.3711   	35.000000	37.7822   	35.000000	36.6352   	35.000000	0.0130943 	
38.000000	27.8736   	38.000000	34.9032   	38.000000	32.8403   	38.000000	35.8522   	38.000000	34.8911   	38.000000	0.0121652 	
41.000000	26.4732   	41.000000	33.3325   	41.000000	31.4586   	41.000000	34.1291   	41.000000	33.3211   	41.000000	0.0113647 	
44.000000	25.2283   	44.000000	31.9112   	44.000000	30.2008   	44.000000	32.5809   	44.000000	31.9006   	44.000000	0.0106675 	
47.000000	24.1137   	47.000000	30.6192   	47.000000	29.0532   	47.000000	31.182    	47.000000	30.6092   	47.000000	0.0100545 	
50.000000	23.1094   	50.000000	29.4396   	50.000000	27.9998   	50.000000	29.9117   	50.000000	29.4301   	50.000000	0.00951108	
55.000000	21.6385   	55.000000	27.686    	55.000000	26.4295   	55.000000	28.0352   	55.000000	27.6773   	55.000000	0.00873026	
60.000000	20.3736   	60.000000	26.1544   	60.000000	25.0489   	60.000000	26.4075   	60.000000	26.1463   	60.000000	0.00807288	
65.000000	19.2732   	65.000000	24.805    	65.000000	23.8291   	65.000000	24.982    	65.000000	24.7974   	65.000000	0.00751146	
70.000000	18.3065   	70.000000	23.607    	70.000000	22.7419   	70.000000	23.7232   	70.000000	23.6      	70.000000	0.00702613	
75.000000	17.4498   	75.000000	22.5364   	75.000000	21.7649   	75.000000	22.6035   	75.000000	22.5298   	75.000000	0.00660222	
80.000000	16.685    	80.000000	21.5738   	80.000000	20.8864   	80.000000	21.6011   	80.000000	21.5676   	80.000000	0.00622861	
85.000000	15.9976   	85.000000	20.7037   	85.000000	20.0874   	85.000000	20.6985   	85.000000	20.6978   	85.000000	0.00589672	
90.000000	15.3762   	90.000000	19.9132   	90.000000	19.3617   	90.000000	19.8815   	90.000000	19.9076   	90.000000	0.00559984	
95.000000	14.8114   	95.000000	19.1921   	95.000000	18.6975   	95.000000	19.1386   	95.000000	19.1868   	95.000000	0.00533264	
100.000000	14.2957   	100.000000	18.5315   	100.000000	18.0874   	100.000000	18.4602   	100.000000	18.5264   	100.000000	0.00509082	
105.000000	13.8227   	105.000000	17.9242   	105.000000	17.5267   	105.000000	17.8382   	105.000000	17.9193   	105.000000	0.00487088	
110.000000	13.3872   	110.000000	17.3639   	110.000000	17.0083   	110.000000	17.2659   	110.000000	17.3592   	110.000000	0.00466993	
115.000000	12.9849   	115.000000	16.8454   	115.000000	16.5274   	115.000000	16.7377   	115.000000	16.841    	115.000000	0.00448559	
120.000000	12.6119   	120.000000	16.3643   	120.000000	16.0798   	120.000000	16.2487   	120.000000	16.36     	120.000000	0.00431584	
125.000000	12.2651   	125.000000	15.9166   	125.000000	15.6629   	125.000000	15.7947   	125.000000	15.9125   	125.000000	0.00415901	
130.000000	11.9417   	130.000000	15.499    	130.000000	15.2743   	130.000000	15.372    	130.000000	15.495    	130.000000	0.00401364	
135.000000	11.6394   	135.000000	15.1086   	135.000000	14.9099   	135.000000	14.9777   	135.000000	15.1047   	135.000000	0.00387851	
140.000000	11.3561   	140.000000	14.7428   	140.000000	14.5686   	140.000000	14.6089   	140.000000	14.739    	140.000000	0.00375255	
145.000000	11.0901   	145.000000	14.3993   	145.000000	14.248    	145.000000	14.2632   	145.000000	14.3957   	145.000000	0.00363486	
150.000000	10.8398   	150.000000	14.0762   	150.000000	13.9457   	150.000000	13.9387   	150.000000	14.0727   	150.000000	0.00352463	
155.000000	10.4799   	155.000000	13.7718   	155.000000	13.661    	155.000000	13.6334   	155.000000	13.7684   	155.000000	0.00342117	
160.000000	10.2727   	160.000000	13.4845   	160.000000	13.3923   	160.000000	13.3456   	160.000000	13.4812   	160.000000	0.00332385	
165.000000	10.0769   	165.000000	13.2128   	165.000000	13.1376   	165.000000	13.074    	165.000000	13.2096   	165.000000	0.00323215	
170.000000	9.89139   	170.000000	12.9556   	170.000000	12.8959   	170.000000	12.8172   	170.000000	12.9525   	170.000000	0.00314558	
175.000000	9.71548   	175.000000	12.7118   	175.000000	12.6666   	175.000000	12.574    	175.000000	12.7087   	175.000000	0.00306372	
180.000000	9.54841   	180.000000	12.4803   	180.000000	12.4489   	180.000000	12.3435   	180.000000	12.4773   	180.000000	0.00298619	
185.000000	9.38952   	185.000000	12.2602   	185.000000	12.2422   	185.000000	12.1246   	185.000000	12.2573   	185.000000	0.00291264	
190.000000	9.23822   	190.000000	12.0507   	190.000000	12.0455   	190.000000	11.9165   	190.000000	12.0479   	190.000000	0.00284278	
195.000000	9.09396   	195.000000	11.8511   	195.000000	11.8579   	195.000000	11.7185   	195.000000	11.8484   	195.000000	0.00277634	
200.000000	8.95626   	200.000000	11.6607   	200.000000	11.6785   	200.000000	11.5298   	200.000000	11.658    	200.000000	0.00271305	
210.000000	8.69883   	210.000000	11.3051   	210.000000	11.3431   	210.000000	11.178    	210.000000	11.3026   	210.000000	0.0025951 	
220.000000	8.46282   	220.000000	10.9796   	220.000000	11.0364   	220.000000	10.8566   	220.000000	10.9772   	220.000000	0.00248737	
230.000000	8.24566   	230.000000	10.6806   	230.000000	10.7546   	230.000000	10.5619   	230.000000	10.6782   	230.000000	0.00238857	
240.000000	8.04515   	240.000000	10.405    	240.000000	10.494    	240.000000	10.2908   	240.000000	10.4027   	240.000000	0.00229762	
250.000000	7.85945   	250.000000	10.1502   	250.000000	10.253    	250.000000	10.0406   	250.000000	10.148    	250.000000	0.00221362	
260.000000	7.68697   	260.000000	9.914     	260.000000	10.0297   	260.000000	9.80907   	260.000000	9.91186   	260.000000	0.00213577	
270.000000	7.52634   	270.000000	9.69444   	270.000000	9.82241   	270.000000	9.59418   	270.000000	9.69237   	270.000000	0.00206343	
280.000000	7.3764    	280.000000	9.48986   	280.000000	9.62933   	280.000000	9.39425   	280.000000	9.48787   	280.000000	0.00199602	
290.000000	7.2361    	290.000000	9.29882   	290.000000	9.44864   	290.000000	9.20783   	290.000000	9.29689   	290.000000	0.00193305	
300.000000	7.10455   	300.000000	9.12005   	300.000000	9.27894   	300.000000	9.03362   	300.000000	9.11818   	300.000000	0.00187408	
310.000000	6.98097   	310.000000	8.95243   	310.000000	9.11991   	310.000000	8.87049   	310.000000	8.95062   	310.000000	0.00181874	
320.000000	6.86466   	320.000000	8.79498   	320.000000	8.97117   	320.000000	8.71745   	320.000000	8.79321   	320.000000	0.0017667 	
330.000000	6.755     	330.000000	8.64682   	330.000000	8.83094   	330.000000	8.57362   	330.000000	8.6451    	330.000000	0.00171768	
340.000000	6.65144   	340.000000	8.50718   	340.000000	8.6985    	340.000000	8.43822   	340.000000	8.50551   	340.000000	0.0016714 	
350.000000	6.5535    	350.000000	8.37537   	350.000000	8.57364   	350.000000	8.31055   	350.000000	8.37374   	350.000000	0.00162766	
360.000000	6.46075   	360.000000	8.25076   	360.000000	8.45576   	360.000000	8.19001   	360.000000	8.24918   	360.000000	0.00158623	
370.000000	6.37278   	370.000000	8.13282   	370.000000	8.34418   	370.000000	8.07602   	370.000000	8.13127   	370.000000	0.00154694	
380.000000	6.28925   	380.000000	8.02102   	380.000000	8.23818   	380.000000	7.96809   	380.000000	8.01952   	380.000000	0.00150962	
390.000000	6.20984   	390.000000	7.91494   	390.000000	8.13746   	390.000000	7.86577   	390.000000	7.91346   	390.000000	0.00147414	
400.000000	6.13426   	400.000000	7.81415   	400.000000	8.04184   	400.000000	7.76865   	400.000000	7.81271   	400.000000	0.00144035	
410.000000	6.06224   	410.000000	7.71829   	410.000000	7.95098   	410.000000	7.67637   	410.000000	7.71688   	410.000000	0.00140813	
420.000000	5.99356   	420.000000	7.62702   	420.000000	7.86449   	420.000000	7.58858   	420.000000	7.62564   	420.000000	0.00137738	
430.000000	5.92798   	430.000000	7.54004   	430.000000	7.78211   	430.000000	7.50499   	430.000000	7.53869   	430.000000	0.00134799	
440.000000	5.86532   	440.000000	7.45706   	440.000000	7.70361   	440.000000	7.42531   	440.000000	7.45574   	440.000000	0.00131988	
450.000000	5.8054    	450.000000	7.37784   	450.000000	7.62863   	450.000000	7.3493    	450.000000	7.37654   	450.000000	0.00129297	
460.000000	5.74804   	460.000000	7.30213   	460.000000	7.55683   	460.000000	7.27671   	460.000000	7.30086   	460.000000	0.00126717	
470.000000	5.69309   	470.000000	7.22972   	470.000000	7.48805   	470.000000	7.20733   	470.000000	7.22848   	470.000000	0.00124242	
480.000000	5.64041   	480.000000	7.16042   	480.000000	7.42223   	480.000000	7.14098   	480.000000	7.1592    	480.000000	0.00121866	
490.000000	5.58988   	490.000000	7.09404   	490.000000	7.35923   	490.000000	7.07746   	490.000000	7.09284   	490.000000	0.00119583	
500.000000	5.54137   	500.000000	7.03041   	500.000000	7.29888   	500.000000	7.01662   	500.000000	7.02923   	500.000000	0.00117386	
520.000000	5.44997   	520.000000	6.91079   	520.000000	7.18544   	520.000000	6.90234   	520.000000	6.90966   	520.000000	0.00113236	
540.000000	5.36542   	540.000000	6.80047   	540.000000	7.08095   	540.000000	6.79704   	540.000000	6.79938   	540.000000	0.0010938 	
560.000000	5.28704   	560.000000	6.69847   	560.000000	6.98421   	560.000000	6.69977   	560.000000	6.69741   	560.000000	0.00105788	
580.000000	5.21422   	580.000000	6.60397   	580.000000	6.89425   	580.000000	6.60972   	580.000000	6.60295   	580.000000	0.00102433	
600.000000	5.14644   	600.000000	6.51624   	600.000000	6.81103   	600.000000	6.52617   	600.000000	6.51525   	600.000000	0.000992918	
620.000000	5.08325   	620.000000	6.43465   	620.000000	6.73379   	620.000000	6.4485    	620.000000	6.43369   	620.000000	0.000963447	
640.000000	5.02425   	640.000000	6.35864   	640.000000	6.66154   	640.000000	6.37616   	640.000000	6.3577    	640.000000	0.000935739	
660.000000	4.96907   	660.000000	6.28772   	660.000000	6.59396   	660.000000	6.30867   	660.000000	6.28681   	660.000000	0.000909638	
680.000000	4.9174    	680.000000	6.22145   	680.000000	6.53083   	680.000000	6.24561   	680.000000	6.22057   	680.000000	0.000885008	
700.000000	4.86895   	700.000000	6.15945   	700.000000	6.47179   	700.000000	6.18659   	700.000000	6.15859   	700.000000	0.000861725	
720.000000	4.82348   	720.000000	6.10138   	720.000000	6.41646   	720.000000	6.13128   	720.000000	6.10054   	720.000000	0.000839681	
740.000000	4.78077   	740.000000	6.04692   	740.000000	6.36439   	740.000000	6.07937   	740.000000	6.0461    	740.000000	0.000818778	
760.000000	4.74059   	760.000000	5.99579   	760.000000	6.31527   	760.000000	6.0306    	760.000000	5.99499   	760.000000	0.000798928	
780.000000	4.70278   	780.000000	5.94775   	780.000000	6.26905   	780.000000	5.98473   	780.000000	5.94697   	780.000000	0.000780054	
800.000000	4.66717   	800.000000	5.90257   	800.000000	6.22567   	800.000000	5.94153   	800.000000	5.90181   	800.000000	0.000762083	
820.000000	4.6336    	820.000000	5.86006   	820.000000	6.18487   	820.000000	5.90081   	820.000000	5.85931   	820.000000	0.000744952	
840.000000	4.60194   	840.000000	5.82001   	840.000000	6.14631   	840.000000	5.86238   	840.000000	5.81928   	840.000000	0.000728603	
860.000000	4.57206   	860.000000	5.78227   	860.000000	6.10974   	860.000000	5.8261    	860.000000	5.78156   	860.000000	0.000712982	
880.000000	4.54385   	880.000000	5.74668   	880.000000	6.07511   	880.000000	5.7918    	880.000000	5.74598   	880.000000	0.000698042	
900.000000	4.51721   	900.000000	5.7131    	900.000000	6.04232   	900.000000	5.75935   	900.000000	5.71242   	900.000000	0.000683737	
920.000000	4.49204   	920.000000	5.68141   	920.000000	6.01131   	920.000000	5.72863   	920.000000	5.68074   	920.000000	0.000670029	
940.000000	4.46825   	940.000000	5.65148   	940.000000	5.98192   	940.000000	5.69952   	940.000000	5.65083   	940.000000	0.00065688	
960.000000	4.44577   	960.000000	5.62322   	960.000000	5.95406   	960.000000	5.67193   	960.000000	5.62257   	960.000000	0.000644256	
980.000000	4.42451   	980.000000	5.59651   	980.000000	5.92761   	980.000000	5.64575   	980.000000	5.59588   	980.000000	0.000632125	
1000.000000	4.40441   	1000.000000	5.57127   	1000.000000	5.9025    	1000.000000	5.62091   	1000.000000	5.57065   	1000.000000	0.00062046	
1020.000000	4.3854    	1020.000000	5.54742   	1020.000000	5.87864   	1020.000000	5.59731   	1020.000000	5.54681   	1020.000000	0.000609233	
1040.000000	4.36743   	1040.000000	5.52487   	1040.000000	5.85598   	1040.000000	5.57488   	1040.000000	5.52427   	1040.000000	0.00059842	
1060.000000	4.35044   	1060.000000	5.50355   	1060.000000	5.83443   	1060.000000	5.55357   	1060.000000	5.50296   	1060.000000	0.000587999	
1080.000000	4.33438   	1080.000000	5.4834    	1080.000000	5.81392   	1080.000000	5.53329   	1080.000000	5.48282   	1080.000000	0.000577947	
1100.000000	4.31921   	1100.000000	5.46436   	1100.000000	5.79438   	1100.000000	5.51399   	1100.000000	5.46379   	1100.000000	0.000568246	
1120.000000	4.30487   	1120.000000	5.44636   	1120.000000	5.77574   	1120.000000	5.49562   	1120.000000	5.4458    	1120.000000	0.000558877	
1140.000000	4.29133   	1140.000000	5.42935   	1140.000000	5.75797   	1140.000000	5.47812   	1140.000000	5.4288    	1140.000000	0.000549823	
1160.000000	4.27855   	1160.000000	5.41329   	1160.000000	5.74101   	1160.000000	5.46146   	1160.000000	5.41275   	1160.000000	0.000541068	
1180.000000	4.26649   	1180.000000	5.39812   	1180.000000	5.72485   	1180.000000	5.44557   	1180.000000	5.39759   	1180.000000	0.000532598	
1200.000000	4.25513   	1200.000000	5.3838    	1200.000000	5.70944   	1200.000000	5.43043   	1200.000000	5.38328   	1200.000000	0.000524399	
1220.000000	4.24442   	1220.000000	5.37029   	1220.000000	5.69475   	1220.000000	5.41599   	1220.000000	5.36978   	1220.000000	0.000516458	
1240.000000	4.23434   	1240.000000	5.35755   	1240.000000	5.68075   	1240.000000	5.40222   	1240.000000	5.35705   	1240.000000	0.000508762	
1260.000000	4.22486   	1260.000000	5.34555   	1260.000000	5.6674    	1260.000000	5.38909   	1260.000000	5.34505   	1260.000000	0.000501301	
1280.000000	4.21595   	1280.000000	5.33425   	1280.000000	5.65466   	1280.000000	5.37655   	1280.000000	5.33376   	1280.000000	0.000494063	
1300.000000	4.2076    	1300.000000	5.32363   	1300.000000	5.64249   	1300.000000	5.36459   	1300.000000	5.32314   	1300.000000	0.000487039	
1320.000000	4.19977   	1320.000000	5.31364   	1320.000000	5.63087   	1320.000000	5.35317   	1320.000000	5.31316   	1320.000000	0.000480219	
1340.000000	4.19245   	1340.000000	5.30426   	1340.000000	5.61976   	1340.000000	5.34227   	1340.000000	5.30378   	1340.000000	0.000473595	
1360.000000	4.18561   	1360.000000	5.29547   	1360.000000	5.60915   	1360.000000	5.33186   	1360.000000	5.295     	1360.000000	0.000467157	
1380.000000	4.17924   	1380.000000	5.28723   	1380.000000	5.59901   	1380.000000	5.32192   	1380.000000	5.28677   	1380.000000	0.000460898	
1400.000000	4.17332   	1400.000000	5.27954   	1400.000000	5.58931   	1400.000000	5.31243   	1400.000000	5.27908   	1400.000000	0.000454811	
1420.000000	4.16782   	1420.000000	5.27236   	1420.000000	5.58005   	1420.000000	5.30337   	1420.000000	5.27191   	1420.000000	0.000448889	
1440.000000	4.16274   	1440.000000	5.26567   	1440.000000	5.57119   	1440.000000	5.29472   	1440.000000	5.26522   	1440.000000	0.000443124	
1460.000000	4.15805   	1460.000000	5.25945   	1460.000000	5.56273   	1460.000000	5.28645   	1460.000000	5.25901   	1460.000000	0.000437511	
1480.000000	4.15375   	1480.000000	5.25369   	1480.000000	5.55463   	1480.000000	5.27856   	1480.000000	5.25326   	1480.000000	0.000432043	
1500.000000	4.14981   	1500.000000	5.24836   	1500.000000	5.5469    	1500.000000	5.27102   	1500.000000	5.24794   	1500.000000	0.000426715	
1520.000000	4.14623   	1520.000000	5.24346   	1520.000000	5.53951   	1520.000000	5.26383   	1520.000000	5.24304   	1520.000000	0.000421522	
1540.000000	4.14299   	1540.000000	5.23896   	1540.000000	5.53245   	1540.000000	5.25696   	1540.000000	5.23854   	1540.000000	0.000416458	
1560.000000	4.14008   	1560.000000	5.23484   	1560.000000	5.52571   	1560.000000	5.2504    	1560.000000	5.23443   	1560.000000	0.000411519	
1580.000000	4.13749   	1580.000000	5.2311    	1580.000000	5.51927   	1580.000000	5.24415   	1580.000000	5.23069   	1580.000000	0.0004067 	
1600.000000	4.13521   	1600.000000	5.22772   	1600.000000	5.51313   	1600.000000	5.23817   	1600.000000	5.22732   	1600.000000	0.000401997	
1620.000000	4.13322   	1620.000000	5.22468   	1620.000000	5.50726   	1620.000000	5.23248   	1620.000000	5.22428   	1620.000000	0.000397405	
1640.000000	4.13153   	1640.000000	5.22198   	1640.000000	5.50166   	1640.000000	5.22704   	1640.000000	5.22159   	1640.000000	0.00039292	
1660.000000	4.13011   	1660.000000	5.2196    	1660.000000	5.49632   	1660.000000	5.22186   	1660.000000	5.21921   	1660.000000	0.000388539	
1680.000000	4.12896   	1680.000000	5.21753   	1680.000000	5.49123   	1680.000000	5.21692   	1680.000000	5.21715   	1680.000000	0.000384259	
1700.000000	4.12807   	1700.000000	5.21576   	1700.000000	5.48637   	1700.000000	5.21222   	1700.000000	5.21538   	1700.000000	0.000380075	
1750.000000	4.12693   	1750.000000	5.21258   	1750.000000	5.47519   	1750.000000	5.20141   	1750.000000	5.21221   	1750.000000	0.000370017	
1800.000000	4.12725   	1800.000000	5.21106   	1800.000000	5.46529   	1800.000000	5.19186   	1800.000000	5.2107    	1800.000000	0.000360495	
1850.000000	4.12891   	1850.000000	5.21106   	1850.000000	5.45654   	1850.000000	5.18347   	1850.000000	5.21071   	1850.000000	0.000351469	
1900.000000	4.13184   	1900.000000	5.21247   	1900.000000	5.44885   	1900.000000	5.17611   	1900.000000	5.21213   	1900.000000	0.000342898	
1950.000000	4.13593   	1950.000000	5.21518   	1950.000000	5.44211   	1950.000000	5.1697    	1950.000000	5.21485   	1950.000000	0.000334751	
2000.000000	4.14111   	2000.000000	5.21909   	2000.000000	5.43626   	2000.000000	5.16416   	2000.000000	5.21876   	2000.000000	0.000326994	
2100.000000	4.15445   	2100.000000	5.23017   	2100.000000	5.42689   	2100.000000	5.15538   	2100.000000	5.22986   	2100.000000	0.000312547	
2200.000000	4.17138   	2200.000000	5.24511   	2200.000000	5.42022   	2200.000000	5.14925   	2200.000000	5.24481   	2200.000000	0.000299363	
2300.000000	4.19149   	2300.000000	5.2634    	2300.000000	5.41583   	2300.000000	5.14536   	2300.000000	5.26312   	2300.000000	0.000287282	
2400.000000	4.21441   	2400.000000	5.28462   	2400.000000	5.41336   	2400.000000	5.14335   	2400.000000	5.28435   	2400.000000	0.00027617	
2500.000000	4.23988   	2500.000000	5.30842   	2500.000000	5.41252   	2500.000000	5.14294   	2500.000000	5.30816   	2500.000000	0.000265913	
2600.000000	4.26762   	2600.000000	5.3345    	2600.000000	5.41308   	2600.000000	5.14389   	2600.000000	5.33424   	2600.000000	0.000256415	
2700.000000	4.29744   	2700.000000	5.36259   	2700.000000	5.41482   	2700.000000	5.14601   	2700.000000	5.36235   	2700.000000	0.000247594	
2800.000000	4.32914   	2800.000000	5.39249   	2800.000000	5.41759   	2800.000000	5.14912   	2800.000000	5.39225   	2800.000000	0.00023938	
2900.000000	4.36257   	2900.000000	5.424     	2900.000000	5.42124   	2900.000000	5.15309   	2900.000000	5.42377   	2900.000000	0.000231711	
3000.000000	4.39759   	3000.000000	5.45696   	3000.000000	5.42564   	3000.000000	5.15779   	3000.000000	5.45673   	3000.000000	0.000224534	
3200.000000	4.47191   	3200.000000	5.52665   	3200.000000	5.43629   	3200.000000	5.16899   	3200.000000	5.52644   	3200.000000	0.000211476	
3400.000000	4.55129   	3400.000000	5.60063   	3400.000000	5.44883   	3400.000000	5.18205   	3400.000000	5.60043   	3400.000000	0.000199899	
3600.000000	4.63509   	3600.000000	5.67816   	3600.000000	5.46276   	3600.000000	5.19649   	3600.000000	5.67797   	3600.000000	0.000189561	
3800.000000	4.72281   	3800.000000	5.75864   	3800.000000	5.47769   	3800.000000	5.21193   	3800.000000	5.75846   	3800.000000	0.000180272	
4000.000000	4.81403   	4000.000000	5.84161   	4000.000000	5.49336   	4000.000000	5.22809   	4000.000000	5.84144   	4000.000000	0.000171879	
4200.000000	4.90842   	4200.000000	5.92671   	4200.000000	5.50955   	4200.000000	5.24476   	4200.000000	5.92654   	4200.000000	0.000164256	
4400.000000	5.0057    	4400.000000	6.0136    	4400.000000	5.52611   	4400.000000	5.26176   	4400.000000	6.01345   	4400.000000	0.000157301	
4600.000000	5.10564   	4600.000000	6.10206   	4600.000000	5.54291   	4600.000000	5.27896   	4600.000000	6.1019    	4600.000000	0.00015093	
4800.000000	5.20805   	4800.000000	6.19185   	4800.000000	5.55985   	4800.000000	5.29628   	4800.000000	6.1917    	4800.000000	0.00014507	
5000.000000	5.31278   	5000.000000	6.2828    	5000.000000	5.57684   	5000.000000	5.31362   	5000.000000	6.28266   	5000.000000	0.000139662	
5250.000000	5.44672   	5250.000000	6.39791   	5250.000000	5.59807   	5250.000000	5.33524   	5250.000000	6.39777   	5250.000000	0.000133461	
5500.000000	5.58382   	5500.000000	6.51435   	5500.000000	5.6192    	5500.000000	5.35673   	5500.000000	6.51423   	5500.000000	0.000127804	
6000.000000	5.86679   	6000.000000	6.7505    	6000.000000	5.66078   	6000.000000	5.39901   	6000.000000	6.75038   	6000.000000	0.000117855	
6500.000000	6.1605    	6500.000000	6.99002   	6500.000000	5.70085   	6500.000000	5.44014   	6500.000000	6.98991   	6500.000000	0.000109385	
7000.000000	6.46411   	7000.000000	7.23202   	7000.000000	5.73991   	7000.000000	5.47994   	7000.000000	7.23192   	7000.000000	0.000102084	
7500.000000	6.77699   	7500.000000	7.4759    	7500.000000	5.7775    	7500.000000	5.51836   	7500.000000	7.4758    	7500.000000	9.5723e-05	
8000.000000	7.09865   	8000.000000	7.72117   	8000.000000	5.81359   	8000.000000	5.5554    	8000.000000	7.72108   	8000.000000	9.01306e-05	
8500.000000	7.42874   	8500.000000	7.9675    	8500.000000	5.84834   	8500.000000	5.59107   	8500.000000	7.96741   	8500.000000	8.51738e-05	
9000.000000	7.76696   	9000.000000	8.21461   	9000.000000	5.88184   	9000.000000	5.62544   	9000.000000	8.21453   	9000.000000	8.07491e-05	
9500.000000	8.11311   	9500.000000	8.4623    	9500.000000	5.91408   	9500.000000	5.65855   	9500.000000	8.46222   	9500.000000	7.67744e-05	
10000.000000	8.46699   	10000.000000	8.71042   	10000.000000	5.9451    	10000.000000	5.69047   	10000.000000	8.71034   	10000.000000	7.31838e-05	
11000.000000	9.19742   	11000.000000	9.20743   	11000.000000	6.00369   	11000.000000	5.75099   	11000.000000	9.20737   	11000.000000	6.69499e-05	
12000.000000	9.9574    	12000.000000	9.70493   	12000.000000	6.05811   	12000.000000	5.80749   	12000.000000	9.70487   	12000.000000	6.17214e-05	
13000.000000	10.7464   	13000.000000	10.2024   	13000.000000	6.10878   	13000.000000	5.86038   	13000.000000	10.2024   	13000.000000	5.72715e-05	
14000.000000	11.5639   	14000.000000	10.6997   	14000.000000	6.15613   	14000.000000	5.91008   	14000.000000	10.6996   	14000.000000	5.34367e-05	
15000.000000	12.4098   	15000.000000	11.1964   	15000.000000	6.20053   	15000.000000	5.9569    	15000.000000	11.1963   	15000.000000	5.00967e-05	
16000.000000	13.2839   	16000.000000	11.6924   	16000.000000	6.24222   	16000.000000	6.00115   	16000.000000	11.6924   	16000.000000	4.71608e-05	
17000.000000	14.1861   	17000.000000	12.1878   	17000.000000	6.2815    	17000.000000	6.04308   	17000.000000	12.1877   	17000.000000	4.45591e-05	
18000.000000	15.1163   	18000.000000	12.6824   	18000.000000	6.31866   	18000.000000	6.0829    	18000.000000	12.6823   	18000.000000	4.22372e-05	
19000.000000	16.0745   	19000.000000	13.1761   	19000.000000	6.35395   	19000.000000	6.12082   	19000.000000	13.1761   	19000.000000	4.01518e-05	
20000.000000	17.0608   	20000.000000	13.6691   	20000.000000	6.38757   	20000.000000	6.15699   	20000.000000	13.669    	20000.000000	3.82683e-05	
21000.000000	18.0751   	21000.000000	14.1611   	21000.000000	6.41952   	21000.000000	6.19158   	21000.000000	14.1611   	21000.000000	3.65584e-05	
22000.000000	19.1176   	22000.000000	14.6524   	22000.000000	6.44958   	22000.000000	6.2247    	22000.000000	14.6523   	22000.000000	3.49989e-05	
23000.000000	20.1883   	23000.000000	15.1428   	23000.000000	6.47823   	23000.000000	6.25647   	23000.000000	15.1428   	23000.000000	3.35707e-05	
24000.000000	21.2873   	24000.000000	15.6324   	24000.000000	6.50569   	24000.000000	6.287     	24000.000000	15.6323   	24000.000000	3.22577e-05	
25000.000000	22.4147   	25000.000000	16.1212   	25000.000000	6.53197   	25000.000000	6.31638   	25000.000000	16.1211   	25000.000000	3.10464e-05	
26000.000000	23.5706   	26000.000000	16.6091   	26000.000000	6.5571    	26000.000000	6.34469   	26000.000000	16.6091   	26000.000000	2.99253e-05	
27000.000000	24.7551   	27000.000000	17.0963   	27000.000000	6.58114   	27000.000000	6.37201   	27000.000000	17.0963   	27000.000000	2.88845e-05	
28000.000000	25.9683   	28000.000000	17.5827   	28000.000000	6.60417   	28000.000000	6.39839   	28000.000000	17.5827   	28000.000000	2.79158e-05	
29000.000000	27.2104   	29000.000000	18.0684   	29000.000000	6.62628   	29000.000000	6.42391   	29000.000000	18.0684   	29000.000000	2.70117e-05	
30000.000000	28.4815   	30000.000000	18.5533   	30000.000000	6.64754   	30000.000000	6.44861   	30000.000000	18.5533   	30000.000000	2.6166e-05	
32000.000000	31.1111   	32000.000000	19.5211   	32000.000000	6.68769   	32000.000000	6.49576   	32000.000000	19.5211   	32000.000000	2.46281e-05	
34000.000000	33.8582   	34000.000000	20.4861   	34000.000000	6.72498   	34000.000000	6.5402    	34000.000000	20.486    	34000.000000	2.32657e-05	
36000.000000	36.724    	36000.000000	21.4484   	36000.000000	6.75961   	36000.000000	6.58222   	36000.000000	21.4484   	36000.000000	2.20499e-05	
38000.000000	39.7098   	38000.000000	22.4083   	38000.000000	6.79189   	38000.000000	6.62206   	38000.000000	22.4083   	38000.000000	2.09582e-05	
40000.000000	42.8166   	40000.000000	23.3658   	40000.000000	6.8221    	40000.000000	6.65994   	40000.000000	23.3657   	40000.000000	1.99724e-05	
42000.000000	46.0458   	42000.000000	24.3209   	42000.000000	6.85047   	42000.000000	6.69604   	42000.000000	24.3209   	42000.000000	1.90775e-05	
44000.000000	49.3986   	44000.000000	25.2739   	44000.000000	6.87727   	44000.000000	6.73052   	44000.000000	25.2739   	44000.000000	1.82615e-05	
46000.000000	52.8764   	46000.000000	26.2248   	46000.000000	6.90273   	46000.000000	6.76352   	46000.000000	26.2248   	46000.000000	1.75142e-05	
48000.000000	56.4803   	48000.000000	27.1737   	48000.000000	6.9269    	48000.000000	6.79516   	48000.000000	27.1737   	48000.000000	1.68274e-05	
50000.000000	60.2118   	50000.000000	28.1206   	50000.000000	6.94968   	50000.000000	6.82555   	50000.000000	28.1206   	50000.000000	1.61938e-05	
