Energy (MeV/u)1	0 - [He-base] F.Hubert et al, AD&ND Tables 46(1990)1	Energy (MeV/u)2	1 - [H -base] J.F.Ziegler et al, Pergamon Press, NY (low energy)	Energy (MeV/u)3	2 - ATIMA 1.2  LS-theory (recommended for high energy)	Energy (MeV/u)4	3 - ATIMA 1.2  without LS-correction	Energy (MeV/u)5	4 - electrical component of [1] - J.F.Ziegler et al	Energy (MeV/u)6	5 - nuclear component of [1] - J.F.Ziegler et al	
0.001000	0.210784  	0.001000	0.103511  	0.001000	0.128294  	0.001000	0.128294  	0.001000	0.0772975 	0.001000	0.026213  	
0.002000	0.248273  	0.002000	0.12427   	0.002000	0.158125  	0.002000	0.158125  	0.002000	0.105592  	0.002000	0.0186781 	
0.005000	0.323858  	0.005000	0.170266  	0.005000	0.221398  	0.005000	0.221398  	0.005000	0.159478  	0.005000	0.0107872 	
0.008000	0.376425  	0.008000	0.204863  	0.008000	0.268038  	0.008000	0.268038  	0.008000	0.197041  	0.008000	0.00782214	
0.010000	0.405109  	0.010000	0.224544  	0.010000	0.294393  	0.010000	0.294393  	0.010000	0.217854  	0.010000	0.00668995	
0.015000	0.488342  	0.015000	0.276853  	0.015000	0.350258  	0.015000	0.350258  	0.015000	0.271886  	0.015000	0.00496697	
0.020000	0.55659   	0.020000	0.321844  	0.020000	0.397019  	0.020000	0.397019  	0.020000	0.317838  	0.020000	0.0040061 	
0.025000	0.613053  	0.025000	0.360816  	0.025000	0.437906  	0.025000	0.437906  	0.025000	0.357437  	0.025000	0.00337917	
0.030000	0.65945   	0.030000	0.394537  	0.030000	0.462164  	0.030000	0.462164  	0.030000	0.391602  	0.030000	0.00293464	
0.035000	0.696916  	0.035000	0.423547  	0.035000	0.482283  	0.035000	0.482283  	0.035000	0.420946  	0.035000	0.00260141	
0.040000	0.726348  	0.040000	0.448294  	0.040000	0.49895   	0.040000	0.49895   	0.040000	0.445953  	0.040000	0.00234142	
0.045000	0.748553  	0.045000	0.469183  	0.045000	0.512678  	0.045000	0.512678  	0.045000	0.46705   	0.045000	0.00213237	
0.050000	0.764309  	0.050000	0.486596  	0.050000	0.523875  	0.050000	0.523875  	0.050000	0.484636  	0.050000	0.00196028	
0.055000	0.774383  	0.055000	0.500905  	0.055000	0.532878  	0.055000	0.532878  	0.055000	0.49909   	0.055000	0.00181591	
0.060000	0.779528  	0.060000	0.512462  	0.060000	0.53997   	0.060000	0.53997   	0.060000	0.510769  	0.060000	0.0016929 	
0.070000	0.777911  	0.070000	0.528622  	0.070000	0.549376  	0.070000	0.549376  	0.070000	0.527128  	0.070000	0.00149406	
0.080000	0.764757  	0.080000	0.537433  	0.080000	0.553708  	0.080000	0.553708  	0.080000	0.536093  	0.080000	0.00133989	
0.090000	0.744427  	0.090000	0.540816  	0.090000	0.554217  	0.090000	0.554217  	0.090000	0.539599  	0.090000	0.00121657	
0.100000	0.720228  	0.100000	0.540271  	0.100000	0.551875  	0.100000	0.551875  	0.100000	0.539155  	0.100000	0.00111549	
0.120000	0.668724  	0.120000	0.531638  	0.120000	0.541468  	0.120000	0.541468  	0.120000	0.530678  	0.120000	0.00095924	
0.140000	0.620423  	0.140000	0.517475  	0.140000	0.526639  	0.140000	0.526639  	0.140000	0.516631  	0.140000	0.000843706	
0.160000	0.578492  	0.160000	0.500943  	0.160000	0.509791  	0.160000	0.509791  	0.160000	0.500189  	0.160000	0.000754539	
0.180000	0.543066  	0.180000	0.483704  	0.180000	0.492288  	0.180000	0.492288  	0.180000	0.483021  	0.180000	0.000683479	
0.200000	0.513258  	0.200000	0.466628  	0.200000	0.474892  	0.200000	0.474892  	0.200000	0.466003  	0.200000	0.000625418	
0.250000	0.456649  	0.250000	0.427032  	0.250000	0.434097  	0.250000	0.434097  	0.250000	0.426515  	0.250000	0.000517763	
0.300000	0.416286  	0.300000	0.393034  	0.300000	0.398475  	0.300000	0.398475  	0.300000	0.39259   	0.300000	0.000443336	
0.350000	0.385293  	0.350000	0.364284  	0.350000	0.367978  	0.350000	0.367978  	0.350000	0.363895  	0.350000	0.000388603	
0.400000	0.36016   	0.400000	0.339895  	0.400000	0.341951  	0.400000	0.341951  	0.400000	0.339548  	0.400000	0.000346546	
0.450000	0.339008  	0.450000	0.319014  	0.450000	0.319663  	0.450000	0.319663  	0.450000	0.318701  	0.450000	0.000313152	
0.500000	0.320752  	0.500000	0.300943  	0.500000	0.300456  	0.500000	0.300456  	0.500000	0.300657  	0.500000	0.000285951	
0.600000	0.290446  	0.600000	0.271179  	0.600000	0.269172  	0.600000	0.269172  	0.600000	0.270935  	0.600000	0.000244226	
0.700000	0.26602   	0.700000	0.247587  	0.700000	0.24482   	0.700000	0.24482   	0.700000	0.247373  	0.700000	0.000213637	
0.800000	0.24576   	0.800000	0.228334  	0.800000	0.225293  	0.800000	0.225293  	0.800000	0.228144  	0.800000	0.000190191	
0.900000	0.228618  	0.900000	0.212264  	0.900000	0.20923   	0.900000	0.20923   	0.900000	0.212093  	0.900000	0.000171614	
1.000000	0.213891  	1.000000	0.198607  	1.000000	0.195731  	1.000000	0.195731  	1.000000	0.198451  	1.000000	0.00015651	
1.250000	0.184702  	1.250000	0.171881  	1.250000	0.169637  	1.250000	0.169637  	1.250000	0.171752  	1.250000	0.000128694	
1.500000	0.162957  	1.500000	0.1522    	1.500000	0.15059   	1.500000	0.15059   	1.500000	0.15209   	1.500000	0.000109618	
1.750000	0.146076  	1.750000	0.137014  	1.750000	0.135921  	1.750000	0.135921  	1.750000	0.136918  	1.750000	9.56787e-05	
2.000000	0.132563  	2.000000	0.124892  	2.000000	0.124196  	2.000000	0.124196  	2.000000	0.124807  	2.000000	8.50225e-05	
2.250000	0.121481  	2.250000	0.114963  	2.250000	0.114564  	2.250000	0.114564  	2.250000	0.114886  	2.250000	7.65978e-05	
2.500000	0.11173   	2.500000	0.106662  	2.500000	0.106485  	2.500000	0.106485  	2.500000	0.106592  	2.500000	6.97609e-05	
3.000000	0.0975606 	3.000000	0.0935246 	3.000000	0.0936342 	3.000000	0.0936342 	3.000000	0.0934653 	3.000000	5.93208e-05	
3.500000	0.0868065 	3.500000	0.0835557 	3.500000	0.0838213 	3.500000	0.0838213 	3.500000	0.083504  	3.500000	5.17064e-05	
4.000000	0.0783425 	4.000000	0.0757027 	4.000000	0.0760495 	4.000000	0.0760495 	4.000000	0.0756568 	4.000000	4.5895e-05	
4.500000	0.0714933 	4.500000	0.0693383 	4.500000	0.0697228 	4.500000	0.0697228 	4.500000	0.069297  	4.500000	4.13066e-05	
5.000000	0.0658281 	5.000000	0.064064  	5.000000	0.0644604 	5.000000	0.0644604 	5.000000	0.0640264 	5.000000	3.75874e-05	
5.500000	0.0610583 	5.500000	0.0596138 	5.500000	0.0600066 	5.500000	0.0600066 	5.500000	0.0595793 	5.500000	3.45088e-05	
6.000000	0.056983  	6.000000	0.0558028 	6.000000	0.0561828 	6.000000	0.0561828 	6.000000	0.0557709 	6.000000	3.19162e-05	
6.500000	0.0534578 	6.500000	0.0524984 	6.500000	0.0528603 	6.500000	0.0528603 	6.500000	0.0524687 	6.500000	2.97016e-05	
7.000000	0.0503763 	7.000000	0.0496029 	7.000000	0.0499437 	7.000000	0.0499437 	7.000000	0.0495751 	7.000000	2.77867e-05	
7.500000	0.0476579 	7.500000	0.0470423 	7.500000	0.0473606 	7.500000	0.0473606 	7.500000	0.0470162 	7.500000	2.61139e-05	
8.000000	0.0452408 	8.000000	0.04476   	8.000000	0.0450554 	8.000000	0.0450554 	8.000000	0.0447354 	8.000000	2.46393e-05	
8.500000	0.0430766 	8.500000	0.0427115 	8.500000	0.042984  	8.500000	0.042984  	8.500000	0.0426882 	8.500000	2.33292e-05	
9.000000	0.0411268 	9.000000	0.0408615 	9.000000	0.0411116 	9.000000	0.0411116 	9.000000	0.0408394 	9.000000	2.21572e-05	
9.500000	0.0393604 	9.500000	0.0391816 	9.500000	0.0394101 	9.500000	0.0394101 	9.500000	0.0391605 	9.500000	2.11021e-05	
10.000000	0.0377522 	10.000000	0.0379121 	10.000000	0.0378563 	10.000000	0.0378563 	10.000000	0.037892  	10.000000	2.01472e-05	
11.000000	0.0349308 	11.000000	0.0351973 	11.000000	0.0350775 	11.000000	0.0350778 	11.000000	0.0351788 	11.000000	1.84848e-05	
12.000000	0.0325348 	12.000000	0.0328705 	12.000000	0.0327058 	12.000000	0.0327064 	12.000000	0.0328534 	12.000000	1.7086e-05	
13.000000	0.030473  	13.000000	0.0308535 	13.000000	0.0306568 	13.000000	0.0306572 	13.000000	0.0308376 	13.000000	1.58919e-05	
14.000000	0.0286789 	14.000000	0.0290877 	14.000000	0.0288675 	14.000000	0.0288675 	14.000000	0.0290728 	14.000000	1.48601e-05	
15.000000	0.0271027 	15.000000	0.0275283 	15.000000	0.0272902 	15.000000	0.0272902 	15.000000	0.0275143 	15.000000	1.39593e-05	
16.000000	0.0257062 	16.000000	0.0261408 	16.000000	0.0258894 	16.000000	0.0258891 	16.000000	0.0261276 	16.000000	1.31656e-05	
17.000000	0.0244599 	17.000000	0.0248979 	17.000000	0.0246371 	17.000000	0.0246358 	17.000000	0.0248854 	17.000000	1.24608e-05	
18.000000	0.0233404 	18.000000	0.0237778 	18.000000	0.0235096 	18.000000	0.0235078 	18.000000	0.023766  	18.000000	1.18305e-05	
19.000000	0.0223288 	19.000000	0.0227629 	19.000000	0.0224889 	19.000000	0.0224872 	19.000000	0.0227517 	19.000000	1.12634e-05	
20.000000	0.0214101 	20.000000	0.021839  	20.000000	0.0215609 	20.000000	0.021559  	20.000000	0.0218282 	20.000000	1.07503e-05	
21.000000	0.0205717 	21.000000	0.020994  	21.000000	0.0207134 	21.000000	0.0207114 	21.000000	0.0209838 	21.000000	1.02838e-05	
22.000000	0.0198034 	22.000000	0.0202183 	22.000000	0.0199361 	22.000000	0.0199342 	22.000000	0.0202084 	22.000000	9.85762e-06	
23.000000	0.0190966 	23.000000	0.0195034 	23.000000	0.0192211 	23.000000	0.0192191 	23.000000	0.019494  	23.000000	9.46677e-06	
24.000000	0.018444  	24.000000	0.0188425 	24.000000	0.0185616 	24.000000	0.018559  	24.000000	0.0188334 	24.000000	9.10695e-06	
25.000000	0.0178395 	25.000000	0.0182294 	25.000000	0.0179516 	25.000000	0.0179477 	25.000000	0.0182207 	25.000000	8.77455e-06	
27.000000	0.0167548 	27.000000	0.0171275 	27.000000	0.0168569 	27.000000	0.016852  	27.000000	0.0171193 	27.000000	8.18025e-06	
29.000000	0.0158086 	29.000000	0.0161645 	29.000000	0.0159035 	29.000000	0.0158987 	29.000000	0.0161568 	29.000000	7.66421e-06	
31.000000	0.0149756 	31.000000	0.0153154 	31.000000	0.0150739 	31.000000	0.015069  	31.000000	0.0153082 	31.000000	7.21175e-06	
33.000000	0.0142362 	33.000000	0.0145609 	33.000000	0.014343  	33.000000	0.0143385 	33.000000	0.0145541 	33.000000	6.81167e-06	
35.000000	0.0135753 	35.000000	0.0138858 	35.000000	0.0136881 	35.000000	0.0136841 	35.000000	0.0138793 	35.000000	6.45526e-06	
38.000000	0.0127051 	38.000000	0.0129962 	38.000000	0.0128261 	38.000000	0.0128206 	38.000000	0.0129902 	38.000000	5.98789e-06	
41.000000	0.0119535 	41.000000	0.0122273 	41.000000	0.0120787 	41.000000	0.012073  	41.000000	0.0122217 	41.000000	5.58594e-06	
44.000000	0.0112973 	44.000000	0.0115557 	44.000000	0.0114242 	44.000000	0.011419  	44.000000	0.0115505 	44.000000	5.23642e-06	
47.000000	0.0107192 	47.000000	0.0109639 	47.000000	0.0108467 	47.000000	0.0108418 	47.000000	0.010959  	47.000000	4.92958e-06	
50.000000	0.0102057 	50.000000	0.0104383 	50.000000	0.010333  	50.000000	0.0103283 	50.000000	0.0104336 	50.000000	4.65797e-06	
55.000000	0.00946597	55.000000	0.00968132	55.000000	0.0095919 	55.000000	0.00958764	55.000000	0.00967705	55.000000	4.26836e-06	
60.000000	0.00884144	60.000000	0.00904262	60.000000	0.00896554	60.000000	0.00896132	60.000000	0.00903867	60.000000	3.94098e-06	
65.000000	0.00830663	65.000000	0.00849617	65.000000	0.00842941	65.000000	0.00842444	65.000000	0.00849251	65.000000	3.66187e-06	
70.000000	0.00784316	70.000000	0.00802312	70.000000	0.00796338	70.000000	0.00795885	70.000000	0.0080197 	70.000000	3.42098e-06	
75.000000	0.00743736	75.000000	0.00760947	75.000000	0.00755534	75.000000	0.00755106	75.000000	0.00760626	75.000000	3.21088e-06	
80.000000	0.00707889	80.000000	0.00724456	80.000000	0.00719485	80.000000	0.00719081	80.000000	0.00724154	80.000000	3.02595e-06	
85.000000	0.00675975	85.000000	0.00692019	85.000000	0.00687397	85.000000	0.00687015	85.000000	0.00691732	85.000000	2.86188e-06	
90.000000	0.00647368	90.000000	0.00662987	90.000000	0.00658648	90.000000	0.00658281	90.000000	0.00662716	90.000000	2.71529e-06	
95.000000	0.00621567	95.000000	0.00636847	95.000000	0.00632816	95.000000	0.00632381	95.000000	0.00636588	95.000000	2.58349e-06	
100.000000	0.0059817 	100.000000	0.00613182	100.000000	0.00609326	100.000000	0.0060891 	100.000000	0.00612936	100.000000	2.46433e-06	
105.000000	0.00576847	105.000000	0.00591654	105.000000	0.00587937	105.000000	0.00587539	105.000000	0.00591418	105.000000	2.35606e-06	
110.000000	0.0055733 	110.000000	0.00571983	110.000000	0.0056838 	110.000000	0.00567996	110.000000	0.00571758	110.000000	2.25722e-06	
115.000000	0.00539391	115.000000	0.00553937	115.000000	0.00550424	115.000000	0.00550055	115.000000	0.00553721	115.000000	2.16663e-06	
120.000000	0.00522843	120.000000	0.00537321	120.000000	0.00533879	120.000000	0.00533524	120.000000	0.00537113	120.000000	2.08328e-06	
125.000000	0.00507526	125.000000	0.0052197 	125.000000	0.00518587	125.000000	0.00518242	125.000000	0.00521769	125.000000	2.00632e-06	
130.000000	0.00493304	130.000000	0.00507744	130.000000	0.00504406	130.000000	0.00504072	130.000000	0.0050755 	130.000000	1.93505e-06	
135.000000	0.00480061	135.000000	0.00494522	135.000000	0.00491214	135.000000	0.00490897	135.000000	0.00494335	135.000000	1.86884e-06	
140.000000	0.00467696	140.000000	0.00482201	140.000000	0.00478954	140.000000	0.00478615	140.000000	0.00482021	140.000000	1.80717e-06	
145.000000	0.00456123	145.000000	0.00470692	145.000000	0.00467507	145.000000	0.00467137	145.000000	0.00470517	145.000000	1.74958e-06	
150.000000	0.00445266	150.000000	0.00459916	150.000000	0.00456746	150.000000	0.00456388	150.000000	0.00459747	150.000000	1.69567e-06	
155.000000	0.00429979	155.000000	0.00449806	155.000000	0.00446644	155.000000	0.00446299	155.000000	0.00449641	155.000000	1.6451e-06	
160.000000	0.00421019	160.000000	0.004403  	160.000000	0.0043715 	160.000000	0.00436811	160.000000	0.0044014 	160.000000	1.59757e-06	
165.000000	0.00412569	165.000000	0.00431347	165.000000	0.00428204	165.000000	0.00427873	165.000000	0.00431191	165.000000	1.5528e-06	
170.000000	0.00404587	170.000000	0.00422898	170.000000	0.00419761	170.000000	0.00419438	170.000000	0.00422747	170.000000	1.51056e-06	
175.000000	0.00397035	175.000000	0.00414913	175.000000	0.0041178 	175.000000	0.00411465	175.000000	0.00414766	175.000000	1.47063e-06	
180.000000	0.00389877	180.000000	0.00407355	180.000000	0.00404225	180.000000	0.00403916	180.000000	0.00407212	180.000000	1.43284e-06	
185.000000	0.00383084	185.000000	0.00400189	185.000000	0.00397063	185.000000	0.0039676 	185.000000	0.00400049	185.000000	1.397e-06 	
190.000000	0.00376628	190.000000	0.00393386	190.000000	0.00390263	190.000000	0.00389965	190.000000	0.0039325 	190.000000	1.36298e-06	
195.000000	0.00370485	195.000000	0.0038692 	195.000000	0.00383795	195.000000	0.00383507	195.000000	0.00386787	195.000000	1.33063e-06	
200.000000	0.00364631	200.000000	0.00380765	200.000000	0.00377641	200.000000	0.0037736 	200.000000	0.00380635	200.000000	1.29984e-06	
210.000000	0.00353714	210.000000	0.00369305	210.000000	0.00366229	210.000000	0.00365915	210.000000	0.00369181	210.000000	1.24248e-06	
220.000000	0.00343736	220.000000	0.00358853	220.000000	0.00355791	220.000000	0.00355479	220.000000	0.00358734	220.000000	1.19013e-06	
230.000000	0.00334581	230.000000	0.00349282	230.000000	0.00346225	230.000000	0.00345925	230.000000	0.00349168	230.000000	1.14216e-06	
240.000000	0.00326149	240.000000	0.00340485	240.000000	0.00337439	240.000000	0.00337147	240.000000	0.00340376	240.000000	1.09803e-06	
250.000000	0.00318358	250.000000	0.00332374	250.000000	0.00329339	250.000000	0.00329055	250.000000	0.00332268	250.000000	1.0573e-06	
260.000000	0.00311138	260.000000	0.0032487 	260.000000	0.0032185 	260.000000	0.00321574	260.000000	0.00324768	260.000000	1.01958e-06	
270.000000	0.00304427	270.000000	0.0031791 	270.000000	0.00314907	270.000000	0.00314638	270.000000	0.00317812	270.000000	9.84549e-07	
280.000000	0.00298174	280.000000	0.00311436	280.000000	0.00308453	280.000000	0.0030819 	280.000000	0.00311341	280.000000	9.51923e-07	
290.000000	0.00292333	290.000000	0.003054  	290.000000	0.00302435	290.000000	0.00302182	290.000000	0.00305308	290.000000	9.2146e-07	
300.000000	0.00286866	300.000000	0.0029976 	300.000000	0.00296837	300.000000	0.00296572	300.000000	0.00299671	300.000000	8.92952e-07	
310.000000	0.00281737	310.000000	0.00294478	310.000000	0.00291604	310.000000	0.00291321	310.000000	0.00294391	310.000000	8.66212e-07	
320.000000	0.00276916	320.000000	0.00289522	320.000000	0.00286675	320.000000	0.00286398	320.000000	0.00289438	320.000000	8.4108e-07	
330.000000	0.00272377	330.000000	0.00284863	330.000000	0.00282043	330.000000	0.00281774	330.000000	0.00284782	330.000000	8.17414e-07	
340.000000	0.00268096	340.000000	0.00280476	340.000000	0.00277688	340.000000	0.00277423	340.000000	0.00280397	340.000000	7.95087e-07	
350.000000	0.00264051	350.000000	0.00276339	350.000000	0.00273582	350.000000	0.00273322	350.000000	0.00276261	350.000000	7.73987e-07	
360.000000	0.00260225	360.000000	0.0027243 	360.000000	0.00269707	360.000000	0.00269452	360.000000	0.00272355	360.000000	7.54016e-07	
370.000000	0.002566  	370.000000	0.00268732	370.000000	0.00266045	370.000000	0.00265793	370.000000	0.00268659	370.000000	7.35083e-07	
380.000000	0.00253161	380.000000	0.0026523 	380.000000	0.00262578	380.000000	0.00262331	380.000000	0.00265158	380.000000	7.17109e-07	
390.000000	0.00249895	390.000000	0.00261908	390.000000	0.00259293	390.000000	0.00259049	390.000000	0.00261838	390.000000	7.00022e-07	
400.000000	0.00246788	400.000000	0.00258753	400.000000	0.00256175	400.000000	0.00255935	400.000000	0.00258684	400.000000	6.83757e-07	
410.000000	0.00243831	410.000000	0.00255753	410.000000	0.00253215	410.000000	0.00252978	410.000000	0.00255686	410.000000	6.68256e-07	
420.000000	0.00241012	420.000000	0.00252898	420.000000	0.002504  	420.000000	0.00250165	420.000000	0.00252833	420.000000	6.53466e-07	
430.000000	0.00238323	430.000000	0.00250178	430.000000	0.00247719	430.000000	0.00247488	430.000000	0.00250114	430.000000	6.39337e-07	
440.000000	0.00235756	440.000000	0.00247584	440.000000	0.00245162	440.000000	0.00244937	440.000000	0.00247522	440.000000	6.25827e-07	
450.000000	0.00233302	450.000000	0.00245108	450.000000	0.00242727	450.000000	0.00242504	450.000000	0.00245047	450.000000	6.12895e-07	
460.000000	0.00230954	460.000000	0.00242742	460.000000	0.0024041 	460.000000	0.00240181	460.000000	0.00242682	460.000000	6.00504e-07	
470.000000	0.00228707	470.000000	0.00240479	470.000000	0.00238202	470.000000	0.00237962	470.000000	0.0024042 	470.000000	5.88621e-07	
480.000000	0.00226553	480.000000	0.00238314	480.000000	0.00236086	480.000000	0.0023584 	480.000000	0.00238256	480.000000	5.77215e-07	
490.000000	0.00224489	490.000000	0.0023624 	490.000000	0.00234054	490.000000	0.0023381 	490.000000	0.00236183	490.000000	5.66256e-07	
500.000000	0.00222507	500.000000	0.00234252	500.000000	0.00232105	500.000000	0.00231865	500.000000	0.00234197	500.000000	5.5572e-07	
520.000000	0.00218778	520.000000	0.00230515	520.000000	0.00228449	520.000000	0.00228215	520.000000	0.00230462	520.000000	5.35819e-07	
540.000000	0.00215331	540.000000	0.00227069	540.000000	0.00225084	540.000000	0.00224853	540.000000	0.00227017	540.000000	5.17339e-07	
560.000000	0.00212137	560.000000	0.00223882	560.000000	0.00221977	560.000000	0.0022175 	560.000000	0.00223831	560.000000	5.00131e-07	
580.000000	0.00209173	580.000000	0.00220928	580.000000	0.00219102	580.000000	0.00218879	580.000000	0.0022088 	580.000000	4.84066e-07	
600.000000	0.00206416	600.000000	0.00218185	600.000000	0.00216436	600.000000	0.00216218	600.000000	0.00218138	600.000000	4.69034e-07	
620.000000	0.00203847	620.000000	0.00215634	620.000000	0.0021396 	620.000000	0.00213745	620.000000	0.00215588	620.000000	4.54936e-07	
640.000000	0.00201449	640.000000	0.00213256	640.000000	0.00211657	640.000000	0.00211443	640.000000	0.00213211	640.000000	4.41688e-07	
660.000000	0.00199208	660.000000	0.00211036	660.000000	0.00209507	660.000000	0.00209298	660.000000	0.00210993	660.000000	4.29214e-07	
680.000000	0.00197111	680.000000	0.0020896 	680.000000	0.00207499	680.000000	0.00207294	680.000000	0.00208919	680.000000	4.17447e-07	
700.000000	0.00195146	700.000000	0.00207018	700.000000	0.00205627	700.000000	0.0020542 	700.000000	0.00206977	700.000000	4.06329e-07	
720.000000	0.00193302	720.000000	0.00205197	720.000000	0.00203882	720.000000	0.00203666	720.000000	0.00205157	720.000000	3.95806e-07	
740.000000	0.0019157 	740.000000	0.00203488	740.000000	0.00202244	740.000000	0.00202021	740.000000	0.00203449	740.000000	3.85832e-07	
760.000000	0.00189942	760.000000	0.00201882	760.000000	0.00200699	760.000000	0.00200477	760.000000	0.00201844	760.000000	3.76363e-07	
780.000000	0.0018841 	780.000000	0.00200372	780.000000	0.00199243	780.000000	0.00199025	780.000000	0.00200336	780.000000	3.67363e-07	
800.000000	0.00186968	800.000000	0.00198951	800.000000	0.00197875	800.000000	0.00197659	800.000000	0.00198916	800.000000	3.58797e-07	
820.000000	0.00185609	820.000000	0.00197613	820.000000	0.0019659 	820.000000	0.00196376	820.000000	0.00197578	820.000000	3.50634e-07	
840.000000	0.00184327	840.000000	0.00196351	840.000000	0.00195392	840.000000	0.0019518 	840.000000	0.00196317	840.000000	3.42846e-07	
860.000000	0.00183118	860.000000	0.0019516 	860.000000	0.00194262	860.000000	0.00194052	860.000000	0.00195127	860.000000	3.35407e-07	
880.000000	0.00181977	880.000000	0.00194036	880.000000	0.00193195	880.000000	0.00192986	880.000000	0.00194004	880.000000	3.28294e-07	
900.000000	0.001809  	900.000000	0.00192975	900.000000	0.00192186	900.000000	0.00191979	900.000000	0.00192943	900.000000	3.21486e-07	
920.000000	0.00179882	920.000000	0.00191972	920.000000	0.00191233	920.000000	0.00191027	920.000000	0.0019194 	920.000000	3.14964e-07	
940.000000	0.0017892 	940.000000	0.00191023	940.000000	0.0019033 	940.000000	0.00190127	940.000000	0.00190992	940.000000	3.08709e-07	
960.000000	0.00178011	960.000000	0.00190126	960.000000	0.00189476	960.000000	0.00189274	960.000000	0.00190096	960.000000	3.02706e-07	
980.000000	0.00177152	980.000000	0.00189277	980.000000	0.00188667	980.000000	0.00188466	980.000000	0.00189248	980.000000	2.96939e-07	
1000.000000	0.00176339	1000.000000	0.00188474	1000.000000	0.001879  	1000.000000	0.001877  	1000.000000	0.00188445	1000.000000	2.91395e-07	
1020.000000	0.00175571	1020.000000	0.00187714	1020.000000	0.00187173	1020.000000	0.00186974	1020.000000	0.00187685	1020.000000	2.8606e-07	
1040.000000	0.00174845	1040.000000	0.00186993	1040.000000	0.00186483	1040.000000	0.00186285	1040.000000	0.00186965	1040.000000	2.80924e-07	
1060.000000	0.00174159	1060.000000	0.00186312	1060.000000	0.00185828	1060.000000	0.00185631	1060.000000	0.00186284	1060.000000	2.75974e-07	
1080.000000	0.0017351 	1080.000000	0.00185666	1080.000000	0.00185206	1080.000000	0.00185011	1080.000000	0.00185639	1080.000000	2.71202e-07	
1100.000000	0.00172897	1100.000000	0.00185054	1100.000000	0.00184615	1100.000000	0.00184421	1100.000000	0.00185027	1100.000000	2.66596e-07	
1120.000000	0.00172318	1120.000000	0.00184475	1120.000000	0.00184054	1120.000000	0.0018386 	1120.000000	0.00184449	1120.000000	2.6215e-07	
1140.000000	0.00171771	1140.000000	0.00183926	1140.000000	0.0018352 	1140.000000	0.00183328	1140.000000	0.00183901	1140.000000	2.57854e-07	
1160.000000	0.00171255	1160.000000	0.00183407	1160.000000	0.00183013	1160.000000	0.00182821	1160.000000	0.00183382	1160.000000	2.53701e-07	
1180.000000	0.00170768	1180.000000	0.00182915	1180.000000	0.0018253 	1180.000000	0.00182339	1180.000000	0.0018289 	1180.000000	2.49684e-07	
1200.000000	0.00170309	1200.000000	0.0018245 	1200.000000	0.00182071	1200.000000	0.00181881	1200.000000	0.00182425	1200.000000	2.45796e-07	
1220.000000	0.00169876	1220.000000	0.0018201 	1220.000000	0.00181633	1220.000000	0.00181445	1220.000000	0.00181986	1220.000000	2.42031e-07	
1240.000000	0.00169469	1240.000000	0.00181593	1240.000000	0.00181217	1240.000000	0.0018103 	1240.000000	0.00181569	1240.000000	2.38383e-07	
1260.000000	0.00169086	1260.000000	0.001812  	1260.000000	0.00180821	1260.000000	0.00180636	1260.000000	0.00181176	1260.000000	2.34847e-07	
1280.000000	0.00168726	1280.000000	0.00180828	1280.000000	0.00180444	1280.000000	0.0018026 	1280.000000	0.00180805	1280.000000	2.31418e-07	
1300.000000	0.00168389	1300.000000	0.00180477	1300.000000	0.00180087	1300.000000	0.00179902	1300.000000	0.00180454	1300.000000	2.28091e-07	
1320.000000	0.00168072	1320.000000	0.00180145	1320.000000	0.00179747	1320.000000	0.00179562	1320.000000	0.00180123	1320.000000	2.24861e-07	
1340.000000	0.00167776	1340.000000	0.00179833	1340.000000	0.00179425	1340.000000	0.00179238	1340.000000	0.00179811	1340.000000	2.21724e-07	
1360.000000	0.001675  	1360.000000	0.00179538	1360.000000	0.00179119	1360.000000	0.00178929	1360.000000	0.00179517	1360.000000	2.18676e-07	
1380.000000	0.00167242	1380.000000	0.00179261	1380.000000	0.00178828	1380.000000	0.00178635	1380.000000	0.0017924 	1380.000000	2.15713e-07	
1400.000000	0.00167003	1400.000000	0.00179001	1400.000000	0.00178551	1400.000000	0.00178356	1400.000000	0.0017898 	1400.000000	2.12832e-07	
1420.000000	0.0016678 	1420.000000	0.00178757	1420.000000	0.00178287	1420.000000	0.0017809 	1420.000000	0.00178736	1420.000000	2.1003e-07	
1440.000000	0.00166575	1440.000000	0.00178527	1440.000000	0.00178036	1440.000000	0.00177837	1440.000000	0.00178507	1440.000000	2.07302e-07	
1460.000000	0.00166385	1460.000000	0.00178313	1460.000000	0.00177795	1460.000000	0.00177596	1460.000000	0.00178292	1460.000000	2.04647e-07	
1480.000000	0.00166211	1480.000000	0.00178112	1480.000000	0.00177566	1480.000000	0.00177367	1480.000000	0.00178092	1480.000000	2.02061e-07	
1500.000000	0.00166051	1500.000000	0.00177925	1500.000000	0.00177348	1500.000000	0.00177149	1500.000000	0.00177905	1500.000000	1.99542e-07	
1520.000000	0.00165906	1520.000000	0.00177751	1520.000000	0.0017714 	1520.000000	0.00176941	1520.000000	0.00177731	1520.000000	1.97086e-07	
1540.000000	0.00165774	1540.000000	0.0017759 	1540.000000	0.00176942	1540.000000	0.00176744	1540.000000	0.0017757 	1540.000000	1.94692e-07	
1560.000000	0.00165656	1560.000000	0.0017744 	1560.000000	0.00176754	1560.000000	0.00176557	1560.000000	0.00177421	1560.000000	1.92358e-07	
1580.000000	0.00165551	1580.000000	0.00177302	1580.000000	0.00176575	1580.000000	0.00176379	1580.000000	0.00177283	1580.000000	1.9008e-07	
1600.000000	0.00165458	1600.000000	0.00177175	1600.000000	0.00176406	1600.000000	0.00176211	1600.000000	0.00177156	1600.000000	1.87858e-07	
1620.000000	0.00165377	1620.000000	0.00177059	1620.000000	0.00176245	1620.000000	0.0017605 	1620.000000	0.0017704 	1620.000000	1.85688e-07	
1640.000000	0.00165308	1640.000000	0.00176953	1640.000000	0.00176092	1640.000000	0.00175899	1640.000000	0.00176935	1640.000000	1.8357e-07	
1660.000000	0.0016525 	1660.000000	0.00176857	1660.000000	0.00175948	1660.000000	0.00175755	1660.000000	0.00176839	1660.000000	1.81501e-07	
1680.000000	0.00165202	1680.000000	0.00176771	1680.000000	0.00175811	1680.000000	0.00175618	1680.000000	0.00176753	1680.000000	1.79479e-07	
1700.000000	0.00165165	1700.000000	0.00176694	1700.000000	0.00175681	1700.000000	0.00175489	1700.000000	0.00176676	1700.000000	1.77504e-07	
1750.000000	0.00165117	1750.000000	0.0017654 	1750.000000	0.00175388	1750.000000	0.00175196	1750.000000	0.00176523	1750.000000	1.72756e-07	
1800.000000	0.00165126	1800.000000	0.00176437	1800.000000	0.00175134	1800.000000	0.00174943	1800.000000	0.0017642 	1800.000000	1.68262e-07	
1850.000000	0.00165191	1850.000000	0.00176382	1850.000000	0.00174915	1850.000000	0.00174725	1850.000000	0.00176365	1850.000000	1.64004e-07	
1900.000000	0.00165305	1900.000000	0.0017637 	1900.000000	0.0017473 	1900.000000	0.0017454 	1900.000000	0.00176354	1900.000000	1.59962e-07	
1950.000000	0.00165467	1950.000000	0.00176398	1950.000000	0.00174573	1950.000000	0.00174385	1950.000000	0.00176383	1950.000000	1.56121e-07	
2000.000000	0.00165672	2000.000000	0.00176464	2000.000000	0.00174444	2000.000000	0.00174256	2000.000000	0.00176449	2000.000000	1.52465e-07	
2100.000000	0.00166202	2100.000000	0.00176696	2100.000000	0.00174256	2100.000000	0.0017407 	2100.000000	0.00176681	2100.000000	1.45658e-07	
2200.000000	0.00166877	2200.000000	0.00177048	2200.000000	0.0017415 	2200.000000	0.00173965	2200.000000	0.00177034	2200.000000	1.3945e-07	
2300.000000	0.00167679	2300.000000	0.00177503	2300.000000	0.00174113	2300.000000	0.00173929	2300.000000	0.0017749 	2300.000000	1.33765e-07	
2400.000000	0.00168594	2400.000000	0.00178049	2400.000000	0.00174133	2400.000000	0.0017395 	2400.000000	0.00178036	2400.000000	1.28537e-07	
2500.000000	0.0016961 	2500.000000	0.00178675	2500.000000	0.00174202	2500.000000	0.0017402 	2500.000000	0.00178663	2500.000000	1.23715e-07	
2600.000000	0.00170719	2600.000000	0.00179372	2600.000000	0.00174312	2600.000000	0.00174131	2600.000000	0.0017936 	2600.000000	1.19251e-07	
2700.000000	0.0017191 	2700.000000	0.00180131	2700.000000	0.00174457	2700.000000	0.00174276	2700.000000	0.0018012 	2700.000000	1.15107e-07	
2800.000000	0.00173177	2800.000000	0.00180947	2800.000000	0.00174631	2800.000000	0.00174451	2800.000000	0.00180936	2800.000000	1.1125e-07	
2900.000000	0.00174513	2900.000000	0.00181812	2900.000000	0.0017483 	2900.000000	0.00174651	2900.000000	0.00181801	2900.000000	1.0765e-07	
3000.000000	0.00175913	3000.000000	0.00182722	3000.000000	0.00175051	3000.000000	0.00174872	3000.000000	0.00182712	3000.000000	1.04282e-07	
3200.000000	0.00178884	3200.000000	0.0018466 	3200.000000	0.00175544	3200.000000	0.00175366	3200.000000	0.0018465 	3200.000000	9.81585e-08	
3400.000000	0.00182058	3400.000000	0.00186731	3400.000000	0.00176089	3400.000000	0.00175912	3400.000000	0.00186722	3400.000000	9.27327e-08	
3600.000000	0.00185409	3600.000000	0.00188912	3600.000000	0.00176671	3600.000000	0.00176495	3600.000000	0.00188904	3600.000000	8.78909e-08	
3800.000000	0.00188917	3800.000000	0.00191186	3800.000000	0.00177279	3800.000000	0.00177103	3800.000000	0.00191177	3800.000000	8.35429e-08	
4000.000000	0.00192565	4000.000000	0.00193537	4000.000000	0.00177904	4000.000000	0.00177729	4000.000000	0.00193529	4000.000000	7.96161e-08	
4200.000000	0.0019634 	4200.000000	0.00195954	4200.000000	0.00178539	4200.000000	0.00178365	4200.000000	0.00195946	4200.000000	7.60517e-08	
4400.000000	0.00200231	4400.000000	0.00198427	4400.000000	0.0017918 	4400.000000	0.00179006	4400.000000	0.0019842 	4400.000000	7.28013e-08	
4600.000000	0.00204228	4600.000000	0.00200949	4600.000000	0.00179823	4600.000000	0.00179649	4600.000000	0.00200942	4600.000000	6.98247e-08	
4800.000000	0.00208325	4800.000000	0.00203513	4800.000000	0.00180465	4800.000000	0.00180292	4800.000000	0.00203506	4800.000000	6.70885e-08	
5000.000000	0.00212513	5000.000000	0.00206113	5000.000000	0.00181104	5000.000000	0.00180931	5000.000000	0.00206107	5000.000000	6.45643e-08	
5250.000000	0.00217871	5250.000000	0.00209408	5250.000000	0.00181895	5250.000000	0.00181722	5250.000000	0.00209401	5250.000000	6.16713e-08	
5500.000000	0.00223354	5500.000000	0.00212744	5500.000000	0.00182676	5500.000000	0.00182504	5500.000000	0.00212738	5500.000000	5.90332e-08	
6000.000000	0.00234673	6000.000000	0.0021952 	6000.000000	0.00184202	6000.000000	0.0018403 	6000.000000	0.00219515	6000.000000	5.4397e-08	
6500.000000	0.00246421	6500.000000	0.00226403	6500.000000	0.00185674	6500.000000	0.00185502	6500.000000	0.00226398	6500.000000	5.0453e-08	
7000.000000	0.00258565	7000.000000	0.00233365	7000.000000	0.00187088	7000.000000	0.00186917	7000.000000	0.0023336 	7000.000000	4.7056e-08	
7500.000000	0.0027108 	7500.000000	0.00240387	7500.000000	0.00188445	7500.000000	0.00188274	7500.000000	0.00240382	7500.000000	4.40985e-08	
8000.000000	0.00283946	8000.000000	0.00247453	8000.000000	0.00189747	8000.000000	0.00189576	8000.000000	0.00247449	8000.000000	4.14999e-08	
8500.000000	0.0029715 	8500.000000	0.00254554	8500.000000	0.00190995	8500.000000	0.00190824	8500.000000	0.00254551	8500.000000	3.9198e-08	
9000.000000	0.00310679	9000.000000	0.00261682	9000.000000	0.00192192	9000.000000	0.00192022	9000.000000	0.00261678	9000.000000	3.71444e-08	
9500.000000	0.00324525	9500.000000	0.00268828	9500.000000	0.00193342	9500.000000	0.00193172	9500.000000	0.00268825	9500.000000	3.53005e-08	
10000.000000	0.0033868 	10000.000000	0.0027599 	10000.000000	0.00194447	10000.000000	0.00194276	10000.000000	0.00275986	10000.000000	3.36357e-08	
11000.000000	0.00367897	11000.000000	0.00290341	11000.000000	0.00196531	11000.000000	0.00196361	11000.000000	0.00290338	11000.000000	3.07471e-08	
12000.000000	0.00398296	12000.000000	0.00304712	12000.000000	0.00198463	12000.000000	0.00198297	12000.000000	0.00304709	12000.000000	2.83264e-08	
13000.000000	0.00429854	13000.000000	0.00319088	13000.000000	0.00200263	13000.000000	0.00200101	13000.000000	0.00319085	13000.000000	2.62677e-08	
14000.000000	0.00462557	14000.000000	0.00333459	14000.000000	0.00201948	14000.000000	0.00201789	14000.000000	0.00333457	14000.000000	2.44948e-08	
15000.000000	0.00496393	15000.000000	0.00347819	15000.000000	0.00203531	15000.000000	0.00203374	15000.000000	0.00347817	15000.000000	2.29516e-08	
16000.000000	0.00531356	16000.000000	0.00362163	16000.000000	0.00205022	16000.000000	0.00204866	16000.000000	0.00362161	16000.000000	2.15959e-08	
17000.000000	0.00567442	17000.000000	0.00376488	17000.000000	0.00206431	17000.000000	0.00206276	17000.000000	0.00376486	17000.000000	2.03952e-08	
18000.000000	0.00604651	18000.000000	0.00390792	18000.000000	0.00207764	18000.000000	0.00207611	18000.000000	0.0039079 	18000.000000	1.93241e-08	
19000.000000	0.0064298 	19000.000000	0.00405074	19000.000000	0.0020903 	19000.000000	0.00208879	19000.000000	0.00405072	19000.000000	1.83626e-08	
20000.000000	0.0068243 	20000.000000	0.00419333	20000.000000	0.00210234	20000.000000	0.00210086	20000.000000	0.00419331	20000.000000	1.74946e-08	
21000.000000	0.00723004	21000.000000	0.00433568	21000.000000	0.0021138 	21000.000000	0.00211237	21000.000000	0.00433567	21000.000000	1.67069e-08	
22000.000000	0.00764704	22000.000000	0.00447781	22000.000000	0.00212471	22000.000000	0.00212336	22000.000000	0.00447779	22000.000000	1.59887e-08	
23000.000000	0.00807532	23000.000000	0.0046197 	23000.000000	0.00213522	23000.000000	0.00213389	23000.000000	0.00461968	23000.000000	1.53313e-08	
24000.000000	0.00851492	24000.000000	0.00476135	24000.000000	0.00214532	24000.000000	0.00214399	24000.000000	0.00476134	24000.000000	1.47271e-08	
25000.000000	0.00896588	25000.000000	0.00490278	25000.000000	0.00215496	25000.000000	0.00215369	25000.000000	0.00490277	25000.000000	1.41699e-08	
26000.000000	0.00942823	26000.000000	0.00504399	26000.000000	0.00216424	26000.000000	0.00216302	26000.000000	0.00504397	26000.000000	1.36544e-08	
27000.000000	0.00990203	27000.000000	0.00518497	27000.000000	0.00217324	27000.000000	0.002172  	27000.000000	0.00518495	27000.000000	1.3176e-08	
28000.000000	0.0103873 	28000.000000	0.00532573	28000.000000	0.00218191	28000.000000	0.00218067	28000.000000	0.00532572	28000.000000	1.27308e-08	
29000.000000	0.0108842 	29000.000000	0.00546628	29000.000000	0.00219024	29000.000000	0.00218904	29000.000000	0.00546626	29000.000000	1.23154e-08	
30000.000000	0.0113926 	30000.000000	0.00560662	30000.000000	0.00219826	30000.000000	0.00219713	30000.000000	0.0056066 	30000.000000	1.1927e-08	
32000.000000	0.0124444 	32000.000000	0.00588669	32000.000000	0.00221351	32000.000000	0.00221254	32000.000000	0.00588667	32000.000000	1.12209e-08	
34000.000000	0.0135433 	34000.000000	0.00616597	34000.000000	0.00222789	34000.000000	0.00222703	34000.000000	0.00616596	34000.000000	1.05957e-08	
36000.000000	0.0146896 	36000.000000	0.0064445 	36000.000000	0.00224146	36000.000000	0.0022407 	36000.000000	0.00644449	36000.000000	1.0038e-08	
38000.000000	0.0158839 	38000.000000	0.00672232	38000.000000	0.00225431	38000.000000	0.00225364	38000.000000	0.00672231	38000.000000	9.53749e-09	
40000.000000	0.0171266 	40000.000000	0.00699945	40000.000000	0.00226649	40000.000000	0.00226591	40000.000000	0.00699944	40000.000000	9.08565e-09	
42000.000000	0.0184183 	42000.000000	0.00727593	42000.000000	0.00227808	42000.000000	0.00227758	42000.000000	0.00727592	42000.000000	8.67568e-09	
44000.000000	0.0197595 	44000.000000	0.00755177	44000.000000	0.00228913	44000.000000	0.00228871	44000.000000	0.00755176	44000.000000	8.30198e-09	
46000.000000	0.0211505 	46000.000000	0.00782701	46000.000000	0.00229969	46000.000000	0.00229935	46000.000000	0.007827  	46000.000000	7.95989e-09	
48000.000000	0.0225921 	48000.000000	0.00810167	48000.000000	0.00230979	48000.000000	0.00230953	48000.000000	0.00810166	48000.000000	7.64555e-09	
50000.000000	0.0240847 	50000.000000	0.00837577	50000.000000	0.00231946	50000.000000	0.00231929	50000.000000	0.00837577	50000.000000	7.35567e-09	
