Energy (MeV/u)1	0 - [He-base] F.Hubert et al, AD&ND Tables 46(1990)1	Energy (MeV/u)2	1 - [H -base] J.F.Ziegler et al, Pergamon Press, NY (low energy)	Energy (MeV/u)3	2 - ATIMA 1.2  LS-theory (recommended for high energy)	Energy (MeV/u)4	3 - ATIMA 1.2  without LS-correction	Energy (MeV/u)5	4 - electrical component of [1] - J.F.Ziegler et al	Energy (MeV/u)6	5 - nuclear component of [1] - J.F.Ziegler et al	
0.001000	0.575296  	0.001000	0.53015   	0.001000	0.582811  	0.001000	0.582811  	0.001000	0.306825  	0.001000	0.223325  	
0.002000	0.667958  	0.002000	0.605654  	0.002000	0.664823  	0.002000	0.664823  	0.002000	0.449218  	0.002000	0.156436  	
0.005000	0.935789  	0.005000	0.832294  	0.005000	0.892547  	0.005000	0.892547  	0.005000	0.743574  	0.005000	0.08872   	
0.008000	1.16157   	0.008000	1.02713   	0.008000	1.08098   	0.008000	1.08098   	0.008000	0.96292   	0.008000	0.064211  	
0.010000	1.29601   	0.010000	1.1429    	0.010000	1.19102   	0.010000	1.19102   	0.010000	1.08866   	0.010000	0.0542433 	
0.015000	1.52158   	0.015000	1.35602   	0.015000	1.3723    	0.015000	1.3723    	0.015000	1.31578   	0.015000	0.040238  	
0.020000	1.69851   	0.020000	1.53708   	0.020000	1.51912   	0.020000	1.51912   	0.020000	1.50474   	0.020000	0.0323474 	
0.025000	1.89101   	0.025000	1.70416   	0.025000	1.6577    	0.025000	1.6577    	0.025000	1.67693   	0.025000	0.0272237 	
0.030000	2.0471    	0.030000	1.85525   	0.030000	1.81037   	0.030000	1.81037   	0.030000	1.83165   	0.030000	0.0236028 	
0.035000	2.17195   	0.035000	1.99353   	0.035000	1.9524    	0.035000	1.9524    	0.035000	1.97263   	0.035000	0.0208951 	
0.040000	2.26773   	0.040000	2.12147   	0.040000	2.08429   	0.040000	2.08429   	0.040000	2.10269   	0.040000	0.0187865 	
0.045000	2.33598   	0.045000	2.23957   	0.045000	2.20643   	0.045000	2.20643   	0.045000	2.22248   	0.045000	0.0170938 	
0.050000	2.37864   	0.050000	2.34822   	0.050000	2.31914   	0.050000	2.31914   	0.050000	2.33252   	0.050000	0.0157022 	
0.055000	2.47328   	0.055000	2.4478    	0.055000	2.42273   	0.055000	2.42273   	0.055000	2.43327   	0.055000	0.014536  	
0.060000	2.55197   	0.060000	2.53868   	0.060000	2.51754   	0.060000	2.51754   	0.060000	2.52514   	0.060000	0.0135433 	
0.070000	2.6666    	0.070000	2.69587   	0.070000	2.68218   	0.070000	2.68218   	0.070000	2.68393   	0.070000	0.0119406 	
0.080000	2.78949   	0.080000	2.82297   	0.080000	2.81603   	0.080000	2.81603   	0.080000	2.81227   	0.080000	0.0106997 	
0.090000	2.87806   	0.090000	2.92329   	0.090000	2.92231   	0.090000	2.92231   	0.090000	2.91358   	0.090000	0.00970818	
0.100000	2.94344   	0.100000	3.001     	0.100000	3.00432   	0.100000	3.00432   	0.100000	2.99211   	0.100000	0.00889622	
0.120000	2.98496   	0.120000	3.13536   	0.120000	3.10844   	0.120000	3.10844   	0.120000	3.12772   	0.120000	0.00764261	
0.140000	2.99218   	0.140000	3.2055    	0.140000	3.15206   	0.140000	3.15206   	0.140000	3.19879   	0.140000	0.00671683	
0.160000	2.99243   	0.160000	3.23562   	0.160000	3.15445   	0.160000	3.15445   	0.160000	3.22962   	0.160000	0.00600307	
0.180000	2.98877   	0.180000	3.23104   	0.180000	3.1301    	0.180000	3.1301    	0.180000	3.22561   	0.180000	0.00543472	
0.200000	2.99668   	0.200000	3.21672   	0.200000	3.08938   	0.200000	3.08938   	0.200000	3.21175   	0.200000	0.00497068	
0.250000	2.93535   	0.250000	3.13698   	0.250000	2.95667   	0.250000	2.95667   	0.250000	3.13287   	0.250000	0.00411113	
0.300000	2.92577   	0.300000	3.07868   	0.300000	2.83664   	0.300000	2.83664   	0.300000	3.07516   	0.300000	0.00351758	
0.350000	2.89175   	0.350000	2.98993   	0.350000	2.72468   	0.350000	2.72468   	0.350000	2.98685   	0.350000	0.00308148	
0.400000	2.84294   	0.400000	2.89362   	0.400000	2.61808   	0.400000	2.61808   	0.400000	2.89087   	0.400000	0.00274663	
0.450000	2.77868   	0.450000	2.79157   	0.450000	2.51714   	0.450000	2.51714   	0.450000	2.78909   	0.450000	0.00248091	
0.500000	2.71622   	0.500000	2.70078   	0.500000	2.42625   	0.500000	2.42625   	0.500000	2.69851   	0.500000	0.00226459	
0.600000	2.49274   	0.600000	2.52861   	0.600000	2.26879   	0.600000	2.26879   	0.600000	2.52668   	0.600000	0.00193298	
0.700000	2.26901   	0.700000	2.36556   	0.700000	2.13579   	0.700000	2.13579   	0.700000	2.36387   	0.700000	0.00169004	
0.800000	2.17014   	0.800000	2.24721   	0.800000	2.02059   	0.800000	2.02059   	0.800000	2.24571   	0.800000	0.00150396	
0.900000	2.0648    	0.900000	2.12862   	0.900000	1.91888   	0.900000	1.91888   	0.900000	2.12726   	0.900000	0.00135658	
1.000000	1.96025   	1.000000	2.01468   	1.000000	1.82319   	1.000000	1.82319   	1.000000	2.01344   	1.000000	0.00123681	
1.250000	1.72046   	1.250000	1.76547   	1.250000	1.62624   	1.250000	1.62624   	1.250000	1.76446   	1.250000	0.00101637	
1.500000	1.49374   	1.500000	1.53272   	1.500000	1.47029   	1.500000	1.47029   	1.500000	1.53185   	1.500000	0.000865299	
1.750000	1.32758   	1.750000	1.36462   	1.750000	1.34154   	1.750000	1.34154   	1.750000	1.36387   	1.750000	0.000754967	
2.000000	1.19909   	2.000000	1.23584   	2.000000	1.23292   	2.000000	1.23292   	2.000000	1.23517   	2.000000	0.000670663	
2.250000	1.09766   	2.250000	1.13296   	2.250000	1.13968   	2.250000	1.13968   	2.250000	1.13235   	2.250000	0.000604038	
2.500000	0.979644  	2.500000	1.04817   	2.500000	1.05895   	2.500000	1.05895   	2.500000	1.04762   	2.500000	0.000549989	
3.000000	0.860778  	3.000000	0.915171  	3.000000	0.926679  	3.000000	0.926679  	3.000000	0.914704  	3.000000	0.000467488	
3.500000	0.769179  	3.500000	0.814404  	3.500000	0.823449  	3.500000	0.823449  	3.500000	0.813996  	3.500000	0.000407345	
4.000000	0.696309  	4.000000	0.734789  	4.000000	0.741057  	4.000000	0.741057  	4.000000	0.734427  	4.000000	0.00036146	
4.500000	0.636875  	4.500000	0.670077  	4.500000	0.673988  	4.500000	0.673988  	4.500000	0.669752  	4.500000	0.000325244	
5.000000	0.587421  	5.000000	0.616368  	5.000000	0.618436  	5.000000	0.618436  	5.000000	0.616072  	5.000000	0.000295897	
5.500000	0.545589  	5.500000	0.571044  	5.500000	0.571718  	5.500000	0.571718  	5.500000	0.570772  	5.500000	0.00027161	
6.000000	0.509716  	6.000000	0.532268  	6.000000	0.531898  	6.000000	0.531898  	6.000000	0.532016  	6.000000	0.000251163	
6.500000	0.478593  	6.500000	0.498704  	6.500000	0.497558  	6.500000	0.497558  	6.500000	0.49847   	6.500000	0.000233699	
7.000000	0.45132   	7.000000	0.469356  	7.000000	0.467633  	7.000000	0.467633  	7.000000	0.469138  	7.000000	0.000218603	
7.500000	0.427213  	7.500000	0.443468  	7.500000	0.441318  	7.500000	0.441318  	7.500000	0.443263  	7.500000	0.000205416	
8.000000	0.405742  	8.000000	0.420454  	8.000000	0.417987  	8.000000	0.417987  	8.000000	0.42026   	8.000000	0.000193794	
8.500000	0.386489  	8.500000	0.399851  	8.500000	0.397152  	8.500000	0.397152  	8.500000	0.399668  	8.500000	0.00018347	
9.000000	0.369122  	9.000000	0.381295  	9.000000	0.378426  	9.000000	0.378426  	9.000000	0.381121  	9.000000	0.000174235	
9.500000	0.353373  	9.500000	0.364488  	9.500000	0.361498  	9.500000	0.361498  	9.500000	0.364322  	9.500000	0.000165923	
10.000000	0.339021  	10.000000	0.344644  	10.000000	0.346116  	10.000000	0.346116  	10.000000	0.344486  	10.000000	0.0001584 	
11.000000	0.313814  	11.000000	0.319405  	11.000000	0.318937  	11.000000	0.318987  	11.000000	0.31926   	11.000000	0.000145307	
12.000000	0.29238   	12.000000	0.297858  	12.000000	0.296034  	12.000000	0.296116  	12.000000	0.297723  	12.000000	0.000134291	
13.000000	0.273919  	13.000000	0.279238  	13.000000	0.276468  	13.000000	0.27657   	13.000000	0.279113  	13.000000	0.000124889	
14.000000	0.257842  	14.000000	0.26298   	14.000000	0.259562  	14.000000	0.259671  	14.000000	0.262863  	14.000000	0.000116767	
15.000000	0.243709  	15.000000	0.248655  	15.000000	0.244808  	15.000000	0.244917  	15.000000	0.248545  	15.000000	0.000109676	
16.000000	0.231182  	16.000000	0.235933  	16.000000	0.231818  	16.000000	0.231925  	16.000000	0.235829  	16.000000	0.000103429	
17.000000	0.219996  	17.000000	0.224555  	17.000000	0.220295  	17.000000	0.2204    	17.000000	0.224457  	17.000000	9.78829e-05	
18.000000	0.209945  	18.000000	0.214317  	18.000000	0.210012  	18.000000	0.21011   	18.000000	0.214224  	18.000000	9.29238e-05	
19.000000	0.20086   	19.000000	0.205052  	19.000000	0.20078   	19.000000	0.200869  	19.000000	0.204964  	19.000000	8.84622e-05	
20.000000	0.192607  	20.000000	0.196627  	20.000000	0.192443  	20.000000	0.192529  	20.000000	0.196542  	20.000000	8.44258e-05	
21.000000	0.185075  	21.000000	0.188929  	21.000000	0.184884  	21.000000	0.184967  	21.000000	0.188848  	21.000000	8.07558e-05	
22.000000	0.17817   	22.000000	0.181868  	22.000000	0.17801   	22.000000	0.178083  	22.000000	0.181791  	22.000000	7.74039e-05	
23.000000	0.171818  	23.000000	0.175367  	23.000000	0.171734  	23.000000	0.171792  	23.000000	0.175293  	23.000000	7.43299e-05	
24.000000	0.165952  	24.000000	0.16936   	24.000000	0.165977  	24.000000	0.166025  	24.000000	0.169288  	24.000000	7.15003e-05	
25.000000	0.160518  	25.000000	0.163792  	25.000000	0.16068   	25.000000	0.160721  	25.000000	0.163724  	25.000000	6.88864e-05	
27.000000	0.150764  	27.000000	0.153793  	27.000000	0.151279  	27.000000	0.151308  	27.000000	0.153729  	27.000000	6.42135e-05	
29.000000	0.142255  	29.000000	0.145063  	29.000000	0.143214  	29.000000	0.143226  	29.000000	0.145003  	29.000000	6.01566e-05	
31.000000	0.134763  	31.000000	0.137373  	31.000000	0.135951  	31.000000	0.135948  	31.000000	0.137317  	31.000000	5.65999e-05	
33.000000	0.128112  	33.000000	0.130545  	33.000000	0.129263  	33.000000	0.129245  	33.000000	0.130491  	33.000000	5.34552e-05	
35.000000	0.122166  	35.000000	0.124439  	35.000000	0.123278  	35.000000	0.123248  	35.000000	0.124388  	35.000000	5.06542e-05	
38.000000	0.114338  	38.000000	0.1164    	38.000000	0.115391  	38.000000	0.115346  	38.000000	0.116353  	38.000000	4.69815e-05	
41.000000	0.107576  	41.000000	0.109456  	41.000000	0.108572  	41.000000	0.108514  	41.000000	0.109412  	41.000000	4.38232e-05	
44.000000	0.101671  	44.000000	0.103395  	44.000000	0.102613  	44.000000	0.102545  	44.000000	0.103354  	44.000000	4.10773e-05	
47.000000	0.0964691 	47.000000	0.0980565 	47.000000	0.0973618 	47.000000	0.0972837 	47.000000	0.0980179 	47.000000	3.86669e-05	
50.000000	0.0918481 	50.000000	0.0933175 	50.000000	0.0926858 	50.000000	0.0926085 	50.000000	0.093281  	50.000000	3.65335e-05	
55.000000	0.0851919 	55.000000	0.0864969 	55.000000	0.0859536 	55.000000	0.0858723 	55.000000	0.0864635 	55.000000	3.34736e-05	
60.000000	0.0795716 	60.000000	0.0807453 	60.000000	0.0802717 	60.000000	0.0801842 	60.000000	0.0807144 	60.000000	3.09028e-05	
65.000000	0.0747588 	65.000000	0.0758268 	65.000000	0.0753993 	65.000000	0.0753142 	65.000000	0.0757981 	65.000000	2.87113e-05	
70.000000	0.0705878 	70.000000	0.0715708 	70.000000	0.0711888 	70.000000	0.0710954 	70.000000	0.071544  	70.000000	2.68201e-05	
75.000000	0.0669357 	75.000000	0.0678506 	75.000000	0.0674926 	75.000000	0.0674039 	75.000000	0.0678254 	75.000000	2.51708e-05	
80.000000	0.0637096 	80.000000	0.0645698 	80.000000	0.064238  	80.000000	0.0641455 	80.000000	0.0645461 	80.000000	2.37193e-05	
85.000000	0.0608375 	85.000000	0.0616542 	85.000000	0.0613352 	85.000000	0.0612473 	85.000000	0.0616318 	85.000000	2.24316e-05	
90.000000	0.0582629 	90.000000	0.0590455 	90.000000	0.0587433 	90.000000	0.0586521 	90.000000	0.0590242 	90.000000	2.12811e-05	
95.000000	0.0559408 	95.000000	0.056697  	95.000000	0.0564013 	95.000000	0.0563143 	95.000000	0.0566768 	95.000000	2.02469e-05	
100.000000	0.0538351 	100.000000	0.0545715 	100.000000	0.0542869 	100.000000	0.054197  	100.000000	0.0545521 	100.000000	1.93119e-05	
105.000000	0.0519162 	105.000000	0.0526382 	105.000000	0.0523563 	105.000000	0.0522702 	105.000000	0.0526197 	105.000000	1.84623e-05	
110.000000	0.0501596 	110.000000	0.0508719 	110.000000	0.050597  	110.000000	0.050509  	110.000000	0.0508542 	110.000000	1.76869e-05	
115.000000	0.0485451 	115.000000	0.0492518 	115.000000	0.0489789 	115.000000	0.0488928 	115.000000	0.0492349 	115.000000	1.69762e-05	
120.000000	0.0470558 	120.000000	0.0477603 	120.000000	0.0474894 	120.000000	0.0474042 	120.000000	0.047744  	120.000000	1.63223e-05	
125.000000	0.0456773 	125.000000	0.0463825 	125.000000	0.0461154 	125.000000	0.0460287 	125.000000	0.0463668 	125.000000	1.57187e-05	
130.000000	0.0443973 	130.000000	0.0451058 	130.000000	0.0448372 	130.000000	0.0447537 	130.000000	0.0450907 	130.000000	1.51596e-05	
135.000000	0.0432054 	135.000000	0.0439194 	135.000000	0.0436487 	135.000000	0.0435686 	135.000000	0.0439048 	135.000000	1.46403e-05	
140.000000	0.0420926 	140.000000	0.042814  	140.000000	0.0425449 	140.000000	0.0424641 	140.000000	0.0427998 	140.000000	1.41566e-05	
145.000000	0.041051  	145.000000	0.0417815 	145.000000	0.0415138 	145.000000	0.0414322 	145.000000	0.0417678 	145.000000	1.37049e-05	
150.000000	0.0400739 	150.000000	0.0408148 	150.000000	0.040545  	150.000000	0.0404661 	150.000000	0.0408015 	150.000000	1.32822e-05	
155.000000	0.0386981 	155.000000	0.0399079 	155.000000	0.0396389 	155.000000	0.0395595 	155.000000	0.039895  	155.000000	1.28856e-05	
160.000000	0.0378917 	160.000000	0.0390554 	160.000000	0.0387873 	160.000000	0.0387071 	160.000000	0.0390428 	160.000000	1.25129e-05	
165.000000	0.0371312 	165.000000	0.0382524 	165.000000	0.0379822 	165.000000	0.0379043 	165.000000	0.0382402 	165.000000	1.21618e-05	
170.000000	0.0364128 	170.000000	0.0374947 	170.000000	0.0372244 	170.000000	0.0371467 	170.000000	0.0374829 	170.000000	1.18306e-05	
175.000000	0.0357331 	175.000000	0.0367787 	175.000000	0.0365097 	175.000000	0.0364308 	175.000000	0.0367672 	175.000000	1.15175e-05	
180.000000	0.0350889 	180.000000	0.036101  	180.000000	0.0358309 	180.000000	0.0357531 	180.000000	0.0360897 	180.000000	1.12212e-05	
185.000000	0.0344776 	185.000000	0.0354585 	185.000000	0.0351862 	185.000000	0.0351107 	185.000000	0.0354475 	185.000000	1.09403e-05	
190.000000	0.0338966 	190.000000	0.0348486 	190.000000	0.0345745 	190.000000	0.0345009 	190.000000	0.0348379 	190.000000	1.06735e-05	
195.000000	0.0333436 	195.000000	0.0342688 	195.000000	0.0339949 	195.000000	0.0339212 	195.000000	0.0342584 	195.000000	1.04199e-05	
200.000000	0.0328168 	200.000000	0.0337171 	200.000000	0.0334443 	200.000000	0.0333696 	200.000000	0.0337069 	200.000000	1.01785e-05	
210.000000	0.0318343 	210.000000	0.0326898 	210.000000	0.0324152 	210.000000	0.0323427 	210.000000	0.0326801 	210.000000	9.72886e-06	
220.000000	0.0309363 	220.000000	0.031753  	220.000000	0.0314797 	220.000000	0.0314064 	220.000000	0.0317436 	220.000000	9.31852e-06	
230.000000	0.0301123 	230.000000	0.0308952 	230.000000	0.0306213 	230.000000	0.0305494 	230.000000	0.0308862 	230.000000	8.94251e-06	
240.000000	0.0293534 	240.000000	0.0301068 	240.000000	0.029831  	240.000000	0.029762  	240.000000	0.0300982 	240.000000	8.59665e-06	
250.000000	0.0286523 	250.000000	0.0293799 	250.000000	0.0291056 	250.000000	0.0290362 	250.000000	0.0293717 	250.000000	8.2774e-06	
260.000000	0.0280024 	260.000000	0.0287076 	260.000000	0.0284343 	260.000000	0.0283652 	260.000000	0.0286996 	260.000000	7.98179e-06	
270.000000	0.0273984 	270.000000	0.0280839 	270.000000	0.0278106 	270.000000	0.0277429 	270.000000	0.0280762 	270.000000	7.70724e-06	
280.000000	0.0268357 	280.000000	0.0275039 	280.000000	0.0272332 	280.000000	0.0271645 	280.000000	0.0274965 	280.000000	7.45157e-06	
290.000000	0.02631   	290.000000	0.0269631 	290.000000	0.026693  	290.000000	0.0266255 	290.000000	0.0269559 	290.000000	7.21286e-06	
300.000000	0.0258179 	300.000000	0.0264578 	300.000000	0.0261874 	300.000000	0.0261221 	300.000000	0.0264509 	300.000000	6.98947e-06	
310.000000	0.0253563 	310.000000	0.0259847 	310.000000	0.0257155 	310.000000	0.0256509 	310.000000	0.0259779 	310.000000	6.77995e-06	
320.000000	0.0249224 	320.000000	0.0255407 	320.000000	0.0252744 	320.000000	0.025209  	320.000000	0.0255341 	320.000000	6.58304e-06	
330.000000	0.0245139 	330.000000	0.0251234 	330.000000	0.0248588 	330.000000	0.0247938 	330.000000	0.025117  	330.000000	6.39761e-06	
340.000000	0.0241286 	340.000000	0.0247305 	340.000000	0.0244665 	340.000000	0.0244031 	340.000000	0.0247242 	340.000000	6.22269e-06	
350.000000	0.0237646 	350.000000	0.0243599 	350.000000	0.0240967 	350.000000	0.0240348 	350.000000	0.0243538 	350.000000	6.05738e-06	
360.000000	0.0234203 	360.000000	0.0240098 	360.000000	0.023749  	360.000000	0.023687  	360.000000	0.0240039 	360.000000	5.90092e-06	
370.000000	0.023094  	370.000000	0.0236786 	370.000000	0.0234208 	370.000000	0.0233582 	370.000000	0.0236729 	370.000000	5.7526e-06	
380.000000	0.0227845 	380.000000	0.0233649 	380.000000	0.0231088 	380.000000	0.0230469 	380.000000	0.0233593 	380.000000	5.6118e-06	
390.000000	0.0224905 	390.000000	0.0230674 	390.000000	0.0228127 	390.000000	0.0227518 	390.000000	0.0230619 	390.000000	5.47795e-06	
400.000000	0.0222109 	400.000000	0.0227849 	400.000000	0.0225327 	400.000000	0.0224716 	400.000000	0.0227795 	400.000000	5.35055e-06	
410.000000	0.0219448 	410.000000	0.0225163 	410.000000	0.0222671 	410.000000	0.0222054 	410.000000	0.0225111 	410.000000	5.22913e-06	
420.000000	0.0216911 	420.000000	0.0222606 	420.000000	0.0220134 	420.000000	0.0219522 	420.000000	0.0222555 	420.000000	5.11327e-06	
430.000000	0.0214491 	430.000000	0.0220171 	430.000000	0.0217711 	430.000000	0.021711  	430.000000	0.0220121 	430.000000	5.00261e-06	
440.000000	0.021218  	440.000000	0.0217848 	440.000000	0.0215386 	440.000000	0.0214795 	440.000000	0.0217799 	440.000000	4.89679e-06	
450.000000	0.0209972 	450.000000	0.021563  	450.000000	0.0213161 	450.000000	0.0212577 	450.000000	0.0215583 	450.000000	4.79551e-06	
460.000000	0.0207859 	460.000000	0.0213512 	460.000000	0.0211043 	460.000000	0.0210458 	460.000000	0.0213465 	460.000000	4.69846e-06	
470.000000	0.0205836 	470.000000	0.0211486 	470.000000	0.0209023 	470.000000	0.0208433 	470.000000	0.021144  	470.000000	4.60539e-06	
480.000000	0.0203898 	480.000000	0.0209547 	480.000000	0.0207086 	480.000000	0.0206496 	480.000000	0.0209502 	480.000000	4.51606e-06	
490.000000	0.020204  	490.000000	0.0207691 	490.000000	0.0205226 	490.000000	0.0204641 	490.000000	0.0207646 	490.000000	4.43024e-06	
500.000000	0.0200257 	500.000000	0.0205911 	500.000000	0.0203441 	500.000000	0.0202864 	500.000000	0.0205867 	500.000000	4.34773e-06	
520.000000	0.01969   	520.000000	0.0202566 	520.000000	0.0200087 	520.000000	0.0199525 	520.000000	0.0202524 	520.000000	4.19188e-06	
540.000000	0.0193797 	540.000000	0.019948  	540.000000	0.019701  	540.000000	0.0196446 	540.000000	0.0199439 	540.000000	4.04717e-06	
560.000000	0.0190924 	560.000000	0.0196627 	560.000000	0.0194168 	560.000000	0.0193601 	560.000000	0.0196588 	560.000000	3.91242e-06	
580.000000	0.0188256 	580.000000	0.0193983 	580.000000	0.0191521 	580.000000	0.0190966 	580.000000	0.0193945 	580.000000	3.78663e-06	
600.000000	0.0185774 	600.000000	0.0191528 	600.000000	0.0189073 	600.000000	0.0188519 	600.000000	0.0191491 	600.000000	3.66893e-06	
620.000000	0.0183462 	620.000000	0.0189244 	620.000000	0.0186801 	620.000000	0.0186242 	620.000000	0.0189209 	620.000000	3.55855e-06	
640.000000	0.0181304 	640.000000	0.0187116 	640.000000	0.0184675 	640.000000	0.0184121 	640.000000	0.0187081 	640.000000	3.45482e-06	
660.000000	0.0179288 	660.000000	0.0185129 	660.000000	0.0182684 	660.000000	0.018214  	660.000000	0.0185095 	660.000000	3.35716e-06	
680.000000	0.01774   	680.000000	0.0183271 	680.000000	0.0180822 	680.000000	0.0180287 	680.000000	0.0183239 	680.000000	3.26504e-06	
700.000000	0.0175631 	700.000000	0.0181533 	700.000000	0.0179085 	700.000000	0.0178552 	700.000000	0.0181501 	700.000000	3.178e-06 	
720.000000	0.0173972 	720.000000	0.0179903 	720.000000	0.0177461 	720.000000	0.0176925 	720.000000	0.0179872 	720.000000	3.09562e-06	
740.000000	0.0172413 	740.000000	0.0178374 	740.000000	0.0175934 	740.000000	0.0175396 	740.000000	0.0178344 	740.000000	3.01754e-06	
760.000000	0.0170948 	760.000000	0.0176937 	760.000000	0.0174493 	760.000000	0.0173958 	760.000000	0.0176908 	760.000000	2.94342e-06	
780.000000	0.0169569 	780.000000	0.0175586 	780.000000	0.0173132 	780.000000	0.0172605 	780.000000	0.0175558 	780.000000	2.87297e-06	
800.000000	0.0168271 	800.000000	0.0174315 	800.000000	0.0171849 	800.000000	0.0171329 	800.000000	0.0174287 	800.000000	2.80592e-06	
820.000000	0.0167048 	820.000000	0.0173117 	820.000000	0.0170639 	820.000000	0.0170125 	820.000000	0.017309  	820.000000	2.74202e-06	
840.000000	0.0165895 	840.000000	0.0171988 	840.000000	0.01695   	840.000000	0.0168987 	840.000000	0.0171961 	840.000000	2.68106e-06	
860.000000	0.0164807 	860.000000	0.0170923 	860.000000	0.0168427 	860.000000	0.0167912 	860.000000	0.0170897 	860.000000	2.62283e-06	
880.000000	0.016378  	880.000000	0.0169917 	880.000000	0.0167412 	880.000000	0.0166894 	880.000000	0.0169892 	880.000000	2.56716e-06	
900.000000	0.016281  	900.000000	0.0168968 	900.000000	0.0166448 	900.000000	0.016593  	900.000000	0.0168943 	900.000000	2.51388e-06	
920.000000	0.0161894 	920.000000	0.016807  	920.000000	0.0165532 	920.000000	0.0165016 	920.000000	0.0168046 	920.000000	2.46283e-06	
940.000000	0.0161028 	940.000000	0.0167222 	940.000000	0.016466  	940.000000	0.0164149 	940.000000	0.0167198 	940.000000	2.41388e-06	
960.000000	0.016021  	960.000000	0.016642  	960.000000	0.0163832 	960.000000	0.0163326 	960.000000	0.0166396 	960.000000	2.3669e-06	
980.000000	0.0159436 	980.000000	0.016566  	980.000000	0.0163045 	980.000000	0.0162544 	980.000000	0.0165637 	980.000000	2.32177e-06	
1000.000000	0.0158705 	1000.000000	0.0164942 	1000.000000	0.0162298 	1000.000000	0.0161801 	1000.000000	0.0164919 	1000.000000	2.27838e-06	
1020.000000	0.0158014 	1020.000000	0.0164262 	1020.000000	0.0161589 	1020.000000	0.0161094 	1020.000000	0.0164239 	1020.000000	2.23663e-06	
1040.000000	0.0157361 	1040.000000	0.0163618 	1040.000000	0.0160917 	1040.000000	0.0160421 	1040.000000	0.0163596 	1040.000000	2.19644e-06	
1060.000000	0.0156743 	1060.000000	0.0163008 	1060.000000	0.0160278 	1060.000000	0.015978  	1060.000000	0.0162987 	1060.000000	2.1577e-06	
1080.000000	0.0156159 	1080.000000	0.0162431 	1080.000000	0.0159669 	1080.000000	0.015917  	1080.000000	0.0162409 	1080.000000	2.12036e-06	
1100.000000	0.0155607 	1100.000000	0.0161884 	1100.000000	0.0159088 	1100.000000	0.0158587 	1100.000000	0.0161863 	1100.000000	2.08432e-06	
1120.000000	0.0155086 	1120.000000	0.0161366 	1120.000000	0.0158532 	1120.000000	0.0158032 	1120.000000	0.0161345 	1120.000000	2.04952e-06	
1140.000000	0.0154594 	1140.000000	0.0160876 	1140.000000	0.0158    	1140.000000	0.0157503 	1140.000000	0.0160855 	1140.000000	2.01591e-06	
1160.000000	0.0154129 	1160.000000	0.0160411 	1160.000000	0.0157491 	1160.000000	0.0156997 	1160.000000	0.0160391 	1160.000000	1.98341e-06	
1180.000000	0.0153691 	1180.000000	0.0159972 	1180.000000	0.0157005 	1180.000000	0.0156514 	1180.000000	0.0159952 	1180.000000	1.95198e-06	
1200.000000	0.0153278 	1200.000000	0.0159556 	1200.000000	0.0156542 	1200.000000	0.0156053 	1200.000000	0.0159537 	1200.000000	1.92156e-06	
1220.000000	0.0152888 	1220.000000	0.0159162 	1220.000000	0.0156101 	1220.000000	0.0155612 	1220.000000	0.0159143 	1220.000000	1.8921e-06	
1240.000000	0.0152522 	1240.000000	0.015879  	1240.000000	0.015568  	1240.000000	0.015519  	1240.000000	0.0158772 	1240.000000	1.86356e-06	
1260.000000	0.0152177 	1260.000000	0.0158439 	1260.000000	0.0155278 	1260.000000	0.0154787 	1260.000000	0.015842  	1260.000000	1.83589e-06	
1280.000000	0.0151854 	1280.000000	0.0158106 	1280.000000	0.0154894 	1280.000000	0.0154402 	1280.000000	0.0158088 	1280.000000	1.80906e-06	
1300.000000	0.015155  	1300.000000	0.0157793 	1300.000000	0.0154526 	1300.000000	0.0154033 	1300.000000	0.0157775 	1300.000000	1.78303e-06	
1320.000000	0.0151265 	1320.000000	0.0157497 	1320.000000	0.0154174 	1320.000000	0.015368  	1320.000000	0.0157479 	1320.000000	1.75776e-06	
1340.000000	0.0150999 	1340.000000	0.0157217 	1340.000000	0.0153835 	1340.000000	0.0153342 	1340.000000	0.01572   	1340.000000	1.73322e-06	
1360.000000	0.015075  	1360.000000	0.0156955 	1360.000000	0.015351  	1360.000000	0.0153018 	1360.000000	0.0156937 	1360.000000	1.70937e-06	
1380.000000	0.0150518 	1380.000000	0.0156707 	1380.000000	0.0153198 	1380.000000	0.0152708 	1380.000000	0.015669  	1380.000000	1.68619e-06	
1400.000000	0.0150302 	1400.000000	0.0156475 	1400.000000	0.0152899 	1400.000000	0.0152411 	1400.000000	0.0156458 	1400.000000	1.66365e-06	
1420.000000	0.0150102 	1420.000000	0.0156257 	1420.000000	0.0152613 	1420.000000	0.0152127 	1420.000000	0.015624  	1420.000000	1.64173e-06	
1440.000000	0.0149917 	1440.000000	0.0156052 	1440.000000	0.0152338 	1440.000000	0.0151854 	1440.000000	0.0156036 	1440.000000	1.62039e-06	
1460.000000	0.0149746 	1460.000000	0.015586  	1460.000000	0.0152074 	1460.000000	0.0151593 	1460.000000	0.0155844 	1460.000000	1.59962e-06	
1480.000000	0.014959  	1480.000000	0.0155682 	1480.000000	0.0151822 	1480.000000	0.0151342 	1480.000000	0.0155666 	1480.000000	1.57939e-06	
1500.000000	0.0149446 	1500.000000	0.0155515 	1500.000000	0.015158  	1500.000000	0.0151102 	1500.000000	0.0155499 	1500.000000	1.55968e-06	
1520.000000	0.0149315 	1520.000000	0.015536  	1520.000000	0.0151348 	1520.000000	0.0150872 	1520.000000	0.0155344 	1520.000000	1.54047e-06	
1540.000000	0.0149197 	1540.000000	0.0155215 	1540.000000	0.0151126 	1540.000000	0.0150651 	1540.000000	0.01552   	1540.000000	1.52174e-06	
1560.000000	0.0149091 	1560.000000	0.0155082 	1560.000000	0.0150914 	1560.000000	0.015044  	1560.000000	0.0155067 	1560.000000	1.50348e-06	
1580.000000	0.0148996 	1580.000000	0.0154959 	1580.000000	0.015071  	1580.000000	0.0150237 	1580.000000	0.0154944 	1580.000000	1.48567e-06	
1600.000000	0.0148912 	1600.000000	0.0154846 	1600.000000	0.0150516 	1600.000000	0.0150043 	1600.000000	0.0154832 	1600.000000	1.46828e-06	
1620.000000	0.0148839 	1620.000000	0.0154743 	1620.000000	0.0150329 	1620.000000	0.0149856 	1620.000000	0.0154728 	1620.000000	1.45131e-06	
1640.000000	0.0148777 	1640.000000	0.0154649 	1640.000000	0.0150151 	1640.000000	0.0149677 	1640.000000	0.0154634 	1640.000000	1.43474e-06	
1660.000000	0.0148725 	1660.000000	0.0154563 	1660.000000	0.014998  	1660.000000	0.0149506 	1660.000000	0.0154549 	1660.000000	1.41855e-06	
1680.000000	0.0148682 	1680.000000	0.0154487 	1680.000000	0.0149816 	1680.000000	0.0149342 	1680.000000	0.0154473 	1680.000000	1.40274e-06	
1700.000000	0.0148649 	1700.000000	0.0154418 	1700.000000	0.014966  	1700.000000	0.0149184 	1700.000000	0.0154405 	1700.000000	1.38729e-06	
1750.000000	0.0148605 	1750.000000	0.0154282 	1750.000000	0.0149295 	1750.000000	0.0148818 	1750.000000	0.0154268 	1750.000000	1.35015e-06	
1800.000000	0.0148614 	1800.000000	0.0154192 	1800.000000	0.0148967 	1800.000000	0.0148489 	1800.000000	0.0154178 	1800.000000	1.315e-06 	
1850.000000	0.0148672 	1850.000000	0.0154143 	1850.000000	0.014867  	1850.000000	0.0148194 	1850.000000	0.0154131 	1850.000000	1.2817e-06	
1900.000000	0.0148775 	1900.000000	0.0154134 	1900.000000	0.0148404 	1900.000000	0.0147929 	1900.000000	0.0154122 	1900.000000	1.25008e-06	
1950.000000	0.014892  	1950.000000	0.0154161 	1950.000000	0.0148164 	1950.000000	0.0147692 	1950.000000	0.0154149 	1950.000000	1.22004e-06	
2000.000000	0.0149105 	2000.000000	0.0154221 	2000.000000	0.014795  	2000.000000	0.014748  	2000.000000	0.0154209 	2000.000000	1.19145e-06	
2100.000000	0.0149582 	2100.000000	0.0154432 	2100.000000	0.0147589 	2100.000000	0.0147124 	2100.000000	0.015442  	2100.000000	1.13821e-06	
2200.000000	0.0150189 	2200.000000	0.0154749 	2200.000000	0.0147307 	2200.000000	0.0146846 	2200.000000	0.0154738 	2200.000000	1.08967e-06	
2300.000000	0.0150911 	2300.000000	0.0155159 	2300.000000	0.0147092 	2300.000000	0.0146633 	2300.000000	0.0155149 	2300.000000	1.0452e-06	
2400.000000	0.0151734 	2400.000000	0.0155651 	2400.000000	0.0146934 	2400.000000	0.0146476 	2400.000000	0.0155641 	2400.000000	1.00433e-06	
2500.000000	0.0152649 	2500.000000	0.0156214 	2500.000000	0.0146825 	2500.000000	0.0146367 	2500.000000	0.0156204 	2500.000000	9.66616e-07	
2600.000000	0.0153647 	2600.000000	0.015684  	2600.000000	0.0146757 	2600.000000	0.0146298 	2600.000000	0.0156831 	2600.000000	9.31713e-07	
2700.000000	0.0154719 	2700.000000	0.0157523 	2700.000000	0.0146724 	2700.000000	0.0146263 	2700.000000	0.0157514 	2700.000000	8.99313e-07	
2800.000000	0.0155859 	2800.000000	0.0158255 	2800.000000	0.0146721 	2800.000000	0.0146259 	2800.000000	0.0158246 	2800.000000	8.69153e-07	
2900.000000	0.0157062 	2900.000000	0.0159032 	2900.000000	0.0146742 	2900.000000	0.014628  	2900.000000	0.0159024 	2900.000000	8.41006e-07	
3000.000000	0.0158322 	3000.000000	0.0159849 	3000.000000	0.0146785 	3000.000000	0.0146323 	3000.000000	0.0159841 	3000.000000	8.14677e-07	
3200.000000	0.0160996 	3200.000000	0.0161589 	3200.000000	0.0146924 	3200.000000	0.0146464 	3200.000000	0.0161581 	3200.000000	7.66801e-07	
3400.000000	0.0163852 	3400.000000	0.0163448 	3400.000000	0.014712  	3400.000000	0.0146663 	3400.000000	0.0163441 	3400.000000	7.24383e-07	
3600.000000	0.0166868 	3600.000000	0.0165405 	3600.000000	0.0147359 	3600.000000	0.0146905 	3600.000000	0.0165398 	3600.000000	6.86534e-07	
3800.000000	0.0170025 	3800.000000	0.0167445 	3800.000000	0.0147631 	3800.000000	0.0147179 	3800.000000	0.0167438 	3800.000000	6.52546e-07	
4000.000000	0.0173309 	4000.000000	0.0169554 	4000.000000	0.0147927 	4000.000000	0.0147477 	4000.000000	0.0169548 	4000.000000	6.21852e-07	
4200.000000	0.0176706 	4200.000000	0.0171722 	4200.000000	0.0148241 	4200.000000	0.0147792 	4200.000000	0.0171716 	4200.000000	5.93992e-07	
4400.000000	0.0180208 	4400.000000	0.0173941 	4400.000000	0.0148568 	4400.000000	0.014812  	4400.000000	0.0173935 	4400.000000	5.68586e-07	
4600.000000	0.0183806 	4600.000000	0.0176203 	4600.000000	0.0148904 	4600.000000	0.0148457 	4600.000000	0.0176198 	4600.000000	5.45322e-07	
4800.000000	0.0187492 	4800.000000	0.0178503 	4800.000000	0.0149246 	4800.000000	0.01488   	4800.000000	0.0178498 	4800.000000	5.23937e-07	
5000.000000	0.0191262 	5000.000000	0.0180835 	5000.000000	0.0149592 	5000.000000	0.0149146 	5000.000000	0.018083  	5000.000000	5.04211e-07	
5250.000000	0.0196083 	5250.000000	0.018379  	5250.000000	0.0150025 	5250.000000	0.0149581 	5250.000000	0.0183785 	5250.000000	4.81602e-07	
5500.000000	0.0201019 	5500.000000	0.0186782 	5500.000000	0.0150459 	5500.000000	0.0150015 	5500.000000	0.0186778 	5500.000000	4.60986e-07	
6000.000000	0.0211206 	6000.000000	0.0192859 	6000.000000	0.0151317 	6000.000000	0.0150874 	6000.000000	0.0192855 	6000.000000	4.24757e-07	
6500.000000	0.0221779 	6500.000000	0.0199031 	6500.000000	0.0152155 	6500.000000	0.0151714 	6500.000000	0.0199027 	6500.000000	3.93941e-07	
7000.000000	0.0232709 	7000.000000	0.0205274 	7000.000000	0.0152968 	7000.000000	0.0152528 	7000.000000	0.020527  	7000.000000	3.67398e-07	
7500.000000	0.0243972 	7500.000000	0.021157  	7500.000000	0.0153753 	7500.000000	0.0153313 	7500.000000	0.0211567 	7500.000000	3.44292e-07	
8000.000000	0.0255552 	8000.000000	0.0217907 	8000.000000	0.0154509 	8000.000000	0.0154069 	8000.000000	0.0217904 	8000.000000	3.2399e-07	
8500.000000	0.0267435 	8500.000000	0.0224274 	8500.000000	0.0155234 	8500.000000	0.0154796 	8500.000000	0.0224271 	8500.000000	3.06007e-07	
9000.000000	0.0279611 	9000.000000	0.0230665 	9000.000000	0.0155927 	9000.000000	0.0155494 	9000.000000	0.0230662 	9000.000000	2.89965e-07	
9500.000000	0.0292072 	9500.000000	0.0237073 	9500.000000	0.0156595 	9500.000000	0.0156165 	9500.000000	0.023707  	9500.000000	2.75561e-07	
10000.000000	0.0304812 	10000.000000	0.0243494 	10000.000000	0.015724  	10000.000000	0.015681  	10000.000000	0.0243491 	10000.000000	2.62557e-07	
11000.000000	0.0331107 	11000.000000	0.0256361 	11000.000000	0.0158456 	11000.000000	0.0158026 	11000.000000	0.0256359 	11000.000000	2.39994e-07	
12000.000000	0.0358466 	12000.000000	0.0269246 	12000.000000	0.0159579 	12000.000000	0.0159154 	12000.000000	0.0269244 	12000.000000	2.21088e-07	
13000.000000	0.0386869 	13000.000000	0.0282136 	13000.000000	0.0160623 	13000.000000	0.0160203 	13000.000000	0.0282133 	13000.000000	2.0501e-07	
14000.000000	0.0416301 	14000.000000	0.0295021 	14000.000000	0.0161597 	14000.000000	0.0161182 	14000.000000	0.0295019 	14000.000000	1.91164e-07	
15000.000000	0.0446753 	15000.000000	0.0307895 	15000.000000	0.016251  	15000.000000	0.0162099 	15000.000000	0.0307893 	15000.000000	1.79114e-07	
16000.000000	0.047822  	16000.000000	0.0320755 	16000.000000	0.0163368 	16000.000000	0.0162959 	16000.000000	0.0320754 	16000.000000	1.68527e-07	
17000.000000	0.0510698 	17000.000000	0.0333599 	17000.000000	0.0164175 	17000.000000	0.016377  	17000.000000	0.0333597 	17000.000000	1.59152e-07	
18000.000000	0.0544185 	18000.000000	0.0346423 	18000.000000	0.0164937 	18000.000000	0.0164535 	18000.000000	0.0346421 	18000.000000	1.50789e-07	
19000.000000	0.0578682 	19000.000000	0.0359228 	19000.000000	0.0165658 	19000.000000	0.016526  	19000.000000	0.0359226 	19000.000000	1.43282e-07	
20000.000000	0.0614187 	20000.000000	0.0372012 	20000.000000	0.0166341 	20000.000000	0.0165947 	20000.000000	0.037201  	20000.000000	1.36504e-07	
21000.000000	0.0650704 	21000.000000	0.0384775 	21000.000000	0.0166991 	21000.000000	0.0166601 	21000.000000	0.0384773 	21000.000000	1.30354e-07	
22000.000000	0.0688233 	22000.000000	0.0397517 	22000.000000	0.0167608 	22000.000000	0.0167224 	22000.000000	0.0397515 	22000.000000	1.24748e-07	
23000.000000	0.0726779 	23000.000000	0.0410238 	23000.000000	0.0168198 	23000.000000	0.016782  	23000.000000	0.0410237 	23000.000000	1.19615e-07	
24000.000000	0.0766343 	24000.000000	0.0422938 	24000.000000	0.0168762 	24000.000000	0.0168389 	24000.000000	0.0422937 	24000.000000	1.14899e-07	
25000.000000	0.0806929 	25000.000000	0.0435618 	25000.000000	0.0169302 	25000.000000	0.0168934 	25000.000000	0.0435617 	25000.000000	1.10549e-07	
26000.000000	0.0848541 	26000.000000	0.0448277 	26000.000000	0.0169818 	26000.000000	0.0169457 	26000.000000	0.0448276 	26000.000000	1.06525e-07	
27000.000000	0.0891183 	27000.000000	0.0460917 	27000.000000	0.0170312 	27000.000000	0.016996  	27000.000000	0.0460916 	27000.000000	1.0279e-07	
28000.000000	0.0934859 	28000.000000	0.0473537 	28000.000000	0.0170788 	28000.000000	0.0170444 	28000.000000	0.0473536 	28000.000000	9.93149e-08	
29000.000000	0.0979574 	29000.000000	0.0486138 	29000.000000	0.0171247 	29000.000000	0.017091  	29000.000000	0.0486137 	29000.000000	9.60727e-08	
30000.000000	0.102533  	30000.000000	0.049872  	30000.000000	0.0171689 	30000.000000	0.017136  	30000.000000	0.0498719 	30000.000000	9.30407e-08	
32000.000000	0.112     	32000.000000	0.0523829 	32000.000000	0.0172528 	32000.000000	0.0172214 	32000.000000	0.0523828 	32000.000000	8.75297e-08	
34000.000000	0.12189   	34000.000000	0.0548868 	34000.000000	0.0173312 	34000.000000	0.0173013 	34000.000000	0.0548867 	34000.000000	8.26498e-08	
36000.000000	0.132207  	36000.000000	0.057384  	36000.000000	0.0174048 	36000.000000	0.0173765 	36000.000000	0.0573839 	36000.000000	7.82975e-08	
38000.000000	0.142955  	38000.000000	0.0598747 	38000.000000	0.0174739 	38000.000000	0.0174473 	38000.000000	0.0598746 	38000.000000	7.43911e-08	
40000.000000	0.15414   	40000.000000	0.0623593 	40000.000000	0.0175391 	40000.000000	0.0175144 	40000.000000	0.0623592 	40000.000000	7.08649e-08	
42000.000000	0.165765  	42000.000000	0.064838  	42000.000000	0.0176008 	42000.000000	0.0175779 	42000.000000	0.0648379 	42000.000000	6.76656e-08	
44000.000000	0.177835  	44000.000000	0.067311  	44000.000000	0.0176593 	44000.000000	0.0176384 	44000.000000	0.067311  	44000.000000	6.47493e-08	
46000.000000	0.190355  	46000.000000	0.0697787 	46000.000000	0.017715  	46000.000000	0.017696  	46000.000000	0.0697786 	46000.000000	6.20798e-08	
48000.000000	0.203329  	48000.000000	0.0722411 	48000.000000	0.0177681 	48000.000000	0.017751  	48000.000000	0.072241  	48000.000000	5.96268e-08	
50000.000000	0.216762  	50000.000000	0.0746985 	50000.000000	0.0178187 	50000.000000	0.0178036 	50000.000000	0.0746985 	50000.000000	5.73649e-08	
