0.001000	10.0416   	0.001000	10.1559   	0.001000	9.75897   	0.001000	9.75897   	0.001000	2.30439   	0.001000	7.85154   	
0.002000	10.2641   	0.002000	10.3636   	0.002000	9.84295   	0.002000	9.84295   	0.002000	3.02254   	0.002000	7.34104   	
0.005000	10.3103   	0.005000	10.1414   	0.005000	9.40433   	0.005000	9.40433   	0.005000	4.33052   	0.005000	5.8109    	
0.008000	10.4773   	0.008000	10.047    	0.008000	9.17052   	0.008000	9.17052   	0.008000	5.21002   	0.008000	4.83696   	
0.010000	10.6399   	0.010000	10.0613   	0.010000	9.11094   	0.010000	9.11094   	0.010000	5.68868   	0.010000	4.37257   	
0.015000	11.1183   	0.015000	10.2405   	0.015000	9.14223   	0.015000	9.14223   	0.015000	6.67501   	0.015000	3.56548   	
0.020000	11.625    	0.020000	10.5181   	0.020000	9.30341   	0.020000	9.30341   	0.020000	7.47798   	0.020000	3.04012   	
0.025000	12.1252   	0.025000	10.834    	0.025000	9.52204   	0.025000	9.52204   	0.025000	8.16746   	0.025000	2.6665    	
0.030000	12.608    	0.030000	11.1632   	0.030000	9.76718   	0.030000	9.76718   	0.030000	8.77823   	0.030000	2.38497   	
0.035000	13.0708   	0.035000	11.4945   	0.035000	10.024    	0.035000	10.024    	0.035000	9.3305    	0.035000	2.16399   	
0.040000	13.6139   	0.040000	11.8571   	0.040000	10.3348   	0.040000	10.3348   	0.040000	9.87193   	0.040000	1.9852    	
0.045000	14.1912   	0.045000	12.5108   	0.045000	11.1755   	0.045000	11.1755   	0.045000	10.6737   	0.045000	1.83709   	
0.050000	14.6539   	0.050000	13.1777   	0.050000	12.0621   	0.050000	12.0621   	0.050000	11.4656   	0.050000	1.7121    	
0.055000	15.4363   	0.055000	13.9351   	0.055000	12.9624   	0.055000	12.9624   	0.055000	12.3301   	0.055000	1.60498   	
0.060000	16.1441   	0.060000	14.6883   	0.060000	13.8687   	0.060000	13.8687   	0.060000	13.1763   	0.060000	1.51202   	
0.070000	17.3905   	0.070000	16.1653   	0.070000	15.676    	0.070000	15.676    	0.070000	14.807    	0.070000	1.35825   	
0.080000	18.7551   	0.080000	17.5562   	0.080000	17.4382   	0.080000	17.4382   	0.080000	16.3302   	0.080000	1.22601   	
0.090000	19.9551   	0.090000	18.8816   	0.090000	19.1528   	0.090000	19.1528   	0.090000	17.7546   	0.090000	1.127     	
0.100000	21.0233   	0.100000	20.1234   	0.100000	20.7937   	0.100000	20.7937   	0.100000	19.0791   	0.100000	1.04428   	
0.120000	22.363    	0.120000	22.3968   	0.120000	23.8224   	0.120000	23.8224   	0.120000	21.4845   	0.120000	0.912353  	
0.140000	23.7663   	0.140000	24.5913   	0.140000	26.5015   	0.140000	26.5015   	0.140000	23.778    	0.140000	0.813372  	
0.160000	25.4408   	0.160000	26.986    	0.160000	28.8424   	0.160000	28.8424   	0.160000	26.2506   	0.160000	0.735466  	
0.180000	27.0191   	0.180000	29.0781   	0.180000	30.8758   	0.180000	30.8758   	0.180000	28.4057   	0.180000	0.672382  	
0.200000	28.5498   	0.200000	30.9162   	0.200000	32.6395   	0.200000	32.6395   	0.200000	30.296    	0.200000	0.620145  	
0.250000	31.2625   	0.250000	34.4786   	0.250000	36.1131   	0.250000	36.1131   	0.250000	33.9571   	0.250000	0.521533  	
0.300000	33.7127   	0.300000	37.2297   	0.300000	38.6366   	0.300000	38.6366   	0.300000	36.7778   	0.300000	0.451918  	
0.350000	35.9837   	0.350000	39.5767   	0.350000	40.555    	0.350000	40.555    	0.350000	39.1768   	0.350000	0.3999    	
0.400000	37.993    	0.400000	41.605    	0.400000	42.083    	0.400000	42.083    	0.400000	41.2456   	0.400000	0.359419  	
0.450000	39.7547   	0.450000	43.4065   	0.450000	43.3498   	0.450000	43.3498   	0.450000	43.0795   	0.450000	0.326937  	
0.500000	41.2936   	0.500000	45.0396   	0.500000	44.4332   	0.500000	44.4332   	0.500000	44.7393   	0.500000	0.300244  	
0.600000	42.4172   	0.600000	46.8022   	0.600000	47.0823   	0.600000	47.0823   	0.600000	46.5433   	0.600000	0.258856  	
0.700000	43.2716   	0.700000	48.6675   	0.700000	49.2281   	0.700000	49.2281   	0.700000	48.4393   	0.700000	0.228148  	
0.800000	45.1535   	0.800000	50.0492   	0.800000	50.9092   	0.800000	50.9092   	0.800000	49.8448   	0.800000	0.204382  	
0.900000	46.6012   	0.900000	51.026    	0.900000	52.2399   	0.900000	52.2399   	0.900000	50.8406   	0.900000	0.1854    	
1.000000	47.7122   	1.000000	51.6858   	1.000000	53.2958   	1.000000	53.2958   	1.000000	51.5159   	1.000000	0.16986   	
1.250000	49.1543   	1.250000	53.5103   	1.250000	55.0556   	1.250000	55.0556   	1.250000	53.3694   	1.250000	0.140972  	
1.500000	49.6609   	1.500000	54.4772   	1.500000	55.9528   	1.500000	55.9528   	1.500000	54.3563   	1.500000	0.120938  	
1.750000	49.6504   	1.750000	54.9487   	1.750000	56.2976   	1.750000	56.2976   	1.750000	54.8425   	1.750000	0.106169  	
2.000000	49.1534   	2.000000	54.909    	2.000000	56.2785   	2.000000	56.2785   	2.000000	54.8142   	2.000000	0.0947994 	
2.250000	48.5629   	2.250000	54.3363   	2.250000	56.0157   	2.250000	56.0157   	2.250000	54.2506   	2.250000	0.0857569 	
2.500000	64.5389   	2.500000	53.6845   	2.500000	55.5883   	2.500000	55.5883   	2.500000	53.6061   	2.500000	0.0783813 	
3.000000	61.7401   	3.000000	52.2518   	3.000000	54.4359   	3.000000	54.4359   	3.000000	52.1848   	3.000000	0.0670484 	
3.500000	58.9564   	3.500000	50.6607   	3.500000	52.8029   	3.500000	52.8029   	3.500000	50.602    	3.500000	0.0587242 	
4.000000	56.3128   	4.000000	49.1263   	4.000000	51.1947   	4.000000	51.1947   	4.000000	49.074    	4.000000	0.0523343 	
4.500000	53.8501   	4.500000	47.6941   	4.500000	49.6563   	4.500000	49.6563   	4.500000	47.6469   	4.500000	0.0472648 	
5.000000	51.5744   	5.000000	46.3089   	5.000000	48.1929   	5.000000	48.1929   	5.000000	46.2658   	5.000000	0.0431384 	
5.500000	49.4775   	5.500000	45.0156   	5.500000	46.8049   	5.500000	46.8049   	5.500000	44.9759   	5.500000	0.0397102 	
6.000000	47.5458   	6.000000	43.78     	6.000000	45.49     	6.000000	45.49     	6.000000	43.7432   	6.000000	0.0368139 	
6.500000	45.7642   	6.500000	42.6063   	6.500000	44.2447   	6.500000	44.2447   	6.500000	42.572    	6.500000	0.0343328 	
7.000000	44.1182   	7.000000	41.4911   	7.000000	43.065    	7.000000	43.065    	7.000000	41.4589   	7.000000	0.0321819 	
7.500000	42.594    	7.500000	40.4306   	7.500000	41.9466   	7.500000	41.9466   	7.500000	40.4003   	7.500000	0.0302984 	
8.000000	41.1795   	8.000000	39.4233   	8.000000	40.8856   	8.000000	40.8856   	8.000000	39.3947   	8.000000	0.0286345 	
8.500000	39.8635   	8.500000	38.4655   	8.500000	39.8779   	8.500000	39.8779   	8.500000	38.4384   	8.500000	0.0271532 	
9.000000	38.6364   	9.000000	37.5538   	9.000000	38.9199   	9.000000	38.9199   	9.000000	37.528    	9.000000	0.0258255 	
9.500000	37.4896   	9.500000	36.6851   	9.500000	38.0081   	9.500000	38.0081   	9.500000	36.6604   	9.500000	0.0246284 	
10.000000	36.4155   	10.000000	36.9526   	10.000000	37.1393   	10.000000	37.1393   	10.000000	36.9291   	10.000000	0.023543  	
11.000000	34.4592   	11.000000	35.4334   	11.000000	35.2879   	11.000000	35.6264   	11.000000	35.4117   	11.000000	0.0216495 	
12.000000	32.7228   	12.000000	34.0335   	12.000000	33.6215   	12.000000	34.2354   	12.000000	34.0134   	12.000000	0.0200518 	
13.000000	31.1706   	13.000000	32.7418   	13.000000	32.1148   	13.000000	32.9541   	13.000000	32.7231   	13.000000	0.0186847 	
14.000000	29.7744   	14.000000	31.5477   	14.000000	30.7473   	14.000000	31.7714   	14.000000	31.5302   	14.000000	0.0175008 	
15.000000	28.5113   	15.000000	30.4412   	15.000000	29.5013   	15.000000	30.6771   	15.000000	30.4248   	15.000000	0.0164651 	
16.000000	27.3629   	16.000000	29.4137   	16.000000	28.3617   	16.000000	29.6624   	16.000000	29.3981   	16.000000	0.0155509 	
17.000000	26.3139   	17.000000	28.4572   	17.000000	27.3156   	17.000000	28.7195   	17.000000	28.4425   	17.000000	0.0147377 	
18.000000	25.3515   	18.000000	27.5649   	18.000000	26.3528   	18.000000	27.8413   	18.000000	27.5509   	18.000000	0.0140094 	
19.000000	24.4653   	19.000000	26.7305   	19.000000	25.4646   	19.000000	27.022    	19.000000	26.7172   	19.000000	0.0133531 	
20.000000	23.6464   	20.000000	25.9488   	20.000000	24.6438   	20.000000	26.256    	20.000000	25.936    	20.000000	0.0127584 	
21.000000	22.8872   	21.000000	25.2149   	21.000000	23.8829   	21.000000	25.5387   	21.000000	25.2026   	21.000000	0.0122171 	
22.000000	22.1812   	22.000000	24.5245   	22.000000	23.1747   	22.000000	24.8659   	22.000000	24.5128   	22.000000	0.0117219 	
23.000000	21.5228   	23.000000	23.8739   	23.000000	22.5148   	23.000000	24.2338   	23.000000	23.8627   	23.000000	0.0112673 	
24.000000	20.9074   	24.000000	23.2598   	24.000000	21.9003   	24.000000	23.6392   	24.000000	23.249    	24.000000	0.0108484 	
25.000000	20.3307   	25.000000	22.6792   	25.000000	21.3272   	25.000000	23.0791   	25.000000	22.6688   	25.000000	0.0104609 	
27.000000	19.2795   	27.000000	21.608    	27.000000	20.2878   	27.000000	22.0519   	27.000000	21.5982   	27.000000	0.00976721	
29.000000	18.3449   	29.000000	20.6419   	29.000000	19.3722   	29.000000	21.1341   	29.000000	20.6327   	29.000000	0.00916378	
31.000000	17.5082   	31.000000	19.7662   	31.000000	18.5934   	31.000000	20.2578   	31.000000	19.7576   	31.000000	0.00863383	
33.000000	16.7545   	33.000000	18.9687   	33.000000	17.9133   	33.000000	19.413    	33.000000	18.9605   	33.000000	0.00816452	
35.000000	16.0716   	35.000000	18.2392   	35.000000	17.2861   	35.000000	18.6425   	35.000000	18.2315   	35.000000	0.00774585	
38.000000	15.1594   	38.000000	17.2547   	38.000000	16.4312   	38.000000	17.6054   	38.000000	17.2475   	38.000000	0.00719596	
41.000000	14.359    	41.000000	16.3818   	41.000000	15.6671   	41.000000	16.6886   	41.000000	16.3751   	41.000000	0.00672221	
44.000000	13.6506   	44.000000	15.6024   	44.000000	14.9784   	44.000000	15.8722   	44.000000	15.5961   	44.000000	0.00630958	
47.000000	13.0189   	47.000000	14.9022   	47.000000	14.3556   	47.000000	15.1405   	47.000000	14.8963   	47.000000	0.0059468 	
50.000000	12.4518   	50.000000	14.2697   	50.000000	13.7883   	50.000000	14.4808   	50.000000	14.264    	50.000000	0.00562523	
55.000000	11.6248   	55.000000	13.3411   	55.000000	12.9509   	55.000000	13.5148   	55.000000	13.3359   	55.000000	0.0051632 	
60.000000	10.9172   	60.000000	12.5411   	60.000000	12.222    	60.000000	12.6849   	60.000000	12.5364   	60.000000	0.00477423	
65.000000	10.3043   	65.000000	11.8448   	65.000000	11.5819   	65.000000	11.9642   	65.000000	11.8404   	65.000000	0.00444204	
70.000000	9.76785   	70.000000	11.2331   	70.000000	11.0176   	70.000000	11.3325   	70.000000	11.229    	70.000000	0.0041549 	
75.000000	9.29416   	75.000000	10.6915   	75.000000	10.5147   	75.000000	10.7742   	75.000000	10.6876   	75.000000	0.00390411	
80.000000	8.87257   	80.000000	10.2087   	80.000000	10.064    	80.000000	10.2772   	80.000000	10.205    	80.000000	0.00368307	
85.000000	8.49475   	85.000000	9.7754    	85.000000	9.65754   	85.000000	9.83208   	85.000000	9.77192   	85.000000	0.00348673	
90.000000	8.15406   	90.000000	9.38452   	90.000000	9.28915   	90.000000	9.431     	90.000000	9.38121   	90.000000	0.00331111	
95.000000	7.84517   	95.000000	9.03007   	95.000000	8.95469   	95.000000	9.06779   	95.000000	9.02692   	95.000000	0.00315305	
100.000000	7.56373   	100.000000	8.70721   	100.000000	8.64763   	100.000000	8.73733   	100.000000	8.7042    	100.000000	0.00301   	
105.000000	7.30614   	105.000000	8.41188   	105.000000	8.3676    	105.000000	8.43538   	105.000000	8.409     	105.000000	0.0028799 	
110.000000	7.06943   	110.000000	8.14072   	110.000000	8.10871   	110.000000	8.15843   	110.000000	8.13796   	110.000000	0.00276104	
115.000000	6.85109   	115.000000	7.89088   	115.000000	7.8697    	115.000000	7.90349   	115.000000	7.88823   	115.000000	0.002652  	
120.000000	6.64903   	120.000000	7.65995   	120.000000	7.64834   	120.000000	7.66805   	120.000000	7.6574    	120.000000	0.0025516 	
125.000000	6.46143   	125.000000	7.44587   	125.000000	7.44253   	125.000000	7.44996   	125.000000	7.44341   	125.000000	0.00245884	
130.000000	6.28676   	130.000000	7.24685   	130.000000	7.25119   	130.000000	7.24738   	130.000000	7.24448   	130.000000	0.00237286	
135.000000	6.1237    	135.000000	7.06137   	135.000000	7.0722    	135.000000	7.05872   	135.000000	7.05908   	135.000000	0.00229293	
140.000000	5.9711    	140.000000	6.8881    	140.000000	6.90473   	140.000000	6.88259   	140.000000	6.88588   	140.000000	0.00221844	
145.000000	5.82796   	145.000000	6.72587   	145.000000	6.74808   	145.000000	6.7178    	145.000000	6.72372   	145.000000	0.00214883	
150.000000	5.6934    	150.000000	6.57366   	150.000000	6.60105   	150.000000	6.56329   	150.000000	6.57158   	150.000000	0.00208364	
155.000000	5.50165   	155.000000	6.43058   	155.000000	6.46189   	155.000000	6.41813   	155.000000	6.42856   	155.000000	0.00202245	
160.000000	5.39039   	160.000000	6.29583   	160.000000	6.3306    	160.000000	6.28149   	160.000000	6.29387   	160.000000	0.0019649 	
165.000000	5.2853    	165.000000	6.16871   	165.000000	6.20723   	165.000000	6.15267   	165.000000	6.1668    	165.000000	0.00191067	
170.000000	5.18586   	170.000000	6.04859   	170.000000	6.09037   	170.000000	6.03101   	170.000000	6.04673   	170.000000	0.00185947	
175.000000	5.09164   	175.000000	5.93492   	175.000000	5.97945   	175.000000	5.91593   	175.000000	5.9331    	175.000000	0.00181106	
180.000000	5.00223   	180.000000	5.82718   	180.000000	5.87441   	180.000000	5.80691   	180.000000	5.82541   	180.000000	0.00176521	
185.000000	4.91726   	185.000000	5.72493   	185.000000	5.77459   	185.000000	5.70351   	185.000000	5.72321   	185.000000	0.00172172	
190.000000	4.8364    	190.000000	5.62777   	190.000000	5.67944   	190.000000	5.60528   	190.000000	5.62608   	190.000000	0.00168041	
195.000000	4.75937   	195.000000	5.53531   	195.000000	5.58882   	195.000000	5.51187   	195.000000	5.53367   	195.000000	0.00164112	
200.000000	4.68589   	200.000000	5.44725   	200.000000	5.50255   	200.000000	5.42293   	200.000000	5.44564   	200.000000	0.00160369	
210.000000	4.54865   	210.000000	5.28308   	210.000000	5.34181   	210.000000	5.25724   	210.000000	5.28154   	210.000000	0.00153394	
220.000000	4.42298   	220.000000	5.13315   	220.000000	5.19434   	220.000000	5.10606   	220.000000	5.13168   	220.000000	0.00147024	
230.000000	4.30747   	230.000000	4.9957    	230.000000	5.05968   	230.000000	4.96758   	230.000000	4.99429   	230.000000	0.00141182	
240.000000	4.20093   	240.000000	4.86925   	240.000000	4.93501   	240.000000	4.84028   	240.000000	4.86789   	240.000000	0.00135804	
250.000000	4.10235   	250.000000	4.75255   	250.000000	4.81997   	250.000000	4.7229    	250.000000	4.75124   	250.000000	0.00130837	
260.000000	4.01087   	260.000000	4.64451   	260.000000	4.71364   	260.000000	4.61432   	260.000000	4.64325   	260.000000	0.00126235	
270.000000	3.92575   	270.000000	4.54423   	270.000000	4.6145    	270.000000	4.51361   	270.000000	4.54301   	270.000000	0.00121957	
280.000000	3.84635   	280.000000	4.45091   	280.000000	4.52224   	280.000000	4.41997   	280.000000	4.44973   	280.000000	0.00117972	
290.000000	3.77212   	290.000000	4.36386   	290.000000	4.43642   	290.000000	4.33269   	290.000000	4.36272   	290.000000	0.00114248	
300.000000	3.70256   	300.000000	4.28248   	300.000000	4.35617   	300.000000	4.25116   	300.000000	4.28137   	300.000000	0.00110762	
310.000000	3.63725   	310.000000	4.20624   	310.000000	4.28096   	310.000000	4.17484   	310.000000	4.20516   	310.000000	0.0010749 	
320.000000	3.57582   	320.000000	4.13468   	320.000000	4.21041   	320.000000	4.10327   	320.000000	4.13364   	320.000000	0.00104413	
330.000000	3.51794   	330.000000	4.0674    	330.000000	4.14387   	330.000000	4.03601   	330.000000	4.06638   	330.000000	0.00101515	
340.000000	3.46331   	340.000000	4.00402   	340.000000	4.08109   	340.000000	3.97272   	340.000000	4.00303   	340.000000	0.000987792	
350.000000	3.41167   	350.000000	3.94423   	350.000000	4.02191   	350.000000	3.91305   	350.000000	3.94327   	350.000000	0.000961927	
360.000000	3.36278   	360.000000	3.88774   	360.000000	3.96603   	360.000000	3.85672   	360.000000	3.8868    	360.000000	0.000937436	
370.000000	3.31644   	370.000000	3.83429   	370.000000	3.91289   	370.000000	3.80317   	370.000000	3.83337   	370.000000	0.000914208	
380.000000	3.27246   	380.000000	3.78365   	380.000000	3.86261   	380.000000	3.75248   	380.000000	3.78276   	380.000000	0.000892149	
390.000000	3.23066   	390.000000	3.73561   	390.000000	3.81486   	390.000000	3.70442   	390.000000	3.73474   	390.000000	0.00087117	
400.000000	3.19089   	400.000000	3.68998   	400.000000	3.76934   	400.000000	3.65881   	400.000000	3.68913   	400.000000	0.000851193	
410.000000	3.15301   	410.000000	3.6466    	410.000000	3.72607   	410.000000	3.61547   	410.000000	3.64577   	410.000000	0.000832147	
420.000000	3.1169    	420.000000	3.6053    	420.000000	3.68508   	420.000000	3.57424   	420.000000	3.60449   	420.000000	0.000813968	
430.000000	3.08244   	430.000000	3.56595   	430.000000	3.64607   	430.000000	3.53498   	430.000000	3.56515   	430.000000	0.000796597	
440.000000	3.04951   	440.000000	3.52842   	440.000000	3.60874   	440.000000	3.49756   	440.000000	3.52764   	440.000000	0.00077998	
450.000000	3.01804   	450.000000	3.49259   	450.000000	3.57303   	450.000000	3.46187   	450.000000	3.49182   	450.000000	0.000764069	
460.000000	2.98791   	460.000000	3.45835   	460.000000	3.53892   	460.000000	3.42778   	460.000000	3.4576    	460.000000	0.00074882	
470.000000	2.95907   	470.000000	3.42561   	470.000000	3.50635   	470.000000	3.3952    	470.000000	3.42487   	470.000000	0.00073419	
480.000000	2.93142   	480.000000	3.39427   	480.000000	3.47519   	480.000000	3.36403   	480.000000	3.39355   	480.000000	0.000720144	
490.000000	2.90491   	490.000000	3.36425   	490.000000	3.44535   	490.000000	3.3342    	490.000000	3.36355   	490.000000	0.000706645	
500.000000	2.87946   	500.000000	3.33548   	500.000000	3.41675   	500.000000	3.30562   	500.000000	3.33479   	500.000000	0.000693663	
520.000000	2.83153   	520.000000	3.28139   	520.000000	3.36301   	520.000000	3.25195   	520.000000	3.28072   	520.000000	0.000669132	
540.000000	2.78721   	540.000000	3.23149   	540.000000	3.31352   	540.000000	3.20248   	540.000000	3.23084   	540.000000	0.000646339	
560.000000	2.74614   	560.000000	3.18535   	560.000000	3.26769   	560.000000	3.15678   	560.000000	3.18472   	560.000000	0.000625105	
580.000000	2.708     	580.000000	3.14258   	580.000000	3.22505   	580.000000	3.11447   	580.000000	3.14197   	580.000000	0.000605272	
600.000000	2.67251   	600.000000	3.10286   	600.000000	3.18562   	600.000000	3.07521   	600.000000	3.10228   	600.000000	0.000586706	
620.000000	2.63944   	620.000000	3.06591   	620.000000	3.14904   	620.000000	3.0387    	620.000000	3.06534   	620.000000	0.000569286	
640.000000	2.60856   	640.000000	3.03146   	640.000000	3.1148    	640.000000	3.0047    	640.000000	3.03091   	640.000000	0.000552908	
660.000000	2.57969   	660.000000	2.99931   	660.000000	3.08275   	660.000000	2.97297   	660.000000	2.99877   	660.000000	0.000537481	
680.000000	2.55267   	680.000000	2.96924   	680.000000	3.0528    	680.000000	2.94331   	680.000000	2.96872   	680.000000	0.000522923	
700.000000	2.52734   	700.000000	2.9411    	700.000000	3.02485   	700.000000	2.91555   	700.000000	2.94059   	700.000000	0.000509162	
720.000000	2.50357   	720.000000	2.91471   	720.000000	2.99874   	720.000000	2.88953   	720.000000	2.91421   	720.000000	0.000496132	
740.000000	2.48124   	740.000000	2.88995   	740.000000	2.97421   	740.000000	2.86511   	740.000000	2.88946   	740.000000	0.000483778	
760.000000	2.46025   	760.000000	2.86668   	760.000000	2.95106   	760.000000	2.84216   	760.000000	2.86621   	760.000000	0.000472046	
780.000000	2.44049   	780.000000	2.8448    	780.000000	2.92922   	780.000000	2.82057   	780.000000	2.84434   	780.000000	0.000460891	
800.000000	2.42189   	800.000000	2.8242    	800.000000	2.90864   	800.000000	2.80023   	800.000000	2.82375   	800.000000	0.00045027	
820.000000	2.40435   	820.000000	2.80479   	820.000000	2.88926   	820.000000	2.78105   	820.000000	2.80435   	820.000000	0.000440145	
840.000000	2.38782   	840.000000	2.78649   	840.000000	2.87097   	840.000000	2.76295   	840.000000	2.78606   	840.000000	0.000430482	
860.000000	2.37221   	860.000000	2.76923   	860.000000	2.8537    	860.000000	2.74585   	860.000000	2.76881   	860.000000	0.00042125	
880.000000	2.35749   	880.000000	2.75293   	880.000000	2.83735   	880.000000	2.72968   	880.000000	2.75251   	880.000000	0.00041242	
900.000000	2.34358   	900.000000	2.73753   	900.000000	2.82182   	900.000000	2.71438   	900.000000	2.73712   	900.000000	0.000403966	
920.000000	2.33044   	920.000000	2.72297   	920.000000	2.80707   	920.000000	2.69989   	920.000000	2.72258   	920.000000	0.000395865	
940.000000	2.31802   	940.000000	2.70921   	940.000000	2.79307   	940.000000	2.68616   	940.000000	2.70882   	940.000000	0.000388094	
960.000000	2.30629   	960.000000	2.69619   	960.000000	2.77982   	960.000000	2.67314   	960.000000	2.69581   	960.000000	0.000380633	
980.000000	2.29519   	980.000000	2.68387   	980.000000	2.76728   	980.000000	2.66078   	980.000000	2.68349   	980.000000	0.000373464	
1000.000000	2.2847    	1000.000000	2.6722    	1000.000000	2.7554    	1000.000000	2.64905   	1000.000000	2.67184   	1000.000000	0.00036657	
1020.000000	2.27478   	1020.000000	2.66116   	1020.000000	2.74412   	1020.000000	2.6379    	1020.000000	2.6608    	1020.000000	0.000359935	
1040.000000	2.2654    	1040.000000	2.6507    	1040.000000	2.73341   	1040.000000	2.6273    	1040.000000	2.65034   	1040.000000	0.000353545	
1060.000000	2.25654   	1060.000000	2.64079   	1060.000000	2.72321   	1060.000000	2.61722   	1060.000000	2.64044   	1060.000000	0.000347386	
1080.000000	2.24816   	1080.000000	2.6314    	1080.000000	2.71349   	1080.000000	2.60763   	1080.000000	2.63106   	1080.000000	0.000341446	
1100.000000	2.24024   	1100.000000	2.62251   	1100.000000	2.70421   	1100.000000	2.5985    	1100.000000	2.62218   	1100.000000	0.000335713	
1120.000000	2.23276   	1120.000000	2.61409   	1120.000000	2.69535   	1120.000000	2.5898    	1120.000000	2.61376   	1120.000000	0.000330176	
1140.000000	2.2257    	1140.000000	2.60611   	1140.000000	2.68688   	1140.000000	2.58152   	1140.000000	2.60579   	1140.000000	0.000324826	
1160.000000	2.21903   	1160.000000	2.59855   	1160.000000	2.6788    	1160.000000	2.57362   	1160.000000	2.59823   	1160.000000	0.000319652	
1180.000000	2.21274   	1180.000000	2.5914    	1180.000000	2.6711    	1180.000000	2.56609   	1180.000000	2.59108   	1180.000000	0.000314647	
1200.000000	2.20681   	1200.000000	2.58462   	1200.000000	2.66376   	1200.000000	2.5589    	1200.000000	2.58431   	1200.000000	0.000309802	
1220.000000	2.20122   	1220.000000	2.57821   	1220.000000	2.65678   	1220.000000	2.55205   	1220.000000	2.5779    	1220.000000	0.000305109	
1240.000000	2.19596   	1240.000000	2.57214   	1240.000000	2.65014   	1240.000000	2.54551   	1240.000000	2.57184   	1240.000000	0.000300561	
1260.000000	2.19101   	1260.000000	2.5664    	1260.000000	2.64381   	1260.000000	2.53927   	1260.000000	2.56611   	1260.000000	0.000296152	
1280.000000	2.18637   	1280.000000	2.56098   	1280.000000	2.63776   	1280.000000	2.53331   	1280.000000	2.56069   	1280.000000	0.000291875	
1300.000000	2.182     	1300.000000	2.55585   	1300.000000	2.63197   	1300.000000	2.52761   	1300.000000	2.55557   	1300.000000	0.000287724	
1320.000000	2.17792   	1320.000000	2.55102   	1320.000000	2.62643   	1320.000000	2.52218   	1320.000000	2.55073   	1320.000000	0.000283694	
1340.000000	2.1741    	1340.000000	2.54645   	1340.000000	2.62112   	1340.000000	2.51698   	1340.000000	2.54617   	1340.000000	0.000279779	
1360.000000	2.17053   	1360.000000	2.54215   	1360.000000	2.61604   	1360.000000	2.51202   	1360.000000	2.54187   	1360.000000	0.000275975	
1380.000000	2.1672    	1380.000000	2.5381    	1380.000000	2.61117   	1380.000000	2.50728   	1380.000000	2.53783   	1380.000000	0.000272277	
1400.000000	2.1641    	1400.000000	2.53429   	1400.000000	2.60651   	1400.000000	2.50274   	1400.000000	2.53402   	1400.000000	0.00026868	
1420.000000	2.16123   	1420.000000	2.5307    	1420.000000	2.60205   	1420.000000	2.49841   	1420.000000	2.53044   	1420.000000	0.00026518	
1440.000000	2.15858   	1440.000000	2.52734   	1440.000000	2.59779   	1440.000000	2.49427   	1440.000000	2.52708   	1440.000000	0.000261773	
1460.000000	2.15613   	1460.000000	2.52419   	1460.000000	2.59372   	1460.000000	2.49031   	1460.000000	2.52394   	1460.000000	0.000258457	
1480.000000	2.15388   	1480.000000	2.52125   	1480.000000	2.58983   	1480.000000	2.48653   	1480.000000	2.52099   	1480.000000	0.000255226	
1500.000000	2.15182   	1500.000000	2.5185    	1500.000000	2.58611   	1500.000000	2.48291   	1500.000000	2.51825   	1500.000000	0.000252078	
1520.000000	2.14994   	1520.000000	2.51594   	1520.000000	2.58256   	1520.000000	2.47945   	1520.000000	2.51569   	1520.000000	0.000249009	
1540.000000	2.14825   	1540.000000	2.51355   	1540.000000	2.57916   	1540.000000	2.47615   	1540.000000	2.51331   	1540.000000	0.000246017	
1560.000000	2.14672   	1560.000000	2.51134   	1560.000000	2.5759    	1560.000000	2.47299   	1560.000000	2.5111    	1560.000000	0.000243098	
1580.000000	2.14536   	1580.000000	2.5093    	1580.000000	2.57279   	1580.000000	2.46997   	1580.000000	2.50906   	1580.000000	0.000240251	
1600.000000	2.14417   	1600.000000	2.50742   	1600.000000	2.56982   	1600.000000	2.46709   	1600.000000	2.50718   	1600.000000	0.000237471	
1620.000000	2.14312   	1620.000000	2.5057    	1620.000000	2.56697   	1620.000000	2.46433   	1620.000000	2.50546   	1620.000000	0.000234758	
1640.000000	2.14223   	1640.000000	2.50412   	1640.000000	2.56424   	1640.000000	2.4617    	1640.000000	2.50389   	1640.000000	0.000232108	
1660.000000	2.14148   	1660.000000	2.50269   	1660.000000	2.56164   	1660.000000	2.45918   	1660.000000	2.50246   	1660.000000	0.00022952	
1680.000000	2.14087   	1680.000000	2.50139   	1680.000000	2.55915   	1680.000000	2.45678   	1680.000000	2.50117   	1680.000000	0.00022699	
1700.000000	2.1404    	1700.000000	2.50023   	1700.000000	2.55677   	1700.000000	2.45449   	1700.000000	2.50001   	1700.000000	0.000224518	
1750.000000	2.13978   	1750.000000	2.49789   	1750.000000	2.55128   	1750.000000	2.44921   	1750.000000	2.49767   	1750.000000	0.000218575	
1800.000000	2.13992   	1800.000000	2.49629   	1800.000000	2.5464    	1800.000000	2.44453   	1800.000000	2.49608   	1800.000000	0.000212949	
1850.000000	2.14076   	1850.000000	2.49538   	1850.000000	2.54208   	1850.000000	2.44038   	1850.000000	2.49517   	1850.000000	0.000207615	
1900.000000	2.14225   	1900.000000	2.49509   	1900.000000	2.53826   	1900.000000	2.43672   	1900.000000	2.49489   	1900.000000	0.000202552	
1950.000000	2.14435   	1950.000000	2.49539   	1950.000000	2.5349    	1950.000000	2.4335    	1950.000000	2.49519   	1950.000000	0.000197737	
2000.000000	2.14702   	2000.000000	2.49622   	2000.000000	2.53195   	2000.000000	2.43069   	2000.000000	2.49603   	2000.000000	0.000193154	
2100.000000	2.15391   	2100.000000	2.49935   	2100.000000	2.52714   	2100.000000	2.42614   	2100.000000	2.49916   	2100.000000	0.000184618	
2200.000000	2.16266   	2200.000000	2.5042    	2200.000000	2.5236    	2200.000000	2.42284   	2200.000000	2.50402   	2200.000000	0.000176828	
2300.000000	2.17306   	2300.000000	2.51056   	2300.000000	2.52113   	2300.000000	2.42058   	2300.000000	2.51039   	2300.000000	0.000169691	
2400.000000	2.18492   	2400.000000	2.51823   	2400.000000	2.51957   	2400.000000	2.41921   	2400.000000	2.51806   	2400.000000	0.000163125	
2500.000000	2.19811   	2500.000000	2.52705   	2500.000000	2.51879   	2500.000000	2.41858   	2500.000000	2.52689   	2500.000000	0.000157065	
2600.000000	2.21248   	2600.000000	2.5369    	2600.000000	2.51867   	2600.000000	2.4186    	2600.000000	2.53674   	2600.000000	0.000151454	
2700.000000	2.22792   	2700.000000	2.54765   	2700.000000	2.5191    	2700.000000	2.41915   	2700.000000	2.5475    	2700.000000	0.000146242	
2800.000000	2.24434   	2800.000000	2.55921   	2800.000000	2.52      	2800.000000	2.42018   	2800.000000	2.55907   	2800.000000	0.000141389	
2900.000000	2.26166   	2900.000000	2.57149   	2900.000000	2.52131   	2900.000000	2.4216    	2900.000000	2.57136   	2900.000000	0.000136858	
3000.000000	2.27981   	3000.000000	2.58443   	3000.000000	2.52295   	3000.000000	2.42337   	3000.000000	2.58429   	3000.000000	0.000132618	
3200.000000	2.31832   	3200.000000	2.61199   	3200.000000	2.52709   	3200.000000	2.42775   	3200.000000	2.61187   	3200.000000	0.000124904	
3400.000000	2.35946   	3400.000000	2.64148   	3400.000000	2.53212   	3400.000000	2.433     	3400.000000	2.64137   	3400.000000	0.000118064	
3600.000000	2.40289   	3600.000000	2.67257   	3600.000000	2.53781   	3600.000000	2.4389    	3600.000000	2.67246   	3600.000000	0.000111957	
3800.000000	2.44835   	3800.000000	2.70499   	3800.000000	2.54398   	3800.000000	2.44527   	3800.000000	2.70488   	3800.000000	0.00010647	
4000.000000	2.49564   	4000.000000	2.73853   	4000.000000	2.55052   	4000.000000	2.45199   	4000.000000	2.73843   	4000.000000	0.000101512	
4200.000000	2.54456   	4200.000000	2.77303   	4200.000000	2.5573    	4200.000000	2.45894   	4200.000000	2.77293   	4200.000000	9.70087e-05	
4400.000000	2.59499   	4400.000000	2.80834   	4400.000000	2.56426   	4400.000000	2.46606   	4400.000000	2.80825   	4400.000000	9.29003e-05	
4600.000000	2.64679   	4600.000000	2.84436   	4600.000000	2.57132   	4600.000000	2.47328   	4600.000000	2.84427   	4600.000000	8.91363e-05	
4800.000000	2.69988   	4800.000000	2.88098   	4800.000000	2.57845   	4800.000000	2.48055   	4800.000000	2.88089   	4800.000000	8.56748e-05	
5000.000000	2.75417   	5000.000000	2.91813   	5000.000000	2.5856    	5000.000000	2.48784   	5000.000000	2.91805   	5000.000000	8.24803e-05	
5250.000000	2.8236    	5250.000000	2.96521   	5250.000000	2.59454   	5250.000000	2.49694   	5250.000000	2.96513   	5250.000000	7.88173e-05	
5500.000000	2.89467   	5500.000000	3.0129    	5500.000000	2.60343   	5500.000000	2.50598   	5500.000000	3.01282   	5500.000000	7.54755e-05	
6000.000000	3.04136   	6000.000000	3.10977   	6000.000000	2.62094   	6000.000000	2.52378   	6000.000000	3.1097    	6000.000000	6.95989e-05	
6500.000000	3.19362   	6500.000000	3.20818   	6500.000000	2.63801   	6500.000000	2.54108   	6500.000000	3.20811   	6500.000000	6.45958e-05	
7000.000000	3.351     	7000.000000	3.30774   	7000.000000	2.65453   	7000.000000	2.5578    	7000.000000	3.30768   	7000.000000	6.02833e-05	
7500.000000	3.5132    	7500.000000	3.40817   	7500.000000	2.67031   	7500.000000	2.57391   	7500.000000	3.40811   	7500.000000	5.65264e-05	
8000.000000	3.67995   	8000.000000	3.50925   	8000.000000	2.68556   	8000.000000	2.58942   	8000.000000	3.5092    	8000.000000	5.32232e-05	
8500.000000	3.85106   	8500.000000	3.61084   	8500.000000	2.70022   	8500.000000	2.60433   	8500.000000	3.61079   	8500.000000	5.02955e-05	
9000.000000	4.0264    	9000.000000	3.7128    	9000.000000	2.71426   	9000.000000	2.61867   	9000.000000	3.71276   	9000.000000	4.76822e-05	
9500.000000	4.20584   	9500.000000	3.81505   	9500.000000	2.72773   	9500.000000	2.63246   	9500.000000	3.81501   	9500.000000	4.53347e-05	
10000.000000	4.38929   	10000.000000	3.91752   	10000.000000	2.74069   	10000.000000	2.64574   	10000.000000	3.91747   	10000.000000	4.3214e-05	
11000.000000	4.76794   	11000.000000	4.12287   	11000.000000	2.76515   	11000.000000	2.67083   	11000.000000	4.12283   	11000.000000	3.95322e-05	
12000.000000	5.16192   	12000.000000	4.32852   	12000.000000	2.78784   	12000.000000	2.69418   	12000.000000	4.32848   	12000.000000	3.64443e-05	
13000.000000	5.57091   	13000.000000	4.53425   	13000.000000	2.80899   	13000.000000	2.71597   	13000.000000	4.53421   	13000.000000	3.38162e-05	
14000.000000	5.99473   	14000.000000	4.73992   	14000.000000	2.8288    	14000.000000	2.73637   	14000.000000	4.73989   	14000.000000	3.15515e-05	
15000.000000	6.43325   	15000.000000	4.94543   	15000.000000	2.84736   	15000.000000	2.75554   	15000.000000	4.9454    	15000.000000	2.95791e-05	
16000.000000	6.88637   	16000.000000	5.15072   	16000.000000	2.8647    	16000.000000	2.77361   	16000.000000	5.15069   	16000.000000	2.78453e-05	
17000.000000	7.35405   	17000.000000	5.35574   	17000.000000	2.88094   	17000.000000	2.79068   	17000.000000	5.35571   	17000.000000	2.63088e-05	
18000.000000	7.83627   	18000.000000	5.56047   	18000.000000	2.89619   	18000.000000	2.80686   	18000.000000	5.56044   	18000.000000	2.49377e-05	
19000.000000	8.33302   	19000.000000	5.76488   	19000.000000	2.91058   	19000.000000	2.82222   	19000.000000	5.76485   	19000.000000	2.37062e-05	
20000.000000	8.8443    	20000.000000	5.96897   	20000.000000	2.92421   	20000.000000	2.83685   	20000.000000	5.96894   	20000.000000	2.25939e-05	
21000.000000	9.37013   	21000.000000	6.17272   	21000.000000	2.93717   	21000.000000	2.85081   	21000.000000	6.1727    	21000.000000	2.15842e-05	
22000.000000	9.91056   	22000.000000	6.37615   	22000.000000	2.94953   	22000.000000	2.86414   	22000.000000	6.37613   	22000.000000	2.06633e-05	
23000.000000	10.4656   	23000.000000	6.57924   	23000.000000	2.96124   	23000.000000	2.87692   	23000.000000	6.57922   	23000.000000	1.98199e-05	
24000.000000	11.0353   	24000.000000	6.782     	24000.000000	2.9724    	24000.000000	2.88916   	24000.000000	6.78198   	24000.000000	1.90446e-05	
25000.000000	11.6198   	25000.000000	6.98443   	25000.000000	2.9831    	25000.000000	2.90093   	25000.000000	6.98442   	25000.000000	1.83293e-05	
26000.000000	12.219    	26000.000000	7.18655   	26000.000000	2.99333   	26000.000000	2.91225   	26000.000000	7.18653   	26000.000000	1.76673e-05	
27000.000000	12.833    	27000.000000	7.38834   	27000.000000	3.0031    	27000.000000	2.92316   	27000.000000	7.38832   	27000.000000	1.70528e-05	
28000.000000	13.462    	28000.000000	7.58982   	28000.000000	3.01244   	28000.000000	2.93367   	28000.000000	7.58981   	28000.000000	1.64807e-05	
29000.000000	14.1059   	29000.000000	7.791     	29000.000000	3.02139   	29000.000000	2.94383   	29000.000000	7.79099   	29000.000000	1.59469e-05	
30000.000000	14.7648   	30000.000000	7.99188   	30000.000000	3.02998   	30000.000000	2.95365   	30000.000000	7.99187   	30000.000000	1.54475e-05	
32000.000000	16.128    	32000.000000	8.39277   	32000.000000	3.04615   	32000.000000	2.97235   	32000.000000	8.39276   	32000.000000	1.45395e-05	
34000.000000	17.5521   	34000.000000	8.79254   	34000.000000	3.06111   	34000.000000	2.98994   	34000.000000	8.79253   	34000.000000	1.3735e-05	
36000.000000	19.0377   	36000.000000	9.19124   	36000.000000	3.07499   	36000.000000	3.00653   	36000.000000	9.19122   	36000.000000	1.30171e-05	
38000.000000	20.5856   	38000.000000	9.58891   	38000.000000	3.08793   	38000.000000	3.02223   	38000.000000	9.58889   	38000.000000	1.23725e-05	
40000.000000	22.1961   	40000.000000	9.9856    	40000.000000	3.1       	40000.000000	3.03713   	40000.000000	9.98558   	40000.000000	1.17904e-05	
42000.000000	23.8702   	42000.000000	10.3813   	42000.000000	3.11128   	42000.000000	3.0513    	42000.000000	10.3813   	42000.000000	1.12621e-05	
44000.000000	25.6082   	44000.000000	10.7762   	44000.000000	3.12185   	44000.000000	3.06481   	44000.000000	10.7762   	44000.000000	1.07803e-05	
46000.000000	27.4111   	46000.000000	11.1702   	46000.000000	3.1318    	46000.000000	3.07772   	46000.000000	11.1702   	46000.000000	1.03391e-05	
48000.000000	29.2794   	48000.000000	11.5633   	48000.000000	3.14119   	48000.000000	3.09009   	48000.000000	11.5633   	48000.000000	9.93352e-06	
50000.000000	31.2138   	50000.000000	11.9557   	50000.000000	3.14997   	50000.000000	3.10194   	50000.000000	11.9557   	50000.000000	9.55943e-06	
