0.001000	0.198835  	0.001000	0.225541  	0.001000	0.287769  	0.001000	0.287769  	0.001000	0.205826  	0.001000	0.0197142 	
0.002000	0.241703  	0.002000	0.276781  	0.002000	0.333215  	0.002000	0.333215  	0.002000	0.262338  	0.002000	0.0144427 	
0.005000	0.321167  	0.005000	0.370091  	0.005000	0.4094    	0.005000	0.4094    	0.005000	0.361527  	0.005000	0.0085647 	
0.008000	0.374726  	0.008000	0.432476  	0.008000	0.457118  	0.008000	0.457118  	0.008000	0.42617   	0.008000	0.00630637	
0.010000	0.403699  	0.010000	0.466202  	0.010000	0.48209   	0.010000	0.48209   	0.010000	0.460788  	0.010000	0.00541411	
0.015000	0.487402  	0.015000	0.530606  	0.015000	0.531553  	0.015000	0.531553  	0.015000	0.526581  	0.015000	0.00402497	
0.020000	0.555885  	0.020000	0.580911  	0.020000	0.570126  	0.020000	0.570126  	0.020000	0.577652  	0.020000	0.00325971	
0.025000	0.612489  	0.025000	0.6216    	0.025000	0.602145  	0.025000	0.602145  	0.025000	0.618843  	0.025000	0.00275731	
0.030000	0.65898   	0.030000	0.655025  	0.030000	0.636793  	0.030000	0.636793  	0.030000	0.652625  	0.030000	0.00239958	
0.035000	0.696513  	0.035000	0.682617  	0.035000	0.665673  	0.035000	0.665673  	0.035000	0.680486  	0.035000	0.00213057	
0.040000	0.725995  	0.040000	0.705346  	0.040000	0.689713  	0.040000	0.689713  	0.040000	0.703426  	0.040000	0.00192017	
0.045000	0.74824   	0.045000	0.723922  	0.045000	0.709594  	0.045000	0.709594  	0.045000	0.722172  	0.045000	0.00175067	
0.050000	0.764027  	0.050000	0.738898  	0.050000	0.725846  	0.050000	0.725846  	0.050000	0.737287  	0.050000	0.00161091	
0.055000	0.774127  	0.055000	0.75072   	0.055000	0.738904  	0.055000	0.738904  	0.055000	0.749227  	0.055000	0.00149349	
0.060000	0.779293  	0.060000	0.759767  	0.060000	0.749132  	0.060000	0.749132  	0.060000	0.758374  	0.060000	0.00139333	
0.070000	0.77771   	0.070000	0.770793  	0.070000	0.762335  	0.070000	0.762335  	0.070000	0.769562  	0.070000	0.00123118	
0.080000	0.764581  	0.080000	0.774143  	0.080000	0.767594  	0.080000	0.767594  	0.080000	0.773037  	0.080000	0.00110525	
0.090000	0.744271  	0.090000	0.771545  	0.090000	0.766636  	0.090000	0.766636  	0.090000	0.77054   	0.090000	0.00100437	
0.100000	0.720087  	0.100000	0.764406  	0.100000	0.760885  	0.100000	0.760885  	0.100000	0.763485  	0.100000	0.000921581	
0.120000	0.668606  	0.120000	0.740879  	0.120000	0.739474  	0.120000	0.739474  	0.120000	0.740086  	0.120000	0.000793439	
0.140000	0.620322  	0.140000	0.710342  	0.140000	0.710365  	0.140000	0.710365  	0.140000	0.709643  	0.140000	0.000698538	
0.160000	0.578404  	0.160000	0.67709   	0.160000	0.67806   	0.160000	0.67806   	0.160000	0.676465  	0.160000	0.000625202	
0.180000	0.542987  	0.180000	0.643705  	0.180000	0.645298  	0.180000	0.645298  	0.180000	0.643138  	0.180000	0.000566698	
0.200000	0.513187  	0.200000	0.61163   	0.200000	0.613632  	0.200000	0.613632  	0.200000	0.611111  	0.200000	0.000518854	
0.250000	0.456593  	0.250000	0.540885  	0.250000	0.543391  	0.250000	0.543391  	0.250000	0.540455  	0.250000	0.000430037	
0.300000	0.416239  	0.300000	0.484314  	0.300000	0.486967  	0.300000	0.486967  	0.300000	0.483946  	0.300000	0.000368546	
0.350000	0.385252  	0.350000	0.439513  	0.350000	0.44216   	0.350000	0.44216   	0.350000	0.43919   	0.350000	0.000323275	
0.400000	0.360125  	0.400000	0.403605  	0.400000	0.406167  	0.400000	0.406167  	0.400000	0.403316  	0.400000	0.000288459	
0.450000	0.338977  	0.450000	0.374278  	0.450000	0.376716  	0.450000	0.376716  	0.450000	0.374017  	0.450000	0.000260793	
0.500000	0.320724  	0.500000	0.349853  	0.500000	0.352146  	0.500000	0.352146  	0.500000	0.349615  	0.500000	0.000238244	
0.600000	0.290423  	0.600000	0.311295  	0.600000	0.313282  	0.600000	0.313282  	0.600000	0.311092  	0.600000	0.000203628	
0.700000	0.266     	0.700000	0.281937  	0.700000	0.28363   	0.700000	0.28363   	0.700000	0.281759  	0.700000	0.000178227	
0.800000	0.245742  	0.800000	0.258589  	0.800000	0.260016  	0.800000	0.260016  	0.800000	0.25843   	0.800000	0.000158745	
0.900000	0.228602  	0.900000	0.23942   	0.900000	0.240616  	0.900000	0.240616  	0.900000	0.239277  	0.900000	0.000143299	
1.000000	0.213877  	1.000000	0.223307  	1.000000	0.224303  	1.000000	0.224303  	1.000000	0.223176  	1.000000	0.000130735	
1.250000	0.184691  	1.250000	0.19211   	1.250000	0.192719  	1.250000	0.192719  	1.250000	0.192002  	1.250000	0.000107579	
1.500000	0.162947  	1.500000	0.169324  	1.500000	0.169664  	1.500000	0.169664  	1.500000	0.169233  	1.500000	9.16851e-05	
1.750000	0.146068  	1.750000	0.151811  	1.750000	0.151958  	1.750000	0.151958  	1.750000	0.151731  	1.750000	8.0063e-05	
2.000000	0.132556  	2.000000	0.137862  	2.000000	0.13787   	2.000000	0.13787   	2.000000	0.13779   	2.000000	7.11737e-05	
2.250000	0.121475  	2.250000	0.126453  	2.250000	0.126359  	2.250000	0.126359  	2.250000	0.126389  	2.250000	6.41425e-05	
2.500000	0.11173   	2.500000	0.116928  	2.500000	0.116757  	2.500000	0.116757  	2.500000	0.11687   	2.500000	5.84344e-05	
3.000000	0.0975606 	3.000000	0.101883  	3.000000	0.101606  	3.000000	0.101606  	3.000000	0.101833  	3.000000	4.97135e-05	
3.500000	0.0868065 	3.500000	0.0904951 	3.500000	0.0901547 	3.500000	0.0901547 	3.500000	0.0904518 	3.500000	4.33494e-05	
4.000000	0.0783425 	4.000000	0.0815485 	4.000000	0.0811688 	4.000000	0.0811688 	4.000000	0.08151   	4.000000	3.849e-05 	
4.500000	0.0714933 	4.500000	0.0743176 	4.500000	0.0739138 	4.500000	0.0739138 	4.500000	0.074283  	4.500000	3.46519e-05	
5.000000	0.0658281 	5.000000	0.0683419 	5.000000	0.0679235 	5.000000	0.0679235 	5.000000	0.0683103 	5.000000	3.15397e-05	
5.500000	0.0610583 	5.500000	0.0633137 	5.500000	0.0628872 	5.500000	0.0628872 	5.500000	0.0632848 	5.500000	2.89628e-05	
6.000000	0.056983  	6.000000	0.0590196 	6.000000	0.0585891 	6.000000	0.0585891 	6.000000	0.0589928 	6.000000	2.67922e-05	
6.500000	0.0534578 	6.500000	0.0553062 	6.500000	0.0548748 	6.500000	0.0548748 	6.500000	0.0552813 	6.500000	2.49376e-05	
7.000000	0.0503763 	7.000000	0.0520608 	7.000000	0.0516304 	7.000000	0.0516304 	7.000000	0.0520374 	7.000000	2.33337e-05	
7.500000	0.0476579 	7.500000	0.0491982 	7.500000	0.0487703 	7.500000	0.0487703 	7.500000	0.0491762 	7.500000	2.19322e-05	
8.000000	0.0452408 	8.000000	0.046653  	8.000000	0.0462287 	8.000000	0.0462287 	8.000000	0.0466323 	8.000000	2.06966e-05	
8.500000	0.0430766 	8.500000	0.0443741 	8.500000	0.043954  	8.500000	0.043954  	8.500000	0.0443545 	8.500000	1.95986e-05	
9.000000	0.0411268 	9.000000	0.0423209 	9.000000	0.0419054 	9.000000	0.0419054 	9.000000	0.0423023 	9.000000	1.86162e-05	
9.500000	0.0393604 	9.500000	0.0404607 	9.500000	0.0400501 	9.500000	0.0400501 	9.500000	0.0404429 	9.500000	1.77318e-05	
10.000000	0.0377522 	10.000000	0.0382622 	10.000000	0.0383615 	10.000000	0.0383615 	10.000000	0.0382452 	10.000000	1.69311e-05	
11.000000	0.0349308 	11.000000	0.0354668 	11.000000	0.0353754 	11.000000	0.0353757 	11.000000	0.0354513 	11.000000	1.55371e-05	
12.000000	0.0325348 	12.000000	0.0330789 	12.000000	0.0328516 	12.000000	0.0328522 	12.000000	0.0330645 	12.000000	1.43638e-05	
13.000000	0.030473  	13.000000	0.0310144 	13.000000	0.0306913 	13.000000	0.0306917 	13.000000	0.031001  	13.000000	1.33621e-05	
14.000000	0.0286789 	14.000000	0.029211  	14.000000	0.0288214 	14.000000	0.0288214 	14.000000	0.0291985 	14.000000	1.24963e-05	
15.000000	0.0271027 	15.000000	0.0276216 	15.000000	0.0271867 	15.000000	0.0271868 	15.000000	0.0276098 	15.000000	1.17403e-05	
16.000000	0.0257062 	16.000000	0.0262096 	16.000000	0.0257468 	16.000000	0.0257465 	16.000000	0.0261985 	16.000000	1.10741e-05	
17.000000	0.0244599 	17.000000	0.0249466 	17.000000	0.0244694 	17.000000	0.0244682 	17.000000	0.0249362 	17.000000	1.04824e-05	
18.000000	0.0233404 	18.000000	0.0238099 	18.000000	0.0233281 	18.000000	0.0233264 	18.000000	0.0238    	18.000000	9.95327e-06	
19.000000	0.0223288 	19.000000	0.0227811 	19.000000	0.0223025 	19.000000	0.0223008 	19.000000	0.0227717 	19.000000	9.47709e-06	
20.000000	0.0214101 	20.000000	0.0218454 	20.000000	0.0213767 	20.000000	0.021375  	20.000000	0.0218364 	20.000000	9.0462e-06	
21.000000	0.0205717 	21.000000	0.0209906 	21.000000	0.0205373 	21.000000	0.0205355 	21.000000	0.0209819 	21.000000	8.65435e-06	
22.000000	0.0198034 	22.000000	0.0202063 	22.000000	0.0197729 	22.000000	0.0197712 	22.000000	0.020198  	22.000000	8.2964e-06	
23.000000	0.0190966 	23.000000	0.0194841 	23.000000	0.0190745 	23.000000	0.0190727 	23.000000	0.0194762 	23.000000	7.96807e-06	
24.000000	0.018444  	24.000000	0.0188169 	24.000000	0.0184347 	24.000000	0.0184322 	24.000000	0.0188092 	24.000000	7.66577e-06	
25.000000	0.0178395 	25.000000	0.0181984 	25.000000	0.0178469 	25.000000	0.0178433 	25.000000	0.018191  	25.000000	7.3865e-06	
27.000000	0.0167548 	27.000000	0.0170875 	27.000000	0.0168026 	27.000000	0.0167981 	27.000000	0.0170807 	27.000000	6.8871e-06	
29.000000	0.0158086 	29.000000	0.0161177 	29.000000	0.0159051 	29.000000	0.0159007 	29.000000	0.0161113 	29.000000	6.45341e-06	
31.000000	0.0149756 	31.000000	0.0152633 	31.000000	0.0150976 	31.000000	0.0150931 	31.000000	0.0152573 	31.000000	6.07311e-06	
33.000000	0.0142362 	33.000000	0.0145047 	33.000000	0.0143541 	33.000000	0.0143498 	33.000000	0.0144989 	33.000000	5.73678e-06	
35.000000	0.0135753 	35.000000	0.0138263 	35.000000	0.0136885 	35.000000	0.0136847 	35.000000	0.0138209 	35.000000	5.43713e-06	
38.000000	0.0127051 	38.000000	0.0129331 	38.000000	0.0128133 	38.000000	0.0128082 	38.000000	0.012928  	38.000000	5.04414e-06	
41.000000	0.0119535 	41.000000	0.0121615 	41.000000	0.0120555 	41.000000	0.0120502 	41.000000	0.0121568 	41.000000	4.70611e-06	
44.000000	0.0112973 	44.000000	0.0114881 	44.000000	0.0113928 	44.000000	0.011388  	44.000000	0.0114837 	44.000000	4.41212e-06	
47.000000	0.0107192 	47.000000	0.010895  	47.000000	0.0108087 	47.000000	0.0108041 	47.000000	0.0108909 	47.000000	4.15401e-06	
50.000000	0.0102057 	50.000000	0.0103685 	50.000000	0.0102895 	50.000000	0.0102853 	50.000000	0.0103645 	50.000000	3.9255e-06	
55.000000	0.00946597	55.000000	0.00961065	55.000000	0.00954155	55.000000	0.0095376 	55.000000	0.00960705	55.000000	3.59767e-06	
60.000000	0.00884144	60.000000	0.00897158	60.000000	0.00891011	60.000000	0.00890621	60.000000	0.00896826	60.000000	3.32216e-06	
65.000000	0.00830663	65.000000	0.0084251 	65.000000	0.00837018	65.000000	0.00836557	65.000000	0.00842201	65.000000	3.08724e-06	
70.000000	0.00784316	70.000000	0.00795222	70.000000	0.00790138	70.000000	0.00789719	70.000000	0.00794933	70.000000	2.88446e-06	
75.000000	0.00743736	75.000000	0.00753886	75.000000	0.00749128	75.000000	0.00748732	75.000000	0.00753616	75.000000	2.70758e-06	
80.000000	0.00707889	80.000000	0.00717434	80.000000	0.00712926	80.000000	0.00712552	80.000000	0.00717179	80.000000	2.55187e-06	
85.000000	0.00675975	85.000000	0.00685039	85.000000	0.00680724	85.000000	0.0068037 	85.000000	0.00684798	85.000000	2.41371e-06	
90.000000	0.00647368	90.000000	0.00656053	90.000000	0.00651891	90.000000	0.00651552	90.000000	0.00655824	90.000000	2.29025e-06	
95.000000	0.00621567	95.000000	0.0062996 	95.000000	0.00625993	95.000000	0.0062559 	95.000000	0.00629742	95.000000	2.17925e-06	
100.000000	0.0059817 	100.000000	0.00606343	100.000000	0.00602462	100.000000	0.00602077	100.000000	0.00606135	100.000000	2.07888e-06	
105.000000	0.00576847	105.000000	0.00584862	105.000000	0.00581046	105.000000	0.00580678	105.000000	0.00584663	105.000000	1.98767e-06	
110.000000	0.0055733 	110.000000	0.00565238	110.000000	0.00561473	110.000000	0.00561118	110.000000	0.00565047	110.000000	1.90441e-06	
115.000000	0.00539391	115.000000	0.00547237	115.000000	0.0054351 	115.000000	0.00543168	115.000000	0.00547054	115.000000	1.82808e-06	
120.000000	0.00522843	120.000000	0.00530665	120.000000	0.00526965	120.000000	0.00526635	120.000000	0.00530489	120.000000	1.75785e-06	
125.000000	0.00507526	125.000000	0.00515356	125.000000	0.00511677	125.000000	0.00511358	125.000000	0.00515187	125.000000	1.69301e-06	
130.000000	0.00493304	130.000000	0.00501171	130.000000	0.00497506	130.000000	0.00497197	130.000000	0.00501007	130.000000	1.63295e-06	
135.000000	0.00480061	135.000000	0.00487989	135.000000	0.00484326	135.000000	0.00484033	135.000000	0.00487831	135.000000	1.57715e-06	
140.000000	0.00467696	140.000000	0.00475706	140.000000	0.0047208 	140.000000	0.00471765	140.000000	0.00475554	140.000000	1.52518e-06	
145.000000	0.00456123	145.000000	0.00464234	145.000000	0.00460647	145.000000	0.00460304	145.000000	0.00464086	145.000000	1.47664e-06	
150.000000	0.00445266	150.000000	0.00453494	150.000000	0.00449905	150.000000	0.00449572	150.000000	0.0045335 	150.000000	1.43121e-06	
155.000000	0.00429979	155.000000	0.00443417	155.000000	0.00439822	155.000000	0.00439502	155.000000	0.00443278	155.000000	1.38858e-06	
160.000000	0.00421019	160.000000	0.00433944	160.000000	0.00430348	160.000000	0.00430035	160.000000	0.00433809	160.000000	1.34851e-06	
165.000000	0.00412569	165.000000	0.00425022	165.000000	0.00421423	165.000000	0.00421117	165.000000	0.00424891	165.000000	1.31077e-06	
170.000000	0.00404587	170.000000	0.00416604	170.000000	0.00413001	170.000000	0.00412702	170.000000	0.00416477	170.000000	1.27516e-06	
175.000000	0.00397035	175.000000	0.00408649	175.000000	0.00405042	175.000000	0.00404749	175.000000	0.00408524	175.000000	1.24151e-06	
180.000000	0.00389877	180.000000	0.00401118	180.000000	0.00397507	180.000000	0.00397221	180.000000	0.00400997	180.000000	1.20964e-06	
185.000000	0.00383084	185.000000	0.0039398 	185.000000	0.00390366	185.000000	0.00390085	185.000000	0.00393862	185.000000	1.17943e-06	
190.000000	0.00376628	190.000000	0.00387203	190.000000	0.00383587	190.000000	0.00383311	190.000000	0.00387088	190.000000	1.15074e-06	
195.000000	0.00370485	195.000000	0.00380762	195.000000	0.00377139	195.000000	0.00376872	195.000000	0.00380649	195.000000	1.12347e-06	
200.000000	0.00364631	200.000000	0.00374631	200.000000	0.00371005	200.000000	0.00370744	200.000000	0.00374521	200.000000	1.0975e-06	
210.000000	0.00353714	210.000000	0.00363217	210.000000	0.00359627	210.000000	0.00359337	210.000000	0.00363112	210.000000	1.04913e-06	
220.000000	0.00343736	220.000000	0.00352808	220.000000	0.00349225	220.000000	0.00348936	220.000000	0.00352707	220.000000	1.00499e-06	
230.000000	0.00334581	230.000000	0.00343277	230.000000	0.00339693	230.000000	0.00339415	230.000000	0.0034318 	230.000000	9.64531e-07	
240.000000	0.00326149	240.000000	0.00334518	240.000000	0.00330939	240.000000	0.00330668	240.000000	0.00334425	240.000000	9.27313e-07	
250.000000	0.00318358	250.000000	0.00326441	250.000000	0.00322868	250.000000	0.00322605	250.000000	0.00326352	250.000000	8.92956e-07	
260.000000	0.00311138	260.000000	0.00318971	260.000000	0.00315406	260.000000	0.00315151	260.000000	0.00318885	260.000000	8.61139e-07	
270.000000	0.00304427	270.000000	0.00312041	270.000000	0.00308488	270.000000	0.00308238	270.000000	0.00311958	270.000000	8.31587e-07	
280.000000	0.00298174	280.000000	0.00305597	280.000000	0.00302056	280.000000	0.00301813	280.000000	0.00305516	280.000000	8.04063e-07	
290.000000	0.00292333	290.000000	0.00299588	290.000000	0.00296058	290.000000	0.00295824	290.000000	0.0029951 	290.000000	7.78364e-07	
300.000000	0.00286866	300.000000	0.00293974	300.000000	0.00290477	300.000000	0.00290232	300.000000	0.00293898	300.000000	7.54312e-07	
310.000000	0.00281737	310.000000	0.00288716	310.000000	0.00285259	310.000000	0.00284997	310.000000	0.00288643	310.000000	7.31751e-07	
320.000000	0.00276916	320.000000	0.00283784	320.000000	0.00280344	320.000000	0.00280088	320.000000	0.00283713	320.000000	7.10546e-07	
330.000000	0.00272377	330.000000	0.00279147	330.000000	0.00275724	330.000000	0.00275475	330.000000	0.00279078	330.000000	6.90577e-07	
340.000000	0.00268096	340.000000	0.00274781	340.000000	0.0027138 	340.000000	0.00271135	340.000000	0.00274714	340.000000	6.71737e-07	
350.000000	0.00264051	350.000000	0.00270663	350.000000	0.00267284	350.000000	0.00267042	350.000000	0.00270598	350.000000	6.53932e-07	
360.000000	0.00260225	360.000000	0.00266774	360.000000	0.00263416	360.000000	0.00263179	360.000000	0.0026671 	360.000000	6.37078e-07	
370.000000	0.002566  	370.000000	0.00263094	370.000000	0.00259759	370.000000	0.00259526	370.000000	0.00263032	370.000000	6.211e-07 	
380.000000	0.00253161	380.000000	0.00259609	380.000000	0.00256297	380.000000	0.00256068	380.000000	0.00259548	380.000000	6.05931e-07	
390.000000	0.00249895	390.000000	0.00256303	390.000000	0.00253015	390.000000	0.00252789	390.000000	0.00256244	390.000000	5.91511e-07	
400.000000	0.00246788	400.000000	0.00253164	400.000000	0.00249899	400.000000	0.00249677	400.000000	0.00253106	400.000000	5.77783e-07	
410.000000	0.00243831	410.000000	0.00250179	410.000000	0.00246938	410.000000	0.00246719	410.000000	0.00250123	410.000000	5.647e-07 	
420.000000	0.00241012	420.000000	0.00247339	420.000000	0.00244123	420.000000	0.00243905	420.000000	0.00247284	420.000000	5.52216e-07	
430.000000	0.00238323	430.000000	0.00244633	430.000000	0.0024144 	430.000000	0.00241226	430.000000	0.00244579	430.000000	5.4029e-07	
440.000000	0.00235756	440.000000	0.00242052	440.000000	0.00238863	440.000000	0.00238654	440.000000	0.00241999	440.000000	5.28887e-07	
450.000000	0.00233302	450.000000	0.00239588	450.000000	0.00236396	450.000000	0.0023619 	450.000000	0.00239536	450.000000	5.1797e-07	
460.000000	0.00230954	460.000000	0.00237234	460.000000	0.00234049	460.000000	0.00233836	460.000000	0.00237183	460.000000	5.0751e-07	
470.000000	0.00228707	470.000000	0.00234983	470.000000	0.00231809	470.000000	0.00231586	470.000000	0.00234933	470.000000	4.97479e-07	
480.000000	0.00226553	480.000000	0.00232829	480.000000	0.00229662	480.000000	0.00229434	480.000000	0.0023278 	480.000000	4.8785e-07	
490.000000	0.00224489	490.000000	0.00230766	490.000000	0.002276  	490.000000	0.00227373	490.000000	0.00230718	490.000000	4.78599e-07	
500.000000	0.00222507	500.000000	0.00228789	500.000000	0.00225621	500.000000	0.00225399	500.000000	0.00228742	500.000000	4.69703e-07	
520.000000	0.00218778	520.000000	0.00225072	520.000000	0.00221906	520.000000	0.00221689	520.000000	0.00225026	520.000000	4.52902e-07	
540.000000	0.00215331	540.000000	0.00221643	540.000000	0.00218482	540.000000	0.00218269	540.000000	0.00221599	540.000000	4.37298e-07	
560.000000	0.00212137	560.000000	0.00218473	560.000000	0.00215318	560.000000	0.00215108	560.000000	0.00218431	560.000000	4.22769e-07	
580.000000	0.00209173	580.000000	0.00215536	580.000000	0.00212386	580.000000	0.0021218 	580.000000	0.00215495	580.000000	4.09204e-07	
600.000000	0.00206416	600.000000	0.00212808	600.000000	0.00209664	600.000000	0.00209461	600.000000	0.00212768	600.000000	3.9651e-07	
620.000000	0.00203847	620.000000	0.0021027 	620.000000	0.00207132	620.000000	0.00206932	620.000000	0.00210232	620.000000	3.84606e-07	
640.000000	0.00201449	640.000000	0.00207905	640.000000	0.00204773	640.000000	0.00204575	640.000000	0.00207868	640.000000	3.73418e-07	
660.000000	0.00199208	660.000000	0.00205698	660.000000	0.00202568	660.000000	0.00202374	660.000000	0.00205661	660.000000	3.62883e-07	
680.000000	0.00197111	680.000000	0.00203634	680.000000	0.00200506	680.000000	0.00200316	680.000000	0.00203599	680.000000	3.52946e-07	
700.000000	0.00195146	700.000000	0.00201702	700.000000	0.00198579	700.000000	0.00198388	700.000000	0.00201668	700.000000	3.43556e-07	
720.000000	0.00193302	720.000000	0.00199891	720.000000	0.0019678 	720.000000	0.0019658 	720.000000	0.00199858	720.000000	3.34668e-07	
740.000000	0.0019157 	740.000000	0.00198192	740.000000	0.00195088	740.000000	0.00194882	740.000000	0.0019816 	740.000000	3.26243e-07	
760.000000	0.00189942	760.000000	0.00196596	760.000000	0.0019349 	760.000000	0.00193284	760.000000	0.00196564	760.000000	3.18246e-07	
780.000000	0.0018841 	780.000000	0.00195095	780.000000	0.00191983	780.000000	0.0019178 	780.000000	0.00195064	780.000000	3.10643e-07	
800.000000	0.00186968	800.000000	0.00193682	800.000000	0.00190562	800.000000	0.00190363	800.000000	0.00193652	800.000000	3.03407e-07	
820.000000	0.00185609	820.000000	0.00192352	820.000000	0.00189223	820.000000	0.00189025	820.000000	0.00192322	820.000000	2.96512e-07	
840.000000	0.00184327	840.000000	0.00191097	840.000000	0.00187958	840.000000	0.00187761	840.000000	0.00191068	840.000000	2.89933e-07	
860.000000	0.00183118	860.000000	0.00189914	860.000000	0.00186761	860.000000	0.00186566	860.000000	0.00189885	860.000000	2.83648e-07	
880.000000	0.00181977	880.000000	0.00188796	880.000000	0.00185629	880.000000	0.00185436	880.000000	0.00188769	880.000000	2.7764e-07	
900.000000	0.001809  	900.000000	0.00187741	900.000000	0.00184556	900.000000	0.00184364	900.000000	0.00187714	900.000000	2.71888e-07	
920.000000	0.00179882	920.000000	0.00186744	920.000000	0.00183539	920.000000	0.00183349	920.000000	0.00186718	920.000000	2.66378e-07	
940.000000	0.0017892 	940.000000	0.00185802	940.000000	0.00182575	940.000000	0.00182386	940.000000	0.00185775	940.000000	2.61093e-07	
960.000000	0.00178011	960.000000	0.0018491 	960.000000	0.00181659	960.000000	0.00181472	960.000000	0.00184884	960.000000	2.56021e-07	
980.000000	0.00177152	980.000000	0.00184066	980.000000	0.00180789	980.000000	0.00180603	980.000000	0.00184041	980.000000	2.51149e-07	
1000.000000	0.00176339	1000.000000	0.00183268	1000.000000	0.00179962	1000.000000	0.00179777	1000.000000	0.00183244	1000.000000	2.46464e-07	
1020.000000	0.00175571	1020.000000	0.00182512	1020.000000	0.00179176	1020.000000	0.00178992	1020.000000	0.00182488	1020.000000	2.41957e-07	
1040.000000	0.00174845	1040.000000	0.00181797	1040.000000	0.00178427	1040.000000	0.00178244	1040.000000	0.00181773	1040.000000	2.37617e-07	
1060.000000	0.00174159	1060.000000	0.00181119	1060.000000	0.00177714	1060.000000	0.00177532	1060.000000	0.00181096	1060.000000	2.33435e-07	
1080.000000	0.0017351 	1080.000000	0.00180478	1080.000000	0.00177034	1080.000000	0.00176853	1080.000000	0.00180455	1080.000000	2.29402e-07	
1100.000000	0.00172897	1100.000000	0.0017987 	1100.000000	0.00176386	1100.000000	0.00176207	1100.000000	0.00179848	1100.000000	2.2551e-07	
1120.000000	0.00172318	1120.000000	0.00179295	1120.000000	0.00175769	1120.000000	0.0017559 	1120.000000	0.00179273	1120.000000	2.21753e-07	
1140.000000	0.00171771	1140.000000	0.0017875 	1140.000000	0.0017518 	1140.000000	0.00175001	1140.000000	0.00178728	1140.000000	2.18122e-07	
1160.000000	0.00171255	1160.000000	0.00178234	1160.000000	0.00174617	1160.000000	0.0017444 	1160.000000	0.00178213	1160.000000	2.14613e-07	
1180.000000	0.00170768	1180.000000	0.00177746	1180.000000	0.0017408 	1180.000000	0.00173903	1180.000000	0.00177725	1180.000000	2.11218e-07	
1200.000000	0.00170309	1200.000000	0.00177284	1200.000000	0.00173566	1200.000000	0.0017339 	1200.000000	0.00177263	1200.000000	2.07932e-07	
1220.000000	0.00169876	1220.000000	0.00176847	1220.000000	0.00173075	1220.000000	0.00172901	1220.000000	0.00176826	1220.000000	2.04751e-07	
1240.000000	0.00169469	1240.000000	0.00176433	1240.000000	0.00172605	1240.000000	0.00172432	1240.000000	0.00176413	1240.000000	2.01668e-07	
1260.000000	0.00169086	1260.000000	0.00176042	1260.000000	0.00172156	1260.000000	0.00171985	1260.000000	0.00176022	1260.000000	1.9868e-07	
1280.000000	0.00168726	1280.000000	0.00175673	1280.000000	0.00171727	1280.000000	0.00171556	1280.000000	0.00175654	1280.000000	1.95781e-07	
1300.000000	0.00168389	1300.000000	0.00175325	1300.000000	0.00171317	1300.000000	0.00171146	1300.000000	0.00175305	1300.000000	1.92969e-07	
1320.000000	0.00168072	1320.000000	0.00174996	1320.000000	0.00170926	1320.000000	0.00170754	1320.000000	0.00174977	1320.000000	1.90239e-07	
1340.000000	0.00167776	1340.000000	0.00174686	1340.000000	0.00170552	1340.000000	0.00170378	1340.000000	0.00174667	1340.000000	1.87588e-07	
1360.000000	0.001675  	1360.000000	0.00174393	1360.000000	0.00170195	1360.000000	0.00170019	1360.000000	0.00174375	1360.000000	1.85012e-07	
1380.000000	0.00167242	1380.000000	0.00174119	1380.000000	0.00169853	1380.000000	0.00169674	1380.000000	0.001741  	1380.000000	1.82508e-07	
1400.000000	0.00167003	1400.000000	0.0017386 	1400.000000	0.00169525	1400.000000	0.00169344	1400.000000	0.00173842	1400.000000	1.80073e-07	
1420.000000	0.0016678 	1420.000000	0.00173618	1420.000000	0.00169211	1420.000000	0.00169028	1420.000000	0.001736  	1420.000000	1.77704e-07	
1440.000000	0.00166575	1440.000000	0.00173391	1440.000000	0.0016891 	1440.000000	0.00168726	1440.000000	0.00173373	1440.000000	1.75398e-07	
1460.000000	0.00166385	1460.000000	0.00173178	1460.000000	0.0016862 	1460.000000	0.00168435	1460.000000	0.0017316 	1460.000000	1.73154e-07	
1480.000000	0.00166211	1480.000000	0.00172979	1480.000000	0.00168342	1480.000000	0.00168157	1480.000000	0.00172962	1480.000000	1.70968e-07	
1500.000000	0.00166051	1500.000000	0.00172794	1500.000000	0.00168075	1500.000000	0.0016789 	1500.000000	0.00172777	1500.000000	1.68838e-07	
1520.000000	0.00165906	1520.000000	0.00172621	1520.000000	0.00167819	1520.000000	0.00167635	1520.000000	0.00172605	1520.000000	1.66763e-07	
1540.000000	0.00165774	1540.000000	0.00172461	1540.000000	0.00167573	1540.000000	0.0016739 	1540.000000	0.00172445	1540.000000	1.64739e-07	
1560.000000	0.00165656	1560.000000	0.00172313	1560.000000	0.00167337	1560.000000	0.00167155	1560.000000	0.00172297	1560.000000	1.62766e-07	
1580.000000	0.00165551	1580.000000	0.00172176	1580.000000	0.00167111	1580.000000	0.00166929	1580.000000	0.0017216 	1580.000000	1.6084e-07	
1600.000000	0.00165458	1600.000000	0.00172051	1600.000000	0.00166894	1600.000000	0.00166713	1600.000000	0.00172035	1600.000000	1.58962e-07	
1620.000000	0.00165377	1620.000000	0.00171936	1620.000000	0.00166686	1620.000000	0.00166506	1620.000000	0.0017192 	1620.000000	1.57128e-07	
1640.000000	0.00165308	1640.000000	0.00171831	1640.000000	0.00166487	1640.000000	0.00166307	1640.000000	0.00171816	1640.000000	1.55337e-07	
1660.000000	0.0016525 	1660.000000	0.00171737	1660.000000	0.00166296	1660.000000	0.00166117	1660.000000	0.00171721	1660.000000	1.53588e-07	
1680.000000	0.00165202	1680.000000	0.00171652	1680.000000	0.00166113	1680.000000	0.00165934	1680.000000	0.00171636	1680.000000	1.51879e-07	
1700.000000	0.00165165	1700.000000	0.00171576	1700.000000	0.00165938	1700.000000	0.00165759	1700.000000	0.00171561	1700.000000	1.50208e-07	
1750.000000	0.00165117	1750.000000	0.00171424	1750.000000	0.0016553 	1750.000000	0.00165353	1750.000000	0.00171409	1750.000000	1.46194e-07	
1800.000000	0.00165126	1800.000000	0.00171324	1800.000000	0.00165164	1800.000000	0.00164987	1800.000000	0.00171309	1800.000000	1.42396e-07	
1850.000000	0.00165191	1850.000000	0.0017127 	1850.000000	0.00164835	1850.000000	0.00164659	1850.000000	0.00171256	1850.000000	1.38795e-07	
1900.000000	0.00165305	1900.000000	0.0017126 	1900.000000	0.0016454 	1900.000000	0.00164365	1900.000000	0.00171246	1900.000000	1.35378e-07	
1950.000000	0.00165467	1950.000000	0.0017129 	1950.000000	0.00164276	1950.000000	0.00164101	1950.000000	0.00171276	1950.000000	1.3213e-07	
2000.000000	0.00165672	2000.000000	0.00171356	2000.000000	0.0016404 	2000.000000	0.00163866	2000.000000	0.00171343	2000.000000	1.29039e-07	
2100.000000	0.00166202	2100.000000	0.0017159 	2100.000000	0.00163643	2100.000000	0.0016347 	2100.000000	0.00171578	2100.000000	1.23283e-07	
2200.000000	0.00166877	2200.000000	0.00171943	2200.000000	0.00163332	2200.000000	0.00163161	2200.000000	0.00171931	2200.000000	1.18034e-07	
2300.000000	0.00167679	2300.000000	0.00172399	2300.000000	0.00163095	2300.000000	0.00162925	2300.000000	0.00172388	2300.000000	1.13226e-07	
2400.000000	0.00168594	2400.000000	0.00172945	2400.000000	0.0016292 	2400.000000	0.00162751	2400.000000	0.00172934	2400.000000	1.08805e-07	
2500.000000	0.0016961 	2500.000000	0.00173571	2500.000000	0.00162798	2500.000000	0.00162629	2500.000000	0.0017356 	2500.000000	1.04726e-07	
2600.000000	0.00170719	2600.000000	0.00174267	2600.000000	0.00162721	2600.000000	0.00162553	2600.000000	0.00174257	2600.000000	1.00951e-07	
2700.000000	0.0017191 	2700.000000	0.00175025	2700.000000	0.00162682	2700.000000	0.00162515	2700.000000	0.00175015	2700.000000	9.74463e-08	
2800.000000	0.00173177	2800.000000	0.00175839	2800.000000	0.00162676	2800.000000	0.0016251 	2800.000000	0.00175829	2800.000000	9.41837e-08	
2900.000000	0.00174513	2900.000000	0.00176702	2900.000000	0.00162699	2900.000000	0.00162533	2900.000000	0.00176693	2900.000000	9.11387e-08	
3000.000000	0.00175913	3000.000000	0.0017761 	3000.000000	0.00162747	3000.000000	0.00162581	3000.000000	0.00177601	3000.000000	8.829e-08 	
3200.000000	0.00178884	3200.000000	0.00179543	3200.000000	0.00162903	3200.000000	0.00162738	3200.000000	0.00179535	3200.000000	8.31098e-08	
3400.000000	0.00182058	3400.000000	0.00181609	3400.000000	0.00163123	3400.000000	0.00162959	3400.000000	0.00181601	3400.000000	7.85197e-08	
3600.000000	0.00185409	3600.000000	0.00183783	3600.000000	0.00163391	3600.000000	0.00163227	3600.000000	0.00183776	3600.000000	7.44235e-08	
3800.000000	0.00188917	3800.000000	0.0018605 	3800.000000	0.00163694	3800.000000	0.00163532	3800.000000	0.00186043	3800.000000	7.07449e-08	
4000.000000	0.00192565	4000.000000	0.00188393	4000.000000	0.00164025	4000.000000	0.00163863	4000.000000	0.00188387	4000.000000	6.74225e-08	
4200.000000	0.0019634 	4200.000000	0.00190803	4200.000000	0.00164375	4200.000000	0.00164214	4200.000000	0.00190796	4200.000000	6.44065e-08	
4400.000000	0.00200231	4400.000000	0.00193268	4400.000000	0.00164739	4400.000000	0.00164578	4400.000000	0.00193262	4400.000000	6.16561e-08	
4600.000000	0.00204228	4600.000000	0.00195781	4600.000000	0.00165113	4600.000000	0.00164952	4600.000000	0.00195775	4600.000000	5.91373e-08	
4800.000000	0.00208325	4800.000000	0.00198336	4800.000000	0.00165494	4800.000000	0.00165333	4800.000000	0.00198331	4800.000000	5.68217e-08	
5000.000000	0.00212513	5000.000000	0.00200928	5000.000000	0.00165878	5000.000000	0.00165718	5000.000000	0.00200922	5000.000000	5.46857e-08	
5250.000000	0.00217871	5250.000000	0.00204211	5250.000000	0.0016636 	5250.000000	0.00166201	5250.000000	0.00204206	5250.000000	5.22373e-08	
5500.000000	0.00223354	5500.000000	0.00207536	5500.000000	0.00166843	5500.000000	0.00166683	5500.000000	0.00207531	5500.000000	5.00046e-08	
6000.000000	0.00234673	6000.000000	0.00214288	6000.000000	0.00167797	6000.000000	0.00167638	6000.000000	0.00214283	6000.000000	4.60805e-08	
6500.000000	0.00246421	6500.000000	0.00221146	6500.000000	0.00168729	6500.000000	0.00168571	6500.000000	0.00221141	6500.000000	4.27421e-08	
7000.000000	0.00258565	7000.000000	0.00228082	7000.000000	0.00169633	7000.000000	0.00169475	7000.000000	0.00228078	7000.000000	3.98665e-08	
7500.000000	0.0027108 	7500.000000	0.00235078	7500.000000	0.00170506	7500.000000	0.00170347	7500.000000	0.00235074	7500.000000	3.73628e-08	
8000.000000	0.00283946	8000.000000	0.00242119	8000.000000	0.00171346	8000.000000	0.00171187	8000.000000	0.00242115	8000.000000	3.51628e-08	
8500.000000	0.0029715 	8500.000000	0.00249193	8500.000000	0.00172153	8500.000000	0.00171995	8500.000000	0.0024919 	8500.000000	3.32139e-08	
9000.000000	0.00310679	9000.000000	0.00256294	9000.000000	0.00172928	9000.000000	0.00172771	9000.000000	0.00256291	9000.000000	3.14751e-08	
9500.000000	0.00324525	9500.000000	0.00263414	9500.000000	0.00173674	9500.000000	0.00173516	9500.000000	0.00263411	9500.000000	2.99139e-08	
10000.000000	0.0033868 	10000.000000	0.00270548	10000.000000	0.00174392	10000.000000	0.00174233	10000.000000	0.00270546	10000.000000	2.85041e-08	
11000.000000	0.00367897	11000.000000	0.00284845	11000.000000	0.00175742	11000.000000	0.00175585	11000.000000	0.00284843	11000.000000	2.6058e-08	
12000.000000	0.00398296	12000.000000	0.00299162	12000.000000	0.00176989	12000.000000	0.00176838	12000.000000	0.0029916 	12000.000000	2.4008e-08	
13000.000000	0.00429854	13000.000000	0.00313484	13000.000000	0.00178154	13000.000000	0.00178003	13000.000000	0.00313482	13000.000000	2.22644e-08	
14000.000000	0.00462557	14000.000000	0.00327801	14000.000000	0.0017925 	14000.000000	0.00179091	14000.000000	0.00327798	14000.000000	2.07627e-08	
15000.000000	0.00496393	15000.000000	0.00342106	15000.000000	0.00180282	15000.000000	0.00180109	15000.000000	0.00342104	15000.000000	1.94556e-08	
16000.000000	0.00531356	16000.000000	0.00356395	16000.000000	0.00181248	16000.000000	0.00181066	16000.000000	0.00356393	16000.000000	1.83072e-08	
17000.000000	0.00567442	17000.000000	0.00370665	17000.000000	0.0018215 	17000.000000	0.00181966	17000.000000	0.00370663	17000.000000	1.72901e-08	
18000.000000	0.00604651	18000.000000	0.00384914	18000.000000	0.00182996	18000.000000	0.00182817	18000.000000	0.00384913	18000.000000	1.63827e-08	
19000.000000	0.0064298 	19000.000000	0.00399142	19000.000000	0.00183791	19000.000000	0.00183622	19000.000000	0.0039914 	19000.000000	1.55681e-08	
20000.000000	0.0068243 	20000.000000	0.00413346	20000.000000	0.00184541	20000.000000	0.00184386	20000.000000	0.00413345	20000.000000	1.48327e-08	
21000.000000	0.00723004	21000.000000	0.00427527	21000.000000	0.00185255	21000.000000	0.00185112	21000.000000	0.00427526	21000.000000	1.41653e-08	
22000.000000	0.00764704	22000.000000	0.00441685	22000.000000	0.00185946	22000.000000	0.00185805	22000.000000	0.00441684	22000.000000	1.35568e-08	
23000.000000	0.00807532	23000.000000	0.0045582 	23000.000000	0.00186609	23000.000000	0.00186466	23000.000000	0.00455818	23000.000000	1.29998e-08	
24000.000000	0.00851492	24000.000000	0.00469931	24000.000000	0.00187241	24000.000000	0.00187098	24000.000000	0.0046993 	24000.000000	1.24878e-08	
25000.000000	0.00896588	25000.000000	0.0048402 	25000.000000	0.00187846	25000.000000	0.00187704	25000.000000	0.00484019	25000.000000	1.20157e-08	
26000.000000	0.00942823	26000.000000	0.00498086	26000.000000	0.00188428	26000.000000	0.00188286	26000.000000	0.00498085	26000.000000	1.15788e-08	
27000.000000	0.00990203	27000.000000	0.0051213 	27000.000000	0.00188988	27000.000000	0.00188844	27000.000000	0.00512129	27000.000000	1.11734e-08	
28000.000000	0.0103873 	28000.000000	0.00526152	28000.000000	0.00189525	28000.000000	0.00189382	28000.000000	0.00526151	28000.000000	1.07961e-08	
29000.000000	0.0108842 	29000.000000	0.00540153	29000.000000	0.00190041	29000.000000	0.001899  	29000.000000	0.00540152	29000.000000	1.04441e-08	
30000.000000	0.0113926 	30000.000000	0.00554133	30000.000000	0.00190536	30000.000000	0.001904  	30000.000000	0.00554132	30000.000000	1.01149e-08	
32000.000000	0.0124444 	32000.000000	0.00582032	32000.000000	0.00191476	32000.000000	0.00191348	32000.000000	0.00582031	32000.000000	9.5165e-09	
34000.000000	0.0135433 	34000.000000	0.00609853	34000.000000	0.00192358	34000.000000	0.00192237	34000.000000	0.00609852	34000.000000	8.98658e-09	
36000.000000	0.0146896 	36000.000000	0.006376  	36000.000000	0.00193188	36000.000000	0.00193072	36000.000000	0.00637599	36000.000000	8.51392e-09	
38000.000000	0.0158839 	38000.000000	0.00665275	38000.000000	0.00193971	38000.000000	0.00193859	38000.000000	0.00665274	38000.000000	8.08966e-09	
40000.000000	0.0171266 	40000.000000	0.00692881	40000.000000	0.00194713	40000.000000	0.00194604	40000.000000	0.0069288 	40000.000000	7.70666e-09	
42000.000000	0.0184183 	42000.000000	0.00720422	42000.000000	0.00195417	42000.000000	0.0019531 	42000.000000	0.00720421	42000.000000	7.35914e-09	
44000.000000	0.0197595 	44000.000000	0.007479  	44000.000000	0.00196085	44000.000000	0.00195982	44000.000000	0.007479  	44000.000000	7.04235e-09	
46000.000000	0.0211505 	46000.000000	0.00775318	46000.000000	0.00196721	46000.000000	0.00196622	46000.000000	0.00775318	46000.000000	6.75235e-09	
48000.000000	0.0225921 	48000.000000	0.00802679	48000.000000	0.00197327	48000.000000	0.00197233	48000.000000	0.00802678	48000.000000	6.48585e-09	
50000.000000	0.0240847 	50000.000000	0.00829984	50000.000000	0.00197906	50000.000000	0.00197818	50000.000000	0.00829983	50000.000000	6.2401e-09	
