Energy (MeV/u)1	0 - [He-base] F.Hubert et al, AD&ND Tables 46(1990)1	Energy (MeV/u)2	1 - [H -base] J.F.Ziegler et al, Pergamon Press, NY (low energy)	Energy (MeV/u)3	2 - ATIMA 1.2  LS-theory (recommended for high energy)	Energy (MeV/u)4	3 - ATIMA 1.2  without LS-correction	Energy (MeV/u)5	4 - electrical component of [1] - J.F.Ziegler et al	Energy (MeV/u)6	5 - nuclear component of [1] - J.F.Ziegler et al	
0.001000	1.07879   	0.001000	0.632244  	0.001000	0.719388  	0.001000	0.719388  	0.001000	0.331496  	0.001000	0.300747  	
0.002000	1.18043   	0.002000	0.669192  	0.002000	0.781104  	0.002000	0.781104  	0.002000	0.440849  	0.002000	0.228343  	
0.005000	1.44815   	0.005000	0.784389  	0.005000	0.941937  	0.005000	0.941937  	0.005000	0.643646  	0.005000	0.140743  	
0.008000	1.65904   	0.008000	0.887353  	0.008000	1.07615   	0.008000	1.07615   	0.008000	0.782097  	0.008000	0.105256  	
0.010000	1.77832   	0.010000	0.948987  	0.010000	1.15501   	0.010000	1.15501   	0.010000	0.858038  	0.010000	0.0909486 	
0.015000	2.0819    	0.015000	1.1061    	0.015000	1.34759   	0.015000	1.34759   	0.015000	1.03743   	0.015000	0.0686667 	
0.020000	2.32526   	0.020000	1.32244   	0.020000	1.57465   	0.020000	1.57465   	0.020000	1.26648   	0.020000	0.0559669 	
0.025000	2.59914   	0.025000	1.53844   	0.025000	1.79584   	0.025000	1.79584   	0.025000	1.49112   	0.025000	0.0473151 	
0.030000	2.8318    	0.030000	1.74836   	0.030000	1.96668   	0.030000	1.96668   	0.030000	1.70703   	0.030000	0.0413255 	
0.035000	3.02333   	0.035000	1.94813   	0.035000	2.126     	0.035000	2.126     	0.035000	1.91133   	0.035000	0.0367961 	
0.040000	3.17436   	0.040000	2.13588   	0.040000	2.2742    	0.040000	2.2742    	0.040000	2.10264   	0.040000	0.0332382 	
0.045000	3.28564   	0.045000	2.31042   	0.045000	2.41166   	0.045000	2.41166   	0.045000	2.28006   	0.045000	0.0303618 	
0.050000	3.3544    	0.050000	2.46722   	0.050000	2.53875   	0.050000	2.53875   	0.050000	2.43924   	0.050000	0.0279831 	
0.055000	3.49642   	0.055000	2.60905   	0.055000	2.65592   	0.055000	2.65592   	0.055000	2.58307   	0.055000	0.0259799 	
0.060000	3.61615   	0.060000	2.73743   	0.060000	2.76362   	0.060000	2.76362   	0.060000	2.71316   	0.060000	0.0242674 	
0.070000	3.79536   	0.070000	2.95609   	0.070000	2.95257   	0.070000	2.95257   	0.070000	2.93461   	0.070000	0.0214877 	
0.080000	3.98663   	0.080000	3.12922   	0.080000	3.1097    	0.080000	3.1097    	0.080000	3.1099    	0.080000	0.0193226 	
0.090000	4.12915   	0.090000	3.26384   	0.090000	3.23913   	0.090000	3.23913   	0.090000	3.24626   	0.090000	0.017584  	
0.100000	4.2352    	0.100000	3.36687   	0.100000	3.34477   	0.100000	3.34477   	0.100000	3.35072   	0.100000	0.0161543 	
0.120000	4.27316   	0.120000	3.502     	0.120000	3.49857   	0.120000	3.49857   	0.120000	3.48807   	0.120000	0.013936  	
0.140000	4.2684    	0.140000	3.57291   	0.140000	3.59466   	0.140000	3.59466   	0.140000	3.56062   	0.140000	0.0122887 	
0.160000	4.27442   	0.160000	3.62026   	0.160000	3.65026   	0.160000	3.65026   	0.160000	3.60925   	0.160000	0.011013  	
0.180000	4.29956   	0.180000	3.6615    	0.180000	3.67746   	0.180000	3.67746   	0.180000	3.6515    	0.180000	0.00999354	
0.200000	4.32184   	0.200000	3.67909   	0.200000	3.68468   	0.200000	3.68468   	0.200000	3.66993   	0.200000	0.00915856	
0.250000	4.269     	0.250000	3.69043   	0.250000	3.64958   	0.250000	3.64958   	0.250000	3.68282   	0.250000	0.00760535	
0.300000	4.25141   	0.300000	3.68608   	0.300000	3.57556   	0.300000	3.57556   	0.300000	3.67955   	0.300000	0.00652742	
0.350000	4.22696   	0.350000	3.65987   	0.350000	3.50954   	0.350000	3.50954   	0.350000	3.65414   	0.350000	0.00573236	
0.400000	4.22132   	0.400000	3.64452   	0.400000	3.43808   	0.400000	3.43808   	0.400000	3.6394    	0.400000	0.00511998	
0.450000	4.19164   	0.450000	3.60914   	0.450000	3.35929   	0.450000	3.35929   	0.450000	3.60451   	0.450000	0.00463276	
0.500000	4.13848   	0.500000	3.55467   	0.500000	3.27749   	0.500000	3.27749   	0.500000	3.55044   	0.500000	0.00423523	
0.600000	3.8549    	0.600000	3.41309   	0.600000	3.11283   	0.600000	3.11283   	0.600000	3.40946   	0.600000	0.00362418	
0.700000	3.55792   	0.700000	3.25802   	0.700000	2.96467   	0.700000	2.96467   	0.700000	3.25484   	0.700000	0.00317515	
0.800000	3.39065   	0.800000	3.09382   	0.800000	2.83188   	0.800000	2.83188   	0.800000	3.09099   	0.800000	0.00283034	
0.900000	3.2323    	0.900000	2.94256   	0.900000	2.7122    	0.900000	2.7122    	0.900000	2.94      	0.900000	0.00255669	
1.000000	3.08435   	1.000000	2.80404   	1.000000	2.60348   	1.000000	2.60348   	1.000000	2.8017    	1.000000	0.00233389	
1.250000	2.74087   	1.250000	2.49526   	1.250000	2.35861   	1.250000	2.35861   	1.250000	2.49334   	1.250000	0.00192282	
1.500000	2.4636    	1.500000	2.2513    	1.500000	2.16155   	1.500000	2.16155   	1.500000	2.24966   	1.500000	0.00164027	
1.750000	2.23717   	1.750000	2.05472   	1.750000	1.99781   	1.750000	1.99781   	1.750000	2.05328   	1.750000	0.00143343	
2.000000	2.03803   	2.000000	1.8819    	2.000000	1.85807   	2.000000	1.85807   	2.000000	1.88062   	2.000000	0.00127509	
2.250000	1.87382   	2.250000	1.73735   	2.250000	1.73692   	2.250000	1.73692   	2.250000	1.7362    	2.250000	0.00114974	
2.500000	1.70108   	2.500000	1.61813   	2.500000	1.63078   	2.500000	1.63078   	2.500000	1.61708   	2.500000	0.00104792	
3.000000	1.50152   	3.000000	1.4303    	3.000000	1.45382   	3.000000	1.45382   	3.000000	1.42941   	3.000000	0.000892229	
3.500000	1.34619   	3.500000	1.28677   	3.500000	1.31227   	3.500000	1.31227   	3.500000	1.28599   	3.500000	0.00077851	
4.000000	1.22169   	4.000000	1.17226   	4.000000	1.19676   	4.000000	1.19676   	4.000000	1.17157   	4.000000	0.000691613	
4.500000	1.11958   	4.500000	1.07827   	4.500000	1.10087   	4.500000	1.10087   	4.500000	1.07765   	4.500000	0.000622934	
5.000000	1.03423   	5.000000	0.999516  	5.000000	1.02008   	5.000000	1.02008   	5.000000	0.998949  	5.000000	0.000567216	
5.500000	0.961769  	5.500000	0.932463  	5.500000	0.951102  	5.500000	0.951102  	5.500000	0.931942  	5.500000	0.000521058	
6.000000	0.899448  	6.000000	0.874622  	6.000000	0.891523  	6.000000	0.891523  	6.000000	0.87414   	6.000000	0.000482161	
6.500000	0.845246  	6.500000	0.824176  	6.500000	0.839534  	6.500000	0.839534  	6.500000	0.823728  	6.500000	0.000448914	
7.000000	0.797649  	7.000000	0.779764  	7.000000	0.793757  	7.000000	0.793757  	7.000000	0.779344  	7.000000	0.000420152	
7.500000	0.755502  	7.500000	0.74034   	7.500000	0.753126  	7.500000	0.753126  	7.500000	0.739945  	7.500000	0.000395012	
8.000000	0.717906  	8.000000	0.705091  	8.000000	0.716804  	8.000000	0.716804  	8.000000	0.704718  	8.000000	0.000372841	
8.500000	0.684149  	8.500000	0.673371  	8.500000	0.684128  	8.500000	0.684128  	8.500000	0.673018  	8.500000	0.000353135	
9.000000	0.653663  	9.000000	0.644664  	9.000000	0.654562  	9.000000	0.654562  	9.000000	0.644328  	9.000000	0.000335498	
9.500000	0.625988  	9.500000	0.618548  	9.500000	0.627672  	9.500000	0.627672  	9.500000	0.618228  	9.500000	0.000319616	
10.000000	0.600745  	10.000000	0.598724  	10.000000	0.603102  	10.000000	0.603102  	10.000000	0.598418  	10.000000	0.000305236	
11.000000	0.556359  	11.000000	0.556608  	11.000000	0.559102  	11.000000	0.559284  	11.000000	0.556327  	11.000000	0.00028019	
12.000000	0.518568  	12.000000	0.520371  	12.000000	0.521515  	12.000000	0.521811  	12.000000	0.520112  	12.000000	0.000259104	
13.000000	0.485983  	13.000000	0.488863  	13.000000	0.489008  	13.000000	0.489373  	13.000000	0.488622  	13.000000	0.000241094	
14.000000	0.457582  	14.000000	0.461211  	14.000000	0.460593  	14.000000	0.461     	14.000000	0.460985  	14.000000	0.000225525	
15.000000	0.432596  	15.000000	0.436745  	15.000000	0.43553   	15.000000	0.43596   	15.000000	0.436533  	15.000000	0.000211925	
16.000000	0.410435  	16.000000	0.41494   	16.000000	0.413253  	16.000000	0.413687  	16.000000	0.41474   	16.000000	0.000199938	
17.000000	0.390638  	17.000000	0.395382  	17.000000	0.393316  	17.000000	0.393741  	17.000000	0.395192  	17.000000	0.00018929	
18.000000	0.372839  	18.000000	0.377736  	18.000000	0.375359  	18.000000	0.375769  	18.000000	0.377556  	18.000000	0.000179764	
19.000000	0.356747  	19.000000	0.361732  	19.000000	0.359091  	19.000000	0.359488  	19.000000	0.361561  	19.000000	0.000171191	
20.000000	0.342122  	20.000000	0.34715   	20.000000	0.344279  	20.000000	0.344669  	20.000000	0.346987  	20.000000	0.000163432	
21.000000	0.32877   	21.000000	0.333805  	21.000000	0.330742  	21.000000	0.331122  	21.000000	0.333649  	21.000000	0.000156374	
22.000000	0.316529  	22.000000	0.321545  	22.000000	0.318334  	22.000000	0.318688  	22.000000	0.321395  	22.000000	0.000149926	
23.000000	0.305262  	23.000000	0.310241  	23.000000	0.306918  	23.000000	0.307236  	23.000000	0.310097  	23.000000	0.000144011	
24.000000	0.294857  	24.000000	0.299784  	24.000000	0.296366  	24.000000	0.296655  	24.000000	0.299646  	24.000000	0.000138563	
25.000000	0.285217  	25.000000	0.290081  	25.000000	0.286581  	25.000000	0.286849  	25.000000	0.289948  	25.000000	0.00013353	
27.000000	0.267909  	27.000000	0.272629  	27.000000	0.269026  	27.000000	0.269247  	27.000000	0.272505  	27.000000	0.000124529	
29.000000	0.252805  	29.000000	0.257367  	29.000000	0.253738  	29.000000	0.253904  	29.000000	0.257251  	29.000000	0.000116709	
31.000000	0.239504  	31.000000	0.243903  	31.000000	0.240476  	31.000000	0.240577  	31.000000	0.243793  	31.000000	0.000109851	
33.000000	0.227694  	33.000000	0.231933  	33.000000	0.228848  	33.000000	0.228888  	33.000000	0.231829  	33.000000	0.000103785	
35.000000	0.217134  	35.000000	0.221217  	35.000000	0.218406  	35.000000	0.218419  	35.000000	0.221119  	35.000000	9.83785e-05	
38.000000	0.203229  	38.000000	0.207092  	38.000000	0.204658  	38.000000	0.204611  	38.000000	0.207001  	38.000000	9.12871e-05	
41.000000	0.191216  	41.000000	0.194876  	41.000000	0.192742  	41.000000	0.192659  	41.000000	0.194791  	41.000000	8.51858e-05	
44.000000	0.180726  	44.000000	0.184203  	44.000000	0.182309  	44.000000	0.182207  	44.000000	0.184124  	44.000000	7.98785e-05	
47.000000	0.171482  	47.000000	0.174794  	47.000000	0.173106  	47.000000	0.172984  	47.000000	0.174719  	47.000000	7.52177e-05	
50.000000	0.163271  	50.000000	0.166435  	50.000000	0.164916  	50.000000	0.164782  	50.000000	0.166364  	50.000000	7.10908e-05	
55.000000	0.151442  	55.000000	0.154393  	55.000000	0.15313   	55.000000	0.152952  	55.000000	0.154328  	55.000000	6.51687e-05	
60.000000	0.141453  	60.000000	0.144229  	60.000000	0.143139  	60.000000	0.142951  	60.000000	0.144169  	60.000000	6.01905e-05	
65.000000	0.132899  	65.000000	0.13553   	65.000000	0.134563  	65.000000	0.13438   	65.000000	0.135474  	65.000000	5.59447e-05	
70.000000	0.125485  	70.000000	0.127997  	70.000000	0.127143  	70.000000	0.126947  	70.000000	0.127945  	70.000000	5.2279e-05	
75.000000	0.118994  	75.000000	0.121409  	75.000000	0.120642  	75.000000	0.120439  	75.000000	0.12136   	75.000000	4.90807e-05	
80.000000	0.113259  	80.000000	0.115596  	80.000000	0.114899  	80.000000	0.114689  	80.000000	0.11555   	80.000000	4.62649e-05	
85.000000	0.108154  	85.000000	0.110428  	85.000000	0.109787  	85.000000	0.109572  	85.000000	0.110384  	85.000000	4.3766e-05	
90.000000	0.103577  	90.000000	0.105802  	90.000000	0.105191  	90.000000	0.104987  	90.000000	0.10576   	90.000000	4.15327e-05	
95.000000	0.0994492 	95.000000	0.101636  	95.000000	0.101063  	95.000000	0.100855  	95.000000	0.101596  	95.000000	3.95243e-05	
100.000000	0.0957059 	100.000000	0.097864  	100.000000	0.0973219 	100.000000	0.09711   	100.000000	0.0978263 	100.000000	3.77082e-05	
105.000000	0.0922946 	105.000000	0.0944322 	105.000000	0.0939161 	105.000000	0.0937004 	105.000000	0.0943962 	105.000000	3.60575e-05	
110.000000	0.0891719 	110.000000	0.0912963 	110.000000	0.0907906 	110.000000	0.0905826 	110.000000	0.0912617 	110.000000	3.45505e-05	
115.000000	0.0863019 	115.000000	0.0884191 	115.000000	0.0879264 	115.000000	0.0877204 	115.000000	0.0883859 	115.000000	3.31689e-05	
120.000000	0.0836544 	120.000000	0.0857696 	120.000000	0.085294  	120.000000	0.0850832 	120.000000	0.0857377 	120.000000	3.18976e-05	
125.000000	0.0812037 	125.000000	0.0833217 	125.000000	0.082855  	125.000000	0.0826455 	125.000000	0.0832909 	125.000000	3.07236e-05	
130.000000	0.0789283 	130.000000	0.0810529 	130.000000	0.0805876 	130.000000	0.0803852 	130.000000	0.0810233 	130.000000	2.9636e-05	
135.000000	0.0768094 	135.000000	0.0789443 	135.000000	0.0784862 	135.000000	0.0782835 	135.000000	0.0789156 	135.000000	2.86256e-05	
140.000000	0.0748311 	140.000000	0.0769792 	140.000000	0.0765306 	140.000000	0.0763243 	140.000000	0.0769515 	140.000000	2.76843e-05	
145.000000	0.0729794 	145.000000	0.0751435 	145.000000	0.0746987 	145.000000	0.0744936 	145.000000	0.0751167 	145.000000	2.68052e-05	
150.000000	0.0712423 	150.000000	0.0734247 	150.000000	0.0729778 	150.000000	0.0727789 	150.000000	0.0733987 	150.000000	2.59822e-05	
155.000000	0.0687964 	155.000000	0.0718118 	155.000000	0.0713683 	155.000000	0.0711697 	155.000000	0.0717866 	155.000000	2.52101e-05	
160.000000	0.0673628 	160.000000	0.0702955 	160.000000	0.0698553 	160.000000	0.0696564 	160.000000	0.070271  	160.000000	2.44842e-05	
165.000000	0.0660109 	165.000000	0.0688671 	165.000000	0.0684244 	165.000000	0.0682307 	165.000000	0.0688433 	165.000000	2.38004e-05	
170.000000	0.0647338 	170.000000	0.0675193 	170.000000	0.0670767 	170.000000	0.0668853 	170.000000	0.0674962 	170.000000	2.31552e-05	
175.000000	0.0635254 	175.000000	0.0662454 	175.000000	0.0658068 	175.000000	0.0656135 	175.000000	0.0662229 	175.000000	2.25453e-05	
180.000000	0.0623803 	180.000000	0.0650395 	180.000000	0.0646048 	180.000000	0.0644096 	180.000000	0.0650175 	180.000000	2.19679e-05	
185.000000	0.0612934 	185.000000	0.0638962 	185.000000	0.0634618 	185.000000	0.0632681 	185.000000	0.0638748 	185.000000	2.14204e-05	
190.000000	0.0602605 	190.000000	0.0628108 	190.000000	0.0623737 	190.000000	0.0621844 	190.000000	0.0627899 	190.000000	2.09005e-05	
195.000000	0.0592775 	195.000000	0.061779  	195.000000	0.0613419 	195.000000	0.0611543 	195.000000	0.0617586 	195.000000	2.04061e-05	
200.000000	0.0583409 	200.000000	0.060797  	200.000000	0.0603627 	200.000000	0.0601739 	200.000000	0.060777  	200.000000	1.99355e-05	
210.000000	0.0565942 	210.000000	0.0589683 	210.000000	0.0585316 	210.000000	0.0583485 	210.000000	0.0589492 	210.000000	1.90587e-05	
220.000000	0.0549978 	220.000000	0.0573004 	220.000000	0.0568671 	220.000000	0.0566839 	220.000000	0.0572821 	220.000000	1.82583e-05	
230.000000	0.0535329 	230.000000	0.0557731 	230.000000	0.0553386 	230.000000	0.0551601 	230.000000	0.0557555 	230.000000	1.75248e-05	
240.000000	0.0521838 	240.000000	0.0543693 	240.000000	0.0539368 	240.000000	0.05376   	240.000000	0.0543525 	240.000000	1.68499e-05	
250.000000	0.0509373 	250.000000	0.0530748 	250.000000	0.0526486 	250.000000	0.0524694 	250.000000	0.0530586 	250.000000	1.62269e-05	
260.000000	0.0497821 	260.000000	0.0518773 	260.000000	0.0514527 	260.000000	0.0512762 	260.000000	0.0518617 	260.000000	1.56498e-05	
270.000000	0.0487083 	270.000000	0.0507665 	270.000000	0.0503427 	270.000000	0.0501698 	270.000000	0.0507514 	270.000000	1.51138e-05	
280.000000	0.0477078 	280.000000	0.0497333 	280.000000	0.0493151 	280.000000	0.0491414 	280.000000	0.0497187 	280.000000	1.46146e-05	
290.000000	0.0467733 	290.000000	0.04877   	290.000000	0.0483527 	290.000000	0.0481831 	290.000000	0.0487558 	290.000000	1.41484e-05	
300.000000	0.0458985 	300.000000	0.0478698 	300.000000	0.0474566 	300.000000	0.0472882 	300.000000	0.0478561 	300.000000	1.3712e-05	
310.000000	0.0450779 	310.000000	0.0470268 	310.000000	0.0466191 	310.000000	0.0464507 	310.000000	0.0470135 	310.000000	1.33027e-05	
320.000000	0.0443066 	320.000000	0.0462358 	320.000000	0.04583   	320.000000	0.0456654 	320.000000	0.0462229 	320.000000	1.2918e-05	
330.000000	0.0435803 	330.000000	0.0454923 	330.000000	0.0450917 	330.000000	0.0449277 	330.000000	0.0454797 	330.000000	1.25556e-05	
340.000000	0.0428953 	340.000000	0.0447921 	340.000000	0.0443978 	340.000000	0.0442336 	340.000000	0.0447799 	340.000000	1.22137e-05	
350.000000	0.0422482 	350.000000	0.0441317 	350.000000	0.0437404 	350.000000	0.0435795 	350.000000	0.0441198 	350.000000	1.18906e-05	
360.000000	0.041636  	360.000000	0.0435079 	360.000000	0.0431215 	360.000000	0.042962  	360.000000	0.0434963 	360.000000	1.15847e-05	
370.000000	0.041056  	370.000000	0.0429178 	370.000000	0.0425386 	370.000000	0.0423784 	370.000000	0.0429065 	370.000000	1.12947e-05	
380.000000	0.0405058 	380.000000	0.0423588 	380.000000	0.0419844 	380.000000	0.041826  	380.000000	0.0423478 	380.000000	1.10194e-05	
390.000000	0.0399831 	390.000000	0.0418286 	390.000000	0.0414582 	390.000000	0.0413024 	390.000000	0.0418178 	390.000000	1.07576e-05	
400.000000	0.0394861 	400.000000	0.041325  	400.000000	0.0409615 	400.000000	0.0408057 	400.000000	0.0413145 	400.000000	1.05084e-05	
410.000000	0.0390129 	410.000000	0.0408463 	410.000000	0.0404899 	410.000000	0.0403338 	410.000000	0.0408361 	410.000000	1.02709e-05	
420.000000	0.038562  	420.000000	0.0403907 	420.000000	0.0400392 	420.000000	0.0398851 	420.000000	0.0403807 	420.000000	1.00443e-05	
430.000000	0.0381317 	430.000000	0.0399566 	430.000000	0.0396099 	430.000000	0.0394579 	430.000000	0.0399468 	430.000000	9.82777e-06	
440.000000	0.0377209 	440.000000	0.0395426 	440.000000	0.0392027 	440.000000	0.0390508 	440.000000	0.039533  	440.000000	9.62071e-06	
450.000000	0.0373283 	450.000000	0.0391475 	450.000000	0.038815  	450.000000	0.0386626 	450.000000	0.039138  	450.000000	9.4225e-06	
460.000000	0.0369527 	460.000000	0.0387699 	460.000000	0.0384432 	460.000000	0.038292  	460.000000	0.0387606 	460.000000	9.23257e-06	
470.000000	0.0365931 	470.000000	0.0384088 	470.000000	0.038087  	470.000000	0.0379379 	470.000000	0.0383998 	470.000000	9.05041e-06	
480.000000	0.0362485 	480.000000	0.0380633 	480.000000	0.0377473 	480.000000	0.0375992 	480.000000	0.0380544 	480.000000	8.87555e-06	
490.000000	0.0359182 	490.000000	0.0377323 	490.000000	0.0374236 	490.000000	0.0372752 	490.000000	0.0377236 	490.000000	8.70754e-06	
500.000000	0.0356012 	500.000000	0.0374151 	500.000000	0.0371135 	500.000000	0.0369649 	500.000000	0.0374066 	500.000000	8.546e-06 	
520.000000	0.0350044 	520.000000	0.0368189 	520.000000	0.036528  	520.000000	0.0363822 	520.000000	0.0368107 	520.000000	8.24084e-06	
540.000000	0.0344529 	540.000000	0.036269  	540.000000	0.0359905 	540.000000	0.0358457 	540.000000	0.036261  	540.000000	7.95743e-06	
560.000000	0.033942  	560.000000	0.0357605 	560.000000	0.0354952 	560.000000	0.0353503 	560.000000	0.0357528 	560.000000	7.6935e-06	
580.000000	0.0334677 	580.000000	0.0352893 	580.000000	0.0350341 	580.000000	0.034892  	580.000000	0.0352819 	580.000000	7.44709e-06	
600.000000	0.0330265 	600.000000	0.0348518 	600.000000	0.0346084 	600.000000	0.034467  	600.000000	0.0348446 	600.000000	7.21648e-06	
620.000000	0.0326155 	620.000000	0.0344448 	620.000000	0.0342138 	620.000000	0.0340721 	620.000000	0.0344378 	620.000000	7.00019e-06	
640.000000	0.0322319 	640.000000	0.0340655 	640.000000	0.0338443 	640.000000	0.0337045 	640.000000	0.0340587 	640.000000	6.79692e-06	
660.000000	0.0318733 	660.000000	0.0337114 	660.000000	0.0334999 	660.000000	0.0333618 	660.000000	0.0337048 	660.000000	6.6055e-06	
680.000000	0.0315378 	680.000000	0.0333804 	680.000000	0.0331802 	680.000000	0.0330417 	680.000000	0.033374  	680.000000	6.42492e-06	
700.000000	0.0312233 	700.000000	0.0330706 	700.000000	0.0328807 	700.000000	0.0327424 	700.000000	0.0330644 	700.000000	6.25427e-06	
720.000000	0.0309283 	720.000000	0.0327803 	720.000000	0.0325986 	720.000000	0.032462  	720.000000	0.0327742 	720.000000	6.09275e-06	
740.000000	0.0306512 	740.000000	0.0325078 	740.000000	0.0323342 	740.000000	0.0321991 	740.000000	0.0325019 	740.000000	5.93963e-06	
760.000000	0.0303907 	760.000000	0.0322519 	760.000000	0.0320875 	760.000000	0.0319522 	760.000000	0.0322461 	760.000000	5.79427e-06	
780.000000	0.0301456 	780.000000	0.0320113 	780.000000	0.0318557 	780.000000	0.0317201 	780.000000	0.0320056 	780.000000	5.65609e-06	
800.000000	0.0299149 	800.000000	0.0317848 	800.000000	0.0316364 	800.000000	0.0315017 	800.000000	0.0317793 	800.000000	5.52457e-06	
820.000000	0.0296974 	820.000000	0.0315715 	820.000000	0.0314297 	820.000000	0.0312966 	820.000000	0.0315661 	820.000000	5.39922e-06	
840.000000	0.0294924 	840.000000	0.0313704 	840.000000	0.0312382 	840.000000	0.0311059 	840.000000	0.0313651 	840.000000	5.27962e-06	
860.000000	0.0292989 	860.000000	0.0311808 	860.000000	0.0310584 	860.000000	0.030926  	860.000000	0.0311756 	860.000000	5.16537e-06	
880.000000	0.0291164 	880.000000	0.0310017 	880.000000	0.0308888 	880.000000	0.0307561 	880.000000	0.0309967 	880.000000	5.05613e-06	
900.000000	0.0289439 	900.000000	0.0308327 	900.000000	0.030728  	900.000000	0.0305956 	900.000000	0.0308277 	900.000000	4.95156e-06	
920.000000	0.0287811 	920.000000	0.0306729 	920.000000	0.0305751 	920.000000	0.0304437 	920.000000	0.0306681 	920.000000	4.85137e-06	
940.000000	0.0286272 	940.000000	0.0305219 	940.000000	0.0304302 	940.000000	0.0303    	940.000000	0.0305172 	940.000000	4.75529e-06	
960.000000	0.0284818 	960.000000	0.0303791 	960.000000	0.0302934 	960.000000	0.0301639 	960.000000	0.0303745 	960.000000	4.66306e-06	
980.000000	0.0283443 	980.000000	0.030244  	980.000000	0.0301645 	980.000000	0.0300349 	980.000000	0.0302395 	980.000000	4.57446e-06	
1000.000000	0.0282143 	1000.000000	0.0301162 	1000.000000	0.0300425 	1000.000000	0.0299127 	1000.000000	0.0301117 	1000.000000	4.48928e-06	
1020.000000	0.0280914 	1020.000000	0.0299952 	1020.000000	0.0299266 	1020.000000	0.0297967 	1020.000000	0.0299908 	1020.000000	4.40731e-06	
1040.000000	0.0279752 	1040.000000	0.0298807 	1040.000000	0.0298162 	1040.000000	0.0296867 	1040.000000	0.0298764 	1040.000000	4.32838e-06	
1060.000000	0.0278654 	1060.000000	0.0297723 	1060.000000	0.0297109 	1060.000000	0.0295822 	1060.000000	0.029768  	1060.000000	4.25232e-06	
1080.000000	0.0277616 	1080.000000	0.0296696 	1080.000000	0.0296108 	1080.000000	0.0294829 	1080.000000	0.0296654 	1080.000000	4.17897e-06	
1100.000000	0.0276635 	1100.000000	0.0295724 	1100.000000	0.0295157 	1100.000000	0.0293886 	1100.000000	0.0295683 	1100.000000	4.1082e-06	
1120.000000	0.0275709 	1120.000000	0.0294803 	1120.000000	0.0294258 	1120.000000	0.0292989 	1120.000000	0.0294763 	1120.000000	4.03986e-06	
1140.000000	0.0274834 	1140.000000	0.0293932 	1140.000000	0.0293406 	1140.000000	0.0292137 	1140.000000	0.0293892 	1140.000000	3.97383e-06	
1160.000000	0.0274008 	1160.000000	0.0293107 	1160.000000	0.0292597 	1160.000000	0.0291326 	1160.000000	0.0293068 	1160.000000	3.90999e-06	
1180.000000	0.0273228 	1180.000000	0.0292327 	1180.000000	0.0291827 	1180.000000	0.0290555 	1180.000000	0.0292288 	1180.000000	3.84824e-06	
1200.000000	0.0272494 	1200.000000	0.0291588 	1200.000000	0.0291093 	1200.000000	0.0289821 	1200.000000	0.0291551 	1200.000000	3.78847e-06	
1220.000000	0.0271802 	1220.000000	0.029089  	1220.000000	0.0290391 	1220.000000	0.0289123 	1220.000000	0.0290853 	1220.000000	3.73059e-06	
1240.000000	0.027115  	1240.000000	0.029023  	1240.000000	0.0289721 	1240.000000	0.0288458 	1240.000000	0.0290193 	1240.000000	3.67452e-06	
1260.000000	0.0270537 	1260.000000	0.0289606 	1260.000000	0.0289081 	1260.000000	0.0287824 	1260.000000	0.028957  	1260.000000	3.62015e-06	
1280.000000	0.0269962 	1280.000000	0.0289017 	1280.000000	0.0288472 	1280.000000	0.0287222 	1280.000000	0.0288981 	1280.000000	3.56743e-06	
1300.000000	0.0269422 	1300.000000	0.028846  	1300.000000	0.0287893 	1300.000000	0.0286647 	1300.000000	0.0288425 	1300.000000	3.51626e-06	
1320.000000	0.0268916 	1320.000000	0.0287936 	1320.000000	0.0287344 	1320.000000	0.0286101 	1320.000000	0.0287901 	1320.000000	3.4666e-06	
1340.000000	0.0268442 	1340.000000	0.0287442 	1340.000000	0.0286822 	1340.000000	0.028558  	1340.000000	0.0287408 	1340.000000	3.41836e-06	
1360.000000	0.0268    	1360.000000	0.0286976 	1360.000000	0.0286327 	1360.000000	0.0285084 	1360.000000	0.0286943 	1360.000000	3.37149e-06	
1380.000000	0.0267588 	1380.000000	0.0286539 	1380.000000	0.0285856 	1380.000000	0.0284611 	1380.000000	0.0286505 	1380.000000	3.32593e-06	
1400.000000	0.0267204 	1400.000000	0.0286128 	1400.000000	0.0285407 	1400.000000	0.0284161 	1400.000000	0.0286095 	1400.000000	3.28162e-06	
1420.000000	0.0266849 	1420.000000	0.0285742 	1420.000000	0.0284979 	1420.000000	0.0283733 	1420.000000	0.0285709 	1420.000000	3.23852e-06	
1440.000000	0.0266519 	1440.000000	0.028538  	1440.000000	0.0284571 	1440.000000	0.0283325 	1440.000000	0.0285348 	1440.000000	3.19657e-06	
1460.000000	0.0266216 	1460.000000	0.0285042 	1460.000000	0.028418  	1460.000000	0.0282936 	1460.000000	0.0285011 	1460.000000	3.15573e-06	
1480.000000	0.0265937 	1480.000000	0.0284727 	1480.000000	0.0283807 	1480.000000	0.0282566 	1480.000000	0.0284696 	1480.000000	3.11595e-06	
1500.000000	0.0265682 	1500.000000	0.0284433 	1500.000000	0.0283451 	1500.000000	0.0282214 	1500.000000	0.0284402 	1500.000000	3.0772e-06	
1520.000000	0.0265449 	1520.000000	0.028416  	1520.000000	0.0283112 	1520.000000	0.0281879 	1520.000000	0.0284129 	1520.000000	3.03943e-06	
1540.000000	0.0265239 	1540.000000	0.0283906 	1540.000000	0.0282789 	1540.000000	0.0281561 	1540.000000	0.0283876 	1540.000000	3.0026e-06	
1560.000000	0.026505  	1560.000000	0.0283672 	1560.000000	0.0282482 	1560.000000	0.0281258 	1560.000000	0.0283643 	1560.000000	2.96669e-06	
1580.000000	0.0264882 	1580.000000	0.0283457 	1580.000000	0.0282191 	1580.000000	0.0280969 	1580.000000	0.0283427 	1580.000000	2.93165e-06	
1600.000000	0.0264733 	1600.000000	0.0283259 	1600.000000	0.0281915 	1600.000000	0.0280696 	1600.000000	0.028323  	1600.000000	2.89746e-06	
1620.000000	0.0264603 	1620.000000	0.0283078 	1620.000000	0.0281653 	1620.000000	0.0280435 	1620.000000	0.0283049 	1620.000000	2.86408e-06	
1640.000000	0.0264492 	1640.000000	0.0282914 	1640.000000	0.0281406 	1640.000000	0.0280188 	1640.000000	0.0282885 	1640.000000	2.83149e-06	
1660.000000	0.0264399 	1660.000000	0.0282765 	1660.000000	0.0281172 	1660.000000	0.0279954 	1660.000000	0.0282737 	1660.000000	2.79965e-06	
1680.000000	0.0264323 	1680.000000	0.0282632 	1680.000000	0.028095  	1680.000000	0.0279732 	1680.000000	0.0282604 	1680.000000	2.76854e-06	
1700.000000	0.0264264 	1700.000000	0.0282514 	1700.000000	0.0280741 	1700.000000	0.0279521 	1700.000000	0.0282486 	1700.000000	2.73815e-06	
1750.000000	0.0264186 	1750.000000	0.028228  	1750.000000	0.0280263 	1750.000000	0.0279042 	1750.000000	0.0282253 	1750.000000	2.66508e-06	
1800.000000	0.0264202 	1800.000000	0.0282128 	1800.000000	0.0279846 	1800.000000	0.0278625 	1800.000000	0.0282102 	1800.000000	2.59593e-06	
1850.000000	0.0264305 	1850.000000	0.0282051 	1850.000000	0.0279483 	1850.000000	0.0278266 	1850.000000	0.0282026 	1850.000000	2.5304e-06	
1900.000000	0.0264488 	1900.000000	0.0282044 	1900.000000	0.027917  	1900.000000	0.0277958 	1900.000000	0.0282019 	1900.000000	2.46819e-06	
1950.000000	0.0264747 	1950.000000	0.0282101 	1950.000000	0.0278903 	1950.000000	0.0277697 	1950.000000	0.0282077 	1950.000000	2.40906e-06	
2000.000000	0.0265075 	2000.000000	0.0282218 	2000.000000	0.0278679 	2000.000000	0.0277479 	2000.000000	0.0282194 	2000.000000	2.35278e-06	
2100.000000	0.0265924 	2100.000000	0.0282612 	2100.000000	0.0278348 	2100.000000	0.0277156 	2100.000000	0.028259  	2100.000000	2.24799e-06	
2200.000000	0.0267003 	2200.000000	0.0283197 	2200.000000	0.0278151 	2200.000000	0.0276963 	2200.000000	0.0283176 	2200.000000	2.15241e-06	
2300.000000	0.0268286 	2300.000000	0.0283948 	2300.000000	0.0278064 	2300.000000	0.0276879 	2300.000000	0.0283928 	2300.000000	2.06486e-06	
2400.000000	0.026975  	2400.000000	0.0284844 	2400.000000	0.027807  	2400.000000	0.0276887 	2400.000000	0.0284824 	2400.000000	1.98435e-06	
2500.000000	0.0271377 	2500.000000	0.0285868 	2500.000000	0.0278154 	2500.000000	0.0276971 	2500.000000	0.0285849 	2500.000000	1.91007e-06	
2600.000000	0.027315  	2600.000000	0.0287004 	2600.000000	0.0278302 	2600.000000	0.0277122 	2600.000000	0.0286986 	2600.000000	1.84132e-06	
2700.000000	0.0275056 	2700.000000	0.0288241 	2700.000000	0.0278505 	2700.000000	0.0277327 	2700.000000	0.0288223 	2700.000000	1.77748e-06	
2800.000000	0.0277083 	2800.000000	0.0289566 	2800.000000	0.0278755 	2800.000000	0.027758  	2800.000000	0.0289549 	2800.000000	1.71805e-06	
2900.000000	0.0279221 	2900.000000	0.0290972 	2900.000000	0.0279045 	2900.000000	0.0277872 	2900.000000	0.0290955 	2900.000000	1.66258e-06	
3000.000000	0.0281461 	3000.000000	0.0292449 	3000.000000	0.0279368 	3000.000000	0.0278199 	3000.000000	0.0292433 	3000.000000	1.61069e-06	
3200.000000	0.0286215 	3200.000000	0.0295591 	3200.000000	0.0280096 	3200.000000	0.0278934 	3200.000000	0.0295576 	3200.000000	1.51632e-06	
3400.000000	0.0291293 	3400.000000	0.0298945 	3400.000000	0.0280908 	3400.000000	0.0279752 	3400.000000	0.0298931 	3400.000000	1.43268e-06	
3600.000000	0.0296655 	3600.000000	0.0302476 	3600.000000	0.0281782 	3600.000000	0.0280631 	3600.000000	0.0302462 	3600.000000	1.35804e-06	
3800.000000	0.0302267 	3800.000000	0.0306153 	3800.000000	0.0282698 	3800.000000	0.028155  	3800.000000	0.030614  	3800.000000	1.29101e-06	
4000.000000	0.0308104 	4000.000000	0.0309954 	4000.000000	0.0283643 	4000.000000	0.0282497 	4000.000000	0.0309942 	4000.000000	1.23046e-06	
4200.000000	0.0314144 	4200.000000	0.0313861 	4200.000000	0.0284607 	4200.000000	0.0283461 	4200.000000	0.0313849 	4200.000000	1.17549e-06	
4400.000000	0.032037  	4400.000000	0.0317858 	4400.000000	0.028558  	4400.000000	0.0284436 	4400.000000	0.0317846 	4400.000000	1.12536e-06	
4600.000000	0.0326765 	4600.000000	0.0321931 	4600.000000	0.0286557 	4600.000000	0.0285413 	4600.000000	0.0321921 	4600.000000	1.07944e-06	
4800.000000	0.0333319 	4800.000000	0.0326072 	4800.000000	0.0287533 	4800.000000	0.028639  	4800.000000	0.0326062 	4800.000000	1.03723e-06	
5000.000000	0.0340021 	5000.000000	0.0330271 	5000.000000	0.0288504 	5000.000000	0.0287362 	5000.000000	0.0330261 	5000.000000	9.98292e-07	
5250.000000	0.0348593 	5250.000000	0.0335591 	5250.000000	0.0289707 	5250.000000	0.0288567 	5250.000000	0.0335581 	5250.000000	9.53654e-07	
5500.000000	0.0357367 	5500.000000	0.0340977 	5500.000000	0.0290895 	5500.000000	0.0289756 	5500.000000	0.0340968 	5500.000000	9.12946e-07	
6000.000000	0.0375476 	6000.000000	0.0351913 	6000.000000	0.0293216 	6000.000000	0.029208  	6000.000000	0.0351905 	6000.000000	8.41392e-07	
6500.000000	0.0394274 	6500.000000	0.0363019 	6500.000000	0.0295453 	6500.000000	0.029432  	6500.000000	0.0363012 	6500.000000	7.80512e-07	
7000.000000	0.0413704 	7000.000000	0.0374252 	7000.000000	0.0297604 	7000.000000	0.0296473 	7000.000000	0.0374244 	7000.000000	7.28064e-07	
7500.000000	0.0433728 	7500.000000	0.0385579 	7500.000000	0.0299666 	7500.000000	0.0298537 	7500.000000	0.0385572 	7500.000000	6.82397e-07	
8000.000000	0.0454314 	8000.000000	0.0396978 	8000.000000	0.0301645 	8000.000000	0.0300516 	8000.000000	0.0396971 	8000.000000	6.42264e-07	
8500.000000	0.047544  	8500.000000	0.0408431 	8500.000000	0.0303539 	8500.000000	0.0302413 	8500.000000	0.0408425 	8500.000000	6.0671e-07	
9000.000000	0.0497086 	9000.000000	0.0419926 	9000.000000	0.0305351 	9000.000000	0.0304232 	9000.000000	0.041992  	9000.000000	5.74985e-07	
9500.000000	0.0519239 	9500.000000	0.0431451 	9500.000000	0.0307089 	9500.000000	0.0305977 	9500.000000	0.0431446 	9500.000000	5.46499e-07	
10000.000000	0.0541888 	10000.000000	0.0443    	10000.000000	0.0308758 	10000.000000	0.0307653 	10000.000000	0.0442995 	10000.000000	5.20774e-07	
11000.000000	0.0588635 	11000.000000	0.0466142 	11000.000000	0.0311911 	11000.000000	0.0310813 	11000.000000	0.0466137 	11000.000000	4.76135e-07	
12000.000000	0.0637274 	12000.000000	0.0489314 	12000.000000	0.0314839 	12000.000000	0.0313744 	12000.000000	0.048931  	12000.000000	4.38719e-07	
13000.000000	0.0687767 	13000.000000	0.0512494 	13000.000000	0.0317563 	13000.000000	0.0316473 	13000.000000	0.051249  	13000.000000	4.06893e-07	
14000.000000	0.074009  	14000.000000	0.0535664 	14000.000000	0.0320105 	14000.000000	0.0319024 	14000.000000	0.0535661 	14000.000000	3.79481e-07	
15000.000000	0.0794228 	15000.000000	0.0558816 	15000.000000	0.0322485 	15000.000000	0.0321416 	15000.000000	0.0558813 	15000.000000	3.55617e-07	
16000.000000	0.0850169 	16000.000000	0.0581941 	16000.000000	0.0324724 	16000.000000	0.0323666 	16000.000000	0.0581938 	16000.000000	3.3465e-07	
17000.000000	0.0907908 	17000.000000	0.0605036 	17000.000000	0.0326837 	17000.000000	0.0325791 	17000.000000	0.0605033 	17000.000000	3.16077e-07	
18000.000000	0.0967441 	18000.000000	0.0628096 	18000.000000	0.0328837 	18000.000000	0.0327801 	18000.000000	0.0628093 	18000.000000	2.99508e-07	
19000.000000	0.102877  	19000.000000	0.0651121 	19000.000000	0.0330735 	19000.000000	0.0329708 	19000.000000	0.0651118 	19000.000000	2.84632e-07	
20000.000000	0.109189  	20000.000000	0.0674108 	20000.000000	0.033254  	20000.000000	0.0331522 	20000.000000	0.0674105 	20000.000000	2.71201e-07	
21000.000000	0.115681  	21000.000000	0.0697058 	21000.000000	0.0334258 	21000.000000	0.033325  	21000.000000	0.0697055 	21000.000000	2.59012e-07	
22000.000000	0.122353  	22000.000000	0.0719969 	22000.000000	0.0335889 	22000.000000	0.0334901 	22000.000000	0.0719967 	22000.000000	2.47898e-07	
23000.000000	0.129205  	23000.000000	0.0742843 	23000.000000	0.0337457 	23000.000000	0.0336481 	23000.000000	0.074284  	23000.000000	2.37723e-07	
24000.000000	0.136239  	24000.000000	0.0765679 	24000.000000	0.0338964 	24000.000000	0.0337995 	24000.000000	0.0765677 	24000.000000	2.28371e-07	
25000.000000	0.143454  	25000.000000	0.0788478 	25000.000000	0.0340407 	25000.000000	0.0339448 	25000.000000	0.0788476 	25000.000000	2.19746e-07	
26000.000000	0.150852  	26000.000000	0.0811241 	26000.000000	0.0341789 	26000.000000	0.0340845 	26000.000000	0.0811238 	26000.000000	2.11765e-07	
27000.000000	0.158433  	27000.000000	0.0833967 	27000.000000	0.0343115 	27000.000000	0.034219  	27000.000000	0.0833965 	27000.000000	2.04358e-07	
28000.000000	0.166197  	28000.000000	0.0856659 	28000.000000	0.0344392 	28000.000000	0.0343486 	28000.000000	0.0856657 	28000.000000	1.97465e-07	
29000.000000	0.174147  	29000.000000	0.0879315 	29000.000000	0.0345624 	29000.000000	0.0344737 	29000.000000	0.0879314 	29000.000000	1.91033e-07	
30000.000000	0.182281  	30000.000000	0.0901938 	30000.000000	0.0346814 	30000.000000	0.0345946 	30000.000000	0.0901937 	30000.000000	1.85018e-07	
32000.000000	0.199111  	32000.000000	0.0947086 	32000.000000	0.0349082 	32000.000000	0.0348248 	32000.000000	0.0947084 	32000.000000	1.74083e-07	
34000.000000	0.216693  	34000.000000	0.0992107 	34000.000000	0.0351209 	34000.000000	0.035041  	34000.000000	0.0992105 	34000.000000	1.644e-07 	
36000.000000	0.235034  	36000.000000	0.103701  	36000.000000	0.0353207 	36000.000000	0.0352447 	36000.000000	0.103701  	36000.000000	1.55762e-07	
38000.000000	0.254143  	38000.000000	0.108179  	38000.000000	0.0355087 	38000.000000	0.0354374 	38000.000000	0.108179  	38000.000000	1.48008e-07	
40000.000000	0.274026  	40000.000000	0.112646  	40000.000000	0.0356864 	40000.000000	0.03562   	40000.000000	0.112646  	40000.000000	1.41007e-07	
42000.000000	0.294693  	42000.000000	0.117103  	42000.000000	0.0358553 	42000.000000	0.0357937 	42000.000000	0.117103  	42000.000000	1.34655e-07	
44000.000000	0.316151  	44000.000000	0.12155   	44000.000000	0.0360163 	44000.000000	0.0359592 	44000.000000	0.12155   	44000.000000	1.28864e-07	
46000.000000	0.338409  	46000.000000	0.125986  	46000.000000	0.0361704 	46000.000000	0.0361172 	46000.000000	0.125986  	46000.000000	1.23563e-07	
48000.000000	0.361474  	48000.000000	0.130414  	48000.000000	0.0363179 	48000.000000	0.0362684 	48000.000000	0.130414  	48000.000000	1.18691e-07	
50000.000000	0.385355  	50000.000000	0.134832  	50000.000000	0.0364587 	50000.000000	0.0364133 	50000.000000	0.134832  	50000.000000	1.14198e-07	
