Energy (MeV/u)1	0 - [He-base] F.Hubert et al, AD&ND Tables 46(1990)1	Energy (MeV/u)2	1 - [H -base] J.F.Ziegler et al, Pergamon Press, NY (low energy)	Energy (MeV/u)3	2 - ATIMA 1.2  LS-theory (recommended for high energy)	Energy (MeV/u)4	3 - ATIMA 1.2  without LS-correction	Energy (MeV/u)5	4 - electrical component of [1] - J.F.Ziegler et al	Energy (MeV/u)6	5 - nuclear component of [1] - J.F.Ziegler et al	
0.001000	10.0354   	0.001000	9.90459   	0.001000	8.45778   	0.001000	8.45778   	0.001000	2.80822   	0.001000	7.09637   	
0.002000	10.2593   	0.002000	10.1315   	0.002000	8.41489   	0.002000	8.41489   	0.002000	3.64181   	0.002000	6.48964   	
0.005000	10.3076   	0.005000	10.1132   	0.005000	8.0221    	0.005000	8.0221    	0.005000	5.13505   	0.005000	4.97814   	
0.008000	10.4754   	0.008000	10.2065   	0.008000	7.93206   	0.008000	7.93206   	0.008000	6.12477   	0.008000	4.08178   	
0.010000	10.6383   	0.010000	10.3249   	0.010000	7.97029   	0.010000	7.97029   	0.010000	6.65934   	0.010000	3.66556   	
0.015000	11.1172   	0.015000	10.7093   	0.015000	8.2285    	0.015000	8.2285    	0.015000	7.75292   	0.015000	2.95635   	
0.020000	11.6242   	0.020000	11.1394   	0.020000	8.59106   	0.020000	8.59106   	0.020000	8.63609   	0.020000	2.50332   	
0.025000	12.1244   	0.025000	11.5748   	0.025000	8.99123   	0.025000	8.99123   	0.025000	9.38984   	0.025000	2.18494   	
0.030000	12.6074   	0.030000	12.0013   	0.030000	9.40293   	0.030000	9.40293   	0.030000	10.0543   	0.030000	1.94703   	
0.035000	13.0702   	0.035000	12.4141   	0.035000	9.81474   	0.035000	9.81474   	0.035000	10.6526   	0.035000	1.76146   	
0.040000	13.6135   	0.040000	12.9476   	0.040000	10.3964   	0.040000	10.3964   	0.040000	11.3355   	0.040000	1.61204   	
0.045000	14.1908   	0.045000	13.774    	0.045000	11.3834   	0.045000	11.3834   	0.045000	12.2853   	0.045000	1.48878   	
0.050000	14.6535   	0.050000	14.5911   	0.050000	12.386    	0.050000	12.386    	0.050000	13.206    	0.050000	1.3851    	
0.055000	15.436    	0.055000	15.393    	0.055000	13.3926   	0.055000	13.3926   	0.055000	14.0965   	0.055000	1.2965    	
0.060000	16.1438   	0.060000	16.1753   	0.060000	14.3942   	0.060000	14.3942   	0.060000	14.9555   	0.060000	1.2198    	
0.070000	17.3903   	0.070000	17.6595   	0.070000	16.3448   	0.070000	16.3448   	0.070000	16.5763   	0.070000	1.08325   	
0.080000	18.7549   	0.080000	19.0495   	0.080000	18.2176   	0.080000	18.2176   	0.080000	18.0654   	0.080000	0.984082  	
0.090000	19.9548   	0.090000	20.3273   	0.090000	19.9764   	0.090000	19.9764   	0.090000	19.4242   	0.090000	0.903155  	
0.100000	21.0231   	0.100000	21.4934   	0.100000	21.6088   	0.100000	21.6088   	0.100000	20.6576   	0.100000	0.835716  	
0.120000	22.3628   	0.120000	23.5098   	0.120000	24.4835   	0.120000	24.4835   	0.120000	22.7804   	0.120000	0.729419  	
0.140000	23.7661   	0.140000	25.4381   	0.140000	26.8689   	0.140000	26.8689   	0.140000	24.7889   	0.140000	0.649124  	
0.160000	25.4407   	0.160000	27.4767   	0.160000	28.8341   	0.160000	28.8341   	0.160000	26.8906   	0.160000	0.586104  	
0.180000	27.019    	0.180000	29.1797   	0.180000	30.4578   	0.180000	30.4578   	0.180000	28.6445   	0.180000	0.535189  	
0.200000	28.5497   	0.200000	30.6143   	0.200000	31.8128   	0.200000	31.8128   	0.200000	30.1212   	0.200000	0.493108  	
0.250000	31.2624   	0.250000	33.3784   	0.250000	34.3948   	0.250000	34.3948   	0.250000	32.9645   	0.250000	0.413867  	
0.300000	33.7126   	0.300000	35.4172   	0.300000	36.2849   	0.300000	36.2849   	0.300000	35.0591   	0.300000	0.358085  	
0.350000	35.9837   	0.350000	37.1284   	0.350000	37.7989   	0.350000	37.7989   	0.350000	36.8119   	0.350000	0.316493  	
0.400000	37.9929   	0.400000	38.5745   	0.400000	39.0841   	0.400000	39.0841   	0.400000	38.2904   	0.400000	0.284179  	
0.450000	39.7547   	0.450000	39.8297   	0.450000	40.2103   	0.450000	40.2103   	0.450000	39.5714   	0.450000	0.258287  	
0.500000	41.2936   	0.500000	40.9371   	0.500000	41.2125   	0.500000	41.2125   	0.500000	40.7001   	0.500000	0.237034  	
0.600000	42.4172   	0.600000	42.8724   	0.600000	43.7212   	0.600000	43.7212   	0.600000	42.6683   	0.600000	0.204126  	
0.700000	43.2716   	0.700000	44.9442   	0.700000	45.7548   	0.700000	45.7548   	0.700000	44.7645   	0.700000	0.179746  	
0.800000	45.1534   	0.800000	46.566    	0.800000	47.3331   	0.800000	47.3331   	0.800000	46.4051   	0.800000	0.160902  	
0.900000	46.6012   	0.900000	47.8365   	0.900000	48.558    	0.900000	48.558    	0.900000	47.6906   	0.900000	0.145866  	
1.000000	47.7122   	1.000000	48.8284   	1.000000	49.5038   	1.000000	49.5038   	1.000000	48.6949   	1.000000	0.133567  	
1.250000	49.1543   	1.250000	50.2424   	1.250000	50.986    	1.250000	50.986    	1.250000	50.1316   	1.250000	0.11073   	
1.500000	49.6609   	1.500000	50.8362   	1.500000	51.6293   	1.500000	51.6293   	1.500000	50.7413   	1.500000	0.0949137 	
1.750000	49.6504   	1.750000	50.9606   	1.750000	51.7591   	1.750000	51.7591   	1.750000	50.8773   	1.750000	0.0832672 	
2.000000	49.1534   	2.000000	50.6107   	2.000000	51.5657   	2.000000	51.5657   	2.000000	50.5364   	2.000000	0.0743085 	
2.250000	48.5629   	2.250000	50.09     	2.250000	51.1656   	2.250000	51.1656   	2.250000	50.0228   	2.250000	0.0671886 	
2.500000	64.5389   	2.500000	49.4963   	2.500000	50.6323   	2.500000	50.6323   	2.500000	49.435    	2.500000	0.0613848 	
3.000000	61.7401   	3.000000	48.1911   	3.000000	49.3427   	3.000000	49.3427   	3.000000	48.1387   	3.000000	0.0524735 	
3.500000	58.9564   	3.500000	46.741    	3.500000	47.6728   	3.500000	47.6728   	3.500000	46.6951   	3.500000	0.0459336 	
4.000000	56.3128   	4.000000	45.3443   	4.000000	46.0676   	4.000000	46.0676   	4.000000	45.3034   	4.000000	0.0409167 	
4.500000	53.8501   	4.500000	44.042    	4.500000	44.5567   	4.500000	44.5567   	4.500000	44.0051   	4.500000	0.0369387 	
5.000000	51.5744   	5.000000	42.7835   	5.000000	43.1375   	5.000000	43.1375   	5.000000	42.7498   	5.000000	0.0337024 	
5.500000	49.4775   	5.500000	41.5689   	5.500000	41.8051   	5.500000	41.8051   	5.500000	41.5378   	5.500000	0.0310148 	
6.000000	47.5458   	6.000000	40.4095   	6.000000	40.5532   	6.000000	40.5532   	6.000000	40.3808   	6.000000	0.0287451 	
6.500000	45.7642   	6.500000	39.3092   	6.500000	39.3759   	6.500000	39.3759   	6.500000	39.2824   	6.500000	0.0268013 	
7.000000	44.1182   	7.000000	38.2644   	7.000000	38.2672   	7.000000	38.2672   	7.000000	38.2393   	7.000000	0.0251168 	
7.500000	42.594    	7.500000	37.2716   	7.500000	37.2214   	7.500000	37.2214   	7.500000	37.2479   	7.500000	0.0236421 	
8.000000	41.1795   	8.000000	36.329    	8.000000	36.2337   	8.000000	36.2337   	8.000000	36.3067   	8.000000	0.0223396 	
8.500000	39.8635   	8.500000	35.4333   	8.500000	35.2992   	8.500000	35.2992   	8.500000	35.4121   	8.500000	0.0211804 	
9.000000	38.6364   	9.000000	34.5811   	9.000000	34.4138   	9.000000	34.4138   	9.000000	34.5609   	9.000000	0.0201416 	
9.500000	37.4896   	9.500000	33.7693   	9.500000	33.5738   	9.500000	33.5738   	9.500000	33.7501   	9.500000	0.0192051 	
10.000000	36.4155   	10.000000	32.5651   	10.000000	32.7756   	10.000000	32.7756   	10.000000	32.5468   	10.000000	0.0183562 	
11.000000	34.4592   	11.000000	31.2579   	11.000000	31.0815   	11.000000	31.3824   	11.000000	31.2411   	11.000000	0.0168756 	
12.000000	32.7228   	12.000000	30.0483   	12.000000	29.5685   	12.000000	30.1141   	12.000000	30.0327   	12.000000	0.0156267 	
13.000000	31.1706   	13.000000	28.9284   	13.000000	28.2099   	13.000000	28.9559   	13.000000	28.9138   	13.000000	0.0145584 	
14.000000	29.7744   	14.000000	27.8902   	14.000000	26.9844   	14.000000	27.8946   	14.000000	27.8766   	14.000000	0.0136334 	
15.000000	28.5113   	15.000000	26.9262   	15.000000	25.874    	15.000000	26.9191   	15.000000	26.9133   	15.000000	0.0128244 	
16.000000	27.3629   	16.000000	26.0292   	16.000000	24.8637   	16.000000	26.0198   	16.000000	26.0171   	16.000000	0.0121104 	
17.000000	26.3139   	17.000000	25.1929   	17.000000	23.9407   	17.000000	25.1884   	17.000000	25.1814   	17.000000	0.0114755 	
18.000000	25.3515   	18.000000	24.4117   	18.000000	23.095    	18.000000	24.418    	18.000000	24.4007   	18.000000	0.0109069 	
19.000000	24.4653   	19.000000	23.6803   	19.000000	22.3182   	19.000000	23.7023   	19.000000	23.6699   	19.000000	0.0103947 	
20.000000	23.6464   	20.000000	22.9943   	20.000000	21.6032   	20.000000	23.0361   	20.000000	22.9844   	20.000000	0.00993061	
21.000000	22.8872   	21.000000	22.3497   	21.000000	20.9429   	21.000000	22.4146   	21.000000	22.3402   	21.000000	0.00950817	
22.000000	22.1812   	22.000000	21.7429   	22.000000	20.3307   	22.000000	21.8338   	22.000000	21.7338   	22.000000	0.00912189	
23.000000	21.5228   	23.000000	21.1707   	23.000000	19.7623   	23.000000	21.2901   	23.000000	21.1619   	23.000000	0.00876725	
24.000000	20.9074   	24.000000	20.6301   	24.000000	19.2348   	24.000000	20.7804   	24.000000	20.6217   	24.000000	0.00844045	
25.000000	20.3307   	25.000000	20.1187   	25.000000	18.7447   	25.000000	20.3017   	25.000000	20.1106   	25.000000	0.00813829	
27.000000	19.2795   	27.000000	19.1744   	27.000000	17.8601   	27.000000	19.428    	27.000000	19.1669   	27.000000	0.00759734	
29.000000	18.3449   	29.000000	18.3221   	29.000000	17.0859   	29.000000	18.6518   	29.000000	18.315    	29.000000	0.00712689	
31.000000	17.5082   	31.000000	17.5489   	31.000000	16.4178   	31.000000	17.897    	31.000000	17.5422   	31.000000	0.0067138 	
33.000000	16.7545   	33.000000	16.8443   	33.000000	15.821    	33.000000	17.1539   	33.000000	16.8379   	33.000000	0.00634804	
35.000000	16.0716   	35.000000	16.1994   	35.000000	15.2702   	35.000000	16.4757   	35.000000	16.1934   	35.000000	0.0060218 	
38.000000	15.1594   	38.000000	15.3285   	38.000000	14.5188   	38.000000	15.5624   	38.000000	15.3229   	38.000000	0.00559338	
41.000000	14.359    	41.000000	14.5558   	41.000000	13.8467   	41.000000	14.7546   	41.000000	14.5505   	41.000000	0.00522435	
44.000000	13.6506   	44.000000	13.8655   	44.000000	13.2405   	44.000000	14.0349   	44.000000	13.8606   	44.000000	0.00490299	
47.000000	13.0189   	47.000000	13.245    	47.000000	12.692    	47.000000	13.3896   	47.000000	13.2404   	47.000000	0.00462051	
50.000000	12.4518   	50.000000	12.6843   	50.000000	12.1922   	50.000000	12.8076   	50.000000	12.68     	50.000000	0.00437015	
55.000000	11.6248   	55.000000	11.8608   	55.000000	11.4539   	55.000000	11.9551   	55.000000	11.8568   	55.000000	0.00401049	
60.000000	10.9172   	60.000000	11.1511   	60.000000	10.8109   	60.000000	11.2223   	60.000000	11.1473   	60.000000	0.00370777	
65.000000	10.3043   	65.000000	10.533    	65.000000	10.246    	65.000000	10.5858   	65.000000	10.5295   	65.000000	0.00344929	
70.000000	9.76785   	70.000000	9.98984   	70.000000	9.74775   	70.000000	10.0276   	70.000000	9.98661   	70.000000	0.0032259 	
75.000000	9.29416   	75.000000	9.50882   	75.000000	9.30368   	75.000000	9.53426   	75.000000	9.50579   	75.000000	0.00303081	
80.000000	8.87257   	80.000000	9.07983   	80.000000	8.90549   	80.000000	9.09502   	80.000000	9.07697   	80.000000	0.0028589 	
85.000000	8.49475   	85.000000	8.69485   	85.000000	8.54633   	85.000000	8.70146   	85.000000	8.69214   	85.000000	0.00270622	
90.000000	8.15406   	90.000000	8.34745   	90.000000	8.22074   	90.000000	8.34682   	90.000000	8.34488   	90.000000	0.00256966	
95.000000	7.84517   	95.000000	8.03238   	95.000000	7.92508   	95.000000	8.0256    	95.000000	8.02993   	95.000000	0.00244677	
100.000000	7.56373   	100.000000	7.74534   	100.000000	7.65359   	100.000000	7.73331   	100.000000	7.743     	100.000000	0.00233557	
105.000000	7.30614   	105.000000	7.48275   	105.000000	7.40596   	105.000000	7.46621   	105.000000	7.48052   	105.000000	0.00223444	
110.000000	7.06943   	110.000000	7.24162   	110.000000	7.177     	110.000000	7.22119   	110.000000	7.23948   	110.000000	0.00214206	
115.000000	6.85109   	115.000000	7.01943   	115.000000	6.96559   	115.000000	6.99562   	115.000000	7.01737   	115.000000	0.00205732	
120.000000	6.64903   	120.000000	6.81403   	120.000000	6.76976   	120.000000	6.78728   	120.000000	6.81205   	120.000000	0.0019793 	
125.000000	6.46143   	125.000000	6.62359   	125.000000	6.58767   	125.000000	6.59428   	125.000000	6.62169   	125.000000	0.00190722	
130.000000	6.28676   	130.000000	6.44655   	130.000000	6.41836   	130.000000	6.41498   	130.000000	6.44471   	130.000000	0.00184042	
135.000000	6.1237    	135.000000	6.28154   	135.000000	6.25997   	135.000000	6.24799   	135.000000	6.27976   	135.000000	0.00177832	
140.000000	5.9711    	140.000000	6.12737   	140.000000	6.11176   	140.000000	6.09209   	140.000000	6.12565   	140.000000	0.00172045	
145.000000	5.82796   	145.000000	5.98302   	145.000000	5.97311   	145.000000	5.9462    	145.000000	5.98136   	145.000000	0.00166638	
150.000000	5.6934    	150.000000	5.84759   	150.000000	5.84297   	150.000000	5.8094    	150.000000	5.84597   	150.000000	0.00161574	
155.000000	5.50165   	155.000000	5.72026   	155.000000	5.71977   	155.000000	5.68088   	155.000000	5.71869   	155.000000	0.00156821	
160.000000	5.39039   	160.000000	5.60035   	160.000000	5.60354   	160.000000	5.55989   	160.000000	5.59882   	160.000000	0.00152351	
165.000000	5.2853    	165.000000	5.48722   	165.000000	5.49431   	165.000000	5.44582   	165.000000	5.48573   	165.000000	0.0014814 	
170.000000	5.18586   	170.000000	5.38031   	170.000000	5.39083   	170.000000	5.33808   	170.000000	5.37887   	170.000000	0.00144164	
175.000000	5.09164   	175.000000	5.27914   	175.000000	5.29261   	175.000000	5.23616   	175.000000	5.27773   	175.000000	0.00140405	
180.000000	5.00223   	180.000000	5.18324   	180.000000	5.1996    	180.000000	5.1396    	180.000000	5.18187   	180.000000	0.00136844	
185.000000	4.91726   	185.000000	5.09223   	185.000000	5.11119   	185.000000	5.04801   	185.000000	5.0909    	185.000000	0.00133467	
190.000000	4.8364    	190.000000	5.00574   	190.000000	5.02691   	190.000000	4.96101   	190.000000	5.00444   	190.000000	0.0013026 	
195.000000	4.75937   	195.000000	4.92345   	195.000000	4.94664   	195.000000	4.87826   	195.000000	4.92218   	195.000000	0.00127209	
200.000000	4.68589   	200.000000	4.84505   	200.000000	4.87023   	200.000000	4.79946   	200.000000	4.84381   	200.000000	0.00124304	
210.000000	4.54865   	210.000000	4.69891   	210.000000	4.72783   	210.000000	4.65267   	210.000000	4.69772   	210.000000	0.00118889	
220.000000	4.42298   	220.000000	4.56544   	220.000000	4.59716   	220.000000	4.5187    	220.000000	4.5643    	220.000000	0.00113944	
230.000000	4.30747   	230.000000	4.44307   	230.000000	4.47783   	230.000000	4.39598   	230.000000	4.44198   	230.000000	0.0010941 	
240.000000	4.20093   	240.000000	4.33049   	240.000000	4.36735   	240.000000	4.28316   	240.000000	4.32944   	240.000000	0.00105236	
250.000000	4.10235   	250.000000	4.22659   	250.000000	4.26538   	250.000000	4.1791    	250.000000	4.22557   	250.000000	0.00101381	
260.000000	4.01087   	260.000000	4.1304    	260.000000	4.17112   	260.000000	4.08285   	260.000000	4.12942   	260.000000	0.000978092	
270.000000	3.92575   	270.000000	4.04112   	270.000000	4.08322   	270.000000	3.99356   	270.000000	4.04017   	270.000000	0.000944902	
280.000000	3.84635   	280.000000	3.95802   	280.000000	4.00144   	280.000000	3.91052   	280.000000	3.95711   	280.000000	0.000913975	
290.000000	3.77212   	290.000000	3.88052   	290.000000	3.92532   	290.000000	3.83312   	290.000000	3.87963   	290.000000	0.000885086	
300.000000	3.70256   	300.000000	3.80805   	300.000000	3.85413   	300.000000	3.7608    	300.000000	3.8072    	300.000000	0.000858037	
310.000000	3.63725   	310.000000	3.74017   	310.000000	3.7874    	310.000000	3.6931    	310.000000	3.73934   	310.000000	0.000832655	
320.000000	3.57582   	320.000000	3.67646   	320.000000	3.72481   	320.000000	3.62959   	320.000000	3.67565   	320.000000	0.000808789	
330.000000	3.51794   	330.000000	3.61655   	330.000000	3.66577   	330.000000	3.56991   	330.000000	3.61576   	330.000000	0.000786305	
340.000000	3.46331   	340.000000	3.56012   	340.000000	3.61005   	340.000000	3.51373   	340.000000	3.55935   	340.000000	0.000765085	
350.000000	3.41167   	350.000000	3.50688   	350.000000	3.55753   	350.000000	3.46077   	350.000000	3.50613   	350.000000	0.000745023	
360.000000	3.36278   	360.000000	3.45658   	360.000000	3.50791   	360.000000	3.41075   	360.000000	3.45585   	360.000000	0.000726027	
370.000000	3.31644   	370.000000	3.40899   	370.000000	3.46097   	370.000000	3.36346   	370.000000	3.40828   	370.000000	0.000708013	
380.000000	3.27246   	380.000000	3.3639    	380.000000	3.41655   	380.000000	3.31867   	380.000000	3.36321   	380.000000	0.000690905	
390.000000	3.23066   	390.000000	3.32113   	390.000000	3.37437   	390.000000	3.27621   	390.000000	3.32046   	390.000000	0.000674635	
400.000000	3.19089   	400.000000	3.28051   	400.000000	3.33415   	400.000000	3.23591   	400.000000	3.27985   	400.000000	0.000659144	
410.000000	3.15301   	410.000000	3.24188   	410.000000	3.2959    	410.000000	3.1976    	410.000000	3.24124   	410.000000	0.000644375	
420.000000	3.1169    	420.000000	3.20511   	420.000000	3.25966   	420.000000	3.16116   	420.000000	3.20448   	420.000000	0.000630278	
430.000000	3.08244   	430.000000	3.17008   	430.000000	3.22517   	430.000000	3.12644   	430.000000	3.16946   	430.000000	0.000616809	
440.000000	3.04951   	440.000000	3.13667   	440.000000	3.19194   	440.000000	3.09313   	440.000000	3.13606   	440.000000	0.000603925	
450.000000	3.01804   	450.000000	3.10477   	450.000000	3.16      	450.000000	3.0612    	450.000000	3.10418   	450.000000	0.000591589	
460.000000	2.98791   	460.000000	3.07429   	460.000000	3.12949   	460.000000	3.03071   	460.000000	3.07371   	460.000000	0.000579765	
470.000000	2.95907   	470.000000	3.04514   	470.000000	3.10034   	470.000000	3.00156   	470.000000	3.04457   	470.000000	0.000568423	
480.000000	2.93142   	480.000000	3.01724   	480.000000	3.07246   	480.000000	2.97367   	480.000000	3.01669   	480.000000	0.000557534	
490.000000	2.90491   	490.000000	2.99053   	490.000000	3.04575   	490.000000	2.94696   	490.000000	2.98998   	490.000000	0.000547069	
500.000000	2.87946   	500.000000	2.96491   	500.000000	3.02014   	500.000000	2.92138   	500.000000	2.96438   	500.000000	0.000537005	
520.000000	2.83153   	520.000000	2.91677   	520.000000	2.97201   	520.000000	2.8733    	520.000000	2.91625   	520.000000	0.000517989	
540.000000	2.78721   	540.000000	2.87236   	540.000000	2.92766   	540.000000	2.82897   	540.000000	2.87186   	540.000000	0.000500321	
560.000000	2.74614   	560.000000	2.83129   	560.000000	2.88658   	560.000000	2.788     	560.000000	2.83081   	560.000000	0.000483863	
580.000000	2.708     	580.000000	2.79323   	580.000000	2.84833   	580.000000	2.75005   	580.000000	2.79277   	580.000000	0.000468492	
600.000000	2.67251   	600.000000	2.75789   	600.000000	2.81294   	600.000000	2.71481   	600.000000	2.75744   	600.000000	0.000454102	
620.000000	2.63944   	620.000000	2.72501   	620.000000	2.78009   	620.000000	2.68203   	620.000000	2.72457   	620.000000	0.000440602	
640.000000	2.60856   	640.000000	2.69437   	640.000000	2.74933   	640.000000	2.65147   	640.000000	2.69394   	640.000000	0.00042791	
660.000000	2.57969   	660.000000	2.66577   	660.000000	2.72051   	660.000000	2.62295   	660.000000	2.66535   	660.000000	0.000415955	
680.000000	2.55267   	680.000000	2.63903   	680.000000	2.69357   	680.000000	2.59627   	680.000000	2.63862   	680.000000	0.000404675	
700.000000	2.52734   	700.000000	2.614     	700.000000	2.66842   	700.000000	2.57128   	700.000000	2.6136    	700.000000	0.000394012	
720.000000	2.50357   	720.000000	2.59053   	720.000000	2.6449    	720.000000	2.54783   	720.000000	2.59015   	720.000000	0.000383916	
740.000000	2.48124   	740.000000	2.56851   	740.000000	2.62278   	740.000000	2.52582   	740.000000	2.56814   	740.000000	0.000374344	
760.000000	2.46025   	760.000000	2.54783   	760.000000	2.60189   	760.000000	2.50511   	760.000000	2.54746   	760.000000	0.000365255	
780.000000	2.44049   	780.000000	2.52838   	780.000000	2.58218   	780.000000	2.48561   	780.000000	2.52802   	780.000000	0.000356613	
800.000000	2.42189   	800.000000	2.51007   	800.000000	2.56359   	800.000000	2.46723   	800.000000	2.50972   	800.000000	0.000348384	
820.000000	2.40435   	820.000000	2.49283   	820.000000	2.54606   	820.000000	2.44989   	820.000000	2.49249   	820.000000	0.000340541	
840.000000	2.38782   	840.000000	2.47657   	840.000000	2.52952   	840.000000	2.43351   	840.000000	2.47624   	840.000000	0.000333056	
860.000000	2.37221   	860.000000	2.46124   	860.000000	2.51387   	860.000000	2.41802   	860.000000	2.46091   	860.000000	0.000325904	
880.000000	2.35749   	880.000000	2.44676   	880.000000	2.49905   	880.000000	2.40336   	880.000000	2.44644   	880.000000	0.000319065	
900.000000	2.34358   	900.000000	2.43309   	900.000000	2.48496   	900.000000	2.38947   	900.000000	2.43277   	900.000000	0.000312517	
920.000000	2.33044   	920.000000	2.42016   	920.000000	2.47156   	920.000000	2.37631   	920.000000	2.41986   	920.000000	0.000306241	
940.000000	2.31802   	940.000000	2.40795   	940.000000	2.45884   	940.000000	2.36382   	940.000000	2.40765   	940.000000	0.000300222	
960.000000	2.30629   	960.000000	2.3964    	960.000000	2.44678   	960.000000	2.35197   	960.000000	2.3961    	960.000000	0.000294444	
980.000000	2.29519   	980.000000	2.38546   	980.000000	2.43535   	980.000000	2.3407    	980.000000	2.38518   	980.000000	0.000288892	
1000.000000	2.2847    	1000.000000	2.37512   	1000.000000	2.42451   	1000.000000	2.33      	1000.000000	2.37484   	1000.000000	0.000283553	
1020.000000	2.27478   	1020.000000	2.36533   	1020.000000	2.41422   	1020.000000	2.31981   	1020.000000	2.36505   	1020.000000	0.000278414	
1040.000000	2.2654    	1040.000000	2.35605   	1040.000000	2.40442   	1040.000000	2.31012   	1040.000000	2.35578   	1040.000000	0.000273466	
1060.000000	2.25654   	1060.000000	2.34727   	1060.000000	2.39508   	1060.000000	2.30089   	1060.000000	2.34701   	1060.000000	0.000268696	
1080.000000	2.24816   	1080.000000	2.33896   	1080.000000	2.38617   	1080.000000	2.29209   	1080.000000	2.3387    	1080.000000	0.000264096	
1100.000000	2.24024   	1100.000000	2.33109   	1100.000000	2.37766   	1100.000000	2.28371   	1100.000000	2.33083   	1100.000000	0.000259656	
1120.000000	2.23276   	1120.000000	2.32363   	1120.000000	2.36952   	1120.000000	2.27571   	1120.000000	2.32337   	1120.000000	0.000255369	
1140.000000	2.2257    	1140.000000	2.31657   	1140.000000	2.36172   	1140.000000	2.26808   	1140.000000	2.31632   	1140.000000	0.000251226	
1160.000000	2.21903   	1160.000000	2.30988   	1160.000000	2.35428   	1160.000000	2.2608    	1160.000000	2.30964   	1160.000000	0.00024722	
1180.000000	2.21274   	1180.000000	2.30356   	1180.000000	2.34717   	1180.000000	2.25384   	1180.000000	2.30331   	1180.000000	0.000243344	
1200.000000	2.20681   	1200.000000	2.29757   	1200.000000	2.34039   	1200.000000	2.24719   	1200.000000	2.29733   	1200.000000	0.000239593	
1220.000000	2.20122   	1220.000000	2.2919    	1220.000000	2.33393   	1220.000000	2.24084   	1220.000000	2.29167   	1220.000000	0.000235959	
1240.000000	2.19596   	1240.000000	2.28654   	1240.000000	2.32776   	1240.000000	2.23477   	1240.000000	2.28631   	1240.000000	0.000232438	
1260.000000	2.19101   	1260.000000	2.28148   	1260.000000	2.32188   	1260.000000	2.22897   	1260.000000	2.28125   	1260.000000	0.000229024	
1280.000000	2.18637   	1280.000000	2.2767    	1280.000000	2.31624   	1280.000000	2.22341   	1280.000000	2.27647   	1280.000000	0.000225713	
1300.000000	2.182     	1300.000000	2.27218   	1300.000000	2.31085   	1300.000000	2.2181    	1300.000000	2.27196   	1300.000000	0.000222499	
1320.000000	2.17792   	1320.000000	2.26792   	1320.000000	2.30567   	1320.000000	2.21301   	1320.000000	2.2677    	1320.000000	0.000219379	
1340.000000	2.1741    	1340.000000	2.2639    	1340.000000	2.3007    	1340.000000	2.20814   	1340.000000	2.26368   	1340.000000	0.000216349	
1360.000000	2.17053   	1360.000000	2.26011   	1360.000000	2.29593   	1360.000000	2.20348   	1360.000000	2.2599    	1360.000000	0.000213404	
1380.000000	2.1672    	1380.000000	2.25655   	1380.000000	2.29135   	1380.000000	2.19901   	1380.000000	2.25634   	1380.000000	0.00021054	
1400.000000	2.1641    	1400.000000	2.2532    	1400.000000	2.28696   	1400.000000	2.19474   	1400.000000	2.253     	1400.000000	0.000207756	
1420.000000	2.16123   	1420.000000	2.25006   	1420.000000	2.28275   	1420.000000	2.19064   	1420.000000	2.24986   	1420.000000	0.000205047	
1440.000000	2.15858   	1440.000000	2.24712   	1440.000000	2.27872   	1440.000000	2.18671   	1440.000000	2.24691   	1440.000000	0.00020241	
1460.000000	2.15613   	1460.000000	2.24436   	1460.000000	2.27486   	1460.000000	2.18295   	1460.000000	2.24416   	1460.000000	0.000199842	
1480.000000	2.15388   	1480.000000	2.24178   	1480.000000	2.27115   	1480.000000	2.17934   	1480.000000	2.24159   	1480.000000	0.000197341	
1500.000000	2.15182   	1500.000000	2.23938   	1500.000000	2.26761   	1500.000000	2.17588   	1500.000000	2.23919   	1500.000000	0.000194904	
1520.000000	2.14994   	1520.000000	2.23715   	1520.000000	2.2642    	1520.000000	2.17257   	1520.000000	2.23696   	1520.000000	0.000192529	
1540.000000	2.14825   	1540.000000	2.23507   	1540.000000	2.26094   	1540.000000	2.16939   	1540.000000	2.23488   	1540.000000	0.000190213	
1560.000000	2.14672   	1560.000000	2.23315   	1560.000000	2.25781   	1560.000000	2.16634   	1560.000000	2.23297   	1560.000000	0.000187954	
1580.000000	2.14536   	1580.000000	2.23138   	1580.000000	2.25481   	1580.000000	2.16342   	1580.000000	2.2312    	1580.000000	0.00018575	
1600.000000	2.14417   	1600.000000	2.22976   	1600.000000	2.25192   	1600.000000	2.16062   	1600.000000	2.22957   	1600.000000	0.000183599	
1620.000000	2.14312   	1620.000000	2.22827   	1620.000000	2.24916   	1620.000000	2.15793   	1620.000000	2.22809   	1620.000000	0.000181498	
1640.000000	2.14223   	1640.000000	2.22691   	1640.000000	2.2465    	1640.000000	2.15536   	1640.000000	2.22673   	1640.000000	0.000179447	
1660.000000	2.14148   	1660.000000	2.22569   	1660.000000	2.24395   	1660.000000	2.15289   	1660.000000	2.22551   	1660.000000	0.000177444	
1680.000000	2.14087   	1680.000000	2.22458   	1680.000000	2.24151   	1680.000000	2.15052   	1680.000000	2.22441   	1680.000000	0.000175486	
1700.000000	2.1404    	1700.000000	2.2236    	1700.000000	2.23916   	1700.000000	2.14825   	1700.000000	2.22343   	1700.000000	0.000173573	
1750.000000	2.13978   	1750.000000	2.22164   	1750.000000	2.2337    	1750.000000	2.14298   	1750.000000	2.22147   	1750.000000	0.000168973	
1800.000000	2.13992   	1800.000000	2.22033   	1800.000000	2.2288    	1800.000000	2.13824   	1800.000000	2.22017   	1800.000000	0.000164619	
1850.000000	2.14076   	1850.000000	2.21964   	1850.000000	2.22439   	1850.000000	2.13399   	1850.000000	2.21948   	1850.000000	0.000160492	
1900.000000	2.14225   	1900.000000	2.21951   	1900.000000	2.22043   	1900.000000	2.13017   	1900.000000	2.21935   	1900.000000	0.000156573	
1950.000000	2.14435   	1950.000000	2.21989   	1950.000000	2.21688   	1950.000000	2.12675   	1950.000000	2.21974   	1950.000000	0.000152848	
2000.000000	2.14702   	2000.000000	2.22076   	2000.000000	2.21371   	2000.000000	2.1237    	2000.000000	2.22061   	2000.000000	0.000149301	
2100.000000	2.15391   	2100.000000	2.22379   	2100.000000	2.20835   	2100.000000	2.11857   	2100.000000	2.22365   	2100.000000	0.000142696	
2200.000000	2.16266   	2200.000000	2.22837   	2200.000000	2.20413   	2200.000000	2.11456   	2200.000000	2.22823   	2200.000000	0.000136669	
2300.000000	2.17306   	2300.000000	2.23428   	2300.000000	2.20088   	2300.000000	2.1115    	2300.000000	2.23414   	2300.000000	0.000131147	
2400.000000	2.18492   	2400.000000	2.24136   	2400.000000	2.19845   	2400.000000	2.10924   	2400.000000	2.24123   	2400.000000	0.000126067	
2500.000000	2.19811   	2500.000000	2.24946   	2500.000000	2.19674   	2500.000000	2.10766   	2500.000000	2.24934   	2500.000000	0.000121379	
2600.000000	2.21248   	2600.000000	2.25848   	2600.000000	2.19562   	2600.000000	2.10667   	2600.000000	2.25837   	2600.000000	0.000117038	
2700.000000	2.22792   	2700.000000	2.26831   	2700.000000	2.19501   	2700.000000	2.10617   	2700.000000	2.2682    	2700.000000	0.000113007	
2800.000000	2.24434   	2800.000000	2.27886   	2800.000000	2.19483   	2800.000000	2.10611   	2800.000000	2.27875   	2800.000000	0.000109253	
2900.000000	2.26166   	2900.000000	2.29005   	2900.000000	2.19502   	2900.000000	2.10641   	2900.000000	2.28994   	2900.000000	0.000105748	
3000.000000	2.27981   	3000.000000	2.30182   	3000.000000	2.19553   	3000.000000	2.10703   	3000.000000	2.30171   	3000.000000	0.000102469	
3200.000000	2.31832   	3200.000000	2.32687   	3200.000000	2.19735   	3200.000000	2.10906   	3200.000000	2.32677   	3200.000000	9.65024e-05	
3400.000000	2.35946   	3400.000000	2.35364   	3400.000000	2.20001   	3400.000000	2.11192   	3400.000000	2.35354   	3400.000000	9.12129e-05	
3600.000000	2.40289   	3600.000000	2.38182   	3600.000000	2.20331   	3600.000000	2.1154    	3600.000000	2.38174   	3600.000000	8.64903e-05	
3800.000000	2.44835   	3800.000000	2.4112    	3800.000000	2.20708   	3800.000000	2.11935   	3800.000000	2.41111   	3800.000000	8.22471e-05	
4000.000000	2.49564   	4000.000000	2.44157   	4000.000000	2.21121   	4000.000000	2.12364   	4000.000000	2.44149   	4000.000000	7.84132e-05	
4200.000000	2.54456   	4200.000000	2.47279   	4200.000000	2.2156    	4200.000000	2.12818   	4200.000000	2.47272   	4200.000000	7.49314e-05	
4400.000000	2.59499   	4400.000000	2.50474   	4400.000000	2.22019   	4400.000000	2.1329    	4400.000000	2.50467   	4400.000000	7.1755e-05	
4600.000000	2.64679   	4600.000000	2.53732   	4600.000000	2.2249    	4600.000000	2.13776   	4600.000000	2.53725   	4600.000000	6.88451e-05	
4800.000000	2.69988   	4800.000000	2.57043   	4800.000000	2.22971   	4800.000000	2.14269   	4800.000000	2.57037   	4800.000000	6.6169e-05	
5000.000000	2.75417   	5000.000000	2.60402   	5000.000000	2.23457   	5000.000000	2.14767   	5000.000000	2.60395   	5000.000000	6.36995e-05	
5250.000000	2.8236    	5250.000000	2.64657   	5250.000000	2.24068   	5250.000000	2.15393   	5250.000000	2.6465    	5250.000000	6.0868e-05	
5500.000000	2.89467   	5500.000000	2.68966   	5500.000000	2.2468    	5500.000000	2.16018   	5500.000000	2.6896    	5500.000000	5.82849e-05	
6000.000000	3.04136   	6000.000000	2.77716   	6000.000000	2.25892   	6000.000000	2.17256   	6000.000000	2.77711   	6000.000000	5.37427e-05	
6500.000000	3.19362   	6500.000000	2.86604   	6500.000000	2.27081   	6500.000000	2.18465   	6500.000000	2.86599   	6500.000000	4.98761e-05	
7000.000000	3.351     	7000.000000	2.95594   	7000.000000	2.28234   	7000.000000	2.19636   	7000.000000	2.95589   	7000.000000	4.65434e-05	
7500.000000	3.5132    	7500.000000	3.0466    	7500.000000	2.29336   	7500.000000	2.20767   	7500.000000	3.04656   	7500.000000	4.36402e-05	
8000.000000	3.67995   	8000.000000	3.13785   	8000.000000	2.30402   	8000.000000	2.21856   	8000.000000	3.13781   	8000.000000	4.10878e-05	
8500.000000	3.85106   	8500.000000	3.22954   	8500.000000	2.31426   	8500.000000	2.22902   	8500.000000	3.2295    	8500.000000	3.88258e-05	
9000.000000	4.0264    	9000.000000	3.32157   	9000.000000	2.32405   	9000.000000	2.23908   	9000.000000	3.32153   	9000.000000	3.68067e-05	
9500.000000	4.20584   	9500.000000	3.41384   	9500.000000	2.33344   	9500.000000	2.24874   	9500.000000	3.41381   	9500.000000	3.49931e-05	
10000.000000	4.38929   	10000.000000	3.5063    	10000.000000	2.34244   	10000.000000	2.25803   	10000.000000	3.50627   	10000.000000	3.33548e-05	
11000.000000	4.76794   	11000.000000	3.69159   	11000.000000	2.35939   	11000.000000	2.27554   	11000.000000	3.69156   	11000.000000	3.05107e-05	
12000.000000	5.16192   	12000.000000	3.87714   	12000.000000	2.37506   	12000.000000	2.29179   	12000.000000	3.87711   	12000.000000	2.81255e-05	
13000.000000	5.57091   	13000.000000	4.06275   	13000.000000	2.38961   	13000.000000	2.30689   	13000.000000	4.06272   	13000.000000	2.60957e-05	
14000.000000	5.99473   	14000.000000	4.24829   	14000.000000	2.40317   	14000.000000	2.32099   	14000.000000	4.24827   	14000.000000	2.43467e-05	
15000.000000	6.43325   	15000.000000	4.43369   	15000.000000	2.41582   	15000.000000	2.33419   	15000.000000	4.43366   	15000.000000	2.28234e-05	
16000.000000	6.88637   	16000.000000	4.61887   	16000.000000	2.42757   	16000.000000	2.34658   	16000.000000	4.61885   	16000.000000	2.14846e-05	
17000.000000	7.35405   	17000.000000	4.80382   	17000.000000	2.4385    	17000.000000	2.35825   	17000.000000	4.8038    	17000.000000	2.02982e-05	
18000.000000	7.83627   	18000.000000	4.98849   	18000.000000	2.44871   	18000.000000	2.36927   	18000.000000	4.98847   	18000.000000	1.92395e-05	
19000.000000	8.33302   	19000.000000	5.17287   	19000.000000	2.45828   	19000.000000	2.3797    	19000.000000	5.17286   	19000.000000	1.82886e-05	
20000.000000	8.8443    	20000.000000	5.35696   	20000.000000	2.46731   	20000.000000	2.38961   	20000.000000	5.35695   	20000.000000	1.74299e-05	
21000.000000	9.37013   	21000.000000	5.54075   	21000.000000	2.47585   	21000.000000	2.39902   	21000.000000	5.54074   	21000.000000	1.66503e-05	
22000.000000	9.91056   	22000.000000	5.72424   	22000.000000	2.48396   	22000.000000	2.408     	22000.000000	5.72422   	22000.000000	1.59394e-05	
23000.000000	10.4656   	23000.000000	5.90742   	23000.000000	2.4916    	23000.000000	2.41657   	23000.000000	5.90741   	23000.000000	1.52884e-05	
24000.000000	11.0353   	24000.000000	6.09031   	24000.000000	2.49883   	24000.000000	2.42476   	24000.000000	6.09029   	24000.000000	1.46899e-05	
25000.000000	11.6198   	25000.000000	6.2729    	25000.000000	2.50574   	25000.000000	2.43262   	25000.000000	6.27288   	25000.000000	1.41377e-05	
26000.000000	12.219    	26000.000000	6.45519   	26000.000000	2.51231   	26000.000000	2.44015   	26000.000000	6.45518   	26000.000000	1.36267e-05	
27000.000000	12.833    	27000.000000	6.6372    	27000.000000	2.51855   	27000.000000	2.44739   	27000.000000	6.63719   	27000.000000	1.31524e-05	
28000.000000	13.462    	28000.000000	6.81893   	28000.000000	2.52448   	28000.000000	2.45436   	28000.000000	6.81892   	28000.000000	1.27108e-05	
29000.000000	14.1059   	29000.000000	7.00038   	29000.000000	2.53013   	29000.000000	2.46107   	29000.000000	7.00037   	29000.000000	1.22988e-05	
30000.000000	14.7648   	30000.000000	7.18156   	30000.000000	2.53552   	30000.000000	2.46754   	30000.000000	7.18155   	30000.000000	1.19134e-05	
32000.000000	16.128    	32000.000000	7.54314   	32000.000000	2.54557   	32000.000000	2.47984   	32000.000000	7.54313   	32000.000000	1.12126e-05	
34000.000000	17.5521   	34000.000000	7.9037    	34000.000000	2.55478   	34000.000000	2.49136   	34000.000000	7.90369   	34000.000000	1.05917e-05	
36000.000000	19.0377   	36000.000000	8.26329   	36000.000000	2.5632    	36000.000000	2.50218   	36000.000000	8.26328   	36000.000000	1.00378e-05	
38000.000000	20.5856   	38000.000000	8.62196   	38000.000000	2.57096   	38000.000000	2.51238   	38000.000000	8.62195   	38000.000000	9.54037e-06	
40000.000000	22.1961   	40000.000000	8.97974   	40000.000000	2.57811   	40000.000000	2.52203   	40000.000000	8.97973   	40000.000000	9.0912e-06	
42000.000000	23.8702   	42000.000000	9.33667   	42000.000000	2.5847    	42000.000000	2.53119   	42000.000000	9.33666   	42000.000000	8.68351e-06	
44000.000000	25.6082   	44000.000000	9.69279   	44000.000000	2.59081   	44000.000000	2.53989   	44000.000000	9.69278   	44000.000000	8.31176e-06	
46000.000000	27.4111   	46000.000000	10.0481   	46000.000000	2.5965    	46000.000000	2.54819   	46000.000000	10.0481   	46000.000000	7.97136e-06	
48000.000000	29.2794   	48000.000000	10.4027   	48000.000000	2.6018    	48000.000000	2.55611   	48000.000000	10.4027   	48000.000000	7.65847e-06	
50000.000000	31.2138   	50000.000000	10.7566   	50000.000000	2.60667   	50000.000000	2.56369   	50000.000000	10.7566   	50000.000000	7.36986e-06	
