Energy (MeV/u)1	0 - [He-base] F.Hubert et al, AD&ND Tables 46(1990)1	Energy (MeV/u)2	1 - [H -base] J.F.Ziegler et al, Pergamon Press, NY (low energy)	Energy (MeV/u)3	2 - ATIMA 1.2  LS-theory (recommended for high energy)	Energy (MeV/u)4	3 - ATIMA 1.2  without LS-correction	Energy (MeV/u)5	4 - electrical component of [1] - J.F.Ziegler et al	Energy (MeV/u)6	5 - nuclear component of [1] - J.F.Ziegler et al	
0.001000	5.23938   	0.001000	1.17762   	0.001000	1.09752   	0.001000	1.09752   	0.001000	0.460657  	0.001000	0.716962  	
0.002000	5.29957   	0.002000	1.35352   	0.002000	1.25364   	0.002000	1.25364   	0.002000	0.63806   	0.002000	0.715462  	
0.005000	5.55648   	0.005000	1.60466   	0.005000	1.47408   	0.005000	1.47408   	0.005000	0.981507  	0.005000	0.623156  	
0.008000	5.89654   	0.008000	1.76804   	0.008000	1.62024   	0.008000	1.62024   	0.008000	1.22414   	0.008000	0.543901  	
0.010000	6.12622   	0.010000	1.86165   	0.010000	1.70554   	0.010000	1.70554   	0.010000	1.35949   	0.010000	0.502157  	
0.015000	6.98159   	0.015000	2.06905   	0.015000	1.89798   	0.015000	1.89798   	0.015000	1.6449    	0.015000	0.424148  	
0.020000	7.79016   	0.020000	2.25288   	0.020000	2.07167   	0.020000	2.07167   	0.020000	1.88305   	0.020000	0.369829  	
0.025000	8.74088   	0.025000	2.46268   	0.025000	2.26489   	0.025000	2.26489   	0.025000	2.13313   	0.025000	0.329552  	
0.030000	9.60434   	0.030000	2.72634   	0.030000	2.69344   	0.030000	2.69344   	0.030000	2.42804   	0.030000	0.298305  	
0.035000	10.3737   	0.035000	2.98885   	0.035000	3.00759   	0.035000	3.00759   	0.035000	2.71561   	0.035000	0.273239  	
0.040000	11.0309   	0.040000	3.24416   	0.040000	3.25461   	0.040000	3.25461   	0.040000	2.99155   	0.040000	0.25261   	
0.045000	11.5674   	0.045000	3.48935   	0.045000	3.47153   	0.045000	3.47153   	0.045000	3.25406   	0.045000	0.235284  	
0.050000	11.9325   	0.050000	3.72319   	0.050000	3.67446   	0.050000	3.67446   	0.050000	3.50269   	0.050000	0.220493  	
0.055000	12.5603   	0.055000	3.9432    	0.055000	3.86875   	0.055000	3.86875   	0.055000	3.73551   	0.055000	0.207693  	
0.060000	13.1201   	0.060000	4.13316   	0.060000	4.05576   	0.060000	4.05576   	0.060000	3.93667   	0.060000	0.19649   	
0.070000	14.0464   	0.070000	4.47731   	0.070000	4.40808   	0.070000	4.40808   	0.070000	4.29954   	0.070000	0.177767  	
0.080000	15.0402   	0.080000	4.78468   	0.080000	4.73063   	0.080000	4.73063   	0.080000	4.62198   	0.080000	0.162692  	
0.090000	15.872    	0.090000	5.05943   	0.090000	5.02368   	0.090000	5.02368   	0.090000	4.90918   	0.090000	0.150255  	
0.100000	16.5776   	0.100000	5.30532   	0.100000	5.28878   	0.100000	5.28878   	0.100000	5.16553   	0.100000	0.139793  	
0.120000	17.3171   	0.120000	5.7236    	0.120000	5.74407   	0.120000	5.74407   	0.120000	5.60049   	0.120000	0.123113  	
0.140000	17.868    	0.140000	6.0616    	0.140000	6.11461   	0.140000	6.11461   	0.140000	5.95227   	0.140000	0.109333  	
0.160000	18.3544   	0.160000	6.34011   	0.160000	6.42059   	0.160000	6.42059   	0.160000	6.24079   	0.160000	0.0993259 	
0.180000	18.8337   	0.180000	6.57272   	0.180000	6.67597   	0.180000	6.67597   	0.180000	6.48156   	0.180000	0.0911592 	
0.200000	19.3277   	0.200000	6.77077   	0.200000	6.89276   	0.200000	6.89276   	0.200000	6.68642   	0.200000	0.0843534 	
0.250000	20.2669   	0.250000	7.23252   	0.250000	7.32069   	0.250000	7.32069   	0.250000	7.16113   	0.250000	0.0713968 	
0.300000	21.3921   	0.300000	7.73276   	0.300000	7.64908   	0.300000	7.64908   	0.300000	7.6706    	0.300000	0.0621624 	
0.350000	22.3301   	0.350000	8.11935   	0.350000	7.91986   	0.350000	7.91986   	0.350000	8.06414   	0.350000	0.0552134 	
0.400000	23.0997   	0.400000	8.43026   	0.400000	8.15784   	0.400000	8.15784   	0.400000	8.38048   	0.400000	0.0497757 	
0.450000	23.9496   	0.450000	8.75671   	0.450000	8.65883   	0.450000	8.65883   	0.450000	8.71132   	0.450000	0.0453928 	
0.500000	24.6916   	0.500000	9.07515   	0.500000	9.09401   	0.500000	9.09401   	0.500000	9.03337   	0.500000	0.0417776 	
0.600000	24.8951   	0.600000	9.57399   	0.600000	9.64712   	0.600000	9.64712   	0.600000	9.53785   	0.600000	0.0361472 	
0.700000	24.6289   	0.700000	9.93651   	0.700000	9.91201   	0.700000	9.91201   	0.700000	9.90456   	0.700000	0.031949  	
0.800000	24.5815   	0.800000	10.0159   	0.800000	10.0991   	0.800000	10.0991   	0.800000	9.98722   	0.800000	0.0286873 	
0.900000	24.4293   	0.900000	10.0364   	0.900000	10.2283   	0.900000	10.2283   	0.900000	10.0103   	0.900000	0.0260737 	
1.000000	24.2341   	1.000000	10.0443   	1.000000	10.3134   	1.000000	10.3134   	1.000000	10.0204   	1.000000	0.0239284 	
1.250000	23.5598   	1.250000	10.0116   	1.250000	10.3691   	1.250000	10.3691   	1.250000	9.99165   	1.250000	0.0199255 	
1.500000	22.7827   	1.500000	9.91373   	1.500000	10.2287   	1.500000	10.2287   	1.500000	9.8966    	1.500000	0.0171376 	
1.750000	22.0708   	1.750000	9.81963   	1.750000	10.0682   	1.750000	10.0682   	1.750000	9.80456   	1.750000	0.0150757 	
2.000000	21.3659   	2.000000	9.70491   	2.000000	9.89593   	2.000000	9.89593   	2.000000	9.69143   	2.000000	0.013484  	
2.250000	20.6869   	2.250000	9.5625    	2.250000	9.71764   	2.250000	9.71764   	2.250000	9.55028   	2.250000	0.0122153 	
2.500000	22.9346   	2.500000	9.40943   	2.500000	9.53733   	2.500000	9.53733   	2.500000	9.39825   	2.500000	0.0111786 	
3.000000	21.3099   	3.000000	9.07132   	3.000000	9.18044   	3.000000	9.18044   	3.000000	9.06174   	3.000000	0.00958201	
3.500000	19.8785   	3.500000	8.75011   	3.500000	8.83736   	3.500000	8.83736   	3.500000	8.7417    	3.500000	0.00840629	
4.000000	18.622    	4.000000	8.45965   	4.000000	8.51289   	4.000000	8.51289   	4.000000	8.45214   	4.000000	0.00750189	
4.500000	17.5162   	4.500000	8.18249   	4.500000	8.20839   	4.500000	8.20839   	4.500000	8.17571   	4.500000	0.00678313	
5.000000	16.5381   	5.000000	7.91851   	5.000000	7.92362   	5.000000	7.92362   	5.000000	7.91231   	5.000000	0.00619722	
5.500000	15.6681   	5.500000	7.66872   	5.500000	7.65758   	5.500000	7.65758   	5.500000	7.66301   	5.500000	0.00570983	
6.000000	14.8897   	6.000000	7.43314   	6.000000	7.40902   	6.000000	7.40902   	6.000000	7.42784   	6.000000	0.0052976 	
6.500000	14.1895   	6.500000	7.21125   	6.500000	7.17656   	6.500000	7.17656   	6.500000	7.2063    	6.500000	0.0049441 	
7.000000	13.5564   	7.000000	7.00231   	7.000000	6.95888   	7.000000	6.95888   	7.000000	6.99767   	7.000000	0.00463737	
7.500000	12.9812   	7.500000	6.80549   	7.500000	6.75474   	7.500000	6.75474   	7.500000	6.80113   	7.500000	0.00436855	
8.000000	12.4562   	8.000000	6.61994   	8.000000	6.56297   	8.000000	6.56297   	8.000000	6.61581   	8.000000	0.0041309 	
8.500000	11.9751   	8.500000	6.44482   	8.500000	6.38254   	8.500000	6.38254   	8.500000	6.4409    	8.500000	0.00391918	
9.000000	11.5327   	9.000000	6.27935   	9.000000	6.21248   	9.000000	6.21248   	9.000000	6.27562   	9.000000	0.0037293 	
9.500000	11.1243   	9.500000	6.12279   	9.500000	6.05195   	9.500000	6.05195   	9.500000	6.11924   	9.500000	0.00355798	
10.000000	10.7462   	10.000000	6.01407   	10.000000	5.90017   	10.000000	5.90017   	10.000000	6.01067   	10.000000	0.00340257	
11.000000	10.0679   	11.000000	5.77474   	11.000000	5.6399    	11.000000	5.6808    	11.000000	5.77161   	11.000000	0.00313124	
12.000000	9.47681   	12.000000	5.54628   	12.000000	5.40251   	12.000000	5.4739    	12.000000	5.54338   	12.000000	0.0029021 	
13.000000	8.95679   	13.000000	5.33061   	13.000000	5.18569   	13.000000	5.27979   	13.000000	5.3279    	13.000000	0.00270586	
14.000000	8.49559   	14.000000	5.1282    	14.000000	4.98696   	14.000000	5.09787   	14.000000	5.12566   	14.000000	0.0025358 	
15.000000	8.08362   	15.000000	4.93881   	15.000000	4.80414   	15.000000	4.92741   	15.000000	4.93642   	15.000000	0.00238692	
16.000000	7.71328   	16.000000	4.76184   	16.000000	4.63528   	16.000000	4.76765   	16.000000	4.75959   	16.000000	0.00225542	
17.000000	7.37846   	17.000000	4.59651   	17.000000	4.4788    	17.000000	4.61779   	17.000000	4.59437   	17.000000	0.00213839	
18.000000	7.0742    	18.000000	4.44199   	18.000000	4.33351   	18.000000	4.47709   	18.000000	4.43995   	18.000000	0.00203351	
19.000000	6.79643   	19.000000	4.29744   	19.000000	4.19838   	19.000000	4.34483   	19.000000	4.2955    	19.000000	0.00193897	
20.000000	6.54179   	20.000000	4.16206   	20.000000	4.07247   	20.000000	4.22034   	20.000000	4.16021   	20.000000	0.00185326	
21.000000	6.30745   	21.000000	4.03512   	21.000000	3.95314   	21.000000	4.10139   	21.000000	4.03334   	21.000000	0.0017752 	
22.000000	6.09103   	22.000000	3.91592   	22.000000	3.84098   	22.000000	3.98902   	22.000000	3.91422   	22.000000	0.00170378	
23.000000	5.89053   	23.000000	3.80384   	23.000000	3.73718   	23.000000	3.88456   	23.000000	3.8022    	23.000000	0.00163818	
24.000000	5.70421   	24.000000	3.69829   	24.000000	3.63957   	24.000000	3.78579   	24.000000	3.69672   	24.000000	0.0015777 	
25.000000	5.53061   	25.000000	3.59876   	25.000000	3.54774   	25.000000	3.69228   	25.000000	3.59724   	25.000000	0.00152175	
27.000000	5.21657   	27.000000	3.41591   	27.000000	3.37972   	27.000000	3.51954   	27.000000	3.41448   	27.000000	0.00142153	
29.000000	4.94003   	29.000000	3.25198   	29.000000	3.22926   	29.000000	3.36363   	29.000000	3.25064   	29.000000	0.0013343 	
31.000000	4.69456   	31.000000	3.10427   	31.000000	3.08838   	31.000000	3.2113    	31.000000	3.10301   	31.000000	0.00125765	
33.000000	4.4751    	33.000000	2.97056   	33.000000	2.9566    	33.000000	3.06399   	33.000000	2.96937   	33.000000	0.00118974	
35.000000	4.27768   	35.000000	2.84897   	35.000000	2.83772   	35.000000	2.93135   	35.000000	2.84784   	35.000000	0.00112912	
38.000000	4.01597   	38.000000	2.68601   	38.000000	2.67796   	38.000000	2.75534   	38.000000	2.68496   	38.000000	0.00104947	
41.000000	3.78829   	41.000000	2.54267   	41.000000	2.53788   	41.000000	2.60205   	41.000000	2.54169   	41.000000	0.000980809	
44.000000	3.5883    	44.000000	2.41565   	44.000000	2.41364   	44.000000	2.46727   	44.000000	2.41473   	44.000000	0.000920973	
47.000000	3.41115   	47.000000	2.30232   	47.000000	2.30292   	47.000000	2.34778   	47.000000	2.30145   	47.000000	0.000868342	
50.000000	3.25309   	50.000000	2.20061   	50.000000	2.20377   	50.000000	2.2411    	50.000000	2.19978   	50.000000	0.000821668	
55.000000	3.02422   	55.000000	2.05243   	55.000000	2.05845   	55.000000	2.08652   	55.000000	2.05168   	55.000000	0.00075457	
60.000000	2.82992   	60.000000	1.9259    	60.000000	1.93475   	60.000000	1.95521   	60.000000	1.92521   	60.000000	0.000698049	
65.000000	2.66277   	65.000000	1.8166    	65.000000	1.82727   	65.000000	1.84221   	65.000000	1.81595   	65.000000	0.000649753	
70.000000	2.51736   	70.000000	1.72124   	70.000000	1.73339   	70.000000	1.7439    	70.000000	1.72063   	70.000000	0.000607984	
75.000000	2.38964   	75.000000	1.6373    	75.000000	1.65062   	75.000000	1.65756   	75.000000	1.63673   	75.000000	0.000571486	
80.000000	2.27649   	80.000000	1.56285   	80.000000	1.57723   	80.000000	1.58109   	80.000000	1.56231   	80.000000	0.000539306	
85.000000	2.17553   	85.000000	1.49637   	85.000000	1.5114    	85.000000	1.51288   	85.000000	1.49586   	85.000000	0.00051071	
90.000000	2.08483   	90.000000	1.43663   	90.000000	1.45196   	90.000000	1.45165   	90.000000	1.43614   	90.000000	0.000485122	
95.000000	2.00288   	95.000000	1.38265   	95.000000	1.39825   	95.000000	1.39635   	95.000000	1.38219   	95.000000	0.000462085	
100.000000	1.92845   	100.000000	1.33365   	100.000000	1.34946   	100.000000	1.34617   	100.000000	1.33321   	100.000000	0.00044123	
105.000000	1.86052   	105.000000	1.28895   	105.000000	1.30494   	105.000000	1.30041   	105.000000	1.28853   	105.000000	0.000422257	
110.000000	1.79827   	110.000000	1.24802   	110.000000	1.26398   	110.000000	1.25852   	110.000000	1.24761   	110.000000	0.000404918	
115.000000	1.74098   	115.000000	1.21039   	115.000000	1.22627   	115.000000	1.22001   	115.000000	1.21      	115.000000	0.000389008	
120.000000	1.68808   	120.000000	1.17568   	120.000000	1.19147   	120.000000	1.18449   	120.000000	1.17531   	120.000000	0.000374354	
125.000000	1.63907   	125.000000	1.14356   	125.000000	1.15926   	125.000000	1.15162   	125.000000	1.1432    	125.000000	0.000360812	
130.000000	1.59353   	130.000000	1.11375   	130.000000	1.12934   	130.000000	1.12111   	130.000000	1.11341   	130.000000	0.000348258	
135.000000	1.55109   	135.000000	1.08602   	135.000000	1.10134   	135.000000	1.09272   	135.000000	1.08568   	135.000000	0.000336585	
140.000000	1.51144   	140.000000	1.06014   	140.000000	1.07529   	140.000000	1.06624   	140.000000	1.05981   	140.000000	0.000325704	
145.000000	1.4743    	145.000000	1.03594   	145.000000	1.05096   	145.000000	1.04147   	145.000000	1.03562   	145.000000	0.000315534	
150.000000	1.43944   	150.000000	1.01325   	150.000000	1.02804   	150.000000	1.01825   	150.000000	1.01295   	150.000000	0.000306007	
155.000000	1.39023   	155.000000	0.991954  	155.000000	1.00648   	155.000000	0.996446  	155.000000	0.991657  	155.000000	0.000297063	
160.000000	1.36144   	160.000000	0.971911  	160.000000	0.986226  	160.000000	0.975929  	160.000000	0.971623  	160.000000	0.00028865	
165.000000	1.33429   	165.000000	0.953018  	165.000000	0.967121  	165.000000	0.956589  	165.000000	0.952737  	165.000000	0.000280721	
170.000000	1.30862   	170.000000	0.935178  	170.000000	0.948995  	170.000000	0.938326  	170.000000	0.934905  	170.000000	0.000273235	
175.000000	1.28433   	175.000000	0.918306  	175.000000	0.931826  	175.000000	0.921054  	175.000000	0.91804   	175.000000	0.000266154	
180.000000	1.26129   	180.000000	0.902325  	180.000000	0.915639  	180.000000	0.904694  	180.000000	0.902065  	180.000000	0.000259448	
185.000000	1.23943   	185.000000	0.887165  	185.000000	0.900279  	185.000000	0.889176  	185.000000	0.886912  	185.000000	0.000253085	
190.000000	1.21864   	190.000000	0.872766  	190.000000	0.88562   	190.000000	0.874437  	190.000000	0.872519  	190.000000	0.00024704	
195.000000	1.19885   	195.000000	0.859072  	195.000000	0.87165   	195.000000	0.860421  	195.000000	0.858831  	195.000000	0.00024129	
200.000000	1.17999   	200.000000	0.846032  	200.000000	0.858364  	200.000000	0.847075  	200.000000	0.845796  	200.000000	0.000235813	
210.000000	1.14481   	210.000000	0.821735  	210.000000	0.833731  	210.000000	0.822213  	210.000000	0.821509  	210.000000	0.000225603	
220.000000	1.11263   	220.000000	0.799558  	220.000000	0.811156  	220.000000	0.799527  	220.000000	0.799341  	220.000000	0.000216275	
230.000000	1.0831    	230.000000	0.779236  	230.000000	0.790451  	230.000000	0.778746  	230.000000	0.779028  	230.000000	0.000207719	
240.000000	1.05589   	240.000000	0.760547  	240.000000	0.771353  	240.000000	0.759643  	240.000000	0.760348  	240.000000	0.000199842	
250.000000	1.03075   	250.000000	0.743304  	250.000000	0.753735  	250.000000	0.742026  	250.000000	0.743111  	250.000000	0.000192564	
260.000000	1.00743   	260.000000	0.727345  	260.000000	0.737473  	260.000000	0.725731  	260.000000	0.727159  	260.000000	0.00018582	
270.000000	0.985759  	270.000000	0.712535  	270.000000	0.722403  	270.000000	0.710618  	270.000000	0.712355  	270.000000	0.00017955	
280.000000	0.96556   	280.000000	0.698754  	280.000000	0.708379  	280.000000	0.696564  	280.000000	0.69858   	280.000000	0.000173707	
290.000000	0.946689  	290.000000	0.6859    	290.000000	0.695228  	290.000000	0.683466  	290.000000	0.685732  	290.000000	0.000168248	
300.000000	0.92902   	300.000000	0.673885  	300.000000	0.682988  	300.000000	0.671231  	300.000000	0.673722  	300.000000	0.000163135	
310.000000	0.912443  	310.000000	0.662629  	310.000000	0.671549  	310.000000	0.65978   	310.000000	0.662471  	310.000000	0.000158337	
320.000000	0.896859  	320.000000	0.652066  	320.000000	0.660754  	320.000000	0.649042  	320.000000	0.651912  	320.000000	0.000153824	
330.000000	0.882184  	330.000000	0.642133  	330.000000	0.650659  	330.000000	0.638954  	330.000000	0.641983  	330.000000	0.000149571	
340.000000	0.868341  	340.000000	0.632777  	340.000000	0.641177  	340.000000	0.629462  	340.000000	0.632632  	340.000000	0.000145557	
350.000000	0.855263  	350.000000	0.623951  	350.000000	0.632187  	350.000000	0.620516  	350.000000	0.62381   	350.000000	0.000141762	
360.000000	0.842888  	360.000000	0.615612  	360.000000	0.623691  	360.000000	0.612072  	360.000000	0.615474  	360.000000	0.000138167	
370.000000	0.831163  	370.000000	0.607723  	370.000000	0.615668  	370.000000	0.604092  	370.000000	0.607588  	370.000000	0.000134758	
380.000000	0.820038  	380.000000	0.600248  	380.000000	0.608066  	380.000000	0.596539  	380.000000	0.600116  	380.000000	0.000131519	
390.000000	0.809471  	390.000000	0.593156  	390.000000	0.60087   	390.000000	0.589382  	390.000000	0.593028  	390.000000	0.000128439	
400.000000	0.799421  	400.000000	0.586421  	400.000000	0.59408   	400.000000	0.582593  	400.000000	0.586296  	400.000000	0.000125505	
410.000000	0.789852  	410.000000	0.580018  	410.000000	0.587634  	410.000000	0.576145  	410.000000	0.579895  	410.000000	0.000122708	
420.000000	0.780732  	420.000000	0.573922  	420.000000	0.581474  	420.000000	0.570014  	420.000000	0.573802  	420.000000	0.000120038	
430.000000	0.772031  	430.000000	0.568114  	430.000000	0.575594  	430.000000	0.56418   	430.000000	0.567996  	430.000000	0.000117487	
440.000000	0.763721  	440.000000	0.562574  	440.000000	0.569996  	440.000000	0.558622  	440.000000	0.562459  	440.000000	0.000115046	
450.000000	0.755779  	450.000000	0.557285  	450.000000	0.564663  	450.000000	0.553322  	450.000000	0.557172  	450.000000	0.000112708	
460.000000	0.748181  	460.000000	0.552232  	460.000000	0.559572  	460.000000	0.548266  	460.000000	0.552121  	460.000000	0.000110468	
470.000000	0.740907  	470.000000	0.547399  	470.000000	0.554708  	470.000000	0.543436  	470.000000	0.547291  	470.000000	0.000108318	
480.000000	0.733937  	480.000000	0.542774  	480.000000	0.55007   	480.000000	0.538832  	480.000000	0.542668  	480.000000	0.000106254	
490.000000	0.727253  	490.000000	0.538344  	490.000000	0.545644  	490.000000	0.534438  	490.000000	0.53824   	490.000000	0.00010427	
500.000000	0.72084   	500.000000	0.534098  	500.000000	0.541406  	500.000000	0.530231  	500.000000	0.533996  	500.000000	0.000102361	
520.000000	0.708766  	520.000000	0.526116  	520.000000	0.53345   	520.000000	0.522335  	520.000000	0.526018  	520.000000	9.87552e-05	
540.000000	0.697606  	540.000000	0.518754  	540.000000	0.526126  	540.000000	0.515068  	540.000000	0.518659  	540.000000	9.54041e-05	
560.000000	0.687267  	560.000000	0.511947  	560.000000	0.519367  	560.000000	0.508363  	560.000000	0.511855  	560.000000	9.22816e-05	
580.000000	0.677669  	580.000000	0.505639  	580.000000	0.513117  	580.000000	0.502163  	580.000000	0.50555   	580.000000	8.93648e-05	
600.000000	0.668741  	600.000000	0.499783  	600.000000	0.507323  	600.000000	0.496419  	600.000000	0.499696  	600.000000	8.66337e-05	
620.000000	0.660423  	620.000000	0.494334  	620.000000	0.501946  	620.000000	0.491088  	620.000000	0.49425   	620.000000	8.4071e-05	
640.000000	0.652659  	640.000000	0.489258  	640.000000	0.496952  	640.000000	0.486131  	640.000000	0.489176  	640.000000	8.16613e-05	
660.000000	0.645402  	660.000000	0.48452   	660.000000	0.492283  	660.000000	0.481514  	660.000000	0.48444   	660.000000	7.93912e-05	
680.000000	0.63861   	680.000000	0.480091  	680.000000	0.487902  	680.000000	0.477208  	680.000000	0.480014  	680.000000	7.72487e-05	
700.000000	0.632245  	700.000000	0.475947  	700.000000	0.483817  	700.000000	0.473186  	700.000000	0.475871  	700.000000	7.52232e-05	
720.000000	0.626273  	720.000000	0.472063  	720.000000	0.480018  	720.000000	0.469425  	720.000000	0.47199   	720.000000	7.33052e-05	
740.000000	0.620664  	740.000000	0.468419  	740.000000	0.476468  	740.000000	0.465904  	740.000000	0.468348  	740.000000	7.14863e-05	
760.000000	0.615392  	760.000000	0.464997  	760.000000	0.473134  	760.000000	0.462603  	760.000000	0.464928  	760.000000	6.9759e-05	
780.000000	0.610431  	780.000000	0.461781  	780.000000	0.470005  	780.000000	0.459506  	780.000000	0.461713  	780.000000	6.81163e-05	
800.000000	0.605759  	800.000000	0.458755  	800.000000	0.46707   	800.000000	0.456596  	800.000000	0.458688  	800.000000	6.65522e-05	
820.000000	0.601357  	820.000000	0.455905  	820.000000	0.464308  	820.000000	0.453861  	820.000000	0.45584   	820.000000	6.5061e-05	
840.000000	0.597206  	840.000000	0.453219  	840.000000	0.4617    	840.000000	0.451288  	840.000000	0.453156  	840.000000	6.36378e-05	
860.000000	0.59329   	860.000000	0.450687  	860.000000	0.45923   	860.000000	0.448865  	860.000000	0.450625  	860.000000	6.22778e-05	
880.000000	0.589594  	880.000000	0.448298  	880.000000	0.456899  	880.000000	0.446582  	880.000000	0.448237  	880.000000	6.0977e-05	
900.000000	0.586104  	900.000000	0.446043  	900.000000	0.454707  	900.000000	0.444429  	900.000000	0.445983  	900.000000	5.97314e-05	
920.000000	0.582807  	920.000000	0.443913  	920.000000	0.452649  	920.000000	0.442397  	920.000000	0.443854  	920.000000	5.85377e-05	
940.000000	0.579691  	940.000000	0.4419    	940.000000	0.450712  	940.000000	0.440479  	940.000000	0.441842  	940.000000	5.73925e-05	
960.000000	0.576747  	960.000000	0.439997  	960.000000	0.448884  	960.000000	0.438668  	960.000000	0.439941  	960.000000	5.6293e-05	
980.000000	0.573963  	980.000000	0.438198  	980.000000	0.447156  	980.000000	0.436956  	980.000000	0.438143  	980.000000	5.52364e-05	
1000.000000	0.571332  	1000.000000	0.436497  	1000.000000	0.445519  	1000.000000	0.435337  	1000.000000	0.436443  	1000.000000	5.42203e-05	
1020.000000	0.568844  	1020.000000	0.434888  	1020.000000	0.443966  	1020.000000	0.433806  	1020.000000	0.434835  	1020.000000	5.32423e-05	
1040.000000	0.566492  	1040.000000	0.433365  	1040.000000	0.44249   	1040.000000	0.432358  	1040.000000	0.433313  	1040.000000	5.23003e-05	
1060.000000	0.564268  	1060.000000	0.431925  	1060.000000	0.441087  	1060.000000	0.430987  	1060.000000	0.431873  	1060.000000	5.13923e-05	
1080.000000	0.562167  	1080.000000	0.430562  	1080.000000	0.439758  	1080.000000	0.429689  	1080.000000	0.430511  	1080.000000	5.05165e-05	
1100.000000	0.560181  	1100.000000	0.429272  	1100.000000	0.438499  	1100.000000	0.42846   	1100.000000	0.429223  	1100.000000	4.96711e-05	
1120.000000	0.558305  	1120.000000	0.428052  	1120.000000	0.437311  	1120.000000	0.427296  	1120.000000	0.428003  	1120.000000	4.88547e-05	
1140.000000	0.556533  	1140.000000	0.426898  	1140.000000	0.436189  	1140.000000	0.426193  	1140.000000	0.42685   	1140.000000	4.80657e-05	
1160.000000	0.554861  	1160.000000	0.425807  	1160.000000	0.43513   	1160.000000	0.425148  	1160.000000	0.42576   	1160.000000	4.73027e-05	
1180.000000	0.553283  	1180.000000	0.424775  	1180.000000	0.434127  	1180.000000	0.424157  	1180.000000	0.424728  	1180.000000	4.65645e-05	
1200.000000	0.551796  	1200.000000	0.4238    	1200.000000	0.433178  	1200.000000	0.423219  	1200.000000	0.423754  	1200.000000	4.58499e-05	
1220.000000	0.550395  	1220.000000	0.422878  	1220.000000	0.432279  	1220.000000	0.42233   	1220.000000	0.422833  	1220.000000	4.51576e-05	
1240.000000	0.549076  	1240.000000	0.422008  	1240.000000	0.431427  	1240.000000	0.421487  	1240.000000	0.421964  	1240.000000	4.44868e-05	
1260.000000	0.547835  	1260.000000	0.421187  	1260.000000	0.430617  	1260.000000	0.420689  	1260.000000	0.421143  	1260.000000	4.38363e-05	
1280.000000	0.54667   	1280.000000	0.420412  	1280.000000	0.429848  	1280.000000	0.419932  	1280.000000	0.420369  	1280.000000	4.32053e-05	
1300.000000	0.545576  	1300.000000	0.419682  	1300.000000	0.429117  	1300.000000	0.419216  	1300.000000	0.41964   	1300.000000	4.25929e-05	
1320.000000	0.544552  	1320.000000	0.418995  	1320.000000	0.428421  	1320.000000	0.418537  	1320.000000	0.418953  	1320.000000	4.19983e-05	
1340.000000	0.543593  	1340.000000	0.418348  	1340.000000	0.427759  	1340.000000	0.417894  	1340.000000	0.418307  	1340.000000	4.14207e-05	
1360.000000	0.542698  	1360.000000	0.41774   	1360.000000	0.427131  	1360.000000	0.417285  	1360.000000	0.417699  	1360.000000	4.08593e-05	
1380.000000	0.541863  	1380.000000	0.41717   	1380.000000	0.426535  	1380.000000	0.416709  	1380.000000	0.417129  	1380.000000	4.03136e-05	
1400.000000	0.541087  	1400.000000	0.416635  	1400.000000	0.425971  	1400.000000	0.416164  	1400.000000	0.416595  	1400.000000	3.97827e-05	
1420.000000	0.540366  	1420.000000	0.416134  	1420.000000	0.425439  	1420.000000	0.415648  	1420.000000	0.416095  	1420.000000	3.92662e-05	
1440.000000	0.5397    	1440.000000	0.415666  	1440.000000	0.424937  	1440.000000	0.415161  	1440.000000	0.415627  	1440.000000	3.87634e-05	
1460.000000	0.539085  	1460.000000	0.41523   	1460.000000	0.424465  	1460.000000	0.414701  	1460.000000	0.415191  	1460.000000	3.82739e-05	
1480.000000	0.538521  	1480.000000	0.414824  	1480.000000	0.424021  	1480.000000	0.414266  	1480.000000	0.414786  	1480.000000	3.7797e-05	
1500.000000	0.538004  	1500.000000	0.414446  	1500.000000	0.423603  	1500.000000	0.413856  	1500.000000	0.414409  	1500.000000	3.73322e-05	
1520.000000	0.537534  	1520.000000	0.414097  	1520.000000	0.423209  	1520.000000	0.413469  	1520.000000	0.41406   	1520.000000	3.68792e-05	
1540.000000	0.537108  	1540.000000	0.413775  	1540.000000	0.422838  	1540.000000	0.413105  	1540.000000	0.413738  	1540.000000	3.64375e-05	
1560.000000	0.536725  	1560.000000	0.413478  	1560.000000	0.422487  	1560.000000	0.412762  	1560.000000	0.413442  	1560.000000	3.60066e-05	
1580.000000	0.536384  	1580.000000	0.413206  	1580.000000	0.422157  	1580.000000	0.412439  	1580.000000	0.413171  	1580.000000	3.55862e-05	
1600.000000	0.536083  	1600.000000	0.412959  	1600.000000	0.421844  	1600.000000	0.412136  	1600.000000	0.412923  	1600.000000	3.51759e-05	
1620.000000	0.535821  	1620.000000	0.412734  	1620.000000	0.421549  	1620.000000	0.411852  	1620.000000	0.412699  	1620.000000	3.47752e-05	
1640.000000	0.535596  	1640.000000	0.412531  	1640.000000	0.421271  	1640.000000	0.411585  	1640.000000	0.412497  	1640.000000	3.43839e-05	
1660.000000	0.535407  	1660.000000	0.41235   	1660.000000	0.421009  	1660.000000	0.411336  	1660.000000	0.412316  	1660.000000	3.40017e-05	
1680.000000	0.535254  	1680.000000	0.41219   	1680.000000	0.420764  	1680.000000	0.411103  	1680.000000	0.412156  	1680.000000	3.36282e-05	
1700.000000	0.535134  	1700.000000	0.412049  	1700.000000	0.420534  	1700.000000	0.410886  	1700.000000	0.412016  	1700.000000	3.32631e-05	
1750.000000	0.534977  	1750.000000	0.41178   	1750.000000	0.420027  	1750.000000	0.410408  	1750.000000	0.411748  	1750.000000	3.23853e-05	
1800.000000	0.535009  	1800.000000	0.411622  	1800.000000	0.419611  	1800.000000	0.410016  	1800.000000	0.411591  	1800.000000	3.15544e-05	
1850.000000	0.535217  	1850.000000	0.411566  	1850.000000	0.419278  	1850.000000	0.4097    	1850.000000	0.411535  	1850.000000	3.07665e-05	
1900.000000	0.535588  	1900.000000	0.411603  	1900.000000	0.419019  	1900.000000	0.409454  	1900.000000	0.411573  	1900.000000	3.00184e-05	
1950.000000	0.536112  	1950.000000	0.411727  	1950.000000	0.418825  	1950.000000	0.40927   	1950.000000	0.411697  	1950.000000	2.93071e-05	
2000.000000	0.536777  	2000.000000	0.41193   	2000.000000	0.418688  	2000.000000	0.409144  	2000.000000	0.411902  	2000.000000	2.86299e-05	
2100.000000	0.538496  	2100.000000	0.412555  	2100.000000	0.418558  	2100.000000	0.409041  	2100.000000	0.412528  	2100.000000	2.73685e-05	
2200.000000	0.540681  	2200.000000	0.413437  	2200.000000	0.418594  	2200.000000	0.409109  	2200.000000	0.413411  	2200.000000	2.62172e-05	
2300.000000	0.543278  	2300.000000	0.414542  	2300.000000	0.418771  	2300.000000	0.409319  	2300.000000	0.414517  	2300.000000	2.51621e-05	
2400.000000	0.546243  	2400.000000	0.415842  	2400.000000	0.419069  	2400.000000	0.409646  	2400.000000	0.415818  	2400.000000	2.41914e-05	
2500.000000	0.549537  	2500.000000	0.417314  	2500.000000	0.419476  	2500.000000	0.410079  	2500.000000	0.417291  	2500.000000	2.32954e-05	
2600.000000	0.553128  	2600.000000	0.418938  	2600.000000	0.420013  	2600.000000	0.410637  	2600.000000	0.418916  	2600.000000	2.24655e-05	
2700.000000	0.556988  	2700.000000	0.420697  	2700.000000	0.420621  	2700.000000	0.411262  	2700.000000	0.420676  	2700.000000	2.16948e-05	
2800.000000	0.561093  	2800.000000	0.422576  	2800.000000	0.421286  	2800.000000	0.411942  	2800.000000	0.422555  	2800.000000	2.09769e-05	
2900.000000	0.565422  	2900.000000	0.424563  	2900.000000	0.422     	2900.000000	0.412669  	2900.000000	0.424543  	2900.000000	2.03066e-05	
3000.000000	0.569958  	3000.000000	0.426646  	3000.000000	0.422753  	3000.000000	0.413433  	3000.000000	0.426627  	3000.000000	1.96793e-05	
3200.000000	0.579585  	3200.000000	0.431065  	3200.000000	0.424354  	3200.000000	0.415052  	3200.000000	0.431047  	3200.000000	1.85378e-05	
3400.000000	0.589868  	3400.000000	0.43577   	3400.000000	0.426042  	3400.000000	0.416756  	3400.000000	0.435753  	3400.000000	1.75255e-05	
3600.000000	0.600726  	3600.000000	0.440712  	3600.000000	0.427784  	3600.000000	0.418514  	3600.000000	0.440695  	3600.000000	1.66215e-05	
3800.000000	0.612091  	3800.000000	0.445852  	3800.000000	0.429559  	3800.000000	0.420304  	3800.000000	0.445836  	3800.000000	1.58091e-05	
4000.000000	0.623911  	4000.000000	0.451158  	4000.000000	0.431348  	4000.000000	0.422109  	4000.000000	0.451143  	4000.000000	1.50749e-05	
4200.000000	0.636142  	4200.000000	0.456606  	4200.000000	0.43314   	4200.000000	0.423916  	4200.000000	0.456592  	4200.000000	1.4408e-05	
4400.000000	0.648748  	4400.000000	0.462176  	4400.000000	0.434925  	4400.000000	0.425716  	4400.000000	0.462162  	4400.000000	1.37994e-05	
4600.000000	0.6617    	4600.000000	0.467849  	4600.000000	0.436697  	4600.000000	0.427502  	4600.000000	0.467835  	4600.000000	1.32418e-05	
4800.000000	0.674972  	4800.000000	0.473612  	4800.000000	0.438451  	4800.000000	0.42927   	4800.000000	0.473599  	4800.000000	1.2729e-05	
5000.000000	0.688543  	5000.000000	0.479453  	5000.000000	0.440182  	5000.000000	0.431014  	5000.000000	0.479441  	5000.000000	1.22556e-05	
5250.000000	0.705901  	5250.000000	0.486849  	5250.000000	0.442311  	5250.000000	0.43316   	5250.000000	0.486837  	5250.000000	1.17128e-05	
5500.000000	0.723668  	5500.000000	0.494335  	5500.000000	0.444398  	5500.000000	0.435262  	5500.000000	0.494324  	5500.000000	1.12174e-05	
6000.000000	0.76034   	6000.000000	0.509527  	6000.000000	0.448439  	6000.000000	0.439329  	6000.000000	0.509516  	6000.000000	1.03463e-05	
6500.000000	0.798404  	6500.000000	0.524945  	6500.000000	0.452299  	6500.000000	0.443211  	6500.000000	0.524936  	6500.000000	9.60439e-06	
7000.000000	0.837752  	7000.000000	0.540532  	7000.000000	0.455981  	7000.000000	0.44691   	7000.000000	0.540524  	7000.000000	8.96479e-06	
7500.000000	0.878299  	7500.000000	0.556246  	7500.000000	0.459493  	7500.000000	0.450434  	7500.000000	0.556238  	7500.000000	8.40748e-06	
8000.000000	0.919987  	8000.000000	0.572056  	8000.000000	0.462811  	8000.000000	0.453792  	8000.000000	0.572048  	8000.000000	7.91738e-06	
8500.000000	0.962766  	8500.000000	0.587937  	8500.000000	0.465985  	8500.000000	0.456995  	8500.000000	0.587929  	8500.000000	7.48293e-06	
9000.000000	1.0066    	9000.000000	0.603872  	9000.000000	0.469036  	9000.000000	0.460051  	9000.000000	0.603865  	9000.000000	7.09506e-06	
9500.000000	1.05146   	9500.000000	0.619849  	9500.000000	0.471947  	9500.000000	0.462972  	9500.000000	0.619842  	9500.000000	6.7466e-06	
10000.000000	1.09732   	10000.000000	0.635854  	10000.000000	0.474718  	10000.000000	0.465767  	10000.000000	0.635848  	10000.000000	6.43176e-06	
11000.000000	1.19199   	11000.000000	0.667923  	11000.000000	0.479904  	11000.000000	0.471013  	11000.000000	0.667917  	11000.000000	5.88505e-06	
12000.000000	1.29048   	12000.000000	0.700029  	12000.000000	0.484693  	12000.000000	0.47585   	12000.000000	0.700024  	12000.000000	5.42643e-06	
13000.000000	1.39273   	13000.000000	0.732141  	13000.000000	0.489127  	13000.000000	0.48033   	13000.000000	0.732136  	13000.000000	5.03601e-06	
14000.000000	1.49868   	14000.000000	0.764238  	14000.000000	0.493242  	14000.000000	0.484498  	14000.000000	0.764233  	14000.000000	4.69951e-06	
15000.000000	1.60831   	15000.000000	0.796306  	15000.000000	0.497077  	15000.000000	0.488391  	15000.000000	0.796301  	15000.000000	4.40638e-06	
16000.000000	1.72159   	16000.000000	0.828335  	16000.000000	0.500665  	16000.000000	0.492039  	16000.000000	0.828331  	16000.000000	4.14867e-06	
17000.000000	1.83851   	17000.000000	0.86032   	17000.000000	0.504033  	17000.000000	0.49547   	17000.000000	0.860316  	17000.000000	3.92027e-06	
18000.000000	1.95907   	18000.000000	0.892256  	18000.000000	0.507206  	18000.000000	0.498706  	18000.000000	0.892252  	18000.000000	3.7164e-06	
19000.000000	2.08325   	19000.000000	0.924141  	19000.000000	0.510206  	19000.000000	0.501766  	19000.000000	0.924138  	19000.000000	3.53328e-06	
20000.000000	2.21107   	20000.000000	0.955974  	20000.000000	0.51305   	20000.000000	0.504668  	20000.000000	0.95597   	20000.000000	3.36786e-06	
21000.000000	2.34253   	21000.000000	0.987753  	21000.000000	0.515742  	21000.000000	0.507425  	21000.000000	0.98775   	21000.000000	3.21767e-06	
22000.000000	2.47764   	22000.000000	1.01948   	22000.000000	0.518281  	22000.000000	0.510051  	22000.000000	1.01948   	22000.000000	3.08069e-06	
23000.000000	2.6164    	23000.000000	1.05115   	23000.000000	0.520712  	23000.000000	0.512557  	23000.000000	1.05115   	23000.000000	2.95522e-06	
24000.000000	2.75883   	24000.000000	1.08277   	24000.000000	0.523037  	24000.000000	0.514953  	24000.000000	1.08277   	24000.000000	2.83986e-06	
25000.000000	2.90494   	25000.000000	1.11434   	25000.000000	0.525249  	25000.000000	0.517247  	25000.000000	1.11434   	25000.000000	2.73343e-06	
26000.000000	3.05475   	26000.000000	1.14586   	26000.000000	0.527363  	26000.000000	0.519448  	26000.000000	1.14586   	26000.000000	2.63491e-06	
27000.000000	3.20826   	27000.000000	1.17733   	27000.000000	0.529391  	27000.000000	0.521561  	27000.000000	1.17733   	27000.000000	2.54345e-06	
28000.000000	3.36549   	28000.000000	1.20875   	28000.000000	0.531335  	28000.000000	0.523594  	28000.000000	1.20874   	28000.000000	2.45831e-06	
29000.000000	3.52647   	29000.000000	1.24012   	29000.000000	0.533199  	29000.000000	0.525552  	29000.000000	1.24011   	29000.000000	2.37885e-06	
30000.000000	3.6912    	30000.000000	1.27144   	30000.000000	0.534987  	30000.000000	0.52744   	30000.000000	1.27144   	30000.000000	2.30451e-06	
32000.000000	4.03199   	32000.000000	1.33395   	32000.000000	0.538365  	32000.000000	0.531023  	32000.000000	1.33395   	32000.000000	2.16932e-06	
34000.000000	4.38802   	34000.000000	1.39628   	34000.000000	0.541509  	34000.000000	0.534376  	34000.000000	1.39628   	34000.000000	2.04953e-06	
36000.000000	4.75944   	36000.000000	1.45845   	36000.000000	0.544433  	36000.000000	0.537525  	36000.000000	1.45844   	36000.000000	1.94263e-06	
38000.000000	5.14639   	38000.000000	1.52045   	38000.000000	0.547158  	38000.000000	0.540492  	38000.000000	1.52045   	38000.000000	1.84663e-06	
40000.000000	5.54903   	40000.000000	1.5823    	40000.000000	0.549708  	40000.000000	0.543296  	40000.000000	1.5823    	40000.000000	1.75992e-06	
42000.000000	5.96754   	42000.000000	1.644     	42000.000000	0.552109  	42000.000000	0.545953  	42000.000000	1.644     	42000.000000	1.68121e-06	
44000.000000	6.40206   	44000.000000	1.70556   	44000.000000	0.554379  	44000.000000	0.548478  	44000.000000	1.70556   	44000.000000	1.60943e-06	
46000.000000	6.85278   	46000.000000	1.76699   	46000.000000	0.556537  	46000.000000	0.550881  	46000.000000	1.76699   	46000.000000	1.54369e-06	
48000.000000	7.31985   	48000.000000	1.82829   	48000.000000	0.558586  	48000.000000	0.553174  	48000.000000	1.82829   	48000.000000	1.48326e-06	
50000.000000	7.80345   	50000.000000	1.88946   	50000.000000	0.560519  	50000.000000	0.555367  	50000.000000	1.88946   	50000.000000	1.42751e-06	
