Energy (MeV/u)1	0 - [He-base] F.Hubert et al, AD&ND Tables 46(1990)1	Energy (MeV/u)2	1 - [H -base] J.F.Ziegler et al, Pergamon Press, NY (low energy)	Energy (MeV/u)3	2 - ATIMA 1.2  LS-theory (recommended for high energy)	Energy (MeV/u)4	3 - ATIMA 1.2  without LS-correction	Energy (MeV/u)5	4 - electrical component of [1] - J.F.Ziegler et al	Energy (MeV/u)6	5 - nuclear component of [1] - J.F.Ziegler et al	
0.001000	0.297244  	0.001000	1.20199   	0.001000	1.45926   	0.001000	1.45926   	0.001000	0.59018   	0.001000	0.611807  	
0.002000	0.366039  	0.002000	1.35805   	0.002000	1.6818    	0.002000	1.6818    	0.002000	0.952919  	0.002000	0.40513   	
0.005000	0.554351  	0.005000	1.91887   	0.005000	2.29775   	0.005000	2.29775   	0.005000	1.70326   	0.005000	0.215617  	
0.008000	0.69902   	0.008000	2.3787    	0.008000	2.74889   	0.008000	2.74889   	0.008000	2.22583   	0.008000	0.152876  	
0.010000	0.778952  	0.010000	2.63658   	0.010000	2.98906   	0.010000	2.98906   	0.010000	2.5074    	0.010000	0.129181  	
0.015000	0.992506  	0.015000	3.38719   	0.015000	3.46567   	0.015000	3.46567   	0.015000	3.29274   	0.015000	0.0944557 	
0.020000	1.17141   	0.020000	4.02969   	0.020000	3.8385    	0.020000	3.8385    	0.020000	3.95441   	0.020000	0.0752771 	
0.025000	1.32405   	0.025000	4.59476   	0.025000	4.15308   	0.025000	4.15308   	0.025000	4.53179   	0.025000	0.0629739 	
0.030000	1.45495   	0.030000	5.09961   	0.030000	4.55114   	0.030000	4.55114   	0.030000	5.04526   	0.030000	0.0543522 	
0.035000	1.56684   	0.035000	5.55433   	0.035000	4.90339   	0.035000	4.90339   	0.035000	5.50638   	0.035000	0.0479456 	
0.040000	1.66165   	0.040000	5.96507   	0.040000	5.21763   	0.040000	5.21763   	0.040000	5.92209   	0.040000	0.0429818 	
0.045000	1.74088   	0.045000	6.33578   	0.045000	5.49922   	0.045000	5.49922   	0.045000	6.29677   	0.045000	0.0390131 	
0.050000	1.80593   	0.050000	6.66911   	0.050000	5.75211   	0.050000	5.75211   	0.050000	6.63335   	0.050000	0.0357615 	
0.055000	1.85812   	0.055000	6.96705   	0.055000	5.97927   	0.055000	5.97927   	0.055000	6.934     	0.055000	0.0330448 	
0.060000	1.89879   	0.060000	7.2312    	0.060000	6.18307   	0.060000	6.18307   	0.060000	7.20046   	0.060000	0.0307382 	
0.070000	1.95079   	0.070000	7.66408   	0.070000	6.52814   	0.070000	6.52814   	0.070000	7.63705   	0.070000	0.0270261 	
0.080000	1.97204   	0.080000	7.9799    	0.080000	6.79999   	0.080000	6.79999   	0.080000	7.95573   	0.080000	0.0241625 	
0.090000	1.97148   	0.090000	8.19197   	0.090000	7.00876   	0.090000	7.00876   	0.090000	8.17009   	0.090000	0.0218813 	
0.100000	1.95647   	0.100000	8.31478   	0.100000	7.16315   	0.100000	7.16315   	0.100000	8.29476   	0.100000	0.0200181 	
0.120000	1.90383   	0.120000	8.35149   	0.120000	7.33853   	0.120000	7.33853   	0.120000	8.33434   	0.120000	0.0171502 	
0.140000	1.84168   	0.140000	8.19907   	0.140000	7.37783   	0.140000	7.37783   	0.140000	8.18403   	0.140000	0.0150397 	
0.160000	1.78176   	0.160000	7.94262   	0.160000	7.32162   	0.160000	7.32162   	0.160000	7.92921   	0.160000	0.0134171 	
0.180000	1.72776   	0.180000	7.63985   	0.180000	7.20084   	0.180000	7.20084   	0.180000	7.62773   	0.180000	0.012128  	
0.200000	1.67996   	0.200000	7.3258    	0.200000	7.03846   	0.200000	7.03846   	0.200000	7.31473   	0.200000	0.0110777 	
0.250000	1.58129   	0.250000	6.59416   	0.250000	6.54761   	0.250000	6.54761   	0.250000	6.58503   	0.250000	0.00913736	
0.300000	1.50071   	0.300000	5.98947   	0.300000	6.03714   	0.300000	6.03714   	0.300000	5.98167   	0.300000	0.00780186	
0.350000	1.42967   	0.350000	5.49937   	0.350000	5.56309   	0.350000	5.56309   	0.350000	5.49255   	0.350000	0.00682312	
0.400000	1.36462   	0.400000	5.09576   	0.400000	5.14137   	0.400000	5.14137   	0.400000	5.08969   	0.400000	0.00607316	
0.450000	1.3042    	0.450000	4.75594   	0.450000	4.7722    	0.450000	4.7722    	0.450000	4.75046   	0.450000	0.00547907	
0.500000	1.24791   	0.500000	4.46412   	0.500000	4.45035   	0.500000	4.45035   	0.500000	4.45912   	0.500000	0.00499614	
0.600000	1.14677   	0.600000	3.98461   	0.600000	3.92282   	0.600000	3.92282   	0.600000	3.98035   	0.600000	0.00425715	
0.700000	1.05945   	0.700000	3.60371   	0.700000	3.51271   	0.700000	3.51271   	0.700000	3.59999   	0.700000	0.00371689	
0.800000	0.984059  	0.800000	3.29215   	0.800000	3.18632   	0.800000	3.18632   	0.800000	3.28885   	0.800000	0.00330374	
0.900000	0.918712  	0.900000	3.03189   	0.900000	2.92063   	0.900000	2.92063   	0.900000	3.02891   	0.900000	0.00297701	
1.000000	0.861711  	1.000000	2.81089   	1.000000	2.70001   	1.000000	2.70001   	1.000000	2.80817   	1.000000	0.0027118 	
1.250000	0.747008  	1.250000	2.37995   	1.250000	2.28201   	1.250000	2.28201   	1.250000	2.37773   	1.250000	0.00222448	
1.500000	0.660399  	1.500000	2.06492   	1.500000	1.98509   	1.500000	1.98509   	1.500000	2.06303   	1.500000	0.00189122	
1.750000	0.592566  	1.750000	1.82379   	1.750000	1.76159   	1.750000	1.76159   	1.750000	1.82214   	1.750000	0.0016482 	
2.000000	0.537897  	2.000000	1.63294   	2.000000	1.58634   	2.000000	1.58634   	2.000000	1.63148   	2.000000	0.00146276	
2.250000	0.492838  	2.250000	1.478     	2.250000	1.44476   	2.250000	1.44476   	2.250000	1.47668   	2.250000	0.00131638	
2.500000	0.447396  	2.500000	1.34966   	2.500000	1.32773   	2.500000	1.32773   	2.500000	1.34847   	2.500000	0.00119773	
3.000000	0.390509  	3.000000	1.14946   	3.000000	1.14514   	3.000000	1.14514   	3.000000	1.14844   	3.000000	0.00101685	
3.500000	0.347387  	3.500000	1.00056   	3.500000	1.0089    	3.500000	1.0089    	3.500000	0.999673  	3.500000	0.000885167	
4.000000	0.313472  	4.000000	0.885586  	4.000000	0.903175  	4.000000	0.903175  	4.000000	0.884801  	4.000000	0.000784815	
4.500000	0.286041  	4.500000	0.794193  	4.500000	0.818638  	4.500000	0.818638  	4.500000	0.793487  	4.500000	0.000705684	
5.000000	0.263359  	5.000000	0.719834  	5.000000	0.74943   	5.000000	0.74943   	5.000000	0.719192  	5.000000	0.000641613	
5.500000	0.244266  	5.500000	0.658169  	5.500000	0.691678  	5.500000	0.691678  	5.500000	0.65758   	5.500000	0.000588628	
6.000000	0.227956  	6.000000	0.60621   	6.000000	0.642713  	6.000000	0.642713  	6.000000	0.605666  	6.000000	0.000544047	
6.500000	0.213849  	6.500000	0.561836  	6.500000	0.600641  	6.500000	0.600641  	6.500000	0.56133   	6.500000	0.000505994	
7.000000	0.201518  	7.000000	0.523498  	7.000000	0.564075  	7.000000	0.564075  	7.000000	0.523025  	7.000000	0.000473116	
7.500000	0.190642  	7.500000	0.490043  	7.500000	0.531982  	7.500000	0.531982  	7.500000	0.489599  	7.500000	0.000444412	
8.000000	0.180971  	8.000000	0.460593  	8.000000	0.503571  	8.000000	0.503571  	8.000000	0.460174  	8.000000	0.000419123	
8.500000	0.172313  	8.500000	0.434467  	8.500000	0.47823   	8.500000	0.47823   	8.500000	0.43407   	8.500000	0.000396668	
9.000000	0.164512  	9.000000	0.411132  	9.000000	0.455476  	9.000000	0.455476  	9.000000	0.410755  	9.000000	0.000376589	
9.500000	0.157445  	9.500000	0.390162  	9.500000	0.434924  	9.500000	0.434924  	9.500000	0.389804  	9.500000	0.000358524	
10.000000	0.151012  	10.000000	0.374846  	10.000000	0.416262  	10.000000	0.416262  	10.000000	0.374504  	10.000000	0.000342179	
11.000000	0.139725  	11.000000	0.349149  	11.000000	0.383114  	11.000000	0.383131  	11.000000	0.348835  	11.000000	0.000313744	
12.000000	0.13014   	12.000000	0.326946  	12.000000	0.355111  	12.000000	0.35514   	12.000000	0.326657  	12.000000	0.000289834	
13.000000	0.121893  	13.000000	0.307571  	13.000000	0.331133  	13.000000	0.331166  	13.000000	0.307302  	13.000000	0.000269438	
14.000000	0.114716  	14.000000	0.290513  	14.000000	0.310363  	14.000000	0.310395  	14.000000	0.290261  	14.000000	0.000251824	
15.000000	0.108411  	15.000000	0.275376  	15.000000	0.29219   	15.000000	0.292221  	15.000000	0.27514   	15.000000	0.000236454	
16.000000	0.102825  	16.000000	0.261852  	16.000000	0.276153  	16.000000	0.276183  	16.000000	0.261629  	16.000000	0.00022292	
17.000000	0.0978401 	17.000000	0.249692  	17.000000	0.2619    	17.000000	0.261926  	17.000000	0.249482  	17.000000	0.000210906	
18.000000	0.0933617 	18.000000	0.238699  	18.000000	0.24915   	18.000000	0.24917   	18.000000	0.238499  	18.000000	0.000200169	
19.000000	0.0893154 	19.000000	0.22871   	19.000000	0.237675  	19.000000	0.23769   	19.000000	0.22852   	19.000000	0.000190511	
20.000000	0.0856404 	20.000000	0.219592  	20.000000	0.22729   	20.000000	0.227305  	20.000000	0.219411  	20.000000	0.000181776	
21.000000	0.0822869 	21.000000	0.211235  	21.000000	0.217852  	21.000000	0.217868  	21.000000	0.211061  	21.000000	0.000173836	
22.000000	0.0792136 	22.000000	0.203546  	22.000000	0.209245  	22.000000	0.209257  	22.000000	0.203379  	22.000000	0.000166587	
23.000000	0.0763863 	23.000000	0.196447  	23.000000	0.201367  	23.000000	0.20137   	23.000000	0.196287  	23.000000	0.00015994	
24.000000	0.073776  	24.000000	0.189871  	24.000000	0.194126  	24.000000	0.194122  	24.000000	0.189718  	24.000000	0.000153823	
25.000000	0.0713582 	25.000000	0.183763  	25.000000	0.187452  	25.000000	0.187439  	25.000000	0.183615  	25.000000	0.000148173	
27.000000	0.0670193 	27.000000	0.17276   	27.000000	0.175567  	27.000000	0.175536  	27.000000	0.172621  	27.000000	0.000138076	
29.000000	0.0632345 	29.000000	0.163119  	29.000000	0.1653    	29.000000	0.165261  	29.000000	0.16299   	29.000000	0.000129314	
31.000000	0.0599024 	31.000000	0.154601  	31.000000	0.156345  	31.000000	0.156304  	31.000000	0.154479  	31.000000	0.000121634	
33.000000	0.0569449 	33.000000	0.147016  	33.000000	0.148426  	33.000000	0.148372  	33.000000	0.146901  	33.000000	0.000114846	
35.000000	0.0543011 	35.000000	0.140218  	35.000000	0.141341  	35.000000	0.14129   	35.000000	0.14011   	35.000000	0.000108802	
38.000000	0.0508205 	38.000000	0.131245  	38.000000	0.132039  	38.000000	0.13198   	38.000000	0.131144  	38.000000	0.00010088	
41.000000	0.047814  	41.000000	0.123474  	41.000000	0.124012  	41.000000	0.123952  	41.000000	0.12338   	41.000000	9.40699e-05	
44.000000	0.0451893 	44.000000	0.116676  	44.000000	0.117007  	44.000000	0.116953  	44.000000	0.116588  	44.000000	8.81509e-05	
47.000000	0.0428767 	47.000000	0.110676  	47.000000	0.110857  	47.000000	0.110797  	47.000000	0.110593  	47.000000	8.2957e-05	
50.000000	0.0408226 	50.000000	0.105341  	50.000000	0.105398  	50.000000	0.105336  	50.000000	0.105263  	50.000000	7.83611e-05	
55.000000	0.0378639 	55.000000	0.0976473 	55.000000	0.0975532 	55.000000	0.0974864 	55.000000	0.0975756 	55.000000	7.17717e-05	
60.000000	0.0353657 	60.000000	0.0911456 	60.000000	0.090936  	60.000000	0.0908745 	60.000000	0.0910794 	60.000000	6.62379e-05	
65.000000	0.0332265 	65.000000	0.085576  	65.000000	0.0852892 	65.000000	0.0852261 	65.000000	0.0855145 	65.000000	6.15224e-05	
70.000000	0.0313726 	70.000000	0.0807493 	70.000000	0.0804068 	70.000000	0.0803428 	70.000000	0.0806919 	70.000000	5.74544e-05	
75.000000	0.0297494 	75.000000	0.0765248 	75.000000	0.0761363 	75.000000	0.0760774 	75.000000	0.0764709 	75.000000	5.39077e-05	
80.000000	0.0283156 	80.000000	0.0727951 	80.000000	0.0723825 	80.000000	0.0723185 	80.000000	0.0727443 	80.000000	5.07873e-05	
85.000000	0.027039  	85.000000	0.0694773 	85.000000	0.0690408 	85.000000	0.0689801 	85.000000	0.0694293 	85.000000	4.80197e-05	
90.000000	0.0258947 	90.000000	0.0665061 	90.000000	0.0660529 	90.000000	0.0659948 	90.000000	0.0664606 	90.000000	4.55478e-05	
95.000000	0.0248627 	95.000000	0.0638293 	95.000000	0.0633711 	95.000000	0.0633089 	95.000000	0.063786  	95.000000	4.3326e-05	
100.000000	0.0239268 	100.000000	0.0614049 	100.000000	0.0609387 	100.000000	0.0608792 	100.000000	0.0613636 	100.000000	4.13179e-05	
105.000000	0.0230739 	105.000000	0.0591984 	105.000000	0.0587276 	105.000000	0.0586705 	105.000000	0.0591589 	105.000000	3.94936e-05	
110.000000	0.0222932 	110.000000	0.0571814 	110.000000	0.0567079 	110.000000	0.0566537 	110.000000	0.0571436 	110.000000	3.78289e-05	
115.000000	0.0215756 	115.000000	0.0553304 	115.000000	0.0548608 	115.000000	0.0548046 	115.000000	0.0552941 	115.000000	3.63033e-05	
120.000000	0.0209137 	120.000000	0.0536255 	120.000000	0.0531605 	120.000000	0.0531032 	120.000000	0.0535906 	120.000000	3.49e-05  	
125.000000	0.020301  	125.000000	0.0520499 	125.000000	0.0515866 	125.000000	0.0515322 	125.000000	0.0520163 	125.000000	3.36047e-05	
130.000000	0.0197322 	130.000000	0.0505894 	130.000000	0.0501301 	130.000000	0.0500772 	130.000000	0.050557  	130.000000	3.24053e-05	
135.000000	0.0192024 	135.000000	0.0492317 	135.000000	0.048781  	135.000000	0.0487258 	135.000000	0.0492004 	135.000000	3.12913e-05	
140.000000	0.0187078 	140.000000	0.0479662 	140.000000	0.0475226 	140.000000	0.0474672 	140.000000	0.047936  	140.000000	3.02538e-05	
145.000000	0.0182449 	145.000000	0.0467839 	145.000000	0.0463455 	145.000000	0.0462922 	145.000000	0.0467546 	145.000000	2.92852e-05	
150.000000	0.0178106 	150.000000	0.0456767 	150.000000	0.0452447 	150.000000	0.0451927 	150.000000	0.0456483 	150.000000	2.83787e-05	
155.000000	0.0171992 	155.000000	0.0446376 	155.000000	0.0442118 	155.000000	0.0441616 	155.000000	0.0446101 	155.000000	2.75285e-05	
160.000000	0.0168407 	160.000000	0.0436606 	160.000000	0.0432426 	160.000000	0.0431928 	160.000000	0.0436339 	160.000000	2.67294e-05	
165.000000	0.0165028 	165.000000	0.0427402 	165.000000	0.0423324 	165.000000	0.0422808 	165.000000	0.0427142 	165.000000	2.5977e-05	
170.000000	0.0161835 	170.000000	0.0418716 	170.000000	0.0414725 	170.000000	0.0414207 	170.000000	0.0418463 	170.000000	2.52671e-05	
175.000000	0.0158814 	175.000000	0.0410505 	175.000000	0.0406585 	175.000000	0.0406083 	175.000000	0.0410259 	175.000000	2.45962e-05	
180.000000	0.0155951 	180.000000	0.0402732 	180.000000	0.0398887 	180.000000	0.0398396 	180.000000	0.0402493 	180.000000	2.39613e-05	
185.000000	0.0153234 	185.000000	0.0395363 	185.000000	0.0391593 	185.000000	0.0391113 	185.000000	0.0395129 	185.000000	2.33593e-05	
190.000000	0.0150651 	190.000000	0.0388366 	190.000000	0.038467  	190.000000	0.0384203 	190.000000	0.0388138 	190.000000	2.27879e-05	
195.000000	0.0148194 	195.000000	0.0381714 	195.000000	0.0378108 	195.000000	0.0377638 	195.000000	0.0381491 	195.000000	2.22447e-05	
200.000000	0.0145852 	200.000000	0.0375382 	200.000000	0.0371877 	200.000000	0.0371392 	200.000000	0.0375165 	200.000000	2.17276e-05	
210.000000	0.0141486 	210.000000	0.0363591 	210.000000	0.0360249 	210.000000	0.0359773 	210.000000	0.0363384 	210.000000	2.07646e-05	
220.000000	0.0137495 	220.000000	0.0352837 	220.000000	0.0349647 	220.000000	0.0349188 	220.000000	0.0352638 	220.000000	1.98859e-05	
230.000000	0.0133832 	230.000000	0.0342988 	230.000000	0.0339946 	230.000000	0.0339506 	230.000000	0.0342797 	230.000000	1.90809e-05	
240.000000	0.013046  	240.000000	0.0333935 	240.000000	0.033107  	240.000000	0.0330617 	240.000000	0.0333752 	240.000000	1.83406e-05	
250.000000	0.0127343 	250.000000	0.0325587 	250.000000	0.0322882 	250.000000	0.0322429 	250.000000	0.032541  	250.000000	1.76573e-05	
260.000000	0.0124455 	260.000000	0.0317864 	260.000000	0.0315301 	260.000000	0.0314863 	260.000000	0.0317694 	260.000000	1.70247e-05	
270.000000	0.0121771 	270.000000	0.0310701 	270.000000	0.0308279 	270.000000	0.0307852 	270.000000	0.0310536 	270.000000	1.64372e-05	
280.000000	0.011927  	280.000000	0.0304038 	280.000000	0.0301755 	280.000000	0.0301339 	280.000000	0.0303879 	280.000000	1.58902e-05	
290.000000	0.0116933 	290.000000	0.0297826 	290.000000	0.0295701 	290.000000	0.0295272 	290.000000	0.0297672 	290.000000	1.53796e-05	
300.000000	0.0114746 	300.000000	0.0292021 	300.000000	0.0290039 	300.000000	0.0289609 	300.000000	0.0291872 	300.000000	1.49018e-05	
310.000000	0.0112695 	310.000000	0.0286585 	310.000000	0.028473  	310.000000	0.0284312 	310.000000	0.028644  	310.000000	1.44537e-05	
320.000000	0.0110766 	320.000000	0.0281485 	320.000000	0.0279757 	320.000000	0.0279347 	320.000000	0.0281344 	320.000000	1.40326e-05	
330.000000	0.0108951 	330.000000	0.0276691 	330.000000	0.0275084 	330.000000	0.0274685 	330.000000	0.0276554 	330.000000	1.36361e-05	
340.000000	0.0107238 	340.000000	0.0272177 	340.000000	0.0270695 	340.000000	0.0270299 	340.000000	0.0272044 	340.000000	1.32622e-05	
350.000000	0.0105621 	350.000000	0.0267919 	350.000000	0.0266572 	350.000000	0.0266167 	350.000000	0.026779  	350.000000	1.29088e-05	
360.000000	0.010409  	360.000000	0.0263898 	360.000000	0.0262676 	360.000000	0.0262267 	360.000000	0.0263772 	360.000000	1.25743e-05	
370.000000	0.010264  	370.000000	0.0260095 	370.000000	0.0258982 	370.000000	0.0258582 	370.000000	0.0259972 	370.000000	1.22573e-05	
380.000000	0.0101264 	380.000000	0.0256492 	380.000000	0.0255488 	380.000000	0.0255094 	380.000000	0.0256372 	380.000000	1.19564e-05	
390.000000	0.00999578	390.000000	0.0253075 	390.000000	0.0252178 	390.000000	0.025179  	390.000000	0.0252958 	390.000000	1.16704e-05	
400.000000	0.00987153	400.000000	0.0249831 	400.000000	0.0249035 	400.000000	0.0248655 	400.000000	0.0249717 	400.000000	1.13981e-05	
410.000000	0.00975323	410.000000	0.0246747 	410.000000	0.0246053 	410.000000	0.0245677 	410.000000	0.0246635 	410.000000	1.11387e-05	
420.000000	0.00964049	420.000000	0.0243812 	420.000000	0.0243227 	420.000000	0.0242846 	420.000000	0.0243703 	420.000000	1.08912e-05	
430.000000	0.00953294	430.000000	0.0241016 	430.000000	0.0240539 	430.000000	0.024015  	430.000000	0.0240909 	430.000000	1.06548e-05	
440.000000	0.00943023	440.000000	0.023835  	440.000000	0.0237969 	440.000000	0.0237582 	440.000000	0.0238246 	440.000000	1.04287e-05	
450.000000	0.00933207	450.000000	0.0235805 	450.000000	0.0235513 	450.000000	0.0235133 	450.000000	0.0235703 	450.000000	1.02124e-05	
460.000000	0.00923817	460.000000	0.0233375 	460.000000	0.023317  	460.000000	0.0232795 	460.000000	0.0233274 	460.000000	1.00051e-05	
470.000000	0.00914827	470.000000	0.023105  	470.000000	0.0230932 	470.000000	0.0230561 	470.000000	0.0230952 	470.000000	9.80632e-06	
480.000000	0.00906213	480.000000	0.0228827 	480.000000	0.0228791 	480.000000	0.0228425 	480.000000	0.022873  	480.000000	9.61555e-06	
490.000000	0.00897954	490.000000	0.0226697 	490.000000	0.0226742 	490.000000	0.0226381 	490.000000	0.0226603 	490.000000	9.43229e-06	
500.000000	0.0089003 	500.000000	0.0224656 	500.000000	0.0224781 	500.000000	0.0224423 	500.000000	0.0224564 	500.000000	9.2561e-06	
520.000000	0.00875111	520.000000	0.0220822 	520.000000	0.0221114 	520.000000	0.0220747 	520.000000	0.0220732 	520.000000	8.92335e-06	
540.000000	0.00861322	540.000000	0.0217286 	540.000000	0.0217729 	540.000000	0.0217361 	540.000000	0.02172   	540.000000	8.61441e-06	
560.000000	0.00848549	560.000000	0.0214018 	560.000000	0.0214594 	560.000000	0.0214234 	560.000000	0.0213935 	560.000000	8.32678e-06	
580.000000	0.00836692	580.000000	0.0210992 	580.000000	0.0211694 	580.000000	0.0211341 	580.000000	0.0210911 	580.000000	8.0583e-06	
600.000000	0.00825663	600.000000	0.0208183 	600.000000	0.0209003 	600.000000	0.0208657 	600.000000	0.0208104 	600.000000	7.80711e-06	
620.000000	0.00815387	620.000000	0.0205571 	620.000000	0.0206505 	620.000000	0.0206162 	620.000000	0.0205495 	620.000000	7.57158e-06	
640.000000	0.00805797	640.000000	0.0203138 	640.000000	0.0204188 	640.000000	0.0203839 	640.000000	0.0203064 	640.000000	7.35026e-06	
660.000000	0.00796833	660.000000	0.0200868 	660.000000	0.0202026 	660.000000	0.0201673 	660.000000	0.0200797 	660.000000	7.1419e-06	
680.000000	0.00788444	680.000000	0.0198748 	680.000000	0.0199998 	680.000000	0.0199648 	680.000000	0.0198679 	680.000000	6.94539e-06	
700.000000	0.00780583	700.000000	0.0196765 	700.000000	0.0198098 	700.000000	0.0197754 	700.000000	0.0196697 	700.000000	6.75971e-06	
720.000000	0.00773207	720.000000	0.0194907 	720.000000	0.0196319 	720.000000	0.019598  	720.000000	0.0194841 	720.000000	6.58401e-06	
740.000000	0.0076628 	740.000000	0.0193165 	740.000000	0.019465  	740.000000	0.0194314 	740.000000	0.0193101 	740.000000	6.41748e-06	
760.000000	0.00759768	760.000000	0.019153  	760.000000	0.0193081 	760.000000	0.019275  	760.000000	0.0191467 	760.000000	6.25942e-06	
780.000000	0.00753641	780.000000	0.0189994 	780.000000	0.0191607 	780.000000	0.0191279 	780.000000	0.0189933 	780.000000	6.10919e-06	
800.000000	0.00747872	800.000000	0.0188549 	800.000000	0.0190223 	800.000000	0.0189893 	800.000000	0.0188489 	800.000000	5.96622e-06	
820.000000	0.00742435	820.000000	0.0187189 	820.000000	0.0188922 	820.000000	0.0188587 	820.000000	0.0187131 	820.000000	5.82999e-06	
840.000000	0.00737309	840.000000	0.0185909 	840.000000	0.0187693 	840.000000	0.0187355 	840.000000	0.0185852 	840.000000	5.70002e-06	
860.000000	0.00732473	860.000000	0.0184702 	860.000000	0.0186528 	860.000000	0.0186192 	860.000000	0.0184647 	860.000000	5.5759e-06	
880.000000	0.00727909	880.000000	0.0183565 	880.000000	0.0185424 	880.000000	0.0185092 	880.000000	0.018351  	880.000000	5.45723e-06	
900.000000	0.00723599	900.000000	0.0182491 	900.000000	0.018438  	900.000000	0.0184052 	900.000000	0.0182438 	900.000000	5.34366e-06	
920.000000	0.00719527	920.000000	0.0181478 	920.000000	0.0183393 	920.000000	0.0183067 	920.000000	0.0181426 	920.000000	5.23486e-06	
940.000000	0.0071568 	940.000000	0.0180521 	940.000000	0.0182458 	940.000000	0.0182134 	940.000000	0.018047  	940.000000	5.13053e-06	
960.000000	0.00712044	960.000000	0.0179618 	960.000000	0.0181571 	960.000000	0.018125  	960.000000	0.0179567 	960.000000	5.03041e-06	
980.000000	0.00708607	980.000000	0.0178764 	980.000000	0.0180731 	980.000000	0.0180411 	980.000000	0.0178715 	980.000000	4.93423e-06	
1000.000000	0.00705357	1000.000000	0.0177957 	1000.000000	0.0179932 	1000.000000	0.0179614 	1000.000000	0.0177909 	1000.000000	4.84178e-06	
1020.000000	0.00702285	1020.000000	0.0177194 	1020.000000	0.0179174 	1020.000000	0.0178858 	1020.000000	0.0177147 	1020.000000	4.75283e-06	
1040.000000	0.00699381	1040.000000	0.0176474 	1040.000000	0.0178453 	1040.000000	0.0178139 	1040.000000	0.0176427 	1040.000000	4.66719e-06	
1060.000000	0.00696635	1060.000000	0.0175792 	1060.000000	0.0177767 	1060.000000	0.0177456 	1060.000000	0.0175746 	1060.000000	4.58467e-06	
1080.000000	0.0069404 	1080.000000	0.0175148 	1080.000000	0.0177115 	1080.000000	0.0176806 	1080.000000	0.0175103 	1080.000000	4.5051e-06	
1100.000000	0.00691588	1100.000000	0.0174539 	1100.000000	0.0176495 	1100.000000	0.0176188 	1100.000000	0.0174495 	1100.000000	4.42833e-06	
1120.000000	0.00689271	1120.000000	0.0173964 	1120.000000	0.0175907 	1120.000000	0.0175599 	1120.000000	0.017392  	1120.000000	4.35422e-06	
1140.000000	0.00687084	1140.000000	0.017342  	1140.000000	0.0175349 	1140.000000	0.0175039 	1140.000000	0.0173378 	1140.000000	4.28262e-06	
1160.000000	0.00685019	1160.000000	0.0172907 	1160.000000	0.0174817 	1160.000000	0.0174505 	1160.000000	0.0172865 	1160.000000	4.2134e-06	
1180.000000	0.00683071	1180.000000	0.0172422 	1180.000000	0.017431  	1180.000000	0.0173996 	1180.000000	0.017238  	1180.000000	4.14645e-06	
1200.000000	0.00681234	1200.000000	0.0171964 	1200.000000	0.0173826 	1200.000000	0.017351  	1200.000000	0.0171923 	1200.000000	4.08166e-06	
1220.000000	0.00679504	1220.000000	0.0171532 	1220.000000	0.0173364 	1220.000000	0.0173048 	1220.000000	0.0171492 	1220.000000	4.01893e-06	
1240.000000	0.00677875	1240.000000	0.0171125 	1240.000000	0.0172922 	1240.000000	0.0172606 	1240.000000	0.0171086 	1240.000000	3.95815e-06	
1260.000000	0.00676344	1260.000000	0.0170742 	1260.000000	0.0172499 	1260.000000	0.0172186 	1260.000000	0.0170703 	1260.000000	3.89924e-06	
1280.000000	0.00674905	1280.000000	0.017038  	1280.000000	0.0172096 	1280.000000	0.0171784 	1280.000000	0.0170342 	1280.000000	3.84211e-06	
1300.000000	0.00673554	1300.000000	0.0170041 	1300.000000	0.0171711 	1300.000000	0.0171401 	1300.000000	0.0170003 	1300.000000	3.78668e-06	
1320.000000	0.00672289	1320.000000	0.0169721 	1320.000000	0.0171343 	1320.000000	0.0171035 	1320.000000	0.0169684 	1320.000000	3.73287e-06	
1340.000000	0.00671106	1340.000000	0.0169421 	1340.000000	0.0170993 	1340.000000	0.0170685 	1340.000000	0.0169385 	1340.000000	3.68061e-06	
1360.000000	0.0067    	1360.000000	0.016914  	1360.000000	0.0170658 	1360.000000	0.0170352 	1360.000000	0.0169104 	1360.000000	3.62985e-06	
1380.000000	0.00668969	1380.000000	0.0168877 	1380.000000	0.0170339 	1380.000000	0.0170033 	1380.000000	0.0168841 	1380.000000	3.5805e-06	
1400.000000	0.00668011	1400.000000	0.0168631 	1400.000000	0.0170034 	1400.000000	0.0169729 	1400.000000	0.0168596 	1400.000000	3.53252e-06	
1420.000000	0.00667121	1420.000000	0.0168401 	1420.000000	0.0169743 	1420.000000	0.0169439 	1420.000000	0.0168366 	1420.000000	3.48585e-06	
1440.000000	0.00666299	1440.000000	0.0168187 	1440.000000	0.0169464 	1440.000000	0.0169162 	1440.000000	0.0168153 	1440.000000	3.44043e-06	
1460.000000	0.0066554 	1460.000000	0.0167989 	1460.000000	0.0169198 	1460.000000	0.0168897 	1460.000000	0.0167955 	1460.000000	3.39621e-06	
1480.000000	0.00664842	1480.000000	0.0167804 	1480.000000	0.0168944 	1480.000000	0.0168644 	1480.000000	0.0167771 	1480.000000	3.35315e-06	
1500.000000	0.00664204	1500.000000	0.0167634 	1500.000000	0.0168701 	1500.000000	0.0168402 	1500.000000	0.0167601 	1500.000000	3.3112e-06	
1520.000000	0.00663624	1520.000000	0.0167477 	1520.000000	0.0168469 	1520.000000	0.0168172 	1520.000000	0.0167444 	1520.000000	3.27032e-06	
1540.000000	0.00663098	1540.000000	0.0167333 	1540.000000	0.0168248 	1540.000000	0.0167952 	1540.000000	0.0167301 	1540.000000	3.23047e-06	
1560.000000	0.00662625	1560.000000	0.0167201 	1560.000000	0.0168038 	1560.000000	0.0167741 	1560.000000	0.0167169 	1560.000000	3.1916e-06	
1580.000000	0.00662204	1580.000000	0.0167082 	1580.000000	0.0167837 	1580.000000	0.0167541 	1580.000000	0.016705  	1580.000000	3.15369e-06	
1600.000000	0.00661832	1600.000000	0.0166973 	1600.000000	0.0167645 	1600.000000	0.0167349 	1600.000000	0.0166942 	1600.000000	3.11669e-06	
1620.000000	0.00661509	1620.000000	0.0166876 	1620.000000	0.0167463 	1620.000000	0.0167167 	1620.000000	0.0166845 	1620.000000	3.08058e-06	
1640.000000	0.00661231	1640.000000	0.016679  	1640.000000	0.016729  	1640.000000	0.0166993 	1640.000000	0.0166759 	1640.000000	3.04532e-06	
1660.000000	0.00660998	1660.000000	0.0166714 	1660.000000	0.0167124 	1660.000000	0.0166826 	1660.000000	0.0166683 	1660.000000	3.01088e-06	
1680.000000	0.00660809	1680.000000	0.0166647 	1680.000000	0.0166967 	1680.000000	0.0166668 	1680.000000	0.0166617 	1680.000000	2.97723e-06	
1700.000000	0.00660661	1700.000000	0.0166591 	1700.000000	0.0166817 	1700.000000	0.0166517 	1700.000000	0.0166561 	1700.000000	2.94435e-06	
1750.000000	0.00660466	1750.000000	0.0166488 	1750.000000	0.0166473 	1750.000000	0.0166171 	1750.000000	0.016646  	1750.000000	2.86533e-06	
1800.000000	0.00660506	1800.000000	0.0166439 	1800.000000	0.0166168 	1800.000000	0.0165865 	1800.000000	0.0166411 	1800.000000	2.79057e-06	
1850.000000	0.00660763	1850.000000	0.0166439 	1850.000000	0.0165898 	1850.000000	0.0165595 	1850.000000	0.0166412 	1850.000000	2.71971e-06	
1900.000000	0.00661221	1900.000000	0.0166484 	1900.000000	0.0165661 	1900.000000	0.0165359 	1900.000000	0.0166457 	1900.000000	2.65247e-06	
1950.000000	0.00661867	1950.000000	0.016657  	1950.000000	0.0165454 	1950.000000	0.0165154 	1950.000000	0.0166544 	1950.000000	2.58857e-06	
2000.000000	0.00662688	2000.000000	0.0166694 	2000.000000	0.0165274 	2000.000000	0.0164976 	2000.000000	0.0166669 	2000.000000	2.52775e-06	
2100.000000	0.0066481 	2100.000000	0.0167048 	2100.000000	0.0164989 	2100.000000	0.0164693 	2100.000000	0.0167024 	2100.000000	2.41455e-06	
2200.000000	0.00667507	2200.000000	0.0167524 	2200.000000	0.016479  	2200.000000	0.0164496 	2200.000000	0.0167501 	2200.000000	2.31132e-06	
2300.000000	0.00670714	2300.000000	0.0168108 	2300.000000	0.0164663 	2300.000000	0.016437  	2300.000000	0.0168086 	2300.000000	2.21678e-06	
2400.000000	0.00674375	2400.000000	0.0168785 	2400.000000	0.0164596 	2400.000000	0.0164305 	2400.000000	0.0168764 	2400.000000	2.12989e-06	
2500.000000	0.00678441	2500.000000	0.0169544 	2500.000000	0.016458  	2500.000000	0.0164291 	2500.000000	0.0169524 	2500.000000	2.04973e-06	
2600.000000	0.00682875	2600.000000	0.0170377 	2600.000000	0.0164608 	2600.000000	0.016432  	2600.000000	0.0170357 	2600.000000	1.97554e-06	
2700.000000	0.0068764 	2700.000000	0.0171274 	2700.000000	0.0164674 	2700.000000	0.0164387 	2700.000000	0.0171255 	2700.000000	1.90668e-06	
2800.000000	0.00692708	2800.000000	0.0172228 	2800.000000	0.0164771 	2800.000000	0.0164486 	2800.000000	0.017221  	2800.000000	1.84259e-06	
2900.000000	0.00698053	2900.000000	0.0173234 	2900.000000	0.0164896 	2900.000000	0.0164611 	2900.000000	0.0173216 	2900.000000	1.78279e-06	
3000.000000	0.00703652	3000.000000	0.0174286 	3000.000000	0.0165045 	3000.000000	0.0164761 	3000.000000	0.0174269 	3000.000000	1.72684e-06	
3200.000000	0.00715537	3200.000000	0.0176512 	3200.000000	0.0165401 	3200.000000	0.0165117 	3200.000000	0.0176495 	3200.000000	1.62514e-06	
3400.000000	0.00728233	3400.000000	0.0178874 	3400.000000	0.0165816 	3400.000000	0.0165533 	3400.000000	0.0178858 	3400.000000	1.53504e-06	
3600.000000	0.00741637	3600.000000	0.0181349 	3600.000000	0.0166276 	3600.000000	0.0165994 	3600.000000	0.0181334 	3600.000000	1.45465e-06	
3800.000000	0.00755668	3800.000000	0.0183919 	3800.000000	0.0166768 	3800.000000	0.0166486 	3800.000000	0.0183905 	3800.000000	1.38248e-06	
4000.000000	0.00770261	4000.000000	0.0186568 	4000.000000	0.0167282 	4000.000000	0.0167002 	4000.000000	0.0186555 	4000.000000	1.31731e-06	
4200.000000	0.00785361	4200.000000	0.0189286 	4200.000000	0.0167813 	4200.000000	0.0167533 	4200.000000	0.0189273 	4200.000000	1.25816e-06	
4400.000000	0.00800924	4400.000000	0.0192061 	4400.000000	0.0168355 	4400.000000	0.0168076 	4400.000000	0.0192048 	4400.000000	1.20423e-06	
4600.000000	0.00816914	4600.000000	0.0194885 	4600.000000	0.0168903 	4600.000000	0.0168625 	4600.000000	0.0194874 	4600.000000	1.15486e-06	
4800.000000	0.00833299	4800.000000	0.0197752 	4800.000000	0.0169455 	4800.000000	0.0169177 	4800.000000	0.0197741 	4800.000000	1.10947e-06	
5000.000000	0.00850053	5000.000000	0.0200657 	5000.000000	0.0170008 	5000.000000	0.0169731 	5000.000000	0.0200646 	5000.000000	1.06761e-06	
5250.000000	0.00871482	5250.000000	0.0204333 	5250.000000	0.0170698 	5250.000000	0.0170421 	5250.000000	0.0204323 	5250.000000	1.01964e-06	
5500.000000	0.00893418	5500.000000	0.0208051 	5500.000000	0.0171383 	5500.000000	0.0171107 	5500.000000	0.0208042 	5500.000000	9.75897e-07	
6000.000000	0.00938691	6000.000000	0.0215593 	6000.000000	0.0172732 	6000.000000	0.0172457 	6000.000000	0.0215584 	6000.000000	8.99044e-07	
6500.000000	0.00985685	6500.000000	0.0223242 	6500.000000	0.0174044 	6500.000000	0.017377  	6500.000000	0.0223233 	6500.000000	8.33684e-07	
7000.000000	0.0103426 	7000.000000	0.023097  	7000.000000	0.0175315 	7000.000000	0.017504  	7000.000000	0.0230962 	7000.000000	7.77399e-07	
7500.000000	0.0108432 	7500.000000	0.0238758 	7500.000000	0.0176541 	7500.000000	0.0176267 	7500.000000	0.0238751 	7500.000000	7.28409e-07	
8000.000000	0.0113579 	8000.000000	0.0246591 	8000.000000	0.0177723 	8000.000000	0.017745  	8000.000000	0.0246584 	8000.000000	6.85371e-07	
8500.000000	0.011886  	8500.000000	0.0254458 	8500.000000	0.0178862 	8500.000000	0.0178589 	8500.000000	0.0254451 	8500.000000	6.47254e-07	
9000.000000	0.0124272 	9000.000000	0.0262349 	9000.000000	0.0179958 	9000.000000	0.0179686 	9000.000000	0.0262343 	9000.000000	6.13254e-07	
9500.000000	0.012981  	9500.000000	0.027026  	9500.000000	0.0181014 	9500.000000	0.0180744 	9500.000000	0.0270254 	9500.000000	5.82732e-07	
10000.000000	0.0135472 	10000.000000	0.0278183 	10000.000000	0.0182033 	10000.000000	0.0181763 	10000.000000	0.0278178 	10000.000000	5.55177e-07	
11000.000000	0.0147159 	11000.000000	0.0294056 	11000.000000	0.0183965 	11000.000000	0.0183696 	11000.000000	0.0294051 	11000.000000	5.07378e-07	
12000.000000	0.0159318 	12000.000000	0.0309944 	12000.000000	0.0185769 	12000.000000	0.01855   	12000.000000	0.030994  	12000.000000	4.67333e-07	
13000.000000	0.0171942 	13000.000000	0.0325833 	13000.000000	0.0187454 	13000.000000	0.0187189 	13000.000000	0.0325828 	13000.000000	4.33282e-07	
14000.000000	0.0185023 	14000.000000	0.0341712 	14000.000000	0.0189034 	14000.000000	0.0188776 	14000.000000	0.0341708 	14000.000000	4.03966e-07	
15000.000000	0.0198557 	15000.000000	0.0357575 	15000.000000	0.0190521 	15000.000000	0.0190272 	15000.000000	0.0357571 	15000.000000	3.78453e-07	
16000.000000	0.0212542 	16000.000000	0.0373418 	16000.000000	0.0191928 	16000.000000	0.0191685 	16000.000000	0.0373414 	16000.000000	3.56044e-07	
17000.000000	0.0226977 	17000.000000	0.0389237 	17000.000000	0.0193262 	17000.000000	0.0193024 	17000.000000	0.0389234 	17000.000000	3.36199e-07	
18000.000000	0.024186  	18000.000000	0.0405032 	18000.000000	0.0194532 	18000.000000	0.0194296 	18000.000000	0.0405029 	18000.000000	3.18501e-07	
19000.000000	0.0257192 	19000.000000	0.0420801 	19000.000000	0.0195742 	19000.000000	0.0195507 	19000.000000	0.0420798 	19000.000000	3.02615e-07	
20000.000000	0.0272972 	20000.000000	0.0436543 	20000.000000	0.0196899 	20000.000000	0.0196662 	20000.000000	0.0436541 	20000.000000	2.88275e-07	
21000.000000	0.0289202 	21000.000000	0.0452259 	21000.000000	0.0198003 	21000.000000	0.0197766 	21000.000000	0.0452256 	21000.000000	2.75264e-07	
22000.000000	0.0305881 	22000.000000	0.0467947 	22000.000000	0.0199055 	22000.000000	0.0198824 	22000.000000	0.0467945 	22000.000000	2.63404e-07	
23000.000000	0.0323013 	23000.000000	0.0483609 	23000.000000	0.020006  	23000.000000	0.0199839 	23000.000000	0.0483607 	23000.000000	2.52548e-07	
24000.000000	0.0340597 	24000.000000	0.0499245 	24000.000000	0.0201029 	24000.000000	0.0200814 	24000.000000	0.0499243 	24000.000000	2.42572e-07	
25000.000000	0.0358635 	25000.000000	0.0514855 	25000.000000	0.0201968 	25000.000000	0.0201753 	25000.000000	0.0514852 	25000.000000	2.33372e-07	
26000.000000	0.0377129 	26000.000000	0.0530439 	26000.000000	0.0202871 	26000.000000	0.0202657 	26000.000000	0.0530437 	26000.000000	2.24862e-07	
27000.000000	0.0396081 	27000.000000	0.0545998 	27000.000000	0.0203736 	27000.000000	0.0203529 	27000.000000	0.0545996 	27000.000000	2.16964e-07	
28000.000000	0.0415493 	28000.000000	0.0561533 	28000.000000	0.0204569 	28000.000000	0.0204372 	28000.000000	0.0561531 	28000.000000	2.09616e-07	
29000.000000	0.0435366 	29000.000000	0.0577043 	29000.000000	0.0205376 	29000.000000	0.0205187 	29000.000000	0.0577041 	29000.000000	2.02761e-07	
30000.000000	0.0455703 	30000.000000	0.059253  	30000.000000	0.0206158 	30000.000000	0.0205976 	30000.000000	0.0592528 	30000.000000	1.96351e-07	
32000.000000	0.0497777 	32000.000000	0.0623436 	32000.000000	0.0207652 	32000.000000	0.0207482 	32000.000000	0.0623434 	32000.000000	1.84701e-07	
34000.000000	0.0541731 	34000.000000	0.0654255 	34000.000000	0.0209058 	34000.000000	0.0208901 	34000.000000	0.0654253 	34000.000000	1.74386e-07	
36000.000000	0.0587585 	36000.000000	0.0684989 	36000.000000	0.0210387 	36000.000000	0.0210243 	36000.000000	0.0684987 	36000.000000	1.65187e-07	
38000.000000	0.0635357 	38000.000000	0.0715644 	38000.000000	0.0211646 	38000.000000	0.0211516 	38000.000000	0.0715642 	38000.000000	1.56932e-07	
40000.000000	0.0685066 	40000.000000	0.0746222 	40000.000000	0.0212842 	40000.000000	0.0212726 	40000.000000	0.074622  	40000.000000	1.49481e-07	
42000.000000	0.0736733 	42000.000000	0.0776727 	42000.000000	0.021398  	42000.000000	0.0213879 	42000.000000	0.0776726 	42000.000000	1.42721e-07	
44000.000000	0.0790378 	44000.000000	0.0807162 	44000.000000	0.0215065 	44000.000000	0.021498  	44000.000000	0.0807161 	44000.000000	1.3656e-07	
46000.000000	0.0846022 	46000.000000	0.083753  	46000.000000	0.0216101 	46000.000000	0.0216034 	46000.000000	0.0837529 	46000.000000	1.3092e-07	
48000.000000	0.0903685 	48000.000000	0.0867834 	48000.000000	0.0217093 	48000.000000	0.0217045 	48000.000000	0.0867833 	48000.000000	1.25739e-07	
50000.000000	0.0963389 	50000.000000	0.0898076 	50000.000000	0.0218043 	50000.000000	0.0218015 	50000.000000	0.0898074 	50000.000000	1.20961e-07	
