0.001000	0.297244  	0.001000	0.317598  	0.001000	0.376286  	0.001000	0.376286  	0.001000	0.173224  	0.001000	0.144373  	
0.002000	0.366039  	0.002000	0.381691  	0.002000	0.45582   	0.002000	0.45582   	0.002000	0.282638  	0.002000	0.0990538 	
0.005000	0.554351  	0.005000	0.567725  	0.005000	0.655579  	0.005000	0.655579  	0.005000	0.512733  	0.005000	0.0549923 	
0.008000	0.69902   	0.008000	0.714767  	0.008000	0.80187   	0.008000	0.80187   	0.008000	0.675461  	0.008000	0.0393059 	
0.010000	0.778952  	0.010000	0.797229  	0.010000	0.8811    	0.010000	0.8811    	0.010000	0.763908  	0.010000	0.033321  	
0.015000	0.992506  	0.015000	0.963078  	0.015000	1.04153   	0.015000	1.04153   	0.015000	0.938488  	0.015000	0.0245898 	
0.020000	1.17141   	0.020000	1.0984    	0.020000	1.16981   	0.020000	1.16981   	0.020000	1.07869   	0.020000	0.0197066 	
0.025000	1.32405   	0.025000	1.21401   	0.025000	1.27979   	0.025000	1.27979   	0.025000	1.19746   	0.025000	0.0165498 	
0.030000	1.45495   	0.030000	1.31555   	0.030000	1.36497   	0.030000	1.36497   	0.030000	1.30123   	0.030000	0.0143256 	
0.035000	1.56684   	0.035000	1.40628   	0.035000	1.43994   	0.035000	1.43994   	0.035000	1.39361   	0.035000	0.0126662 	
0.040000	1.66165   	0.040000	1.4882    	0.040000	1.50699   	0.040000	1.50699   	0.040000	1.47683   	0.040000	0.0113763 	
0.045000	1.74088   	0.045000	1.56264   	0.045000	1.5676    	0.045000	1.5676    	0.045000	1.5523    	0.045000	0.0103423 	
0.050000	1.80593   	0.050000	1.63049   	0.050000	1.62277   	0.050000	1.62277   	0.050000	1.621     	0.050000	0.0094933 	
0.055000	1.85812   	0.055000	1.6924    	0.055000	1.6732    	0.055000	1.6732    	0.055000	1.68362   	0.055000	0.00878258	
0.060000	1.89879   	0.060000	1.74884   	0.060000	1.7194    	0.060000	1.7194    	0.060000	1.74066   	0.060000	0.00817816	
0.070000	1.95079   	0.070000	1.84682   	0.070000	1.80058   	0.070000	1.80058   	0.070000	1.83961   	0.070000	0.0072034 	
0.080000	1.97204   	0.080000	1.92685   	0.080000	1.86855   	0.080000	1.86855   	0.080000	1.9204    	0.080000	0.00644968	
0.090000	1.97148   	0.090000	1.99092   	0.090000	1.9249    	0.090000	1.9249    	0.090000	1.98507   	0.090000	0.00584807	
0.100000	1.95647   	0.100000	2.04085   	0.100000	1.97086   	0.100000	1.97086   	0.100000	2.03549   	0.100000	0.00535586	
0.120000	1.90383   	0.120000	2.10498   	0.120000	2.03585   	0.120000	2.03585   	0.120000	2.10038   	0.120000	0.00459676	
0.140000	1.84168   	0.140000	2.1317    	0.140000	2.07105   	0.140000	2.07105   	0.140000	2.12766   	0.140000	0.00403685	
0.160000	1.78176   	0.160000	2.13148   	0.160000	2.08294   	0.160000	2.08294   	0.160000	2.12788   	0.160000	0.0036056 	
0.180000	1.72776   	0.180000	2.11261   	0.180000	2.07705   	0.180000	2.07705   	0.180000	2.10935   	0.180000	0.00326249	
0.200000	1.67996   	0.200000	2.08133   	0.200000	2.05797   	0.200000	2.05797   	0.200000	2.07835   	0.200000	0.00298254	
0.250000	1.58129   	0.250000	1.97537   	0.250000	1.97504   	0.250000	1.97504   	0.250000	1.9729    	0.250000	0.00246448	
0.300000	1.50071   	0.300000	1.85782   	0.300000	1.86964   	0.300000	1.86964   	0.300000	1.85571   	0.300000	0.00210715	
0.350000	1.42967   	0.350000	1.74465   	0.350000	1.7611    	0.350000	1.7611    	0.350000	1.7428    	0.350000	0.00184484	
0.400000	1.36462   	0.400000	1.64105   	0.400000	1.65797   	0.400000	1.65797   	0.400000	1.63941   	0.400000	0.00164357	
0.450000	1.3042    	0.450000	1.54798   	0.450000	1.56344   	0.450000	1.56344   	0.450000	1.5465    	0.450000	0.00148396	
0.500000	1.24791   	0.500000	1.46484   	0.500000	1.47815   	0.500000	1.47815   	0.500000	1.46349   	0.500000	0.00135408	
0.600000	1.14677   	0.600000	1.32394   	0.600000	1.33311   	0.600000	1.33311   	0.600000	1.32279   	0.600000	0.00115511	
0.700000	1.05945   	0.700000	1.20984   	0.700000	1.21613   	0.700000	1.21613   	0.700000	1.20883   	0.700000	0.00100945	
0.800000	0.984059  	0.800000	1.11576   	0.800000	1.12042   	0.800000	1.12042   	0.800000	1.11486   	0.800000	0.000897938	
0.900000	0.918712  	0.900000	1.03682   	0.900000	1.04075   	0.900000	1.04075   	0.900000	1.03601   	0.900000	0.000809669	
1.000000	0.861711  	1.000000	0.969559  	1.000000	0.9733    	1.000000	0.9733    	1.000000	0.968821  	1.000000	0.000737963	
1.250000	0.747008  	1.250000	0.837551  	1.250000	0.841946  	1.250000	0.841946  	1.250000	0.836945  	1.250000	0.00060606	
1.500000	0.660399  	1.500000	0.739944  	1.500000	0.745398  	1.500000	0.745398  	1.500000	0.739428  	1.500000	0.000515733	
1.750000	0.592566  	1.750000	0.664282  	1.750000	0.670676  	1.750000	0.670676  	1.750000	0.663832  	1.750000	0.000449799	
2.000000	0.537897  	2.000000	0.603618  	2.000000	0.610729  	2.000000	0.610729  	2.000000	0.603219  	2.000000	0.000399442	
2.250000	0.492838  	2.250000	0.553748  	2.250000	0.561362  	2.250000	0.561362  	2.250000	0.553388  	2.250000	0.00035966	
2.500000	0.447396  	2.500000	0.511947  	2.500000	0.519896  	2.500000	0.519896  	2.500000	0.51162   	2.500000	0.000327398	
3.000000	0.390509  	3.000000	0.445685  	3.000000	0.453946  	3.000000	0.453946  	3.000000	0.445407  	3.000000	0.000278174	
3.500000	0.347387  	3.500000	0.395428  	3.500000	0.403708  	3.500000	0.403708  	3.500000	0.395186  	3.500000	0.000242305	
4.000000	0.313472  	4.000000	0.355948  	4.000000	0.364092  	4.000000	0.364092  	4.000000	0.355733  	4.000000	0.000214951	
4.500000	0.286041  	4.500000	0.324081  	4.500000	0.33201   	4.500000	0.33201   	4.500000	0.323887  	4.500000	0.000193368	
5.000000	0.263359  	5.000000	0.297795  	5.000000	0.305472  	5.000000	0.305472  	5.000000	0.297619  	5.000000	0.000175884	
5.500000	0.244266  	5.500000	0.275723  	5.500000	0.283133  	5.500000	0.283133  	5.500000	0.275561  	5.500000	0.000161417	
6.000000	0.227956  	6.000000	0.256911  	6.000000	0.264054  	6.000000	0.264054  	6.000000	0.256762  	6.000000	0.00014924	
6.500000	0.213849  	6.500000	0.240675  	6.500000	0.247556  	6.500000	0.247556  	6.500000	0.240536  	6.500000	0.000138843	
7.000000	0.201518  	7.000000	0.226509  	7.000000	0.233138  	7.000000	0.233138  	7.000000	0.226379  	7.000000	0.000129856	
7.500000	0.190642  	7.500000	0.214033  	7.500000	0.220422  	7.500000	0.220422  	7.500000	0.213911  	7.500000	0.000122007	
8.000000	0.180971  	8.000000	0.202955  	8.000000	0.209116  	8.000000	0.209116  	8.000000	0.20284   	8.000000	0.000115091	
8.500000	0.172313  	8.500000	0.193047  	8.500000	0.198993  	8.500000	0.198993  	8.500000	0.192938  	8.500000	0.000108948	
9.000000	0.164512  	9.000000	0.184129  	9.000000	0.189871  	9.000000	0.189871  	9.000000	0.184025  	9.000000	0.000103453	
9.500000	0.157445  	9.500000	0.176055  	9.500000	0.181605  	9.500000	0.181605  	9.500000	0.175957  	9.500000	9.85085e-05	
10.000000	0.151012  	10.000000	0.173871  	10.000000	0.174078  	10.000000	0.174078  	10.000000	0.173777  	10.000000	9.40339e-05	
11.000000	0.139725  	11.000000	0.160957  	11.000000	0.160726  	11.000000	0.160735  	11.000000	0.160871  	11.000000	8.62469e-05	
12.000000	0.13014   	12.000000	0.149962  	12.000000	0.149406  	12.000000	0.149421  	12.000000	0.149882  	12.000000	7.96969e-05	
13.000000	0.121893  	13.000000	0.140481  	13.000000	0.139686  	13.000000	0.139703  	13.000000	0.140407  	13.000000	7.41076e-05	
14.000000	0.114716  	14.000000	0.132218  	14.000000	0.131247  	14.000000	0.131264  	14.000000	0.132149  	14.000000	6.92794e-05	
15.000000	0.108411  	15.000000	0.124948  	15.000000	0.12385   	15.000000	0.123866  	15.000000	0.124883  	15.000000	6.5065e-05	
16.000000	0.102825  	16.000000	0.1185    	16.000000	0.117312  	16.000000	0.117328  	16.000000	0.118438  	16.000000	6.1353e-05	
17.000000	0.0978401 	17.000000	0.112739  	17.000000	0.111495  	17.000000	0.111508  	17.000000	0.112681  	17.000000	5.80574e-05	
18.000000	0.0933617 	18.000000	0.10756   	18.000000	0.106286  	18.000000	0.106296  	18.000000	0.107505  	18.000000	5.51111e-05	
19.000000	0.0893154 	19.000000	0.102877  	19.000000	0.101594  	19.000000	0.101602  	19.000000	0.102824  	19.000000	5.24606e-05	
20.000000	0.0856404 	20.000000	0.0986211 	20.000000	0.0973461 	20.000000	0.0973536 	20.000000	0.0985711 	20.000000	5.0063e-05	
21.000000	0.0822869 	21.000000	0.0947358 	21.000000	0.0934831 	21.000000	0.0934914 	21.000000	0.0946879 	21.000000	4.78833e-05	
22.000000	0.0792136 	22.000000	0.0911738 	22.000000	0.08996   	22.000000	0.0899663 	22.000000	0.0911279 	22.000000	4.58926e-05	
23.000000	0.0763863 	23.000000	0.0878957 	23.000000	0.0867354 	23.000000	0.0867372 	23.000000	0.0878516 	23.000000	4.40671e-05	
24.000000	0.073776  	24.000000	0.0848684 	24.000000	0.0837721 	24.000000	0.0837696 	24.000000	0.084826  	24.000000	4.23869e-05	
25.000000	0.0713582 	25.000000	0.0820638 	25.000000	0.0810406 	25.000000	0.0810341 	25.000000	0.0820229 	25.000000	4.08349e-05	
27.000000	0.0670193 	27.000000	0.0770295 	27.000000	0.0761793 	27.000000	0.0761629 	27.000000	0.0769914 	27.000000	3.80606e-05	
29.000000	0.0632345 	29.000000	0.0726376 	29.000000	0.0719824 	29.000000	0.071962  	29.000000	0.0726019 	29.000000	3.56523e-05	
31.000000	0.0599024 	31.000000	0.0687709 	31.000000	0.0682584 	31.000000	0.0682369 	31.000000	0.0687373 	31.000000	3.35412e-05	
33.000000	0.0569449 	33.000000	0.0653392 	33.000000	0.0648992 	33.000000	0.064871  	33.000000	0.0653075 	33.000000	3.1675e-05	
35.000000	0.0543011 	35.000000	0.0622721 	35.000000	0.0618865 	35.000000	0.0618598 	35.000000	0.0622421 	35.000000	3.00127e-05	
38.000000	0.0508205 	38.000000	0.0582358 	38.000000	0.0579232 	38.000000	0.0578922 	38.000000	0.0582079 	38.000000	2.78335e-05	
41.000000	0.047814  	41.000000	0.0547512 	41.000000	0.0544939 	41.000000	0.0544623 	41.000000	0.0547252 	41.000000	2.59598e-05	
44.000000	0.0451893 	44.000000	0.0517111 	44.000000	0.051494  	44.000000	0.0514659 	44.000000	0.0516868 	44.000000	2.43309e-05	
47.000000	0.0428767 	47.000000	0.0490346 	47.000000	0.0488565 	47.000000	0.0488246 	47.000000	0.0490117 	47.000000	2.29012e-05	
50.000000	0.0408226 	50.000000	0.0466592 	50.000000	0.0465099 	50.000000	0.0464777 	50.000000	0.0466376 	50.000000	2.16359e-05	
55.000000	0.0378639 	55.000000	0.0432419 	55.000000	0.0431316 	55.000000	0.0430965 	55.000000	0.0432221 	55.000000	1.98213e-05	
60.000000	0.0353657 	60.000000	0.0403614 	60.000000	0.0402738 	60.000000	0.0402416 	60.000000	0.0403431 	60.000000	1.8297e-05	
65.000000	0.0332265 	65.000000	0.037899  	65.000000	0.0378305 	65.000000	0.0377974 	65.000000	0.037882  	65.000000	1.69977e-05	
70.000000	0.0313726 	70.000000	0.0357689 	70.000000	0.0357138 	70.000000	0.0356802 	70.000000	0.035753  	70.000000	1.58767e-05	
75.000000	0.0297494 	75.000000	0.0339074 	75.000000	0.0338586 	75.000000	0.0338277 	75.000000	0.0338925 	75.000000	1.48991e-05	
80.000000	0.0283156 	80.000000	0.0322662 	80.000000	0.0322262 	80.000000	0.0321926 	80.000000	0.0322521 	80.000000	1.40388e-05	
85.000000	0.027039  	85.000000	0.0308079 	85.000000	0.0307702 	85.000000	0.0307383 	85.000000	0.0307947 	85.000000	1.32757e-05	
90.000000	0.0258947 	90.000000	0.0295034 	90.000000	0.0294666 	90.000000	0.0294361 	90.000000	0.0294908 	90.000000	1.25939e-05	
95.000000	0.0248627 	95.000000	0.0283292 	95.000000	0.0282958 	95.000000	0.0282631 	95.000000	0.0283172 	95.000000	1.19811e-05	
100.000000	0.0239268 	100.000000	0.0272666 	100.000000	0.027232  	100.000000	0.0272008 	100.000000	0.0272552 	100.000000	1.14272e-05	
105.000000	0.0230739 	105.000000	0.0263002 	105.000000	0.026264  	105.000000	0.0262341 	105.000000	0.0262893 	105.000000	1.09238e-05	
110.000000	0.0222932 	110.000000	0.0254174 	110.000000	0.025379  	110.000000	0.0253505 	110.000000	0.025407  	110.000000	1.04645e-05	
115.000000	0.0215756 	115.000000	0.0246078 	115.000000	0.0245692 	115.000000	0.0245397 	115.000000	0.0245978 	115.000000	1.00435e-05	
120.000000	0.0209137 	120.000000	0.0238625 	120.000000	0.0238231 	120.000000	0.023793  	120.000000	0.0238528 	120.000000	9.65616e-06	
125.000000	0.020301  	125.000000	0.0231741 	125.000000	0.0231315 	125.000000	0.0231029 	125.000000	0.0231648 	125.000000	9.29862e-06	
130.000000	0.0197322 	130.000000	0.0225362 	130.000000	0.0224911 	130.000000	0.0224634 	130.000000	0.0225272 	130.000000	8.9675e-06	
135.000000	0.0192024 	135.000000	0.0219435 	135.000000	0.0218979 	135.000000	0.0218689 	135.000000	0.0219348 	135.000000	8.65994e-06	
140.000000	0.0187078 	140.000000	0.0213913 	140.000000	0.021344  	140.000000	0.0213149 	140.000000	0.0213829 	140.000000	8.37348e-06	
145.000000	0.0182449 	145.000000	0.0208755 	145.000000	0.0208253 	145.000000	0.0207974 	145.000000	0.0208674 	145.000000	8.10601e-06	
150.000000	0.0178106 	150.000000	0.0203927 	150.000000	0.0203401 	150.000000	0.0203128 	150.000000	0.0203848 	150.000000	7.85568e-06	
155.000000	0.0171992 	155.000000	0.0199397 	155.000000	0.0198844 	155.000000	0.0198581 	155.000000	0.0199321 	155.000000	7.62086e-06	
160.000000	0.0168407 	160.000000	0.0195139 	160.000000	0.0194567 	160.000000	0.0194306 	160.000000	0.0195065 	160.000000	7.40015e-06	
165.000000	0.0165028 	165.000000	0.0191129 	165.000000	0.0190551 	165.000000	0.019028  	165.000000	0.0191057 	165.000000	7.19229e-06	
170.000000	0.0161835 	170.000000	0.0187345 	170.000000	0.0186753 	170.000000	0.0186481 	170.000000	0.0187275 	170.000000	6.99619e-06	
175.000000	0.0158814 	175.000000	0.018377  	175.000000	0.0183154 	175.000000	0.0182891 	175.000000	0.0183702 	175.000000	6.81086e-06	
180.000000	0.0155951 	180.000000	0.0180385 	180.000000	0.0179751 	180.000000	0.0179493 	180.000000	0.0180319 	180.000000	6.63542e-06	
185.000000	0.0153234 	185.000000	0.0177177 	185.000000	0.0176524 	185.000000	0.0176272 	185.000000	0.0177112 	185.000000	6.4691e-06	
190.000000	0.0150651 	190.000000	0.0174132 	190.000000	0.0173459 	190.000000	0.0173214 	190.000000	0.0174069 	190.000000	6.3112e-06	
195.000000	0.0148194 	195.000000	0.0171237 	195.000000	0.0170554 	195.000000	0.0170308 	195.000000	0.0171175 	195.000000	6.16108e-06	
200.000000	0.0145852 	200.000000	0.0168482 	200.000000	0.0167796 	200.000000	0.0167542 	200.000000	0.0168422 	200.000000	6.01818e-06	
210.000000	0.0141486 	210.000000	0.0163353 	210.000000	0.0162644 	210.000000	0.0162394 	210.000000	0.0163295 	210.000000	5.75202e-06	
220.000000	0.0137495 	220.000000	0.0158676 	220.000000	0.0157941 	220.000000	0.0157701 	220.000000	0.0158621 	220.000000	5.50915e-06	
230.000000	0.0133832 	230.000000	0.0154393 	230.000000	0.0153636 	230.000000	0.0153405 	230.000000	0.015434  	230.000000	5.28661e-06	
240.000000	0.013046  	240.000000	0.0150458 	240.000000	0.0149696 	240.000000	0.0149459 	240.000000	0.0150407 	240.000000	5.08192e-06	
250.000000	0.0127343 	250.000000	0.0146829 	250.000000	0.0146059 	250.000000	0.0145821 	250.000000	0.014678  	250.000000	4.89299e-06	
260.000000	0.0124455 	260.000000	0.0143473 	260.000000	0.0142689 	260.000000	0.0142459 	260.000000	0.0143425 	260.000000	4.71806e-06	
270.000000	0.0121771 	270.000000	0.0140359 	270.000000	0.0139565 	270.000000	0.0139341 	270.000000	0.0140314 	270.000000	4.5556e-06	
280.000000	0.011927  	280.000000	0.0137464 	280.000000	0.0136662 	280.000000	0.0136443 	280.000000	0.013742  	280.000000	4.40432e-06	
290.000000	0.0116933 	290.000000	0.0134765 	290.000000	0.0133968 	290.000000	0.0133743 	290.000000	0.0134722 	290.000000	4.26308e-06	
300.000000	0.0114746 	300.000000	0.0132242 	300.000000	0.0131447 	300.000000	0.0131222 	300.000000	0.0132201 	300.000000	4.13091e-06	
310.000000	0.0112695 	310.000000	0.012988  	310.000000	0.0129081 	310.000000	0.0128862 	310.000000	0.012984  	310.000000	4.00695e-06	
320.000000	0.0110766 	320.000000	0.0127664 	320.000000	0.0126865 	320.000000	0.0126649 	320.000000	0.0127625 	320.000000	3.89045e-06	
330.000000	0.0108951 	330.000000	0.0125581 	330.000000	0.012478  	330.000000	0.0124571 	330.000000	0.0125543 	330.000000	3.78076e-06	
340.000000	0.0107238 	340.000000	0.012362  	340.000000	0.0122822 	340.000000	0.0122615 	340.000000	0.0123583 	340.000000	3.67728e-06	
350.000000	0.0105621 	350.000000	0.012177  	350.000000	0.0120984 	350.000000	0.0120771 	350.000000	0.0121734 	350.000000	3.57949e-06	
360.000000	0.010409  	360.000000	0.0120022 	360.000000	0.0119246 	360.000000	0.0119031 	360.000000	0.0119987 	360.000000	3.48694e-06	
370.000000	0.010264  	370.000000	0.0118369 	370.000000	0.0117587 	370.000000	0.0117377 	370.000000	0.0118335 	370.000000	3.3992e-06	
380.000000	0.0101264 	380.000000	0.0116803 	380.000000	0.0116018 	380.000000	0.0115811 	380.000000	0.011677  	380.000000	3.31592e-06	
390.000000	0.00999578	390.000000	0.0115318 	390.000000	0.0114531 	390.000000	0.0114327 	390.000000	0.0115286 	390.000000	3.23675e-06	
400.000000	0.00987153	400.000000	0.0113908 	400.000000	0.0113118 	400.000000	0.0112919 	400.000000	0.0113876 	400.000000	3.16139e-06	
410.000000	0.00975323	410.000000	0.0112567 	410.000000	0.0111778 	410.000000	0.0111581 	410.000000	0.0112536 	410.000000	3.08958e-06	
420.000000	0.00964049	420.000000	0.0111291 	420.000000	0.0110508 	420.000000	0.0110308 	420.000000	0.011126  	420.000000	3.02106e-06	
430.000000	0.00953294	430.000000	0.0110075 	430.000000	0.0109299 	430.000000	0.0109096 	430.000000	0.0110045 	430.000000	2.95561e-06	
440.000000	0.00943023	440.000000	0.0108915 	440.000000	0.0108143 	440.000000	0.0107941 	440.000000	0.0108886 	440.000000	2.89303e-06	
450.000000	0.00933207	450.000000	0.0107808 	450.000000	0.0107038 	450.000000	0.0106839 	450.000000	0.010778  	450.000000	2.83313e-06	
460.000000	0.00923817	460.000000	0.010675  	460.000000	0.0105983 	460.000000	0.0105786 	460.000000	0.0106723 	460.000000	2.77574e-06	
470.000000	0.00914827	470.000000	0.0105739 	470.000000	0.0104975 	470.000000	0.0104781 	470.000000	0.0105712 	470.000000	2.72071e-06	
480.000000	0.00906213	480.000000	0.0104771 	480.000000	0.0104011 	480.000000	0.0103819 	480.000000	0.0104744 	480.000000	2.66788e-06	
490.000000	0.00897954	490.000000	0.0103844 	490.000000	0.0103087 	490.000000	0.0102898 	490.000000	0.0103818 	490.000000	2.61713e-06	
500.000000	0.0089003 	500.000000	0.0102955 	500.000000	0.0102204 	500.000000	0.0102016 	500.000000	0.0102929 	500.000000	2.56834e-06	
520.000000	0.00875111	520.000000	0.0101285 	520.000000	0.0100552 	520.000000	0.0100359 	520.000000	0.010126  	520.000000	2.47619e-06	
540.000000	0.00861322	540.000000	0.00997438	540.000000	0.0099026 	540.000000	0.0098833 	540.000000	0.00997199	540.000000	2.39062e-06	
560.000000	0.00848549	560.000000	0.0098319 	560.000000	0.00976114	560.000000	0.00974229	560.000000	0.00982958	560.000000	2.31095e-06	
580.000000	0.00836692	580.000000	0.00969985	580.000000	0.00963029	580.000000	0.00961172	580.000000	0.00969761	580.000000	2.23658e-06	
600.000000	0.00825663	600.000000	0.00957722	600.000000	0.00950876	600.000000	0.00949057	600.000000	0.00957506	600.000000	2.16699e-06	
620.000000	0.00815387	620.000000	0.00946313	620.000000	0.00939591	620.000000	0.00937793	620.000000	0.00946103	620.000000	2.10174e-06	
640.000000	0.00805797	640.000000	0.00935679	640.000000	0.00929129	640.000000	0.00927301	640.000000	0.00935475	640.000000	2.04042e-06	
660.000000	0.00796833	660.000000	0.00925752	660.000000	0.00919363	660.000000	0.00917511	660.000000	0.00925553	660.000000	1.98268e-06	
680.000000	0.00788444	680.000000	0.0091647 	680.000000	0.00910193	680.000000	0.00908361	680.000000	0.00916278	680.000000	1.92823e-06	
700.000000	0.00780583	700.000000	0.00907781	700.000000	0.00901598	700.000000	0.00899797	700.000000	0.00907593	700.000000	1.87678e-06	
720.000000	0.00773207	720.000000	0.00899635	720.000000	0.0089355 	720.000000	0.00891769	720.000000	0.00899452	720.000000	1.82808e-06	
740.000000	0.0076628 	740.000000	0.00891991	740.000000	0.00885995	740.000000	0.00884234	740.000000	0.00891812	740.000000	1.78193e-06	
760.000000	0.00759768	760.000000	0.00884808	760.000000	0.00878888	760.000000	0.00877153	760.000000	0.00884634	760.000000	1.73812e-06	
780.000000	0.00753641	780.000000	0.00878053	780.000000	0.00872212	780.000000	0.00870491	780.000000	0.00877883	780.000000	1.69648e-06	
800.000000	0.00747872	800.000000	0.00871694	800.000000	0.00865948	800.000000	0.00864216	800.000000	0.00871529	800.000000	1.65685e-06	
820.000000	0.00742435	820.000000	0.00865704	820.000000	0.00860056	820.000000	0.00858299	820.000000	0.00865542	820.000000	1.61908e-06	
840.000000	0.00737309	840.000000	0.00860055	840.000000	0.00854485	840.000000	0.00852715	840.000000	0.00859897	840.000000	1.58306e-06	
860.000000	0.00732473	860.000000	0.00854726	860.000000	0.00849201	860.000000	0.00847439	860.000000	0.00854571	860.000000	1.54865e-06	
880.000000	0.00727909	880.000000	0.00849694	880.000000	0.00844194	880.000000	0.00842452	880.000000	0.00849542	880.000000	1.51575e-06	
900.000000	0.00723599	900.000000	0.0084494 	900.000000	0.00839455	900.000000	0.00837732	900.000000	0.00844792	900.000000	1.48426e-06	
920.000000	0.00719527	920.000000	0.00840447	920.000000	0.00834971	920.000000	0.00833262	920.000000	0.00840302	920.000000	1.45409e-06	
940.000000	0.0071568 	940.000000	0.00836199	940.000000	0.00830724	940.000000	0.00829026	940.000000	0.00836056	940.000000	1.42516e-06	
960.000000	0.00712044	960.000000	0.0083218 	960.000000	0.00826697	960.000000	0.00825009	960.000000	0.0083204 	960.000000	1.3974e-06	
980.000000	0.00708607	980.000000	0.00828376	980.000000	0.00822875	980.000000	0.00821197	980.000000	0.00828239	980.000000	1.37073e-06	
1000.000000	0.00705357	1000.000000	0.00824775	1000.000000	0.00819246	1000.000000	0.00817577	1000.000000	0.00824641	1000.000000	1.34509e-06	
1020.000000	0.00702285	1020.000000	0.00821366	1020.000000	0.00815795	1020.000000	0.00814138	1020.000000	0.00821234	1020.000000	1.32042e-06	
1040.000000	0.00699381	1040.000000	0.00818137	1040.000000	0.00812511	1040.000000	0.00810868	1040.000000	0.00818007	1040.000000	1.29667e-06	
1060.000000	0.00696635	1060.000000	0.00815079	1060.000000	0.00809388	1060.000000	0.00807758	1060.000000	0.00814951	1060.000000	1.27379e-06	
1080.000000	0.0069404 	1080.000000	0.00812182	1080.000000	0.00806418	1080.000000	0.00804799	1080.000000	0.00812056	1080.000000	1.25172e-06	
1100.000000	0.00691588	1100.000000	0.00809437	1100.000000	0.00803595	1100.000000	0.00801982	1100.000000	0.00809314	1100.000000	1.23043e-06	
1120.000000	0.00689271	1120.000000	0.00806837	1120.000000	0.00800915	1120.000000	0.00799299	1120.000000	0.00806716	1120.000000	1.20987e-06	
1140.000000	0.00687084	1140.000000	0.00804374	1140.000000	0.00798369	1140.000000	0.00796743	1140.000000	0.00804255	1140.000000	1.19001e-06	
1160.000000	0.00685019	1160.000000	0.00802041	1160.000000	0.00795944	1160.000000	0.00794306	1160.000000	0.00801924	1160.000000	1.17081e-06	
1180.000000	0.00683071	1180.000000	0.00799832	1180.000000	0.00793632	1180.000000	0.00791983	1180.000000	0.00799717	1180.000000	1.15224e-06	
1200.000000	0.00681234	1200.000000	0.00797741	1200.000000	0.00791423	1200.000000	0.00789767	1200.000000	0.00797627	1200.000000	1.13426e-06	
1220.000000	0.00679504	1220.000000	0.00795761	1220.000000	0.0078931 	1220.000000	0.00787653	1220.000000	0.0079565 	1220.000000	1.11686e-06	
1240.000000	0.00677875	1240.000000	0.00793888	1240.000000	0.00787288	1240.000000	0.00785635	1240.000000	0.00793778	1240.000000	1.1e-06   	
1260.000000	0.00676344	1260.000000	0.00792117	1260.000000	0.00785354	1260.000000	0.00783709	1260.000000	0.00792008	1260.000000	1.08365e-06	
1280.000000	0.00674905	1280.000000	0.00790442	1280.000000	0.00783506	1280.000000	0.0078187 	1280.000000	0.00790336	1280.000000	1.0678e-06	
1300.000000	0.00673554	1300.000000	0.00788861	1300.000000	0.00781741	1300.000000	0.00780114	1300.000000	0.00788755	1300.000000	1.05242e-06	
1320.000000	0.00672289	1320.000000	0.00787367	1320.000000	0.00780056	1320.000000	0.00778437	1320.000000	0.00787263	1320.000000	1.03749e-06	
1340.000000	0.00671106	1340.000000	0.00785958	1340.000000	0.00778447	1340.000000	0.00776834	1340.000000	0.00785856	1340.000000	1.023e-06 	
1360.000000	0.0067    	1360.000000	0.0078463 	1360.000000	0.0077691 	1360.000000	0.00775303	1360.000000	0.00784529	1360.000000	1.00891e-06	
1380.000000	0.00668969	1380.000000	0.00783379	1380.000000	0.00775442	1380.000000	0.00773839	1380.000000	0.0078328 	1380.000000	9.95217e-07	
1400.000000	0.00668011	1400.000000	0.00782202	1400.000000	0.00774039	1400.000000	0.00772441	1400.000000	0.00782104	1400.000000	9.81903e-07	
1420.000000	0.00667121	1420.000000	0.00781097	1420.000000	0.00772697	1420.000000	0.00771104	1420.000000	0.00781   	1420.000000	9.68951e-07	
1440.000000	0.00666299	1440.000000	0.00780059	1440.000000	0.00771414	1440.000000	0.00769827	1440.000000	0.00779964	1440.000000	9.56347e-07	
1460.000000	0.0066554 	1460.000000	0.00779087	1460.000000	0.00770187	1460.000000	0.00768606	1460.000000	0.00778993	1460.000000	9.44077e-07	
1480.000000	0.00664842	1480.000000	0.00778178	1480.000000	0.00769013	1480.000000	0.00767439	1480.000000	0.00778085	1480.000000	9.32127e-07	
1500.000000	0.00664204	1500.000000	0.00777329	1500.000000	0.0076789 	1500.000000	0.00766323	1500.000000	0.00777237	1500.000000	9.20485e-07	
1520.000000	0.00663624	1520.000000	0.00776537	1520.000000	0.00766818	1520.000000	0.00765256	1520.000000	0.00776446	1520.000000	9.09139e-07	
1540.000000	0.00663098	1540.000000	0.00775802	1540.000000	0.00765794	1540.000000	0.00764237	1540.000000	0.00775712	1540.000000	8.98079e-07	
1560.000000	0.00662625	1560.000000	0.0077512 	1560.000000	0.00764816	1560.000000	0.00763263	1560.000000	0.00775031	1560.000000	8.87292e-07	
1580.000000	0.00662204	1580.000000	0.0077449 	1580.000000	0.00763883	1580.000000	0.00762331	1580.000000	0.00774402	1580.000000	8.76769e-07	
1600.000000	0.00661832	1600.000000	0.00773909	1600.000000	0.00762994	1600.000000	0.00761442	1600.000000	0.00773822	1600.000000	8.665e-07 	
1620.000000	0.00661509	1620.000000	0.00773376	1620.000000	0.00762146	1620.000000	0.00760592	1620.000000	0.0077329 	1620.000000	8.56477e-07	
1640.000000	0.00661231	1640.000000	0.00772889	1640.000000	0.00761337	1640.000000	0.0075978 	1640.000000	0.00772804	1640.000000	8.46689e-07	
1660.000000	0.00660998	1660.000000	0.00772447	1660.000000	0.00760567	1660.000000	0.00759004	1660.000000	0.00772363	1660.000000	8.3713e-07	
1680.000000	0.00660809	1680.000000	0.00772047	1680.000000	0.00759832	1680.000000	0.00758264	1680.000000	0.00771965	1680.000000	8.27791e-07	
1700.000000	0.00660661	1700.000000	0.00771689	1700.000000	0.0075913 	1700.000000	0.00757557	1700.000000	0.00771608	1700.000000	8.18664e-07	
1750.000000	0.00660466	1750.000000	0.00770966	1750.000000	0.00757514	1750.000000	0.00755929	1750.000000	0.00770887	1750.000000	7.96729e-07	
1800.000000	0.00660506	1800.000000	0.00770472	1800.000000	0.00756075	1800.000000	0.00754483	1800.000000	0.00770395	1800.000000	7.75973e-07	
1850.000000	0.00660763	1850.000000	0.00770189	1850.000000	0.00754794	1850.000000	0.00753203	1850.000000	0.00770114	1850.000000	7.56303e-07	
1900.000000	0.00661221	1900.000000	0.00770101	1900.000000	0.00753658	1900.000000	0.00752074	1900.000000	0.00770027	1900.000000	7.37634e-07	
1950.000000	0.00661867	1950.000000	0.00770192	1950.000000	0.00752658	1950.000000	0.00751082	1950.000000	0.0077012 	1950.000000	7.19891e-07	
2000.000000	0.00662688	2000.000000	0.00770448	2000.000000	0.00751781	2000.000000	0.00750215	2000.000000	0.00770378	2000.000000	7.03006e-07	
2100.000000	0.0066481 	2100.000000	0.00771413	2100.000000	0.00750364	2100.000000	0.00748813	2100.000000	0.00771346	2100.000000	6.71572e-07	
2200.000000	0.00667507	2200.000000	0.00772911	2200.000000	0.00749336	2200.000000	0.00747794	2200.000000	0.00772847	2200.000000	6.42904e-07	
2300.000000	0.00670714	2300.000000	0.00774872	2300.000000	0.00748631	2300.000000	0.00747098	2300.000000	0.0077481 	2300.000000	6.16651e-07	
2400.000000	0.00674375	2400.000000	0.00777239	2400.000000	0.007482  	2400.000000	0.00746675	2400.000000	0.0077718 	2400.000000	5.92515e-07	
2500.000000	0.00678441	2500.000000	0.00779962	2500.000000	0.00748   	2500.000000	0.00746483	2500.000000	0.00779905	2500.000000	5.7025e-07	
2600.000000	0.00682875	2600.000000	0.00783001	2600.000000	0.00747998	2600.000000	0.00746487	2600.000000	0.00782946	2600.000000	5.49643e-07	
2700.000000	0.0068764 	2700.000000	0.00786319	2700.000000	0.00748164	2700.000000	0.0074666 	2700.000000	0.00786266	2700.000000	5.30514e-07	
2800.000000	0.00692708	2800.000000	0.00789887	2800.000000	0.00748475	2800.000000	0.00746977	2800.000000	0.00789836	2800.000000	5.12709e-07	
2900.000000	0.00698053	2900.000000	0.00793678	2900.000000	0.00748911	2900.000000	0.00747417	2900.000000	0.00793628	2900.000000	4.96093e-07	
3000.000000	0.00703652	3000.000000	0.00797669	3000.000000	0.00749454	3000.000000	0.00747962	3000.000000	0.00797621	3000.000000	4.8055e-07	
3200.000000	0.00715537	3200.000000	0.00806177	3200.000000	0.00750801	3200.000000	0.00749314	3200.000000	0.00806132	3200.000000	4.52288e-07	
3400.000000	0.00728233	3400.000000	0.00815279	3400.000000	0.00752419	3400.000000	0.00750936	3400.000000	0.00815236	3400.000000	4.2725e-07	
3600.000000	0.00741637	3600.000000	0.00824873	3600.000000	0.00754237	3600.000000	0.00752758	3600.000000	0.00824833	3600.000000	4.04909e-07	
3800.000000	0.00755668	3800.000000	0.00834879	3800.000000	0.00756201	3800.000000	0.00754725	3800.000000	0.0083484 	3800.000000	3.84849e-07	
4000.000000	0.00770261	4000.000000	0.00845231	4000.000000	0.00758269	4000.000000	0.00756797	4000.000000	0.00845194	4000.000000	3.66733e-07	
4200.000000	0.00785361	4200.000000	0.00855878	4200.000000	0.00760412	4200.000000	0.00758944	4200.000000	0.00855843	4200.000000	3.50291e-07	
4400.000000	0.00800924	4400.000000	0.00866777	4400.000000	0.00762605	4400.000000	0.0076114 	4400.000000	0.00866743	4400.000000	3.35298e-07	
4600.000000	0.00816914	4600.000000	0.00877893	4600.000000	0.00764829	4600.000000	0.00763368	4600.000000	0.00877861	4600.000000	3.21569e-07	
4800.000000	0.00833299	4800.000000	0.00889196	4800.000000	0.00767071	4800.000000	0.00765613	4800.000000	0.00889165	4800.000000	3.0895e-07	
5000.000000	0.00850053	5000.000000	0.00900662	5000.000000	0.00769319	5000.000000	0.00767864	5000.000000	0.00900632	5000.000000	2.97309e-07	
5250.000000	0.00871482	5250.000000	0.00915192	5250.000000	0.00772124	5250.000000	0.00770673	5250.000000	0.00915164	5250.000000	2.83968e-07	
5500.000000	0.00893418	5500.000000	0.00929911	5500.000000	0.00774913	5500.000000	0.00773463	5500.000000	0.00929884	5500.000000	2.71804e-07	
6000.000000	0.00938691	6000.000000	0.00959808	6000.000000	0.00780401	6000.000000	0.00778957	6000.000000	0.00959783	6000.000000	2.50428e-07	
6500.000000	0.00985685	6500.000000	0.00990181	6500.000000	0.00785737	6500.000000	0.00784295	6500.000000	0.00990158	6500.000000	2.32247e-07	
7000.000000	0.0103426 	7000.000000	0.0102091 	7000.000000	0.00790895	7000.000000	0.00789456	7000.000000	0.0102089 	7000.000000	2.16588e-07	
7500.000000	0.0108432 	7500.000000	0.0105191 	7500.000000	0.00795866	7500.000000	0.0079443 	7500.000000	0.0105189 	7500.000000	2.02958e-07	
8000.000000	0.0113579 	8000.000000	0.0108311 	8000.000000	0.00800652	8000.000000	0.00799216	8000.000000	0.0108309 	8000.000000	1.90982e-07	
8500.000000	0.011886  	8500.000000	0.0111446 	8500.000000	0.00805251	8500.000000	0.00803819	8500.000000	0.0111444 	8500.000000	1.80375e-07	
9000.000000	0.0124272 	9000.000000	0.0114593 	9000.000000	0.00809668	9000.000000	0.00808245	9000.000000	0.0114591 	9000.000000	1.70912e-07	
9500.000000	0.012981  	9500.000000	0.0117749 	9500.000000	0.00813919	9500.000000	0.00812501	9500.000000	0.0117747 	9500.000000	1.62417e-07	
10000.000000	0.0135472 	10000.000000	0.0120911 	10000.000000	0.00818013	10000.000000	0.00816598	10000.000000	0.012091  	10000.000000	1.54747e-07	
11000.000000	0.0147159 	11000.000000	0.0127249 	11000.000000	0.00825758	11000.000000	0.00824343	11000.000000	0.0127248 	11000.000000	1.4144e-07	
12000.000000	0.0159318 	12000.000000	0.0133596 	12000.000000	0.00832958	12000.000000	0.00831549	12000.000000	0.0133595 	12000.000000	1.30291e-07	
13000.000000	0.0171942 	13000.000000	0.0139946 	13000.000000	0.00839662	13000.000000	0.00838273	13000.000000	0.0139945 	13000.000000	1.2081e-07	
14000.000000	0.0185023 	14000.000000	0.0146294 	14000.000000	0.00845923	14000.000000	0.00844571	14000.000000	0.0146293 	14000.000000	1.12646e-07	
15000.000000	0.0198557 	15000.000000	0.0152637 	15000.000000	0.00851797	15000.000000	0.00850488	15000.000000	0.0152636 	15000.000000	1.0554e-07	
16000.000000	0.0212542 	16000.000000	0.0158973 	16000.000000	0.00857338	16000.000000	0.00856064	16000.000000	0.0158972 	16000.000000	9.92985e-08	
17000.000000	0.0226977 	17000.000000	0.0165301 	17000.000000	0.00862584	17000.000000	0.00861333	17000.000000	0.01653   	17000.000000	9.37709e-08	
18000.000000	0.024186  	18000.000000	0.0171619 	18000.000000	0.00867565	18000.000000	0.00866326	18000.000000	0.0171619 	18000.000000	8.88405e-08	
19000.000000	0.0257192 	19000.000000	0.0177928 	19000.000000	0.00872306	19000.000000	0.00871069	19000.000000	0.0177928 	19000.000000	8.44148e-08	
20000.000000	0.0272972 	20000.000000	0.0184227 	20000.000000	0.00876827	20000.000000	0.00875584	20000.000000	0.0184227 	20000.000000	8.04194e-08	
21000.000000	0.0289202 	21000.000000	0.0190516 	21000.000000	0.00881133	21000.000000	0.00879891	21000.000000	0.0190515 	21000.000000	7.67941e-08	
22000.000000	0.0305881 	22000.000000	0.0196795 	22000.000000	0.00885216	22000.000000	0.00884008	22000.000000	0.0196794 	22000.000000	7.34893e-08	
23000.000000	0.0323013 	23000.000000	0.0203063 	23000.000000	0.00889105	23000.000000	0.00887949	23000.000000	0.0203062 	23000.000000	7.0464e-08	
24000.000000	0.0340597 	24000.000000	0.0209321 	24000.000000	0.00892855	24000.000000	0.0089173 	24000.000000	0.020932  	24000.000000	6.76839e-08	
25000.000000	0.0358635 	25000.000000	0.0215569 	25000.000000	0.00896492	25000.000000	0.00895362	25000.000000	0.0215568 	25000.000000	6.512e-08 	
26000.000000	0.0377129 	26000.000000	0.0221807 	26000.000000	0.0089998 	26000.000000	0.00898856	26000.000000	0.0221806 	26000.000000	6.2748e-08	
27000.000000	0.0396081 	27000.000000	0.0228035 	27000.000000	0.00903306	27000.000000	0.00902221	27000.000000	0.0228035 	27000.000000	6.05469e-08	
28000.000000	0.0415493 	28000.000000	0.0234254 	28000.000000	0.00906501	28000.000000	0.00905467	28000.000000	0.0234253 	28000.000000	5.84986e-08	
29000.000000	0.0435366 	29000.000000	0.0240463 	29000.000000	0.00909593	29000.000000	0.00908602	29000.000000	0.0240463 	29000.000000	5.65878e-08	
30000.000000	0.0455703 	30000.000000	0.0246663 	30000.000000	0.00912589	30000.000000	0.00911633	30000.000000	0.0246663 	30000.000000	5.48008e-08	
32000.000000	0.0497777 	32000.000000	0.0259036 	32000.000000	0.009183  	32000.000000	0.00917406	32000.000000	0.0259036 	32000.000000	5.15531e-08	
34000.000000	0.0541731 	34000.000000	0.0271375 	34000.000000	0.0092366 	34000.000000	0.00922834	34000.000000	0.0271374 	34000.000000	4.86772e-08	
36000.000000	0.0587585 	36000.000000	0.028368  	36000.000000	0.00928708	36000.000000	0.00927955	36000.000000	0.028368  	36000.000000	4.61125e-08	
38000.000000	0.0635357 	38000.000000	0.0295954 	38000.000000	0.00933483	38000.000000	0.009328  	38000.000000	0.0295954 	38000.000000	4.38106e-08	
40000.000000	0.0685066 	40000.000000	0.0308197 	40000.000000	0.00938008	40000.000000	0.00937398	40000.000000	0.0308197 	40000.000000	4.17327e-08	
42000.000000	0.0736733 	42000.000000	0.0320412 	42000.000000	0.00942303	42000.000000	0.00941772	42000.000000	0.0320412 	42000.000000	3.98476e-08	
44000.000000	0.0790378 	44000.000000	0.0332599 	44000.000000	0.00946387	44000.000000	0.00945943	44000.000000	0.0332598 	44000.000000	3.81292e-08	
46000.000000	0.0846022 	46000.000000	0.0344759 	46000.000000	0.00950279	46000.000000	0.00949928	46000.000000	0.0344758 	46000.000000	3.65564e-08	
48000.000000	0.0903685 	48000.000000	0.0356893 	48000.000000	0.00953996	48000.000000	0.00953743	48000.000000	0.0356893 	48000.000000	3.51111e-08	
50000.000000	0.0963389 	50000.000000	0.0369003 	50000.000000	0.0095755 	50000.000000	0.00957402	50000.000000	0.0369003 	50000.000000	3.37784e-08	
