Energy (MeV/u)1	0 - [He-base] F.Hubert et al, AD&ND Tables 46(1990)1	Energy (MeV/u)2	1 - [H -base] J.F.Ziegler et al, Pergamon Press, NY (low energy)	Energy (MeV/u)3	2 - ATIMA 1.2  LS-theory (recommended for high energy)	Energy (MeV/u)4	3 - ATIMA 1.2  without LS-correction	Energy (MeV/u)5	4 - electrical component of [1] - J.F.Ziegler et al	Energy (MeV/u)6	5 - nuclear component of [1] - J.F.Ziegler et al	
0.001000	2.59054   	0.001000	3.3898    	0.001000	3.56034   	0.001000	3.56034   	0.001000	1.27117   	0.001000	2.11863   	
0.002000	2.64346   	0.002000	3.35265   	0.002000	3.60579   	0.002000	3.60579   	0.002000	1.64851   	0.002000	1.70415   	
0.005000	2.89916   	0.005000	3.44056   	0.005000	3.86858   	0.005000	3.86858   	0.005000	2.32444   	0.005000	1.11612   	
0.008000	3.16581   	0.008000	3.62728   	0.008000	4.18784   	0.008000	4.18784   	0.008000	2.77245   	0.008000	0.854832  	
0.010000	3.3317    	0.010000	3.76032   	0.010000	4.39744   	0.010000	4.39744   	0.010000	3.01443   	0.010000	0.745895  	
0.015000	3.92774   	0.015000	4.18851   	0.015000	4.91035   	0.015000	4.91035   	0.015000	3.61425   	0.015000	0.574259  	
0.020000	4.50398   	0.020000	4.74994   	0.020000	5.50816   	0.020000	5.50816   	0.020000	4.27746   	0.020000	0.472488  	
0.025000	5.16267   	0.025000	5.4134    	0.025000	6.12233   	0.025000	6.12233   	0.025000	5.0113    	0.025000	0.402104  	
0.030000	5.76665   	0.030000	6.08027   	0.030000	6.79189   	0.030000	6.79189   	0.030000	5.72869   	0.030000	0.35158   	
0.035000	6.30341   	0.035000	6.74057   	0.035000	7.45214   	0.035000	7.45214   	0.035000	6.42621   	0.035000	0.314358  	
0.040000	6.76474   	0.040000	7.38572   	0.040000	8.09643   	0.040000	8.09643   	0.040000	7.1008    	0.040000	0.284919  	
0.045000	7.14208   	0.045000	8.01092   	0.045000	8.72143   	0.045000	8.72143   	0.045000	7.74993   	0.045000	0.260989  	
0.050000	7.37527   	0.050000	8.55029   	0.050000	9.32481   	0.050000	9.32481   	0.050000	8.30918   	0.050000	0.241112  	
0.055000	7.77022   	0.055000	9.1166    	0.055000	9.90494   	0.055000	9.90494   	0.055000	8.89229   	0.055000	0.224309  	
0.060000	8.11969   	0.060000	9.66513   	0.060000	10.4607   	0.060000	10.4607   	0.060000	9.45523   	0.060000	0.209898  	
0.070000	8.69028   	0.070000	10.704    	0.070000	11.4967   	0.070000	11.4967   	0.070000	10.5176   	0.070000	0.186414  	
0.080000	9.29455   	0.080000	11.6481   	0.080000	12.4308   	0.080000	12.4308   	0.080000	11.4801   	0.080000	0.16804   	
0.090000	9.79063   	0.090000	12.5048   	0.090000	13.2651   	0.090000	13.2651   	0.090000	12.3515   	0.090000	0.153233  	
0.100000	10.1774   	0.100000	13.2562   	0.100000	14.0038   	0.100000	14.0038   	0.100000	13.1152   	0.100000	0.14102   	
0.120000	10.4396   	0.120000	14.3817   	0.120000	15.2198   	0.120000	15.2198   	0.120000	14.2597   	0.120000	0.122003  	
0.140000	10.6163   	0.140000	15.2564   	0.140000	16.1348   	0.140000	16.1348   	0.140000	15.1486   	0.140000	0.107825  	
0.160000	10.7757   	0.160000	15.9219   	0.160000	16.8064   	0.160000	16.8064   	0.160000	15.8251   	0.160000	0.0968106 	
0.180000	10.9459   	0.180000	16.4198   	0.180000	17.2868   	0.180000	17.2868   	0.180000	16.3318   	0.180000	0.0879858 	
0.200000	11.2146   	0.200000	16.9007   	0.200000	17.6201   	0.200000	17.6201   	0.200000	16.8199   	0.200000	0.0807426 	
0.250000	11.5145   	0.250000	17.5408   	0.250000	18.0246   	0.250000	18.0246   	0.250000	17.4736   	0.250000	0.0672293 	
0.300000	11.7815   	0.300000	17.7619   	0.300000	18.0837   	0.300000	18.0837   	0.300000	17.7041   	0.300000	0.0578187 	
0.350000	12.0699   	0.350000	17.8918   	0.350000	17.9861   	0.350000	17.9861   	0.350000	17.8409   	0.350000	0.0508593 	
0.400000	12.3127   	0.400000	17.9545   	0.400000	17.945    	0.400000	17.945    	0.400000	17.909    	0.400000	0.0454875 	
0.450000	12.4815   	0.450000	17.9516   	0.450000	17.9788   	0.450000	17.9788   	0.450000	17.9104   	0.450000	0.0412061 	
0.500000	12.5892   	0.500000	17.9183   	0.500000	17.9458   	0.500000	17.9458   	0.500000	17.8806   	0.500000	0.0377076 	
0.600000	12.2943   	0.600000	17.4333   	0.600000	17.7657   	0.600000	17.7657   	0.600000	17.4009   	0.600000	0.0323202 	
0.700000	11.8798   	0.700000	16.9678   	0.700000	17.5031   	0.700000	17.5031   	0.700000	16.9394   	0.700000	0.0283532 	
0.800000	11.8312   	0.800000	16.5024   	0.800000	17.1049   	0.800000	17.1049   	0.800000	16.477    	0.800000	0.0253018 	
0.900000	11.7185   	0.900000	16.0322   	0.900000	16.7056   	0.900000	16.7056   	0.900000	16.0093   	0.900000	0.0228769 	
1.000000	11.5845   	1.000000	15.591    	1.000000	16.3171   	1.000000	16.3171   	1.000000	15.5701   	1.000000	0.0209003 	
1.250000	11.1231   	1.250000	14.9204   	1.250000	15.3914   	1.250000	15.3914   	1.250000	14.9032   	1.250000	0.0172473 	
1.500000	10.5396   	1.500000	14.1758   	1.500000	14.4454   	1.500000	14.4454   	1.500000	14.1611   	1.500000	0.0147316 	
1.750000	9.97284   	1.750000	13.4891   	1.750000	13.634    	1.750000	13.634    	1.750000	13.4762   	1.750000	0.0128871 	
2.000000	9.43386   	2.000000	12.8509   	2.000000	12.9207   	2.000000	12.9207   	2.000000	12.8394   	2.000000	0.0114734 	
2.250000	8.95704   	2.250000	12.1948   	2.250000	12.2845   	2.250000	12.2845   	2.250000	12.1844   	2.250000	0.0103531 	
2.500000	8.86159   	2.500000	11.5921   	2.500000	11.7116   	2.500000	11.7116   	2.500000	11.5826   	2.500000	0.00944222	
3.000000	8.03384   	3.000000	10.5425   	3.000000	10.7181   	3.000000	10.7181   	3.000000	10.5345   	3.000000	0.00804795	
3.500000	7.3506    	3.500000	9.67706   	3.500000	9.8845    	3.500000	9.8845    	3.500000	9.67003   	3.500000	0.00702828	
4.000000	6.77846   	4.000000	8.93954   	4.000000	9.17437   	4.000000	9.17437   	4.000000	8.93329   	4.000000	0.0062483 	
4.500000	6.29282   	4.500000	8.31184   	4.500000	8.56183   	4.500000	8.56183   	4.500000	8.30621   	4.500000	0.00563132	
5.000000	5.87556   	5.000000	7.77054   	5.000000	8.0279    	5.000000	8.0279    	5.000000	7.76541   	5.000000	0.0051304 	
5.500000	5.51317   	5.500000	7.30574   	5.500000	7.55827   	5.500000	7.55827   	5.500000	7.30103   	5.500000	0.00471517	
6.000000	5.19544   	6.000000	6.89574   	6.000000	7.1419    	6.000000	7.1419    	6.000000	6.89138   	6.000000	0.00436505	
6.500000	4.91455   	6.500000	6.53079   	6.500000	6.77015   	6.500000	6.77015   	6.500000	6.52672   	6.500000	0.00406564	
7.000000	4.66439   	7.000000	6.20371   	7.000000	6.43617   	7.000000	6.43617   	7.000000	6.1999    	7.000000	0.00380649	
7.500000	4.44011   	7.500000	5.90894   	7.500000	6.13445   	7.500000	6.13445   	7.500000	5.90536   	7.500000	0.00357988	
8.000000	4.23786   	8.000000	5.64178   	8.000000	5.86048   	8.000000	5.86048   	8.000000	5.6384    	8.000000	0.00337996	
8.500000	4.0545    	8.500000	5.39844   	8.500000	5.61059   	8.500000	5.61059   	8.500000	5.39524   	8.500000	0.0032022 	
9.000000	3.88747   	9.000000	5.17582   	9.000000	5.38171   	9.000000	5.38171   	9.000000	5.17277   	9.000000	0.00304305	
9.500000	3.73466   	9.500000	4.97132   	9.500000	5.17128   	9.500000	5.17128   	9.500000	4.96842   	9.500000	0.00289969	
10.000000	3.59429   	10.000000	4.84967   	10.000000	4.97715   	10.000000	4.97715   	10.000000	4.8469    	10.000000	0.00276985	
11.000000	3.34522   	11.000000	4.5297    	11.000000	4.62363   	11.000000	4.6314    	11.000000	4.52715   	11.000000	0.00254363	
12.000000	3.13086   	12.000000	4.2507    	12.000000	4.31854   	12.000000	4.33169   	12.000000	4.24835   	12.000000	0.00235307	
13.000000	2.94436   	13.000000	4.00538   	13.000000	4.05271   	13.000000	4.06955   	13.000000	4.00319   	13.000000	0.00219024	
14.000000	2.78054   	14.000000	3.78802   	14.000000	3.81908   	14.000000	3.83844   	14.000000	3.78598   	14.000000	0.00204942	
15.000000	2.63544   	15.000000	3.59415   	15.000000	3.61217   	15.000000	3.63328   	15.000000	3.59222   	15.000000	0.00192637	
16.000000	2.506     	16.000000	3.42017   	16.000000	3.42783   	16.000000	3.45      	16.000000	3.41835   	16.000000	0.00181788	
17.000000	2.38976   	17.000000	3.26318   	17.000000	3.26269   	17.000000	3.28539   	17.000000	3.26146   	17.000000	0.00172148	
18.000000	2.28479   	18.000000	3.12082   	18.000000	3.11387   	18.000000	3.1368    	18.000000	3.11918   	18.000000	0.00163522	
19.000000	2.18949   	19.000000	2.99114   	19.000000	2.97909   	19.000000	3.00208   	19.000000	2.98958   	19.000000	0.00155755	
20.000000	2.10257   	20.000000	2.87252   	20.000000	2.85655   	20.000000	2.87944   	20.000000	2.87103   	20.000000	0.00148725	
21.000000	2.02296   	21.000000	2.7636    	21.000000	2.74475   	21.000000	2.76738   	21.000000	2.76218   	21.000000	0.00142329	
22.000000	1.94975   	22.000000	2.66325   	22.000000	2.64241   	22.000000	2.66465   	22.000000	2.66188   	22.000000	0.00136483	
23.000000	1.88219   	23.000000	2.57049   	23.000000	2.54844   	23.000000	2.57019   	23.000000	2.56917   	23.000000	0.0013112 	
24.000000	1.81964   	24.000000	2.48448   	24.000000	2.46189   	24.000000	2.48308   	24.000000	2.48322   	24.000000	0.0012618 	
25.000000	1.76156   	25.000000	2.40452   	25.000000	2.38197   	25.000000	2.40254   	25.000000	2.40331   	25.000000	0.00121615	
27.000000	1.65699   	27.000000	2.26035   	27.000000	2.23933   	27.000000	2.25858   	27.000000	2.25922   	27.000000	0.00113448	
29.000000	1.56541   	29.000000	2.13394   	29.000000	2.11603   	29.000000	2.1339    	29.000000	2.13288   	29.000000	0.00106352	
31.000000	1.48452   	31.000000	2.02218   	31.000000	2.00721   	31.000000	2.02292   	31.000000	2.02118   	31.000000	0.00100125	
33.000000	1.41253   	33.000000	1.92266   	33.000000	1.90929   	33.000000	1.92248   	33.000000	1.92172   	33.000000	0.000946165	
35.000000	1.34801   	35.000000	1.83346   	35.000000	1.82143   	35.000000	1.8326    	35.000000	1.83257   	35.000000	0.000897062	
38.000000	1.26285   	38.000000	1.71574   	38.000000	1.70556   	38.000000	1.71417   	38.000000	1.71491   	38.000000	0.000832631	
41.000000	1.18909   	41.000000	1.61383   	41.000000	1.60513   	41.000000	1.61178   	41.000000	1.61306   	41.000000	0.000777179	
44.000000	1.12456   	44.000000	1.52473   	44.000000	1.51732   	44.000000	1.52236   	44.000000	1.524     	44.000000	0.000728928	
47.000000	1.0676    	47.000000	1.44615   	47.000000	1.43975   	47.000000	1.44356   	47.000000	1.44546   	47.000000	0.000686544	
50.000000	1.01693   	50.000000	1.37632   	50.000000	1.37079   	50.000000	1.37356   	50.000000	1.37567   	50.000000	0.000649005	
55.000000	0.943812  	55.000000	1.2757    	55.000000	1.27123   	55.000000	1.27278   	55.000000	1.27511   	55.000000	0.000595121	
60.000000	0.881971  	60.000000	1.19078   	60.000000	1.1873    	60.000000	1.18774   	60.000000	1.19023   	60.000000	0.000549809	
65.000000	0.828939  	65.000000	1.1181    	65.000000	1.11529   	65.000000	1.11498   	65.000000	1.11759   	65.000000	0.000511152	
70.000000	0.782928  	70.000000	1.05519   	70.000000	1.05281   	70.000000	1.05199   	70.000000	1.05471   	70.000000	0.000477766	
75.000000	0.742605  	75.000000	1.00018   	75.000000	0.998235  	75.000000	0.996916  	75.000000	0.999727  	75.000000	0.000448631	
80.000000	0.706957  	80.000000	0.951648  	80.000000	0.949978  	80.000000	0.94833   	80.000000	0.951226  	80.000000	0.000422974	
85.000000	0.6752    	85.000000	0.908515  	85.000000	0.907056  	85.000000	0.90514   	85.000000	0.908115  	85.000000	0.000400199	
90.000000	0.646717  	90.000000	0.869916  	90.000000	0.868632  	90.000000	0.866486  	90.000000	0.869536  	90.000000	0.00037984	
95.000000	0.621016  	95.000000	0.835164  	95.000000	0.834027  	95.000000	0.831682  	95.000000	0.834803  	95.000000	0.000361529	
100.000000	0.5977    	100.000000	0.803708  	100.000000	0.802692  	100.000000	0.800175  	100.000000	0.803363  	100.000000	0.000344967	
105.000000	0.576445  	105.000000	0.775096  	105.000000	0.774189  	105.000000	0.771514  	105.000000	0.774766  	105.000000	0.000329912	
110.000000	0.556983  	110.000000	0.748955  	110.000000	0.748057  	110.000000	0.745328  	110.000000	0.748638  	110.000000	0.000316165	
115.000000	0.53909   	115.000000	0.724976  	115.000000	0.724134  	115.000000	0.721306  	115.000000	0.724672  	115.000000	0.00030356	
120.000000	0.522581  	120.000000	0.702899  	120.000000	0.702103  	120.000000	0.699189  	120.000000	0.702607  	120.000000	0.000291958	
125.000000	0.507296  	125.000000	0.682505  	125.000000	0.681687  	125.000000	0.678758  	125.000000	0.682224  	125.000000	0.000281244	
130.000000	0.493102  	130.000000	0.663607  	130.000000	0.662785  	130.000000	0.659826  	130.000000	0.663336  	130.000000	0.000271318	
135.000000	0.479882  	135.000000	0.646046  	135.000000	0.645273  	135.000000	0.642233  	135.000000	0.645783  	135.000000	0.000262094	
140.000000	0.467538  	140.000000	0.629682  	140.000000	0.628927  	140.000000	0.625842  	140.000000	0.629429  	140.000000	0.000253501	
145.000000	0.455982  	145.000000	0.614398  	145.000000	0.613624  	145.000000	0.610533  	145.000000	0.614153  	145.000000	0.000245474	
150.000000	0.44514   	150.000000	0.600089  	150.000000	0.599305  	150.000000	0.596202  	150.000000	0.599851  	150.000000	0.000237959	
155.000000	0.429868  	155.000000	0.586664  	155.000000	0.585873  	155.000000	0.582757  	155.000000	0.586434  	155.000000	0.000230907	
160.000000	0.420919  	160.000000	0.574044  	160.000000	0.573244  	160.000000	0.57012   	160.000000	0.57382   	160.000000	0.000224277	
165.000000	0.412479  	165.000000	0.562157  	165.000000	0.56135   	165.000000	0.558219  	165.000000	0.561939  	165.000000	0.000218032	
170.000000	0.404506  	170.000000	0.550942  	170.000000	0.550129  	170.000000	0.546992  	170.000000	0.55073   	170.000000	0.000212137	
175.000000	0.396961  	175.000000	0.540343  	175.000000	0.539525  	175.000000	0.536384  	175.000000	0.540136  	175.000000	0.000206565	
180.000000	0.38981   	180.000000	0.53031   	180.000000	0.529489  	180.000000	0.526344  	180.000000	0.530109  	180.000000	0.000201289	
185.000000	0.383024  	185.000000	0.520799  	185.000000	0.519976  	185.000000	0.516828  	185.000000	0.520603  	185.000000	0.000196286	
190.000000	0.376573  	190.000000	0.511771  	190.000000	0.510945  	190.000000	0.507797  	190.000000	0.511579  	190.000000	0.000191535	
195.000000	0.370434  	195.000000	0.503189  	195.000000	0.502368  	195.000000	0.499214  	195.000000	0.503002  	195.000000	0.000187018	
200.000000	0.364585  	200.000000	0.495021  	200.000000	0.494204  	200.000000	0.491048  	200.000000	0.494839  	200.000000	0.000182716	
210.000000	0.353675  	210.000000	0.479814  	210.000000	0.478953  	210.000000	0.475848  	210.000000	0.479639  	210.000000	0.000174701	
220.000000	0.343703  	220.000000	0.465946  	220.000000	0.465087  	220.000000	0.461993  	220.000000	0.465779  	220.000000	0.000167384	
230.000000	0.334552  	230.000000	0.453248  	230.000000	0.452408  	230.000000	0.449314  	230.000000	0.453087  	230.000000	0.000160677	
240.000000	0.326125  	240.000000	0.441579  	240.000000	0.440764  	240.000000	0.437668  	240.000000	0.441424  	240.000000	0.000154506	
250.000000	0.318337  	250.000000	0.430818  	250.000000	0.429999  	250.000000	0.426936  	250.000000	0.43067   	250.000000	0.000148808	
260.000000	0.31112   	260.000000	0.420866  	260.000000	0.420046  	260.000000	0.417016  	260.000000	0.420722  	260.000000	0.00014353	
270.000000	0.304411  	270.000000	0.411634  	270.000000	0.410853  	270.000000	0.407819  	270.000000	0.411495  	270.000000	0.000138627	
280.000000	0.29816   	280.000000	0.403048  	280.000000	0.4023    	280.000000	0.399272  	280.000000	0.402914  	280.000000	0.000134059	
290.000000	0.292321  	290.000000	0.395044  	290.000000	0.394297  	290.000000	0.391308  	290.000000	0.394914  	290.000000	0.000129794	
300.000000	0.286855  	300.000000	0.387564  	300.000000	0.386843  	300.000000	0.383871  	300.000000	0.387438  	300.000000	0.000125801	
310.000000	0.281727  	310.000000	0.38056   	310.000000	0.379877  	310.000000	0.376912  	310.000000	0.380438  	310.000000	0.000122055	
320.000000	0.276908  	320.000000	0.373989  	320.000000	0.373317  	320.000000	0.370386  	320.000000	0.37387   	320.000000	0.000118534	
330.000000	0.272369  	330.000000	0.367812  	330.000000	0.367169  	330.000000	0.364257  	330.000000	0.367697  	330.000000	0.000115217	
340.000000	0.268089  	340.000000	0.361996  	340.000000	0.361403  	340.000000	0.358489  	340.000000	0.361883  	340.000000	0.000112088	
350.000000	0.264045  	350.000000	0.35651   	350.000000	0.355965  	350.000000	0.353052  	350.000000	0.356401  	350.000000	0.00010913	
360.000000	0.26022   	360.000000	0.351328  	360.000000	0.350814  	360.000000	0.347921  	360.000000	0.351222  	360.000000	0.000106329	
370.000000	0.256595  	370.000000	0.346427  	370.000000	0.345905  	370.000000	0.343041  	370.000000	0.346323  	370.000000	0.000103674	
380.000000	0.253157  	380.000000	0.341784  	380.000000	0.341275  	380.000000	0.33842   	380.000000	0.341683  	380.000000	0.000101153	
390.000000	0.249891  	390.000000	0.337381  	390.000000	0.336893  	390.000000	0.334041  	390.000000	0.337282  	390.000000	9.87561e-05	
400.000000	0.246785  	400.000000	0.333199  	400.000000	0.332716  	400.000000	0.329884  	400.000000	0.333102  	400.000000	9.64741e-05	
410.000000	0.243828  	410.000000	0.329224  	410.000000	0.328743  	410.000000	0.325935  	410.000000	0.329129  	410.000000	9.42989e-05	
420.000000	0.241009  	420.000000	0.32544   	420.000000	0.324975  	420.000000	0.322178  	420.000000	0.325348  	420.000000	9.22231e-05	
430.000000	0.238321  	430.000000	0.321835  	430.000000	0.321392  	430.000000	0.318601  	430.000000	0.321745  	430.000000	9.02399e-05	
440.000000	0.235753  	440.000000	0.318397  	440.000000	0.317972  	440.000000	0.315192  	440.000000	0.318309  	440.000000	8.83433e-05	
450.000000	0.233299  	450.000000	0.315116  	450.000000	0.314701  	450.000000	0.311939  	450.000000	0.315029  	450.000000	8.65275e-05	
460.000000	0.230952  	460.000000	0.311981  	460.000000	0.311574  	460.000000	0.308833  	460.000000	0.311896  	460.000000	8.47876e-05	
470.000000	0.228705  	470.000000	0.308983  	470.000000	0.308586  	470.000000	0.305864  	470.000000	0.3089    	470.000000	8.31187e-05	
480.000000	0.226552  	480.000000	0.306114  	480.000000	0.305737  	480.000000	0.303024  	480.000000	0.306032  	480.000000	8.15165e-05	
490.000000	0.224487  	490.000000	0.303366  	490.000000	0.303016  	490.000000	0.300306  	490.000000	0.303286  	490.000000	7.99772e-05	
500.000000	0.222506  	500.000000	0.300733  	500.000000	0.300408  	500.000000	0.297701  	500.000000	0.300654  	500.000000	7.84969e-05	
520.000000	0.218776  	520.000000	0.295782  	520.000000	0.295486  	520.000000	0.292809  	520.000000	0.295707  	520.000000	7.57005e-05	
540.000000	0.215329  	540.000000	0.291217  	540.000000	0.29096   	540.000000	0.288299  	540.000000	0.291143  	540.000000	7.31031e-05	
560.000000	0.212136  	560.000000	0.286995  	560.000000	0.286788  	560.000000	0.284133  	560.000000	0.286925  	560.000000	7.0684e-05	
580.000000	0.209172  	580.000000	0.283084  	580.000000	0.282905  	580.000000	0.280274  	580.000000	0.283015  	580.000000	6.84253e-05	
600.000000	0.206415  	600.000000	0.279452  	600.000000	0.279294  	600.000000	0.276693  	600.000000	0.279385  	600.000000	6.63113e-05	
620.000000	0.203846  	620.000000	0.276073  	620.000000	0.275944  	620.000000	0.273362  	620.000000	0.276008  	620.000000	6.43283e-05	
640.000000	0.201449  	640.000000	0.272924  	640.000000	0.272837  	640.000000	0.270258  	640.000000	0.272862  	640.000000	6.24645e-05	
660.000000	0.199208  	660.000000	0.269985  	660.000000	0.269933  	660.000000	0.267361  	660.000000	0.269924  	660.000000	6.07093e-05	
680.000000	0.197111  	680.000000	0.267238  	680.000000	0.267204  	680.000000	0.264653  	680.000000	0.267179  	680.000000	5.90534e-05	
700.000000	0.195145  	700.000000	0.264666  	700.000000	0.264653  	700.000000	0.262117  	700.000000	0.264609  	700.000000	5.74884e-05	
720.000000	0.193301  	720.000000	0.262256  	720.000000	0.262271  	720.000000	0.259739  	720.000000	0.2622    	720.000000	5.6007e-05	
740.000000	0.19157   	740.000000	0.259995  	740.000000	0.260034  	740.000000	0.257506  	740.000000	0.25994   	740.000000	5.46026e-05	
760.000000	0.189942  	760.000000	0.25787   	760.000000	0.257923  	760.000000	0.255406  	760.000000	0.257817  	760.000000	5.32693e-05	
780.000000	0.18841   	780.000000	0.255873  	780.000000	0.25593   	780.000000	0.25343   	780.000000	0.255821  	780.000000	5.20018e-05	
800.000000	0.186968  	800.000000	0.253993  	800.000000	0.254051  	800.000000	0.251568  	800.000000	0.253942  	800.000000	5.07951e-05	
820.000000	0.185609  	820.000000	0.252222  	820.000000	0.25228   	820.000000	0.249812  	820.000000	0.252173  	820.000000	4.96451e-05	
840.000000	0.184327  	840.000000	0.250553  	840.000000	0.250613  	840.000000	0.248153  	840.000000	0.250505  	840.000000	4.85478e-05	
860.000000	0.183118  	860.000000	0.248979  	860.000000	0.249043  	860.000000	0.246585  	860.000000	0.248932  	860.000000	4.74996e-05	
880.000000	0.181977  	880.000000	0.247493  	880.000000	0.247558  	880.000000	0.245102  	880.000000	0.247447  	880.000000	4.64972e-05	
900.000000	0.1809    	900.000000	0.24609   	900.000000	0.246149  	900.000000	0.243697  	900.000000	0.246044  	900.000000	4.55376e-05	
920.000000	0.179882  	920.000000	0.244764  	920.000000	0.244809  	920.000000	0.242367  	920.000000	0.244719  	920.000000	4.46182e-05	
940.000000	0.17892   	940.000000	0.24351   	940.000000	0.243536  	940.000000	0.241105  	940.000000	0.243467  	940.000000	4.37364e-05	
960.000000	0.178011  	960.000000	0.242325  	960.000000	0.242327  	960.000000	0.239908  	960.000000	0.242282  	960.000000	4.289e-05 	
980.000000	0.177152  	980.000000	0.241203  	980.000000	0.241179  	980.000000	0.23877   	980.000000	0.241161  	980.000000	4.20768e-05	
1000.000000	0.176339  	1000.000000	0.240142  	1000.000000	0.240088  	1000.000000	0.23769   	1000.000000	0.240101  	1000.000000	4.12949e-05	
1020.000000	0.175571  	1020.000000	0.239138  	1020.000000	0.239054  	1020.000000	0.236663  	1020.000000	0.239097  	1020.000000	4.05425e-05	
1040.000000	0.174845  	1040.000000	0.238187  	1040.000000	0.238073  	1040.000000	0.235685  	1040.000000	0.238147  	1040.000000	3.9818e-05	
1060.000000	0.174159  	1060.000000	0.237287  	1060.000000	0.237141  	1060.000000	0.234755  	1060.000000	0.237248  	1060.000000	3.91198e-05	
1080.000000	0.17351   	1080.000000	0.236435  	1080.000000	0.236254  	1080.000000	0.233869  	1080.000000	0.236396  	1080.000000	3.84464e-05	
1100.000000	0.172897  	1100.000000	0.235628  	1100.000000	0.235408  	1100.000000	0.233025  	1100.000000	0.23559   	1100.000000	3.77967e-05	
1120.000000	0.172318  	1120.000000	0.234864  	1120.000000	0.2346    	1120.000000	0.23222   	1120.000000	0.234826  	1120.000000	3.71692e-05	
1140.000000	0.171771  	1140.000000	0.23414   	1140.000000	0.233827  	1140.000000	0.231453  	1140.000000	0.234104  	1140.000000	3.6563e-05	
1160.000000	0.171255  	1160.000000	0.233455  	1160.000000	0.233088  	1160.000000	0.230721  	1160.000000	0.233419  	1160.000000	3.59768e-05	
1180.000000	0.170768  	1180.000000	0.232807  	1180.000000	0.232383  	1180.000000	0.230022  	1180.000000	0.232772  	1180.000000	3.54098e-05	
1200.000000	0.170309  	1200.000000	0.232194  	1200.000000	0.231708  	1200.000000	0.229355  	1200.000000	0.232159  	1200.000000	3.4861e-05	
1220.000000	0.169876  	1220.000000	0.231614  	1220.000000	0.231064  	1220.000000	0.228718  	1220.000000	0.23158   	1220.000000	3.43295e-05	
1240.000000	0.169469  	1240.000000	0.231066  	1240.000000	0.230449  	1240.000000	0.22811   	1240.000000	0.231032  	1240.000000	3.38145e-05	
1260.000000	0.169086  	1260.000000	0.230548  	1260.000000	0.229861  	1260.000000	0.227528  	1260.000000	0.230514  	1260.000000	3.33153e-05	
1280.000000	0.168726  	1280.000000	0.230058  	1280.000000	0.2293    	1280.000000	0.226972  	1280.000000	0.230026  	1280.000000	3.28311e-05	
1300.000000	0.168389  	1300.000000	0.229596  	1300.000000	0.228764  	1300.000000	0.226441  	1300.000000	0.229564  	1300.000000	3.23612e-05	
1320.000000	0.168072  	1320.000000	0.229161  	1320.000000	0.228253  	1320.000000	0.225932  	1320.000000	0.229129  	1320.000000	3.1905e-05	
1340.000000	0.167776  	1340.000000	0.22875   	1340.000000	0.227764  	1340.000000	0.225446  	1340.000000	0.228719  	1340.000000	3.1462e-05	
1360.000000	0.1675    	1360.000000	0.228364  	1360.000000	0.227297  	1360.000000	0.224981  	1360.000000	0.228333  	1360.000000	3.10314e-05	
1380.000000	0.167242  	1380.000000	0.228     	1380.000000	0.22685   	1380.000000	0.224536  	1380.000000	0.227969  	1380.000000	3.06129e-05	
1400.000000	0.167003  	1400.000000	0.227658  	1400.000000	0.226422  	1400.000000	0.22411   	1400.000000	0.227628  	1400.000000	3.0206e-05	
1420.000000	0.16678   	1420.000000	0.227338  	1420.000000	0.226013  	1420.000000	0.223702  	1420.000000	0.227308  	1420.000000	2.981e-05 	
1440.000000	0.166575  	1440.000000	0.227038  	1440.000000	0.225621  	1440.000000	0.223312  	1440.000000	0.227008  	1440.000000	2.94247e-05	
1460.000000	0.166385  	1460.000000	0.226757  	1460.000000	0.225244  	1460.000000	0.222938  	1460.000000	0.226728  	1460.000000	2.90495e-05	
1480.000000	0.166211  	1480.000000	0.226494  	1480.000000	0.224884  	1480.000000	0.22258   	1480.000000	0.226466  	1480.000000	2.86841e-05	
1500.000000	0.166051  	1500.000000	0.22625   	1500.000000	0.224538  	1500.000000	0.222237  	1500.000000	0.226222  	1500.000000	2.8328e-05	
1520.000000	0.165906  	1520.000000	0.226023  	1520.000000	0.224207  	1520.000000	0.221909  	1520.000000	0.225995  	1520.000000	2.7981e-05	
1540.000000	0.165774  	1540.000000	0.225812  	1540.000000	0.22389   	1540.000000	0.221595  	1540.000000	0.225784  	1540.000000	2.76427e-05	
1560.000000	0.165656  	1560.000000	0.225617  	1560.000000	0.223586  	1560.000000	0.221294  	1560.000000	0.22559   	1560.000000	2.73127e-05	
1580.000000	0.165551  	1580.000000	0.225438  	1580.000000	0.223294  	1580.000000	0.221006  	1580.000000	0.225411  	1580.000000	2.69908e-05	
1600.000000	0.165458  	1600.000000	0.225273  	1600.000000	0.223015  	1600.000000	0.22073   	1600.000000	0.225246  	1600.000000	2.66766e-05	
1620.000000	0.165377  	1620.000000	0.225123  	1620.000000	0.222748  	1620.000000	0.220466  	1620.000000	0.225096  	1620.000000	2.63699e-05	
1640.000000	0.165308  	1640.000000	0.224986  	1640.000000	0.222492  	1640.000000	0.220213  	1640.000000	0.22496   	1640.000000	2.60704e-05	
1660.000000	0.16525   	1660.000000	0.224862  	1660.000000	0.222247  	1660.000000	0.219971  	1660.000000	0.224836  	1660.000000	2.57779e-05	
1680.000000	0.165202  	1680.000000	0.224751  	1680.000000	0.222012  	1680.000000	0.219739  	1680.000000	0.224726  	1680.000000	2.5492e-05	
1700.000000	0.165165  	1700.000000	0.224653  	1700.000000	0.221788  	1700.000000	0.219517  	1700.000000	0.224627  	1700.000000	2.52127e-05	
1750.000000	0.165117  	1750.000000	0.224457  	1750.000000	0.221267  	1750.000000	0.219004  	1750.000000	0.224433  	1750.000000	2.45412e-05	
1800.000000	0.165126  	1800.000000	0.22433   	1800.000000	0.220801  	1800.000000	0.218544  	1800.000000	0.224306  	1800.000000	2.39057e-05	
1850.000000	0.165191  	1850.000000	0.224265  	1850.000000	0.220383  	1850.000000	0.218134  	1850.000000	0.224241  	1850.000000	2.33034e-05	
1900.000000	0.165305  	1900.000000	0.224257  	1900.000000	0.220011  	1900.000000	0.217768  	1900.000000	0.224235  	1900.000000	2.27316e-05	
1950.000000	0.165467  	1950.000000	0.224304  	1950.000000	0.219681  	1950.000000	0.217443  	1950.000000	0.224281  	1950.000000	2.2188e-05	
2000.000000	0.165672  	2000.000000	0.224399  	2000.000000	0.219388  	2000.000000	0.217155  	2000.000000	0.224377  	2000.000000	2.16707e-05	
2100.000000	0.166202  	2100.000000	0.224723  	2100.000000	0.218904  	2100.000000	0.216677  	2100.000000	0.224703  	2100.000000	2.07074e-05	
2200.000000	0.166877  	2200.000000	0.225206  	2200.000000	0.218537  	2200.000000	0.216314  	2200.000000	0.225186  	2200.000000	1.98285e-05	
2300.000000	0.167679  	2300.000000	0.225826  	2300.000000	0.218267  	2300.000000	0.216046  	2300.000000	0.225807  	2300.000000	1.90235e-05	
2400.000000	0.168594  	2400.000000	0.226567  	2400.000000	0.218078  	2400.000000	0.21586   	2400.000000	0.226549  	2400.000000	1.82832e-05	
2500.000000	0.16961   	2500.000000	0.227413  	2500.000000	0.217957  	2500.000000	0.215743  	2500.000000	0.227396  	2500.000000	1.76001e-05	
2600.000000	0.170719  	2600.000000	0.228353  	2600.000000	0.217894  	2600.000000	0.215685  	2600.000000	0.228336  	2600.000000	1.69677e-05	
2700.000000	0.17191   	2700.000000	0.229376  	2700.000000	0.217882  	2700.000000	0.215678  	2700.000000	0.229359  	2700.000000	1.63805e-05	
2800.000000	0.173177  	2800.000000	0.230473  	2800.000000	0.217914  	2800.000000	0.215714  	2800.000000	0.230457  	2800.000000	1.58339e-05	
2900.000000	0.174513  	2900.000000	0.231636  	2900.000000	0.217982  	2900.000000	0.215787  	2900.000000	0.23162   	2900.000000	1.53236e-05	
3000.000000	0.175913  	3000.000000	0.232858  	3000.000000	0.218084  	3000.000000	0.215892  	3000.000000	0.232843  	3000.000000	1.48462e-05	
3200.000000	0.178884  	3200.000000	0.235459  	3200.000000	0.218366  	3200.000000	0.216182  	3200.000000	0.235445  	3200.000000	1.39778e-05	
3400.000000	0.182058  	3400.000000	0.238236  	3400.000000	0.218733  	3400.000000	0.216555  	3400.000000	0.238223  	3400.000000	1.32082e-05	
3600.000000	0.185409  	3600.000000	0.241159  	3600.000000	0.219163  	3600.000000	0.21699   	3600.000000	0.241146  	3600.000000	1.25213e-05	
3800.000000	0.188917  	3800.000000	0.244203  	3800.000000	0.21964   	3800.000000	0.217471  	3800.000000	0.244191  	3800.000000	1.19043e-05	
4000.000000	0.192565  	4000.000000	0.247351  	4000.000000	0.220151  	4000.000000	0.217986  	4000.000000	0.247339  	4000.000000	1.1347e-05	
4200.000000	0.19634   	4200.000000	0.250586  	4200.000000	0.220687  	4200.000000	0.218526  	4200.000000	0.250575  	4200.000000	1.08409e-05	
4400.000000	0.200231  	4400.000000	0.253895  	4400.000000	0.221241  	4400.000000	0.219083  	4400.000000	0.253885  	4400.000000	1.03794e-05	
4600.000000	0.204228  	4600.000000	0.257269  	4600.000000	0.221806  	4600.000000	0.219652  	4600.000000	0.257259  	4600.000000	9.95663e-06	
4800.000000	0.208325  	4800.000000	0.260698  	4800.000000	0.22238   	4800.000000	0.220228  	4800.000000	0.260688  	4800.000000	9.56795e-06	
5000.000000	0.212513  	5000.000000	0.264175  	5000.000000	0.222957  	5000.000000	0.220808  	5000.000000	0.264166  	5000.000000	9.20934e-06	
5250.000000	0.217871  	5250.000000	0.26858   	5250.000000	0.22368   	5250.000000	0.221535  	5250.000000	0.268571  	5250.000000	8.79823e-06	
5500.000000	0.223354  	5500.000000	0.273041  	5500.000000	0.224401  	5500.000000	0.222259  	5500.000000	0.273032  	5500.000000	8.42329e-06	
6000.000000	0.234673  	6000.000000	0.282098  	6000.000000	0.225827  	6000.000000	0.223691  	6000.000000	0.28209   	6000.000000	7.76416e-06	
6500.000000	0.246421  	6500.000000	0.291296  	6500.000000	0.227219  	6500.000000	0.225088  	6500.000000	0.291289  	6500.000000	7.20328e-06	
7000.000000	0.258565  	7000.000000	0.300599  	7000.000000	0.228569  	7000.000000	0.226442  	7000.000000	0.300592  	7000.000000	6.72001e-06	
7500.000000	0.27108   	7500.000000	0.30998   	7500.000000	0.229873  	7500.000000	0.22775   	7500.000000	0.309974  	7500.000000	6.29917e-06	
8000.000000	0.283946  	8000.000000	0.319421  	8000.000000	0.231132  	8000.000000	0.22901   	8000.000000	0.319415  	8000.000000	5.92929e-06	
8500.000000	0.29715   	8500.000000	0.328907  	8500.000000	0.23234   	8500.000000	0.230223  	8500.000000	0.328902  	8500.000000	5.60157e-06	
9000.000000	0.310679  	9000.000000	0.338428  	9000.000000	0.233498  	9000.000000	0.23139   	9000.000000	0.338422  	9000.000000	5.30912e-06	
9500.000000	0.324525  	9500.000000	0.347974  	9500.000000	0.234614  	9500.000000	0.232513  	9500.000000	0.347969  	9500.000000	5.0465e-06	
10000.000000	0.33868   	10000.000000	0.357539  	10000.000000	0.235691  	10000.000000	0.233595  	10000.000000	0.357534  	10000.000000	4.80932e-06	
11000.000000	0.367897  	11000.000000	0.376706  	11000.000000	0.237732  	11000.000000	0.23564   	11000.000000	0.376702  	11000.000000	4.39769e-06	
12000.000000	0.398296  	12000.000000	0.395899  	12000.000000	0.23963   	12000.000000	0.237543  	12000.000000	0.395895  	12000.000000	4.05262e-06	
13000.000000	0.429854  	13000.000000	0.415098  	13000.000000	0.241396  	13000.000000	0.239319  	13000.000000	0.415094  	13000.000000	3.75906e-06	
14000.000000	0.462557  	14000.000000	0.43429   	14000.000000	0.243044  	14000.000000	0.240982  	14000.000000	0.434286  	14000.000000	3.50618e-06	
15000.000000	0.496393  	15000.000000	0.453466  	15000.000000	0.244589  	15000.000000	0.242544  	15000.000000	0.453463  	15000.000000	3.28602e-06	
16000.000000	0.531356  	16000.000000	0.47262   	16000.000000	0.246045  	16000.000000	0.244015  	16000.000000	0.472617  	16000.000000	3.09255e-06	
17000.000000	0.567442  	17000.000000	0.491749  	17000.000000	0.247421  	17000.000000	0.245406  	17000.000000	0.491746  	17000.000000	2.92116e-06	
18000.000000	0.604651  	18000.000000	0.510849  	18000.000000	0.248725  	18000.000000	0.246722  	18000.000000	0.510846  	18000.000000	2.76825e-06	
19000.000000	0.64298   	19000.000000	0.52992   	19000.000000	0.249966  	19000.000000	0.247973  	19000.000000	0.529917  	19000.000000	2.63096e-06	
20000.000000	0.68243   	20000.000000	0.54896   	20000.000000	0.251147  	20000.000000	0.249163  	20000.000000	0.548957  	20000.000000	2.50698e-06	
21000.000000	0.723004  	21000.000000	0.567968  	21000.000000	0.252274  	21000.000000	0.250297  	21000.000000	0.567966  	21000.000000	2.39446e-06	
22000.000000	0.764704  	22000.000000	0.586946  	22000.000000	0.253347  	22000.000000	0.251382  	22000.000000	0.586943  	22000.000000	2.29186e-06	
23000.000000	0.807532  	23000.000000	0.605892  	23000.000000	0.254362  	23000.000000	0.252419  	23000.000000	0.605889  	23000.000000	2.19792e-06	
24000.000000	0.851492  	24000.000000	0.624807  	24000.000000	0.255336  	24000.000000	0.253414  	24000.000000	0.624804  	24000.000000	2.11158e-06	
25000.000000	0.896588  	25000.000000	0.643691  	25000.000000	0.256278  	25000.000000	0.25437   	25000.000000	0.643689  	25000.000000	2.03194e-06	
26000.000000	0.942823  	26000.000000	0.662545  	26000.000000	0.257183  	26000.000000	0.255289  	26000.000000	0.662543  	26000.000000	1.95824e-06	
27000.000000	0.990203  	27000.000000	0.681369  	27000.000000	0.258048  	27000.000000	0.256174  	27000.000000	0.681367  	27000.000000	1.88984e-06	
28000.000000	1.03873   	28000.000000	0.700164  	28000.000000	0.258879  	28000.000000	0.257027  	28000.000000	0.700162  	28000.000000	1.82618e-06	
29000.000000	1.08842   	29000.000000	0.71893   	29000.000000	0.259682  	29000.000000	0.25785   	29000.000000	0.718928  	29000.000000	1.76678e-06	
30000.000000	1.13926   	30000.000000	0.737668  	30000.000000	0.260459  	30000.000000	0.258646  	30000.000000	0.737667  	30000.000000	1.71122e-06	
32000.000000	1.24444   	32000.000000	0.775064  	32000.000000	0.261937  	32000.000000	0.260162  	32000.000000	0.775062  	32000.000000	1.61023e-06	
34000.000000	1.35433   	34000.000000	0.812354  	34000.000000	0.26332   	34000.000000	0.261587  	34000.000000	0.812352  	34000.000000	1.52077e-06	
36000.000000	1.46896   	36000.000000	0.849544  	36000.000000	0.264616  	36000.000000	0.26293   	36000.000000	0.849542  	36000.000000	1.44097e-06	
38000.000000	1.58839   	38000.000000	0.886638  	38000.000000	0.265833  	38000.000000	0.2642    	38000.000000	0.886637  	38000.000000	1.36933e-06	
40000.000000	1.71266   	40000.000000	0.92364   	40000.000000	0.266982  	40000.000000	0.265405  	40000.000000	0.923639  	40000.000000	1.30465e-06	
42000.000000	1.84183   	42000.000000	0.960555  	42000.000000	0.26807   	42000.000000	0.266551  	42000.000000	0.960553  	42000.000000	1.24596e-06	
44000.000000	1.97595   	44000.000000	0.997385  	44000.000000	0.269105  	44000.000000	0.267643  	44000.000000	0.997384  	44000.000000	1.19244e-06	
46000.000000	2.11505   	46000.000000	1.03413   	46000.000000	0.270093  	46000.000000	0.268686  	46000.000000	1.03413   	46000.000000	1.14345e-06	
48000.000000	2.25921   	48000.000000	1.07081   	48000.000000	0.271037  	48000.000000	0.269684  	48000.000000	1.07081   	48000.000000	1.09842e-06	
50000.000000	2.40847   	50000.000000	1.1074    	50000.000000	0.271936  	50000.000000	0.270641  	50000.000000	1.1074    	50000.000000	1.0569e-06	
