Energy (MeV/u)1	0 - [He-base] F.Hubert et al, AD&ND Tables 46(1990)1	Energy (MeV/u)2	1 - [H -base] J.F.Ziegler et al, Pergamon Press, NY (low energy)	Energy (MeV/u)3	2 - ATIMA 1.2  LS-theory (recommended for high energy)	Energy (MeV/u)4	3 - ATIMA 1.2  without LS-correction	Energy (MeV/u)5	4 - electrical component of [1] - J.F.Ziegler et al	Energy (MeV/u)6	5 - nuclear component of [1] - J.F.Ziegler et al	
0.001000	2.4249    	0.001000	3.45277   	0.001000	2.94927   	0.001000	2.94927   	0.001000	1.86841   	0.001000	1.58435   	
0.002000	2.57686   	0.002000	3.56497   	0.002000	3.07219   	0.002000	3.07219   	0.002000	2.42303   	0.002000	1.14194   	
0.005000	3.00971   	0.005000	4.08271   	0.005000	3.71814   	0.005000	3.71814   	0.005000	3.41654   	0.005000	0.666171  	
0.008000	3.37794   	0.008000	4.56245   	0.008000	4.34788   	0.008000	4.34788   	0.008000	4.07504   	0.008000	0.487411  	
0.010000	3.59383   	0.010000	4.84807   	0.010000	4.73349   	0.010000	4.73349   	0.010000	4.43071   	0.010000	0.417359  	
0.015000	4.23827   	0.015000	5.83697   	0.015000	5.48111   	0.015000	5.48111   	0.015000	5.52795   	0.015000	0.309021  	
0.020000	4.79926   	0.020000	7.07329   	0.020000	6.14063   	0.020000	6.14063   	0.020000	6.82371   	0.020000	0.249577  	
0.025000	5.42215   	0.025000	8.29148   	0.025000	6.78984   	0.025000	6.78984   	0.025000	8.08077   	0.025000	0.210714  	
0.030000	5.95747   	0.030000	9.48302   	0.030000	7.62851   	0.030000	7.62851   	0.030000	9.2999    	0.030000	0.183121  	
0.035000	6.26889   	0.035000	10.4122   	0.035000	8.4333    	0.035000	8.4333    	0.035000	10.2497   	0.035000	0.162415  	
0.040000	6.50542   	0.040000	11.2461   	0.040000	9.20226   	0.040000	9.20226   	0.040000	11.0998   	0.040000	0.146247  	
0.045000	6.67185   	0.045000	12.0291   	0.045000	9.93397   	0.045000	9.93397   	0.045000	11.8958   	0.045000	0.133238  	
0.050000	6.77355   	0.050000	12.7606   	0.050000	10.6275   	0.050000	10.6275   	0.050000	12.6381   	0.050000	0.122524  	
0.055000	7.02903   	0.055000	13.4399   	0.055000	11.2824   	0.055000	11.2824   	0.055000	13.3264   	0.055000	0.113531  	
0.060000	7.24559   	0.060000	14.0665   	0.060000	11.8985   	0.060000	11.8985   	0.060000	13.9606   	0.060000	0.105866  	
0.070000	7.58602   	0.070000	15.1644   	0.070000	13.016    	0.070000	13.016    	0.070000	15.0709   	0.070000	0.0934691 	
0.080000	8.0429    	0.080000	16.2327   	0.080000	13.9855   	0.080000	13.9855   	0.080000	16.1488   	0.080000	0.0838523 	
0.090000	8.40647   	0.090000	17.0838   	0.090000	14.8161   	0.090000	14.8161   	0.090000	17.0076   	0.090000	0.0761559 	
0.100000	8.69888   	0.100000	17.7358   	0.100000	15.5191   	0.100000	15.5191   	0.100000	17.666    	0.100000	0.069845  	
0.120000	8.92689   	0.120000	18.5399   	0.120000	16.5919   	0.120000	16.5919   	0.120000	18.4799   	0.120000	0.0600856 	
0.140000	9.06032   	0.140000	18.8502   	0.140000	17.3022   	0.140000	17.3022   	0.140000	18.7973   	0.140000	0.0528654 	
0.160000	9.16491   	0.160000	18.8494   	0.160000	17.7385   	0.160000	17.7385   	0.160000	18.8021   	0.160000	0.0472907 	
0.180000	9.26941   	0.180000	18.6731   	0.180000	17.9736   	0.180000	17.9736   	0.180000	18.6302   	0.180000	0.0428464 	
0.200000	9.38371   	0.200000	18.4107   	0.200000	18.0641   	0.200000	18.0641   	0.200000	18.3715   	0.200000	0.0392141 	
0.250000	9.43197   	0.250000	17.7278   	0.250000	17.9109   	0.250000	17.9109   	0.250000	17.6953   	0.250000	0.0324766 	
0.300000	9.53493   	0.300000	17.1855   	0.300000	17.5014   	0.300000	17.5014   	0.300000	17.1577   	0.300000	0.0278164 	
0.350000	9.61013   	0.350000	16.7246   	0.350000	17.016    	0.350000	17.016    	0.350000	16.7002   	0.350000	0.024388  	
0.400000	9.65397   	0.400000	16.3372   	0.400000	16.5285   	0.400000	16.5285   	0.400000	16.3155   	0.400000	0.0217529 	
0.450000	9.70457   	0.450000	16.0661   	0.450000	16.1275   	0.450000	16.1275   	0.450000	16.0465   	0.450000	0.01966   	
0.500000	9.71619   	0.500000	15.8064   	0.500000	15.8253   	0.500000	15.8253   	0.500000	15.7885   	0.500000	0.0179549 	
0.600000	9.36734   	0.600000	15.3638   	0.600000	15.2157   	0.600000	15.2157   	0.600000	15.3485   	0.600000	0.0153387 	
0.700000	8.94347   	0.700000	14.9258   	0.700000	14.6268   	0.700000	14.6268   	0.700000	14.9123   	0.700000	0.0134202 	
0.800000	8.83356   	0.800000	14.5027   	0.800000	14.0346   	0.800000	14.0346   	0.800000	14.4907   	0.800000	0.0119493 	
0.900000	8.68544   	0.900000	14.0686   	0.900000	13.4977   	0.900000	13.4977   	0.900000	14.0578   	0.900000	0.0107837 	
1.000000	8.51468   	1.000000	13.6343   	1.000000	13.0071   	1.000000	13.0071   	1.000000	13.6244   	1.000000	0.00983578	
1.250000	8.02751   	1.250000	12.5883   	1.250000	11.9396   	1.250000	11.9396   	1.250000	12.5802   	1.250000	0.00808968	
1.500000	7.5406    	1.500000	11.6351   	1.500000	10.9875   	1.500000	10.9875   	1.500000	11.6282   	1.500000	0.00689191	
1.750000	7.08318   	1.750000	10.7854   	1.750000	10.2035   	1.750000	10.2035   	1.750000	10.7794   	1.750000	0.00601643	
2.000000	6.64776   	2.000000	10.0091   	2.000000	9.53792   	2.000000	9.53792   	2.000000	10.0037   	2.000000	0.00534705	
2.250000	6.26801   	2.250000	9.33039   	2.250000	8.96176   	2.250000	8.96176   	2.250000	9.32558   	2.250000	0.00481776	
2.500000	6.03826   	2.500000	8.73406   	2.500000	8.45607   	2.500000	8.45607   	2.500000	8.72967   	2.500000	0.00438817	
3.000000	5.42973   	3.000000	7.71142   	3.000000	7.60655   	3.000000	7.60655   	3.000000	7.70769   	3.000000	0.00373206	
3.500000	4.93667   	3.500000	6.89956   	3.500000	6.91846   	3.500000	6.91846   	3.500000	6.89631   	3.500000	0.00325345	
4.000000	4.52947   	4.000000	6.24471   	4.000000	6.34858   	4.000000	6.34858   	4.000000	6.24183   	4.000000	0.0028881 	
4.500000	4.18754   	4.500000	5.70342   	4.500000	5.86832   	4.500000	5.86832   	4.500000	5.70082   	4.500000	0.00259962	
5.000000	3.89631   	5.000000	5.24696   	5.000000	5.45782   	5.000000	5.45782   	5.000000	5.24459   	5.000000	0.00236575	
5.500000	3.6452    	5.500000	4.85715   	5.500000	5.10272   	5.500000	5.10272   	5.500000	4.85498   	5.500000	0.00217214	
6.000000	3.4264    	6.000000	4.52036   	6.000000	4.79241   	6.000000	4.79241   	6.000000	4.51835   	6.000000	0.00200908	
6.500000	3.23397   	6.500000	4.22632   	6.500000	4.51883   	6.500000	4.51883   	6.500000	4.22445   	6.500000	0.00186979	
7.000000	3.06338   	7.000000	3.96732   	7.000000	4.27577   	7.000000	4.27577   	7.000000	3.96557   	7.000000	0.00174934	
7.500000	2.91106   	7.500000	3.73744   	7.500000	4.05834   	7.500000	4.05834   	7.500000	3.7358    	7.500000	0.00164411	
8.000000	2.77418   	8.000000	3.53204   	8.000000	3.86265   	8.000000	3.86265   	8.000000	3.53049   	8.000000	0.00155134	
8.500000	2.65049   	8.500000	3.34742   	8.500000	3.68557   	8.500000	3.68557   	8.500000	3.34595   	8.500000	0.00146892	
9.000000	2.53814   	9.000000	3.1806    	9.000000	3.52454   	9.000000	3.52454   	9.000000	3.1792    	9.000000	0.00139518	
9.500000	2.43561   	9.500000	3.02914   	9.500000	3.37746   	9.500000	3.37746   	9.500000	3.02781   	9.500000	0.00132879	
10.000000	2.34167   	10.000000	2.91933   	10.000000	3.24258   	10.000000	3.24258   	10.000000	2.91806   	10.000000	0.00126871	
11.000000	2.17547   	11.000000	2.73327   	11.000000	2.99867   	11.000000	3.00152   	11.000000	2.73211   	11.000000	0.0011641 	
12.000000	2.03297   	12.000000	2.56985   	12.000000	2.78978   	12.000000	2.79458   	12.000000	2.56877   	12.000000	0.00107607	
13.000000	1.90938   	13.000000	2.42533   	13.000000	2.60892   	13.000000	2.61504   	13.000000	2.42433   	13.000000	0.00100092	
14.000000	1.80111   	14.000000	2.29674   	14.000000	2.45085   	14.000000	2.45783   	14.000000	2.2958    	14.000000	0.000935979	
15.000000	1.70545   	15.000000	2.18163   	15.000000	2.31156   	15.000000	2.31909   	15.000000	2.18075   	15.000000	0.000879276	
16.000000	1.62028   	16.000000	2.07803   	16.000000	2.18791   	16.000000	2.19576   	16.000000	2.0772    	16.000000	0.000829316	
17.000000	1.54395   	17.000000	1.98433   	17.000000	2.07745   	17.000000	2.08547   	17.000000	1.98354   	17.000000	0.000784949	
18.000000	1.47512   	18.000000	1.89919   	18.000000	1.97823   	18.000000	1.98628   	18.000000	1.89844   	18.000000	0.000745273	
19.000000	1.41274   	19.000000	1.82149   	19.000000	1.88866   	19.000000	1.89664   	19.000000	1.82078   	19.000000	0.000709572	
20.000000	1.35591   	20.000000	1.75031   	20.000000	1.80738   	20.000000	1.81525   	20.000000	1.74963   	20.000000	0.000677269	
21.000000	1.30393   	21.000000	1.68486   	21.000000	1.73332   	21.000000	1.74106   	21.000000	1.68422   	21.000000	0.000647895	
22.000000	1.25618   	22.000000	1.62449   	22.000000	1.66561   	22.000000	1.67319   	22.000000	1.62387   	22.000000	0.000621064	
23.000000	1.21216   	23.000000	1.56862   	23.000000	1.6035    	23.000000	1.61088   	23.000000	1.56802   	23.000000	0.000596454	
24.000000	1.17145   	24.000000	1.51677   	24.000000	1.54637   	24.000000	1.5535    	24.000000	1.51619   	24.000000	0.000573798	
25.000000	1.13367   	25.000000	1.46851   	25.000000	1.49368   	25.000000	1.50052   	25.000000	1.46796   	25.000000	0.000552868	
27.000000	1.06574   	27.000000	1.3814    	27.000000	1.39968   	27.000000	1.40594   	27.000000	1.38089   	27.000000	0.000515444	
29.000000	1.00633   	29.000000	1.3049    	29.000000	1.31843   	29.000000	1.32412   	29.000000	1.30442   	29.000000	0.000482948	
31.000000	0.953914  	31.000000	1.23718   	31.000000	1.24765   	31.000000	1.25259   	31.000000	1.23672   	31.000000	0.000454454	
33.000000	0.907308  	33.000000	1.17679   	33.000000	1.185     	33.000000	1.18911   	33.000000	1.17636   	33.000000	0.000429257	
35.000000	0.865582  	35.000000	1.12261   	35.000000	1.12901   	35.000000	1.1324    	35.000000	1.1222    	35.000000	0.00040681	
38.000000	0.810561  	38.000000	1.05101   	38.000000	1.05538   	38.000000	1.05783   	38.000000	1.05063   	38.000000	0.000377373	
41.000000	0.762958  	41.000000	0.988934  	41.000000	0.991723  	41.000000	0.993501  	41.000000	0.988582  	41.000000	0.000352055	
44.000000	0.721345  	44.000000	0.934592  	44.000000	0.936169  	44.000000	0.937416  	44.000000	0.934262  	44.000000	0.000330039	
47.000000	0.684638  	47.000000	0.886609  	47.000000	0.887293  	47.000000	0.888067  	47.000000	0.886298  	47.000000	0.000310711	
50.000000	0.652005  	50.000000	0.84392   	50.000000	0.843865  	50.000000	0.844297  	50.000000	0.843627  	50.000000	0.0002936 	
55.000000	0.604953  	55.000000	0.782338  	55.000000	0.781346  	55.000000	0.781367  	55.000000	0.782069  	55.000000	0.000269055	
60.000000	0.565186  	60.000000	0.73028   	60.000000	0.728673  	60.000000	0.72836   	60.000000	0.730031  	60.000000	0.00024843	
65.000000	0.531105  	65.000000	0.685675  	65.000000	0.683672  	65.000000	0.683077  	65.000000	0.685444  	65.000000	0.000230845	
70.000000	0.50155   	70.000000	0.647014  	70.000000	0.644681  	70.000000	0.643928  	70.000000	0.646798  	70.000000	0.000215667	
75.000000	0.47566   	75.000000	0.613173  	75.000000	0.610663  	75.000000	0.609733  	75.000000	0.612971  	75.000000	0.000202428	
80.000000	0.45278   	80.000000	0.583294  	80.000000	0.580626  	80.000000	0.5796    	80.000000	0.583103  	80.000000	0.000190775	
85.000000	0.432404  	85.000000	0.556714  	85.000000	0.55394   	85.000000	0.552838  	85.000000	0.556533  	85.000000	0.000180436	
90.000000	0.414133  	90.000000	0.532909  	90.000000	0.530073  	90.000000	0.528908  	90.000000	0.532738  	90.000000	0.000171199	
95.000000	0.39765   	95.000000	0.511463  	95.000000	0.508597  	95.000000	0.507378  	95.000000	0.5113    	95.000000	0.000162893	
100.000000	0.3827    	100.000000	0.492038  	100.000000	0.489168  	100.000000	0.487902  	100.000000	0.491883  	100.000000	0.000155383	
105.000000	0.369073  	105.000000	0.474359  	105.000000	0.471504  	105.000000	0.470198  	105.000000	0.474211  	105.000000	0.00014856	
110.000000	0.356598  	110.000000	0.458199  	110.000000	0.455373  	110.000000	0.454032  	110.000000	0.458057  	110.000000	0.000142331	
115.000000	0.345131  	115.000000	0.443368  	115.000000	0.440581  	115.000000	0.439211  	115.000000	0.443232  	115.000000	0.000136621	
120.000000	0.334551  	120.000000	0.429708  	120.000000	0.426975  	120.000000	0.425574  	120.000000	0.429577  	120.000000	0.000131368	
125.000000	0.324757  	125.000000	0.417084  	125.000000	0.414396  	125.000000	0.412983  	125.000000	0.416958  	125.000000	0.000126517	
130.000000	0.315663  	130.000000	0.405382  	130.000000	0.40272   	130.000000	0.401321  	130.000000	0.40526   	130.000000	0.000122025	
135.000000	0.307193  	135.000000	0.394503  	135.000000	0.391902  	135.000000	0.39049   	135.000000	0.394386  	135.000000	0.000117851	
140.000000	0.299285  	140.000000	0.384364  	140.000000	0.381841  	140.000000	0.380402  	140.000000	0.38425   	140.000000	0.000113964	
145.000000	0.291883  	145.000000	0.374891  	145.000000	0.372429  	145.000000	0.370985  	145.000000	0.37478   	145.000000	0.000110334	
150.000000	0.284939  	150.000000	0.366019  	150.000000	0.363601  	150.000000	0.362173  	150.000000	0.365912  	150.000000	0.000106936	
155.000000	0.275159  	155.000000	0.357694  	155.000000	0.355346  	155.000000	0.35391   	155.000000	0.35759   	155.000000	0.000103749	
160.000000	0.269428  	160.000000	0.349866  	160.000000	0.347589  	160.000000	0.346145  	160.000000	0.349765  	160.000000	0.000100752	
165.000000	0.264022  	165.000000	0.342491  	165.000000	0.340265  	165.000000	0.338836  	165.000000	0.342393  	165.000000	9.79299e-05	
170.000000	0.258916  	170.000000	0.335531  	170.000000	0.333372  	170.000000	0.331943  	170.000000	0.335436  	170.000000	9.52671e-05	
175.000000	0.254085  	175.000000	0.328953  	175.000000	0.326872  	175.000000	0.325432  	175.000000	0.32886   	175.000000	9.27503e-05	
180.000000	0.249506  	180.000000	0.322725  	180.000000	0.320705  	180.000000	0.319272  	180.000000	0.322634  	180.000000	9.03677e-05	
185.000000	0.24516   	185.000000	0.31682   	185.000000	0.314852  	185.000000	0.313435  	185.000000	0.316732  	185.000000	8.81087e-05	
190.000000	0.241029  	190.000000	0.311213  	190.000000	0.309301  	190.000000	0.307897  	190.000000	0.311127  	190.000000	8.59639e-05	
195.000000	0.237099  	195.000000	0.305884  	195.000000	0.304039  	195.000000	0.302636  	195.000000	0.3058    	195.000000	8.39246e-05	
200.000000	0.233353  	200.000000	0.30081   	200.000000	0.299042  	200.000000	0.297631  	200.000000	0.300728  	200.000000	8.19833e-05	
210.000000	0.226368  	210.000000	0.291363  	210.000000	0.289719  	210.000000	0.28832   	210.000000	0.291285  	210.000000	7.8367e-05	
220.000000	0.219984  	220.000000	0.282746  	220.000000	0.281213  	220.000000	0.279837  	220.000000	0.282671  	220.000000	7.50667e-05	
230.000000	0.214125  	230.000000	0.274855  	230.000000	0.27346   	230.000000	0.272078  	230.000000	0.274783  	230.000000	7.20423e-05	
240.000000	0.20873   	240.000000	0.267601  	240.000000	0.266328  	240.000000	0.264954  	240.000000	0.267532  	240.000000	6.92601e-05	
250.000000	0.203745  	250.000000	0.260912  	250.000000	0.259748  	250.000000	0.258393  	250.000000	0.260846  	250.000000	6.66919e-05	
260.000000	0.199124  	260.000000	0.254725  	260.000000	0.253668  	260.000000	0.25233   	260.000000	0.254661  	260.000000	6.43136e-05	
270.000000	0.19483   	270.000000	0.248985  	270.000000	0.248041  	270.000000	0.246712  	270.000000	0.248923  	270.000000	6.21047e-05	
280.000000	0.190829  	280.000000	0.243646  	280.000000	0.242828  	280.000000	0.241492  	280.000000	0.243586  	280.000000	6.00475e-05	
290.000000	0.187091  	290.000000	0.238669  	290.000000	0.237956  	290.000000	0.236631  	290.000000	0.238611  	290.000000	5.81268e-05	
300.000000	0.183592  	300.000000	0.234018  	300.000000	0.233403  	300.000000	0.232093  	300.000000	0.233961  	300.000000	5.63291e-05	
310.000000	0.18031   	310.000000	0.229662  	310.000000	0.229147  	310.000000	0.227848  	310.000000	0.229608  	310.000000	5.4643e-05	
320.000000	0.177225  	320.000000	0.225576  	320.000000	0.225158  	320.000000	0.22387   	320.000000	0.225523  	320.000000	5.30583e-05	
330.000000	0.17432   	330.000000	0.221735  	330.000000	0.221408  	330.000000	0.220134  	330.000000	0.221683  	330.000000	5.15659e-05	
340.000000	0.17158   	340.000000	0.218118  	340.000000	0.217887  	340.000000	0.216619  	340.000000	0.218068  	340.000000	5.0158e-05	
350.000000	0.168992  	350.000000	0.214707  	350.000000	0.214579  	350.000000	0.213308  	350.000000	0.214658  	350.000000	4.88275e-05	
360.000000	0.166543  	360.000000	0.211485  	360.000000	0.211453  	360.000000	0.210183  	360.000000	0.211437  	360.000000	4.75681e-05	
370.000000	0.164223  	370.000000	0.208437  	370.000000	0.208489  	370.000000	0.20723   	370.000000	0.208391  	370.000000	4.63741e-05	
380.000000	0.162022  	380.000000	0.205551  	380.000000	0.205685  	380.000000	0.204436  	380.000000	0.205506  	380.000000	4.52407e-05	
390.000000	0.159932  	390.000000	0.202813  	390.000000	0.203029  	390.000000	0.201788  	390.000000	0.202769  	390.000000	4.41631e-05	
400.000000	0.157944  	400.000000	0.200214  	400.000000	0.200509  	400.000000	0.199276  	400.000000	0.200171  	400.000000	4.31374e-05	
410.000000	0.156051  	410.000000	0.197743  	410.000000	0.198115  	410.000000	0.19689   	410.000000	0.197701  	410.000000	4.21599e-05	
420.000000	0.154247  	420.000000	0.195391  	420.000000	0.195839  	420.000000	0.194621  	420.000000	0.19535   	420.000000	4.12271e-05	
430.000000	0.152526  	430.000000	0.193151  	430.000000	0.193672  	430.000000	0.192461  	430.000000	0.193111  	430.000000	4.03361e-05	
440.000000	0.150883  	440.000000	0.191015  	440.000000	0.191608  	440.000000	0.190403  	440.000000	0.190975  	440.000000	3.94841e-05	
450.000000	0.149313  	450.000000	0.188976  	450.000000	0.189639  	450.000000	0.188441  	450.000000	0.188937  	450.000000	3.86685e-05	
460.000000	0.14781   	460.000000	0.187028  	460.000000	0.187757  	460.000000	0.186567  	460.000000	0.186991  	460.000000	3.7887e-05	
470.000000	0.146372  	470.000000	0.185166  	470.000000	0.18596   	470.000000	0.184777  	470.000000	0.185129  	470.000000	3.71376e-05	
480.000000	0.144994  	480.000000	0.183385  	480.000000	0.184246  	480.000000	0.183066  	480.000000	0.183348  	480.000000	3.64182e-05	
490.000000	0.143672  	490.000000	0.181678  	490.000000	0.18261   	490.000000	0.181428  	490.000000	0.181643  	490.000000	3.57271e-05	
500.000000	0.142405  	500.000000	0.180043  	500.000000	0.181043  	500.000000	0.179859  	500.000000	0.180008  	500.000000	3.50626e-05	
520.000000	0.140017  	520.000000	0.176971  	520.000000	0.178089  	520.000000	0.176913  	520.000000	0.176937  	520.000000	3.38074e-05	
540.000000	0.137811  	540.000000	0.174138  	540.000000	0.175364  	540.000000	0.1742    	540.000000	0.174105  	540.000000	3.26418e-05	
560.000000	0.135768  	560.000000	0.17152   	560.000000	0.17285   	560.000000	0.171695  	560.000000	0.171488  	560.000000	3.15565e-05	
580.000000	0.133871  	580.000000	0.169095  	580.000000	0.170523  	580.000000	0.169377  	580.000000	0.169064  	580.000000	3.05432e-05	
600.000000	0.132106  	600.000000	0.166844  	600.000000	0.168364  	600.000000	0.167226  	600.000000	0.166815  	600.000000	2.95951e-05	
620.000000	0.130462  	620.000000	0.164751  	620.000000	0.166357  	620.000000	0.165228  	620.000000	0.164723  	620.000000	2.87059e-05	
640.000000	0.128927  	640.000000	0.162802  	640.000000	0.164489  	640.000000	0.163366  	640.000000	0.162774  	640.000000	2.78703e-05	
660.000000	0.127493  	660.000000	0.160984  	660.000000	0.162746  	660.000000	0.16163   	660.000000	0.160957  	660.000000	2.70835e-05	
680.000000	0.126151  	680.000000	0.159285  	680.000000	0.161118  	680.000000	0.160009  	680.000000	0.159259  	680.000000	2.63412e-05	
700.000000	0.124893  	700.000000	0.157696  	700.000000	0.159594  	700.000000	0.158491  	700.000000	0.157671  	700.000000	2.56399e-05	
720.000000	0.123713  	720.000000	0.156208  	720.000000	0.158166  	720.000000	0.157069  	720.000000	0.156183  	720.000000	2.49761e-05	
740.000000	0.122605  	740.000000	0.154812  	740.000000	0.156826  	740.000000	0.155735  	740.000000	0.154788  	740.000000	2.4347e-05	
760.000000	0.121563  	760.000000	0.153502  	760.000000	0.155568  	760.000000	0.154481  	760.000000	0.153478  	760.000000	2.37497e-05	
780.000000	0.120583  	780.000000	0.152271  	780.000000	0.154384  	780.000000	0.153303  	780.000000	0.152248  	780.000000	2.3182e-05	
800.000000	0.119659  	800.000000	0.151114  	800.000000	0.153269  	800.000000	0.152193  	800.000000	0.151091  	800.000000	2.26416e-05	
820.000000	0.11879   	820.000000	0.150025  	820.000000	0.152218  	820.000000	0.151146  	820.000000	0.150003  	820.000000	2.21267e-05	
840.000000	0.117969  	840.000000	0.148999  	840.000000	0.151227  	840.000000	0.150159  	840.000000	0.148977  	840.000000	2.16354e-05	
860.000000	0.117196  	860.000000	0.148032  	860.000000	0.15029   	860.000000	0.149227  	860.000000	0.148011  	860.000000	2.11661e-05	
880.000000	0.116465  	880.000000	0.147121  	880.000000	0.149405  	880.000000	0.148346  	880.000000	0.1471    	880.000000	2.07174e-05	
900.000000	0.115776  	900.000000	0.146261  	900.000000	0.148568  	900.000000	0.147513  	900.000000	0.14624   	900.000000	2.02879e-05	
920.000000	0.115124  	920.000000	0.145449  	920.000000	0.147775  	920.000000	0.146724  	920.000000	0.145429  	920.000000	1.98765e-05	
940.000000	0.114509  	940.000000	0.144682  	940.000000	0.147024  	940.000000	0.145976  	940.000000	0.144663  	940.000000	1.94819e-05	
960.000000	0.113927  	960.000000	0.143959  	960.000000	0.146313  	960.000000	0.145268  	960.000000	0.143939  	960.000000	1.91032e-05	
980.000000	0.113377  	980.000000	0.143275  	980.000000	0.145637  	980.000000	0.144595  	980.000000	0.143256  	980.000000	1.87394e-05	
1000.000000	0.112857  	1000.000000	0.142628  	1000.000000	0.144996  	1000.000000	0.143957  	1000.000000	0.14261   	1000.000000	1.83896e-05	
1020.000000	0.112366  	1020.000000	0.142017  	1020.000000	0.144387  	1020.000000	0.143352  	1020.000000	0.141999  	1020.000000	1.80531e-05	
1040.000000	0.111901  	1040.000000	0.14144   	1040.000000	0.143809  	1040.000000	0.142776  	1040.000000	0.141422  	1040.000000	1.7729e-05	
1060.000000	0.111462  	1060.000000	0.140894  	1060.000000	0.143259  	1060.000000	0.142229  	1060.000000	0.140877  	1060.000000	1.74168e-05	
1080.000000	0.111046  	1080.000000	0.140378  	1080.000000	0.142735  	1080.000000	0.141708  	1080.000000	0.140361  	1080.000000	1.71157e-05	
1100.000000	0.110654  	1100.000000	0.13989   	1100.000000	0.142237  	1100.000000	0.141213  	1100.000000	0.139874  	1100.000000	1.68251e-05	
1120.000000	0.110283  	1120.000000	0.13943   	1120.000000	0.141763  	1120.000000	0.140741  	1120.000000	0.139413  	1120.000000	1.65446e-05	
1140.000000	0.109933  	1140.000000	0.138994  	1140.000000	0.141312  	1140.000000	0.140292  	1140.000000	0.138978  	1140.000000	1.62736e-05	
1160.000000	0.109603  	1160.000000	0.138583  	1160.000000	0.140882  	1160.000000	0.139864  	1160.000000	0.138567  	1160.000000	1.60116e-05	
1180.000000	0.109291  	1180.000000	0.138194  	1180.000000	0.140472  	1180.000000	0.139456  	1180.000000	0.138179  	1180.000000	1.57581e-05	
1200.000000	0.108997  	1200.000000	0.137828  	1200.000000	0.140081  	1200.000000	0.139068  	1200.000000	0.137812  	1200.000000	1.55128e-05	
1220.000000	0.108721  	1220.000000	0.137482  	1220.000000	0.139709  	1220.000000	0.138697  	1220.000000	0.137467  	1220.000000	1.52753e-05	
1240.000000	0.10846   	1240.000000	0.137156  	1240.000000	0.139353  	1240.000000	0.138344  	1240.000000	0.137141  	1240.000000	1.50451e-05	
1260.000000	0.108215  	1260.000000	0.136848  	1260.000000	0.139014  	1260.000000	0.138006  	1260.000000	0.136834  	1260.000000	1.48221e-05	
1280.000000	0.107985  	1280.000000	0.136559  	1280.000000	0.13869   	1280.000000	0.137685  	1280.000000	0.136544  	1280.000000	1.46057e-05	
1300.000000	0.107769  	1300.000000	0.136287  	1300.000000	0.138381  	1300.000000	0.137378  	1300.000000	0.136273  	1300.000000	1.43958e-05	
1320.000000	0.107566  	1320.000000	0.136031  	1320.000000	0.138087  	1320.000000	0.137084  	1320.000000	0.136017  	1320.000000	1.4192e-05	
1340.000000	0.107377  	1340.000000	0.135791  	1340.000000	0.137805  	1340.000000	0.136805  	1340.000000	0.135777  	1340.000000	1.3994e-05	
1360.000000	0.1072    	1360.000000	0.135566  	1360.000000	0.137536  	1360.000000	0.136538  	1360.000000	0.135552  	1360.000000	1.38017e-05	
1380.000000	0.107035  	1380.000000	0.135355  	1380.000000	0.13728   	1380.000000	0.136282  	1380.000000	0.135341  	1380.000000	1.36148e-05	
1400.000000	0.106882  	1400.000000	0.135158  	1400.000000	0.137035  	1400.000000	0.136039  	1400.000000	0.135145  	1400.000000	1.3433e-05	
1420.000000	0.106739  	1420.000000	0.134974  	1420.000000	0.136801  	1420.000000	0.135806  	1420.000000	0.134961  	1420.000000	1.32562e-05	
1440.000000	0.106608  	1440.000000	0.134803  	1440.000000	0.136577  	1440.000000	0.135584  	1440.000000	0.13479   	1440.000000	1.30841e-05	
1460.000000	0.106486  	1460.000000	0.134644  	1460.000000	0.136364  	1460.000000	0.135372  	1460.000000	0.134631  	1460.000000	1.29166e-05	
1480.000000	0.106375  	1480.000000	0.134496  	1480.000000	0.13616   	1480.000000	0.13517   	1480.000000	0.134483  	1480.000000	1.27534e-05	
1500.000000	0.106273  	1500.000000	0.13436   	1500.000000	0.135965  	1500.000000	0.134976  	1500.000000	0.134347  	1500.000000	1.25945e-05	
1520.000000	0.10618   	1520.000000	0.134234  	1520.000000	0.135779  	1520.000000	0.134791  	1520.000000	0.134222  	1520.000000	1.24395e-05	
1540.000000	0.106096  	1540.000000	0.134119  	1540.000000	0.135601  	1540.000000	0.134615  	1540.000000	0.134107  	1540.000000	1.22885e-05	
1560.000000	0.10602   	1560.000000	0.134014  	1560.000000	0.135432  	1560.000000	0.134447  	1560.000000	0.134001  	1560.000000	1.21412e-05	
1580.000000	0.105953  	1580.000000	0.133918  	1580.000000	0.13527   	1580.000000	0.134286  	1580.000000	0.133906  	1580.000000	1.19975e-05	
1600.000000	0.105893  	1600.000000	0.133831  	1600.000000	0.135116  	1600.000000	0.134133  	1600.000000	0.133819  	1600.000000	1.18573e-05	
1620.000000	0.105841  	1620.000000	0.133753  	1620.000000	0.134968  	1620.000000	0.133987  	1620.000000	0.133742  	1620.000000	1.17204e-05	
1640.000000	0.105797  	1640.000000	0.133684  	1640.000000	0.134828  	1640.000000	0.133847  	1640.000000	0.133673  	1640.000000	1.15867e-05	
1660.000000	0.10576   	1660.000000	0.133623  	1660.000000	0.134694  	1660.000000	0.133714  	1660.000000	0.133612  	1660.000000	1.14561e-05	
1680.000000	0.105729  	1680.000000	0.13357   	1680.000000	0.134566  	1680.000000	0.133587  	1680.000000	0.133559  	1680.000000	1.13286e-05	
1700.000000	0.105706  	1700.000000	0.133525  	1700.000000	0.134444  	1700.000000	0.133467  	1700.000000	0.133514  	1700.000000	1.12039e-05	
1750.000000	0.105675  	1750.000000	0.133443  	1750.000000	0.134164  	1750.000000	0.133189  	1750.000000	0.133433  	1750.000000	1.09043e-05	
1800.000000	0.105681  	1800.000000	0.133404  	1800.000000	0.133917  	1800.000000	0.132944  	1800.000000	0.133394  	1800.000000	1.06208e-05	
1850.000000	0.105722  	1850.000000	0.133405  	1850.000000	0.133699  	1850.000000	0.132728  	1850.000000	0.133394  	1850.000000	1.03521e-05	
1900.000000	0.105795  	1900.000000	0.133441  	1900.000000	0.133508  	1900.000000	0.132539  	1900.000000	0.133431  	1900.000000	1.00971e-05	
1950.000000	0.105899  	1950.000000	0.13351   	1950.000000	0.133342  	1950.000000	0.132375  	1950.000000	0.1335    	1950.000000	9.85466e-06	
2000.000000	0.10603   	2000.000000	0.13361   	2000.000000	0.133197  	2000.000000	0.132232  	2000.000000	0.1336    	2000.000000	9.62397e-06	
2100.000000	0.10637   	2100.000000	0.133894  	2100.000000	0.132968  	2100.000000	0.132007  	2100.000000	0.133884  	2100.000000	9.19445e-06	
2200.000000	0.106801  	2200.000000	0.134276  	2200.000000	0.132808  	2200.000000	0.131849  	2200.000000	0.134267  	2200.000000	8.80271e-06	
2300.000000	0.107314  	2300.000000	0.134744  	2300.000000	0.132705  	2300.000000	0.131749  	2300.000000	0.134736  	2300.000000	8.44391e-06	
2400.000000	0.1079    	2400.000000	0.135287  	2400.000000	0.13265   	2400.000000	0.131696  	2400.000000	0.135279  	2400.000000	8.11404e-06	
2500.000000	0.108551  	2500.000000	0.135897  	2500.000000	0.132637  	2500.000000	0.131685  	2500.000000	0.135889  	2500.000000	7.8097e-06	
2600.000000	0.10926   	2600.000000	0.136564  	2600.000000	0.132659  	2600.000000	0.131709  	2600.000000	0.136557  	2600.000000	7.52801e-06	
2700.000000	0.110022  	2700.000000	0.137283  	2700.000000	0.132711  	2700.000000	0.131763  	2700.000000	0.137276  	2700.000000	7.2665e-06	
2800.000000	0.110833  	2800.000000	0.138049  	2800.000000	0.132789  	2800.000000	0.131842  	2800.000000	0.138042  	2800.000000	7.02306e-06	
2900.000000	0.111688  	2900.000000	0.138855  	2900.000000	0.132888  	2900.000000	0.131944  	2900.000000	0.138848  	2900.000000	6.79587e-06	
3000.000000	0.112584  	3000.000000	0.139699  	3000.000000	0.133007  	3000.000000	0.132064  	3000.000000	0.139692  	3000.000000	6.58334e-06	
3200.000000	0.114486  	3200.000000	0.141483  	3200.000000	0.133291  	3200.000000	0.13235   	3200.000000	0.141477  	3200.000000	6.19685e-06	
3400.000000	0.116517  	3400.000000	0.143377  	3400.000000	0.133623  	3400.000000	0.132684  	3400.000000	0.143371  	3400.000000	5.85441e-06	
3600.000000	0.118662  	3600.000000	0.145361  	3600.000000	0.13399   	3600.000000	0.133053  	3600.000000	0.145356  	3600.000000	5.54883e-06	
3800.000000	0.120907  	3800.000000	0.147422  	3800.000000	0.134383  	3800.000000	0.133448  	3800.000000	0.147417  	3800.000000	5.2744e-06	
4000.000000	0.123242  	4000.000000	0.149546  	4000.000000	0.134795  	4000.000000	0.133861  	4000.000000	0.149541  	4000.000000	5.02656e-06	
4200.000000	0.125658  	4200.000000	0.151724  	4200.000000	0.13522   	4200.000000	0.134288  	4200.000000	0.151719  	4200.000000	4.80159e-06	
4400.000000	0.128148  	4400.000000	0.153949  	4400.000000	0.135653  	4400.000000	0.134723  	4400.000000	0.153944  	4400.000000	4.59643e-06	
4600.000000	0.130706  	4600.000000	0.156213  	4600.000000	0.136092  	4600.000000	0.135163  	4600.000000	0.156209  	4600.000000	4.40855e-06	
4800.000000	0.133328  	4800.000000	0.158512  	4800.000000	0.136534  	4800.000000	0.135606  	4800.000000	0.158508  	4800.000000	4.23584e-06	
5000.000000	0.136008  	5000.000000	0.16084   	5000.000000	0.136976  	5000.000000	0.13605   	5000.000000	0.160836  	5000.000000	4.07651e-06	
5250.000000	0.139437  	5250.000000	0.163787  	5250.000000	0.137528  	5250.000000	0.136604  	5250.000000	0.163783  	5250.000000	3.8939e-06	
5500.000000	0.142947  	5500.000000	0.166768  	5500.000000	0.138076  	5500.000000	0.137153  	5500.000000	0.166764  	5500.000000	3.72738e-06	
6000.000000	0.150191  	6000.000000	0.172813  	6000.000000	0.139156  	6000.000000	0.138236  	6000.000000	0.17281   	6000.000000	3.43472e-06	
6500.000000	0.15771   	6500.000000	0.178945  	6500.000000	0.140206  	6500.000000	0.139289  	6500.000000	0.178942  	6500.000000	3.18576e-06	
7000.000000	0.165482  	7000.000000	0.18514   	7000.000000	0.141224  	7000.000000	0.140307  	7000.000000	0.185137  	7000.000000	2.97132e-06	
7500.000000	0.173491  	7500.000000	0.191383  	7500.000000	0.142206  	7500.000000	0.141291  	7500.000000	0.19138   	7500.000000	2.78462e-06	
8000.000000	0.181726  	8000.000000	0.197662  	8000.000000	0.143153  	8000.000000	0.142239  	8000.000000	0.19766   	8000.000000	2.62057e-06	
8500.000000	0.190176  	8500.000000	0.203968  	8500.000000	0.144065  	8500.000000	0.143152  	8500.000000	0.203966  	8500.000000	2.47525e-06	
9000.000000	0.198835  	9000.000000	0.210294  	9000.000000	0.144941  	9000.000000	0.144032  	9000.000000	0.210292  	9000.000000	2.3456e-06	
9500.000000	0.207696  	9500.000000	0.216635  	9500.000000	0.145786  	9500.000000	0.14488   	9500.000000	0.216633  	9500.000000	2.2292e-06	
10000.000000	0.216755  	10000.000000	0.222987  	10000.000000	0.146601  	10000.000000	0.145697  	10000.000000	0.222985  	10000.000000	2.12409e-06	
11000.000000	0.235454  	11000.000000	0.235711  	11000.000000	0.148146  	11000.000000	0.147247  	11000.000000	0.235709  	11000.000000	1.94172e-06	
12000.000000	0.254909  	12000.000000	0.248446  	12000.000000	0.149588  	12000.000000	0.148693  	12000.000000	0.248445  	12000.000000	1.78889e-06	
13000.000000	0.275107  	13000.000000	0.261183  	13000.000000	0.150936  	13000.000000	0.150047  	13000.000000	0.261181  	13000.000000	1.65891e-06	
14000.000000	0.296036  	14000.000000	0.273911  	14000.000000	0.1522    	14000.000000	0.151319  	14000.000000	0.27391   	14000.000000	1.54697e-06	
15000.000000	0.317691  	15000.000000	0.286627  	15000.000000	0.15339   	15000.000000	0.152518  	15000.000000	0.286626  	15000.000000	1.44953e-06	
16000.000000	0.340068  	16000.000000	0.299327  	16000.000000	0.154515  	16000.000000	0.153651  	16000.000000	0.299325  	16000.000000	1.36393e-06	
17000.000000	0.363163  	17000.000000	0.312008  	17000.000000	0.155582  	17000.000000	0.154725  	17000.000000	0.312006  	17000.000000	1.28812e-06	
18000.000000	0.386976  	18000.000000	0.324669  	18000.000000	0.156597  	18000.000000	0.155744  	18000.000000	0.324667  	18000.000000	1.22049e-06	
19000.000000	0.411507  	19000.000000	0.337309  	19000.000000	0.157564  	19000.000000	0.156715  	19000.000000	0.337308  	19000.000000	1.15977e-06	
20000.000000	0.436755  	20000.000000	0.349928  	20000.000000	0.158488  	20000.000000	0.157641  	20000.000000	0.349927  	20000.000000	1.10496e-06	
21000.000000	0.462723  	21000.000000	0.362525  	21000.000000	0.159368  	21000.000000	0.158527  	21000.000000	0.362524  	21000.000000	1.05522e-06	
22000.000000	0.48941   	22000.000000	0.375101  	22000.000000	0.160205  	22000.000000	0.159375  	22000.000000	0.3751    	22000.000000	1.00987e-06	
23000.000000	0.51682   	23000.000000	0.387656  	23000.000000	0.161011  	23000.000000	0.160188  	23000.000000	0.387655  	23000.000000	9.6836e-07	
24000.000000	0.544955  	24000.000000	0.400189  	24000.000000	0.161786  	24000.000000	0.16097   	24000.000000	0.400188  	24000.000000	9.30207e-07	
25000.000000	0.573816  	25000.000000	0.412702  	25000.000000	0.16253   	25000.000000	0.161722  	25000.000000	0.412701  	25000.000000	8.95021e-07	
26000.000000	0.603407  	26000.000000	0.425194  	26000.000000	0.163243  	26000.000000	0.162447  	26000.000000	0.425193  	26000.000000	8.62465e-07	
27000.000000	0.63373   	27000.000000	0.437666  	27000.000000	0.163931  	27000.000000	0.163146  	27000.000000	0.437665  	27000.000000	8.32253e-07	
28000.000000	0.664789  	28000.000000	0.450118  	28000.000000	0.164595  	28000.000000	0.163822  	28000.000000	0.450118  	28000.000000	8.04138e-07	
29000.000000	0.696586  	29000.000000	0.462551  	29000.000000	0.165238  	29000.000000	0.164475  	29000.000000	0.462551  	29000.000000	7.77907e-07	
30000.000000	0.729125  	30000.000000	0.474966  	30000.000000	0.16586   	30000.000000	0.165107  	30000.000000	0.474965  	30000.000000	7.53376e-07	
32000.000000	0.796443  	32000.000000	0.49974   	32000.000000	0.167048  	32000.000000	0.166315  	32000.000000	0.499739  	32000.000000	7.08788e-07	
34000.000000	0.86677   	34000.000000	0.524443  	34000.000000	0.168165  	34000.000000	0.167452  	34000.000000	0.524443  	34000.000000	6.69302e-07	
36000.000000	0.940136  	36000.000000	0.54908   	36000.000000	0.169217  	36000.000000	0.168528  	36000.000000	0.549079  	36000.000000	6.34085e-07	
38000.000000	1.01657   	38000.000000	0.573652  	38000.000000	0.170211  	38000.000000	0.169548  	38000.000000	0.573652  	38000.000000	6.02474e-07	
40000.000000	1.09611   	40000.000000	0.598164  	40000.000000	0.171153  	40000.000000	0.170518  	40000.000000	0.598163  	40000.000000	5.73938e-07	
42000.000000	1.17877   	42000.000000	0.622616  	42000.000000	0.172048  	42000.000000	0.171443  	42000.000000	0.622616  	42000.000000	5.48046e-07	
44000.000000	1.2646    	44000.000000	0.647013  	44000.000000	0.172902  	44000.000000	0.172325  	44000.000000	0.647012  	44000.000000	5.24444e-07	
46000.000000	1.35363   	46000.000000	0.671356  	46000.000000	0.173717  	46000.000000	0.17317   	46000.000000	0.671355  	46000.000000	5.02839e-07	
48000.000000	1.4459    	48000.000000	0.695647  	48000.000000	0.174498  	48000.000000	0.17398   	48000.000000	0.695646  	48000.000000	4.82985e-07	
50000.000000	1.54142   	50000.000000	0.719888  	50000.000000	0.175245  	50000.000000	0.174758  	50000.000000	0.719888  	50000.000000	4.64677e-07	
