Energy (MeV/u)1	0 - [He-base] F.Hubert et al, AD&ND Tables 46(1990)1	Energy (MeV/u)2	1 - [H -base] J.F.Ziegler et al, Pergamon Press, NY (low energy)	Energy (MeV/u)3	2 - ATIMA 1.2  LS-theory (recommended for high energy)	Energy (MeV/u)4	3 - ATIMA 1.2  without LS-correction	Energy (MeV/u)5	4 - electrical component of [1] - J.F.Ziegler et al	Energy (MeV/u)6	5 - nuclear component of [1] - J.F.Ziegler et al	
0.001000	2.20098   	0.001000	2.20098   	0.001000	2.1879    	0.001000	2.1879    	0.001000	1.07249   	0.001000	1.12849   	
0.002000	2.29434   	0.002000	2.29434   	0.002000	2.28032   	0.002000	2.28032   	0.002000	1.40529   	0.002000	0.88905   	
0.005000	2.5797    	0.005000	2.5797    	0.005000	2.57072   	0.005000	2.57072   	0.005000	2.01056   	0.005000	0.56914   	
0.008000	2.84897   	0.008000	2.84897   	0.008000	2.84791   	0.008000	2.84791   	0.008000	2.41705   	0.008000	0.431922  	
0.010000	3.01359   	0.010000	3.01359   	0.010000	3.01825   	0.010000	3.01825   	0.010000	2.63814   	0.010000	0.375454  	
0.015000	3.40532   	0.015000	3.40532   	0.015000	3.40758   	0.015000	3.40758   	0.015000	3.118     	0.015000	0.287315  	
0.020000	3.81199   	0.020000	3.81199   	0.020000	3.83556   	0.020000	3.83556   	0.020000	3.57647   	0.020000	0.235521  	
0.025000	4.27774   	0.025000	4.27774   	0.025000	4.2613    	0.025000	4.2613    	0.025000	4.07862   	0.025000	0.199125  	
0.030000	4.72839   	0.030000	4.72839   	0.030000	4.64366   	0.030000	4.64366   	0.030000	4.55391   	0.030000	0.174484  	
0.035000	5.07149   	0.035000	5.07149   	0.035000	5.01302   	0.035000	5.01302   	0.035000	4.91574   	0.035000	0.155751  	
0.040000	5.34732   	0.040000	5.34732   	0.040000	5.36865   	0.040000	5.36865   	0.040000	5.20634   	0.040000	0.140977  	
0.045000	5.60495   	0.045000	5.60495   	0.045000	5.71017   	0.045000	5.71017   	0.045000	5.47596   	0.045000	0.128993  	
0.050000	5.84499   	0.050000	5.84499   	0.050000	6.03738   	0.050000	6.03738   	0.050000	5.72594   	0.050000	0.119057  	
0.055000	6.11765   	0.055000	6.11765   	0.055000	6.3502    	0.055000	6.3502    	0.055000	6.00698   	0.055000	0.110671  	
0.060000	6.3773    	0.060000	6.3773    	0.060000	6.64866   	0.060000	6.64866   	0.060000	6.27381   	0.060000	0.103487  	
0.070000	6.85814   	0.070000	6.85814   	0.070000	7.20301   	0.070000	7.20301   	0.070000	6.76634   	0.070000	0.0918003 	
0.080000	7.35737   	0.080000	7.35737   	0.080000	7.7021    	0.080000	7.7021    	0.080000	7.27469   	0.080000	0.0826725 	
0.090000	7.80393   	0.090000	7.80393   	0.090000	8.14843   	0.090000	8.14843   	0.090000	7.72861   	0.090000	0.075327  	
0.100000	8.19458   	0.100000	8.19458   	0.100000	8.54507   	0.100000	8.54507   	0.100000	8.1253    	0.100000	0.069276  	
0.120000	8.84415   	0.120000	8.84415   	0.120000	9.20323   	0.120000	9.20323   	0.120000	8.78428   	0.120000	0.0598666 	
0.140000	9.32813   	0.140000	9.32813   	0.140000	9.7056    	0.140000	9.7056    	0.140000	9.27527   	0.140000	0.0528626 	
0.160000	9.68395   	0.160000	9.68395   	0.160000	10.0805   	0.160000	10.0805   	0.160000	9.63653   	0.160000	0.0474284 	
0.180000	9.94376   	0.180000	9.94376   	0.180000	10.3533   	0.180000	10.3533   	0.180000	9.90068   	0.180000	0.0430787 	
0.200000	10.1331   	0.200000	10.1331   	0.200000	10.5458   	0.200000	10.5458   	0.200000	10.0936   	0.200000	0.0395117 	
0.250000	10.379    	0.250000	10.379    	0.250000	10.7847   	0.250000	10.7847   	0.250000	10.3462   	0.250000	0.0328645 	
0.300000	10.5131   	0.300000	10.5131   	0.300000	10.8183   	0.300000	10.8183   	0.300000	10.4848   	0.300000	0.0282418 	
0.350000	10.558    	0.350000	10.558    	0.350000	10.7515   	0.350000	10.7515   	0.350000	10.5332   	0.350000	0.0248266 	
0.400000	10.5614   	0.400000	10.5614   	0.400000	10.6384   	0.400000	10.6384   	0.400000	10.5393   	0.400000	0.0221927 	
0.450000	10.5884   	0.450000	10.5884   	0.450000	10.5442   	0.450000	10.5442   	0.450000	10.5683   	0.450000	0.0200949 	
0.500000	10.5925   	0.500000	10.5925   	0.500000	10.4907   	0.500000	10.4907   	0.500000	10.5742   	0.500000	0.0183818 	
0.600000	10.337    	0.600000	10.337    	0.600000	10.3217   	0.600000	10.3217   	0.600000	10.3213   	0.600000	0.0157454 	
0.700000	10.0605   	0.700000	10.0605   	0.700000	10.1096   	0.700000	10.1096   	0.700000	10.0467   	0.700000	0.0138058 	
0.800000	9.79347   	0.800000	9.79347   	0.800000	9.85251   	0.800000	9.85251   	0.800000	9.78116   	0.800000	0.0123148 	
0.900000	9.51265   	0.900000	9.51265   	0.900000	9.6025    	0.900000	9.6025    	0.900000	9.50152   	0.900000	0.0111305 	
1.000000	9.22664   	1.000000	9.22664   	1.000000	9.36082   	1.000000	9.36082   	1.000000	9.21648   	1.000000	0.0101656 	
1.250000	8.74279   	1.250000	8.74279   	1.250000	8.79438   	1.250000	8.79438   	1.250000	8.73441   	1.250000	0.00838353	
1.500000	8.27654   	1.500000	8.27654   	1.500000	8.23628   	1.500000	8.23628   	1.500000	8.26938   	1.500000	0.0071572 	
1.750000	7.8439    	1.750000	7.8439    	1.750000	7.75476   	1.750000	7.75476   	1.750000	7.83764   	1.750000	0.00625862	
2.000000	7.4305    	2.000000	7.4305    	2.000000	7.33018   	2.000000	7.33018   	2.000000	7.42493   	2.000000	0.00557018	
2.250000	7.01706   	2.250000	7.01706   	2.250000	6.95109   	2.250000	6.95109   	2.250000	7.01203   	2.250000	0.00502488	
2.500000	6.75868   	2.500000	6.64693   	2.500000	6.60984   	2.500000	6.60984   	2.500000	6.64235   	2.500000	0.00458166	
3.000000	6.09388   	3.000000	5.99295   	3.000000	6.01956   	3.000000	6.01956   	3.000000	5.98905   	3.000000	0.00390351	
3.500000	5.55162   	3.500000	5.45997   	3.500000	5.5268    	3.500000	5.5268    	3.500000	5.45656   	3.500000	0.00340781	
4.000000	5.1016    	4.000000	5.02105   	4.000000	5.10947   	4.000000	5.10947   	4.000000	5.01802   	4.000000	0.00302877	
4.500000	4.72235   	4.500000	4.65129   	4.500000	4.75167   	4.500000	4.75167   	4.500000	4.64856   	4.500000	0.00272905	
5.000000	4.3984    	5.000000	4.33397   	5.000000	4.44162   	5.000000	4.44162   	5.000000	4.33148   	5.000000	0.00248578	
5.500000	4.11846   	5.500000	4.06274   	5.500000	4.17043   	5.500000	4.17043   	5.500000	4.06046   	5.500000	0.00228417	
6.000000	3.87406   	6.000000	3.8251    	6.000000	3.93123   	6.000000	3.93123   	6.000000	3.82299   	6.000000	0.00211421	
6.500000	3.65879   	6.500000	3.61494   	6.500000	3.71869   	6.500000	3.71869   	6.500000	3.61297   	6.500000	0.0019689 	
7.000000	3.4677    	7.000000	3.42761   	7.000000	3.52858   	7.000000	3.52858   	7.000000	3.42577   	7.000000	0.00184315	
7.500000	3.29687   	7.500000	3.25949   	7.500000	3.35753   	7.500000	3.35753   	7.500000	3.25776   	7.500000	0.00173321	
8.000000	3.14323   	8.000000	3.10772   	8.000000	3.20279   	8.000000	3.20279   	8.000000	3.10608   	8.000000	0.00163623	
8.500000	3.00426   	8.500000	2.96998   	8.500000	3.06213   	8.500000	3.06213   	8.500000	2.96843   	8.500000	0.00155001	
9.000000	2.87794   	9.000000	2.84439   	9.000000	2.9337    	9.000000	2.9337    	9.000000	2.84292   	9.000000	0.00147283	
9.500000	2.76259   	9.500000	2.72939   	9.500000	2.81597   	9.500000	2.81597   	9.500000	2.72799   	9.500000	0.00140332	
10.000000	2.65683   	10.000000	2.70397   	10.000000	2.70764   	10.000000	2.70764   	10.000000	2.70263   	10.000000	0.00134036	
11.000000	2.46959   	11.000000	2.51609   	11.000000	2.51233   	11.000000	2.51531   	11.000000	2.51486   	11.000000	0.0012307 	
12.000000	2.30891   	12.000000	2.35372   	12.000000	2.34432   	12.000000	2.34935   	12.000000	2.35258   	12.000000	0.00113834	
13.000000	2.16944   	13.000000	2.21201   	13.000000	2.19836   	13.000000	2.20476   	13.000000	2.21095   	13.000000	0.00105943	
14.000000	2.04719   	14.000000	2.08727   	14.000000	2.07044   	14.000000	2.07775   	14.000000	2.08628   	14.000000	0.0009912 	
15.000000	1.93911   	15.000000	1.97663   	15.000000	1.95746   	15.000000	1.96534   	15.000000	1.97569   	15.000000	0.000931588	
16.000000	1.84285   	16.000000	1.87782   	16.000000	1.85699   	16.000000	1.86521   	16.000000	1.87694   	16.000000	0.000879036	
17.000000	1.75653   	17.000000	1.78905   	17.000000	1.7671    	17.000000	1.7755    	17.000000	1.78821   	17.000000	0.000832343	
18.000000	1.67868   	18.000000	1.70885   	18.000000	1.68628   	18.000000	1.69471   	18.000000	1.70806   	18.000000	0.000790567	
19.000000	1.60808   	19.000000	1.63605   	19.000000	1.61325   	19.000000	1.6216    	19.000000	1.63529   	19.000000	0.00075296	
20.000000	1.54376   	20.000000	1.56965   	20.000000	1.54693   	20.000000	1.55517   	20.000000	1.56893   	20.000000	0.000718919	
21.000000	1.4849    	21.000000	1.50886   	21.000000	1.48647   	21.000000	1.49457   	21.000000	1.50817   	21.000000	0.000687952	
22.000000	1.43082   	22.000000	1.45298   	22.000000	1.43117   	22.000000	1.4391    	22.000000	1.45232   	22.000000	0.000659655	
23.000000	1.38095   	23.000000	1.40144   	23.000000	1.38044   	23.000000	1.38816   	23.000000	1.4008    	23.000000	0.000633692	
24.000000	1.33482   	24.000000	1.35375   	24.000000	1.33378   	24.000000	1.34124   	24.000000	1.35314   	24.000000	0.000609782	
25.000000	1.29201   	25.000000	1.30949   	25.000000	1.29075   	25.000000	1.29791   	25.000000	1.30891   	25.000000	0.000587687	
27.000000	1.21499   	27.000000	1.22989   	27.000000	1.21402   	27.000000	1.22057   	27.000000	1.22934   	27.000000	0.000548163	
29.000000	1.14761   	29.000000	1.16028   	29.000000	1.14774   	29.000000	1.15371   	29.000000	1.15977   	29.000000	0.000513824	
31.000000	1.08815   	31.000000	1.09889   	31.000000	1.08894   	31.000000	1.09411   	31.000000	1.0984    	31.000000	0.000483699	
33.000000	1.03526   	33.000000	1.04433   	33.000000	1.03575   	33.000000	1.04005   	33.000000	1.04387   	33.000000	0.000457048	
35.000000	0.987895  	35.000000	0.995505  	35.000000	0.988138  	35.000000	0.991688  	35.000000	0.995071  	35.000000	0.000433295	
38.000000	0.925419  	38.000000	0.931186  	38.000000	0.925393  	38.000000	0.927961  	38.000000	0.930784  	38.000000	0.000402131	
41.000000	0.871348  	41.000000	0.875606  	41.000000	0.871011  	41.000000	0.872873  	41.000000	0.87523   	41.000000	0.000375313	
44.000000	0.824064  	44.000000	0.82708   	44.000000	0.823448  	44.000000	0.824754  	44.000000	0.826728  	44.000000	0.000351981	
47.000000	0.782345  	47.000000	0.784334  	47.000000	0.781532  	47.000000	0.782342  	47.000000	0.784003  	47.000000	0.000331487	
50.000000	0.745244  	50.000000	0.746383  	50.000000	0.744212  	50.000000	0.744664  	50.000000	0.74607   	50.000000	0.000313338	
55.000000	0.691735  	55.000000	0.691764  	55.000000	0.69037   	55.000000	0.690392  	55.000000	0.691477  	55.000000	0.00028729	
60.000000	0.646492  	60.000000	0.645708  	60.000000	0.644906  	60.000000	0.644578  	60.000000	0.645443  	60.000000	0.000265388	
65.000000	0.607706  	65.000000	0.60633   	65.000000	0.605987  	65.000000	0.605364  	65.000000	0.606083  	65.000000	0.000246706	
70.000000	0.574061  	70.000000	0.572261  	70.000000	0.572192  	70.000000	0.571404  	70.000000	0.57203   	70.000000	0.000230573	
75.000000	0.54458   	75.000000	0.542485  	75.000000	0.542668  	75.000000	0.541694  	75.000000	0.542269  	75.000000	0.000216495	
80.000000	0.518519  	80.000000	0.516231  	80.000000	0.51655   	80.000000	0.515476  	80.000000	0.516027  	80.000000	0.000204098	
85.000000	0.495305  	85.000000	0.492903  	85.000000	0.493313  	85.000000	0.492161  	85.000000	0.49271   	85.000000	0.000193095	
90.000000	0.474485  	90.000000	0.472033  	90.000000	0.472506  	90.000000	0.471286  	90.000000	0.47185   	90.000000	0.000183261	
95.000000	0.455699  	95.000000	0.453248  	95.000000	0.453762  	95.000000	0.452485  	95.000000	0.453073  	95.000000	0.000174416	
100.000000	0.438657  	100.000000	0.436247  	100.000000	0.436785  	100.000000	0.43546   	100.000000	0.436081  	100.000000	0.000166417	
105.000000	0.423121  	105.000000	0.420787  	105.000000	0.421336  	105.000000	0.419968  	105.000000	0.420628  	105.000000	0.000159145	
110.000000	0.408895  	110.000000	0.406664  	110.000000	0.407214  	110.000000	0.40581   	110.000000	0.406511  	110.000000	0.000152506	
115.000000	0.395816  	115.000000	0.39371   	115.000000	0.394253  	115.000000	0.392819  	115.000000	0.393564  	115.000000	0.000146419	
120.000000	0.383748  	120.000000	0.381786  	120.000000	0.382322  	120.000000	0.380855  	120.000000	0.381645  	120.000000	0.000140817	
125.000000	0.372575  	125.000000	0.370772  	125.000000	0.371281  	125.000000	0.369801  	125.000000	0.370636  	125.000000	0.000135644	
130.000000	0.362198  	130.000000	0.360567  	130.000000	0.361021  	130.000000	0.359556  	130.000000	0.360436  	130.000000	0.000130851	
135.000000	0.352534  	135.000000	0.351084  	135.000000	0.351513  	135.000000	0.350033  	135.000000	0.350957  	135.000000	0.000126398	
140.000000	0.343509  	140.000000	0.342249  	140.000000	0.342666  	140.000000	0.34116   	140.000000	0.342126  	140.000000	0.000122249	
145.000000	0.335061  	145.000000	0.333997  	145.000000	0.334382  	145.000000	0.33287   	145.000000	0.333878  	145.000000	0.000118374	
150.000000	0.327134  	150.000000	0.326272  	150.000000	0.326604  	150.000000	0.325109  	150.000000	0.326157  	150.000000	0.000114746	
155.000000	0.318933  	155.000000	0.319025  	155.000000	0.31933   	155.000000	0.317827  	155.000000	0.318913  	155.000000	0.000111342	
160.000000	0.312315  	160.000000	0.312212  	160.000000	0.312493  	160.000000	0.310981  	160.000000	0.312104  	160.000000	0.000108141	
165.000000	0.306073  	165.000000	0.305796  	165.000000	0.306029  	165.000000	0.304533  	165.000000	0.305691  	165.000000	0.000105126	
170.000000	0.300175  	170.000000	0.299743  	170.000000	0.299946  	170.000000	0.29845   	170.000000	0.299641  	170.000000	0.000102281	
175.000000	0.294594  	175.000000	0.294022  	175.000000	0.294209  	175.000000	0.292701  	175.000000	0.293922  	175.000000	9.95921e-05	
180.000000	0.289304  	180.000000	0.288607  	180.000000	0.28876   	180.000000	0.287259  	180.000000	0.28851   	180.000000	9.70457e-05	
185.000000	0.284283  	185.000000	0.283474  	185.000000	0.283585  	185.000000	0.282101  	185.000000	0.28338   	185.000000	9.46311e-05	
190.000000	0.279511  	190.000000	0.278602  	190.000000	0.278675  	190.000000	0.277205  	190.000000	0.27851   	190.000000	9.23382e-05	
195.000000	0.274969  	195.000000	0.273971  	195.000000	0.274021  	195.000000	0.272552  	195.000000	0.273881  	195.000000	9.01579e-05	
200.000000	0.270641  	200.000000	0.269563  	200.000000	0.269602  	200.000000	0.268124  	200.000000	0.269475  	200.000000	8.8082e-05	
210.000000	0.262567  	210.000000	0.261357  	210.000000	0.261346  	210.000000	0.259881  	210.000000	0.261273  	210.000000	8.42143e-05	
220.000000	0.255187  	220.000000	0.253874  	220.000000	0.253808  	220.000000	0.252367  	220.000000	0.253793  	220.000000	8.06838e-05	
230.000000	0.248414  	230.000000	0.247022  	230.000000	0.246937  	230.000000	0.245489  	230.000000	0.246945  	230.000000	7.74475e-05	
240.000000	0.242176  	240.000000	0.240726  	240.000000	0.24061   	240.000000	0.239172  	240.000000	0.240651  	240.000000	7.44699e-05	
250.000000	0.23641   	250.000000	0.23492   	250.000000	0.234768  	250.000000	0.233349  	250.000000	0.234848  	250.000000	7.17208e-05	
260.000000	0.231066  	260.000000	0.22955   	260.000000	0.229367  	260.000000	0.227966  	260.000000	0.229481  	260.000000	6.91744e-05	
270.000000	0.226099  	270.000000	0.224569  	270.000000	0.224367  	270.000000	0.222975  	270.000000	0.224502  	270.000000	6.6809e-05	
280.000000	0.22147   	280.000000	0.219936  	280.000000	0.219735  	280.000000	0.218337  	280.000000	0.219872  	280.000000	6.46056e-05	
290.000000	0.217145  	290.000000	0.215618  	290.000000	0.215402  	290.000000	0.214014  	290.000000	0.215555  	290.000000	6.2548e-05	
300.000000	0.213096  	300.000000	0.211582  	300.000000	0.21135   	300.000000	0.209978  	300.000000	0.211522  	300.000000	6.06219e-05	
310.000000	0.209297  	310.000000	0.207803  	310.000000	0.207561  	310.000000	0.206201  	310.000000	0.207744  	310.000000	5.88151e-05	
320.000000	0.205727  	320.000000	0.204258  	320.000000	0.204008  	320.000000	0.202659  	320.000000	0.204201  	320.000000	5.71167e-05	
330.000000	0.202364  	330.000000	0.200925  	330.000000	0.200667  	330.000000	0.199332  	330.000000	0.20087   	330.000000	5.5517e-05	
340.000000	0.199192  	340.000000	0.197787  	340.000000	0.197528  	340.000000	0.196201  	340.000000	0.197733  	340.000000	5.40076e-05	
350.000000	0.196196  	350.000000	0.194827  	350.000000	0.194581  	350.000000	0.19325   	350.000000	0.194774  	350.000000	5.2581e-05	
360.000000	0.193361  	360.000000	0.192031  	360.000000	0.191795  	360.000000	0.190465  	360.000000	0.19198   	360.000000	5.12305e-05	
370.000000	0.190674  	370.000000	0.189386  	370.000000	0.189136  	370.000000	0.187818  	370.000000	0.189336  	370.000000	4.995e-05 	
380.000000	0.188125  	380.000000	0.186881  	380.000000	0.18662   	380.000000	0.185312  	380.000000	0.186832  	380.000000	4.87342e-05	
390.000000	0.185704  	390.000000	0.184505  	390.000000	0.184236  	390.000000	0.182937  	390.000000	0.184457  	390.000000	4.75783e-05	
400.000000	0.183401  	400.000000	0.182248  	400.000000	0.181973  	400.000000	0.180682  	400.000000	0.182202  	400.000000	4.64778e-05	
410.000000	0.181209  	410.000000	0.180103  	410.000000	0.179823  	410.000000	0.17854   	410.000000	0.180058  	410.000000	4.54289e-05	
420.000000	0.179119  	420.000000	0.178061  	420.000000	0.177778  	420.000000	0.176503  	420.000000	0.178017  	420.000000	4.4428e-05	
430.000000	0.177125  	430.000000	0.176116  	430.000000	0.175831  	430.000000	0.174563  	430.000000	0.176072  	430.000000	4.34717e-05	
440.000000	0.175221  	440.000000	0.17426   	440.000000	0.173976  	440.000000	0.172715  	440.000000	0.174218  	440.000000	4.25572e-05	
450.000000	0.173401  	450.000000	0.172489  	450.000000	0.172205  	450.000000	0.170951  	450.000000	0.172448  	450.000000	4.16817e-05	
460.000000	0.17166   	460.000000	0.170797  	460.000000	0.170513  	460.000000	0.169267  	460.000000	0.170756  	460.000000	4.08428e-05	
470.000000	0.169993  	470.000000	0.169179  	470.000000	0.168896  	470.000000	0.167657  	470.000000	0.169139  	470.000000	4.00381e-05	
480.000000	0.168395  	480.000000	0.16763   	480.000000	0.167354  	480.000000	0.166118  	480.000000	0.167591  	480.000000	3.92657e-05	
490.000000	0.166863  	490.000000	0.166147  	490.000000	0.165883  	490.000000	0.164645  	490.000000	0.166108  	490.000000	3.85235e-05	
500.000000	0.165393  	500.000000	0.164725  	500.000000	0.164473  	500.000000	0.163233  	500.000000	0.164687  	500.000000	3.78099e-05	
520.000000	0.162626  	520.000000	0.162052  	520.000000	0.161812  	520.000000	0.160582  	520.000000	0.162016  	520.000000	3.64617e-05	
540.000000	0.160067  	540.000000	0.159587  	540.000000	0.159357  	540.000000	0.158139  	540.000000	0.159552  	540.000000	3.52096e-05	
560.000000	0.157697  	560.000000	0.157307  	560.000000	0.157091  	560.000000	0.155882  	560.000000	0.157273  	560.000000	3.40434e-05	
580.000000	0.155496  	580.000000	0.155195  	580.000000	0.154992  	580.000000	0.153793  	580.000000	0.155162  	580.000000	3.29546e-05	
600.000000	0.153449  	600.000000	0.153233  	600.000000	0.153045  	600.000000	0.151854  	600.000000	0.153201  	600.000000	3.19355e-05	
620.000000	0.151541  	620.000000	0.151407  	620.000000	0.151234  	620.000000	0.150051  	620.000000	0.151376  	620.000000	3.09797e-05	
640.000000	0.14976   	640.000000	0.149706  	640.000000	0.149547  	640.000000	0.148372  	640.000000	0.149676  	640.000000	3.00814e-05	
660.000000	0.148095  	660.000000	0.148118  	660.000000	0.147973  	660.000000	0.146806  	660.000000	0.148089  	660.000000	2.92354e-05	
680.000000	0.146537  	680.000000	0.146633  	680.000000	0.146502  	680.000000	0.145341  	680.000000	0.146604  	680.000000	2.84373e-05	
700.000000	0.145076  	700.000000	0.145243  	700.000000	0.145125  	700.000000	0.143971  	700.000000	0.145215  	700.000000	2.7683e-05	
720.000000	0.143705  	720.000000	0.143939  	720.000000	0.143835  	720.000000	0.142686  	720.000000	0.143912  	720.000000	2.6969e-05	
740.000000	0.142418  	740.000000	0.142716  	740.000000	0.142623  	740.000000	0.14148   	740.000000	0.14269   	740.000000	2.62922e-05	
760.000000	0.141207  	760.000000	0.141567  	760.000000	0.141484  	760.000000	0.140347  	760.000000	0.141541  	760.000000	2.56497e-05	
780.000000	0.140068  	780.000000	0.140486  	780.000000	0.140413  	780.000000	0.139281  	780.000000	0.140461  	780.000000	2.50388e-05	
800.000000	0.138995  	800.000000	0.139469  	800.000000	0.139404  	800.000000	0.138277  	800.000000	0.139445  	800.000000	2.44573e-05	
820.000000	0.137984  	820.000000	0.138511  	820.000000	0.138452  	820.000000	0.13733   	820.000000	0.138487  	820.000000	2.39032e-05	
840.000000	0.13703   	840.000000	0.137607  	840.000000	0.137554  	840.000000	0.136436  	840.000000	0.137583  	840.000000	2.33744e-05	
860.000000	0.136131  	860.000000	0.136754  	860.000000	0.136705  	860.000000	0.135592  	860.000000	0.136731  	860.000000	2.28693e-05	
880.000000	0.135281  	880.000000	0.135949  	880.000000	0.135903  	880.000000	0.134794  	880.000000	0.135927  	880.000000	2.23863e-05	
900.000000	0.134479  	900.000000	0.135189  	900.000000	0.135144  	900.000000	0.134039  	900.000000	0.135167  	900.000000	2.19239e-05	
920.000000	0.133721  	920.000000	0.13447   	920.000000	0.134425  	920.000000	0.133323  	920.000000	0.134448  	920.000000	2.14809e-05	
940.000000	0.133004  	940.000000	0.13379   	940.000000	0.133743  	940.000000	0.132646  	940.000000	0.133769  	940.000000	2.1056e-05	
960.000000	0.132327  	960.000000	0.133147  	960.000000	0.133097  	960.000000	0.132003  	960.000000	0.133126  	960.000000	2.06482e-05	
980.000000	0.131686  	980.000000	0.132538  	980.000000	0.132483  	980.000000	0.131393  	980.000000	0.132518  	980.000000	2.02564e-05	
1000.000000	0.131081  	1000.000000	0.131962  	1000.000000	0.131901  	1000.000000	0.130813  	1000.000000	0.131943  	1000.000000	1.98797e-05	
1020.000000	0.130508  	1020.000000	0.131417  	1020.000000	0.131347  	1020.000000	0.130263  	1020.000000	0.131397  	1020.000000	1.95172e-05	
1040.000000	0.129966  	1040.000000	0.1309    	1040.000000	0.130821  	1040.000000	0.12974   	1040.000000	0.130881  	1040.000000	1.91681e-05	
1060.000000	0.129454  	1060.000000	0.130411  	1060.000000	0.130321  	1060.000000	0.129242  	1060.000000	0.130392  	1060.000000	1.88317e-05	
1080.000000	0.12897   	1080.000000	0.129948  	1080.000000	0.129845  	1080.000000	0.128769  	1080.000000	0.129929  	1080.000000	1.85073e-05	
1100.000000	0.128512  	1100.000000	0.129508  	1100.000000	0.129391  	1100.000000	0.128318  	1100.000000	0.12949   	1100.000000	1.81943e-05	
1120.000000	0.12808   	1120.000000	0.129092  	1120.000000	0.128959  	1120.000000	0.127889  	1120.000000	0.129075  	1120.000000	1.7892e-05	
1140.000000	0.127671  	1140.000000	0.128698  	1140.000000	0.128548  	1140.000000	0.12748   	1140.000000	0.128681  	1140.000000	1.75999e-05	
1160.000000	0.127285  	1160.000000	0.128325  	1160.000000	0.128155  	1160.000000	0.12709   	1160.000000	0.128308  	1160.000000	1.73176e-05	
1180.000000	0.126921  	1180.000000	0.127972  	1180.000000	0.127781  	1180.000000	0.126718  	1180.000000	0.127955  	1180.000000	1.70444e-05	
1200.000000	0.126578  	1200.000000	0.127637  	1200.000000	0.127425  	1200.000000	0.126363  	1200.000000	0.12762   	1200.000000	1.67801e-05	
1220.000000	0.126254  	1220.000000	0.12732   	1220.000000	0.127084  	1220.000000	0.126025  	1220.000000	0.127304  	1220.000000	1.6524e-05	
1240.000000	0.125949  	1240.000000	0.127021  	1240.000000	0.126759  	1240.000000	0.125702  	1240.000000	0.127005  	1240.000000	1.62759e-05	
1260.000000	0.125662  	1260.000000	0.126737  	1260.000000	0.126449  	1260.000000	0.125394  	1260.000000	0.126721  	1260.000000	1.60355e-05	
1280.000000	0.125393  	1280.000000	0.12647   	1280.000000	0.126153  	1280.000000	0.1251    	1280.000000	0.126454  	1280.000000	1.58022e-05	
1300.000000	0.12514   	1300.000000	0.126216  	1300.000000	0.12587   	1300.000000	0.124819  	1300.000000	0.126201  	1300.000000	1.55759e-05	
1320.000000	0.124902  	1320.000000	0.125977  	1320.000000	0.1256    	1320.000000	0.12455   	1320.000000	0.125962  	1320.000000	1.53561e-05	
1340.000000	0.12468   	1340.000000	0.125752  	1340.000000	0.125341  	1340.000000	0.124294  	1340.000000	0.125737  	1340.000000	1.51427e-05	
1360.000000	0.124472  	1360.000000	0.12554   	1360.000000	0.125095  	1360.000000	0.124049  	1360.000000	0.125525  	1360.000000	1.49353e-05	
1380.000000	0.124279  	1380.000000	0.125339  	1380.000000	0.124859  	1380.000000	0.123815  	1380.000000	0.125325  	1380.000000	1.47338e-05	
1400.000000	0.124098  	1400.000000	0.125151  	1400.000000	0.124633  	1400.000000	0.123591  	1400.000000	0.125137  	1400.000000	1.45377e-05	
1420.000000	0.123931  	1420.000000	0.124974  	1420.000000	0.124418  	1420.000000	0.123377  	1420.000000	0.12496   	1420.000000	1.4347e-05	
1440.000000	0.123776  	1440.000000	0.124808  	1440.000000	0.124212  	1440.000000	0.123173  	1440.000000	0.124794  	1440.000000	1.41614e-05	
1460.000000	0.123632  	1460.000000	0.124653  	1460.000000	0.124015  	1460.000000	0.122977  	1460.000000	0.124639  	1460.000000	1.39807e-05	
1480.000000	0.1235    	1480.000000	0.124507  	1480.000000	0.123827  	1480.000000	0.12279   	1480.000000	0.124494  	1480.000000	1.38047e-05	
1500.000000	0.12338   	1500.000000	0.124371  	1500.000000	0.123647  	1500.000000	0.122612  	1500.000000	0.124358  	1500.000000	1.36332e-05	
1520.000000	0.123269  	1520.000000	0.124245  	1520.000000	0.123475  	1520.000000	0.122441  	1520.000000	0.124231  	1520.000000	1.34661e-05	
1540.000000	0.123169  	1540.000000	0.124127  	1540.000000	0.123311  	1540.000000	0.122278  	1540.000000	0.124114  	1540.000000	1.33032e-05	
1560.000000	0.123079  	1560.000000	0.124018  	1560.000000	0.123153  	1560.000000	0.122122  	1560.000000	0.124005  	1560.000000	1.31442e-05	
1580.000000	0.122999  	1580.000000	0.123917  	1580.000000	0.123003  	1580.000000	0.121973  	1580.000000	0.123904  	1580.000000	1.29892e-05	
1600.000000	0.122927  	1600.000000	0.123824  	1600.000000	0.12286   	1600.000000	0.121831  	1600.000000	0.123812  	1600.000000	1.28379e-05	
1620.000000	0.122865  	1620.000000	0.123739  	1620.000000	0.122723  	1620.000000	0.121695  	1620.000000	0.123726  	1620.000000	1.26902e-05	
1640.000000	0.122811  	1640.000000	0.123661  	1640.000000	0.122591  	1640.000000	0.121565  	1640.000000	0.123649  	1640.000000	1.25459e-05	
1660.000000	0.122766  	1660.000000	0.123591  	1660.000000	0.122466  	1660.000000	0.121441  	1660.000000	0.123578  	1660.000000	1.24051e-05	
1680.000000	0.122728  	1680.000000	0.123527  	1680.000000	0.122347  	1680.000000	0.121322  	1680.000000	0.123514  	1680.000000	1.22674e-05	
1700.000000	0.122698  	1700.000000	0.123469  	1700.000000	0.122233  	1700.000000	0.121209  	1700.000000	0.123457  	1700.000000	1.21329e-05	
1750.000000	0.122657  	1750.000000	0.123354  	1750.000000	0.121969  	1750.000000	0.120949  	1750.000000	0.123342  	1750.000000	1.18095e-05	
1800.000000	0.122659  	1800.000000	0.123275  	1800.000000	0.121736  	1800.000000	0.120717  	1800.000000	0.123263  	1800.000000	1.15035e-05	
1850.000000	0.122701  	1850.000000	0.123229  	1850.000000	0.121529  	1850.000000	0.120513  	1850.000000	0.123218  	1850.000000	1.12134e-05	
1900.000000	0.12278   	1900.000000	0.123215  	1900.000000	0.121346  	1900.000000	0.120332  	1900.000000	0.123204  	1900.000000	1.0938e-05	
1950.000000	0.122895  	1950.000000	0.12323   	1950.000000	0.121185  	1950.000000	0.120173  	1950.000000	0.123219  	1950.000000	1.06763e-05	
2000.000000	0.123042  	2000.000000	0.123271  	2000.000000	0.121045  	2000.000000	0.120034  	2000.000000	0.12326   	2000.000000	1.04272e-05	
2100.000000	0.123426  	2100.000000	0.123425  	2100.000000	0.120817  	2100.000000	0.11981   	2100.000000	0.123415  	2100.000000	9.96335e-06	
2200.000000	0.123917  	2200.000000	0.123665  	2200.000000	0.120651  	2200.000000	0.119647  	2200.000000	0.123655  	2200.000000	9.5402e-06	
2300.000000	0.124503  	2300.000000	0.123979  	2300.000000	0.120537  	2300.000000	0.119536  	2300.000000	0.12397   	2300.000000	9.15259e-06	
2400.000000	0.125173  	2400.000000	0.124358  	2400.000000	0.120466  	2400.000000	0.119468  	2400.000000	0.124349  	2400.000000	8.79617e-06	
2500.000000	0.12592   	2500.000000	0.124793  	2500.000000	0.120433  	2500.000000	0.119437  	2500.000000	0.124785  	2500.000000	8.46728e-06	
2600.000000	0.126734  	2600.000000	0.125279  	2600.000000	0.120432  	2600.000000	0.119438  	2600.000000	0.125271  	2600.000000	8.16283e-06	
2700.000000	0.127611  	2700.000000	0.12581   	2700.000000	0.120458  	2700.000000	0.119465  	2700.000000	0.125803  	2700.000000	7.88016e-06	
2800.000000	0.128544  	2800.000000	0.126381  	2800.000000	0.120507  	2800.000000	0.119516  	2800.000000	0.126374  	2800.000000	7.61699e-06	
2900.000000	0.129529  	2900.000000	0.126988  	2900.000000	0.120576  	2900.000000	0.119586  	2900.000000	0.126981  	2900.000000	7.37135e-06	
3000.000000	0.130561  	3000.000000	0.127627  	3000.000000	0.120661  	3000.000000	0.119674  	3000.000000	0.127619  	3000.000000	7.14153e-06	
3200.000000	0.132754  	3200.000000	0.128988  	3200.000000	0.120875  	3200.000000	0.11989   	3200.000000	0.128981  	3200.000000	6.72355e-06	
3400.000000	0.135099  	3400.000000	0.130444  	3400.000000	0.121132  	3400.000000	0.12015   	3400.000000	0.130438  	3400.000000	6.35312e-06	
3600.000000	0.137577  	3600.000000	0.131979  	3600.000000	0.121422  	3600.000000	0.120441  	3600.000000	0.131973  	3600.000000	6.0225e-06	
3800.000000	0.140172  	3800.000000	0.13358   	3800.000000	0.121735  	3800.000000	0.120756  	3800.000000	0.133574  	3800.000000	5.72553e-06	
4000.000000	0.142873  	4000.000000	0.135237  	4000.000000	0.122065  	4000.000000	0.121087  	4000.000000	0.135231  	4000.000000	5.45729e-06	
4200.000000	0.145669  	4200.000000	0.13694   	4200.000000	0.122407  	4200.000000	0.121431  	4200.000000	0.136935  	4200.000000	5.21375e-06	
4400.000000	0.148553  	4400.000000	0.138684  	4400.000000	0.122758  	4400.000000	0.121782  	4400.000000	0.138679  	4400.000000	4.99163e-06	
4600.000000	0.151516  	4600.000000	0.140462  	4600.000000	0.123113  	4600.000000	0.122139  	4600.000000	0.140458  	4600.000000	4.78819e-06	
4800.000000	0.154554  	4800.000000	0.142271  	4800.000000	0.123471  	4800.000000	0.122498  	4800.000000	0.142266  	4800.000000	4.60116e-06	
5000.000000	0.157662  	5000.000000	0.144106  	5000.000000	0.12383   	5000.000000	0.122858  	5000.000000	0.144101  	5000.000000	4.42859e-06	
5250.000000	0.161638  	5250.000000	0.14643   	5250.000000	0.124278  	5250.000000	0.123307  	5250.000000	0.146426  	5250.000000	4.23077e-06	
5500.000000	0.165711  	5500.000000	0.148786  	5500.000000	0.124723  	5500.000000	0.123754  	5500.000000	0.148781  	5500.000000	4.05036e-06	
6000.000000	0.174121  	6000.000000	0.153569  	6000.000000	0.125599  	6000.000000	0.124633  	6000.000000	0.153565  	6000.000000	3.73322e-06	
6500.000000	0.182857  	6500.000000	0.158429  	6500.000000	0.126451  	6500.000000	0.125487  	6500.000000	0.158425  	6500.000000	3.46337e-06	
7000.000000	0.191894  	7000.000000	0.163345  	7000.000000	0.127275  	7000.000000	0.126313  	7000.000000	0.163342  	7000.000000	3.23087e-06	
7500.000000	0.201212  	7500.000000	0.168305  	7500.000000	0.128069  	7500.000000	0.127109  	7500.000000	0.168302  	7500.000000	3.02842e-06	
8000.000000	0.210799  	8000.000000	0.173297  	8000.000000	0.128834  	8000.000000	0.127874  	8000.000000	0.173294  	8000.000000	2.85049e-06	
8500.000000	0.220643  	8500.000000	0.178313  	8500.000000	0.129568  	8500.000000	0.128611  	8500.000000	0.178311  	8500.000000	2.69284e-06	
9000.000000	0.230735  	9000.000000	0.183348  	9000.000000	0.130272  	9000.000000	0.129319  	9000.000000	0.183346  	9000.000000	2.55217e-06	
9500.000000	0.241069  	9500.000000	0.188398  	9500.000000	0.130948  	9500.000000	0.13      	9500.000000	0.188395  	9500.000000	2.42585e-06	
10000.000000	0.25164   	10000.000000	0.193458  	10000.000000	0.131602  	10000.000000	0.130655  	10000.000000	0.193456  	10000.000000	2.31177e-06	
11000.000000	0.273476  	11000.000000	0.203599  	11000.000000	0.132839  	11000.000000	0.131895  	11000.000000	0.203596  	11000.000000	2.11379e-06	
12000.000000	0.296218  	12000.000000	0.213754  	12000.000000	0.133989  	12000.000000	0.133048  	12000.000000	0.213752  	12000.000000	1.94784e-06	
13000.000000	0.31985   	13000.000000	0.223914  	13000.000000	0.13506   	13000.000000	0.134124  	13000.000000	0.223912  	13000.000000	1.80666e-06	
14000.000000	0.34436   	14000.000000	0.23407   	14000.000000	0.136059  	14000.000000	0.135131  	14000.000000	0.234068  	14000.000000	1.68506e-06	
15000.000000	0.369741  	15000.000000	0.244219  	15000.000000	0.136995  	15000.000000	0.136078  	15000.000000	0.244217  	15000.000000	1.57919e-06	
16000.000000	0.39599   	16000.000000	0.254356  	16000.000000	0.137878  	16000.000000	0.13697   	16000.000000	0.254355  	16000.000000	1.48616e-06	
17000.000000	0.423105  	17000.000000	0.264481  	17000.000000	0.138714  	17000.000000	0.137813  	17000.000000	0.26448   	17000.000000	1.40376e-06	
18000.000000	0.451083  	18000.000000	0.274591  	18000.000000	0.139509  	18000.000000	0.138612  	18000.000000	0.27459   	18000.000000	1.33024e-06	
19000.000000	0.479926  	19000.000000	0.284685  	19000.000000	0.140266  	19000.000000	0.139371  	19000.000000	0.284684  	19000.000000	1.26423e-06	
20000.000000	0.509634  	20000.000000	0.294764  	20000.000000	0.140987  	20000.000000	0.140093  	20000.000000	0.294763  	20000.000000	1.20462e-06	
21000.000000	0.54021   	21000.000000	0.304826  	21000.000000	0.141674  	21000.000000	0.140782  	21000.000000	0.304825  	21000.000000	1.15053e-06	
22000.000000	0.571656  	22000.000000	0.314872  	22000.000000	0.142323  	22000.000000	0.141441  	22000.000000	0.31487   	22000.000000	1.1012e-06	
23000.000000	0.603974  	23000.000000	0.324901  	23000.000000	0.142946  	23000.000000	0.142072  	23000.000000	0.3249    	23000.000000	1.05604e-06	
24000.000000	0.637169  	24000.000000	0.334914  	24000.000000	0.143544  	24000.000000	0.142677  	24000.000000	0.334913  	24000.000000	1.01453e-06	
25000.000000	0.671242  	25000.000000	0.34491   	25000.000000	0.144116  	25000.000000	0.143258  	25000.000000	0.344909  	25000.000000	9.76249e-07	
26000.000000	0.706198  	26000.000000	0.354891  	26000.000000	0.144664  	26000.000000	0.143817  	26000.000000	0.35489   	26000.000000	9.40822e-07	
27000.000000	0.742042  	27000.000000	0.364856  	27000.000000	0.145192  	27000.000000	0.144355  	27000.000000	0.364855  	27000.000000	9.07943e-07	
28000.000000	0.778776  	28000.000000	0.374806  	28000.000000	0.145701  	28000.000000	0.144875  	28000.000000	0.374805  	28000.000000	8.77343e-07	
29000.000000	0.816405  	29000.000000	0.384741  	29000.000000	0.146193  	29000.000000	0.145376  	29000.000000	0.38474   	29000.000000	8.48791e-07	
30000.000000	0.854935  	30000.000000	0.394661  	30000.000000	0.146668  	30000.000000	0.145861  	30000.000000	0.39466   	30000.000000	8.22087e-07	
32000.000000	0.934712  	32000.000000	0.414458  	32000.000000	0.147573  	32000.000000	0.146785  	32000.000000	0.414457  	32000.000000	7.73543e-07	
34000.000000	1.01814   	34000.000000	0.4342    	34000.000000	0.148423  	34000.000000	0.147653  	34000.000000	0.434199  	34000.000000	7.30548e-07	
36000.000000	1.10527   	36000.000000	0.453888  	36000.000000	0.149222  	36000.000000	0.148473  	36000.000000	0.453888  	36000.000000	6.92195e-07	
38000.000000	1.19613   	38000.000000	0.473526  	38000.000000	0.149974  	38000.000000	0.149248  	38000.000000	0.473526  	38000.000000	6.57764e-07	
40000.000000	1.29077   	40000.000000	0.493116  	40000.000000	0.150683  	40000.000000	0.149984  	40000.000000	0.493115  	40000.000000	6.26679e-07	
42000.000000	1.38923   	42000.000000	0.512659  	42000.000000	0.151356  	42000.000000	0.150684  	42000.000000	0.512659  	42000.000000	5.98471e-07	
44000.000000	1.49154   	44000.000000	0.532158  	44000.000000	0.151995  	44000.000000	0.151351  	44000.000000	0.532157  	44000.000000	5.72755e-07	
46000.000000	1.59777   	46000.000000	0.551614  	46000.000000	0.152605  	46000.000000	0.151988  	46000.000000	0.551614  	46000.000000	5.49211e-07	
48000.000000	1.70794   	48000.000000	0.571029  	48000.000000	0.153188  	48000.000000	0.152599  	48000.000000	0.571029  	48000.000000	5.27574e-07	
50000.000000	1.8221    	50000.000000	0.590405  	50000.000000	0.153744  	50000.000000	0.153184  	50000.000000	0.590405  	50000.000000	5.07619e-07	
