Energy (MeV/u)1	0 - [He-base] F.Hubert et al, AD&ND Tables 46(1990)1	Energy (MeV/u)2	1 - [H -base] J.F.Ziegler et al, Pergamon Press, NY (low energy)	Energy (MeV/u)3	2 - ATIMA 1.2  LS-theory (recommended for high energy)	Energy (MeV/u)4	3 - ATIMA 1.2  without LS-correction	Energy (MeV/u)5	4 - electrical component of [1] - J.F.Ziegler et al	Energy (MeV/u)6	5 - nuclear component of [1] - J.F.Ziegler et al	
0.001000	0.301255  	0.001000	0.0639372 	0.001000	0.0627638 	0.001000	0.0627638 	0.001000	0.0354347 	0.001000	0.0285025 	
0.002000	0.368196  	0.002000	0.0859016 	0.002000	0.0838705 	0.002000	0.0838705 	0.002000	0.0613201 	0.002000	0.0245815 	
0.005000	0.555252  	0.005000	0.137598  	0.005000	0.133618  	0.005000	0.133618  	0.005000	0.120122  	0.005000	0.0174759 	
0.008000	0.699583  	0.008000	0.178382  	0.008000	0.172931  	0.008000	0.172931  	0.008000	0.16453   	0.008000	0.0138518 	
0.010000	0.779402  	0.010000	0.201787  	0.010000	0.195508  	0.010000	0.195508  	0.010000	0.189526  	0.010000	0.012261  	
0.015000	0.992807  	0.015000	0.244072  	0.015000	0.243917  	0.015000	0.243917  	0.015000	0.234413  	0.015000	0.00965942	
0.020000	1.17164   	0.020000	0.278416  	0.020000	0.285045  	0.020000	0.285045  	0.020000	0.270355  	0.020000	0.00806097	
0.025000	1.32423   	0.025000	0.307704  	0.025000	0.321747  	0.025000	0.321747  	0.025000	0.300739  	0.025000	0.00696444	
0.030000	1.4551    	0.030000	0.333453  	0.030000	0.343967  	0.030000	0.343967  	0.030000	0.327294  	0.030000	0.00615874	
0.035000	1.56697   	0.035000	0.356554  	0.035000	0.363887  	0.035000	0.363887  	0.035000	0.351016  	0.035000	0.00553819	
0.040000	1.66176   	0.040000	0.377572  	0.040000	0.382061  	0.040000	0.382061  	0.040000	0.372528  	0.040000	0.00504351	
0.045000	1.74098   	0.045000	0.396837  	0.045000	0.398804  	0.045000	0.398804  	0.045000	0.392241  	0.045000	0.00459579	
0.050000	1.80602   	0.050000	0.4147    	0.050000	0.414445  	0.050000	0.414445  	0.050000	0.410438  	0.050000	0.00426154	
0.055000	1.8582    	0.055000	0.431298  	0.055000	0.429103  	0.055000	0.429103  	0.055000	0.427321  	0.055000	0.0039772 	
0.060000	1.89886   	0.060000	0.446771  	0.060000	0.442896  	0.060000	0.442896  	0.060000	0.443039  	0.060000	0.00373202	
0.070000	1.95085   	0.070000	0.474735  	0.070000	0.468211  	0.070000	0.468211  	0.070000	0.471406  	0.070000	0.00332985	
0.080000	1.97209   	0.080000	0.499196  	0.080000	0.490856  	0.080000	0.490856  	0.080000	0.496183  	0.080000	0.0030129 	
0.090000	1.97153   	0.090000	0.520562  	0.090000	0.511117  	0.090000	0.511117  	0.090000	0.517806  	0.090000	0.00275597	
0.100000	1.95651   	0.100000	0.539144  	0.100000	0.529194  	0.100000	0.529194  	0.100000	0.536601  	0.100000	0.00254304	
0.120000	1.90387   	0.120000	0.568954  	0.120000	0.559392  	0.120000	0.559392  	0.120000	0.566744  	0.120000	0.00220957	
0.140000	1.84171   	0.140000	0.590372  	0.140000	0.582494  	0.140000	0.582494  	0.140000	0.588412  	0.140000	0.0019594 	
0.160000	1.78179   	0.160000	0.60489   	0.160000	0.599438  	0.160000	0.599438  	0.160000	0.603126  	0.160000	0.00176412	
0.180000	1.72778   	0.180000	0.613814  	0.180000	0.611112  	0.180000	0.611112  	0.180000	0.612207  	0.180000	0.00160702	
0.200000	1.67998   	0.200000	0.618273  	0.200000	0.618352  	0.200000	0.618352  	0.200000	0.616796  	0.200000	0.00147765	
0.250000	1.5813    	0.250000	0.615756  	0.250000	0.62184   	0.250000	0.62184   	0.250000	0.614521  	0.250000	0.00123521	
0.300000	1.50072   	0.300000	0.601689  	0.300000	0.611695  	0.300000	0.611695  	0.300000	0.600623  	0.300000	0.00106549	
0.350000	1.42969   	0.350000	0.582355  	0.350000	0.594324  	0.350000	0.594324  	0.350000	0.581415  	0.350000	0.000939472	
0.400000	1.36463   	0.400000	0.561178  	0.400000	0.573686  	0.400000	0.573686  	0.400000	0.560336  	0.400000	0.000841894	
0.450000	1.30421   	0.450000	0.539937  	0.450000	0.552089  	0.450000	0.552089  	0.450000	0.539173  	0.450000	0.000763918	
0.500000	1.24792   	0.500000	0.519502  	0.500000	0.530806  	0.500000	0.530806  	0.500000	0.518802  	0.500000	0.000700059	
0.600000	1.14678   	0.600000	0.482323  	0.600000	0.491426  	0.600000	0.491426  	0.600000	0.481722  	0.600000	0.000601456	
0.700000	1.05945   	0.700000	0.450322  	0.700000	0.457317  	0.700000	0.457317  	0.700000	0.449793  	0.700000	0.000528632	
0.800000	0.984065  	0.800000	0.422905  	0.800000	0.42819   	0.800000	0.42819   	0.800000	0.422432  	0.800000	0.00047248	
0.900000	0.918717  	0.900000	0.399274  	0.900000	0.403258  	0.900000	0.403258  	0.900000	0.398846  	0.900000	0.000427766	
1.000000	0.861716  	1.000000	0.378713  	1.000000	0.381734  	1.000000	0.381734  	1.000000	0.378322  	1.000000	0.000391256	
1.250000	0.747012  	1.250000	0.337236  	1.250000	0.338835  	1.250000	0.338835  	1.250000	0.336912  	1.250000	0.000323623	
1.500000	0.660402  	1.500000	0.305532  	1.500000	0.306481  	1.500000	0.306481  	1.500000	0.305255  	1.500000	0.000276915	
1.750000	0.592569  	1.750000	0.280259  	1.750000	0.280905  	1.750000	0.280905  	1.750000	0.280017  	1.750000	0.000242595	
2.000000	0.537899  	2.000000	0.259499  	2.000000	0.259997  	2.000000	0.259997  	2.000000	0.259282  	2.000000	0.000216242	
2.250000	0.49284   	2.250000	0.242062  	2.250000	0.242485  	2.250000	0.242485  	2.250000	0.241867  	2.250000	0.000195328	
2.500000	0.447396  	2.500000	0.227168  	2.500000	0.227548  	2.500000	0.227548  	2.500000	0.22699   	2.500000	0.000178302	
3.000000	0.390509  	3.000000	0.202989  	3.000000	0.203321  	3.000000	0.203321  	3.000000	0.202837  	3.000000	0.0001522 	
3.500000	0.347387  	3.500000	0.184143  	3.500000	0.184437  	3.500000	0.184437  	3.500000	0.18401   	3.500000	0.000133077	
4.000000	0.313472  	4.000000	0.169     	4.000000	0.169255  	4.000000	0.169255  	4.000000	0.168881  	4.000000	0.000118427	
4.500000	0.286041  	4.500000	0.15654   	4.500000	0.156755  	4.500000	0.156755  	4.500000	0.156433  	4.500000	0.000106826	
5.000000	0.263359  	5.000000	0.14609   	5.000000	0.146264  	5.000000	0.146264  	5.000000	0.145993  	5.000000	9.73964e-05	
5.500000	0.244266  	5.500000	0.137185  	5.500000	0.137317  	5.500000	0.137317  	5.500000	0.137095  	5.500000	8.95729e-05	
6.000000	0.227956  	6.000000	0.129493  	6.000000	0.129585  	6.000000	0.129585  	6.000000	0.12941   	6.000000	8.2971e-05	
6.500000	0.213849  	6.500000	0.122772  	6.500000	0.122827  	6.500000	0.122827  	6.500000	0.122695  	6.500000	7.7321e-05	
7.000000	0.201518  	7.000000	0.116842  	7.000000	0.116861  	7.000000	0.116861  	7.000000	0.11677   	7.000000	7.24278e-05	
7.500000	0.190642  	7.500000	0.111564  	7.500000	0.111549  	7.500000	0.111549  	7.500000	0.111496  	7.500000	6.81464e-05	
8.000000	0.180971  	8.000000	0.106832  	8.000000	0.106784  	8.000000	0.106784  	8.000000	0.106767  	8.000000	6.43671e-05	
8.500000	0.172313  	8.500000	0.102559  	8.500000	0.102482  	8.500000	0.102482  	8.500000	0.102498  	8.500000	6.1005e-05	
9.000000	0.164512  	9.000000	0.0986796 	9.000000	0.0985742 	9.000000	0.0985742 	9.000000	0.0986216 	9.000000	5.79936e-05	
9.500000	0.157445  	9.500000	0.0951381 	9.500000	0.0950067 	9.500000	0.0950067 	9.500000	0.0950828 	9.500000	5.52798e-05	
10.000000	0.151012  	10.000000	0.0925116 	10.000000	0.0917343 	10.000000	0.0917343 	10.000000	0.0924588 	10.000000	5.28209e-05	
11.000000	0.139725  	11.000000	0.0870651 	11.000000	0.086024  	11.000000	0.0860318 	11.000000	0.0870166 	11.000000	4.85343e-05	
12.000000	0.13014   	12.000000	0.0822296 	12.000000	0.0810788 	12.000000	0.0810918 	12.000000	0.0821847 	12.000000	4.49211e-05	
13.000000	0.121893  	13.000000	0.0779179 	13.000000	0.0767464 	13.000000	0.0767609 	13.000000	0.0778761 	13.000000	4.18318e-05	
14.000000	0.114716  	14.000000	0.0740549 	14.000000	0.0729121 	14.000000	0.0729258 	14.000000	0.0740158 	14.000000	3.91587e-05	
15.000000	0.108411  	15.000000	0.0705772 	15.000000	0.0694873 	15.000000	0.0695009 	15.000000	0.0705404 	15.000000	3.68217e-05	
16.000000	0.102825  	16.000000	0.0674317 	16.000000	0.0664065 	16.000000	0.0664197 	16.000000	0.0673969 	16.000000	3.47602e-05	
17.000000	0.0978401 	17.000000	0.064574  	17.000000	0.0636182 	17.000000	0.0636297 	17.000000	0.0645411 	17.000000	3.29276e-05	
18.000000	0.0933617 	18.000000	0.061967  	18.000000	0.0610801 	18.000000	0.0610888 	18.000000	0.0619357 	18.000000	3.12872e-05	
19.000000	0.0893154 	19.000000	0.0595794 	19.000000	0.0587521 	19.000000	0.0587585 	19.000000	0.0595496 	19.000000	2.98097e-05	
20.000000	0.0856404 	20.000000	0.0573849 	20.000000	0.0566138 	20.000000	0.0566201 	20.000000	0.0573564 	20.000000	2.84718e-05	
21.000000	0.0822869 	21.000000	0.0553609 	21.000000	0.0546388 	21.000000	0.0546457 	21.000000	0.0553336 	21.000000	2.72542e-05	
22.000000	0.0792136 	22.000000	0.0534884 	22.000000	0.0528108 	22.000000	0.0528161 	22.000000	0.0534623 	22.000000	2.61411e-05	
23.000000	0.0763863 	23.000000	0.051751  	23.000000	0.0511131 	23.000000	0.0511147 	23.000000	0.0517259 	23.000000	2.51195e-05	
24.000000	0.073776  	24.000000	0.0501346 	24.000000	0.0495298 	24.000000	0.0495277 	24.000000	0.0501104 	24.000000	2.41783e-05	
25.000000	0.0713582 	25.000000	0.0486268 	25.000000	0.0480486 	25.000000	0.0480432 	25.000000	0.0486035 	25.000000	2.33083e-05	
27.000000	0.0670193 	27.000000	0.045896  	27.000000	0.0453557 	27.000000	0.045342  	27.000000	0.0458743 	27.000000	2.17513e-05	
29.000000	0.0632345 	29.000000	0.0434884 	29.000000	0.0429614 	29.000000	0.0429443 	29.000000	0.043468  	29.000000	2.03978e-05	
31.000000	0.0599024 	31.000000	0.0413493 	31.000000	0.0408524 	31.000000	0.0408344 	31.000000	0.0413301 	31.000000	1.92097e-05	
33.000000	0.0569449 	33.000000	0.0394359 	33.000000	0.0390018 	33.000000	0.0389782 	33.000000	0.0394177 	33.000000	1.81582e-05	
35.000000	0.0543011 	35.000000	0.0377139 	35.000000	0.0373307 	35.000000	0.0373083 	35.000000	0.0376967 	35.000000	1.72206e-05	
38.000000	0.0508205 	38.000000	0.0354308 	38.000000	0.0351201 	38.000000	0.0350941 	38.000000	0.0354148 	38.000000	1.59898e-05	
41.000000	0.047814  	41.000000	0.0334445 	41.000000	0.033193  	41.000000	0.0331665 	41.000000	0.0334296 	41.000000	1.493e-05 	
44.000000	0.0451893 	44.000000	0.0317001 	44.000000	0.0314951 	44.000000	0.0314716 	44.000000	0.0316861 	44.000000	1.40075e-05	
47.000000	0.0428767 	47.000000	0.0301555 	47.000000	0.0299956 	47.000000	0.0299689 	47.000000	0.0301423 	47.000000	1.31969e-05	
50.000000	0.0408226 	50.000000	0.0287778 	50.000000	0.0286535 	50.000000	0.0286265 	50.000000	0.0287653 	50.000000	1.24787e-05	
55.000000	0.0378639 	55.000000	0.0267846 	55.000000	0.0267095 	55.000000	0.0266802 	55.000000	0.0267732 	55.000000	1.14473e-05	
60.000000	0.0353657 	60.000000	0.0250942 	60.000000	0.0250519 	60.000000	0.0250249 	60.000000	0.0250837 	60.000000	1.05796e-05	
65.000000	0.0332265 	65.000000	0.0236419 	65.000000	0.0236265 	65.000000	0.0235989 	65.000000	0.0236321 	65.000000	9.83907e-06	
70.000000	0.0313726 	70.000000	0.0223801 	70.000000	0.0223847 	70.000000	0.0223566 	70.000000	0.0223709 	70.000000	9.19924e-06	
75.000000	0.0297494 	75.000000	0.0212733 	75.000000	0.02129   	75.000000	0.0212641 	75.000000	0.0212647 	75.000000	8.64067e-06	
80.000000	0.0283156 	80.000000	0.0202944 	80.000000	0.0203236 	80.000000	0.0202954 	80.000000	0.0202862 	80.000000	8.14861e-06	
85.000000	0.027039  	85.000000	0.0194221 	85.000000	0.0194571 	85.000000	0.0194304 	85.000000	0.0194144 	85.000000	7.71171e-06	
90.000000	0.0258947 	90.000000	0.0186397 	90.000000	0.0186784 	90.000000	0.0186529 	90.000000	0.0186324 	90.000000	7.32105e-06	
95.000000	0.0248627 	95.000000	0.017934  	95.000000	0.0179774 	95.000000	0.0179501 	95.000000	0.017927  	95.000000	6.96958e-06	
100.000000	0.0239268 	100.000000	0.017294  	100.000000	0.0173378 	100.000000	0.0173116 	100.000000	0.0172874 	100.000000	6.65161e-06	
105.000000	0.0230739 	105.000000	0.016711  	105.000000	0.016754  	105.000000	0.0167289 	105.000000	0.0167046 	105.000000	6.36251e-06	
110.000000	0.0222932 	110.000000	0.0161775 	110.000000	0.0162187 	110.000000	0.0161949 	110.000000	0.0161714 	110.000000	6.09845e-06	
115.000000	0.0215756 	115.000000	0.0156875 	115.000000	0.0157283 	115.000000	0.0157036 	115.000000	0.0156816 	115.000000	5.8563e-06	
120.000000	0.0209137 	120.000000	0.0152358 	120.000000	0.0152753 	120.000000	0.0152501 	120.000000	0.0152301 	120.000000	5.63338e-06	
125.000000	0.020301  	125.000000	0.014818  	125.000000	0.0148541 	125.000000	0.0148302 	125.000000	0.0148126 	125.000000	5.42747e-06	
130.000000	0.0197322 	130.000000	0.0144305 	130.000000	0.0144634 	130.000000	0.0144402 	130.000000	0.0144252 	130.000000	5.23666e-06	
135.000000	0.0192024 	135.000000	0.01407   	135.000000	0.0141012 	135.000000	0.0140769 	135.000000	0.0140649 	135.000000	5.05934e-06	
140.000000	0.0187078 	140.000000	0.0137338 	140.000000	0.0137621 	140.000000	0.0137378 	140.000000	0.0137289 	140.000000	4.8941e-06	
145.000000	0.0182449 	145.000000	0.0134195 	145.000000	0.0134439 	145.000000	0.0134205 	145.000000	0.0134148 	145.000000	4.73973e-06	
150.000000	0.0178106 	150.000000	0.013125  	150.000000	0.0131458 	150.000000	0.0131229 	150.000000	0.0131205 	150.000000	4.59518e-06	
155.000000	0.0171992 	155.000000	0.0128486 	155.000000	0.0128653 	155.000000	0.0128433 	155.000000	0.0128441 	155.000000	4.45953e-06	
160.000000	0.0168407 	160.000000	0.0125885 	160.000000	0.0126019 	160.000000	0.01258   	160.000000	0.0125842 	160.000000	4.33197e-06	
165.000000	0.0165028 	165.000000	0.0123434 	165.000000	0.0123544 	165.000000	0.0123317 	165.000000	0.0123391 	165.000000	4.21179e-06	
170.000000	0.0161835 	170.000000	0.0121119 	170.000000	0.0121199 	170.000000	0.0120972 	170.000000	0.0121078 	170.000000	4.09836e-06	
175.000000	0.0158814 	175.000000	0.0118931 	175.000000	0.0118973 	175.000000	0.0118752 	175.000000	0.0118891 	175.000000	3.99112e-06	
180.000000	0.0155951 	180.000000	0.0116858 	180.000000	0.0116865 	180.000000	0.0116649 	180.000000	0.011682  	180.000000	3.88956e-06	
185.000000	0.0153234 	185.000000	0.0114893 	185.000000	0.0114864 	185.000000	0.0114653 	185.000000	0.0114855 	185.000000	3.79325e-06	
190.000000	0.0150651 	190.000000	0.0113026 	190.000000	0.0112962 	190.000000	0.0112757 	190.000000	0.0112989 	190.000000	3.70177e-06	
195.000000	0.0148194 	195.000000	0.011125  	195.000000	0.0111159 	195.000000	0.0110953 	195.000000	0.0111214 	195.000000	3.61478e-06	
200.000000	0.0145852 	200.000000	0.010956  	200.000000	0.0109447 	200.000000	0.0109234 	200.000000	0.0109525 	200.000000	3.53194e-06	
210.000000	0.0141486 	210.000000	0.0106411 	210.000000	0.010624  	210.000000	0.0106031 	210.000000	0.0106377 	210.000000	3.37757e-06	
220.000000	0.0137495 	220.000000	0.0103536 	220.000000	0.0103308 	220.000000	0.0103106 	220.000000	0.0103504 	220.000000	3.23662e-06	
230.000000	0.0133832 	230.000000	0.0100903 	230.000000	0.0100619 	230.000000	0.0100425 	230.000000	0.0100872 	230.000000	3.10739e-06	
240.000000	0.013046  	240.000000	0.00984813	240.000000	0.00981577	240.000000	0.00979588	240.000000	0.00984515	240.000000	2.98847e-06	
250.000000	0.0127343 	250.000000	0.00962471	250.000000	0.00958821	250.000000	0.00956828	250.000000	0.00962184	250.000000	2.87864e-06	
260.000000	0.0124455 	260.000000	0.00941796	260.000000	0.0093769 	260.000000	0.00935764	260.000000	0.00941518	260.000000	2.7769e-06	
270.000000	0.0121771 	270.000000	0.00922608	270.000000	0.00918089	270.000000	0.00916214	270.000000	0.0092234 	270.000000	2.68236e-06	
280.000000	0.011927  	280.000000	0.00904755	280.000000	0.00899854	280.000000	0.00898026	280.000000	0.00904496	280.000000	2.59429e-06	
290.000000	0.0116933 	290.000000	0.00888105	290.000000	0.00882945	290.000000	0.00881063	290.000000	0.00887853	290.000000	2.51203e-06	
300.000000	0.0114746 	300.000000	0.0087254 	300.000000	0.00867098	300.000000	0.00865209	300.000000	0.00872297	300.000000	2.43501e-06	
310.000000	0.0112695 	310.000000	0.00857961	310.000000	0.00852198	310.000000	0.00850362	310.000000	0.00857724	310.000000	2.36276e-06	
320.000000	0.0110766 	320.000000	0.00844277	320.000000	0.00838232	320.000000	0.00836431	320.000000	0.00844048	320.000000	2.29482e-06	
330.000000	0.0108951 	330.000000	0.00831411	330.000000	0.00825091	330.000000	0.00823336	330.000000	0.00831188	330.000000	2.23083e-06	
340.000000	0.0107238 	340.000000	0.00819293	340.000000	0.00812745	340.000000	0.00811007	340.000000	0.00819076	340.000000	2.17044e-06	
350.000000	0.0105621 	350.000000	0.00807861	350.000000	0.00801162	350.000000	0.0079938 	350.000000	0.0080765 	350.000000	2.11335e-06	
360.000000	0.010409  	360.000000	0.0079706 	360.000000	0.00790194	360.000000	0.00788399	360.000000	0.00796855	360.000000	2.0593e-06	
370.000000	0.010264  	370.000000	0.00786841	370.000000	0.00779772	370.000000	0.00778014	370.000000	0.0078664 	370.000000	2.00805e-06	
380.000000	0.0101264 	380.000000	0.00777159	380.000000	0.00769906	380.000000	0.00768179	380.000000	0.00776963	380.000000	1.95938e-06	
390.000000	0.00999578	390.000000	0.00767975	390.000000	0.00760557	390.000000	0.00758854	390.000000	0.00767783	390.000000	1.9131e-06	
400.000000	0.00987153	400.000000	0.00759251	400.000000	0.0075167 	400.000000	0.00750002	400.000000	0.00759065	400.000000	1.86904e-06	
410.000000	0.00975323	410.000000	0.00750957	410.000000	0.0074324 	410.000000	0.00741589	410.000000	0.00750774	410.000000	1.82703e-06	
420.000000	0.00964049	420.000000	0.00743062	420.000000	0.00735261	420.000000	0.00733585	420.000000	0.00742883	420.000000	1.78694e-06	
430.000000	0.00953294	430.000000	0.00735538	430.000000	0.00727667	430.000000	0.00725962	430.000000	0.00735364	430.000000	1.74864e-06	
440.000000	0.00943023	440.000000	0.00728363	440.000000	0.00720394	440.000000	0.00718695	440.000000	0.00728192	440.000000	1.71201e-06	
450.000000	0.00933207	450.000000	0.00721513	450.000000	0.00713432	450.000000	0.00711761	450.000000	0.00721345	450.000000	1.67693e-06	
460.000000	0.00923817	460.000000	0.00714968	460.000000	0.00706787	460.000000	0.00705139	460.000000	0.00714803	460.000000	1.64332e-06	
470.000000	0.00914827	470.000000	0.00708708	470.000000	0.00700441	470.000000	0.0069881 	470.000000	0.00708547	470.000000	1.61108e-06	
480.000000	0.00906213	480.000000	0.00702717	480.000000	0.00694365	480.000000	0.00692756	480.000000	0.00702559	480.000000	1.58012e-06	
490.000000	0.00897954	490.000000	0.00696979	490.000000	0.00688545	490.000000	0.00686959	490.000000	0.00696824	490.000000	1.55038e-06	
500.000000	0.0089003 	500.000000	0.00691479	500.000000	0.0068302 	500.000000	0.00681445	500.000000	0.00691327	500.000000	1.52177e-06	
520.000000	0.00875111	520.000000	0.0068114 	520.000000	0.00672803	520.000000	0.0067119 	520.000000	0.00680993	520.000000	1.46773e-06	
540.000000	0.00861322	540.000000	0.00671603	540.000000	0.00663361	540.000000	0.00661745	540.000000	0.00671461	540.000000	1.41753e-06	
560.000000	0.00848549	560.000000	0.00662785	560.000000	0.00654602	560.000000	0.00653023	560.000000	0.00662648	560.000000	1.37076e-06	
580.000000	0.00836692	580.000000	0.00654613	580.000000	0.00646507	580.000000	0.00644953	580.000000	0.0065448 	580.000000	1.32709e-06	
600.000000	0.00825663	600.000000	0.00647025	600.000000	0.00638993	600.000000	0.0063747 	600.000000	0.00646897	600.000000	1.28622e-06	
620.000000	0.00815387	620.000000	0.00639967	620.000000	0.00632024	620.000000	0.00630519	620.000000	0.00639842	620.000000	1.24787e-06	
640.000000	0.00805797	640.000000	0.00633389	640.000000	0.00625581	640.000000	0.00624051	640.000000	0.00633268	640.000000	1.21183e-06	
660.000000	0.00796833	660.000000	0.00627249	660.000000	0.00619572	660.000000	0.00618022	660.000000	0.00627132	660.000000	1.17788e-06	
680.000000	0.00788444	680.000000	0.00621511	680.000000	0.00613927	680.000000	0.00612394	680.000000	0.00621396	680.000000	1.14585e-06	
700.000000	0.00780583	700.000000	0.0061614 	700.000000	0.00608641	700.000000	0.00607133	700.000000	0.00616028	700.000000	1.11557e-06	
720.000000	0.00773207	720.000000	0.00611106	720.000000	0.006037  	720.000000	0.00602208	720.000000	0.00610997	720.000000	1.08691e-06	
740.000000	0.0076628 	740.000000	0.00606383	740.000000	0.00599067	740.000000	0.00597593	740.000000	0.00606277	740.000000	1.05974e-06	
760.000000	0.00759768	760.000000	0.00601948	760.000000	0.00594715	760.000000	0.00593262	760.000000	0.00601845	760.000000	1.03394e-06	
780.000000	0.00753641	780.000000	0.00597778	780.000000	0.00590635	780.000000	0.00589195	780.000000	0.00597677	780.000000	1.0094e-06	
800.000000	0.00747872	800.000000	0.00593854	800.000000	0.00586821	800.000000	0.00585371	800.000000	0.00593756	800.000000	9.86052e-07	
820.000000	0.00742435	820.000000	0.0059016 	820.000000	0.00583243	820.000000	0.00581772	820.000000	0.00590063	820.000000	9.63793e-07	
840.000000	0.00737309	840.000000	0.00586677	840.000000	0.00579864	840.000000	0.00578382	840.000000	0.00586583	840.000000	9.42552e-07	
860.000000	0.00732473	860.000000	0.00583393	860.000000	0.00576661	860.000000	0.00575186	860.000000	0.00583301	860.000000	9.22259e-07	
880.000000	0.00727909	880.000000	0.00580295	880.000000	0.00573631	880.000000	0.00572172	880.000000	0.00580204	880.000000	9.02853e-07	
900.000000	0.00723599	900.000000	0.00577369	900.000000	0.00570769	900.000000	0.00569326	900.000000	0.00577281	900.000000	8.84274e-07	
920.000000	0.00719527	920.000000	0.00574605	920.000000	0.00568068	920.000000	0.00566637	920.000000	0.00574519	920.000000	8.66472e-07	
940.000000	0.0071568 	940.000000	0.00571994	940.000000	0.00565517	940.000000	0.00564096	940.000000	0.00571909	940.000000	8.49397e-07	
960.000000	0.00712044	960.000000	0.00569525	960.000000	0.00563105	960.000000	0.00561692	960.000000	0.00569442	960.000000	8.33006e-07	
980.000000	0.00708607	980.000000	0.0056719 	980.000000	0.00560822	980.000000	0.00559417	980.000000	0.00567108	980.000000	8.17257e-07	
1000.000000	0.00705357	1000.000000	0.00564982	1000.000000	0.0055866 	1000.000000	0.00557263	1000.000000	0.00564901	1000.000000	8.02114e-07	
1020.000000	0.00702285	1020.000000	0.00562892	1020.000000	0.0055661 	1020.000000	0.00555223	1020.000000	0.00562813	1020.000000	7.87541e-07	
1040.000000	0.00699381	1040.000000	0.00560915	1040.000000	0.00554666	1040.000000	0.0055329 	1040.000000	0.00560838	1040.000000	7.73506e-07	
1060.000000	0.00696635	1060.000000	0.00559044	1060.000000	0.00552821	1060.000000	0.00551457	1060.000000	0.00558968	1060.000000	7.59981e-07	
1080.000000	0.0069404 	1080.000000	0.00557274	1080.000000	0.00551074	1080.000000	0.00549719	1080.000000	0.00557199	1080.000000	7.46936e-07	
1100.000000	0.00691588	1100.000000	0.00555598	1100.000000	0.00549421	1100.000000	0.0054807 	1100.000000	0.00555525	1100.000000	7.34348e-07	
1120.000000	0.00689271	1120.000000	0.00554012	1120.000000	0.00547859	1120.000000	0.00546505	1120.000000	0.0055394 	1120.000000	7.22191e-07	
1140.000000	0.00687084	1140.000000	0.00552512	1140.000000	0.00546382	1140.000000	0.00545021	1140.000000	0.00552441	1140.000000	7.10445e-07	
1160.000000	0.00685019	1160.000000	0.00551093	1160.000000	0.00544982	1160.000000	0.00543611	1160.000000	0.00551023	1160.000000	6.99087e-07	
1180.000000	0.00683071	1180.000000	0.00549751	1180.000000	0.00543653	1180.000000	0.00542273	1180.000000	0.00549682	1180.000000	6.881e-07 	
1200.000000	0.00681234	1200.000000	0.00548482	1200.000000	0.00542388	1200.000000	0.00541002	1200.000000	0.00548414	1200.000000	6.77465e-07	
1220.000000	0.00679504	1220.000000	0.00547283	1220.000000	0.00541182	1220.000000	0.00539794	1220.000000	0.00547216	1220.000000	6.67165e-07	
1240.000000	0.00677875	1240.000000	0.0054615 	1240.000000	0.00540032	1240.000000	0.00538648	1240.000000	0.00546085	1240.000000	6.57184e-07	
1260.000000	0.00676344	1260.000000	0.00545081	1260.000000	0.00538937	1260.000000	0.00537559	1260.000000	0.00545016	1260.000000	6.47508e-07	
1280.000000	0.00674905	1280.000000	0.00544072	1280.000000	0.00537894	1280.000000	0.00536524	1280.000000	0.00544008	1280.000000	6.38122e-07	
1300.000000	0.00673554	1300.000000	0.0054312 	1300.000000	0.00536904	1300.000000	0.00535542	1300.000000	0.00543058	1300.000000	6.29014e-07	
1320.000000	0.00672289	1320.000000	0.00542224	1320.000000	0.00535964	1320.000000	0.00534608	1320.000000	0.00542162	1320.000000	6.20172e-07	
1340.000000	0.00671106	1340.000000	0.00541381	1340.000000	0.00535072	1340.000000	0.00533722	1340.000000	0.00541319	1340.000000	6.11583e-07	
1360.000000	0.0067    	1360.000000	0.00540587	1360.000000	0.00534226	1360.000000	0.0053288 	1360.000000	0.00540527	1360.000000	6.03237e-07	
1380.000000	0.00668969	1380.000000	0.00539842	1380.000000	0.00533423	1380.000000	0.00532081	1380.000000	0.00539783	1380.000000	5.95123e-07	
1400.000000	0.00668011	1400.000000	0.00539143	1400.000000	0.0053266 	1400.000000	0.00531322	1400.000000	0.00539085	1400.000000	5.87233e-07	
1420.000000	0.00667121	1420.000000	0.00538489	1420.000000	0.00531936	1420.000000	0.00530602	1420.000000	0.00538431	1420.000000	5.79556e-07	
1440.000000	0.00666299	1440.000000	0.00537877	1440.000000	0.00531248	1440.000000	0.00529919	1440.000000	0.0053782 	1440.000000	5.72085e-07	
1460.000000	0.0066554 	1460.000000	0.00537305	1460.000000	0.00530594	1460.000000	0.0052927 	1460.000000	0.00537249	1460.000000	5.6481e-07	
1480.000000	0.00664842	1480.000000	0.00536773	1480.000000	0.00529974	1480.000000	0.00528656	1480.000000	0.00536717	1480.000000	5.57724e-07	
1500.000000	0.00664204	1500.000000	0.00536278	1500.000000	0.00529386	1500.000000	0.00528073	1500.000000	0.00536223	1500.000000	5.5082e-07	
1520.000000	0.00663624	1520.000000	0.0053582 	1520.000000	0.00528829	1520.000000	0.00527521	1520.000000	0.00535765	1520.000000	5.44091e-07	
1540.000000	0.00663098	1540.000000	0.00535396	1540.000000	0.00528302	1540.000000	0.00526999	1540.000000	0.00535342	1540.000000	5.37529e-07	
1560.000000	0.00662625	1560.000000	0.00535005	1560.000000	0.00527805	1560.000000	0.00526504	1560.000000	0.00534952	1560.000000	5.3113e-07	
1580.000000	0.00662204	1580.000000	0.00534647	1580.000000	0.00527335	1580.000000	0.00526036	1580.000000	0.00534595	1580.000000	5.24886e-07	
1600.000000	0.00661832	1600.000000	0.0053432 	1600.000000	0.00526893	1600.000000	0.00525594	1600.000000	0.00534268	1600.000000	5.18793e-07	
1620.000000	0.00661509	1620.000000	0.00534022	1620.000000	0.00526477	1620.000000	0.00525176	1620.000000	0.00533971	1620.000000	5.12844e-07	
1640.000000	0.00661231	1640.000000	0.00533754	1640.000000	0.00526087	1640.000000	0.00524782	1640.000000	0.00533703	1640.000000	5.07035e-07	
1660.000000	0.00660998	1660.000000	0.00533512	1660.000000	0.00525719	1660.000000	0.00524411	1660.000000	0.00533462	1660.000000	5.0136e-07	
1680.000000	0.00660809	1680.000000	0.00533298	1680.000000	0.00525374	1680.000000	0.00524061	1680.000000	0.00533249	1680.000000	4.95816e-07	
1700.000000	0.00660661	1700.000000	0.0053311 	1700.000000	0.00525049	1700.000000	0.00523732	1700.000000	0.00533061	1700.000000	4.90397e-07	
1750.000000	0.00660466	1750.000000	0.00532746	1750.000000	0.00524322	1750.000000	0.00522995	1750.000000	0.00532698	1750.000000	4.7737e-07	
1800.000000	0.00660506	1800.000000	0.00532525	1800.000000	0.00523702	1800.000000	0.00522369	1800.000000	0.00532478	1800.000000	4.65041e-07	
1850.000000	0.00660763	1850.000000	0.00532435	1850.000000	0.00523178	1850.000000	0.00521846	1850.000000	0.0053239 	1850.000000	4.53353e-07	
1900.000000	0.00661221	1900.000000	0.00532467	1900.000000	0.00522741	1900.000000	0.00521414	1900.000000	0.00532423	1900.000000	4.42258e-07	
1950.000000	0.00661867	1950.000000	0.0053261 	1950.000000	0.00522386	1950.000000	0.00521066	1950.000000	0.00532567	1950.000000	4.3171e-07	
2000.000000	0.00662688	2000.000000	0.00532857	2000.000000	0.00522106	2000.000000	0.00520794	2000.000000	0.00532815	2000.000000	4.2167e-07	
2100.000000	0.0066481 	2100.000000	0.00533633	2100.000000	0.00521749	2100.000000	0.0052045 	2100.000000	0.00533593	2100.000000	4.02973e-07	
2200.000000	0.00667507	2200.000000	0.00534741	2200.000000	0.00521626	2200.000000	0.00520336	2200.000000	0.00534703	2200.000000	3.85913e-07	
2300.000000	0.00670714	2300.000000	0.00536138	2300.000000	0.00521697	2300.000000	0.00520413	2300.000000	0.00536101	2300.000000	3.70284e-07	
2400.000000	0.00674375	2400.000000	0.00537789	2400.000000	0.00521928	2400.000000	0.00520651	2400.000000	0.00537753	2400.000000	3.5591e-07	
2500.000000	0.00678441	2500.000000	0.00539661	2500.000000	0.00522294	2500.000000	0.00521023	2500.000000	0.00539627	2500.000000	3.42645e-07	
2600.000000	0.00682875	2600.000000	0.0054173 	2600.000000	0.00522773	2600.000000	0.00521507	2600.000000	0.00541697	2600.000000	3.30364e-07	
2700.000000	0.0068764 	2700.000000	0.00543974	2700.000000	0.00523348	2700.000000	0.00522087	2700.000000	0.00543942	2700.000000	3.18959e-07	
2800.000000	0.00692708	2800.000000	0.00546373	2800.000000	0.00524003	2800.000000	0.00522747	2800.000000	0.00546342	2800.000000	3.0834e-07	
2900.000000	0.00698053	2900.000000	0.00548911	2900.000000	0.00524726	2900.000000	0.00523475	2900.000000	0.00548881	2900.000000	2.98428e-07	
3000.000000	0.00703652	3000.000000	0.00551574	3000.000000	0.00525506	3000.000000	0.00524259	3000.000000	0.00551545	3000.000000	2.89152e-07	
3200.000000	0.00715537	3200.000000	0.00557228	3200.000000	0.00527202	3200.000000	0.00525962	3200.000000	0.00557201	3200.000000	2.7228e-07	
3400.000000	0.00728233	3400.000000	0.00563252	3400.000000	0.00529033	3400.000000	0.00527799	3400.000000	0.00563226	3400.000000	2.57324e-07	
3600.000000	0.00741637	3600.000000	0.00569583	3600.000000	0.00530956	3600.000000	0.00529727	3600.000000	0.00569558	3600.000000	2.43972e-07	
3800.000000	0.00755668	3800.000000	0.0057617 	3800.000000	0.00532939	3800.000000	0.00531714	3800.000000	0.00576146	3800.000000	2.31978e-07	
4000.000000	0.00770261	4000.000000	0.00582972	4000.000000	0.00534959	4000.000000	0.00533738	4000.000000	0.0058295 	4000.000000	2.21142e-07	
4200.000000	0.00785361	4200.000000	0.00589959	4200.000000	0.00536997	4200.000000	0.0053578 	4200.000000	0.00589937	4200.000000	2.11302e-07	
4400.000000	0.00800924	4400.000000	0.00597101	4400.000000	0.0053904 	4400.000000	0.00537826	4400.000000	0.00597081	4400.000000	2.02326e-07	
4600.000000	0.00816914	4600.000000	0.00604379	4600.000000	0.00541079	4600.000000	0.00539867	4600.000000	0.0060436 	4600.000000	1.94104e-07	
4800.000000	0.00833299	4800.000000	0.00611773	4800.000000	0.00543105	4800.000000	0.00541896	4800.000000	0.00611755	4800.000000	1.86544e-07	
5000.000000	0.00850053	5000.000000	0.00619268	5000.000000	0.00545112	5000.000000	0.00543905	5000.000000	0.0061925 	5000.000000	1.79568e-07	
5250.000000	0.00871482	5250.000000	0.0062876 	5250.000000	0.00547589	5250.000000	0.00546385	5250.000000	0.00628743	5250.000000	1.7157e-07	
5500.000000	0.00893418	5500.000000	0.00638369	5500.000000	0.00550025	5500.000000	0.00548823	5500.000000	0.00638352	5500.000000	1.64274e-07	
6000.000000	0.00938691	6000.000000	0.0065787 	6000.000000	0.00554758	6000.000000	0.00553559	6000.000000	0.00657855	6000.000000	1.51447e-07	
6500.000000	0.00985685	6500.000000	0.00677666	6500.000000	0.00559295	6500.000000	0.00558099	6500.000000	0.00677652	6500.000000	1.4053e-07	
7000.000000	0.0103426 	7000.000000	0.00697681	7000.000000	0.00563633	7000.000000	0.00562439	7000.000000	0.00697668	7000.000000	1.31122e-07	
7500.000000	0.0108432 	7500.000000	0.0071786 	7500.000000	0.00567777	7500.000000	0.00566585	7500.000000	0.00717847	7500.000000	1.22927e-07	
8000.000000	0.0113579 	8000.000000	0.00738163	8000.000000	0.00571735	8000.000000	0.00570545	8000.000000	0.00738151	8000.000000	1.15724e-07	
8500.000000	0.011886  	8500.000000	0.0075856 	8500.000000	0.00575517	8500.000000	0.00574328	8500.000000	0.00758549	8500.000000	1.09341e-07	
9000.000000	0.0124272 	9000.000000	0.00779027	9000.000000	0.00579132	9000.000000	0.00577945	9000.000000	0.00779017	9000.000000	1.03644e-07	
9500.000000	0.012981  	9500.000000	0.00799548	9500.000000	0.00582593	9500.000000	0.00581406	9500.000000	0.00799538	9500.000000	9.85279e-08	
10000.000000	0.0135472 	10000.000000	0.00820107	10000.000000	0.00585908	10000.000000	0.00584722	10000.000000	0.00820097	10000.000000	9.39066e-08	
11000.000000	0.0147159 	11000.000000	0.00861301	11000.000000	0.00592139	11000.000000	0.00590954	11000.000000	0.00861292	11000.000000	8.5885e-08	
12000.000000	0.0159318 	12000.000000	0.00902544	12000.000000	0.00597889	12000.000000	0.00596711	12000.000000	0.00902536	12000.000000	7.91592e-08	
13000.000000	0.0171942 	13000.000000	0.00943797	13000.000000	0.00603208	13000.000000	0.00602051	13000.000000	0.0094379 	13000.000000	7.34362e-08	
14000.000000	0.0185023 	14000.000000	0.00985031	14000.000000	0.00608145	14000.000000	0.00607025	14000.000000	0.00985024	14000.000000	6.85056e-08	
15000.000000	0.0198557 	15000.000000	0.0102623 	15000.000000	0.00612753	15000.000000	0.00611675	15000.000000	0.0102622 	15000.000000	6.42121e-08	
16000.000000	0.0212542 	16000.000000	0.0106738 	16000.000000	0.00617082	16000.000000	0.00616038	16000.000000	0.0106737 	16000.000000	6.04388e-08	
17000.000000	0.0226977 	17000.000000	0.0110847 	17000.000000	0.00621166	17000.000000	0.00620144	17000.000000	0.0110846 	17000.000000	5.70957e-08	
18000.000000	0.024186  	18000.000000	0.011495  	18000.000000	0.00625031	18000.000000	0.0062402 	18000.000000	0.011495  	18000.000000	5.41126e-08	
19000.000000	0.0257192 	19000.000000	0.0119047 	19000.000000	0.00628699	19000.000000	0.00627687	19000.000000	0.0119046 	19000.000000	5.14338e-08	
20000.000000	0.0272972 	20000.000000	0.0123136 	20000.000000	0.00632186	20000.000000	0.00631167	20000.000000	0.0123136 	20000.000000	4.90146e-08	
21000.000000	0.0289202 	21000.000000	0.012722  	21000.000000	0.00635495	21000.000000	0.00634476	21000.000000	0.0127219 	21000.000000	4.68188e-08	
22000.000000	0.0305881 	22000.000000	0.0131296 	22000.000000	0.00638611	22000.000000	0.00637629	22000.000000	0.0131295 	22000.000000	4.48164e-08	
23000.000000	0.0323013 	23000.000000	0.0135365 	23000.000000	0.00641574	23000.000000	0.0064064 	23000.000000	0.0135365 	23000.000000	4.29829e-08	
24000.000000	0.0340597 	24000.000000	0.0139428 	24000.000000	0.00644429	24000.000000	0.00643519	24000.000000	0.0139427 	24000.000000	4.12974e-08	
25000.000000	0.0358635 	25000.000000	0.0143484 	25000.000000	0.00647193	25000.000000	0.00646278	25000.000000	0.0143484 	25000.000000	3.97426e-08	
26000.000000	0.0377129 	26000.000000	0.0147533 	26000.000000	0.00649833	26000.000000	0.00648924	26000.000000	0.0147533 	26000.000000	3.83038e-08	
27000.000000	0.0396081 	27000.000000	0.0151577 	27000.000000	0.0065234 	27000.000000	0.00651468	27000.000000	0.0151576 	27000.000000	3.69682e-08	
28000.000000	0.0415493 	28000.000000	0.0155613 	28000.000000	0.0065474 	28000.000000	0.00653915	28000.000000	0.0155613 	28000.000000	3.57252e-08	
29000.000000	0.0435366 	29000.000000	0.0159644 	29000.000000	0.00657057	29000.000000	0.00656273	29000.000000	0.0159644 	29000.000000	3.45653e-08	
30000.000000	0.0455703 	30000.000000	0.0163668 	30000.000000	0.00659299	30000.000000	0.00658547	30000.000000	0.0163668 	30000.000000	3.34803e-08	
32000.000000	0.0497777 	32000.000000	0.01717   	32000.000000	0.00663561	32000.000000	0.00662866	32000.000000	0.01717   	32000.000000	3.15077e-08	
34000.000000	0.0541731 	34000.000000	0.0179709 	34000.000000	0.00667544	34000.000000	0.0066691 	34000.000000	0.0179709 	34000.000000	2.97604e-08	
36000.000000	0.0587585 	36000.000000	0.0187696 	36000.000000	0.00671279	36000.000000	0.0067071 	36000.000000	0.0187696 	36000.000000	2.82015e-08	
38000.000000	0.0635357 	38000.000000	0.0195663 	38000.000000	0.00674797	38000.000000	0.00674293	38000.000000	0.0195663 	38000.000000	2.68018e-08	
40000.000000	0.0685066 	40000.000000	0.020361  	40000.000000	0.00678118	40000.000000	0.00677681	40000.000000	0.020361  	40000.000000	2.5538e-08	
42000.000000	0.0736733 	42000.000000	0.0211538 	42000.000000	0.00681256	42000.000000	0.00680893	42000.000000	0.0211538 	42000.000000	2.4391e-08	
44000.000000	0.0790378 	44000.000000	0.0219448 	44000.000000	0.00684228	44000.000000	0.00683946	44000.000000	0.0219448 	44000.000000	2.33452e-08	
46000.000000	0.0846022 	46000.000000	0.022734  	46000.000000	0.00687049	46000.000000	0.00686854	46000.000000	0.022734  	46000.000000	2.23877e-08	
48000.000000	0.0903685 	48000.000000	0.0235216 	48000.000000	0.00689734	48000.000000	0.0068963 	48000.000000	0.0235216 	48000.000000	2.15076e-08	
50000.000000	0.0963389 	50000.000000	0.0243076 	50000.000000	0.00692291	50000.000000	0.00692284	50000.000000	0.0243076 	50000.000000	2.06958e-08	
