Energy (MeV/u)1	0 - [He-base] F.Hubert et al, AD&ND Tables 46(1990)1	Energy (MeV/u)2	1 - [H -base] J.F.Ziegler et al, Pergamon Press, NY (low energy)	Energy (MeV/u)3	2 - ATIMA 1.2  LS-theory (recommended for high energy)	Energy (MeV/u)4	3 - ATIMA 1.2  without LS-correction	Energy (MeV/u)5	4 - electrical component of [1] - J.F.Ziegler et al	Energy (MeV/u)6	5 - nuclear component of [1] - J.F.Ziegler et al	
0.001000	0.556845  	0.001000	0.508752  	0.001000	0.680906  	0.001000	0.680906  	0.001000	0.267514  	0.001000	0.241238  	
0.002000	0.657637  	0.002000	0.566916  	0.002000	0.752643  	0.002000	0.752643  	0.002000	0.391663  	0.002000	0.175253  	
0.005000	0.93135   	0.005000	0.751451  	0.005000	0.933814  	0.005000	0.933814  	0.005000	0.648306  	0.005000	0.103145  	
0.008000	1.15931   	0.008000	0.915172  	0.008000	1.07827   	0.008000	1.07827   	0.008000	0.839548  	0.008000	0.0756238 	
0.010000	1.29375   	0.010000	1.01403   	0.010000	1.16163   	0.010000	1.16163   	0.010000	0.949175  	0.010000	0.0648575 	
0.015000	1.52008   	0.015000	1.20779   	0.015000	1.33374   	0.015000	1.33374   	0.015000	1.15959   	0.015000	0.0482028 	
0.020000	1.69738   	0.020000	1.3354    	0.020000	1.49019   	0.020000	1.49019   	0.020000	1.29641   	0.020000	0.0389966 	
0.025000	1.89011   	0.025000	1.47909   	0.025000	1.63908   	0.025000	1.63908   	0.025000	1.44613   	0.025000	0.0329624 	
0.030000	2.04634   	0.030000	1.61056   	0.030000	1.76539   	0.030000	1.76539   	0.030000	1.58189   	0.030000	0.0286705 	
0.035000	2.1713    	0.035000	1.72939   	0.035000	1.88381   	0.035000	1.88381   	0.035000	1.70395   	0.035000	0.0254457 	
0.040000	2.26716   	0.040000	1.83931   	0.040000	1.99487   	0.040000	1.99487   	0.040000	1.81638   	0.040000	0.0229251 	
0.045000	2.33548   	0.045000	1.9406    	0.045000	2.09899   	0.045000	2.09899   	0.045000	1.9197    	0.045000	0.0208955 	
0.050000	2.37819   	0.050000	2.03349   	0.050000	2.19649   	0.050000	2.19649   	0.050000	2.01427   	0.050000	0.0192227 	
0.055000	2.47287   	0.055000	2.13576   	0.055000	2.28763   	0.055000	2.28763   	0.055000	2.11794   	0.055000	0.0178178 	
0.060000	2.55159   	0.060000	2.23144   	0.060000	2.37267   	0.060000	2.37267   	0.060000	2.21482   	0.060000	0.0166198 	
0.070000	2.66628   	0.070000	2.40345   	0.070000	2.52539   	0.070000	2.52539   	0.070000	2.38877   	0.070000	0.014681  	
0.080000	2.78921   	0.080000	2.54795   	0.080000	2.65653   	0.080000	2.65653   	0.080000	2.53478   	0.080000	0.013176  	
0.090000	2.87781   	0.090000	2.66911   	0.090000	2.76794   	0.090000	2.76794   	0.090000	2.65713   	0.090000	0.0119708 	
0.100000	2.94322   	0.100000	2.76898   	0.100000	2.86146   	0.100000	2.86146   	0.100000	2.758     	0.100000	0.0109821 	
0.120000	2.98477   	0.120000	2.9561    	0.120000	3.00194   	0.120000	3.00194   	0.120000	2.94664   	0.120000	0.00945217	
0.140000	2.99202   	0.140000	3.08117   	0.140000	3.09142   	0.140000	3.09142   	0.140000	3.07285   	0.140000	0.0083196 	
0.160000	2.99228   	0.160000	3.16565   	0.160000	3.1416    	0.160000	3.1416    	0.160000	3.1582    	0.160000	0.00744469	
0.180000	2.98864   	0.180000	3.21051   	0.180000	3.16221   	0.180000	3.16221   	0.180000	3.20376   	0.180000	0.00674691	
0.200000	2.99656   	0.200000	3.24281   	0.200000	3.16106   	0.200000	3.16106   	0.200000	3.23663   	0.200000	0.00617639	
0.250000	2.93526   	0.250000	3.23847   	0.250000	3.09949   	0.250000	3.09949   	0.250000	3.23336   	0.250000	0.00511762	
0.300000	2.92569   	0.300000	3.24228   	0.300000	3.01742   	0.300000	3.01742   	0.300000	3.23789   	0.300000	0.00438487	
0.350000	2.89169   	0.350000	3.19845   	0.350000	2.9221    	0.350000	2.9221    	0.350000	3.1946    	0.350000	0.00384556	
0.400000	2.84288   	0.400000	3.1364    	0.400000	2.81892   	0.400000	2.81892   	0.400000	3.13297   	0.400000	0.00343088	
0.450000	2.77863   	0.450000	3.0601    	0.450000	2.71415   	0.450000	2.71415   	0.450000	3.057     	0.450000	0.00310143	
0.500000	2.71617   	0.500000	2.99099   	0.500000	2.61665   	0.500000	2.61665   	0.500000	2.98816   	0.500000	0.00283296	
0.600000	2.4927    	0.600000	2.78226   	0.600000	2.44455   	0.600000	2.44455   	0.600000	2.77984   	0.600000	0.00242089	
0.700000	2.26897   	0.700000	2.5823    	0.700000	2.29901   	0.700000	2.29901   	0.700000	2.58018   	0.700000	0.0021186 	
0.800000	2.17011   	0.800000	2.43732   	0.800000	2.17417   	0.800000	2.17417   	0.800000	2.43544   	0.800000	0.00188678	
0.900000	2.06477   	0.900000	2.29251   	0.900000	2.0652    	0.900000	2.0652    	0.900000	2.2908    	0.900000	0.00170302	
1.000000	1.96023   	1.000000	2.15328   	1.000000	1.96356   	1.000000	1.96356   	1.000000	2.15172   	1.000000	0.00155355	
1.250000	1.72044   	1.250000	1.8972    	1.250000	1.75654   	1.250000	1.75654   	1.250000	1.89593   	1.250000	0.00127814	
1.500000	1.49372   	1.500000	1.6509    	1.500000	1.59387   	1.500000	1.59387   	1.500000	1.64981   	1.500000	0.00108916	
1.750000	1.32757   	1.750000	1.47574   	1.750000	1.45959   	1.750000	1.45959   	1.750000	1.47478   	1.750000	0.000950982	
2.000000	1.19908   	2.000000	1.34312   	2.000000	1.34599   	2.000000	1.34599   	2.000000	1.34228   	2.000000	0.000845312	
2.250000	1.09765   	2.250000	1.23034   	2.250000	1.24807   	2.250000	1.24807   	2.250000	1.22958   	2.250000	0.000761741	
2.500000	0.979644  	2.500000	1.13771   	2.500000	1.16291   	2.500000	1.16291   	2.500000	1.13702   	2.500000	0.000693901	
3.000000	0.860778  	3.000000	0.992747  	3.000000	1.02257   	3.000000	1.02257   	3.000000	0.992157  	3.000000	0.000590269	
3.500000	0.769179  	3.500000	0.883019  	3.500000	0.912261  	3.500000	0.912261  	3.500000	0.882504  	3.500000	0.000514655	
4.000000	0.696309  	4.000000	0.796321  	4.000000	0.823708  	4.000000	0.823708  	4.000000	0.795864  	4.000000	0.000456924	
4.500000	0.636875  	4.500000	0.725831  	4.500000	0.751274  	4.500000	0.751274  	4.500000	0.72542   	4.500000	0.000411331	
5.000000	0.587421  	5.000000	0.667305  	5.000000	0.691033  	5.000000	0.691033  	5.000000	0.666931  	5.000000	0.000374365	
5.500000	0.545589  	5.500000	0.618509  	5.500000	0.640194  	5.500000	0.640194  	5.500000	0.618166  	5.500000	0.000343759	
6.000000	0.509716  	6.000000	0.576755  	6.000000	0.59673   	6.000000	0.59673   	6.000000	0.576437  	6.000000	0.00031798	
6.500000	0.478593  	6.500000	0.540608  	6.500000	0.559147  	6.500000	0.559147  	6.500000	0.540312  	6.500000	0.000295955	
7.000000	0.45132   	7.000000	0.508996  	7.000000	0.526319  	7.000000	0.526319  	7.000000	0.508719  	7.000000	0.000276909	
7.500000	0.427213  	7.500000	0.481105  	7.500000	0.497388  	7.500000	0.497388  	7.500000	0.480845  	7.500000	0.000260268	
8.000000	0.405742  	8.000000	0.456306  	8.000000	0.471689  	8.000000	0.471689  	8.000000	0.456061  	8.000000	0.000245596	
8.500000	0.386489  	8.500000	0.434103  	8.500000	0.4487    	8.500000	0.4487    	8.500000	0.433871  	8.500000	0.00023256	
9.000000	0.369122  	9.000000	0.414101  	9.000000	0.428004  	9.000000	0.428004  	9.000000	0.41388   	9.000000	0.000220896	
9.500000	0.353373  	9.500000	0.395983  	9.500000	0.409267  	9.500000	0.409267  	9.500000	0.395772  	9.500000	0.000210395	
10.000000	0.339021  	10.000000	0.3911    	10.000000	0.392217  	10.000000	0.392217  	10.000000	0.390899  	10.000000	0.00020089	
11.000000	0.313814  	11.000000	0.362088  	11.000000	0.36198   	11.000000	0.362037  	11.000000	0.361904  	11.000000	0.000184341	
12.000000	0.29238   	12.000000	0.337374  	12.000000	0.336387  	12.000000	0.33648   	12.000000	0.337204  	12.000000	0.000170413	
13.000000	0.273919  	13.000000	0.316058  	13.000000	0.314435  	13.000000	0.314549  	13.000000	0.315899  	13.000000	0.000158522	
14.000000	0.257842  	14.000000	0.297474  	14.000000	0.295395  	14.000000	0.295518  	14.000000	0.297326  	14.000000	0.000148246	
15.000000	0.243709  	15.000000	0.281121  	15.000000	0.278722  	15.000000	0.278844  	15.000000	0.280982  	15.000000	0.000139272	
16.000000	0.231182  	16.000000	0.266615  	16.000000	0.263994  	16.000000	0.264114  	16.000000	0.266484  	16.000000	0.000131365	
17.000000	0.219996  	17.000000	0.253656  	17.000000	0.25089   	17.000000	0.251008  	17.000000	0.253531  	17.000000	0.000124343	
18.000000	0.209945  	18.000000	0.242004  	18.000000	0.239161  	18.000000	0.239271  	18.000000	0.241886  	18.000000	0.000118063	
19.000000	0.20086   	19.000000	0.231468  	19.000000	0.228602  	19.000000	0.228703  	19.000000	0.231355  	19.000000	0.000112412	
20.000000	0.192607  	20.000000	0.221893  	20.000000	0.219042  	20.000000	0.219139  	20.000000	0.221786  	20.000000	0.000107299	
21.000000	0.185075  	21.000000	0.213151  	21.000000	0.210352  	21.000000	0.210445  	21.000000	0.213049  	21.000000	0.000102649	
22.000000	0.17817   	22.000000	0.205137  	22.000000	0.202428  	22.000000	0.20251   	22.000000	0.205039  	22.000000	9.84009e-05	
23.000000	0.171818  	23.000000	0.197761  	23.000000	0.195177  	23.000000	0.195242  	23.000000	0.197667  	23.000000	9.45048e-05	
24.000000	0.165952  	24.000000	0.19095   	24.000000	0.18851   	24.000000	0.188563  	24.000000	0.190859  	24.000000	9.09178e-05	
25.000000	0.160518  	25.000000	0.18464   	25.000000	0.18236   	25.000000	0.182406  	25.000000	0.184552  	25.000000	8.7604e-05	
27.000000	0.150764  	27.000000	0.173313  	27.000000	0.17141   	27.000000	0.171442  	27.000000	0.173231  	27.000000	8.16785e-05	
29.000000	0.142255  	29.000000	0.163431  	29.000000	0.161973  	29.000000	0.161987  	29.000000	0.163355  	29.000000	7.65327e-05	
31.000000	0.134763  	31.000000	0.154731  	31.000000	0.153603  	31.000000	0.1536    	31.000000	0.154659  	31.000000	7.20206e-05	
33.000000	0.128112  	33.000000	0.14701   	33.000000	0.146038  	33.000000	0.146018  	33.000000	0.146942  	33.000000	6.80304e-05	
35.000000	0.122166  	35.000000	0.140109  	35.000000	0.13927   	35.000000	0.139236  	35.000000	0.140045  	35.000000	6.44754e-05	
38.000000	0.114338  	38.000000	0.131028  	38.000000	0.130351  	38.000000	0.1303    	38.000000	0.130968  	38.000000	5.98132e-05	
41.000000	0.107576  	41.000000	0.123188  	41.000000	0.122642  	41.000000	0.122577  	41.000000	0.123132  	41.000000	5.58031e-05	
44.000000	0.101671  	44.000000	0.116348  	44.000000	0.115906  	44.000000	0.11583   	44.000000	0.116295  	44.000000	5.23157e-05	
47.000000	0.0964691 	47.000000	0.110326  	47.000000	0.10997   	47.000000	0.109883  	47.000000	0.110276  	47.000000	4.9254e-05	
50.000000	0.0918481 	50.000000	0.104981  	50.000000	0.104686  	50.000000	0.104599  	50.000000	0.104935  	50.000000	4.65434e-05	
55.000000	0.0851919 	55.000000	0.0972924 	55.000000	0.0970781 	55.000000	0.0969865 	55.000000	0.0972498 	55.000000	4.26549e-05	
60.000000	0.0795716 	60.000000	0.0908113 	60.000000	0.090658  	60.000000	0.0905596 	60.000000	0.0907719 	60.000000	3.93871e-05	
65.000000	0.0747588 	65.000000	0.0852711 	65.000000	0.0851534 	65.000000	0.0850576 	65.000000	0.0852345 	65.000000	3.66009e-05	
70.000000	0.0705878 	70.000000	0.0804785 	70.000000	0.0803969 	70.000000	0.0802919 	70.000000	0.0804443 	70.000000	3.41959e-05	
75.000000	0.0669357 	75.000000	0.0762902 	75.000000	0.0762218 	75.000000	0.0761221 	75.000000	0.0762581 	75.000000	3.20981e-05	
80.000000	0.0637096 	80.000000	0.0725976 	80.000000	0.0725458 	80.000000	0.0724418 	80.000000	0.0725673 	80.000000	3.02515e-05	
85.000000	0.0608375 	85.000000	0.0693166 	85.000000	0.0692675 	85.000000	0.0691686 	85.000000	0.069288  	85.000000	2.8613e-05	
90.000000	0.0582629 	90.000000	0.0663814 	90.000000	0.0663404 	90.000000	0.0662378 	90.000000	0.0663543 	90.000000	2.7149e-05	
95.000000	0.0559408 	95.000000	0.0637396 	95.000000	0.0636956 	95.000000	0.0635978 	95.000000	0.0637137 	95.000000	2.58326e-05	
100.000000	0.0538351 	100.000000	0.0613487 	100.000000	0.0613081 	100.000000	0.061207  	100.000000	0.0613241 	100.000000	2.46424e-05	
105.000000	0.0519162 	105.000000	0.0591744 	105.000000	0.0591282 	105.000000	0.0590313 	105.000000	0.0591509 	105.000000	2.35609e-05	
110.000000	0.0501596 	110.000000	0.0571883 	110.000000	0.0571418 	110.000000	0.0570428 	110.000000	0.0571657 	110.000000	2.25736e-05	
115.000000	0.0485451 	115.000000	0.0553666 	115.000000	0.0553149 	115.000000	0.0552181 	115.000000	0.055345  	115.000000	2.16686e-05	
120.000000	0.0470558 	120.000000	0.0536897 	120.000000	0.0536333 	120.000000	0.0535375 	120.000000	0.0536689 	120.000000	2.08358e-05	
125.000000	0.0456773 	125.000000	0.0521408 	125.000000	0.0520822 	125.000000	0.0519847 	125.000000	0.0521207 	125.000000	2.0067e-05	
130.000000	0.0443973 	130.000000	0.0507056 	130.000000	0.0506393 	130.000000	0.0505454 	130.000000	0.0506863 	130.000000	1.93548e-05	
135.000000	0.0432054 	135.000000	0.0493721 	135.000000	0.0492978 	135.000000	0.0492076 	135.000000	0.0493534 	135.000000	1.86933e-05	
140.000000	0.0420926 	140.000000	0.0481296 	140.000000	0.0480518 	140.000000	0.0479609 	140.000000	0.0481115 	140.000000	1.8077e-05	
145.000000	0.041051  	145.000000	0.0469692 	145.000000	0.046888  	145.000000	0.0467962 	145.000000	0.0469517 	145.000000	1.75015e-05	
150.000000	0.0400739 	150.000000	0.0458828 	150.000000	0.0457946 	150.000000	0.0457058 	150.000000	0.0458659 	150.000000	1.69628e-05	
155.000000	0.0386981 	155.000000	0.0448637 	155.000000	0.044772  	155.000000	0.0446826 	155.000000	0.0448472 	155.000000	1.64575e-05	
160.000000	0.0378917 	160.000000	0.0439056 	160.000000	0.0438109 	160.000000	0.0437206 	160.000000	0.0438897 	160.000000	1.59824e-05	
165.000000	0.0371312 	165.000000	0.0430033 	165.000000	0.0429023 	165.000000	0.0428146 	165.000000	0.0429878 	165.000000	1.5535e-05	
170.000000	0.0364128 	170.000000	0.0421521 	170.000000	0.0420472 	170.000000	0.0419598 	170.000000	0.0421369 	170.000000	1.51128e-05	
175.000000	0.0357331 	175.000000	0.0413476 	175.000000	0.0412406 	175.000000	0.0411519 	175.000000	0.0413328 	175.000000	1.47138e-05	
180.000000	0.0350889 	180.000000	0.0405861 	180.000000	0.0404748 	180.000000	0.0403872 	180.000000	0.0405717 	180.000000	1.4336e-05	
185.000000	0.0344776 	185.000000	0.0398643 	185.000000	0.0397473 	185.000000	0.0396623 	185.000000	0.0398503 	185.000000	1.39778e-05	
190.000000	0.0338966 	190.000000	0.0391791 	190.000000	0.0390571 	190.000000	0.0389743 	190.000000	0.0391654 	190.000000	1.36378e-05	
195.000000	0.0333436 	195.000000	0.0385278 	195.000000	0.0384032 	195.000000	0.0383203 	195.000000	0.0385145 	195.000000	1.33144e-05	
200.000000	0.0328168 	200.000000	0.0379079 	200.000000	0.037782  	200.000000	0.037698  	200.000000	0.0378949 	200.000000	1.30066e-05	
210.000000	0.0318343 	210.000000	0.0367539 	210.000000	0.0366211 	210.000000	0.0365395 	210.000000	0.0367415 	210.000000	1.24332e-05	
220.000000	0.0309363 	220.000000	0.0357015 	220.000000	0.0355658 	220.000000	0.0354834 	220.000000	0.0356896 	220.000000	1.19098e-05	
230.000000	0.0301123 	230.000000	0.034738  	230.000000	0.0345977 	230.000000	0.0345168 	230.000000	0.0347266 	230.000000	1.14302e-05	
240.000000	0.0293534 	240.000000	0.0338525 	240.000000	0.0337065 	240.000000	0.0336288 	240.000000	0.0338416 	240.000000	1.09891e-05	
250.000000	0.0286523 	250.000000	0.0330361 	250.000000	0.0328885 	250.000000	0.0328103 	250.000000	0.0330255 	250.000000	1.05818e-05	
260.000000	0.0280024 	260.000000	0.0322809 	260.000000	0.0321315 	260.000000	0.0320537 	260.000000	0.0322707 	260.000000	1.02046e-05	
270.000000	0.0273984 	270.000000	0.0315805 	270.000000	0.0314283 	270.000000	0.0313522 	270.000000	0.0315706 	270.000000	9.85431e-06	
280.000000	0.0268357 	280.000000	0.030929  	280.000000	0.0307774 	280.000000	0.0307002 	280.000000	0.0309195 	280.000000	9.52806e-06	
290.000000	0.02631   	290.000000	0.0303217 	290.000000	0.0301686 	290.000000	0.0300926 	290.000000	0.0303124 	290.000000	9.22343e-06	
300.000000	0.0258179 	300.000000	0.0297542 	300.000000	0.0295988 	300.000000	0.0295252 	300.000000	0.0297452 	300.000000	8.93833e-06	
310.000000	0.0253563 	310.000000	0.0292227 	310.000000	0.0290669 	310.000000	0.0289943 	310.000000	0.0292141 	310.000000	8.67092e-06	
320.000000	0.0249224 	320.000000	0.0287241 	320.000000	0.0285699 	320.000000	0.0284964 	320.000000	0.0287157 	320.000000	8.41957e-06	
330.000000	0.0245139 	330.000000	0.0282555 	330.000000	0.0281018 	330.000000	0.0280287 	330.000000	0.0282473 	330.000000	8.18287e-06	
340.000000	0.0241286 	340.000000	0.0278141 	340.000000	0.0276599 	340.000000	0.0275885 	340.000000	0.0278062 	340.000000	7.95956e-06	
350.000000	0.0237646 	350.000000	0.0273979 	350.000000	0.0272434 	350.000000	0.0271737 	350.000000	0.0273902 	350.000000	7.74853e-06	
360.000000	0.0234203 	360.000000	0.0270047 	360.000000	0.0268519 	360.000000	0.0267822 	360.000000	0.0269972 	360.000000	7.54876e-06	
370.000000	0.023094  	370.000000	0.0266328 	370.000000	0.0264805 	370.000000	0.02641   	370.000000	0.0266254 	370.000000	7.35939e-06	
380.000000	0.0227845 	380.000000	0.0262805 	380.000000	0.0261274 	380.000000	0.0260577 	380.000000	0.0262733 	380.000000	7.1796e-06	
390.000000	0.0224905 	390.000000	0.0259463 	390.000000	0.0257923 	390.000000	0.0257238 	390.000000	0.0259393 	390.000000	7.00868e-06	
400.000000	0.0222109 	400.000000	0.025629  	400.000000	0.0254756 	400.000000	0.0254068 	400.000000	0.0256221 	400.000000	6.84598e-06	
410.000000	0.0219448 	410.000000	0.0253273 	410.000000	0.0251751 	410.000000	0.0251057 	410.000000	0.0253206 	410.000000	6.69091e-06	
420.000000	0.0216911 	420.000000	0.0250401 	420.000000	0.0248882 	420.000000	0.0248193 	420.000000	0.0250336 	420.000000	6.54295e-06	
430.000000	0.0214491 	430.000000	0.0247666 	430.000000	0.0246143 	430.000000	0.0245466 	430.000000	0.0247602 	430.000000	6.40161e-06	
440.000000	0.021218  	440.000000	0.0245056 	440.000000	0.0243531 	440.000000	0.0242867 	440.000000	0.0244994 	440.000000	6.26645e-06	
450.000000	0.0209972 	450.000000	0.0242566 	450.000000	0.0241044 	450.000000	0.0240387 	450.000000	0.0242504 	450.000000	6.13707e-06	
460.000000	0.0207859 	460.000000	0.0240186 	460.000000	0.0238678 	460.000000	0.023802  	460.000000	0.0240126 	460.000000	6.01311e-06	
470.000000	0.0205836 	470.000000	0.023791  	470.000000	0.023642  	470.000000	0.0235757 	470.000000	0.0237851 	470.000000	5.89422e-06	
480.000000	0.0203898 	480.000000	0.0235732 	480.000000	0.0234257 	480.000000	0.0233593 	480.000000	0.0235675 	480.000000	5.78009e-06	
490.000000	0.020204  	490.000000	0.0233646 	490.000000	0.0232179 	490.000000	0.0231521 	490.000000	0.023359  	490.000000	5.67046e-06	
500.000000	0.0200257 	500.000000	0.0231647 	500.000000	0.0230186 	500.000000	0.0229536 	500.000000	0.0231591 	500.000000	5.56504e-06	
520.000000	0.01969   	520.000000	0.0227889 	520.000000	0.0226442 	520.000000	0.0225809 	520.000000	0.0227835 	520.000000	5.36591e-06	
540.000000	0.0193797 	540.000000	0.0224422 	540.000000	0.0223009 	540.000000	0.0222374 	540.000000	0.022437  	540.000000	5.181e-06 	
560.000000	0.0190924 	560.000000	0.0221216 	560.000000	0.0219839 	560.000000	0.0219202 	560.000000	0.0221166 	560.000000	5.0088e-06	
580.000000	0.0188256 	580.000000	0.0218245 	580.000000	0.0216889 	580.000000	0.0216264 	580.000000	0.0218196 	580.000000	4.84805e-06	
600.000000	0.0185774 	600.000000	0.0215486 	600.000000	0.0214161 	600.000000	0.0213538 	600.000000	0.0215439 	600.000000	4.69762e-06	
620.000000	0.0183462 	620.000000	0.0212919 	620.000000	0.0211633 	620.000000	0.0211003 	620.000000	0.0212873 	620.000000	4.55654e-06	
640.000000	0.0181304 	640.000000	0.0210526 	640.000000	0.0209266 	640.000000	0.0208643 	640.000000	0.0210482 	640.000000	4.42396e-06	
660.000000	0.0179288 	660.000000	0.0208293 	660.000000	0.0207052 	660.000000	0.020644  	660.000000	0.020825  	660.000000	4.29912e-06	
680.000000	0.01774   	680.000000	0.0206204 	680.000000	0.0204983 	680.000000	0.0204381 	680.000000	0.0206162 	680.000000	4.18136e-06	
700.000000	0.0175631 	700.000000	0.0204249 	700.000000	0.0203053 	700.000000	0.0202454 	700.000000	0.0204208 	700.000000	4.07008e-06	
720.000000	0.0173972 	720.000000	0.0202416 	720.000000	0.0201251 	720.000000	0.0200648 	720.000000	0.0202377 	720.000000	3.96476e-06	
740.000000	0.0172413 	740.000000	0.0200696 	740.000000	0.0199558 	740.000000	0.0198952 	740.000000	0.0200658 	740.000000	3.86493e-06	
760.000000	0.0170948 	760.000000	0.019908  	760.000000	0.019796  	760.000000	0.0197359 	760.000000	0.0199043 	760.000000	3.77016e-06	
780.000000	0.0169569 	780.000000	0.0197561 	780.000000	0.0196453 	780.000000	0.019586  	780.000000	0.0197524 	780.000000	3.68007e-06	
800.000000	0.0168271 	800.000000	0.019613  	800.000000	0.0195033 	800.000000	0.0194448 	800.000000	0.0196094 	800.000000	3.59433e-06	
820.000000	0.0167048 	820.000000	0.0194782 	820.000000	0.0193696 	820.000000	0.0193117 	820.000000	0.0194747 	820.000000	3.51262e-06	
840.000000	0.0165895 	840.000000	0.0193511 	840.000000	0.0192438 	840.000000	0.019186  	840.000000	0.0193477 	840.000000	3.43466e-06	
860.000000	0.0164807 	860.000000	0.0192312 	860.000000	0.0191253 	860.000000	0.0190674 	860.000000	0.0192278 	860.000000	3.36019e-06	
880.000000	0.016378  	880.000000	0.019118  	880.000000	0.0190134 	880.000000	0.0189551 	880.000000	0.0191147 	880.000000	3.28899e-06	
900.000000	0.016281  	900.000000	0.019011  	900.000000	0.0189072 	900.000000	0.0188489 	900.000000	0.0190078 	900.000000	3.22084e-06	
920.000000	0.0161894 	920.000000	0.0189099 	920.000000	0.0188064 	920.000000	0.0187484 	920.000000	0.0189068 	920.000000	3.15555e-06	
940.000000	0.0161028 	940.000000	0.0188144 	940.000000	0.0187106 	940.000000	0.0186531 	940.000000	0.0188113 	940.000000	3.09293e-06	
960.000000	0.016021  	960.000000	0.0187239 	960.000000	0.0186196 	960.000000	0.0185627 	960.000000	0.0187209 	960.000000	3.03283e-06	
980.000000	0.0159436 	980.000000	0.0186383 	980.000000	0.0185333 	980.000000	0.0184769 	980.000000	0.0186354 	980.000000	2.9751e-06	
1000.000000	0.0158705 	1000.000000	0.0185573 	1000.000000	0.0184514 	1000.000000	0.0183954 	1000.000000	0.0185544 	1000.000000	2.91959e-06	
1020.000000	0.0158014 	1020.000000	0.0184806 	1020.000000	0.0183738 	1020.000000	0.0183181 	1020.000000	0.0184778 	1020.000000	2.86618e-06	
1040.000000	0.0157361 	1040.000000	0.018408  	1040.000000	0.0183002 	1040.000000	0.0182445 	1040.000000	0.0184052 	1040.000000	2.81476e-06	
1060.000000	0.0156743 	1060.000000	0.0183392 	1060.000000	0.0182305 	1060.000000	0.0181745 	1060.000000	0.0183364 	1060.000000	2.7652e-06	
1080.000000	0.0156159 	1080.000000	0.018274  	1080.000000	0.0181641 	1080.000000	0.0181079 	1080.000000	0.0182713 	1080.000000	2.71742e-06	
1100.000000	0.0155607 	1100.000000	0.0182122 	1100.000000	0.0181009 	1100.000000	0.0180446 	1100.000000	0.0182096 	1100.000000	2.67131e-06	
1120.000000	0.0155086 	1120.000000	0.0181537 	1120.000000	0.0180404 	1120.000000	0.0179842 	1120.000000	0.0181511 	1120.000000	2.62679e-06	
1140.000000	0.0154594 	1140.000000	0.0180983 	1140.000000	0.0179826 	1140.000000	0.0179267 	1140.000000	0.0180957 	1140.000000	2.58377e-06	
1160.000000	0.0154129 	1160.000000	0.0180458 	1160.000000	0.0179274 	1160.000000	0.0178718 	1160.000000	0.0180433 	1160.000000	2.54219e-06	
1180.000000	0.0153691 	1180.000000	0.0179961 	1180.000000	0.0178749 	1180.000000	0.0178196 	1180.000000	0.0179936 	1180.000000	2.50197e-06	
1200.000000	0.0153278 	1200.000000	0.0179491 	1200.000000	0.0178248 	1200.000000	0.0177697 	1200.000000	0.0179466 	1200.000000	2.46304e-06	
1220.000000	0.0152888 	1220.000000	0.0179045 	1220.000000	0.0177772 	1220.000000	0.0177221 	1220.000000	0.0179021 	1220.000000	2.42534e-06	
1240.000000	0.0152522 	1240.000000	0.0178624 	1240.000000	0.0177319 	1240.000000	0.0176767 	1240.000000	0.01786   	1240.000000	2.38881e-06	
1260.000000	0.0152177 	1260.000000	0.0178225 	1260.000000	0.0176887 	1260.000000	0.0176334 	1260.000000	0.0178202 	1260.000000	2.35341e-06	
1280.000000	0.0151854 	1280.000000	0.0177849 	1280.000000	0.0176475 	1280.000000	0.017592  	1280.000000	0.0177826 	1280.000000	2.31907e-06	
1300.000000	0.015155  	1300.000000	0.0177493 	1300.000000	0.0176081 	1300.000000	0.0175525 	1300.000000	0.017747  	1300.000000	2.28575e-06	
1320.000000	0.0151265 	1320.000000	0.0177157 	1320.000000	0.0175704 	1320.000000	0.0175148 	1320.000000	0.0177134 	1320.000000	2.2534e-06	
1340.000000	0.0150999 	1340.000000	0.017684  	1340.000000	0.0175342 	1340.000000	0.0174787 	1340.000000	0.0176818 	1340.000000	2.22199e-06	
1360.000000	0.015075  	1360.000000	0.0176541 	1360.000000	0.0174996 	1360.000000	0.0174443 	1360.000000	0.0176519 	1360.000000	2.19147e-06	
1380.000000	0.0150518 	1380.000000	0.017626  	1380.000000	0.0174665 	1380.000000	0.0174113 	1380.000000	0.0176238 	1380.000000	2.1618e-06	
1400.000000	0.0150302 	1400.000000	0.0175995 	1400.000000	0.0174348 	1400.000000	0.0173799 	1400.000000	0.0175973 	1400.000000	2.13295e-06	
1420.000000	0.0150102 	1420.000000	0.0175746 	1420.000000	0.0174045 	1420.000000	0.0173498 	1420.000000	0.0175725 	1420.000000	2.10488e-06	
1440.000000	0.0149917 	1440.000000	0.0175513 	1440.000000	0.0173755 	1440.000000	0.0173211 	1440.000000	0.0175492 	1440.000000	2.07757e-06	
1460.000000	0.0149746 	1460.000000	0.0175294 	1460.000000	0.0173478 	1460.000000	0.0172936 	1460.000000	0.0175273 	1460.000000	2.05098e-06	
1480.000000	0.014959  	1480.000000	0.0175089 	1480.000000	0.0173213 	1480.000000	0.0172673 	1480.000000	0.0175069 	1480.000000	2.02508e-06	
1500.000000	0.0149446 	1500.000000	0.0174898 	1500.000000	0.017296  	1500.000000	0.0172422 	1500.000000	0.0174878 	1500.000000	1.99985e-06	
1520.000000	0.0149315 	1520.000000	0.017472  	1520.000000	0.0172718 	1520.000000	0.0172182 	1520.000000	0.01747   	1520.000000	1.97526e-06	
1540.000000	0.0149197 	1540.000000	0.0174555 	1540.000000	0.0172487 	1540.000000	0.0171953 	1540.000000	0.0174535 	1540.000000	1.95128e-06	
1560.000000	0.0149091 	1560.000000	0.0174401 	1560.000000	0.0172267 	1560.000000	0.0171734 	1560.000000	0.0174382 	1560.000000	1.9279e-06	
1580.000000	0.0148996 	1580.000000	0.0174259 	1580.000000	0.0172057 	1580.000000	0.0171524 	1580.000000	0.017424  	1580.000000	1.90509e-06	
1600.000000	0.0148912 	1600.000000	0.0174129 	1600.000000	0.0171856 	1600.000000	0.0171324 	1600.000000	0.017411  	1600.000000	1.88284e-06	
1620.000000	0.0148839 	1620.000000	0.0174009 	1620.000000	0.0171665 	1620.000000	0.0171133 	1620.000000	0.017399  	1620.000000	1.86111e-06	
1640.000000	0.0148777 	1640.000000	0.0173899 	1640.000000	0.0171483 	1640.000000	0.017095  	1640.000000	0.0173881 	1640.000000	1.83989e-06	
1660.000000	0.0148725 	1660.000000	0.01738   	1660.000000	0.0171309 	1660.000000	0.0170776 	1660.000000	0.0173782 	1660.000000	1.81917e-06	
1680.000000	0.0148682 	1680.000000	0.017371  	1680.000000	0.0171143 	1680.000000	0.0170609 	1680.000000	0.0173692 	1680.000000	1.79892e-06	
1700.000000	0.0148649 	1700.000000	0.0173629 	1700.000000	0.0170985 	1700.000000	0.017045  	1700.000000	0.0173612 	1700.000000	1.77913e-06	
1750.000000	0.0148605 	1750.000000	0.0173467 	1750.000000	0.017062  	1750.000000	0.0170084 	1750.000000	0.0173449 	1750.000000	1.73158e-06	
1800.000000	0.0148614 	1800.000000	0.0173356 	1800.000000	0.0170295 	1800.000000	0.0169758 	1800.000000	0.0173339 	1800.000000	1.68657e-06	
1850.000000	0.0148672 	1850.000000	0.0173292 	1850.000000	0.0170007 	1850.000000	0.016947  	1850.000000	0.0173276 	1850.000000	1.64392e-06	
1900.000000	0.0148775 	1900.000000	0.0173272 	1900.000000	0.0169751 	1900.000000	0.0169216 	1900.000000	0.0173256 	1900.000000	1.60343e-06	
1950.000000	0.014892  	1950.000000	0.0173293 	1950.000000	0.0169525 	1950.000000	0.0168993 	1950.000000	0.0173277 	1950.000000	1.56495e-06	
2000.000000	0.0149105 	2000.000000	0.017335  	2000.000000	0.0169327 	2000.000000	0.0168798 	2000.000000	0.0173335 	2000.000000	1.52833e-06	
2100.000000	0.0149582 	2100.000000	0.0173567 	2100.000000	0.0169006 	2100.000000	0.0168483 	2100.000000	0.0173553 	2100.000000	1.46015e-06	
2200.000000	0.0150189 	2200.000000	0.0173904 	2200.000000	0.0168772 	2200.000000	0.0168253 	2200.000000	0.017389  	2200.000000	1.39796e-06	
2300.000000	0.0150911 	2300.000000	0.0174346 	2300.000000	0.0168613 	2300.000000	0.0168097 	2300.000000	0.0174332 	2300.000000	1.341e-06 	
2400.000000	0.0151734 	2400.000000	0.0174878 	2400.000000	0.0168516 	2400.000000	0.0168002 	2400.000000	0.0174865 	2400.000000	1.28863e-06	
2500.000000	0.0152649 	2500.000000	0.0175491 	2500.000000	0.0168474 	2500.000000	0.0167958 	2500.000000	0.0175479 	2500.000000	1.24032e-06	
2600.000000	0.0153647 	2600.000000	0.0176175 	2600.000000	0.0168476 	2600.000000	0.0167959 	2600.000000	0.0176163 	2600.000000	1.1956e-06	
2700.000000	0.0154719 	2700.000000	0.0176921 	2700.000000	0.0168517 	2700.000000	0.0167998 	2700.000000	0.017691  	2700.000000	1.15408e-06	
2800.000000	0.0155859 	2800.000000	0.0177724 	2800.000000	0.0168589 	2800.000000	0.0168069 	2800.000000	0.0177713 	2800.000000	1.11543e-06	
2900.000000	0.0157062 	2900.000000	0.0178577 	2900.000000	0.0168688 	2900.000000	0.0168168 	2900.000000	0.0178566 	2900.000000	1.07936e-06	
3000.000000	0.0158322 	3000.000000	0.0179475 	3000.000000	0.016881  	3000.000000	0.0168291 	3000.000000	0.0179465 	3000.000000	1.04562e-06	
3200.000000	0.0160996 	3200.000000	0.018139  	3200.000000	0.0169112 	3200.000000	0.0168595 	3200.000000	0.018138  	3200.000000	9.84253e-07	
3400.000000	0.0163852 	3400.000000	0.0183437 	3400.000000	0.0169474 	3400.000000	0.016896  	3400.000000	0.0183428 	3400.000000	9.29882e-07	
3600.000000	0.0166868 	3600.000000	0.0185596 	3600.000000	0.0169881 	3600.000000	0.016937  	3600.000000	0.0185587 	3600.000000	8.81362e-07	
3800.000000	0.0170025 	3800.000000	0.0187847 	3800.000000	0.0170321 	3800.000000	0.0169813 	3800.000000	0.0187839 	3800.000000	8.37788e-07	
4000.000000	0.0173309 	4000.000000	0.0190177 	4000.000000	0.0170786 	4000.000000	0.0170279 	4000.000000	0.0190169 	4000.000000	7.98434e-07	
4200.000000	0.0176706 	4200.000000	0.0192572 	4200.000000	0.0171267 	4200.000000	0.0170762 	4200.000000	0.0192565 	4200.000000	7.62711e-07	
4400.000000	0.0180208 	4400.000000	0.0195025 	4400.000000	0.017176  	4400.000000	0.0171256 	4400.000000	0.0195017 	4400.000000	7.30133e-07	
4600.000000	0.0183806 	4600.000000	0.0197526 	4600.000000	0.0172261 	4600.000000	0.0171758 	4600.000000	0.0197519 	4600.000000	7.00299e-07	
4800.000000	0.0187492 	4800.000000	0.0200069 	4800.000000	0.0172765 	4800.000000	0.0172263 	4800.000000	0.0200062 	4800.000000	6.72873e-07	
5000.000000	0.0191262 	5000.000000	0.0202649 	5000.000000	0.017327  	5000.000000	0.0172769 	5000.000000	0.0202642 	5000.000000	6.47573e-07	
5250.000000	0.0196083 	5250.000000	0.0205918 	5250.000000	0.0173901 	5250.000000	0.0173401 	5250.000000	0.0205912 	5250.000000	6.18574e-07	
5500.000000	0.0201019 	5500.000000	0.020923  	5500.000000	0.0174529 	5500.000000	0.0174029 	5500.000000	0.0209224 	5500.000000	5.9213e-07	
6000.000000	0.0211206 	6000.000000	0.0215957 	6000.000000	0.0175763 	6000.000000	0.0175265 	6000.000000	0.0215951 	6000.000000	5.45653e-07	
6500.000000	0.0221779 	6500.000000	0.0222791 	6500.000000	0.0176963 	6500.000000	0.0176466 	6500.000000	0.0222786 	6500.000000	5.06115e-07	
7000.000000	0.0232709 	7000.000000	0.0229705 	7000.000000	0.0178123 	7000.000000	0.0177628 	7000.000000	0.02297   	7000.000000	4.72058e-07	
7500.000000	0.0243972 	7500.000000	0.0236679 	7500.000000	0.0179242 	7500.000000	0.0178747 	7500.000000	0.0236674 	7500.000000	4.42406e-07	
8000.000000	0.0255552 	8000.000000	0.0243699 	8000.000000	0.0180318 	8000.000000	0.0179824 	8000.000000	0.0243694 	8000.000000	4.16351e-07	
8500.000000	0.0267435 	8500.000000	0.0250753 	8500.000000	0.0181353 	8500.000000	0.0180859 	8500.000000	0.0250749 	8500.000000	3.9327e-07	
9000.000000	0.0279611 	9000.000000	0.0257834 	9000.000000	0.0182346 	9000.000000	0.0181855 	9000.000000	0.025783  	9000.000000	3.72678e-07	
9500.000000	0.0292072 	9500.000000	0.0264935 	9500.000000	0.0183303 	9500.000000	0.0182813 	9500.000000	0.0264931 	9500.000000	3.54189e-07	
10000.000000	0.0304812 	10000.000000	0.027205  	10000.000000	0.0184225 	10000.000000	0.0183734 	10000.000000	0.0272047 	10000.000000	3.37494e-07	
11000.000000	0.0331107 	11000.000000	0.0286311 	11000.000000	0.0185967 	11000.000000	0.0185477 	11000.000000	0.0286307 	11000.000000	3.08526e-07	
12000.000000	0.0358466 	12000.000000	0.0300592 	12000.000000	0.0187579 	12000.000000	0.0187098 	12000.000000	0.0300589 	12000.000000	2.84249e-07	
13000.000000	0.0386869 	13000.000000	0.0314879 	13000.000000	0.0189085 	13000.000000	0.0188611 	13000.000000	0.0314876 	13000.000000	2.63602e-07	
14000.000000	0.0416301 	14000.000000	0.0329161 	14000.000000	0.0190503 	14000.000000	0.0190028 	14000.000000	0.0329159 	14000.000000	2.4582e-07	
15000.000000	0.0446753 	15000.000000	0.0343433 	15000.000000	0.0191839 	15000.000000	0.019136  	15000.000000	0.034343  	15000.000000	2.30341e-07	
16000.000000	0.047822  	16000.000000	0.0357689 	16000.000000	0.0193096 	16000.000000	0.0192614 	16000.000000	0.0357687 	16000.000000	2.16743e-07	
17000.000000	0.0510698 	17000.000000	0.0371926 	17000.000000	0.019428  	17000.000000	0.01938   	17000.000000	0.0371924 	17000.000000	2.04698e-07	
18000.000000	0.0544185 	18000.000000	0.0386144 	18000.000000	0.0195398 	18000.000000	0.0194923 	18000.000000	0.0386142 	18000.000000	1.93954e-07	
19000.000000	0.0578682 	19000.000000	0.0400339 	19000.000000	0.0196456 	19000.000000	0.019599  	19000.000000	0.0400337 	19000.000000	1.84309e-07	
20000.000000	0.0614187 	20000.000000	0.0414512 	20000.000000	0.019746  	20000.000000	0.0197006 	20000.000000	0.041451  	20000.000000	1.75601e-07	
21000.000000	0.0650704 	21000.000000	0.0428662 	21000.000000	0.0198419 	21000.000000	0.0197975 	21000.000000	0.042866  	21000.000000	1.67698e-07	
22000.000000	0.0688233 	22000.000000	0.0442788 	22000.000000	0.0199343 	22000.000000	0.0198902 	22000.000000	0.0442787 	22000.000000	1.60494e-07	
23000.000000	0.0726779 	23000.000000	0.0456892 	23000.000000	0.0200229 	23000.000000	0.0199789 	23000.000000	0.045689  	23000.000000	1.53898e-07	
24000.000000	0.0766343 	24000.000000	0.0470972 	24000.000000	0.0201077 	24000.000000	0.0200639 	24000.000000	0.0470971 	24000.000000	1.47836e-07	
25000.000000	0.0806929 	25000.000000	0.048503  	25000.000000	0.0201887 	25000.000000	0.0201456 	25000.000000	0.0485029 	25000.000000	1.42246e-07	
26000.000000	0.0848541 	26000.000000	0.0499066 	26000.000000	0.0202665 	26000.000000	0.0202242 	26000.000000	0.0499064 	26000.000000	1.37073e-07	
27000.000000	0.0891183 	27000.000000	0.0513079 	27000.000000	0.0203416 	27000.000000	0.0203    	27000.000000	0.0513078 	27000.000000	1.32273e-07	
28000.000000	0.0934859 	28000.000000	0.0527071 	28000.000000	0.020414  	28000.000000	0.020373  	28000.000000	0.052707  	28000.000000	1.27805e-07	
29000.000000	0.0979574 	29000.000000	0.0541042 	29000.000000	0.0204837 	29000.000000	0.0204435 	29000.000000	0.0541041 	29000.000000	1.23638e-07	
30000.000000	0.102533  	30000.000000	0.0554992 	30000.000000	0.020551  	30000.000000	0.0205117 	30000.000000	0.0554991 	30000.000000	1.1974e-07	
32000.000000	0.112     	32000.000000	0.0582831 	32000.000000	0.0206793 	32000.000000	0.0206416 	32000.000000	0.058283  	32000.000000	1.12655e-07	
34000.000000	0.12189   	34000.000000	0.0610593 	34000.000000	0.0208002 	34000.000000	0.0207638 	34000.000000	0.0610592 	34000.000000	1.06381e-07	
36000.000000	0.132207  	36000.000000	0.063828  	36000.000000	0.020914  	36000.000000	0.020879  	36000.000000	0.0638279 	36000.000000	1.00785e-07	
38000.000000	0.142955  	38000.000000	0.0665896 	38000.000000	0.0210215 	38000.000000	0.020988  	38000.000000	0.0665895 	38000.000000	9.57616e-08	
40000.000000	0.15414   	40000.000000	0.0693444 	40000.000000	0.0211232 	40000.000000	0.0210915 	40000.000000	0.0693443 	40000.000000	9.12271e-08	
42000.000000	0.165765  	42000.000000	0.0720927 	42000.000000	0.0212197 	42000.000000	0.0211899 	42000.000000	0.0720926 	42000.000000	8.71127e-08	
44000.000000	0.177835  	44000.000000	0.0748347 	44000.000000	0.0213117 	44000.000000	0.0212837 	44000.000000	0.0748346 	44000.000000	8.33621e-08	
46000.000000	0.190355  	46000.000000	0.0775707 	46000.000000	0.0213995 	46000.000000	0.0213734 	46000.000000	0.0775707 	46000.000000	7.99287e-08	
48000.000000	0.203329  	48000.000000	0.080301  	48000.000000	0.0214835 	48000.000000	0.0214592 	48000.000000	0.0803009 	48000.000000	7.67737e-08	
50000.000000	0.216762  	50000.000000	0.0830257 	50000.000000	0.0215638 	50000.000000	0.0215415 	50000.000000	0.0830256 	50000.000000	7.38642e-08	
