Energy (MeV/u)1	0 - [He-base] F.Hubert et al, AD&ND Tables 46(1990)1	Energy (MeV/u)2	1 - [H -base] J.F.Ziegler et al, Pergamon Press, NY (low energy)	Energy (MeV/u)3	2 - ATIMA 1.2  LS-theory (recommended for high energy)	Energy (MeV/u)4	3 - ATIMA 1.2  without LS-correction	Energy (MeV/u)5	4 - electrical component of [1] - J.F.Ziegler et al	Energy (MeV/u)6	5 - nuclear component of [1] - J.F.Ziegler et al	
0.001000	2.55751   	0.001000	2.55751   	0.001000	2.15436   	0.001000	2.15436   	0.001000	1.5323    	0.001000	1.02521   	
0.002000	2.70589   	0.002000	2.70589   	0.002000	2.31559   	0.002000	2.31559   	0.002000	1.98715   	0.002000	0.718744  	
0.005000	3.20989   	0.005000	3.20989   	0.005000	2.93277   	0.005000	2.93277   	0.005000	2.80194   	0.005000	0.407957  	
0.008000	3.63732   	0.008000	3.63732   	0.008000	3.48901   	0.008000	3.48901   	0.008000	3.34197   	0.008000	0.295351  	
0.010000	3.88319   	0.010000	3.88319   	0.010000	3.82015   	0.010000	3.82015   	0.010000	3.63366   	0.010000	0.249532  	
0.015000	4.65233   	0.015000	4.65233   	0.015000	4.44191   	0.015000	4.44191   	0.015000	4.46718   	0.015000	0.185145  	
0.020000	5.53478   	0.020000	5.53478   	0.020000	4.95592   	0.020000	4.95592   	0.020000	5.38593   	0.020000	0.148858  	
0.025000	6.37751   	0.025000	6.37751   	0.025000	5.45279   	0.025000	5.45279   	0.025000	6.25222   	0.025000	0.125291  	
0.030000	7.18331   	0.030000	7.18331   	0.030000	6.09623   	0.030000	6.09623   	0.030000	7.07467   	0.030000	0.108634  	
0.035000	7.95129   	0.035000	7.95129   	0.035000	6.70648   	0.035000	6.70648   	0.035000	7.85511   	0.035000	0.0961767 	
0.040000	8.67943   	0.040000	8.67943   	0.040000	7.28359   	0.040000	7.28359   	0.040000	8.59296   	0.040000	0.0864753 	
0.045000	9.36548   	0.045000	9.36548   	0.045000	7.82763   	0.045000	7.82763   	0.045000	9.28679   	0.045000	0.0786864 	
0.050000	10.0073   	0.050000	10.0073   	0.050000	8.33876   	0.050000	8.33876   	0.050000	9.93503   	0.050000	0.0722826 	
0.055000	10.6032   	0.055000	10.6032   	0.055000	8.81729   	0.055000	8.81729   	0.055000	10.5363   	0.055000	0.0669161 	
0.060000	11.152    	0.060000	11.152    	0.060000	9.26375   	0.060000	9.26375   	0.060000	11.0896   	0.060000	0.0623479 	
0.070000	12.1065   	0.070000	12.1065   	0.070000	10.0634   	0.070000	10.0634   	0.070000	12.0515   	0.070000	0.0549719 	
0.080000	12.8736   	0.080000	12.8736   	0.080000	10.7451   	0.080000	10.7451   	0.080000	12.8243   	0.080000	0.0492607 	
0.090000	13.4741   	0.090000	13.4741   	0.090000	11.318    	0.090000	11.318    	0.090000	13.4294   	0.090000	0.0446971 	
0.100000	13.9328   	0.100000	13.9328   	0.100000	11.7926   	0.100000	11.7926   	0.100000	13.8918   	0.100000	0.0409598 	
0.120000	14.4481   	0.120000	14.4481   	0.120000	12.4892   	0.120000	12.4892   	0.120000	14.4129   	0.120000	0.0351893 	
0.140000	14.5743   	0.140000	14.5743   	0.140000	12.9163   	0.140000	12.9163   	0.140000	14.5433   	0.140000	0.0309277 	
0.160000	14.445    	0.160000	14.445    	0.160000	13.1442   	0.160000	13.1442   	0.160000	14.4173   	0.160000	0.0276419 	
0.180000	14.142    	0.180000	14.142    	0.180000	13.2292   	0.180000	13.2292   	0.180000	14.1169   	0.180000	0.0250255 	
0.200000	13.8008   	0.200000	13.8008   	0.200000	13.214    	0.200000	13.214    	0.200000	13.7779   	0.200000	0.0228891 	
0.250000	12.9773   	0.250000	12.9773   	0.250000	12.9259   	0.250000	12.9259   	0.250000	12.9584   	0.250000	0.0189318 	
0.300000	12.4889   	0.300000	12.4889   	0.300000	12.4855   	0.300000	12.4855   	0.300000	12.4727   	0.300000	0.016199  	
0.350000	12.1512   	0.350000	12.1512   	0.350000	12.0174   	0.350000	12.0174   	0.350000	12.137    	0.350000	0.014191  	
0.400000	11.7977   	0.400000	11.7977   	0.400000	11.5882   	0.400000	11.5882   	0.400000	11.785    	0.400000	0.0126492 	
0.450000	11.4771   	0.450000	11.4771   	0.450000	11.2648   	0.450000	11.2648   	0.450000	11.4656   	0.450000	0.0114257 	
0.500000	11.2452   	0.500000	11.2452   	0.500000	10.947    	0.500000	10.947    	0.500000	11.2347   	0.500000	0.0104296 	
0.600000	10.8358   	0.600000	10.8358   	0.600000	10.3539   	0.600000	10.3539   	0.600000	10.8269   	0.600000	0.00890255	
0.700000	10.4515   	0.700000	10.4515   	0.700000	9.80008   	0.700000	9.80008   	0.700000	10.4437   	0.700000	0.00778384	
0.800000	10.0641   	0.800000	10.0641   	0.800000	9.30891   	0.800000	9.30891   	0.800000	10.0572   	0.800000	0.0069269 	
0.900000	9.69198   	0.900000	9.69198   	0.900000	8.87459   	0.900000	8.87459   	0.900000	9.68574   	0.900000	0.00624822	
1.000000	9.33469   	1.000000	9.33469   	1.000000	8.48589   	1.000000	8.48589   	1.000000	9.32899   	1.000000	0.00569664	
1.250000	8.44987   	1.250000	8.44987   	1.250000	7.65312   	1.250000	7.65312   	1.250000	8.44519   	1.250000	0.00468141	
1.500000	7.60952   	1.500000	7.60952   	1.500000	6.95918   	1.500000	6.95918   	1.500000	7.60553   	1.500000	0.00398567	
1.750000	6.91652   	1.750000	6.91652   	1.750000	6.3979    	1.750000	6.3979    	1.750000	6.91304   	1.750000	0.00347752	
2.000000	6.29318   	2.000000	6.29318   	2.000000	5.92859   	2.000000	5.92859   	2.000000	6.29009   	2.000000	0.00308924	
2.250000	5.77341   	2.250000	5.77341   	2.250000	5.52768   	2.250000	5.52768   	2.250000	5.77063   	2.250000	0.00278238	
2.500000	5.42764   	2.500000	5.33984   	2.500000	5.18      	2.500000	5.18      	2.500000	5.33731   	2.500000	0.00253344	
3.000000	4.76381   	3.000000	4.65138   	3.000000	4.60513   	3.000000	4.60513   	3.000000	4.64922   	3.000000	0.00215345	
3.500000	4.2494    	3.500000	4.12228   	3.500000	4.1483    	3.500000	4.1483    	3.500000	4.1204    	3.500000	0.00187643	
4.000000	3.83895   	4.000000	3.70239   	4.000000	3.77617   	4.000000	3.77617   	4.000000	3.70072   	4.000000	0.00166508	
4.500000	3.50371   	4.500000	3.36035   	4.500000	3.46707   	4.500000	3.46707   	4.500000	3.35885   	4.500000	0.00149827	
5.000000	3.22465   	5.000000	3.07567   	5.000000	3.2062    	5.000000	3.2062    	5.000000	3.0743    	5.000000	0.00136309	
5.500000	2.98866   	5.500000	2.83477   	5.500000	2.98304   	5.500000	2.98304   	5.500000	2.83352   	5.500000	0.00125122	
6.000000	2.78641   	6.000000	2.62818   	6.000000	2.78995   	6.000000	2.78995   	6.000000	2.62702   	6.000000	0.00115703	
6.500000	2.61111   	6.500000	2.44904   	6.500000	2.62118   	6.500000	2.62118   	6.500000	2.44796   	6.500000	0.00107659	
7.000000	2.45767   	7.000000	2.29222   	7.000000	2.4724    	7.000000	2.4724    	7.000000	2.29121   	7.000000	0.00100705	
7.500000	2.32221   	7.500000	2.15382   	7.500000	2.34023   	7.500000	2.34023   	7.500000	2.15287   	7.500000	0.000946308	
8.000000	2.20172   	8.000000	2.03078   	8.000000	2.222     	8.000000	2.222     	8.000000	2.02989   	8.000000	0.000892772	
8.500000	2.09382   	8.500000	1.92071   	8.500000	2.11562   	8.500000	2.11562   	8.500000	1.91987   	8.500000	0.000845214	
9.000000	1.99663   	9.000000	1.82168   	9.000000	2.01936   	9.000000	2.01936   	9.000000	1.82088   	9.000000	0.000802673	
9.500000	1.90861   	9.500000	1.73212   	9.500000	1.93183   	9.500000	1.93183   	9.500000	1.73135   	9.500000	0.000764383	
10.000000	1.82852   	10.000000	1.6669    	10.000000	1.85189   	10.000000	1.85189   	10.000000	1.66617   	10.000000	0.00072973	
11.000000	1.68812   	11.000000	1.55678   	11.000000	1.70847   	11.000000	1.7094    	11.000000	1.55611   	11.000000	0.000669414	
12.000000	1.56906   	12.000000	1.46073   	12.000000	1.58638   	12.000000	1.58792   	12.000000	1.46011   	12.000000	0.00061867	
13.000000	1.46677   	13.000000	1.37629   	13.000000	1.4812    	13.000000	1.48313   	13.000000	1.37571   	13.000000	0.00057536	
14.000000	1.37791   	14.000000	1.30151   	14.000000	1.38965   	14.000000	1.39184   	14.000000	1.30097   	14.000000	0.000537943	
15.000000	1.29996   	15.000000	1.23485   	15.000000	1.30925   	15.000000	1.3116    	15.000000	1.23435   	15.000000	0.000505277	
16.000000	1.23103   	16.000000	1.17507   	16.000000	1.23812   	16.000000	1.24055   	16.000000	1.1746    	16.000000	0.000476501	
17.000000	1.1696    	17.000000	1.12117   	17.000000	1.17477   	17.000000	1.1772    	17.000000	1.12071   	17.000000	0.000450951	
18.000000	1.11451   	18.000000	1.07231   	18.000000	1.11796   	18.000000	1.12039   	18.000000	1.07188   	18.000000	0.000428106	
19.000000	1.06481   	19.000000	1.02783   	19.000000	1.06675   	19.000000	1.06916   	19.000000	1.02742   	19.000000	0.000407552	
20.000000	1.01974   	20.000000	0.987161  	20.000000	1.0204    	20.000000	1.02275   	20.000000	0.986772  	20.000000	0.000388957	
21.000000	0.978675  	21.000000	0.949833  	21.000000	0.978258  	21.000000	0.980519  	21.000000	0.949461  	21.000000	0.00037205	
22.000000	0.941092  	22.000000	0.91545   	22.000000	0.939773  	22.000000	0.941943  	22.000000	0.915094  	22.000000	0.000356609	
23.000000	0.906563  	23.000000	0.883675  	23.000000	0.904496  	23.000000	0.906578  	23.000000	0.883333  	23.000000	0.000342448	
24.000000	0.874725  	24.000000	0.854221  	24.000000	0.872051  	24.000000	0.874053  	24.000000	0.853891  	24.000000	0.000329412	
25.000000	0.845271  	25.000000	0.82684   	25.000000	0.842128  	25.000000	0.844051  	25.000000	0.826523  	25.000000	0.000317371	
27.000000	0.792506  	27.000000	0.777475  	27.000000	0.78882   	27.000000	0.790564  	27.000000	0.777179  	27.000000	0.000295843	
29.000000	0.746583  	29.000000	0.734189  	29.000000	0.742842  	29.000000	0.744365  	29.000000	0.733911  	29.000000	0.000277153	
31.000000	0.706234  	31.000000	0.695914  	31.000000	0.702796  	31.000000	0.704044  	31.000000	0.695653  	31.000000	0.000260768	
33.000000	0.670489  	33.000000	0.661821  	33.000000	0.667316  	33.000000	0.668311  	33.000000	0.661575  	33.000000	0.000246281	
35.000000	0.638591  	35.000000	0.631253  	35.000000	0.635632  	35.000000	0.636404  	35.000000	0.63102   	35.000000	0.000233376	
38.000000	0.596683  	38.000000	0.59089   	38.000000	0.593969  	38.000000	0.594459  	38.000000	0.590674  	38.000000	0.000216456	
41.000000	0.560564  	41.000000	0.555924  	41.000000	0.558039  	41.000000	0.558286  	41.000000	0.555722  	41.000000	0.000201906	
44.000000	0.529094  	44.000000	0.525329  	44.000000	0.526652  	44.000000	0.526756  	44.000000	0.52514   	44.000000	0.000189256	
47.000000	0.501417  	47.000000	0.498326  	47.000000	0.499068  	47.000000	0.499018  	47.000000	0.498148  	47.000000	0.000178151	
50.000000	0.476875  	50.000000	0.47431   	50.000000	0.474591  	50.000000	0.474418  	50.000000	0.474141  	50.000000	0.000168322	
55.000000	0.441595  	55.000000	0.439674  	55.000000	0.439349  	55.000000	0.439053  	55.000000	0.43952   	55.000000	0.000154225	
60.000000	0.411875  	60.000000	0.410403  	60.000000	0.409656  	60.000000	0.409268  	60.000000	0.410261  	60.000000	0.000142381	
65.000000	0.386475  	65.000000	0.385328  	65.000000	0.384255  	65.000000	0.383824  	65.000000	0.385196  	65.000000	0.000132285	
70.000000	0.364501  	70.000000	0.363597  	70.000000	0.362338  	70.000000	0.361826  	70.000000	0.363473  	70.000000	0.000123572	
75.000000	0.345292  	75.000000	0.344576  	75.000000	0.343142  	75.000000	0.342613  	75.000000	0.34446   	75.000000	0.000115973	
80.000000	0.328348  	80.000000	0.327784  	80.000000	0.326259  	80.000000	0.325682  	80.000000	0.327674  	80.000000	0.000109285	
85.000000	0.313283  	85.000000	0.312845  	85.000000	0.31123   	85.000000	0.310646  	85.000000	0.312742  	85.000000	0.000103353	
90.000000	0.299793  	90.000000	0.299468  	90.000000	0.297822  	90.000000	0.2972    	90.000000	0.299369  	90.000000	9.80524e-05	
95.000000	0.287641  	95.000000	0.287415  	95.000000	0.285725  	95.000000	0.285103  	95.000000	0.287322  	95.000000	9.32874e-05	
100.000000	0.276631  	100.000000	0.276499  	100.000000	0.274784  	100.000000	0.27416   	100.000000	0.27641   	100.000000	8.89796e-05	
105.000000	0.266607  	105.000000	0.266564  	105.000000	0.264834  	105.000000	0.264213  	105.000000	0.266479  	105.000000	8.50655e-05	
110.000000	0.257439  	110.000000	0.257483  	110.000000	0.255774  	110.000000	0.255129  	110.000000	0.257402  	110.000000	8.14928e-05	
115.000000	0.249019  	115.000000	0.249149  	115.000000	0.247454  	115.000000	0.246802  	115.000000	0.249071  	115.000000	7.82184e-05	
120.000000	0.241258  	120.000000	0.241472  	120.000000	0.239786  	120.000000	0.239139  	120.000000	0.241397  	120.000000	7.52058e-05	
125.000000	0.234079  	125.000000	0.234378  	125.000000	0.23271   	125.000000	0.232064  	125.000000	0.234306  	125.000000	7.24246e-05	
130.000000	0.227417  	130.000000	0.227802  	130.000000	0.226155  	130.000000	0.225512  	130.000000	0.227732  	130.000000	6.98488e-05	
135.000000	0.221217  	135.000000	0.221689  	135.000000	0.220067  	135.000000	0.219426  	135.000000	0.221622  	135.000000	6.74561e-05	
140.000000	0.215432  	140.000000	0.215991  	140.000000	0.214397  	140.000000	0.213758  	140.000000	0.215926  	140.000000	6.52275e-05	
145.000000	0.21002   	145.000000	0.210668  	145.000000	0.209103  	145.000000	0.208466  	145.000000	0.210605  	145.000000	6.31466e-05	
150.000000	0.204946  	150.000000	0.205682  	150.000000	0.204149  	150.000000	0.203515  	150.000000	0.205621  	150.000000	6.11988e-05	
155.000000	0.19784   	155.000000	0.201004  	155.000000	0.199503  	155.000000	0.198872  	155.000000	0.200945  	155.000000	5.93717e-05	
160.000000	0.193652  	160.000000	0.196605  	160.000000	0.195138  	160.000000	0.194509  	160.000000	0.196547  	160.000000	5.76543e-05	
165.000000	0.189704  	165.000000	0.192461  	165.000000	0.191028  	165.000000	0.190402  	165.000000	0.192405  	165.000000	5.60368e-05	
170.000000	0.185976  	170.000000	0.18855   	170.000000	0.187152  	170.000000	0.186529  	170.000000	0.188495  	170.000000	5.45107e-05	
175.000000	0.18245   	175.000000	0.184853  	175.000000	0.183491  	175.000000	0.18287   	175.000000	0.1848    	175.000000	5.30684e-05	
180.000000	0.179109  	180.000000	0.181353  	180.000000	0.180027  	180.000000	0.179409  	180.000000	0.181302  	180.000000	5.17031e-05	
185.000000	0.17594   	185.000000	0.178035  	185.000000	0.176745  	185.000000	0.176129  	185.000000	0.177985  	185.000000	5.04087e-05	
190.000000	0.172929  	190.000000	0.174885  	190.000000	0.173631  	190.000000	0.173017  	190.000000	0.174835  	190.000000	4.91797e-05	
195.000000	0.170064  	195.000000	0.17189   	195.000000	0.170672  	195.000000	0.170061  	195.000000	0.171842  	195.000000	4.80113e-05	
200.000000	0.167334  	200.000000	0.169039  	200.000000	0.167858  	200.000000	0.167249  	200.000000	0.168992  	200.000000	4.6899e-05	
210.000000	0.162247  	210.000000	0.16373   	210.000000	0.162621  	210.000000	0.162016  	210.000000	0.163685  	210.000000	4.48272e-05	
220.000000	0.157599  	220.000000	0.158888  	220.000000	0.15785   	220.000000	0.15725   	220.000000	0.158845  	220.000000	4.29366e-05	
230.000000	0.153335  	230.000000	0.154453  	230.000000	0.153486  	230.000000	0.15289   	230.000000	0.154412  	230.000000	4.12042e-05	
240.000000	0.149411  	240.000000	0.150377  	240.000000	0.149478  	240.000000	0.148887  	240.000000	0.150337  	240.000000	3.96106e-05	
250.000000	0.145785  	250.000000	0.146618  	250.000000	0.145789  	250.000000	0.1452    	250.000000	0.14658   	250.000000	3.81397e-05	
260.000000	0.142426  	260.000000	0.143141  	260.000000	0.142372  	260.000000	0.141793  	260.000000	0.143104  	260.000000	3.67776e-05	
270.000000	0.139305  	270.000000	0.139916  	270.000000	0.139202  	270.000000	0.138636  	270.000000	0.13988   	270.000000	3.55127e-05	
280.000000	0.136398  	280.000000	0.136916  	280.000000	0.136266  	280.000000	0.135703  	280.000000	0.136881  	280.000000	3.43347e-05	
290.000000	0.133682  	290.000000	0.134119  	290.000000	0.133532  	290.000000	0.132972  	290.000000	0.134085  	290.000000	3.32348e-05	
300.000000	0.131141  	300.000000	0.131505  	300.000000	0.130979  	300.000000	0.130422  	300.000000	0.131473  	300.000000	3.22055e-05	
310.000000	0.128757  	310.000000	0.129057  	310.000000	0.128591  	310.000000	0.128037  	310.000000	0.129026  	310.000000	3.12402e-05	
320.000000	0.126517  	320.000000	0.126761  	320.000000	0.126352  	320.000000	0.125801  	320.000000	0.126731  	320.000000	3.03329e-05	
330.000000	0.124408  	330.000000	0.124602  	330.000000	0.12425   	330.000000	0.123701  	330.000000	0.124573  	330.000000	2.94785e-05	
340.000000	0.122419  	340.000000	0.12257   	340.000000	0.122273  	340.000000	0.121727  	340.000000	0.122541  	340.000000	2.86726e-05	
350.000000	0.12054   	350.000000	0.120653  	350.000000	0.12041   	350.000000	0.119866  	350.000000	0.120625  	350.000000	2.79109e-05	
360.000000	0.118763  	360.000000	0.118843  	360.000000	0.118648  	360.000000	0.11811   	360.000000	0.118815  	360.000000	2.719e-05 	
370.000000	0.117079  	370.000000	0.11713   	370.000000	0.116979  	370.000000	0.116451  	370.000000	0.117104  	370.000000	2.65066e-05	
380.000000	0.115481  	380.000000	0.115508  	380.000000	0.115404  	380.000000	0.11488   	380.000000	0.115482  	380.000000	2.58579e-05	
390.000000	0.113964  	390.000000	0.11397   	390.000000	0.113915  	390.000000	0.113392  	390.000000	0.113944  	390.000000	2.52412e-05	
400.000000	0.112521  	400.000000	0.112509  	400.000000	0.112502  	400.000000	0.111981  	400.000000	0.112484  	400.000000	2.46541e-05	
410.000000	0.111147  	410.000000	0.11112   	410.000000	0.111159  	410.000000	0.11064   	410.000000	0.111096  	410.000000	2.40947e-05	
420.000000	0.109838  	420.000000	0.109799  	420.000000	0.109882  	420.000000	0.109365  	420.000000	0.109775  	420.000000	2.35609e-05	
430.000000	0.108589  	430.000000	0.10854   	430.000000	0.108667  	430.000000	0.108152  	430.000000	0.108517  	430.000000	2.3051e-05	
440.000000	0.107396  	440.000000	0.10734   	440.000000	0.10751   	440.000000	0.106995  	440.000000	0.107317  	440.000000	2.25634e-05	
450.000000	0.106256  	450.000000	0.106194  	450.000000	0.106405  	450.000000	0.105892  	450.000000	0.106172  	450.000000	2.20967e-05	
460.000000	0.105165  	460.000000	0.105099  	460.000000	0.105347  	460.000000	0.10484   	460.000000	0.105078  	460.000000	2.16496e-05	
470.000000	0.104121  	470.000000	0.104053  	470.000000	0.104335  	470.000000	0.103834  	470.000000	0.104032  	470.000000	2.12208e-05	
480.000000	0.10312   	480.000000	0.103052  	480.000000	0.103369  	480.000000	0.102872  	480.000000	0.103031  	480.000000	2.08091e-05	
490.000000	0.10216   	490.000000	0.102093  	490.000000	0.102446  	490.000000	0.101952  	490.000000	0.102073  	490.000000	2.04137e-05	
500.000000	0.10124   	500.000000	0.101174  	500.000000	0.101564  	500.000000	0.10107   	500.000000	0.101154  	500.000000	2.00335e-05	
520.000000	0.0995054 	520.000000	0.0994475 	520.000000	0.0999067 	520.000000	0.0994148 	520.000000	0.0994282 	520.000000	1.93154e-05	
540.000000	0.0979022 	540.000000	0.0978556 	540.000000	0.0983793 	540.000000	0.0978903 	540.000000	0.0978369 	540.000000	1.86486e-05	
560.000000	0.0964165 	560.000000	0.0963843 	560.000000	0.0969695 	560.000000	0.0964826 	560.000000	0.0963663 	560.000000	1.80278e-05	
580.000000	0.0950368 	580.000000	0.0950216 	580.000000	0.0956644 	580.000000	0.0951797 	580.000000	0.0950042 	580.000000	1.74482e-05	
600.000000	0.093753  	600.000000	0.0937569 	600.000000	0.0944499 	600.000000	0.0939712 	600.000000	0.09374   	600.000000	1.69059e-05	
620.000000	0.0925562 	620.000000	0.0925809 	620.000000	0.09332   	620.000000	0.0928481 	620.000000	0.0925645 	620.000000	1.63973e-05	
640.000000	0.0914386 	640.000000	0.0914856 	640.000000	0.0922716 	640.000000	0.0918023 	640.000000	0.0914697 	640.000000	1.59193e-05	
660.000000	0.0903935 	660.000000	0.0904638 	660.000000	0.0912951 	660.000000	0.0908268 	660.000000	0.0904483 	660.000000	1.54693e-05	
680.000000	0.0894148 	680.000000	0.0895092 	680.000000	0.0903819 	680.000000	0.0899154 	680.000000	0.0894942 	680.000000	1.50449e-05	
700.000000	0.088497  	700.000000	0.0886162 	700.000000	0.0895277 	700.000000	0.0890626 	700.000000	0.0886016 	700.000000	1.46438e-05	
720.000000	0.0876353 	720.000000	0.0877798 	720.000000	0.0887279 	720.000000	0.0882636 	720.000000	0.0877656 	720.000000	1.42642e-05	
740.000000	0.0868255 	740.000000	0.0869956 	740.000000	0.0879757 	740.000000	0.0875138 	740.000000	0.0869817 	740.000000	1.39045e-05	
760.000000	0.0860635 	760.000000	0.0862594 	760.000000	0.0872665 	760.000000	0.0868095 	760.000000	0.0862459 	760.000000	1.35629e-05	
780.000000	0.085346  	780.000000	0.0855678 	780.000000	0.0865992 	780.000000	0.086147  	780.000000	0.0855545 	780.000000	1.32383e-05	
800.000000	0.0846698 	800.000000	0.0849174 	800.000000	0.0859728 	800.000000	0.0855233 	800.000000	0.0849044 	800.000000	1.29294e-05	
820.000000	0.0840319 	820.000000	0.0843053 	820.000000	0.085384  	820.000000	0.0849354 	820.000000	0.0842926 	820.000000	1.2635e-05	
840.000000	0.0834299 	840.000000	0.0837288 	840.000000	0.0848288 	840.000000	0.0843807 	840.000000	0.0837165 	840.000000	1.23541e-05	
860.000000	0.0828614 	860.000000	0.0831856 	860.000000	0.0843039 	860.000000	0.0838568 	860.000000	0.0831735 	860.000000	1.20858e-05	
880.000000	0.0823241 	880.000000	0.0826733 	880.000000	0.0838076 	880.000000	0.0833617 	880.000000	0.0826615 	880.000000	1.18293e-05	
900.000000	0.0818161 	900.000000	0.0821901 	900.000000	0.0833385 	900.000000	0.0828934 	900.000000	0.0821785 	900.000000	1.15837e-05	
920.000000	0.0813356 	920.000000	0.0817339 	920.000000	0.0828947 	920.000000	0.0824501 	920.000000	0.0817226 	920.000000	1.13485e-05	
940.000000	0.080881  	940.000000	0.0813032 	940.000000	0.0824739 	940.000000	0.08203   	940.000000	0.0812921 	940.000000	1.1123e-05	
960.000000	0.0804507 	960.000000	0.0808964 	960.000000	0.082074  	960.000000	0.0816319 	960.000000	0.0808855 	960.000000	1.09065e-05	
980.000000	0.0800434 	980.000000	0.0805121 	980.000000	0.0816935 	980.000000	0.0812542 	980.000000	0.0805014 	980.000000	1.06985e-05	
1000.000000	0.0796576 	1000.000000	0.0801489 	1000.000000	0.0813319 	1000.000000	0.0808957 	1000.000000	0.0801384 	1000.000000	1.04986e-05	
1020.000000	0.0792923 	1020.000000	0.0798056 	1020.000000	0.0809886 	1020.000000	0.0805552 	1020.000000	0.0797953 	1020.000000	1.03063e-05	
1040.000000	0.0789462 	1040.000000	0.0794811 	1040.000000	0.0806632 	1040.000000	0.0802317 	1040.000000	0.079471  	1040.000000	1.0121e-05	
1060.000000	0.0786185 	1060.000000	0.0791744 	1060.000000	0.0803547 	1060.000000	0.0799241 	1060.000000	0.0791644 	1060.000000	9.94257e-06	
1080.000000	0.0783081 	1080.000000	0.0788844 	1080.000000	0.0800617 	1080.000000	0.0796316 	1080.000000	0.0788747 	1080.000000	9.77048e-06	
1100.000000	0.0780141 	1100.000000	0.0786104 	1100.000000	0.079783  	1100.000000	0.0793532 	1100.000000	0.0786008 	1100.000000	9.60443e-06	
1120.000000	0.0777357 	1120.000000	0.0783514 	1120.000000	0.0795176 	1120.000000	0.0790882 	1120.000000	0.0783419 	1120.000000	9.4441e-06	
1140.000000	0.0774721 	1140.000000	0.0781067 	1140.000000	0.0792647 	1140.000000	0.0788358 	1140.000000	0.0780974 	1140.000000	9.28921e-06	
1160.000000	0.0772227 	1160.000000	0.0778755 	1160.000000	0.0790236 	1160.000000	0.0785954 	1160.000000	0.0778664 	1160.000000	9.13947e-06	
1180.000000	0.0769867 	1180.000000	0.0776572 	1180.000000	0.0787938 	1180.000000	0.0783663 	1180.000000	0.0776483 	1180.000000	8.99464e-06	
1200.000000	0.0767635 	1200.000000	0.0774512 	1200.000000	0.0785749 	1200.000000	0.0781479 	1200.000000	0.0774424 	1200.000000	8.85446e-06	
1220.000000	0.0765525 	1220.000000	0.0772569 	1220.000000	0.0783663 	1220.000000	0.0779396 	1220.000000	0.0772481 	1220.000000	8.71873e-06	
1240.000000	0.0763532 	1240.000000	0.0770736 	1240.000000	0.0781675 	1240.000000	0.077741  	1240.000000	0.077065  	1240.000000	8.58722e-06	
1260.000000	0.076165  	1260.000000	0.0769009 	1260.000000	0.0779777 	1260.000000	0.0775515 	1260.000000	0.0768925 	1260.000000	8.45974e-06	
1280.000000	0.0759875 	1280.000000	0.0767383 	1280.000000	0.0777964 	1280.000000	0.0773707 	1280.000000	0.07673   	1280.000000	8.33611e-06	
1300.000000	0.0758201 	1300.000000	0.0765854 	1300.000000	0.0776232 	1300.000000	0.0771982 	1300.000000	0.0765772 	1300.000000	8.21615e-06	
1320.000000	0.0756626 	1320.000000	0.0764416 	1320.000000	0.0774574 	1320.000000	0.0770335 	1320.000000	0.0764335 	1320.000000	8.09971e-06	
1340.000000	0.0755144 	1340.000000	0.0763067 	1340.000000	0.0772988 	1340.000000	0.0768762 	1340.000000	0.0762987 	1340.000000	7.98662e-06	
1360.000000	0.0753751 	1360.000000	0.0761802 	1360.000000	0.0771471 	1360.000000	0.0767261 	1360.000000	0.0761723 	1360.000000	7.87674e-06	
1380.000000	0.0752445 	1380.000000	0.0760617 	1380.000000	0.0770022 	1380.000000	0.0765828 	1380.000000	0.076054  	1380.000000	7.76994e-06	
1400.000000	0.0751221 	1400.000000	0.075951  	1400.000000	0.0768638 	1400.000000	0.0764459 	1400.000000	0.0759433 	1400.000000	7.66608e-06	
1420.000000	0.0750076 	1420.000000	0.0758477 	1420.000000	0.0767317 	1420.000000	0.0763152 	1420.000000	0.0758401 	1420.000000	7.56505e-06	
1440.000000	0.0749008 	1440.000000	0.0757514 	1440.000000	0.0766057 	1440.000000	0.0761904 	1440.000000	0.075744  	1440.000000	7.46674e-06	
1460.000000	0.0748013 	1460.000000	0.075662  	1460.000000	0.0764857 	1460.000000	0.0760712 	1460.000000	0.0756546 	1460.000000	7.37102e-06	
1480.000000	0.0747089 	1480.000000	0.0755791 	1480.000000	0.0763712 	1480.000000	0.0759574 	1480.000000	0.0755718 	1480.000000	7.2778e-06	
1500.000000	0.0746233 	1500.000000	0.0755025 	1500.000000	0.0762621 	1500.000000	0.0758487 	1500.000000	0.0754953 	1500.000000	7.18698e-06	
1520.000000	0.0745442 	1520.000000	0.0754319 	1520.000000	0.0761581 	1520.000000	0.0757449 	1520.000000	0.0754248 	1520.000000	7.09848e-06	
1540.000000	0.0744714 	1540.000000	0.0753671 	1540.000000	0.0760588 	1540.000000	0.0756459 	1540.000000	0.0753601 	1540.000000	7.01219e-06	
1560.000000	0.0744047 	1560.000000	0.0753079 	1560.000000	0.0759641 	1560.000000	0.0755513 	1560.000000	0.075301  	1560.000000	6.92804e-06	
1580.000000	0.0743439 	1580.000000	0.0752541 	1580.000000	0.0758737 	1580.000000	0.075461  	1580.000000	0.0752472 	1580.000000	6.84595e-06	
1600.000000	0.0742888 	1600.000000	0.0752054 	1600.000000	0.0757874 	1600.000000	0.0753749 	1600.000000	0.0751986 	1600.000000	6.76584e-06	
1620.000000	0.0742391 	1620.000000	0.0751617 	1620.000000	0.075705  	1620.000000	0.0752927 	1620.000000	0.075155  	1620.000000	6.68764e-06	
1640.000000	0.0741948 	1640.000000	0.0751228 	1640.000000	0.0756264 	1640.000000	0.0752143 	1640.000000	0.0751162 	1640.000000	6.61128e-06	
1660.000000	0.0741555 	1660.000000	0.0750886 	1660.000000	0.0755514 	1660.000000	0.0751396 	1660.000000	0.075082  	1660.000000	6.53671e-06	
1680.000000	0.0741212 	1680.000000	0.0750588 	1680.000000	0.0754798 	1680.000000	0.0750683 	1680.000000	0.0750523 	1680.000000	6.46384e-06	
1700.000000	0.0740917 	1700.000000	0.0750333 	1700.000000	0.0754117 	1700.000000	0.0750004 	1700.000000	0.0750269 	1700.000000	6.39264e-06	
1750.000000	0.0740378 	1750.000000	0.0749875 	1750.000000	0.075255  	1750.000000	0.0748445 	1750.000000	0.0749813 	1750.000000	6.22151e-06	
1800.000000	0.0740107 	1800.000000	0.0749656 	1800.000000	0.0751167 	1800.000000	0.0747067 	1800.000000	0.0749595 	1800.000000	6.05957e-06	
1850.000000	0.0740084 	1850.000000	0.0749656 	1850.000000	0.0749951 	1850.000000	0.0745856 	1850.000000	0.0749597 	1850.000000	5.90609e-06	
1900.000000	0.0740291 	1900.000000	0.0749859 	1900.000000	0.0748885 	1900.000000	0.0744794 	1900.000000	0.0749801 	1900.000000	5.76042e-06	
1950.000000	0.0740711 	1950.000000	0.0750248 	1950.000000	0.0747955 	1950.000000	0.0743869 	1950.000000	0.0750192 	1950.000000	5.62198e-06	
2000.000000	0.0741331 	2000.000000	0.0750811 	2000.000000	0.0747148 	2000.000000	0.0743069 	2000.000000	0.0750756 	2000.000000	5.49023e-06	
2100.000000	0.0743116 	2100.000000	0.0752405 	2100.000000	0.0745859 	2100.000000	0.0741801 	2100.000000	0.0752352 	2100.000000	5.24494e-06	
2200.000000	0.0745555 	2200.000000	0.0754553 	2200.000000	0.0744946 	2200.000000	0.0740914 	2200.000000	0.0754503 	2200.000000	5.02124e-06	
2300.000000	0.0748571 	2300.000000	0.0757184 	2300.000000	0.0744357 	2300.000000	0.074035  	2300.000000	0.0757136 	2300.000000	4.81636e-06	
2400.000000	0.0752101 	2400.000000	0.0760237 	2400.000000	0.0744047 	2400.000000	0.0740057 	2400.000000	0.076019  	2400.000000	4.628e-06 	
2500.000000	0.0756089 	2500.000000	0.076366  	2500.000000	0.0743974 	2500.000000	0.0739995 	2500.000000	0.0763615 	2500.000000	4.45423e-06	
2600.000000	0.0760491 	2600.000000	0.0767411 	2600.000000	0.0744103 	2600.000000	0.074013  	2600.000000	0.0767368 	2600.000000	4.2934e-06	
2700.000000	0.0765266 	2700.000000	0.0771452 	2700.000000	0.0744402 	2700.000000	0.0740432 	2700.000000	0.0771411 	2700.000000	4.1441e-06	
2800.000000	0.077038  	2800.000000	0.0775753 	2800.000000	0.0744846 	2800.000000	0.0740877 	2800.000000	0.0775713 	2800.000000	4.00513e-06	
2900.000000	0.0775804 	2900.000000	0.0780286 	2900.000000	0.0745413 	2900.000000	0.0741446 	2900.000000	0.0780247 	2900.000000	3.87543e-06	
3000.000000	0.0781511 	3000.000000	0.0785027 	3000.000000	0.0746085 	3000.000000	0.074212  	3000.000000	0.0784989 	3000.000000	3.75411e-06	
3200.000000	0.0793691 	3200.000000	0.0795053 	3200.000000	0.0747688 	3200.000000	0.0743728 	3200.000000	0.0795017 	3200.000000	3.5335e-06	
3400.000000	0.0806769 	3400.000000	0.0805695 	3400.000000	0.0749558 	3400.000000	0.0745605 	3400.000000	0.0805661 	3400.000000	3.33804e-06	
3600.000000	0.0820628 	3600.000000	0.0816847 	3600.000000	0.0751625 	3600.000000	0.074768  	3600.000000	0.0816815 	3600.000000	3.16363e-06	
3800.000000	0.0835173 	3800.000000	0.0828424 	3800.000000	0.0753835 	3800.000000	0.0749899 	3800.000000	0.0828394 	3800.000000	3.00701e-06	
4000.000000	0.0850328 	4000.000000	0.0840361 	4000.000000	0.0756149 	4000.000000	0.0752223 	4000.000000	0.0840332 	4000.000000	2.86558e-06	
4200.000000	0.0866032 	4200.000000	0.0852602 	4200.000000	0.0758535 	4200.000000	0.0754619 	4200.000000	0.0852574 	4200.000000	2.7372e-06	
4400.000000	0.0882235 	4400.000000	0.0865103 	4400.000000	0.0760971 	4400.000000	0.0757064 	4400.000000	0.0865076 	4400.000000	2.62013e-06	
4600.000000	0.0898893 	4600.000000	0.0877827 	4600.000000	0.0763437 	4600.000000	0.0759538 	4600.000000	0.0877802 	4600.000000	2.51293e-06	
4800.000000	0.0915971 	4800.000000	0.0890744 	4800.000000	0.0765919 	4800.000000	0.0762028 	4800.000000	0.089072  	4800.000000	2.41439e-06	
5000.000000	0.0933439 	5000.000000	0.0903828 	5000.000000	0.0768406 	5000.000000	0.0764522 	5000.000000	0.0903805 	5000.000000	2.32349e-06	
5250.000000	0.0955784 	5250.000000	0.0920387 	5250.000000	0.0771508 	5250.000000	0.0767633 	5250.000000	0.0920365 	5250.000000	2.2193e-06	
5500.000000	0.0978657 	5500.000000	0.0937138 	5500.000000	0.0774591 	5500.000000	0.0770722 	5500.000000	0.0937117 	5500.000000	2.12431e-06	
6000.000000	0.102585  	6000.000000	0.097111  	6000.000000	0.0780661 	6000.000000	0.0776804 	6000.000000	0.097109  	6000.000000	1.95736e-06	
6500.000000	0.107481  	6500.000000	0.100557  	6500.000000	0.0786568 	6500.000000	0.078272  	6500.000000	0.100555  	6500.000000	1.81536e-06	
7000.000000	0.112536  	7000.000000	0.104038  	7000.000000	0.0792286 	7000.000000	0.0788446 	7000.000000	0.104036  	7000.000000	1.69305e-06	
7500.000000	0.11774   	7500.000000	0.107546  	7500.000000	0.0797803 	7500.000000	0.0793973 	7500.000000	0.107545  	7500.000000	1.58657e-06	
8000.000000	0.123083  	8000.000000	0.111075  	8000.000000	0.0803122 	8000.000000	0.0799301 	8000.000000	0.111073  	8000.000000	1.49302e-06	
8500.000000	0.12856   	8500.000000	0.114618  	8500.000000	0.0808254 	8500.000000	0.0804433 	8500.000000	0.114617  	8500.000000	1.41015e-06	
9000.000000	0.134163  	9000.000000	0.118173  	9000.000000	0.08132   	9000.000000	0.0809377 	9000.000000	0.118172  	9000.000000	1.33623e-06	
9500.000000	0.13989   	9500.000000	0.121736  	9500.000000	0.0817953 	9500.000000	0.081414  	9500.000000	0.121735  	9500.000000	1.26985e-06	
10000.000000	0.145736  	10000.000000	0.125306  	10000.000000	0.0822519 	10000.000000	0.0818733 	10000.000000	0.125304  	10000.000000	1.20993e-06	
11000.000000	0.157778  	11000.000000	0.132456  	11000.000000	0.083119  	11000.000000	0.082744  	11000.000000	0.132454  	11000.000000	1.10596e-06	
12000.000000	0.170271  	12000.000000	0.139612  	12000.000000	0.0839327 	12000.000000	0.0835567 	12000.000000	0.139611  	12000.000000	1.01883e-06	
13000.000000	0.183204  	13000.000000	0.146769  	13000.000000	0.0846938 	13000.000000	0.0843178 	13000.000000	0.146768  	13000.000000	9.44743e-07	
14000.000000	0.19657   	14000.000000	0.153922  	14000.000000	0.0854055 	14000.000000	0.0850327 	14000.000000	0.153921  	14000.000000	8.80941e-07	
15000.000000	0.210361  	15000.000000	0.161068  	15000.000000	0.0860739 	15000.000000	0.0857063 	15000.000000	0.161067  	15000.000000	8.25409e-07	
16000.000000	0.224575  	16000.000000	0.168204  	16000.000000	0.0867056 	16000.000000	0.0863429 	16000.000000	0.168203  	16000.000000	7.76625e-07	
17000.000000	0.239207  	17000.000000	0.17533   	17000.000000	0.0873052 	17000.000000	0.0869461 	17000.000000	0.175329  	17000.000000	7.3342e-07	
18000.000000	0.254257  	18000.000000	0.182445  	18000.000000	0.0878759 	18000.000000	0.0875191 	18000.000000	0.182444  	18000.000000	6.94882e-07	
19000.000000	0.269723  	19000.000000	0.189548  	19000.000000	0.0884205 	19000.000000	0.0880646 	19000.000000	0.189547  	19000.000000	6.60288e-07	
20000.000000	0.285603  	20000.000000	0.196639  	20000.000000	0.0889411 	20000.000000	0.0885851 	20000.000000	0.196638  	20000.000000	6.29056e-07	
21000.000000	0.301898  	21000.000000	0.203718  	21000.000000	0.0894381 	21000.000000	0.0890827 	21000.000000	0.203717  	21000.000000	6.00716e-07	
22000.000000	0.318606  	22000.000000	0.210785  	22000.000000	0.0899106 	22000.000000	0.0895592 	22000.000000	0.210784  	22000.000000	5.74881e-07	
23000.000000	0.33573   	23000.000000	0.21784   	23000.000000	0.0903638 	23000.000000	0.0900163 	23000.000000	0.217839  	23000.000000	5.51229e-07	
24000.000000	0.353267  	24000.000000	0.224883  	24000.000000	0.0907998 	24000.000000	0.0904556 	24000.000000	0.224882  	24000.000000	5.29494e-07	
25000.000000	0.37122   	25000.000000	0.231914  	25000.000000	0.0912193 	25000.000000	0.0908783 	25000.000000	0.231914  	25000.000000	5.0945e-07	
26000.000000	0.389589  	26000.000000	0.238934  	26000.000000	0.0916237 	26000.000000	0.0912856 	26000.000000	0.238934  	26000.000000	4.90904e-07	
27000.000000	0.408375  	27000.000000	0.245943  	27000.000000	0.0920142 	27000.000000	0.0916786 	27000.000000	0.245942  	27000.000000	4.73694e-07	
28000.000000	0.427578  	28000.000000	0.25294   	28000.000000	0.0923913 	28000.000000	0.0920582 	28000.000000	0.25294   	28000.000000	4.57679e-07	
29000.000000	0.4472    	29000.000000	0.259927  	29000.000000	0.0927555 	29000.000000	0.0924253 	29000.000000	0.259926  	29000.000000	4.42739e-07	
30000.000000	0.467242  	30000.000000	0.266903  	30000.000000	0.0931076 	30000.000000	0.0927807 	30000.000000	0.266903  	30000.000000	4.28766e-07	
32000.000000	0.50859   	32000.000000	0.280824  	32000.000000	0.0937787 	32000.000000	0.0934591 	32000.000000	0.280824  	32000.000000	4.0337e-07	
34000.000000	0.551631  	34000.000000	0.294706  	34000.000000	0.09441   	34000.000000	0.0940985 	34000.000000	0.294706  	34000.000000	3.80882e-07	
36000.000000	0.596377  	36000.000000	0.308551  	36000.000000	0.0950052 	36000.000000	0.094703  	36000.000000	0.30855   	36000.000000	3.60826e-07	
38000.000000	0.64284   	38000.000000	0.322359  	38000.000000	0.0955677 	38000.000000	0.0952762 	38000.000000	0.322359  	38000.000000	3.42824e-07	
40000.000000	0.691032  	40000.000000	0.336133  	40000.000000	0.0961013 	40000.000000	0.0958212 	40000.000000	0.336133  	40000.000000	3.26574e-07	
42000.000000	0.740966  	42000.000000	0.349874  	42000.000000	0.0966094 	42000.000000	0.0963407 	42000.000000	0.349874  	42000.000000	3.11831e-07	
44000.000000	0.792654  	44000.000000	0.363583  	44000.000000	0.0970949 	44000.000000	0.0968368 	44000.000000	0.363583  	44000.000000	2.98391e-07	
46000.000000	0.846111  	46000.000000	0.377263  	46000.000000	0.0975599 	46000.000000	0.0973116 	46000.000000	0.377262  	46000.000000	2.8609e-07	
48000.000000	0.901349  	48000.000000	0.390913  	48000.000000	0.0980057 	48000.000000	0.0977668 	48000.000000	0.390912  	48000.000000	2.74786e-07	
50000.000000	0.958383  	50000.000000	0.404535  	50000.000000	0.0984328 	50000.000000	0.0982039 	50000.000000	0.404535  	50000.000000	2.64362e-07	
