Energy (MeV/u)1	0 - [He-base] F.Hubert et al, AD&ND Tables 46(1990)1	Energy (MeV/u)2	1 - [H -base] J.F.Ziegler et al, Pergamon Press, NY (low energy)	Energy (MeV/u)3	2 - ATIMA 1.2  LS-theory (recommended for high energy)	Energy (MeV/u)4	3 - ATIMA 1.2  without LS-correction	Energy (MeV/u)5	4 - electrical component of [1] - J.F.Ziegler et al	Energy (MeV/u)6	5 - nuclear component of [1] - J.F.Ziegler et al	
0.001000	12.7888   	0.001000	4.61018   	0.001000	4.40957   	0.001000	4.40957   	0.001000	0.524974  	0.001000	4.0852    	
0.002000	13.2181   	0.002000	4.97232   	0.002000	4.70385   	0.002000	4.70385   	0.002000	0.727147  	0.002000	4.24517   	
0.005000	13.1136   	0.005000	5.06154   	0.005000	4.66817   	0.005000	4.66817   	0.005000	1.11855   	0.005000	3.943     	
0.008000	13.032    	0.008000	4.95879   	0.008000	4.48099   	0.008000	4.48099   	0.008000	1.39505   	0.008000	3.56374   	
0.010000	13.0529   	0.010000	4.89328   	0.010000	4.36948   	0.010000	4.36948   	0.010000	1.54931   	0.010000	3.34398   	
0.015000	13.2597   	0.015000	4.77923   	0.015000	4.16062   	0.015000	4.16062   	0.015000	1.87457   	0.015000	2.90467   	
0.020000	13.5774   	0.020000	4.72547   	0.020000	4.02973   	0.020000	4.02973   	0.020000	2.14596   	0.020000	2.5795    	
0.025000	13.9399   	0.025000	4.71234   	0.025000	3.95048   	0.025000	3.95048   	0.025000	2.38325   	0.025000	2.32909   	
0.030000	14.3188   	0.030000	4.72609   	0.030000	3.90575   	0.030000	3.90575   	0.030000	2.59648   	0.030000	2.12961   	
0.035000	14.7007   	0.035000	4.75797   	0.035000	3.88483   	0.035000	3.88483   	0.035000	2.79158   	0.035000	1.96639   	
0.040000	15.0791   	0.040000	4.80235   	0.040000	3.88086   	0.040000	3.88086   	0.040000	2.97239   	0.040000	1.82996   	
0.045000	15.4507   	0.045000	4.85551   	0.045000	3.88923   	0.045000	3.88923   	0.045000	3.14158   	0.045000	1.71393   	
0.050000	15.8141   	0.050000	4.9149    	0.050000	3.90679   	0.050000	3.90679   	0.050000	3.30106   	0.050000	1.61384   	
0.055000	16.1685   	0.055000	4.97874   	0.055000	3.93132   	0.055000	3.93132   	0.055000	3.4523    	0.055000	1.52645   	
0.060000	16.5139   	0.060000	5.04578   	0.060000	3.96118   	0.060000	3.96118   	0.060000	3.59641   	0.060000	1.44937   	
0.070000	17.6806   	0.070000	5.53067   	0.070000	4.35259   	0.070000	4.35259   	0.070000	4.21133   	0.070000	1.31933   	
0.080000	19.7119   	0.080000	6.0232    	0.080000	4.82145   	0.080000	4.82145   	0.080000	4.80968   	0.080000	1.21352   	
0.090000	21.5796   	0.090000	6.50682   	0.090000	5.31644   	0.090000	5.31644   	0.090000	5.38136   	0.090000	1.12546   	
0.100000	23.3232   	0.100000	6.97241   	0.100000	5.82752   	0.100000	5.82752   	0.100000	5.92155   	0.100000	1.05086   	
0.120000	25.8769   	0.120000	8.04622   	0.120000	6.86945   	0.120000	6.86945   	0.120000	7.11532   	0.120000	0.930893  	
0.140000	28.0665   	0.140000	9.0689    	0.140000	7.90582   	0.140000	7.90582   	0.140000	8.23066   	0.140000	0.838238  	
0.160000	30.0659   	0.160000	10.0259   	0.160000	8.91252   	0.160000	8.91252   	0.160000	9.26172   	0.160000	0.764214  	
0.180000	31.9769   	0.180000	10.913    	0.180000	9.87608   	0.180000	9.87608   	0.180000	10.2095   	0.180000	0.703528  	
0.200000	33.8516   	0.200000	11.7254   	0.200000	10.7837   	0.200000	10.7837   	0.200000	11.0786   	0.200000	0.646717  	
0.250000	37.4098   	0.250000	13.6344   	0.250000	12.8403   	0.250000	12.8403   	0.250000	13.0839   	0.250000	0.550553  	
0.300000	40.7159   	0.300000	15.2488   	0.300000	14.5916   	0.300000	14.5916   	0.300000	14.7674   	0.300000	0.481386  	
0.350000	43.7284   	0.350000	16.6362   	0.350000	16.0867   	0.350000	16.0867   	0.350000	16.2072   	0.350000	0.428989  	
0.400000	46.4468   	0.400000	17.8542   	0.400000	17.3765   	0.400000	17.3765   	0.400000	17.4664   	0.400000	0.387775  	
0.450000	48.8847   	0.450000	18.9433   	0.450000	18.5041   	0.450000	18.5041   	0.450000	18.5889   	0.450000	0.354419  	
0.500000	51.5197   	0.500000	20.1305   	0.500000	19.5032   	0.500000	19.5032   	0.500000	19.8037   	0.500000	0.32681   	
0.600000	54.9358   	0.600000	22.525    	0.600000	21.2121   	0.600000	21.2121   	0.600000	22.2414   	0.600000	0.283638  	
0.700000	56.9225   	0.700000	24.5632   	0.700000	22.6397   	0.700000	22.6397   	0.700000	24.3119   	0.700000	0.251304  	
0.800000	60.1663   	0.800000	26.2855   	0.800000	24.0155   	0.800000	24.0155   	0.800000	26.0594   	0.800000	0.226096  	
0.900000	62.7789   	0.900000	27.7847   	0.900000	25.353    	0.900000	25.353    	0.900000	27.5789   	0.900000	0.205839  	
1.000000	64.6134   	1.000000	28.9757   	1.000000	26.515    	1.000000	26.515    	1.000000	28.7865   	1.000000	0.189172  	
1.250000	67.4869   	1.250000	30.8888   	1.250000	28.8373   	1.250000	28.8373   	1.250000	30.7309   	1.250000	0.157974  	
1.500000	69.0474   	1.500000	32.198    	1.500000	30.5523   	1.500000	30.5523   	1.500000	32.0619   	1.500000	0.136163  	
1.750000	69.4967   	1.750000	32.9483   	1.750000	31.8398   	1.750000	31.8398   	1.750000	32.8283   	1.750000	0.119986  	
2.000000	69.2176   	2.000000	33.3057   	2.000000	32.8146   	2.000000	32.8146   	2.000000	33.1983   	2.000000	0.107469  	
2.250000	68.863    	2.250000	33.6231   	2.250000	33.5542   	2.250000	33.5542   	2.250000	33.5256   	2.250000	0.0974742 	
2.500000	101.77    	2.500000	33.8257   	2.500000	34.1134   	2.500000	34.1134   	2.500000	33.7364   	2.500000	0.0892935 	
3.000000	98.7303   	3.000000	33.9863   	3.000000	34.8393   	3.000000	34.8393   	3.000000	33.9096   	3.000000	0.0766704 	
3.500000	95.3501   	3.500000	33.915    	3.500000	35.2049   	3.500000	35.2049   	3.500000	33.8476   	3.500000	0.0673547 	
4.000000	91.937    	4.000000	33.6786   	4.000000	35.3344   	4.000000	35.3344   	4.000000	33.6184   	4.000000	0.0601763 	
4.500000	88.6274   	4.500000	33.3306   	4.500000	35.305    	4.500000	35.305    	4.500000	33.2761   	4.500000	0.0544631 	
5.000000	85.4795   	5.000000	32.9062   	5.000000	35.0992   	5.000000	35.0992   	5.000000	32.8564   	5.000000	0.0498001 	
5.500000	82.5137   	5.500000	32.9681   	5.500000	34.7954   	5.500000	34.7954   	5.500000	32.9222   	5.500000	0.045917  	
6.000000	79.7324   	6.000000	32.9868   	6.000000	34.4636   	6.000000	34.4636   	6.000000	32.9442   	6.000000	0.0426297 	
6.500000	77.1292   	6.500000	32.9687   	6.500000	34.113    	6.500000	34.113    	6.500000	32.9289   	6.500000	0.0398082 	
7.000000	74.6937   	7.000000	32.9261   	7.000000	33.7504   	7.000000	33.7504   	7.000000	32.8888   	7.000000	0.0373583 	
7.500000	72.4139   	7.500000	32.6741   	7.500000	33.3809   	7.500000	33.3809   	7.500000	32.6389   	7.500000	0.0352097 	
8.000000	70.2777   	8.000000	32.4123   	8.000000	33.0081   	8.000000	33.0081   	8.000000	32.379    	8.000000	0.033309  	
8.500000	68.2736   	8.500000	32.1355   	8.500000	32.6347   	8.500000	32.6347   	8.500000	32.1039   	8.500000	0.0316148 	
9.000000	66.3905   	9.000000	31.8586   	9.000000	32.2626   	9.000000	32.2626   	9.000000	31.8285   	9.000000	0.0300945 	
9.500000	64.6184   	9.500000	31.5831   	9.500000	31.8935   	9.500000	31.8935   	9.500000	31.5544   	9.500000	0.0287221 	
10.000000	62.9482   	10.000000	31.5212   	10.000000	31.5283   	10.000000	31.5283   	10.000000	31.4937   	10.000000	0.0274767 	
11.000000	59.8807   	11.000000	30.9992   	11.000000	30.7614   	11.000000	31.3503   	11.000000	30.9739   	11.000000	0.0253009 	
12.000000	57.1306   	12.000000	30.4253   	12.000000	29.9994   	12.000000	31.0836   	12.000000	30.4018   	12.000000	0.0234621 	
13.000000	54.6509   	13.000000	29.824    	13.000000	29.2509   	13.000000	30.7536   	13.000000	29.8021   	13.000000	0.0218862 	
14.000000	52.4033   	14.000000	29.2128   	14.000000	28.5209   	14.000000	30.3792   	14.000000	29.1923   	14.000000	0.0205196 	
15.000000	50.3561   	15.000000	28.6029   	15.000000	27.812    	15.000000	29.9738   	15.000000	28.5836   	15.000000	0.0193226 	
16.000000	48.4831   	16.000000	28.0015   	16.000000	27.126    	16.000000	29.5477   	16.000000	27.9833   	16.000000	0.0182649 	
17.000000	46.7625   	17.000000	27.4133   	17.000000	26.4642   	17.000000	29.1083   	17.000000	27.3959   	17.000000	0.0173231 	
18.000000	45.1761   	18.000000	26.8409   	18.000000	25.8276   	18.000000	28.6611   	18.000000	26.8244   	18.000000	0.0164787 	
19.000000	43.7082   	19.000000	26.286    	19.000000	25.1711   	19.000000	28.1667   	19.000000	26.2703   	19.000000	0.0157172 	
20.000000	42.3458   	20.000000	25.7495   	20.000000	24.5809   	20.000000	27.7168   	20.000000	25.7345   	20.000000	0.0150267 	
21.000000	41.0775   	21.000000	25.2317   	21.000000	24.0138   	21.000000	27.2702   	21.000000	25.2173   	21.000000	0.0143975 	
22.000000	39.8937   	22.000000	24.7324   	22.000000	23.471    	22.000000	26.8286   	22.000000	24.7186   	22.000000	0.0138217 	
23.000000	38.7859   	23.000000	24.2514   	23.000000	22.9513   	23.000000	26.3933   	23.000000	24.2381   	23.000000	0.0132926 	
24.000000	37.7469   	24.000000	23.7882   	24.000000	22.4519   	24.000000	25.9652   	24.000000	23.7753   	24.000000	0.0128046 	
25.000000	36.7702   	25.000000	23.3421   	25.000000	21.9715   	25.000000	25.5448   	25.000000	23.3298   	25.000000	0.0123532 	
27.000000	34.9819   	27.000000	22.4991   	27.000000	21.0673   	27.000000	24.729    	27.000000	22.4875   	27.000000	0.0115441 	
29.000000	33.3838   	29.000000	21.7169   	29.000000	20.2327   	29.000000	23.9476   	29.000000	21.706    	29.000000	0.0108395 	
31.000000	31.946    	31.000000	20.9903   	31.000000	19.5375   	31.000000	23.1009   	31.000000	20.9801   	31.000000	0.0102202 	
33.000000	30.6451   	33.000000	20.3142   	33.000000	18.9666   	33.000000	22.2254   	33.000000	20.3046   	33.000000	0.0096712 	
35.000000	29.4617   	35.000000	19.6841   	35.000000	18.434    	35.000000	21.4243   	35.000000	19.6749   	35.000000	0.00918105	
38.000000	27.8736   	38.000000	18.8158   	38.000000	17.7012   	38.000000	20.3416   	38.000000	18.8073   	38.000000	0.00853668	
41.000000	26.4732   	41.000000	18.0291   	41.000000	17.038    	41.000000	19.3791   	41.000000	18.0211   	41.000000	0.00798094	
44.000000	25.2283   	44.000000	17.3132   	44.000000	16.4307   	44.000000	18.5173   	44.000000	17.3057   	44.000000	0.00749645	
47.000000	24.1137   	47.000000	16.6593   	47.000000	15.8742   	47.000000	17.7404   	47.000000	16.6522   	47.000000	0.00707012	
50.000000	23.1094   	50.000000	16.0598   	50.000000	15.3601   	50.000000	17.0362   	50.000000	16.0531   	50.000000	0.00669191	
55.000000	21.6385   	55.000000	15.1646   	55.000000	14.59     	55.000000	15.9977   	55.000000	15.1584   	55.000000	0.00614798	
60.000000	20.3736   	60.000000	14.3788   	60.000000	13.9068   	60.000000	15.0978   	60.000000	14.3731   	60.000000	0.00568955	
65.000000	19.2732   	65.000000	13.6838   	65.000000	13.2996   	65.000000	14.3102   	65.000000	13.6785   	65.000000	0.00529767	
70.000000	18.3065   	70.000000	13.0647   	70.000000	12.7545   	70.000000	13.6147   	70.000000	13.0598   	70.000000	0.00495862	
75.000000	17.4498   	75.000000	12.5098   	75.000000	12.2607   	75.000000	12.9959   	75.000000	12.5052   	75.000000	0.00466224	
80.000000	16.685    	80.000000	12.0097   	80.000000	11.815    	80.000000	12.4415   	80.000000	12.0053   	80.000000	0.00440084	
85.000000	15.9976   	85.000000	11.5566   	85.000000	11.4064   	85.000000	11.9421   	85.000000	11.5524   	85.000000	0.00416848	
90.000000	15.3762   	90.000000	11.1442   	90.000000	11.0339   	90.000000	11.4896   	90.000000	11.1402   	90.000000	0.00396051	
95.000000	14.8114   	95.000000	10.7672   	95.000000	10.6912   	95.000000	11.0779   	95.000000	10.7635   	95.000000	0.00377322	
100.000000	14.2957   	100.000000	10.4214   	100.000000	10.3747   	100.000000	10.7015   	100.000000	10.4178   	100.000000	0.00360362	
105.000000	13.8227   	105.000000	10.1031   	105.000000	10.0831   	105.000000	10.3561   	105.000000	10.0996   	105.000000	0.0034493 	
110.000000	13.3872   	110.000000	9.80899   	110.000000	9.81219   	110.000000	10.0381   	110.000000	9.80568   	110.000000	0.00330823	
115.000000	12.9849   	115.000000	9.53653   	115.000000	9.55976   	115.000000	9.74419   	115.000000	9.53336   	115.000000	0.00317876	
120.000000	12.6119   	120.000000	9.28342   	120.000000	9.32381   	120.000000	9.47186   	120.000000	9.28036   	120.000000	0.0030595 	
125.000000	12.2651   	125.000000	9.04766   	125.000000	9.10331   	125.000000	9.21879   	125.000000	9.04471   	125.000000	0.00294926	
130.000000	11.9417   	130.000000	8.82754   	130.000000	8.89729   	130.000000	8.983     	130.000000	8.8247    	130.000000	0.00284704	
135.000000	11.6394   	135.000000	8.62157   	135.000000	8.70338   	135.000000	8.7628    	135.000000	8.61882   	135.000000	0.00275199	
140.000000	11.3561   	140.000000	8.42842   	140.000000	8.52134   	140.000000	8.55668   	140.000000	8.42576   	140.000000	0.00266336	
145.000000	11.0901   	145.000000	8.24695   	145.000000	8.34998   	145.000000	8.36335   	145.000000	8.24437   	145.000000	0.00258052	
150.000000	10.8398   	150.000000	8.07614   	150.000000	8.1878    	150.000000	8.18165   	150.000000	8.07363   	150.000000	0.0025029 	
155.000000	10.4799   	155.000000	7.91507   	155.000000	8.03482   	155.000000	8.01058   	155.000000	7.91264   	155.000000	0.00243003	
160.000000	10.2727   	160.000000	7.76294   	160.000000	7.89012   	160.000000	7.84923   	160.000000	7.76058   	160.000000	0.00236146	
165.000000	10.0769   	165.000000	7.61904   	165.000000	7.75256   	165.000000	7.69681   	165.000000	7.61674   	165.000000	0.00229684	
170.000000	9.89139   	170.000000	7.48272   	170.000000	7.62162   	170.000000	7.55259   	170.000000	7.48048   	170.000000	0.00223581	
175.000000	9.71548   	175.000000	7.3534    	175.000000	7.49706   	175.000000	7.41595   	175.000000	7.35122   	175.000000	0.00217809	
180.000000	9.54841   	180.000000	7.23056   	180.000000	7.37872   	180.000000	7.2863    	180.000000	7.22843   	180.000000	0.0021234 	
185.000000	9.38952   	185.000000	7.11373   	185.000000	7.26621   	185.000000	7.16312   	185.000000	7.11166   	185.000000	0.00207152	
190.000000	9.23822   	190.000000	7.00248   	190.000000	7.15903   	190.000000	7.04596   	190.000000	7.00046   	190.000000	0.00202222	
195.000000	9.09396   	195.000000	6.89643   	195.000000	7.05655   	195.000000	6.93437   	195.000000	6.89446   	195.000000	0.00197532	
200.000000	8.95626   	200.000000	6.79523   	200.000000	6.95836   	200.000000	6.82799   	200.000000	6.7933    	200.000000	0.00193065	
210.000000	8.69883   	210.000000	6.60611   	210.000000	6.77412   	210.000000	6.62945   	210.000000	6.60426   	210.000000	0.00184735	
220.000000	8.46282   	220.000000	6.43286   	220.000000	6.60554   	220.000000	6.44789   	220.000000	6.43109   	220.000000	0.00177124	
230.000000	8.24566   	230.000000	6.2736    	230.000000	6.45014   	230.000000	6.28125   	230.000000	6.2719    	230.000000	0.00170141	
240.000000	8.04515   	240.000000	6.12671   	240.000000	6.30589   	240.000000	6.1278    	240.000000	6.12508   	240.000000	0.00163711	
250.000000	7.85945   	250.000000	5.99084   	250.000000	6.17219   	250.000000	5.98605   	250.000000	5.98926   	250.000000	0.0015777 	
260.000000	7.68697   	260.000000	5.8648    	260.000000	6.0482    	260.000000	5.85475   	260.000000	5.86328   	260.000000	0.00152262	
270.000000	7.52634   	270.000000	5.74759   	270.000000	5.93288   	270.000000	5.7328    	270.000000	5.74612   	270.000000	0.00147143	
280.000000	7.3764    	280.000000	5.63833   	280.000000	5.82534   	280.000000	5.61926   	280.000000	5.63691   	280.000000	0.0014237 	
290.000000	7.2361    	290.000000	5.53625   	290.000000	5.72442   	290.000000	5.51332   	290.000000	5.53487   	290.000000	0.00137911	
300.000000	7.10455   	300.000000	5.44068   	300.000000	5.62931   	300.000000	5.41425   	300.000000	5.43934   	300.000000	0.00133734	
310.000000	6.98097   	310.000000	5.35104   	310.000000	5.54009   	310.000000	5.32143   	310.000000	5.34974   	310.000000	0.00129813	
320.000000	6.86466   	320.000000	5.2668    	320.000000	5.45673   	320.000000	5.2343    	320.000000	5.26554   	320.000000	0.00126125	
330.000000	6.755     	330.000000	5.1875    	330.000000	5.37796   	330.000000	5.15238   	330.000000	5.18627   	330.000000	0.0012265 	
340.000000	6.65144   	340.000000	5.11273   	340.000000	5.30339   	340.000000	5.07522   	340.000000	5.11154   	340.000000	0.00119369	
350.000000	6.5535    	350.000000	5.04213   	350.000000	5.23306   	350.000000	5.00243   	350.000000	5.04097   	350.000000	0.00116266	
360.000000	6.46075   	360.000000	4.97537   	360.000000	5.16665   	360.000000	4.93368   	360.000000	4.97424   	360.000000	0.00113328	
370.000000	6.37278   	370.000000	4.91215   	370.000000	5.10372   	370.000000	4.86864   	370.000000	4.91105   	370.000000	0.0011054 	
380.000000	6.28925   	380.000000	4.85222   	380.000000	5.0438    	380.000000	4.80703   	380.000000	4.85114   	380.000000	0.00107892	
390.000000	6.20984   	390.000000	4.79532   	390.000000	4.98678   	390.000000	4.74861   	390.000000	4.79427   	390.000000	0.00105373	
400.000000	6.13426   	400.000000	4.74125   	400.000000	4.93263   	400.000000	4.69314   	400.000000	4.74022   	400.000000	0.00102974	
410.000000	6.06224   	410.000000	4.68981   	410.000000	4.88115   	410.000000	4.64041   	410.000000	4.6888    	410.000000	0.00100686	
420.000000	5.99356   	420.000000	4.64081   	420.000000	4.83211   	420.000000	4.59024   	420.000000	4.63983   	420.000000	0.000985023	
430.000000	5.92798   	430.000000	4.59411   	430.000000	4.78539   	430.000000	4.54245   	430.000000	4.59315   	430.000000	0.00096415	
440.000000	5.86532   	440.000000	4.54954   	440.000000	4.74087   	440.000000	4.4969    	440.000000	4.5486    	440.000000	0.000944179	
450.000000	5.8054    	450.000000	4.50698   	450.000000	4.6983    	450.000000	4.45342   	450.000000	4.50606   	450.000000	0.000925054	
460.000000	5.74804   	460.000000	4.4663    	460.000000	4.65747   	460.000000	4.4119    	460.000000	4.46539   	460.000000	0.00090672	
470.000000	5.69309   	470.000000	4.42738   	470.000000	4.6183    	470.000000	4.37221   	470.000000	4.42649   	470.000000	0.000889129	
480.000000	5.64041   	480.000000	4.39011   	480.000000	4.58079   	480.000000	4.33424   	480.000000	4.38924   	480.000000	0.000872236	
490.000000	5.58988   	490.000000	4.35441   	490.000000	4.5449    	490.000000	4.29789   	490.000000	4.35356   	490.000000	0.000856  	
500.000000	5.54137   	500.000000	4.32018   	500.000000	4.51074   	500.000000	4.2633    	500.000000	4.31934   	500.000000	0.000840382	
520.000000	5.44997   	520.000000	4.25581   	520.000000	4.44715   	520.000000	4.19897   	520.000000	4.255     	520.000000	0.000810863	
540.000000	5.36542   	540.000000	4.19641   	540.000000	4.38861   	540.000000	4.13971   	540.000000	4.19563   	540.000000	0.000783429	
560.000000	5.28704   	560.000000	4.14146   	560.000000	4.33435   	560.000000	4.08499   	560.000000	4.1407    	560.000000	0.000757864	
580.000000	5.21422   	580.000000	4.09053   	580.000000	4.28379   	580.000000	4.03436   	580.000000	4.08979   	580.000000	0.00073398	
600.000000	5.14644   	600.000000	4.04322   	600.000000	4.23713   	600.000000	3.98741   	600.000000	4.04251   	600.000000	0.000711614	
620.000000	5.08325   	620.000000	3.9992    	620.000000	4.19389   	620.000000	3.94379   	620.000000	3.9985    	620.000000	0.000690625	
640.000000	5.02425   	640.000000	3.95816   	640.000000	4.15338   	640.000000	3.9032    	640.000000	3.95749   	640.000000	0.000670887	
660.000000	4.96907   	660.000000	3.91986   	660.000000	4.11546   	660.000000	3.86537   	660.000000	3.9192    	660.000000	0.00065229	
680.000000	4.9174    	680.000000	3.88405   	680.000000	4.08009   	680.000000	3.83005   	680.000000	3.88341   	680.000000	0.000634737	
700.000000	4.86895   	700.000000	3.85052   	700.000000	4.04706   	700.000000	3.79704   	700.000000	3.8499    	700.000000	0.000618141	
720.000000	4.82348   	720.000000	3.8191    	720.000000	4.01614   	720.000000	3.76613   	720.000000	3.8185    	720.000000	0.000602425	
740.000000	4.78077   	740.000000	3.78962   	740.000000	3.98703   	740.000000	3.73717   	740.000000	3.78903   	740.000000	0.00058752	
760.000000	4.74059   	760.000000	3.76193   	760.000000	3.95954   	760.000000	3.70999   	760.000000	3.76135   	760.000000	0.000573363	
780.000000	4.70278   	780.000000	3.73589   	780.000000	3.93371   	780.000000	3.68447   	780.000000	3.73533   	780.000000	0.000559899	
800.000000	4.66717   	800.000000	3.71139   	800.000000	3.90956   	800.000000	3.66047   	800.000000	3.71084   	800.000000	0.000547078	
820.000000	4.6336    	820.000000	3.68831   	820.000000	3.8869    	820.000000	3.63788   	820.000000	3.68778   	820.000000	0.000534854	
840.000000	4.60194   	840.000000	3.66657   	840.000000	3.86551   	840.000000	3.61661   	840.000000	3.66604   	840.000000	0.000523186	
860.000000	4.57206   	860.000000	3.64606   	860.000000	3.84521   	860.000000	3.59655   	860.000000	3.64554   	860.000000	0.000512036	
880.000000	4.54385   	880.000000	3.6267    	880.000000	3.826     	880.000000	3.57763   	880.000000	3.6262    	880.000000	0.00050137	
900.000000	4.51721   	900.000000	3.60842   	900.000000	3.80784   	900.000000	3.55977   	900.000000	3.60793   	900.000000	0.000491157	
920.000000	4.49204   	920.000000	3.59116   	920.000000	3.79071   	920.000000	3.5429    	920.000000	3.59068   	920.000000	0.000481367	
940.000000	4.46825   	940.000000	3.57485   	940.000000	3.77451   	940.000000	3.52694   	940.000000	3.57437   	940.000000	0.000471976	
960.000000	4.44577   	960.000000	3.55942   	960.000000	3.75919   	960.000000	3.51186   	960.000000	3.55896   	960.000000	0.000462959	
980.000000	4.42451   	980.000000	3.54484   	980.000000	3.74467   	980.000000	3.49758   	980.000000	3.54438   	980.000000	0.000454293	
1000.000000	4.40441   	1000.000000	3.53104   	1000.000000	3.73091   	1000.000000	3.48406   	1000.000000	3.53059   	1000.000000	0.000445958	
1020.000000	4.3854    	1020.000000	3.51798   	1020.000000	3.71788   	1020.000000	3.47125   	1020.000000	3.51755   	1020.000000	0.000437935	
1040.000000	4.36743   	1040.000000	3.50563   	1040.000000	3.70554   	1040.000000	3.45912   	1040.000000	3.5052    	1040.000000	0.000430207	
1060.000000	4.35044   	1060.000000	3.49394   	1060.000000	3.69383   	1060.000000	3.44761   	1060.000000	3.49352   	1060.000000	0.000422758	
1080.000000	4.33438   	1080.000000	3.48288   	1080.000000	3.68272   	1080.000000	3.43671   	1080.000000	3.48246   	1080.000000	0.000415573	
1100.000000	4.31921   	1100.000000	3.47241   	1100.000000	3.67216   	1100.000000	3.42636   	1100.000000	3.472     	1100.000000	0.000408637	
1120.000000	4.30487   	1120.000000	3.4625    	1120.000000	3.6621    	1120.000000	3.41653   	1120.000000	3.4621    	1120.000000	0.000401938	
1140.000000	4.29133   	1140.000000	3.45313   	1140.000000	3.65253   	1140.000000	3.40721   	1140.000000	3.45273   	1140.000000	0.000395464	
1160.000000	4.27855   	1160.000000	3.44426   	1160.000000	3.64342   	1160.000000	3.39836   	1160.000000	3.44387   	1160.000000	0.000389203	
1180.000000	4.26649   	1180.000000	3.43588   	1180.000000	3.63476   	1180.000000	3.38996   	1180.000000	3.43549   	1180.000000	0.000383144	
1200.000000	4.25513   	1200.000000	3.42795   	1200.000000	3.62655   	1200.000000	3.38198   	1200.000000	3.42757   	1200.000000	0.000377279	
1220.000000	4.24442   	1220.000000	3.42046   	1220.000000	3.61875   	1220.000000	3.3744    	1220.000000	3.42008   	1220.000000	0.000371598	
1240.000000	4.23434   	1240.000000	3.41338   	1240.000000	3.61136   	1240.000000	3.36721   	1240.000000	3.41301   	1240.000000	0.000366092	
1260.000000	4.22486   	1260.000000	3.40669   	1260.000000	3.60434   	1260.000000	3.36037   	1260.000000	3.40633   	1260.000000	0.000360753	
1280.000000	4.21595   	1280.000000	3.40039   	1280.000000	3.59767   	1280.000000	3.35387   	1280.000000	3.40003   	1280.000000	0.000355574	
1300.000000	4.2076    	1300.000000	3.39444   	1300.000000	3.59132   	1300.000000	3.3477    	1300.000000	3.39409   	1300.000000	0.000350547	
1320.000000	4.19977   	1320.000000	3.38884   	1320.000000	3.58528   	1320.000000	3.34184   	1320.000000	3.3885    	1320.000000	0.000345665	
1340.000000	4.19245   	1340.000000	3.38357   	1340.000000	3.57954   	1340.000000	3.33627   	1340.000000	3.38323   	1340.000000	0.000340923	
1360.000000	4.18561   	1360.000000	3.37862   	1360.000000	3.57407   	1360.000000	3.33099   	1360.000000	3.37828   	1360.000000	0.000336315	
1380.000000	4.17924   	1380.000000	3.37396   	1380.000000	3.56886   	1380.000000	3.32597   	1380.000000	3.37363   	1380.000000	0.000331834	
1400.000000	4.17332   	1400.000000	3.36959   	1400.000000	3.56391   	1400.000000	3.3212    	1400.000000	3.36927   	1400.000000	0.000327475	
1420.000000	4.16782   	1420.000000	3.3655    	1420.000000	3.5592    	1420.000000	3.31668   	1420.000000	3.36518   	1420.000000	0.000323234	
1440.000000	4.16274   	1440.000000	3.36168   	1440.000000	3.55473   	1440.000000	3.31238   	1440.000000	3.36136   	1440.000000	0.000319106	
1460.000000	4.15805   	1460.000000	3.35811   	1460.000000	3.55048   	1460.000000	3.30831   	1460.000000	3.35779   	1460.000000	0.000315086	
1480.000000	4.15375   	1480.000000	3.35478   	1480.000000	3.54644   	1480.000000	3.30445   	1480.000000	3.35447   	1480.000000	0.00031117	
1500.000000	4.14981   	1500.000000	3.35169   	1500.000000	3.5426    	1500.000000	3.30079   	1500.000000	3.35138   	1500.000000	0.000307353	
1520.000000	4.14623   	1520.000000	3.34882   	1520.000000	3.53897   	1520.000000	3.29732   	1520.000000	3.34852   	1520.000000	0.000303633	
1540.000000	4.14299   	1540.000000	3.34618   	1540.000000	3.53552   	1540.000000	3.29403   	1540.000000	3.34588   	1540.000000	0.000300006	
1560.000000	4.14008   	1560.000000	3.34374   	1560.000000	3.53224   	1560.000000	3.29092   	1560.000000	3.34344   	1560.000000	0.000296467	
1580.000000	4.13749   	1580.000000	3.3415    	1580.000000	3.52915   	1580.000000	3.28798   	1580.000000	3.3412    	1580.000000	0.000293014	
1600.000000	4.13521   	1600.000000	3.33945   	1600.000000	3.52621   	1600.000000	3.2852    	1600.000000	3.33916   	1600.000000	0.000289643	
1620.000000	4.13322   	1620.000000	3.33759   	1620.000000	3.52344   	1620.000000	3.28258   	1620.000000	3.33731   	1620.000000	0.000286353	
1640.000000	4.13153   	1640.000000	3.33591   	1640.000000	3.52082   	1640.000000	3.2801    	1640.000000	3.33563   	1640.000000	0.000283139	
1660.000000	4.13011   	1660.000000	3.33441   	1660.000000	3.51834   	1660.000000	3.27776   	1660.000000	3.33413   	1660.000000	0.000279999	
1680.000000	4.12896   	1680.000000	3.33307   	1680.000000	3.516     	1680.000000	3.27556   	1680.000000	3.33279   	1680.000000	0.00027693	
1700.000000	4.12807   	1700.000000	3.33189   	1700.000000	3.5138    	1700.000000	3.27349   	1700.000000	3.33162   	1700.000000	0.000273931	
1750.000000	4.12693   	1750.000000	3.32962   	1750.000000	3.50883   	1750.000000	3.26885   	1750.000000	3.32935   	1750.000000	0.00026672	
1800.000000	4.12725   	1800.000000	3.32824   	1800.000000	3.50458   	1800.000000	3.26491   	1800.000000	3.32798   	1800.000000	0.000259893	
1850.000000	4.12891   	1850.000000	3.32768   	1850.000000	3.50098   	1850.000000	3.26161   	1850.000000	3.32742   	1850.000000	0.00025342	
1900.000000	4.13184   	1900.000000	3.32788   	1900.000000	3.49797   	1900.000000	3.25889   	1900.000000	3.32763   	1900.000000	0.000247272	
1950.000000	4.13593   	1950.000000	3.32877   	1950.000000	3.49549   	1950.000000	3.25668   	1950.000000	3.32853   	1950.000000	0.000241427	
2000.000000	4.14111   	2000.000000	3.33032   	2000.000000	3.49349   	2000.000000	3.25496   	2000.000000	3.33008   	2000.000000	0.000235862	
2100.000000	4.15445   	2100.000000	3.33517   	2100.000000	3.49078   	2100.000000	3.25277   	2100.000000	3.33494   	2100.000000	0.000225494	
2200.000000	4.17138   	2200.000000	3.3421    	2200.000000	3.48956   	2200.000000	3.25202   	2200.000000	3.34188   	2200.000000	0.000216031	
2300.000000	4.19149   	2300.000000	3.35083   	2300.000000	3.48956   	2300.000000	3.25247   	2300.000000	3.35062   	2300.000000	0.000207356	
2400.000000	4.21441   	2400.000000	3.36114   	2400.000000	3.49061   	2400.000000	3.25392   	2400.000000	3.36094   	2400.000000	0.000199376	
2500.000000	4.23988   	2500.000000	3.37285   	2500.000000	3.49253   	2500.000000	3.25622   	2500.000000	3.37266   	2500.000000	0.000192008	
2600.000000	4.26762   	2600.000000	3.38578   	2600.000000	3.49518   	2600.000000	3.25923   	2600.000000	3.3856    	2600.000000	0.000185184	
2700.000000	4.29744   	2700.000000	3.3998    	2700.000000	3.49846   	2700.000000	3.26283   	2700.000000	3.39962   	2700.000000	0.000178845	
2800.000000	4.32914   	2800.000000	3.4148    	2800.000000	3.50227   	2800.000000	3.26694   	2800.000000	3.41463   	2800.000000	0.00017294	
2900.000000	4.36257   	2900.000000	3.43066   	2900.000000	3.50652   	2900.000000	3.27147   	2900.000000	3.4305    	2900.000000	0.000167426	
3000.000000	4.39759   	3000.000000	3.44731   	3000.000000	3.51115   	3000.000000	3.27635   	3000.000000	3.44715   	3000.000000	0.000162266	
3200.000000	4.47191   	3200.000000	3.48265   	3200.000000	3.52128   	3200.000000	3.28697   	3200.000000	3.48249   	3200.000000	0.000152874	
3400.000000	4.55129   	3400.000000	3.5203    	3400.000000	3.53228   	3400.000000	3.29843   	3400.000000	3.52015   	3400.000000	0.000144544	
3600.000000	4.63509   	3600.000000	3.55986   	3600.000000	3.54386   	3600.000000	3.31046   	3600.000000	3.55973   	3600.000000	0.000137104	
3800.000000	4.72281   	3800.000000	3.60103   	3800.000000	3.55582   	3800.000000	3.32287   	3800.000000	3.6009    	3800.000000	0.000130417	
4000.000000	4.81403   	4000.000000	3.64355   	4000.000000	3.56802   	4000.000000	3.3355    	4000.000000	3.64343   	4000.000000	0.000124373	
4200.000000	4.90842   	4200.000000	3.68722   	4200.000000	3.58035   	4200.000000	3.34825   	4200.000000	3.6871    	4200.000000	0.000118882	
4400.000000	5.0057    	4400.000000	3.73186   	4400.000000	3.59274   	4400.000000	3.36103   	4400.000000	3.73174   	4400.000000	0.000113871	
4600.000000	5.10564   	4600.000000	3.77734   	4600.000000	3.60513   	4600.000000	3.37377   	4600.000000	3.77724   	4600.000000	0.00010928	
4800.000000	5.20805   	4800.000000	3.82356   	4800.000000	3.61746   	4800.000000	3.38644   	4800.000000	3.82345   	4800.000000	0.000105056	
5000.000000	5.31278   	5000.000000	3.8704    	5000.000000	3.62971   	5000.000000	3.39899   	5000.000000	3.8703    	5000.000000	0.000101157	
5250.000000	5.44672   	5250.000000	3.92973   	5250.000000	3.64485   	5250.000000	3.41448   	5250.000000	3.92963   	5250.000000	9.66857e-05	
5500.000000	5.58382   	5500.000000	3.98978   	5500.000000	3.65976   	5500.000000	3.42971   	5500.000000	3.98969   	5500.000000	9.26053e-05	
6000.000000	5.86679   	6000.000000	4.11167   	6000.000000	3.68874   	6000.000000	3.4593    	6000.000000	4.11158   	6000.000000	8.54273e-05	
6500.000000	6.1605    	6500.000000	4.23539   	6500.000000	3.71617   	6500.000000	3.48766   	6500.000000	4.23531   	6500.000000	7.93137e-05	
7000.000000	6.46411   	7000.000000	4.36048   	7000.000000	3.74262   	7000.000000	3.51478   	7000.000000	4.36041   	7000.000000	7.4042e-05	
7500.000000	6.77699   	7500.000000	4.4866    	7500.000000	3.76782   	7500.000000	3.54069   	7500.000000	4.48653   	7500.000000	6.94478e-05	
8000.000000	7.09865   	8000.000000	4.61349   	8000.000000	3.79172   	8000.000000	3.56543   	8000.000000	4.61343   	8000.000000	6.54072e-05	
8500.000000	7.42874   	8500.000000	4.74098   	8500.000000	3.81452   	8500.000000	3.58906   	8500.000000	4.74091   	8500.000000	6.18249e-05	
9000.000000	7.76696   	9000.000000	4.8689    	9000.000000	3.83635   	9000.000000	3.61167   	9000.000000	4.86884   	9000.000000	5.86263e-05	
9500.000000	8.11311   	9500.000000	4.99715   	9500.000000	3.85721   	9500.000000	3.63329   	9500.000000	4.99709   	9500.000000	5.57522e-05	
10000.000000	8.46699   	10000.000000	5.12565   	10000.000000	3.87713   	10000.000000	3.65401   	10000.000000	5.12559   	10000.000000	5.31553e-05	
11000.000000	9.19742   	11000.000000	5.38311   	11000.000000	3.91437   	11000.000000	3.69296   	11000.000000	5.38306   	11000.000000	4.86451e-05	
12000.000000	9.9574    	12000.000000	5.64088   	12000.000000	3.94851   	12000.000000	3.72893   	12000.000000	5.64083   	12000.000000	4.48609e-05	
13000.000000	10.7464   	13000.000000	5.89871   	13000.000000	3.97991   	13000.000000	3.7623    	13000.000000	5.89866   	13000.000000	4.16389e-05	
14000.000000	11.5639   	14000.000000	6.15642   	14000.000000	4.00892   	14000.000000	3.79338   	14000.000000	6.15638   	14000.000000	3.88615e-05	
15000.000000	12.4098   	15000.000000	6.4139    	15000.000000	4.03584   	15000.000000	3.82244   	15000.000000	6.41387   	15000.000000	3.64417e-05	
16000.000000	13.2839   	16000.000000	6.67109   	16000.000000	4.06084   	16000.000000	3.8497    	16000.000000	6.67105   	16000.000000	3.4314e-05	
17000.000000	14.1861   	17000.000000	6.92791   	17000.000000	4.08416   	17000.000000	3.87536   	17000.000000	6.92788   	17000.000000	3.24281e-05	
18000.000000	15.1163   	18000.000000	7.18435   	18000.000000	4.10602   	18000.000000	3.89958   	18000.000000	7.18432   	18000.000000	3.07446e-05	
19000.000000	16.0745   	19000.000000	7.44039   	19000.000000	4.12661   	19000.000000	3.9225    	19000.000000	7.44036   	19000.000000	2.92323e-05	
20000.000000	17.0608   	20000.000000	7.696     	20000.000000	4.14609   	20000.000000	3.94425   	20000.000000	7.69597   	20000.000000	2.7866e-05	
21000.000000	18.0751   	21000.000000	7.95119   	21000.000000	4.16444   	21000.000000	3.96493   	21000.000000	7.95116   	21000.000000	2.66254e-05	
22000.000000	19.1176   	22000.000000	8.20595   	22000.000000	4.18145   	22000.000000	3.98463   	22000.000000	8.20593   	22000.000000	2.54938e-05	
23000.000000	20.1883   	23000.000000	8.46029   	23000.000000	4.19749   	23000.000000	4.00344   	23000.000000	8.46027   	23000.000000	2.44572e-05	
24000.000000	21.2873   	24000.000000	8.71421   	24000.000000	4.21274   	24000.000000	4.02144   	24000.000000	8.71419   	24000.000000	2.35041e-05	
25000.000000	22.4147   	25000.000000	8.96771   	25000.000000	4.22724   	25000.000000	4.03867   	25000.000000	8.96769   	25000.000000	2.26246e-05	
26000.000000	23.5706   	26000.000000	9.22081   	26000.000000	4.24097   	26000.000000	4.05521   	26000.000000	9.22079   	26000.000000	2.18105e-05	
27000.000000	24.7551   	27000.000000	9.4735    	27000.000000	4.25398   	27000.000000	4.07111   	27000.000000	9.47348   	27000.000000	2.10547e-05	
28000.000000	25.9683   	28000.000000	9.7258    	28000.000000	4.26632   	28000.000000	4.0864    	28000.000000	9.72578   	28000.000000	2.0351e-05	
29000.000000	27.2104   	29000.000000	9.97771   	29000.000000	4.27805   	29000.000000	4.10114   	29000.000000	9.97769   	29000.000000	1.96942e-05	
30000.000000	28.4815   	30000.000000	10.2292   	30000.000000	4.28922   	30000.000000	4.11535   	30000.000000	10.2292   	30000.000000	1.90797e-05	
32000.000000	31.1111   	32000.000000	10.7312   	32000.000000	4.31001   	32000.000000	4.14234   	32000.000000	10.7312   	32000.000000	1.79622e-05	
34000.000000	33.8582   	34000.000000	11.2318   	34000.000000	4.32896   	34000.000000	4.16761   	34000.000000	11.2318   	34000.000000	1.69719e-05	
36000.000000	36.724    	36000.000000	11.731    	36000.000000	4.34619   	36000.000000	4.19136   	36000.000000	11.731    	36000.000000	1.6088e-05	
38000.000000	39.7098   	38000.000000	12.2289   	38000.000000	4.36189   	38000.000000	4.21375   	38000.000000	12.2289   	38000.000000	1.52942e-05	
40000.000000	42.8166   	40000.000000	12.7256   	40000.000000	4.37628   	40000.000000	4.23492   	40000.000000	12.7256   	40000.000000	1.45772e-05	
42000.000000	46.0458   	42000.000000	13.2211   	42000.000000	4.38954   	42000.000000	4.25499   	42000.000000	13.2211   	42000.000000	1.39262e-05	
44000.000000	49.3986   	44000.000000	13.7154   	44000.000000	4.40184   	44000.000000	4.27407   	44000.000000	13.7154   	44000.000000	1.33325e-05	
46000.000000	52.8764   	46000.000000	14.2087   	46000.000000	4.41335   	46000.000000	4.29224   	46000.000000	14.2087   	46000.000000	1.27887e-05	
48000.000000	56.4803   	48000.000000	14.701    	48000.000000	4.42412   	48000.000000	4.30959   	48000.000000	14.7009   	48000.000000	1.22888e-05	
50000.000000	60.2118   	50000.000000	15.1922   	50000.000000	4.434     	50000.000000	4.32618   	50000.000000	15.1922   	50000.000000	1.18276e-05	
