Energy (MeV/u)1	0 - [He-base] F.Hubert et al, AD&ND Tables 46(1990)1	Energy (MeV/u)2	1 - [H -base] J.F.Ziegler et al, Pergamon Press, NY (low energy)	Energy (MeV/u)3	2 - ATIMA 1.2  LS-theory (recommended for high energy)	Energy (MeV/u)4	3 - ATIMA 1.2  without LS-correction	Energy (MeV/u)5	4 - electrical component of [1] - J.F.Ziegler et al	Energy (MeV/u)6	5 - nuclear component of [1] - J.F.Ziegler et al	
0.001000	0.198835  	0.001000	0.343698  	0.001000	0.472914  	0.001000	0.472914  	0.001000	0.296435  	0.001000	0.0472627 	
0.002000	0.241703  	0.002000	0.407933  	0.002000	0.536295  	0.002000	0.536295  	0.002000	0.377824  	0.002000	0.0301086 	
0.005000	0.321167  	0.005000	0.536126  	0.005000	0.651944  	0.005000	0.651944  	0.005000	0.520677  	0.005000	0.0154485 	
0.008000	0.374726  	0.008000	0.624567  	0.008000	0.726645  	0.008000	0.726645  	0.008000	0.613777  	0.008000	0.0107898 	
0.010000	0.403699  	0.010000	0.672698  	0.010000	0.765987  	0.010000	0.765987  	0.010000	0.663635  	0.010000	0.00906272	
0.015000	0.487402  	0.015000	0.824737  	0.015000	0.844238  	0.015000	0.844238  	0.015000	0.818174  	0.015000	0.00656378	
0.020000	0.555885  	0.020000	0.951072  	0.020000	0.90534   	0.020000	0.90534   	0.020000	0.945871  	0.020000	0.00520059	
0.025000	0.612489  	0.025000	1.0589    	0.025000	0.956115  	0.025000	0.956115  	0.025000	1.05456   	0.025000	0.00433283	
0.030000	0.65898   	0.030000	1.15189   	0.030000	1.02707   	0.030000	1.02707   	0.030000	1.14816   	0.030000	0.00372804	
0.035000	0.696513  	0.035000	1.23221   	0.035000	1.08693   	0.035000	1.08693   	0.035000	1.22893   	0.035000	0.00328051	
0.040000	0.725995  	0.040000	1.30129   	0.040000	1.13742   	0.040000	1.13742   	0.040000	1.29836   	0.040000	0.00293491	
0.045000	0.74824   	0.045000	1.36017   	0.045000	1.17982   	0.045000	1.17982   	0.045000	1.35751   	0.045000	0.00265935	
0.050000	0.764027  	0.050000	1.40967   	0.050000	1.21513   	0.050000	1.21513   	0.050000	1.40724   	0.050000	0.00243411	
0.055000	0.774127  	0.055000	1.45052   	0.055000	1.2442    	0.055000	1.2442    	0.055000	1.44827   	0.055000	0.00224629	
0.060000	0.779293  	0.060000	1.48336   	0.060000	1.26774   	0.060000	1.26774   	0.060000	1.48127   	0.060000	0.0020871 	
0.070000	0.77771   	0.070000	1.52753   	0.070000	1.30059   	0.070000	1.30059   	0.070000	1.5257    	0.070000	0.00183147	
0.080000	0.764581  	0.080000	1.54705   	0.080000	1.31785   	0.080000	1.31785   	0.080000	1.54541   	0.080000	0.00163476	
0.090000	0.744271  	0.090000	1.54659   	0.090000	1.32283   	0.090000	1.32283   	0.090000	1.54511   	0.090000	0.00147839	
0.100000	0.720087  	0.100000	1.53056   	0.100000	1.31825   	0.100000	1.31825   	0.100000	1.52921   	0.100000	0.0013509 	
0.120000	0.668606  	0.120000	1.46704   	0.120000	1.28887   	0.120000	1.28887   	0.120000	1.46588   	0.120000	0.00115509	
0.140000	0.620322  	0.140000	1.38142   	0.140000	1.2429    	0.140000	1.2429    	0.140000	1.38041   	0.140000	0.00101134	
0.160000	0.578404  	0.160000	1.28979   	0.160000	1.18884   	0.160000	1.18884   	0.160000	1.28889   	0.160000	0.000901036	
0.180000	0.542987  	0.180000	1.20108   	0.180000	1.13199   	0.180000	1.13199   	0.180000	1.20026   	0.180000	0.000813556	
0.200000	0.513187  	0.200000	1.11948   	0.200000	1.07553   	0.200000	1.07553   	0.200000	1.11873   	0.200000	0.000742373	
0.250000	0.456593  	0.250000	0.952503  	0.250000	0.945773  	0.250000	0.945773  	0.250000	0.951892  	0.250000	0.000611134	
0.300000	0.416239  	0.300000	0.831052  	0.300000	0.837671  	0.300000	0.837671  	0.300000	0.830531  	0.300000	0.000521014	
0.350000	0.385252  	0.350000	0.741347  	0.350000	0.749941  	0.350000	0.749941  	0.350000	0.740892  	0.350000	0.000455088	
0.400000	0.360125  	0.400000	0.672759  	0.400000	0.678784  	0.400000	0.678784  	0.400000	0.672354  	0.400000	0.000404648	
0.450000	0.338977  	0.450000	0.618414  	0.450000	0.62053   	0.450000	0.62053   	0.450000	0.61805   	0.450000	0.000364741	
0.500000	0.320724  	0.500000	0.573995  	0.500000	0.572223  	0.500000	0.572223  	0.500000	0.573663  	0.500000	0.000332336	
0.600000	0.290423  	0.600000	0.504873  	0.600000	0.497041  	0.600000	0.497041  	0.600000	0.504591  	0.600000	0.000282815	
0.700000	0.266     	0.700000	0.4527    	0.700000	0.441264  	0.700000	0.441264  	0.700000	0.452454  	0.700000	0.000246665	
0.800000	0.245742  	0.800000	0.411353  	0.800000	0.398123  	0.800000	0.398123  	0.800000	0.411134  	0.800000	0.000219055	
0.900000	0.228602  	0.900000	0.377491  	0.900000	0.363632  	0.900000	0.363632  	0.900000	0.377293  	0.900000	0.000197242	
1.000000	0.213877  	1.000000	0.349101  	1.000000	0.335325  	1.000000	0.335325  	1.000000	0.348922  	1.000000	0.000179553	
1.250000	0.184691  	1.250000	0.294457  	1.250000	0.282334  	1.250000	0.282334  	1.250000	0.29431   	1.250000	0.000147089	
1.500000	0.162947  	1.500000	0.254973  	1.500000	0.245113  	1.500000	0.245113  	1.500000	0.254849  	1.500000	0.000124921	
1.750000	0.146068  	1.750000	0.224985  	1.750000	0.217309  	1.750000	0.217309  	1.750000	0.224877  	1.750000	0.000108776	
2.000000	0.132556  	2.000000	0.201388  	2.000000	0.195639  	2.000000	0.195639  	2.000000	0.201291  	2.000000	9.64687e-05	
2.250000	0.121475  	2.250000	0.182314  	2.250000	0.178212  	2.250000	0.178212  	2.250000	0.182227  	2.250000	8.67608e-05	
2.500000	0.11173   	2.500000	0.166565  	2.500000	0.163857  	2.500000	0.163857  	2.500000	0.166486  	2.500000	7.88985e-05	
3.000000	0.0975606 	3.000000	0.142062  	3.000000	0.141528  	3.000000	0.141528  	3.000000	0.141995  	3.000000	6.69223e-05	
3.500000	0.0868065 	3.500000	0.123863  	3.500000	0.124896  	3.500000	0.124896  	3.500000	0.123805  	3.500000	5.82124e-05	
4.000000	0.0783425 	4.000000	0.109804  	4.000000	0.111985  	4.000000	0.111985  	4.000000	0.109752  	4.000000	5.15805e-05	
4.500000	0.0714933 	4.500000	0.0986105 	4.500000	0.101647  	4.500000	0.101647  	4.500000	0.0985641 	4.500000	4.63547e-05	
5.000000	0.0658281 	5.000000	0.0894858 	5.000000	0.0931667 	5.000000	0.0931667 	5.000000	0.0894437 	5.000000	4.21262e-05	
5.500000	0.0610583 	5.500000	0.0819032 	5.500000	0.0860748 	5.500000	0.0860748 	5.500000	0.0818645 	5.500000	3.86311e-05	
6.000000	0.056983  	6.000000	0.0755012 	6.000000	0.0800494 	6.000000	0.0800494 	6.000000	0.0754655 	6.000000	3.56919e-05	
6.500000	0.0534578 	6.500000	0.0700234 	6.500000	0.0748618 	6.500000	0.0748618 	6.500000	0.0699902 	6.500000	3.31842e-05	
7.000000	0.0503763 	7.000000	0.0652829 	7.000000	0.0703452 	7.000000	0.0703452 	7.000000	0.0652519 	7.000000	3.10183e-05	
7.500000	0.0476579 	7.500000	0.0611399 	7.500000	0.0663745 	7.500000	0.0663745 	7.500000	0.0611107 	7.500000	2.9128e-05	
8.000000	0.0452408 	8.000000	0.057488  	8.000000	0.0628545 	8.000000	0.0628545 	8.000000	0.0574605 	8.000000	2.74633e-05	
8.500000	0.0430766 	8.500000	0.0542447 	8.500000	0.059711  	8.500000	0.059711  	8.500000	0.0542187 	8.500000	2.59856e-05	
9.000000	0.0411268 	9.000000	0.0513449 	9.000000	0.0568854 	9.000000	0.0568854 	9.000000	0.0513203 	9.000000	2.46646e-05	
9.500000	0.0393604 	9.500000	0.0487369 	9.500000	0.0543308 	9.500000	0.0543308 	9.500000	0.0487134 	9.500000	2.34763e-05	
10.000000	0.0377522 	10.000000	0.0468326 	10.000000	0.0520092 	10.000000	0.0520092 	10.000000	0.0468102 	10.000000	2.24015e-05	
11.000000	0.0349308 	11.000000	0.0436347 	11.000000	0.0478839 	11.000000	0.0478843 	11.000000	0.0436141 	11.000000	2.05324e-05	
12.000000	0.0325348 	12.000000	0.0408684 	12.000000	0.0443943 	12.000000	0.0443949 	12.000000	0.0408495 	12.000000	1.89613e-05	
13.000000	0.030473  	13.000000	0.0384522 	13.000000	0.0414033 	13.000000	0.0414037 	13.000000	0.0384346 	13.000000	1.76217e-05	
14.000000	0.0286789 	14.000000	0.0363235 	14.000000	0.0388105 	14.000000	0.0388104 	14.000000	0.0363071 	14.000000	1.64652e-05	
15.000000	0.0271027 	15.000000	0.0344338 	15.000000	0.0365403 	15.000000	0.0365404 	15.000000	0.0344183 	15.000000	1.54563e-05	
16.000000	0.0257062 	16.000000	0.0327446 	16.000000	0.0345369 	16.000000	0.0345366 	16.000000	0.03273   	16.000000	1.45682e-05	
17.000000	0.0244599 	17.000000	0.0312254 	17.000000	0.0327561 	17.000000	0.0327548 	17.000000	0.0312117 	17.000000	1.37801e-05	
18.000000	0.0233404 	18.000000	0.0298517 	18.000000	0.031162  	18.000000	0.0311602 	18.000000	0.0298386 	18.000000	1.30759e-05	
19.000000	0.0223288 	19.000000	0.0286033 	19.000000	0.0297267 	19.000000	0.0297249 	19.000000	0.0285908 	19.000000	1.24426e-05	
20.000000	0.0214101 	20.000000	0.0274635 	20.000000	0.0284284 	20.000000	0.0284265 	20.000000	0.0274516 	20.000000	1.187e-05 	
21.000000	0.0205717 	21.000000	0.0264187 	21.000000	0.0272485 	21.000000	0.0272466 	21.000000	0.0264074 	21.000000	1.13496e-05	
22.000000	0.0198034 	22.000000	0.0254574 	22.000000	0.0261717 	22.000000	0.0261698 	22.000000	0.0254465 	22.000000	1.08746e-05	
23.000000	0.0190966 	23.000000	0.0245698 	23.000000	0.0251855 	23.000000	0.0251835 	23.000000	0.0245593 	23.000000	1.04391e-05	
24.000000	0.018444  	24.000000	0.0237476 	24.000000	0.0242798 	24.000000	0.0242771 	24.000000	0.0237376 	24.000000	1.00384e-05	
25.000000	0.0178395 	25.000000	0.0229838 	25.000000	0.0234453 	25.000000	0.0234415 	25.000000	0.0229741 	25.000000	9.66836e-06	
27.000000	0.0167548 	27.000000	0.0216078 	27.000000	0.0219577 	27.000000	0.0219528 	27.000000	0.0215988 	27.000000	9.00723e-06	
29.000000	0.0158086 	29.000000	0.0204022 	29.000000	0.0206727 	29.000000	0.0206679 	29.000000	0.0203937 	29.000000	8.43362e-06	
31.000000	0.0149756 	31.000000	0.0193368 	31.000000	0.0195527 	31.000000	0.0195478 	31.000000	0.0193289 	31.000000	7.93106e-06	
33.000000	0.0142362 	33.000000	0.0183883 	33.000000	0.0185606 	33.000000	0.018556  	33.000000	0.0183808 	33.000000	7.48697e-06	
35.000000	0.0135753 	35.000000	0.0175381 	35.000000	0.0176746 	35.000000	0.0176705 	35.000000	0.017531  	35.000000	7.09161e-06	
38.000000	0.0127051 	38.000000	0.0164159 	38.000000	0.0165118 	38.000000	0.0165063 	38.000000	0.0164093 	38.000000	6.57353e-06	
41.000000	0.0119535 	41.000000	0.0154439 	41.000000	0.015508  	41.000000	0.0155024 	41.000000	0.0154378 	41.000000	6.12833e-06	
44.000000	0.0112973 	44.000000	0.0145937 	44.000000	0.0146324 	44.000000	0.0146273 	44.000000	0.0145879 	44.000000	5.74148e-06	
47.000000	0.0107192 	47.000000	0.0138433 	47.000000	0.0138623 	47.000000	0.0138574 	47.000000	0.0138379 	47.000000	5.4021e-06	
50.000000	0.0102057 	50.000000	0.013176  	50.000000	0.0131792 	50.000000	0.0131746 	50.000000	0.0131709 	50.000000	5.10187e-06	
55.000000	0.00946597	55.000000	0.0122137 	55.000000	0.0121971 	55.000000	0.0121929 	55.000000	0.0122091 	55.000000	4.67153e-06	
60.000000	0.00884144	60.000000	0.0114005 	60.000000	0.0113702 	60.000000	0.011366  	60.000000	0.0113962 	60.000000	4.31024e-06	
65.000000	0.00830663	65.000000	0.0107039 	65.000000	0.0106646 	65.000000	0.0106597 	65.000000	0.0106999 	65.000000	4.00246e-06	
70.000000	0.00784316	70.000000	0.0101002 	70.000000	0.0100535 	70.000000	0.0100489 	70.000000	0.0100965 	70.000000	3.73701e-06	
75.000000	0.00743736	75.000000	0.00957186	75.000000	0.00951977	75.000000	0.00951551	75.000000	0.00956835	75.000000	3.50564e-06	
80.000000	0.00707889	80.000000	0.00910537	80.000000	0.00904943	80.000000	0.00904542	80.000000	0.00910207	80.000000	3.30212e-06	
85.000000	0.00675975	85.000000	0.00869041	85.000000	0.00863171	85.000000	0.00862791	85.000000	0.00868728	85.000000	3.12165e-06	
90.000000	0.00647368	90.000000	0.00831878	90.000000	0.0082582 	90.000000	0.00825455	90.000000	0.00831582	90.000000	2.96049e-06	
95.000000	0.00621567	95.000000	0.00798398	95.000000	0.00792297	95.000000	0.00791865	95.000000	0.00798117	95.000000	2.81566e-06	
100.000000	0.0059817 	100.000000	0.00768075	100.000000	0.00761892	100.000000	0.00761478	100.000000	0.00767806	100.000000	2.68478e-06	
105.000000	0.00576847	105.000000	0.00740477	105.000000	0.0073425 	105.000000	0.00733854	105.000000	0.0074022 	105.000000	2.56591e-06	
110.000000	0.0055733 	110.000000	0.0071525 	110.000000	0.00709011	110.000000	0.0070863 	110.000000	0.00715004	110.000000	2.45744e-06	
115.000000	0.00539391	115.000000	0.00692099	115.000000	0.00685872	115.000000	0.00685505	115.000000	0.00691863	115.000000	2.35806e-06	
120.000000	0.00522843	120.000000	0.00670774	120.000000	0.00664579	120.000000	0.00664225	120.000000	0.00670548	120.000000	2.26666e-06	
125.000000	0.00507526	125.000000	0.00651068	125.000000	0.00644921	125.000000	0.00644577	125.000000	0.0065085 	125.000000	2.1823e-06	
130.000000	0.00493304	130.000000	0.00632801	130.000000	0.00626712	130.000000	0.0062638 	130.000000	0.0063259 	130.000000	2.10419e-06	
135.000000	0.00480061	135.000000	0.00615819	135.000000	0.00609793	135.000000	0.00609478	135.000000	0.00615616	135.000000	2.03165e-06	
140.000000	0.00467696	140.000000	0.00599991	140.000000	0.00594075	140.000000	0.00593737	140.000000	0.00599795	140.000000	1.96411e-06	
145.000000	0.00456123	145.000000	0.00585203	145.000000	0.0057941 	145.000000	0.00579042	145.000000	0.00585013	145.000000	1.90106e-06	
150.000000	0.00445266	150.000000	0.00571354	150.000000	0.00565647	150.000000	0.0056529 	150.000000	0.0057117 	150.000000	1.84205e-06	
155.000000	0.00429979	155.000000	0.00558358	155.000000	0.00552738	155.000000	0.00552395	155.000000	0.0055818 	155.000000	1.78672e-06	
160.000000	0.00421019	160.000000	0.00546138	160.000000	0.00540615	160.000000	0.00540278	160.000000	0.00545965	160.000000	1.73471e-06	
165.000000	0.00412569	165.000000	0.00534626	165.000000	0.005292  	165.000000	0.00528871	165.000000	0.00534458	165.000000	1.68575e-06	
170.000000	0.00404587	170.000000	0.00523762	170.000000	0.00518435	170.000000	0.00518114	170.000000	0.00523598	170.000000	1.63956e-06	
175.000000	0.00397035	175.000000	0.00513493	175.000000	0.00508267	175.000000	0.00507953	175.000000	0.00513333	175.000000	1.59591e-06	
180.000000	0.00389877	180.000000	0.00503771	180.000000	0.00498646	180.000000	0.00498339	180.000000	0.00503615	180.000000	1.5546e-06	
185.000000	0.00383084	185.000000	0.00494553	185.000000	0.00489532	185.000000	0.0048923 	185.000000	0.00494402	185.000000	1.51545e-06	
190.000000	0.00376628	190.000000	0.00485802	190.000000	0.00480884	190.000000	0.00480588	190.000000	0.00485654	190.000000	1.47828e-06	
195.000000	0.00370485	195.000000	0.00477482	195.000000	0.00472664	195.000000	0.00472377	195.000000	0.00477338	195.000000	1.44294e-06	
200.000000	0.00364631	200.000000	0.00469563	200.000000	0.00464845	200.000000	0.00464566	200.000000	0.00469422	200.000000	1.40931e-06	
210.000000	0.00353714	210.000000	0.00454815	210.000000	0.00450346	210.000000	0.00450034	210.000000	0.00454681	210.000000	1.34669e-06	
220.000000	0.00343736	220.000000	0.00441364	220.000000	0.00437106	220.000000	0.00436795	220.000000	0.00441235	220.000000	1.28956e-06	
230.000000	0.00334581	230.000000	0.00429045	230.000000	0.00424983	230.000000	0.00424685	230.000000	0.00428922	230.000000	1.23722e-06	
240.000000	0.00326149	240.000000	0.00417723	240.000000	0.00413858	240.000000	0.00413567	240.000000	0.00417604	240.000000	1.1891e-06	
250.000000	0.00318358	250.000000	0.00407281	250.000000	0.00403609	250.000000	0.00403327	250.000000	0.00407167	250.000000	1.14469e-06	
260.000000	0.00311138	260.000000	0.00397622	260.000000	0.00394138	260.000000	0.00393864	260.000000	0.00397512	260.000000	1.10357e-06	
270.000000	0.00304427	270.000000	0.00388662	270.000000	0.00385363	270.000000	0.00385095	270.000000	0.00388556	270.000000	1.0654e-06	
280.000000	0.00298174	280.000000	0.00380329	280.000000	0.0037721 	280.000000	0.00376949	280.000000	0.00380226	280.000000	1.02986e-06	
290.000000	0.00292333	290.000000	0.00372559	290.000000	0.00369613	290.000000	0.00369362	290.000000	0.00372459	290.000000	9.96682e-07	
300.000000	0.00286866	300.000000	0.00365298	300.000000	0.00362543	300.000000	0.00362279	300.000000	0.00365202	300.000000	9.65641e-07	
310.000000	0.00281737	310.000000	0.00358499	310.000000	0.00355935	310.000000	0.00355654	310.000000	0.00358406	310.000000	9.36534e-07	
320.000000	0.00276916	320.000000	0.0035212 	320.000000	0.00349719	320.000000	0.00349444	320.000000	0.0035203 	320.000000	9.09183e-07	
330.000000	0.00272377	330.000000	0.00346124	330.000000	0.0034388 	330.000000	0.00343613	330.000000	0.00346036	330.000000	8.83433e-07	
340.000000	0.00268096	340.000000	0.00340478	340.000000	0.00338391	340.000000	0.00338127	340.000000	0.00340393	340.000000	8.59145e-07	
350.000000	0.00264051	350.000000	0.00335154	350.000000	0.00333218	350.000000	0.00332959	350.000000	0.0033507 	350.000000	8.36197e-07	
360.000000	0.00260225	360.000000	0.00330124	360.000000	0.00328336	360.000000	0.00328082	360.000000	0.00330043	360.000000	8.14481e-07	
370.000000	0.002566  	370.000000	0.00325367	370.000000	0.00323723	370.000000	0.00323473	370.000000	0.00325288	370.000000	7.93898e-07	
380.000000	0.00253161	380.000000	0.00320861	380.000000	0.00319357	380.000000	0.00319111	380.000000	0.00320784	380.000000	7.74361e-07	
390.000000	0.00249895	390.000000	0.00316588	390.000000	0.00315221	390.000000	0.00314978	390.000000	0.00316512	390.000000	7.55791e-07	
400.000000	0.00246788	400.000000	0.0031253 	400.000000	0.00311296	400.000000	0.00311057	400.000000	0.00312456	400.000000	7.38119e-07	
410.000000	0.00243831	410.000000	0.00308673	410.000000	0.00307568	410.000000	0.00307333	410.000000	0.003086  	410.000000	7.21279e-07	
420.000000	0.00241012	420.000000	0.00305002	420.000000	0.00304025	420.000000	0.00303792	420.000000	0.00304931	420.000000	7.05213e-07	
430.000000	0.00238323	430.000000	0.00301505	430.000000	0.0030065 	430.000000	0.00300421	430.000000	0.00301436	430.000000	6.8987e-07	
440.000000	0.00235756	440.000000	0.0029817 	440.000000	0.00297433	440.000000	0.00297209	440.000000	0.00298103	440.000000	6.752e-07 	
450.000000	0.00233302	450.000000	0.00294988	450.000000	0.00294367	450.000000	0.00294146	450.000000	0.00294922	450.000000	6.6116e-07	
460.000000	0.00230954	460.000000	0.00291947	460.000000	0.00291449	460.000000	0.00291221	460.000000	0.00291883	460.000000	6.47709e-07	
470.000000	0.00228707	470.000000	0.00289041	470.000000	0.00288666	470.000000	0.00288427	470.000000	0.00288977	470.000000	6.34812e-07	
480.000000	0.00226553	480.000000	0.00286259	480.000000	0.00286001	480.000000	0.00285756	480.000000	0.00286197	480.000000	6.22434e-07	
490.000000	0.00224489	490.000000	0.00283596	490.000000	0.00283442	490.000000	0.00283199	490.000000	0.00283535	490.000000	6.10543e-07	
500.000000	0.00222507	500.000000	0.00281043	500.000000	0.00280989	500.000000	0.0028075 	500.000000	0.00280984	500.000000	5.99113e-07	
520.000000	0.00218778	520.000000	0.00276247	520.000000	0.00276386	520.000000	0.00276153	520.000000	0.00276189	520.000000	5.77526e-07	
540.000000	0.00215331	540.000000	0.00271825	540.000000	0.00272147	540.000000	0.00271918	540.000000	0.00271769	540.000000	5.57486e-07	
560.000000	0.00212137	560.000000	0.00267738	560.000000	0.00268233	560.000000	0.00268008	560.000000	0.00267684	560.000000	5.3883e-07	
580.000000	0.00209173	580.000000	0.00263953	580.000000	0.0026461 	580.000000	0.00264389	580.000000	0.00263901	580.000000	5.21418e-07	
600.000000	0.00206416	600.000000	0.00260439	600.000000	0.0026125 	600.000000	0.00261032	600.000000	0.00260389	600.000000	5.05128e-07	
620.000000	0.00203847	620.000000	0.00257173	620.000000	0.00258127	620.000000	0.00257912	620.000000	0.00257124	620.000000	4.89855e-07	
640.000000	0.00201449	640.000000	0.0025413 	640.000000	0.00255219	640.000000	0.00255007	640.000000	0.00254082	640.000000	4.75505e-07	
660.000000	0.00199208	660.000000	0.00251292	660.000000	0.00252506	660.000000	0.00252298	660.000000	0.00251245	660.000000	4.61996e-07	
680.000000	0.00197111	680.000000	0.0024864 	680.000000	0.0024997 	680.000000	0.00249766	680.000000	0.00248595	680.000000	4.49256e-07	
700.000000	0.00195146	700.000000	0.00246159	700.000000	0.00247602	700.000000	0.00247397	700.000000	0.00246116	700.000000	4.3722e-07	
720.000000	0.00193302	720.000000	0.00243836	720.000000	0.00245392	720.000000	0.00245178	720.000000	0.00243793	720.000000	4.2583e-07	
740.000000	0.0019157 	740.000000	0.00241657	740.000000	0.00243317	740.000000	0.00243095	740.000000	0.00241616	740.000000	4.15036e-07	
760.000000	0.00189942	760.000000	0.00239612	760.000000	0.0024136 	760.000000	0.00241139	760.000000	0.00239572	760.000000	4.04792e-07	
780.000000	0.0018841 	780.000000	0.00237691	780.000000	0.00239516	780.000000	0.00239298	780.000000	0.00237651	780.000000	3.95055e-07	
800.000000	0.00186968	800.000000	0.00235884	800.000000	0.0023778 	800.000000	0.00237566	800.000000	0.00235846	800.000000	3.8579e-07	
820.000000	0.00185609	820.000000	0.00234184	820.000000	0.00236145	820.000000	0.00235933	820.000000	0.00234146	820.000000	3.76962e-07	
840.000000	0.00184327	840.000000	0.00232583	840.000000	0.00234603	840.000000	0.00234392	840.000000	0.00232546	840.000000	3.68541e-07	
860.000000	0.00183118	860.000000	0.00231074	860.000000	0.00233146	860.000000	0.00232937	860.000000	0.00231037	860.000000	3.60498e-07	
880.000000	0.00181977	880.000000	0.00229651	880.000000	0.00231769	880.000000	0.00231561	880.000000	0.00229615	880.000000	3.5281e-07	
900.000000	0.001809  	900.000000	0.00228308	900.000000	0.00230466	900.000000	0.00230261	900.000000	0.00228274	900.000000	3.45452e-07	
920.000000	0.00179882	920.000000	0.00227041	920.000000	0.00229233	920.000000	0.00229029	920.000000	0.00227007	920.000000	3.38403e-07	
940.000000	0.0017892 	940.000000	0.00225845	940.000000	0.00228065	940.000000	0.00227862	940.000000	0.00225811	940.000000	3.31645e-07	
960.000000	0.00178011	960.000000	0.00224715	960.000000	0.00226958	960.000000	0.00226756	960.000000	0.00224682	960.000000	3.25159e-07	
980.000000	0.00177152	980.000000	0.00223647	980.000000	0.00225907	980.000000	0.00225707	980.000000	0.00223615	980.000000	3.1893e-07	
1000.000000	0.00176339	1000.000000	0.00222638	1000.000000	0.0022491 	1000.000000	0.00224711	1000.000000	0.00222607	1000.000000	3.12941e-07	
1020.000000	0.00175571	1020.000000	0.00221684	1020.000000	0.00223963	1020.000000	0.00223766	1020.000000	0.00221654	1020.000000	3.0718e-07	
1040.000000	0.00174845	1040.000000	0.00220783	1040.000000	0.00223063	1040.000000	0.00222867	1040.000000	0.00220753	1040.000000	3.01633e-07	
1060.000000	0.00174159	1060.000000	0.00219931	1060.000000	0.00222208	1060.000000	0.00222013	1060.000000	0.00219901	1060.000000	2.96289e-07	
1080.000000	0.0017351 	1080.000000	0.00219125	1080.000000	0.00221394	1080.000000	0.002212  	1080.000000	0.00219096	1080.000000	2.91136e-07	
1100.000000	0.00172897	1100.000000	0.00218364	1100.000000	0.0022062 	1100.000000	0.00220427	1100.000000	0.00218335	1100.000000	2.86165e-07	
1120.000000	0.00172318	1120.000000	0.00217645	1120.000000	0.00219883	1120.000000	0.0021969 	1120.000000	0.00217617	1120.000000	2.81366e-07	
1140.000000	0.00171771	1140.000000	0.00216965	1140.000000	0.00219181	1140.000000	0.00218989	1140.000000	0.00216937	1140.000000	2.76729e-07	
1160.000000	0.00171255	1160.000000	0.00216323	1160.000000	0.00218512	1160.000000	0.00218322	1160.000000	0.00216296	1160.000000	2.72247e-07	
1180.000000	0.00170768	1180.000000	0.00215716	1180.000000	0.00217875	1180.000000	0.00217685	1180.000000	0.0021569 	1180.000000	2.67913e-07	
1200.000000	0.00170309	1200.000000	0.00215144	1200.000000	0.00217267	1200.000000	0.00217079	1200.000000	0.00215118	1200.000000	2.63718e-07	
1220.000000	0.00169876	1220.000000	0.00214604	1220.000000	0.00216687	1220.000000	0.002165  	1220.000000	0.00214578	1220.000000	2.59656e-07	
1240.000000	0.00169469	1240.000000	0.00214095	1240.000000	0.00216134	1240.000000	0.00215948	1240.000000	0.00214069	1240.000000	2.55722e-07	
1260.000000	0.00169086	1260.000000	0.00213615	1260.000000	0.00215606	1260.000000	0.00215422	1260.000000	0.0021359 	1260.000000	2.51908e-07	
1280.000000	0.00168726	1280.000000	0.00213164	1280.000000	0.00215103	1280.000000	0.0021492 	1280.000000	0.00213139	1280.000000	2.48209e-07	
1300.000000	0.00168389	1300.000000	0.00212739	1300.000000	0.00214624	1300.000000	0.0021444 	1300.000000	0.00212714	1300.000000	2.44621e-07	
1320.000000	0.00168072	1320.000000	0.0021234 	1320.000000	0.00214167	1320.000000	0.00213983	1320.000000	0.00212315	1320.000000	2.41138e-07	
1340.000000	0.00167776	1340.000000	0.00211965	1340.000000	0.00213733	1340.000000	0.00213546	1340.000000	0.00211941	1340.000000	2.37756e-07	
1360.000000	0.001675  	1360.000000	0.00211613	1360.000000	0.00213318	1360.000000	0.00213129	1360.000000	0.0021159 	1360.000000	2.3447e-07	
1380.000000	0.00167242	1380.000000	0.00211284	1380.000000	0.00212923	1380.000000	0.00212731	1380.000000	0.00211261	1380.000000	2.31276e-07	
1400.000000	0.00167003	1400.000000	0.00210977	1400.000000	0.00212545	1400.000000	0.00212351	1400.000000	0.00210954	1400.000000	2.2817e-07	
1420.000000	0.0016678 	1420.000000	0.00210689	1420.000000	0.00212184	1420.000000	0.00211988	1420.000000	0.00210667	1420.000000	2.25149e-07	
1440.000000	0.00166575	1440.000000	0.00210422	1440.000000	0.00211839	1440.000000	0.00211641	1440.000000	0.002104  	1440.000000	2.2221e-07	
1460.000000	0.00166385	1460.000000	0.00210174	1460.000000	0.00211509	1460.000000	0.0021131 	1460.000000	0.00210152	1460.000000	2.19348e-07	
1480.000000	0.00166211	1480.000000	0.00209943	1480.000000	0.00211193	1480.000000	0.00210994	1480.000000	0.00209922	1480.000000	2.16562e-07	
1500.000000	0.00166051	1500.000000	0.00209731	1500.000000	0.0021089 	1500.000000	0.00210692	1500.000000	0.00209709	1500.000000	2.13847e-07	
1520.000000	0.00165906	1520.000000	0.00209534	1520.000000	0.00210601	1520.000000	0.00210404	1520.000000	0.00209513	1520.000000	2.11202e-07	
1540.000000	0.00165774	1540.000000	0.00209354	1540.000000	0.00210325	1540.000000	0.00210128	1540.000000	0.00209334	1540.000000	2.08623e-07	
1560.000000	0.00165656	1560.000000	0.0020919 	1560.000000	0.00210062	1560.000000	0.00209866	1560.000000	0.00209169	1560.000000	2.06108e-07	
1580.000000	0.00165551	1580.000000	0.0020904 	1580.000000	0.0020981 	1580.000000	0.00209615	1580.000000	0.0020902 	1580.000000	2.03654e-07	
1600.000000	0.00165458	1600.000000	0.00208905	1600.000000	0.0020957 	1600.000000	0.00209376	1600.000000	0.00208885	1600.000000	2.0126e-07	
1620.000000	0.00165377	1620.000000	0.00208784	1620.000000	0.00209341	1620.000000	0.00209147	1620.000000	0.00208764	1620.000000	1.98924e-07	
1640.000000	0.00165308	1640.000000	0.00208676	1640.000000	0.00209122	1640.000000	0.0020893 	1640.000000	0.00208656	1640.000000	1.96642e-07	
1660.000000	0.0016525 	1660.000000	0.00208581	1660.000000	0.00208914	1660.000000	0.00208722	1660.000000	0.00208561	1660.000000	1.94414e-07	
1680.000000	0.00165202	1680.000000	0.00208498	1680.000000	0.00208716	1680.000000	0.00208524	1680.000000	0.00208479	1680.000000	1.92237e-07	
1700.000000	0.00165165	1700.000000	0.00208427	1700.000000	0.00208527	1700.000000	0.00208335	1700.000000	0.00208408	1700.000000	1.9011e-07	
1750.000000	0.00165117	1750.000000	0.002083  	1750.000000	0.00208093	1750.000000	0.00207902	1750.000000	0.00208281	1750.000000	1.84998e-07	
1800.000000	0.00165126	1800.000000	0.00208239	1800.000000	0.00207709	1800.000000	0.0020752 	1800.000000	0.00208221	1800.000000	1.80162e-07	
1850.000000	0.00165191	1850.000000	0.00208239	1850.000000	0.00207372	1850.000000	0.00207183	1850.000000	0.00208221	1850.000000	1.75578e-07	
1900.000000	0.00165305	1900.000000	0.00208295	1900.000000	0.00207076	1900.000000	0.00206888	1900.000000	0.00208278	1900.000000	1.71229e-07	
1950.000000	0.00165467	1950.000000	0.00208403	1950.000000	0.00206819	1950.000000	0.00206631	1950.000000	0.00208387	1950.000000	1.67096e-07	
2000.000000	0.00165672	2000.000000	0.0020856 	2000.000000	0.00206595	2000.000000	0.00206409	2000.000000	0.00208543	2000.000000	1.63163e-07	
2100.000000	0.00166202	2100.000000	0.00209002	2100.000000	0.00206242	2100.000000	0.00206057	2100.000000	0.00208987	2100.000000	1.55842e-07	
2200.000000	0.00166877	2200.000000	0.00209599	2200.000000	0.00205994	2200.000000	0.0020581 	2200.000000	0.00209584	2200.000000	1.49166e-07	
2300.000000	0.00167679	2300.000000	0.0021033 	2300.000000	0.00205836	2300.000000	0.00205653	2300.000000	0.00210316	2300.000000	1.43054e-07	
2400.000000	0.00168594	2400.000000	0.00211178	2400.000000	0.00205754	2400.000000	0.00205572	2400.000000	0.00211164	2400.000000	1.37436e-07	
2500.000000	0.0016961 	2500.000000	0.00212129	2500.000000	0.00205736	2500.000000	0.00205555	2500.000000	0.00212115	2500.000000	1.32254e-07	
2600.000000	0.00170719	2600.000000	0.00213171	2600.000000	0.00205772	2600.000000	0.00205592	2600.000000	0.00213158	2600.000000	1.27458e-07	
2700.000000	0.0017191 	2700.000000	0.00214293	2700.000000	0.00205856	2700.000000	0.00205676	2700.000000	0.00214281	2700.000000	1.23008e-07	
2800.000000	0.00173177	2800.000000	0.00215488	2800.000000	0.00205979	2800.000000	0.002058  	2800.000000	0.00215476	2800.000000	1.18865e-07	
2900.000000	0.00174513	2900.000000	0.00216747	2900.000000	0.00206136	2900.000000	0.00205958	2900.000000	0.00216735	2900.000000	1.15e-07  	
3000.000000	0.00175913	3000.000000	0.00218064	3000.000000	0.00206323	3000.000000	0.00206145	3000.000000	0.00218053	3000.000000	1.11385e-07	
3200.000000	0.00178884	3200.000000	0.00220849	3200.000000	0.00206768	3200.000000	0.00206592	3200.000000	0.00220838	3200.000000	1.04813e-07	
3400.000000	0.00182058	3400.000000	0.00223805	3400.000000	0.00207289	3400.000000	0.00207113	3400.000000	0.00223795	3400.000000	9.89918e-08	
3600.000000	0.00185409	3600.000000	0.00226902	3600.000000	0.00207864	3600.000000	0.00207689	3600.000000	0.00226893	3600.000000	9.37988e-08	
3800.000000	0.00188917	3800.000000	0.00230118	3800.000000	0.0020848 	3800.000000	0.00208306	3800.000000	0.0023011 	3800.000000	8.91368e-08	
4000.000000	0.00192565	4000.000000	0.00233434	4000.000000	0.00209125	4000.000000	0.00208951	4000.000000	0.00233426	4000.000000	8.49276e-08	
4200.000000	0.0019634 	4200.000000	0.00236834	4200.000000	0.0020979 	4200.000000	0.00209617	4200.000000	0.00236826	4200.000000	8.11077e-08	
4400.000000	0.00200231	4400.000000	0.00240307	4400.000000	0.00210469	4400.000000	0.00210296	4400.000000	0.00240299	4400.000000	7.76252e-08	
4600.000000	0.00204228	4600.000000	0.00243841	4600.000000	0.00211156	4600.000000	0.00210983	4600.000000	0.00243834	4600.000000	7.44368e-08	
4800.000000	0.00208325	4800.000000	0.00247429	4800.000000	0.00211847	4800.000000	0.00211675	4800.000000	0.00247422	4800.000000	7.15064e-08	
5000.000000	0.00212513	5000.000000	0.00251064	5000.000000	0.0021254 	5000.000000	0.00212368	5000.000000	0.00251057	5000.000000	6.88038e-08	
5250.000000	0.00217871	5250.000000	0.00255663	5250.000000	0.00213403	5250.000000	0.00213232	5250.000000	0.00255657	5250.000000	6.57069e-08	
5500.000000	0.00223354	5500.000000	0.00260317	5500.000000	0.00214261	5500.000000	0.0021409 	5500.000000	0.0026031 	5500.000000	6.28836e-08	
6000.000000	0.00234673	6000.000000	0.00269753	6000.000000	0.0021595 	6000.000000	0.00215779	6000.000000	0.00269747	6000.000000	5.79233e-08	
6500.000000	0.00246421	6500.000000	0.00279324	6500.000000	0.00217593	6500.000000	0.00217423	6500.000000	0.00279319	6500.000000	5.37054e-08	
7000.000000	0.00258565	7000.000000	0.00288995	7000.000000	0.00219183	7000.000000	0.00219013	7000.000000	0.0028899 	7000.000000	5.00738e-08	
7500.000000	0.0027108 	7500.000000	0.0029874 	7500.000000	0.00220718	7500.000000	0.00220548	7500.000000	0.00298735	7500.000000	4.69132e-08	
8000.000000	0.00283946	8000.000000	0.00308541	8000.000000	0.00222198	8000.000000	0.00222028	8000.000000	0.00308536	8000.000000	4.41369e-08	
8500.000000	0.0029715 	8500.000000	0.00318384	8500.000000	0.00223623	8500.000000	0.00223454	8500.000000	0.0031838 	8500.000000	4.16783e-08	
9000.000000	0.00310679	9000.000000	0.00328259	9000.000000	0.00224996	9000.000000	0.00224827	9000.000000	0.00328255	9000.000000	3.94855e-08	
9500.000000	0.00324525	9500.000000	0.00338157	9500.000000	0.00226319	9500.000000	0.0022615 	9500.000000	0.00338153	9500.000000	3.75172e-08	
10000.000000	0.0033868 	10000.000000	0.00348071	10000.000000	0.00227597	10000.000000	0.00227426	10000.000000	0.00348068	10000.000000	3.57404e-08	
11000.000000	0.00367897	11000.000000	0.00367932	11000.000000	0.00230014	11000.000000	0.00229845	11000.000000	0.00367929	11000.000000	3.26586e-08	
12000.000000	0.00398296	12000.000000	0.00387812	12000.000000	0.00232264	12000.000000	0.00232102	12000.000000	0.00387809	12000.000000	3.0077e-08	
13000.000000	0.00429854	13000.000000	0.00407693	13000.000000	0.00234378	13000.000000	0.00234216	13000.000000	0.0040769 	13000.000000	2.78823e-08	
14000.000000	0.00462557	14000.000000	0.00427562	14000.000000	0.00236373	14000.000000	0.00236202	14000.000000	0.00427559	14000.000000	2.59929e-08	
15000.000000	0.00496393	15000.000000	0.0044741 	15000.000000	0.00238259	15000.000000	0.00238073	15000.000000	0.00447408	15000.000000	2.43489e-08	
16000.000000	0.00531356	16000.000000	0.00467234	16000.000000	0.00240037	16000.000000	0.00239842	16000.000000	0.00467231	16000.000000	2.2905e-08	
17000.000000	0.00567442	17000.000000	0.00487028	17000.000000	0.00241715	17000.000000	0.00241517	17000.000000	0.00487026	17000.000000	2.16265e-08	
18000.000000	0.00604651	18000.000000	0.00506791	18000.000000	0.00243302	18000.000000	0.00243109	18000.000000	0.00506789	18000.000000	2.04863e-08	
19000.000000	0.0064298 	19000.000000	0.00526522	19000.000000	0.00244806	19000.000000	0.00244624	19000.000000	0.0052652 	19000.000000	1.9463e-08	
20000.000000	0.0068243 	20000.000000	0.00546219	20000.000000	0.00246236	20000.000000	0.0024607 	20000.000000	0.00546218	20000.000000	1.85394e-08	
21000.000000	0.00723004	21000.000000	0.00565883	21000.000000	0.00247605	21000.000000	0.00247452	21000.000000	0.00565882	21000.000000	1.77015e-08	
22000.000000	0.00764704	22000.000000	0.00585514	22000.000000	0.00248928	22000.000000	0.00248776	22000.000000	0.00585512	22000.000000	1.69377e-08	
23000.000000	0.00807532	23000.000000	0.00605111	23000.000000	0.00250199	23000.000000	0.00250045	23000.000000	0.00605109	23000.000000	1.62386e-08	
24000.000000	0.00851492	24000.000000	0.00624675	24000.000000	0.00251418	24000.000000	0.00251266	24000.000000	0.00624673	24000.000000	1.55962e-08	
25000.000000	0.00896588	25000.000000	0.00644206	25000.000000	0.00252592	25000.000000	0.0025244 	25000.000000	0.00644205	25000.000000	1.50039e-08	
26000.000000	0.00942823	26000.000000	0.00663706	26000.000000	0.00253724	26000.000000	0.00253571	26000.000000	0.00663704	26000.000000	1.44559e-08	
27000.000000	0.00990203	27000.000000	0.00683174	27000.000000	0.00254816	27000.000000	0.00254663	27000.000000	0.00683173	27000.000000	1.39475e-08	
28000.000000	0.0103873 	28000.000000	0.00702612	28000.000000	0.00255871	28000.000000	0.00255717	28000.000000	0.0070261 	28000.000000	1.34745e-08	
29000.000000	0.0108842 	29000.000000	0.00722019	29000.000000	0.00256888	29000.000000	0.00256737	29000.000000	0.00722018	29000.000000	1.30332e-08	
30000.000000	0.0113926 	30000.000000	0.00741397	30000.000000	0.00257871	30000.000000	0.00257724	30000.000000	0.00741396	30000.000000	1.26206e-08	
32000.000000	0.0124444 	32000.000000	0.00780068	32000.000000	0.00259746	32000.000000	0.00259609	32000.000000	0.00780067	32000.000000	1.18708e-08	
34000.000000	0.0135433 	34000.000000	0.00818629	34000.000000	0.00261514	34000.000000	0.00261385	34000.000000	0.00818628	34000.000000	1.12069e-08	
36000.000000	0.0146896 	36000.000000	0.00857086	36000.000000	0.00263188	36000.000000	0.00263064	36000.000000	0.00857085	36000.000000	1.0615e-08	
38000.000000	0.0158839 	38000.000000	0.00895442	38000.000000	0.00264777	38000.000000	0.00264656	38000.000000	0.00895441	38000.000000	1.00838e-08	
40000.000000	0.0171266 	40000.000000	0.00933703	40000.000000	0.00266287	40000.000000	0.0026617 	40000.000000	0.00933702	40000.000000	9.60433e-09	
42000.000000	0.0184183 	42000.000000	0.00971872	42000.000000	0.00267727	42000.000000	0.00267613	42000.000000	0.00971871	42000.000000	9.16941e-09	
44000.000000	0.0197595 	44000.000000	0.0100995 	44000.000000	0.00269101	44000.000000	0.00268991	44000.000000	0.0100995 	44000.000000	8.77303e-09	
46000.000000	0.0211505 	46000.000000	0.0104795 	46000.000000	0.00270416	46000.000000	0.0027031 	46000.000000	0.0104795 	46000.000000	8.41026e-09	
48000.000000	0.0225921 	48000.000000	0.0108587 	48000.000000	0.00271675	48000.000000	0.00271574	48000.000000	0.0108587 	48000.000000	8.07695e-09	
50000.000000	0.0240847 	50000.000000	0.0112371 	50000.000000	0.00272884	50000.000000	0.00272789	50000.000000	0.0112371 	50000.000000	7.76964e-09	
