Energy (MeV/u)1	0 - [He-base] F.Hubert et al, AD&ND Tables 46(1990)1	Energy (MeV/u)2	1 - [H -base] J.F.Ziegler et al, Pergamon Press, NY (low energy)	Energy (MeV/u)3	2 - ATIMA 1.2  LS-theory (recommended for high energy)	Energy (MeV/u)4	3 - ATIMA 1.2  without LS-correction	Energy (MeV/u)5	4 - electrical component of [1] - J.F.Ziegler et al	Energy (MeV/u)6	5 - nuclear component of [1] - J.F.Ziegler et al	
0.001000	1.07879   	0.001000	0.599181  	0.001000	0.684312  	0.001000	0.684312  	0.001000	0.294555  	0.001000	0.304627  	
0.002000	1.18043   	0.002000	0.624716  	0.002000	0.737356  	0.002000	0.737356  	0.002000	0.39374   	0.002000	0.230976  	
0.005000	1.44815   	0.005000	0.72091   	0.005000	0.886079  	0.005000	0.886079  	0.005000	0.578829  	0.005000	0.142081  	
0.008000	1.65904   	0.008000	0.811996  	0.008000	1.01414   	0.008000	1.01414   	0.008000	0.705838  	0.008000	0.106157  	
0.010000	1.77832   	0.010000	0.867375  	0.010000	1.09016   	0.010000	1.09016   	0.010000	0.775684  	0.010000	0.0916909 	
0.015000	2.0819    	0.015000	1.00386   	0.015000	1.26636   	0.015000	1.26636   	0.015000	0.934761  	0.015000	0.0690952 	
0.020000	2.32526   	0.020000	1.19388   	0.020000	1.47601   	0.020000	1.47601   	0.020000	1.13759   	0.020000	0.0562988 	
0.025000	2.59914   	0.025000	1.3813    	0.025000	1.68037   	0.025000	1.68037   	0.025000	1.33366   	0.025000	0.0476382 	
0.030000	2.8318    	0.030000	1.56379   	0.030000	1.83304   	0.030000	1.83304   	0.030000	1.52219   	0.030000	0.0415972 	
0.035000	3.02333   	0.035000	1.73725   	0.035000	1.97594   	0.035000	1.97594   	0.035000	1.70022   	0.035000	0.0370307 	
0.040000	3.17436   	0.040000	1.90062   	0.040000	2.10946   	0.040000	2.10946   	0.040000	1.86718   	0.040000	0.0334449 	
0.045000	3.28564   	0.045000	2.05326   	0.045000	2.23397   	0.045000	2.23397   	0.045000	2.02271   	0.045000	0.0305465 	
0.050000	3.3544    	0.050000	2.19226   	0.050000	2.3498    	0.050000	2.3498    	0.050000	2.16411   	0.050000	0.0281502 	
0.055000	3.49642   	0.055000	2.31829   	0.055000	2.45731   	0.055000	2.45731   	0.055000	2.29216   	0.055000	0.0261325 	
0.060000	3.61615   	0.060000	2.43388   	0.060000	2.55688   	0.060000	2.55688   	0.060000	2.40947   	0.060000	0.0244079 	
0.070000	3.79536   	0.070000	2.63569   	0.070000	2.73379   	0.070000	2.73379   	0.070000	2.61408   	0.070000	0.021609  	
0.080000	3.98663   	0.080000	2.80242   	0.080000	2.8838    	0.080000	2.8838    	0.080000	2.78299   	0.080000	0.0194294 	
0.090000	4.12915   	0.090000	2.93925   	0.090000	3.01019   	0.090000	3.01019   	0.090000	2.92157   	0.090000	0.0176794 	
0.100000	4.2352    	0.100000	3.05112   	0.100000	3.11609   	0.100000	3.11609   	0.100000	3.03488   	0.100000	0.0162407 	
0.120000	4.27316   	0.120000	3.21653   	0.120000	3.2775    	0.120000	3.2775    	0.120000	3.20252   	0.120000	0.0140086 	
0.140000	4.2684    	0.140000	3.3252    	0.140000	3.38701   	0.140000	3.38701   	0.140000	3.31284   	0.140000	0.0123513 	
0.160000	4.27442   	0.160000	3.40774   	0.160000	3.4587    	0.160000	3.4587    	0.160000	3.39668   	0.160000	0.0110682 	
0.180000	4.29956   	0.180000	3.48327   	0.180000	3.50273   	0.180000	3.50273   	0.180000	3.47322   	0.180000	0.0100428 	
0.200000	4.32184   	0.200000	3.53083   	0.200000	3.52636   	0.200000	3.52636   	0.200000	3.52163   	0.200000	0.00920312	
0.250000	4.269     	0.250000	3.59643   	0.250000	3.52719   	0.250000	3.52719   	0.250000	3.58879   	0.250000	0.00764135	
0.300000	4.25141   	0.300000	3.6245    	0.300000	3.48059   	0.300000	3.48059   	0.300000	3.61794   	0.300000	0.00655767	
0.350000	4.22696   	0.350000	3.61973   	0.350000	3.43389   	0.350000	3.43389   	0.350000	3.61397   	0.350000	0.00575846	
0.400000	4.22132   	0.400000	3.61863   	0.400000	3.37747   	0.400000	3.37747   	0.400000	3.61349   	0.400000	0.00514295	
0.450000	4.19164   	0.450000	3.59482   	0.450000	3.30993   	0.450000	3.30993   	0.450000	3.59017   	0.450000	0.00465328	
0.500000	4.13848   	0.500000	3.54927   	0.500000	3.23684   	0.500000	3.23684   	0.500000	3.54502   	0.500000	0.00425379	
0.600000	3.8549    	0.600000	3.42004   	0.600000	3.08402   	0.600000	3.08402   	0.600000	3.4164    	0.600000	0.00363976	
0.700000	3.55792   	0.700000	3.27334   	0.700000	2.94369   	0.700000	2.94369   	0.700000	3.27015   	0.700000	0.0031886 	
0.800000	3.39065   	0.800000	3.11389   	0.800000	2.81647   	0.800000	2.81647   	0.800000	3.11105   	0.800000	0.00284217	
0.900000	3.2323    	0.900000	2.96596   	0.900000	2.70097   	0.900000	2.70097   	0.900000	2.96339   	0.900000	0.00256726	
1.000000	3.08435   	1.000000	2.82976   	1.000000	2.59553   	1.000000	2.59553   	1.000000	2.82741   	1.000000	0.00234345	
1.250000	2.74087   	1.250000	2.52298   	1.250000	2.35616   	1.250000	2.35616   	1.250000	2.52105   	1.250000	0.00193053	
1.500000	2.4636    	1.500000	2.27915   	1.500000	2.16245   	1.500000	2.16245   	1.500000	2.27751   	1.500000	0.00164675	
1.750000	2.23717   	1.750000	2.08195   	1.750000	2.00082   	1.750000	2.00082   	1.750000	2.08051   	1.750000	0.00143902	
2.000000	2.03803   	2.000000	1.90741   	2.000000	1.86242   	2.000000	1.86242   	2.000000	1.90613   	2.000000	0.00128   	
2.250000	1.87382   	2.250000	1.76116   	2.250000	1.74211   	2.250000	1.74211   	2.250000	1.76      	2.250000	0.00115414	
2.500000	1.70108   	2.500000	1.64061   	2.500000	1.63645   	2.500000	1.63645   	2.500000	1.63956   	2.500000	0.00105189	
3.000000	1.50152   	3.000000	1.45061   	3.000000	1.45985   	3.000000	1.45985   	3.000000	1.44972   	3.000000	0.000895562	
3.500000	1.34619   	3.500000	1.3052    	3.500000	1.31823   	3.500000	1.31823   	3.500000	1.30442   	3.500000	0.000781385	
4.000000	1.22169   	4.000000	1.18903   	4.000000	1.20245   	4.000000	1.20245   	4.000000	1.18833   	4.000000	0.000694141	
4.500000	1.11958   	4.500000	1.09356   	4.500000	1.10622   	4.500000	1.10622   	4.500000	1.09293   	4.500000	0.000625192	
5.000000	1.03423   	5.000000	1.01349   	5.000000	1.02505   	5.000000	1.02505   	5.000000	1.01293   	5.000000	0.000569256	
5.500000	0.961769  	5.500000	0.945284  	5.500000	0.955695  	5.500000	0.955695  	5.500000	0.944761  	5.500000	0.000522919	
6.000000	0.899448  	6.000000	0.886419  	6.000000	0.895758  	6.000000	0.895758  	6.000000	0.885935  	6.000000	0.000483874	
6.500000	0.845246  	6.500000	0.835065  	6.500000	0.843432  	6.500000	0.843432  	6.500000	0.834614  	6.500000	0.0004505 	
7.000000	0.797649  	7.000000	0.789844  	7.000000	0.797342  	7.000000	0.797342  	7.000000	0.789423  	7.000000	0.000421629	
7.500000	0.755502  	7.500000	0.749698  	7.500000	0.756421  	7.500000	0.756421  	7.500000	0.749302  	7.500000	0.000396394	
8.000000	0.717906  	8.000000	0.713802  	8.000000	0.719832  	8.000000	0.719832  	8.000000	0.713428  	8.000000	0.00037414	
8.500000	0.684149  	8.500000	0.681499  	8.500000	0.686909  	8.500000	0.686909  	8.500000	0.681145  	8.500000	0.00035436	
9.000000	0.653663  	9.000000	0.652264  	9.000000	0.657117  	9.000000	0.657117  	9.000000	0.651928  	9.000000	0.000336658	
9.500000	0.625988  	9.500000	0.62567   	9.500000	0.630018  	9.500000	0.630018  	9.500000	0.62535   	9.500000	0.000320717	
10.000000	0.600745  	10.000000	0.605577  	10.000000	0.605256  	10.000000	0.605256  	10.000000	0.605271  	10.000000	0.000306284	
11.000000	0.556359  	11.000000	0.562463  	11.000000	0.560961  	11.000000	0.561144  	11.000000	0.562182  	11.000000	0.000281147	
12.000000	0.518568  	12.000000	0.525446  	12.000000	0.523135  	12.000000	0.523432  	12.000000	0.525186  	12.000000	0.000259983	
13.000000	0.485983  	13.000000	0.493314  	13.000000	0.490436  	13.000000	0.490801  	13.000000	0.493072  	13.000000	0.000241908	
14.000000	0.457582  	14.000000	0.465156  	14.000000	0.461868  	14.000000	0.462275  	14.000000	0.46493   	14.000000	0.000226283	
15.000000	0.432596  	15.000000	0.440272  	15.000000	0.436682  	15.000000	0.437112  	15.000000	0.44006   	15.000000	0.000212634	
16.000000	0.410435  	16.000000	0.418119  	16.000000	0.41431   	16.000000	0.414745  	16.000000	0.417918  	16.000000	0.000200605	
17.000000	0.390638  	17.000000	0.398265  	17.000000	0.394301  	17.000000	0.394726  	17.000000	0.398075  	17.000000	0.000189919	
18.000000	0.372839  	18.000000	0.380368  	18.000000	0.37629   	18.000000	0.3767    	18.000000	0.380187  	18.000000	0.00018036	
19.000000	0.356747  	19.000000	0.364148  	19.000000	0.359984  	19.000000	0.360381  	19.000000	0.363976  	19.000000	0.000171756	
20.000000	0.342122  	20.000000	0.349377  	20.000000	0.345148  	20.000000	0.345538  	20.000000	0.349213  	20.000000	0.00016397	
21.000000	0.32877   	21.000000	0.335868  	21.000000	0.331597  	21.000000	0.331977  	21.000000	0.335711  	21.000000	0.000156887	
22.000000	0.316529  	22.000000	0.323463  	22.000000	0.319187  	22.000000	0.319541  	22.000000	0.323313  	22.000000	0.000150417	
23.000000	0.305262  	23.000000	0.312031  	23.000000	0.307776  	23.000000	0.308095  	23.000000	0.311886  	23.000000	0.000144481	
24.000000	0.294857  	24.000000	0.30146   	24.000000	0.297237  	24.000000	0.297526  	24.000000	0.30132   	24.000000	0.000139015	
25.000000	0.285217  	25.000000	0.291654  	25.000000	0.287471  	25.000000	0.287739  	25.000000	0.29152   	25.000000	0.000133964	
27.000000	0.267909  	27.000000	0.274027  	27.000000	0.26997   	27.000000	0.270191  	27.000000	0.273903  	27.000000	0.000124932	
29.000000	0.252805  	29.000000	0.258622  	29.000000	0.254752  	29.000000	0.254918  	29.000000	0.258505  	29.000000	0.000117085	
31.000000	0.239504  	31.000000	0.245039  	31.000000	0.241498  	31.000000	0.241599  	31.000000	0.244929  	31.000000	0.000110204	
33.000000	0.227694  	33.000000	0.232968  	33.000000	0.229811  	33.000000	0.229851  	33.000000	0.232864  	33.000000	0.000104117	
35.000000	0.217134  	35.000000	0.222167  	35.000000	0.219317  	35.000000	0.21933   	35.000000	0.222068  	35.000000	9.86923e-05	
38.000000	0.203229  	38.000000	0.207935  	38.000000	0.205501  	38.000000	0.205455  	38.000000	0.207843  	38.000000	9.15769e-05	
41.000000	0.191216  	41.000000	0.195632  	41.000000	0.193529  	41.000000	0.193446  	41.000000	0.195547  	41.000000	8.54552e-05	
44.000000	0.180726  	44.000000	0.184888  	44.000000	0.183046  	44.000000	0.182944  	44.000000	0.184808  	44.000000	8.01301e-05	
47.000000	0.171482  	47.000000	0.175419  	47.000000	0.173799  	47.000000	0.173677  	47.000000	0.175344  	47.000000	7.54539e-05	
50.000000	0.163271  	50.000000	0.167009  	50.000000	0.165571  	50.000000	0.165437  	50.000000	0.166938  	50.000000	7.13133e-05	
55.000000	0.151442  	55.000000	0.154898  	55.000000	0.153731  	55.000000	0.153553  	55.000000	0.154833  	55.000000	6.53717e-05	
60.000000	0.141453  	60.000000	0.144679  	60.000000	0.143695  	60.000000	0.143507  	60.000000	0.144619  	60.000000	6.03771e-05	
65.000000	0.132899  	65.000000	0.135936  	65.000000	0.135081  	65.000000	0.134897  	65.000000	0.13588   	65.000000	5.61174e-05	
70.000000	0.125485  	70.000000	0.128368  	70.000000	0.127628  	70.000000	0.127433  	70.000000	0.128315  	70.000000	5.24398e-05	
75.000000	0.118994  	75.000000	0.121749  	75.000000	0.121099  	75.000000	0.120896  	75.000000	0.1217    	75.000000	4.92312e-05	
80.000000	0.113259  	80.000000	0.115911  	80.000000	0.115332  	80.000000	0.115122  	80.000000	0.115865  	80.000000	4.64063e-05	
85.000000	0.108154  	85.000000	0.110721  	85.000000	0.110198  	85.000000	0.109983  	85.000000	0.110677  	85.000000	4.38994e-05	
90.000000	0.103577  	90.000000	0.106076  	90.000000	0.105583  	90.000000	0.105379  	90.000000	0.106034  	90.000000	4.16589e-05	
95.000000	0.0994492 	95.000000	0.101894  	95.000000	0.101438  	95.000000	0.101229  	95.000000	0.101854  	95.000000	3.96442e-05	
100.000000	0.0957059 	100.000000	0.0981075 	100.000000	0.097681  	100.000000	0.0974689 	100.000000	0.0980697 	100.000000	3.78222e-05	
105.000000	0.0922946 	105.000000	0.0946631 	105.000000	0.0942613 	105.000000	0.0940454 	105.000000	0.094627  	105.000000	3.61663e-05	
110.000000	0.0891719 	110.000000	0.0915159 	110.000000	0.0911231 	110.000000	0.090915  	110.000000	0.0914812 	110.000000	3.46545e-05	
115.000000	0.0863019 	115.000000	0.0886286 	115.000000	0.0882473 	115.000000	0.0880411 	115.000000	0.0885953 	115.000000	3.32686e-05	
120.000000	0.0836544 	120.000000	0.0859701 	120.000000	0.0856043 	120.000000	0.0853934 	120.000000	0.0859381 	120.000000	3.19932e-05	
125.000000	0.0812037 	125.000000	0.0835139 	125.000000	0.0831556 	125.000000	0.0829459 	125.000000	0.0834831 	125.000000	3.08155e-05	
130.000000	0.0789283 	130.000000	0.0812378 	130.000000	0.0808792 	130.000000	0.0806767 	130.000000	0.081208  	130.000000	2.97245e-05	
135.000000	0.0768094 	135.000000	0.0791223 	135.000000	0.0787695 	135.000000	0.0785667 	135.000000	0.0790936 	135.000000	2.8711e-05	
140.000000	0.0748311 	140.000000	0.0771511 	140.000000	0.0768062 	140.000000	0.0765999 	140.000000	0.0771233 	140.000000	2.77667e-05	
145.000000	0.0729794 	145.000000	0.0753096 	145.000000	0.0749672 	145.000000	0.0747619 	145.000000	0.0752827 	145.000000	2.68849e-05	
150.000000	0.0712423 	150.000000	0.0735855 	150.000000	0.0732396 	150.000000	0.0730406 	150.000000	0.0735595 	150.000000	2.60593e-05	
155.000000	0.0687964 	155.000000	0.0719679 	155.000000	0.0716239 	155.000000	0.0714252 	155.000000	0.0719426 	155.000000	2.52848e-05	
160.000000	0.0673628 	160.000000	0.070447  	160.000000	0.0701052 	160.000000	0.0699061 	160.000000	0.0704225 	160.000000	2.45566e-05	
165.000000	0.0660109 	165.000000	0.0690145 	165.000000	0.0686688 	165.000000	0.068475  	165.000000	0.0689906 	165.000000	2.38708e-05	
170.000000	0.0647338 	170.000000	0.0676628 	170.000000	0.0673159 	170.000000	0.0671244 	170.000000	0.0676396 	170.000000	2.32235e-05	
175.000000	0.0635254 	175.000000	0.0663852 	175.000000	0.0660412 	175.000000	0.0658478 	175.000000	0.0663626 	175.000000	2.26118e-05	
180.000000	0.0623803 	180.000000	0.0651759 	180.000000	0.0648346 	180.000000	0.0646393 	180.000000	0.0651538 	180.000000	2.20326e-05	
185.000000	0.0612934 	185.000000	0.0640294 	185.000000	0.0636874 	185.000000	0.0634936 	185.000000	0.0640079 	185.000000	2.14834e-05	
190.000000	0.0602605 	190.000000	0.062941  	190.000000	0.0625952 	190.000000	0.0624058 	190.000000	0.06292   	190.000000	2.09619e-05	
195.000000	0.0592775 	195.000000	0.0619064 	195.000000	0.0615596 	195.000000	0.0613719 	195.000000	0.0618859 	195.000000	2.0466e-05	
200.000000	0.0583409 	200.000000	0.0609216 	200.000000	0.0605767 	200.000000	0.0603878 	200.000000	0.0609016 	200.000000	1.99939e-05	
210.000000	0.0565942 	210.000000	0.059088  	210.000000	0.0587388 	210.000000	0.0585556 	210.000000	0.0590689 	210.000000	1.91144e-05	
220.000000	0.0549978 	220.000000	0.0574157 	220.000000	0.0570683 	220.000000	0.056885  	220.000000	0.0573974 	220.000000	1.83116e-05	
230.000000	0.0535329 	230.000000	0.0558844 	230.000000	0.0555343 	230.000000	0.0553556 	230.000000	0.0558668 	230.000000	1.75758e-05	
240.000000	0.0521838 	240.000000	0.054477  	240.000000	0.0541274 	240.000000	0.0539505 	240.000000	0.0544601 	240.000000	1.68989e-05	
250.000000	0.0509373 	250.000000	0.0531792 	250.000000	0.0528346 	250.000000	0.0526553 	250.000000	0.0531629 	250.000000	1.6274e-05	
260.000000	0.0497821 	260.000000	0.0519787 	260.000000	0.0516344 	260.000000	0.0514578 	260.000000	0.051963  	260.000000	1.56952e-05	
270.000000	0.0487083 	270.000000	0.050865  	270.000000	0.0505205 	270.000000	0.0503476 	270.000000	0.0508499 	270.000000	1.51575e-05	
280.000000	0.0477078 	280.000000	0.0498292 	280.000000	0.0494893 	280.000000	0.0493155 	280.000000	0.0498146 	280.000000	1.46568e-05	
290.000000	0.0467733 	290.000000	0.0488635 	290.000000	0.0485237 	290.000000	0.0483539 	290.000000	0.0488493 	290.000000	1.41892e-05	
300.000000	0.0458985 	300.000000	0.0479611 	300.000000	0.0476244 	300.000000	0.0474559 	300.000000	0.0479473 	300.000000	1.37515e-05	
310.000000	0.0450779 	310.000000	0.047116  	310.000000	0.0467841 	310.000000	0.0466155 	310.000000	0.0471026 	310.000000	1.3341e-05	
320.000000	0.0443066 	320.000000	0.046323  	320.000000	0.0459923 	320.000000	0.0458276 	320.000000	0.0463101 	320.000000	1.29551e-05	
330.000000	0.0435803 	330.000000	0.0455776 	330.000000	0.0452516 	330.000000	0.0450875 	330.000000	0.0455651 	330.000000	1.25916e-05	
340.000000	0.0428953 	340.000000	0.0448757 	340.000000	0.0445553 	340.000000	0.044391  	340.000000	0.0448635 	340.000000	1.22487e-05	
350.000000	0.0422482 	350.000000	0.0442137 	350.000000	0.0438958 	350.000000	0.0437347 	350.000000	0.0442018 	350.000000	1.19246e-05	
360.000000	0.041636  	360.000000	0.0435884 	360.000000	0.0432749 	360.000000	0.0431153 	360.000000	0.0435767 	360.000000	1.16178e-05	
370.000000	0.041056  	370.000000	0.0429968 	370.000000	0.0426901 	370.000000	0.0425297 	370.000000	0.0429854 	370.000000	1.1327e-05	
380.000000	0.0405058 	380.000000	0.0424364 	380.000000	0.0421341 	380.000000	0.0419756 	380.000000	0.0424253 	380.000000	1.10508e-05	
390.000000	0.0399831 	390.000000	0.0419048 	390.000000	0.0416063 	390.000000	0.0414504 	390.000000	0.041894  	390.000000	1.07883e-05	
400.000000	0.0394861 	400.000000	0.0414    	400.000000	0.0411079 	400.000000	0.0409521 	400.000000	0.0413895 	400.000000	1.05383e-05	
410.000000	0.0390129 	410.000000	0.0409201 	410.000000	0.0406349 	410.000000	0.0404787 	410.000000	0.0409098 	410.000000	1.03001e-05	
420.000000	0.038562  	420.000000	0.0404634 	420.000000	0.0401829 	420.000000	0.0400286 	420.000000	0.0404533 	420.000000	1.00728e-05	
430.000000	0.0381317 	430.000000	0.0400282 	430.000000	0.0397522 	430.000000	0.0396001 	430.000000	0.0400183 	430.000000	9.85565e-06	
440.000000	0.0377209 	440.000000	0.0396131 	440.000000	0.0393438 	440.000000	0.0391919 	440.000000	0.0396035 	440.000000	9.64798e-06	
450.000000	0.0373283 	450.000000	0.0392169 	450.000000	0.0389549 	450.000000	0.0388025 	450.000000	0.0392074 	450.000000	9.44918e-06	
460.000000	0.0369527 	460.000000	0.0388383 	460.000000	0.0385821 	460.000000	0.0384308 	460.000000	0.0388291 	460.000000	9.25869e-06	
470.000000	0.0365931 	470.000000	0.0384763 	470.000000	0.0382248 	470.000000	0.0380756 	470.000000	0.0384673 	470.000000	9.076e-06 	
480.000000	0.0362485 	480.000000	0.0381299 	480.000000	0.0378842 	480.000000	0.0377361 	480.000000	0.038121  	480.000000	8.90062e-06	
490.000000	0.0359182 	490.000000	0.0377981 	490.000000	0.0375596 	490.000000	0.0374111 	490.000000	0.0377893 	490.000000	8.73212e-06	
500.000000	0.0356012 	500.000000	0.03748   	500.000000	0.0372487 	500.000000	0.0370999 	500.000000	0.0374714 	500.000000	8.5701e-06	
520.000000	0.0350044 	520.000000	0.0368821 	520.000000	0.0366616 	520.000000	0.0365157 	520.000000	0.0368739 	520.000000	8.26404e-06	
540.000000	0.0344529 	540.000000	0.0363307 	540.000000	0.0361227 	540.000000	0.0359778 	540.000000	0.0363227 	540.000000	7.9798e-06	
560.000000	0.033942  	560.000000	0.0358208 	560.000000	0.0356262 	560.000000	0.0354812 	560.000000	0.035813  	560.000000	7.7151e-06	
580.000000	0.0334677 	580.000000	0.0353482 	580.000000	0.035164  	580.000000	0.0350218 	580.000000	0.0353407 	580.000000	7.46796e-06	
600.000000	0.0330265 	600.000000	0.0349094 	600.000000	0.0347373 	600.000000	0.0345958 	600.000000	0.0349022 	600.000000	7.23669e-06	
620.000000	0.0326155 	620.000000	0.0345011 	620.000000	0.034342  	620.000000	0.0342001 	620.000000	0.0344941 	620.000000	7.01977e-06	
640.000000	0.0322319 	640.000000	0.0341206 	640.000000	0.0339717 	640.000000	0.0338318 	640.000000	0.0341138 	640.000000	6.8159e-06	
660.000000	0.0318733 	660.000000	0.0337655 	660.000000	0.0336267 	660.000000	0.0334884 	660.000000	0.0337588 	660.000000	6.62392e-06	
680.000000	0.0315378 	680.000000	0.0334334 	680.000000	0.0333064 	680.000000	0.0331678 	680.000000	0.033427  	680.000000	6.44282e-06	
700.000000	0.0312233 	700.000000	0.0331226 	700.000000	0.0330064 	700.000000	0.032868  	700.000000	0.0331163 	700.000000	6.27167e-06	
720.000000	0.0309283 	720.000000	0.0328312 	720.000000	0.0327239 	720.000000	0.0325873 	720.000000	0.0328251 	720.000000	6.10968e-06	
740.000000	0.0306512 	740.000000	0.0325578 	740.000000	0.0324593 	740.000000	0.032324  	740.000000	0.0325518 	740.000000	5.95613e-06	
760.000000	0.0303907 	760.000000	0.0323009 	760.000000	0.0322123 	760.000000	0.0320769 	760.000000	0.0322951 	760.000000	5.81035e-06	
780.000000	0.0301456 	780.000000	0.0320594 	780.000000	0.0319803 	780.000000	0.0318446 	780.000000	0.0320537 	780.000000	5.67177e-06	
800.000000	0.0299149 	800.000000	0.031832  	800.000000	0.0317609 	800.000000	0.0316261 	800.000000	0.0318265 	800.000000	5.53986e-06	
820.000000	0.0296974 	820.000000	0.0316179 	820.000000	0.031554  	820.000000	0.0314207 	820.000000	0.0316124 	820.000000	5.41415e-06	
840.000000	0.0294924 	840.000000	0.0314159 	840.000000	0.0313617 	840.000000	0.0312293 	840.000000	0.0314107 	840.000000	5.29421e-06	
860.000000	0.0292989 	860.000000	0.0312255 	860.000000	0.0311812 	860.000000	0.0310487 	860.000000	0.0312203 	860.000000	5.17963e-06	
880.000000	0.0291164 	880.000000	0.0310457 	880.000000	0.031011  	880.000000	0.0308782 	880.000000	0.0310406 	880.000000	5.07008e-06	
900.000000	0.0289439 	900.000000	0.0308758 	900.000000	0.0308496 	900.000000	0.0307171 	900.000000	0.0308708 	900.000000	4.96521e-06	
920.000000	0.0287811 	920.000000	0.0307153 	920.000000	0.0306962 	920.000000	0.0305648 	920.000000	0.0307104 	920.000000	4.86473e-06	
940.000000	0.0286272 	940.000000	0.0305636 	940.000000	0.0305509 	940.000000	0.0304206 	940.000000	0.0305588 	940.000000	4.76838e-06	
960.000000	0.0284818 	960.000000	0.03042   	960.000000	0.0304138 	960.000000	0.0302842 	960.000000	0.0304153 	960.000000	4.67589e-06	
980.000000	0.0283443 	980.000000	0.0302842 	980.000000	0.0302845 	980.000000	0.0301549 	980.000000	0.0302796 	980.000000	4.58703e-06	
1000.000000	0.0282143 	1000.000000	0.0301557 	1000.000000	0.0301623 	1000.000000	0.0300324 	1000.000000	0.0301512 	1000.000000	4.50161e-06	
1020.000000	0.0280914 	1020.000000	0.030034  	1020.000000	0.0300462 	1020.000000	0.0299162 	1020.000000	0.0300296 	1020.000000	4.4194e-06	
1040.000000	0.0279752 	1040.000000	0.0299188 	1040.000000	0.0299356 	1040.000000	0.029806  	1040.000000	0.0299145 	1040.000000	4.34025e-06	
1060.000000	0.0278654 	1060.000000	0.0298097 	1060.000000	0.0298301 	1060.000000	0.0297013 	1060.000000	0.0298054 	1060.000000	4.26397e-06	
1080.000000	0.0277616 	1080.000000	0.0297064 	1080.000000	0.0297299 	1080.000000	0.029602  	1080.000000	0.0297022 	1080.000000	4.19042e-06	
1100.000000	0.0276635 	1100.000000	0.0296085 	1100.000000	0.0296348 	1100.000000	0.0295076 	1100.000000	0.0296044 	1100.000000	4.11944e-06	
1120.000000	0.0275709 	1120.000000	0.0295158 	1120.000000	0.0295448 	1120.000000	0.0294179 	1120.000000	0.0295118 	1120.000000	4.0509e-06	
1140.000000	0.0274834 	1140.000000	0.0294281 	1140.000000	0.0294596 	1140.000000	0.0293326 	1140.000000	0.0294241 	1140.000000	3.98469e-06	
1160.000000	0.0274008 	1160.000000	0.029345  	1160.000000	0.0293787 	1160.000000	0.0292516 	1160.000000	0.0293411 	1160.000000	3.92067e-06	
1180.000000	0.0273228 	1180.000000	0.0292663 	1180.000000	0.0293018 	1180.000000	0.0291745 	1180.000000	0.0292625 	1180.000000	3.85874e-06	
1200.000000	0.0272494 	1200.000000	0.0291919 	1200.000000	0.0292285 	1200.000000	0.0291012 	1200.000000	0.0291881 	1200.000000	3.79881e-06	
1220.000000	0.0271802 	1220.000000	0.0291214 	1220.000000	0.0291584 	1220.000000	0.0290314 	1220.000000	0.0291177 	1220.000000	3.74076e-06	
1240.000000	0.027115  	1240.000000	0.0290548 	1240.000000	0.0290914 	1240.000000	0.0289651 	1240.000000	0.0290511 	1240.000000	3.68453e-06	
1260.000000	0.0270537 	1260.000000	0.0289918 	1260.000000	0.0290276 	1260.000000	0.0289019 	1260.000000	0.0289882 	1260.000000	3.63001e-06	
1280.000000	0.0269962 	1280.000000	0.0289323 	1280.000000	0.0289669 	1280.000000	0.0288418 	1280.000000	0.0289287 	1280.000000	3.57713e-06	
1300.000000	0.0269422 	1300.000000	0.0288761 	1300.000000	0.0289092 	1300.000000	0.0287845 	1300.000000	0.0288726 	1300.000000	3.52583e-06	
1320.000000	0.0268916 	1320.000000	0.0288231 	1320.000000	0.0288544 	1320.000000	0.02873   	1320.000000	0.0288196 	1320.000000	3.47602e-06	
1340.000000	0.0268442 	1340.000000	0.0287731 	1340.000000	0.0288025 	1340.000000	0.0286782 	1340.000000	0.0287697 	1340.000000	3.42764e-06	
1360.000000	0.0268    	1360.000000	0.028726  	1360.000000	0.0287532 	1360.000000	0.0286288 	1360.000000	0.0287227 	1360.000000	3.38064e-06	
1380.000000	0.0267588 	1380.000000	0.0286817 	1380.000000	0.0287064 	1380.000000	0.0285818 	1380.000000	0.0286784 	1380.000000	3.33495e-06	
1400.000000	0.0267204 	1400.000000	0.0286401 	1400.000000	0.0286618 	1400.000000	0.0285371 	1400.000000	0.0286368 	1400.000000	3.29052e-06	
1420.000000	0.0266849 	1420.000000	0.0286009 	1420.000000	0.0286192 	1420.000000	0.0284945 	1420.000000	0.0285977 	1420.000000	3.2473e-06	
1440.000000	0.0266519 	1440.000000	0.0285643 	1440.000000	0.0285787 	1440.000000	0.028454  	1440.000000	0.0285611 	1440.000000	3.20523e-06	
1460.000000	0.0266216 	1460.000000	0.0285299 	1460.000000	0.0285399 	1460.000000	0.0284154 	1460.000000	0.0285268 	1460.000000	3.16427e-06	
1480.000000	0.0265937 	1480.000000	0.0284978 	1480.000000	0.0285029 	1480.000000	0.0283788 	1480.000000	0.0284947 	1480.000000	3.12438e-06	
1500.000000	0.0265682 	1500.000000	0.0284679 	1500.000000	0.0284676 	1500.000000	0.0283439 	1500.000000	0.0284648 	1500.000000	3.08552e-06	
1520.000000	0.0265449 	1520.000000	0.0284401 	1520.000000	0.028434  	1520.000000	0.0283107 	1520.000000	0.028437  	1520.000000	3.04765e-06	
1540.000000	0.0265239 	1540.000000	0.0284142 	1540.000000	0.0284021 	1540.000000	0.0282792 	1540.000000	0.0284112 	1540.000000	3.01072e-06	
1560.000000	0.026505  	1560.000000	0.0283903 	1560.000000	0.0283718 	1560.000000	0.0282493 	1560.000000	0.0283873 	1560.000000	2.9747e-06	
1580.000000	0.0264882 	1580.000000	0.0283682 	1580.000000	0.028343  	1580.000000	0.0282208 	1580.000000	0.0283653 	1580.000000	2.93957e-06	
1600.000000	0.0264733 	1600.000000	0.0283479 	1600.000000	0.0283158 	1600.000000	0.0281938 	1600.000000	0.028345  	1600.000000	2.90528e-06	
1620.000000	0.0264603 	1620.000000	0.0283293 	1620.000000	0.02829   	1620.000000	0.0281682 	1620.000000	0.0283264 	1620.000000	2.87181e-06	
1640.000000	0.0264492 	1640.000000	0.0283124 	1640.000000	0.0282657 	1640.000000	0.0281439 	1640.000000	0.0283095 	1640.000000	2.83912e-06	
1660.000000	0.0264399 	1660.000000	0.028297  	1660.000000	0.0282427 	1660.000000	0.0281208 	1660.000000	0.0282942 	1660.000000	2.8072e-06	
1680.000000	0.0264323 	1680.000000	0.0282832 	1680.000000	0.0282209 	1680.000000	0.028099  	1680.000000	0.0282805 	1680.000000	2.77601e-06	
1700.000000	0.0264264 	1700.000000	0.0282709 	1700.000000	0.0282004 	1700.000000	0.0280783 	1700.000000	0.0282682 	1700.000000	2.74552e-06	
1750.000000	0.0264186 	1750.000000	0.0282463 	1750.000000	0.0281537 	1750.000000	0.0280315 	1750.000000	0.0282436 	1750.000000	2.67225e-06	
1800.000000	0.0264202 	1800.000000	0.0282299 	1800.000000	0.0281131 	1800.000000	0.0279909 	1800.000000	0.0282273 	1800.000000	2.60291e-06	
1850.000000	0.0264305 	1850.000000	0.028221  	1850.000000	0.0280779 	1850.000000	0.0279561 	1850.000000	0.0282185 	1850.000000	2.53719e-06	
1900.000000	0.0264488 	1900.000000	0.0282191 	1900.000000	0.0280478 	1900.000000	0.0279265 	1900.000000	0.0282166 	1900.000000	2.47481e-06	
1950.000000	0.0264747 	1950.000000	0.0282236 	1950.000000	0.0280223 	1950.000000	0.0279016 	1950.000000	0.0282212 	1950.000000	2.41551e-06	
2000.000000	0.0265075 	2000.000000	0.0282341 	2000.000000	0.0280011 	2000.000000	0.027881  	2000.000000	0.0282318 	2000.000000	2.35908e-06	
2100.000000	0.0265924 	2100.000000	0.0282713 	2100.000000	0.0279704 	2100.000000	0.0278512 	2100.000000	0.028269  	2100.000000	2.254e-06 	
2200.000000	0.0267003 	2200.000000	0.0283275 	2200.000000	0.0279533 	2200.000000	0.0278344 	2200.000000	0.0283254 	2200.000000	2.15815e-06	
2300.000000	0.0268286 	2300.000000	0.0284004 	2300.000000	0.0279472 	2300.000000	0.0278286 	2300.000000	0.0283983 	2300.000000	2.07036e-06	
2400.000000	0.026975  	2400.000000	0.0284878 	2400.000000	0.0279505 	2400.000000	0.027832  	2400.000000	0.0284858 	2400.000000	1.98964e-06	
2500.000000	0.0271377 	2500.000000	0.028588  	2500.000000	0.0279615 	2500.000000	0.0278432 	2500.000000	0.0285861 	2500.000000	1.91515e-06	
2600.000000	0.027315  	2600.000000	0.0286995 	2600.000000	0.027979  	2600.000000	0.0278609 	2600.000000	0.0286976 	2600.000000	1.8462e-06	
2700.000000	0.0275056 	2700.000000	0.028821  	2700.000000	0.0280021 	2700.000000	0.0278842 	2700.000000	0.0288192 	2700.000000	1.78219e-06	
2800.000000	0.0277083 	2800.000000	0.0289514 	2800.000000	0.0280298 	2800.000000	0.0279122 	2800.000000	0.0289497 	2800.000000	1.7226e-06	
2900.000000	0.0279221 	2900.000000	0.0290899 	2900.000000	0.0280615 	2900.000000	0.0279442 	2900.000000	0.0290882 	2900.000000	1.66698e-06	
3000.000000	0.0281461 	3000.000000	0.0292355 	3000.000000	0.0280966 	3000.000000	0.0279796 	3000.000000	0.0292339 	3000.000000	1.61495e-06	
3200.000000	0.0286215 	3200.000000	0.0295456 	3200.000000	0.0281749 	3200.000000	0.0280586 	3200.000000	0.0295441 	3200.000000	1.52031e-06	
3400.000000	0.0291293 	3400.000000	0.0298769 	3400.000000	0.0282616 	3400.000000	0.0281459 	3400.000000	0.0298755 	3400.000000	1.43645e-06	
3600.000000	0.0296655 	3600.000000	0.0302259 	3600.000000	0.0283544 	3600.000000	0.0282392 	3600.000000	0.0302246 	3600.000000	1.36161e-06	
3800.000000	0.0302267 	3800.000000	0.0305897 	3800.000000	0.0284514 	3800.000000	0.0283365 	3800.000000	0.0305884 	3800.000000	1.29439e-06	
4000.000000	0.0308104 	4000.000000	0.0309658 	4000.000000	0.0285513 	4000.000000	0.0284366 	4000.000000	0.0309646 	4000.000000	1.23368e-06	
4200.000000	0.0314144 	4200.000000	0.0313525 	4200.000000	0.0286529 	4200.000000	0.0285383 	4200.000000	0.0313514 	4200.000000	1.17856e-06	
4400.000000	0.032037  	4400.000000	0.0317483 	4400.000000	0.0287555 	4400.000000	0.028641  	4400.000000	0.0317472 	4400.000000	1.12829e-06	
4600.000000	0.0326765 	4600.000000	0.0321518 	4600.000000	0.0288583 	4600.000000	0.0287439 	4600.000000	0.0321507 	4600.000000	1.08226e-06	
4800.000000	0.0333319 	4800.000000	0.032562  	4800.000000	0.028961  	4800.000000	0.0288467 	4800.000000	0.032561  	4800.000000	1.03993e-06	
5000.000000	0.0340021 	5000.000000	0.0329781 	5000.000000	0.0290632 	5000.000000	0.0289489 	5000.000000	0.0329771 	5000.000000	1.00089e-06	
5250.000000	0.0348593 	5250.000000	0.0335052 	5250.000000	0.0291897 	5250.000000	0.0290756 	5250.000000	0.0335042 	5250.000000	9.56129e-07	
5500.000000	0.0357367 	5500.000000	0.0340391 	5500.000000	0.0293146 	5500.000000	0.0292006 	5500.000000	0.0340382 	5500.000000	9.15311e-07	
6000.000000	0.0375476 	6000.000000	0.0351233 	6000.000000	0.0295585 	6000.000000	0.0294449 	6000.000000	0.0351224 	6000.000000	8.43566e-07	
6500.000000	0.0394274 	6500.000000	0.0362245 	6500.000000	0.0297938 	6500.000000	0.0296804 	6500.000000	0.0362237 	6500.000000	7.82524e-07	
7000.000000	0.0413704 	7000.000000	0.0373384 	7000.000000	0.0300199 	7000.000000	0.0299067 	7000.000000	0.0373376 	7000.000000	7.29937e-07	
7500.000000	0.0433728 	7500.000000	0.0384618 	7500.000000	0.0302369 	7500.000000	0.0301239 	7500.000000	0.0384611 	7500.000000	6.84148e-07	
8000.000000	0.0454314 	8000.000000	0.0395925 	8000.000000	0.0304451 	8000.000000	0.0303322 	8000.000000	0.0395919 	8000.000000	6.43909e-07	
8500.000000	0.047544  	8500.000000	0.0407287 	8500.000000	0.0306445 	8500.000000	0.0305319 	8500.000000	0.0407281 	8500.000000	6.08261e-07	
9000.000000	0.0497086 	9000.000000	0.041869  	9000.000000	0.0308355 	9000.000000	0.0307235 	9000.000000	0.0418685 	9000.000000	5.76453e-07	
9500.000000	0.0519239 	9500.000000	0.0430125 	9500.000000	0.0310187 	9500.000000	0.0309074 	9500.000000	0.043012  	9500.000000	5.47891e-07	
10000.000000	0.0541888 	10000.000000	0.0441583 	10000.000000	0.0311948 	10000.000000	0.0310842 	10000.000000	0.0441578 	10000.000000	5.22099e-07	
11000.000000	0.0588635 	11000.000000	0.0464545 	11000.000000	0.0315277 	11000.000000	0.0314178 	11000.000000	0.046454  	11000.000000	4.77343e-07	
12000.000000	0.0637274 	12000.000000	0.0487539 	12000.000000	0.0318371 	12000.000000	0.0317275 	12000.000000	0.0487534 	12000.000000	4.39829e-07	
13000.000000	0.0687767 	13000.000000	0.0510541 	13000.000000	0.0321253 	13000.000000	0.0320162 	13000.000000	0.0510537 	13000.000000	4.0792e-07	
14000.000000	0.074009  	14000.000000	0.0533535 	14000.000000	0.0323945 	14000.000000	0.0322863 	14000.000000	0.0533531 	14000.000000	3.80437e-07	
15000.000000	0.0794228 	15000.000000	0.055651  	15000.000000	0.0326469 	15000.000000	0.0325398 	15000.000000	0.0556507 	15000.000000	3.56511e-07	
16000.000000	0.0850169 	16000.000000	0.057946  	16000.000000	0.0328845 	16000.000000	0.0327786 	16000.000000	0.0579457 	16000.000000	3.35489e-07	
17000.000000	0.0907908 	17000.000000	0.060238  	17000.000000	0.0331089 	17000.000000	0.0330042 	17000.000000	0.0602377 	17000.000000	3.16869e-07	
18000.000000	0.0967441 	18000.000000	0.0625267 	18000.000000	0.0333215 	18000.000000	0.0332178 	18000.000000	0.0625264 	18000.000000	3.00257e-07	
19000.000000	0.102877  	19000.000000	0.0648118 	19000.000000	0.0335234 	19000.000000	0.0334206 	19000.000000	0.0648115 	19000.000000	2.85343e-07	
20000.000000	0.109189  	20000.000000	0.0670932 	20000.000000	0.0337156 	20000.000000	0.0336137 	20000.000000	0.0670929 	20000.000000	2.71877e-07	
21000.000000	0.115681  	21000.000000	0.0693709 	21000.000000	0.0338986 	21000.000000	0.0337978 	21000.000000	0.0693707 	21000.000000	2.59657e-07	
22000.000000	0.122353  	22000.000000	0.0716449 	22000.000000	0.0340726 	22000.000000	0.0339738 	22000.000000	0.0716447 	22000.000000	2.48515e-07	
23000.000000	0.129205  	23000.000000	0.0739151 	23000.000000	0.0342399 	23000.000000	0.0341423 	23000.000000	0.0739149 	23000.000000	2.38314e-07	
24000.000000	0.136239  	24000.000000	0.0761817 	24000.000000	0.0344008 	24000.000000	0.0343038 	24000.000000	0.0761814 	24000.000000	2.28938e-07	
25000.000000	0.143454  	25000.000000	0.0784445 	25000.000000	0.034555  	25000.000000	0.034459  	25000.000000	0.0784443 	25000.000000	2.20291e-07	
26000.000000	0.150852  	26000.000000	0.0807038 	26000.000000	0.0347027 	26000.000000	0.0346083 	26000.000000	0.0807035 	26000.000000	2.12289e-07	
27000.000000	0.158433  	27000.000000	0.0829594 	27000.000000	0.0348447 	27000.000000	0.0347521 	27000.000000	0.0829592 	27000.000000	2.04863e-07	
28000.000000	0.166197  	28000.000000	0.0852116 	28000.000000	0.0349814 	28000.000000	0.0348907 	28000.000000	0.0852114 	28000.000000	1.97952e-07	
29000.000000	0.174147  	29000.000000	0.0874604 	29000.000000	0.0351133 	29000.000000	0.0350246 	29000.000000	0.0874602 	29000.000000	1.91505e-07	
30000.000000	0.182281  	30000.000000	0.0897059 	30000.000000	0.035241  	30000.000000	0.0351541 	30000.000000	0.0897057 	30000.000000	1.85474e-07	
32000.000000	0.199111  	32000.000000	0.094187  	32000.000000	0.0354841 	32000.000000	0.0354007 	32000.000000	0.0941868 	32000.000000	1.74512e-07	
34000.000000	0.216693  	34000.000000	0.0986555 	34000.000000	0.0357126 	34000.000000	0.0356325 	34000.000000	0.0986554 	34000.000000	1.64804e-07	
36000.000000	0.235034  	36000.000000	0.103112  	36000.000000	0.0359273 	36000.000000	0.0358512 	36000.000000	0.103112  	36000.000000	1.56144e-07	
38000.000000	0.254143  	38000.000000	0.107557  	38000.000000	0.0361296 	38000.000000	0.0360582 	38000.000000	0.107557  	38000.000000	1.4837e-07	
40000.000000	0.274026  	40000.000000	0.111991  	40000.000000	0.0363209 	40000.000000	0.0362545 	40000.000000	0.111991  	40000.000000	1.41353e-07	
42000.000000	0.294693  	42000.000000	0.116415  	42000.000000	0.0365029 	42000.000000	0.0364413 	42000.000000	0.116415  	42000.000000	1.34984e-07	
44000.000000	0.316151  	44000.000000	0.120828  	44000.000000	0.0366766 	44000.000000	0.0366194 	44000.000000	0.120828  	44000.000000	1.29179e-07	
46000.000000	0.338409  	46000.000000	0.125232  	46000.000000	0.0368428 	46000.000000	0.0367896 	46000.000000	0.125232  	46000.000000	1.23865e-07	
48000.000000	0.361474  	48000.000000	0.129627  	48000.000000	0.037002  	48000.000000	0.0369525 	48000.000000	0.129627  	48000.000000	1.18981e-07	
50000.000000	0.385355  	50000.000000	0.134012  	50000.000000	0.0371542 	50000.000000	0.0371087 	50000.000000	0.134012  	50000.000000	1.14476e-07	
