Energy (MeV/u)1	0 - [He-base] F.Hubert et al, AD&ND Tables 46(1990)1	Energy (MeV/u)2	1 - [H -base] J.F.Ziegler et al, Pergamon Press, NY (low energy)	Energy (MeV/u)3	2 - ATIMA 1.2  LS-theory (recommended for high energy)	Energy (MeV/u)4	3 - ATIMA 1.2  without LS-correction	Energy (MeV/u)5	4 - electrical component of [1] - J.F.Ziegler et al	Energy (MeV/u)6	5 - nuclear component of [1] - J.F.Ziegler et al	
0.001000	10.0292   	0.001000	2.93676   	0.001000	2.72706   	0.001000	2.72706   	0.001000	0.666965  	0.001000	2.26979   	
0.002000	10.2545   	0.002000	3.24523   	0.002000	2.96806   	0.002000	2.96806   	0.002000	0.92382   	0.002000	2.32141   	
0.005000	10.3048   	0.005000	3.52274   	0.005000	3.12406   	0.005000	3.12406   	0.005000	1.42108   	0.005000	2.10166   	
0.008000	10.4734   	0.008000	3.64514   	0.008000	3.166     	0.008000	3.166     	0.008000	1.77237   	0.008000	1.87277   	
0.010000	10.6366   	0.010000	3.71398   	0.010000	3.1915    	0.010000	3.1915    	0.010000	1.96835   	0.010000	1.74563   	
0.015000	11.116    	0.015000	3.88042   	0.015000	3.26963   	0.015000	3.26963   	0.015000	2.38158   	0.015000	1.49883   	
0.020000	11.6232   	0.020000	4.04729   	0.020000	3.36564   	0.020000	3.36564   	0.020000	2.72639   	0.020000	1.32091   	
0.025000	12.1237   	0.025000	4.21395   	0.025000	3.47218   	0.025000	3.47218   	0.025000	3.02785   	0.025000	1.1861    	
0.030000	12.6067   	0.030000	4.37868   	0.030000	3.58419   	0.030000	3.58419   	0.030000	3.29876   	0.030000	1.07992   	
0.035000	13.0697   	0.035000	4.54041   	0.035000	3.6987    	0.035000	3.6987    	0.035000	3.54662   	0.035000	0.993788  	
0.040000	13.613    	0.040000	4.69861   	0.040000	3.81394   	0.040000	3.81394   	0.040000	3.77634   	0.040000	0.922266  	
0.045000	14.1903   	0.045000	4.85305   	0.045000	3.92885   	0.045000	3.92885   	0.045000	3.99129   	0.045000	0.861767  	
0.050000	14.6532   	0.050000	5.03828   	0.050000	4.11227   	0.050000	4.11227   	0.050000	4.22847   	0.050000	0.809809  	
0.055000	15.4356   	0.055000	5.26545   	0.055000	4.40357   	0.055000	4.40357   	0.055000	4.50083   	0.055000	0.76462   	
0.060000	16.1435   	0.060000	5.48572   	0.060000	4.69578   	0.060000	4.69578   	0.060000	4.76083   	0.060000	0.724896  	
0.070000	17.39     	0.070000	5.90494   	0.070000	5.27557   	0.070000	5.27557   	0.070000	5.24679   	0.070000	0.658146  	
0.080000	18.7546   	0.080000	6.29611   	0.080000	5.83895   	0.080000	5.83895   	0.080000	5.69203   	0.080000	0.604076  	
0.090000	19.9546   	0.090000	6.66058   	0.090000	6.37791   	0.090000	6.37791   	0.090000	6.10134   	0.090000	0.559247  	
0.100000	21.0229   	0.100000	7.00013   	0.100000	6.88832   	0.100000	6.88832   	0.100000	6.47875   	0.100000	0.521384  	
0.120000	22.3627   	0.120000	7.61223   	0.120000	7.81878   	0.120000	7.81878   	0.120000	7.15151   	0.120000	0.460721  	
0.140000	23.766    	0.140000	8.14818   	0.140000	8.63352   	0.140000	8.63352   	0.140000	7.73412   	0.140000	0.414054  	
0.160000	25.4405   	0.160000	8.85916   	0.160000	9.34445   	0.160000	9.34445   	0.160000	8.48403   	0.160000	0.375135  	
0.180000	27.0189   	0.180000	9.51      	0.180000	9.96989   	0.180000	9.96989   	0.180000	9.16667   	0.180000	0.343327  	
0.200000	28.5496   	0.200000	10.0906   	0.200000	10.5266   	0.200000	10.5266   	0.200000	9.77233   	0.200000	0.318235  	
0.250000	31.2623   	0.250000	11.3063   	0.250000	11.6912   	0.250000	11.6912   	0.250000	11.036    	0.250000	0.270245  	
0.300000	33.7125   	0.300000	12.292    	0.300000	12.6373   	0.300000	12.6373   	0.300000	12.0562   	0.300000	0.235864  	
0.350000	35.9836   	0.350000	13.1544   	0.350000	13.4444   	0.350000	13.4444   	0.350000	12.9445   	0.350000	0.209895  	
0.400000	37.9929   	0.400000	13.9152   	0.400000	14.1546   	0.400000	14.1546   	0.400000	13.7257   	0.400000	0.189514  	
0.450000	39.7546   	0.450000	14.5918   	0.450000	14.7912   	0.450000	14.7912   	0.450000	14.4187   	0.450000	0.173048  	
0.500000	41.2935   	0.500000	15.2006   	0.500000	15.368    	0.500000	15.368    	0.500000	15.0411   	0.500000	0.159439  	
0.600000	42.4171   	0.600000	16.2586   	0.600000	16.672    	0.600000	16.672    	0.600000	16.1204   	0.600000	0.138196  	
0.700000	43.2715   	0.700000	17.3835   	0.700000	17.8045   	0.700000	17.8045   	0.700000	17.2611   	0.700000	0.122316  	
0.800000	45.1534   	0.800000	18.3126   	0.800000	18.7355   	0.800000	18.7355   	0.800000	18.2026   	0.800000	0.109955  	
0.900000	46.6011   	0.900000	19.0868   	0.900000	19.5073   	0.900000	19.5073   	0.900000	18.9868   	0.900000	0.100033  	
1.000000	47.7121   	1.000000	19.7362   	1.000000	20.1512   	1.000000	20.1512   	1.000000	19.6444   	1.000000	0.0918779 	
1.250000	49.1543   	1.250000	20.8749   	1.250000	21.3432   	1.250000	21.3432   	1.250000	20.7983   	1.250000	0.0766336 	
1.500000	49.6609   	1.500000	21.6087   	1.500000	22.1177   	1.500000	22.1177   	1.500000	21.5427   	1.500000	0.0659934 	
1.750000	49.6504   	1.750000	22.0936   	1.750000	22.617    	1.750000	22.617    	1.750000	22.0355   	1.750000	0.0581109 	
2.000000	49.1534   	2.000000	22.3284   	2.000000	22.9277   	2.000000	22.9277   	2.000000	22.2764   	2.000000	0.0520181 	
2.250000	48.5629   	2.250000	22.4448   	2.250000	23.1055   	2.250000	23.1055   	2.250000	22.3976   	2.250000	0.0471566 	
2.500000	64.5389   	2.500000	22.4954   	2.500000	23.1874   	2.500000	23.1874   	2.500000	22.4522   	2.500000	0.0431802 	
3.000000	61.7401   	3.000000	22.4585   	3.000000	23.1584   	3.000000	23.1584   	3.000000	22.4214   	3.000000	0.0370495 	
3.500000	58.9564   	3.500000	22.2601   	3.500000	22.8446   	3.500000	22.8446   	3.500000	22.2276   	3.500000	0.0325293 	
4.000000	56.3128   	4.000000	22.0106   	4.000000	22.48     	4.000000	22.48     	4.000000	21.9815   	4.000000	0.0290487 	
4.500000	53.8501   	4.500000	21.7468   	4.500000	22.0981   	4.500000	22.0981   	4.500000	21.7205   	4.500000	0.0262801 	
5.000000	51.5744   	5.000000	21.4539   	5.000000	21.7097   	5.000000	21.7097   	5.000000	21.4299   	5.000000	0.0240217 	
5.500000	49.4775   	5.500000	21.1402   	5.500000	21.3215   	5.500000	21.3215   	5.500000	21.1181   	5.500000	0.0221419 	
6.000000	47.5458   	6.000000	20.818    	6.000000	20.9376   	6.000000	20.9376   	6.000000	20.7975   	6.000000	0.0205511 	
6.500000	45.7642   	6.500000	20.4948   	6.500000	20.5608   	6.500000	20.5608   	6.500000	20.4756   	6.500000	0.0191863 	
7.000000	44.1182   	7.000000	20.1732   	7.000000	20.1927   	7.000000	20.1927   	7.000000	20.1552   	7.000000	0.0180015 	
7.500000	42.594    	7.500000	19.8552   	7.500000	19.8344   	7.500000	19.8344   	7.500000	19.8383   	7.500000	0.0169628 	
8.000000	41.1795   	8.000000	19.543    	8.000000	19.4863   	8.000000	19.4863   	8.000000	19.5269   	8.000000	0.0160441 	
8.500000	39.8635   	8.500000	19.2373   	8.500000	19.1487   	8.500000	19.1487   	8.500000	19.2221   	8.500000	0.0152255 	
9.000000	38.6364   	9.000000	18.9387   	9.000000	18.8216   	9.000000	18.8216   	9.000000	18.9242   	9.000000	0.014491  	
9.500000	37.4896   	9.500000	18.6473   	9.500000	18.5048   	9.500000	18.5048   	9.500000	18.6335   	9.500000	0.0138281 	
10.000000	36.4155   	10.000000	18.4847   	10.000000	18.1982   	10.000000	18.1982   	10.000000	18.4715   	10.000000	0.0132267 	
11.000000	34.4592   	11.000000	18.049    	11.000000	17.646    	11.000000	17.9164   	11.000000	18.0368   	11.000000	0.0121763 	
12.000000	32.7228   	12.000000	17.5965   	12.000000	17.117    	12.000000	17.6074   	12.000000	17.5852   	12.000000	0.0112888 	
13.000000	31.1706   	13.000000	17.1419   	13.000000	16.6146   	13.000000	17.285    	13.000000	17.1314   	13.000000	0.0105284 	
14.000000	29.7744   	14.000000	16.6939   	14.000000	16.1384   	14.000000	16.9565   	14.000000	16.684    	14.000000	0.00986922	
15.000000	28.5113   	15.000000	16.2574   	15.000000	15.6875   	15.000000	16.6268   	15.000000	16.2481   	15.000000	0.00929195	
16.000000	27.3629   	16.000000	15.8356   	16.000000	15.2605   	16.000000	16.2996   	16.000000	15.8268   	16.000000	0.00878196	
17.000000	26.3139   	17.000000	15.4297   	17.000000	14.8558   	17.000000	15.9772   	17.000000	15.4214   	17.000000	0.00832793	
18.000000	25.3515   	18.000000	15.0406   	18.000000	14.4722   	18.000000	15.6613   	18.000000	15.0326   	18.000000	0.00792097	
19.000000	24.4653   	19.000000	14.6681   	19.000000	14.1089   	19.000000	15.353    	19.000000	14.6605   	19.000000	0.00755399	
20.000000	23.6464   	20.000000	14.312    	20.000000	13.765    	20.000000	15.0528   	20.000000	14.3048   	20.000000	0.00722127	
21.000000	22.8872   	21.000000	13.9718   	21.000000	13.4279   	21.000000	14.7506   	21.000000	13.9649   	21.000000	0.00691816	
22.000000	22.1812   	22.000000	13.6468   	22.000000	13.1058   	22.000000	14.4568   	22.000000	13.6402   	22.000000	0.00664079	
23.000000	21.5228   	23.000000	13.3365   	23.000000	12.8103   	23.000000	14.1836   	23.000000	13.3301   	23.000000	0.00638596	
24.000000	20.9074   	24.000000	13.0399   	24.000000	12.5304   	24.000000	13.9195   	24.000000	13.0338   	24.000000	0.00615098	
25.000000	20.3307   	25.000000	12.7565   	25.000000	12.265    	25.000000	13.6644   	25.000000	12.7506   	25.000000	0.00593358	
27.000000	19.2795   	27.000000	12.2262   	27.000000	11.7707   	27.000000	13.1799   	27.000000	12.2207   	27.000000	0.00554406	
29.000000	18.3449   	29.000000	11.7402   	29.000000	11.3205   	29.000000	12.728    	29.000000	11.735    	29.000000	0.00520493	
31.000000	17.5082   	31.000000	11.2936   	31.000000	10.909    	31.000000	12.2385   	31.000000	11.2887   	31.000000	0.00490687	
33.000000	16.7545   	33.000000	10.8822   	33.000000	10.5302   	33.000000	11.7282   	33.000000	10.8776   	33.000000	0.00464271	
35.000000	16.0716   	35.000000	10.5022   	35.000000	10.181    	35.000000	11.2644   	35.000000	10.4977   	35.000000	0.0044069 	
38.000000	15.1594   	38.000000	9.98377   	38.000000	9.70449   	38.000000	10.6425   	38.000000	9.97968   	38.000000	0.00409695	
41.000000	14.359    	41.000000	9.51917   	41.000000	9.27852   	41.000000	10.0946   	41.000000	9.51534   	41.000000	0.00382968	
44.000000	13.6506   	44.000000	9.10058   	44.000000	8.89382   	44.000000	9.60784   	44.000000	9.09698   	44.000000	0.00359672	
47.000000	13.0189   	47.000000	8.72162   	47.000000	8.54537   	47.000000	9.1724    	47.000000	8.71823   	47.000000	0.00339176	
50.000000	12.4518   	50.000000	8.377     	50.000000	8.22719   	50.000000	8.78038   	50.000000	8.3738    	50.000000	0.00320996	
55.000000	11.6248   	55.000000	7.86731   	55.000000	7.75651   	55.000000	8.20698   	55.000000	7.86436   	55.000000	0.00294854	
60.000000	10.9172   	60.000000	7.42477   	60.000000	7.345     	60.000000	7.71481   	60.000000	7.42205   	60.000000	0.00272827	
65.000000	10.3043   	65.000000	7.03704   	65.000000	6.9822    	65.000000	7.28756   	65.000000	7.0345    	65.000000	0.00254   	
70.000000	9.76785   	70.000000	6.69458   	70.000000	6.66151   	70.000000	6.91307   	70.000000	6.6922    	70.000000	0.00237714	
75.000000	9.29416   	75.000000	6.38994   	75.000000	6.3748    	75.000000	6.58205   	75.000000	6.38771   	75.000000	0.0022348 	
80.000000	8.87257   	80.000000	6.11723   	80.000000	6.11696   	80.000000	6.2873    	80.000000	6.11512   	80.000000	0.00210928	
85.000000	8.49475   	85.000000	5.87169   	85.000000	5.88371   	85.000000	6.02313   	85.000000	5.8697    	85.000000	0.00199771	
90.000000	8.15406   	90.000000	5.64948   	90.000000	5.67168   	90.000000	5.785     	90.000000	5.64758   	90.000000	0.00189787	
95.000000	7.84517   	95.000000	5.44743   	95.000000	5.47888   	95.000000	5.56922   	95.000000	5.44562   	95.000000	0.00180796	
100.000000	7.56373   	100.000000	5.26292   	100.000000	5.30113   	100.000000	5.37278   	100.000000	5.2612    	100.000000	0.00172656	
105.000000	7.30614   	105.000000	5.09379   	105.000000	5.13903   	105.000000	5.19317   	105.000000	5.09214   	105.000000	0.0016525 	
110.000000	7.06943   	110.000000	4.93819   	110.000000	4.98862   	110.000000	5.02833   	110.000000	4.9366    	110.000000	0.0015848 	
115.000000	6.85109   	115.000000	4.79456   	115.000000	4.8495    	115.000000	4.87649   	115.000000	4.79304   	115.000000	0.00152268	
120.000000	6.64903   	120.000000	4.66159   	120.000000	4.72044   	120.000000	4.73619   	120.000000	4.66012   	120.000000	0.00146545	
125.000000	6.46143   	125.000000	4.53813   	125.000000	4.6002    	125.000000	4.60614   	125.000000	4.53672   	125.000000	0.00141256	
130.000000	6.28676   	130.000000	4.4232    	130.000000	4.4883    	130.000000	4.48527   	130.000000	4.42184   	130.000000	0.00136353	
135.000000	6.1237    	135.000000	4.31595   	135.000000	4.3834    	135.000000	4.37263   	135.000000	4.31464   	135.000000	0.00131793	
140.000000	5.9711    	140.000000	4.21565   	140.000000	4.28511   	140.000000	4.26743   	140.000000	4.21437   	140.000000	0.00127542	
145.000000	5.82796   	145.000000	4.12163   	145.000000	4.19312   	145.000000	4.16894   	145.000000	4.12039   	145.000000	0.00123568	
150.000000	5.6934    	150.000000	4.03333   	150.000000	4.10671   	150.000000	4.07654   	150.000000	4.03213   	150.000000	0.00119846	
155.000000	5.50165   	155.000000	3.95025   	155.000000	4.02466   	155.000000	3.9897    	155.000000	3.94909   	155.000000	0.00116351	
160.000000	5.39039   	160.000000	3.87194   	160.000000	3.94714   	160.000000	3.90792   	160.000000	3.87081   	160.000000	0.00113063	
165.000000	5.2853    	165.000000	3.798     	165.000000	3.87436   	165.000000	3.83077   	165.000000	3.7969    	165.000000	0.00109964	
170.000000	5.18586   	170.000000	3.72808   	170.000000	3.80531   	170.000000	3.75789   	170.000000	3.72701   	170.000000	0.00107038	
175.000000	5.09164   	175.000000	3.66186   	175.000000	3.73966   	175.000000	3.68892   	175.000000	3.66082   	175.000000	0.0010427 	
180.000000	5.00223   	180.000000	3.59906   	180.000000	3.67748   	180.000000	3.62356   	180.000000	3.59805   	180.000000	0.00101648	
185.000000	4.91726   	185.000000	3.53942   	185.000000	3.61832   	185.000000	3.56154   	185.000000	3.53843   	185.000000	0.000991606	
190.000000	4.8364    	190.000000	3.48272   	190.000000	3.56184   	190.000000	3.5026    	190.000000	3.48175   	190.000000	0.000967974	
195.000000	4.75937   	195.000000	3.42873   	195.000000	3.50801   	195.000000	3.44654   	195.000000	3.42778   	195.000000	0.00094549	
200.000000	4.68589   	200.000000	3.37727   	200.000000	3.45674   	200.000000	3.39314   	200.000000	3.37635   	200.000000	0.000924073	
210.000000	4.54865   	210.000000	3.28128   	210.000000	3.36118   	210.000000	3.29362   	210.000000	3.2804    	210.000000	0.000884145	
220.000000	4.42298   	220.000000	3.19354   	220.000000	3.27329   	220.000000	3.20277   	220.000000	3.19269   	220.000000	0.000847666	
230.000000	4.30747   	230.000000	3.11303   	230.000000	3.19309   	230.000000	3.11951   	230.000000	3.11221   	230.000000	0.000814201	
240.000000	4.20093   	240.000000	3.03891   	240.000000	3.11863   	240.000000	3.04296   	240.000000	3.03813   	240.000000	0.000783387	
250.000000	4.10235   	250.000000	2.97046   	250.000000	3.04988   	250.000000	2.97233   	250.000000	2.9697    	250.000000	0.000754915	
260.000000	4.01087   	260.000000	2.90705   	260.000000	2.98633   	260.000000	2.90699   	260.000000	2.90632   	260.000000	0.000728526	
270.000000	3.92575   	270.000000	2.84816   	270.000000	2.92698   	270.000000	2.84638   	270.000000	2.84746   	270.000000	0.000703995	
280.000000	3.84635   	280.000000	2.79334   	280.000000	2.87176   	280.000000	2.79001   	280.000000	2.79265   	280.000000	0.000681131	
290.000000	3.77212   	290.000000	2.74217   	290.000000	2.82035   	290.000000	2.73747   	290.000000	2.74151   	290.000000	0.000659766	
300.000000	3.70256   	300.000000	2.69431   	300.000000	2.77226   	300.000000	2.68838   	300.000000	2.69367   	300.000000	0.000639756	
310.000000	3.63725   	310.000000	2.64946   	310.000000	2.7272    	310.000000	2.64244   	310.000000	2.64884   	310.000000	0.000620974	
320.000000	3.57582   	320.000000	2.60736   	320.000000	2.68494   	320.000000	2.59935   	320.000000	2.60675   	320.000000	0.000603309	
330.000000	3.51794   	330.000000	2.56775   	330.000000	2.64503   	330.000000	2.55887   	330.000000	2.56716   	330.000000	0.000586663	
340.000000	3.46331   	340.000000	2.53043   	340.000000	2.60735   	340.000000	2.52078   	340.000000	2.52986   	340.000000	0.000570948	
350.000000	3.41167   	350.000000	2.49522   	350.000000	2.57184   	350.000000	2.48488   	350.000000	2.49466   	350.000000	0.000556088	
360.000000	3.36278   	360.000000	2.46194   	360.000000	2.53831   	360.000000	2.45099   	360.000000	2.4614    	360.000000	0.000542014	
370.000000	3.31644   	370.000000	2.43044   	370.000000	2.50661   	370.000000	2.41896   	370.000000	2.42992   	370.000000	0.000528664	
380.000000	3.27246   	380.000000	2.4006    	380.000000	2.47662   	380.000000	2.38865   	380.000000	2.40008   	380.000000	0.000515982	
390.000000	3.23066   	390.000000	2.37228   	390.000000	2.44815   	390.000000	2.35993   	390.000000	2.37178   	390.000000	0.00050392	
400.000000	3.19089   	400.000000	2.34539   	400.000000	2.42098   	400.000000	2.33268   	400.000000	2.34489   	400.000000	0.000492433	
410.000000	3.15301   	410.000000	2.31981   	410.000000	2.39515   	410.000000	2.3068    	410.000000	2.31933   	410.000000	0.000481479	
420.000000	3.1169    	420.000000	2.29546   	420.000000	2.37073   	420.000000	2.28219   	420.000000	2.29498   	420.000000	0.000471021	
430.000000	3.08244   	430.000000	2.27225   	430.000000	2.34751   	430.000000	2.25878   	430.000000	2.27179   	430.000000	0.000461027	
440.000000	3.04951   	440.000000	2.25011   	440.000000	2.32528   	440.000000	2.23647   	440.000000	2.24966   	440.000000	0.000451466	
450.000000	3.01804   	450.000000	2.22898   	450.000000	2.30401   	450.000000	2.21521   	450.000000	2.22854   	450.000000	0.000442309	
460.000000	2.98791   	460.000000	2.20878   	460.000000	2.2837    	460.000000	2.19491   	460.000000	2.20835   	460.000000	0.000433532	
470.000000	2.95907   	470.000000	2.18947   	470.000000	2.26432   	470.000000	2.17553   	470.000000	2.18904   	470.000000	0.00042511	
480.000000	2.93142   	480.000000	2.17098   	480.000000	2.24585   	480.000000	2.15705   	480.000000	2.17057   	480.000000	0.000417023	
490.000000	2.90491   	490.000000	2.15328   	490.000000	2.22821   	490.000000	2.13942   	490.000000	2.15287   	490.000000	0.000409251	
500.000000	2.87946   	500.000000	2.1363    	500.000000	2.21131   	500.000000	2.12254   	500.000000	2.1359    	500.000000	0.000401774	
520.000000	2.83153   	520.000000	2.10439   	520.000000	2.17957   	520.000000	2.09085   	520.000000	2.10401   	520.000000	0.000387645	
540.000000	2.78721   	540.000000	2.07496   	540.000000	2.15039   	540.000000	2.06169   	540.000000	2.07458   	540.000000	0.000374513	
560.000000	2.74614   	560.000000	2.04774   	560.000000	2.12338   	560.000000	2.03478   	560.000000	2.04738   	560.000000	0.000362277	
580.000000	2.708     	580.000000	2.02252   	580.000000	2.09824   	580.000000	2.00991   	580.000000	2.02217   	580.000000	0.000350846	
600.000000	2.67251   	600.000000	1.9991    	600.000000	2.07506   	600.000000	1.98686   	600.000000	1.99876   	600.000000	0.000340142	
620.000000	2.63944   	620.000000	1.97731   	620.000000	2.05361   	620.000000	1.96547   	620.000000	1.97698   	620.000000	0.000330097	
640.000000	2.60856   	640.000000	1.95701   	640.000000	2.03353   	640.000000	1.94558   	640.000000	1.95669   	640.000000	0.000320652	
660.000000	2.57969   	660.000000	1.93806   	660.000000	2.01475   	660.000000	1.92706   	660.000000	1.93775   	660.000000	0.000311753	
680.000000	2.55267   	680.000000	1.92035   	680.000000	1.99724   	680.000000	1.90978   	680.000000	1.92004   	680.000000	0.000303354	
700.000000	2.52734   	700.000000	1.90377   	700.000000	1.98096   	700.000000	1.89365   	700.000000	1.90348   	700.000000	0.000295413	
720.000000	2.50357   	720.000000	1.88824   	720.000000	1.9658    	720.000000	1.87856   	720.000000	1.88795   	720.000000	0.000287894	
740.000000	2.48124   	740.000000	1.87367   	740.000000	1.95159   	740.000000	1.86443   	740.000000	1.87338   	740.000000	0.000280762	
760.000000	2.46025   	760.000000	1.85998   	760.000000	1.93818   	760.000000	1.85119   	760.000000	1.85971   	760.000000	0.000273989	
780.000000	2.44049   	780.000000	1.84711   	780.000000	1.92556   	780.000000	1.83877   	780.000000	1.84685   	780.000000	0.000267548	
800.000000	2.42189   	800.000000	1.83501   	800.000000	1.9137    	800.000000	1.8271    	800.000000	1.83475   	800.000000	0.000261414	
820.000000	2.40435   	820.000000	1.82361   	820.000000	1.90256   	820.000000	1.81612   	820.000000	1.82336   	820.000000	0.000255567	
840.000000	2.38782   	840.000000	1.81287   	840.000000	1.8921    	840.000000	1.8058    	840.000000	1.81262   	840.000000	0.000249985	
860.000000	2.37221   	860.000000	1.80274   	860.000000	1.88224   	860.000000	1.79608   	860.000000	1.8025    	860.000000	0.000244651	
880.000000	2.35749   	880.000000	1.79319   	880.000000	1.87293   	880.000000	1.78692   	880.000000	1.79295   	880.000000	0.000239549	
900.000000	2.34358   	900.000000	1.78417   	900.000000	1.86411   	900.000000	1.77829   	900.000000	1.78393   	900.000000	0.000234664	
920.000000	2.33044   	920.000000	1.77565   	920.000000	1.85575   	920.000000	1.77014   	920.000000	1.77542   	920.000000	0.000229981	
940.000000	2.31802   	940.000000	1.76759   	940.000000	1.84785   	940.000000	1.76245   	940.000000	1.76737   	940.000000	0.00022549	
960.000000	2.30629   	960.000000	1.75998   	960.000000	1.8404    	960.000000	1.75518   	960.000000	1.75976   	960.000000	0.000221177	
980.000000	2.29519   	980.000000	1.75279   	980.000000	1.83338   	980.000000	1.74831   	980.000000	1.75257   	980.000000	0.000217032	
1000.000000	2.2847    	1000.000000	1.74598   	1000.000000	1.82677   	1000.000000	1.74182   	1000.000000	1.74577   	1000.000000	0.000213046	
1020.000000	2.27478   	1020.000000	1.73955   	1020.000000	1.82053   	1020.000000	1.73568   	1020.000000	1.73934   	1020.000000	0.000209209	
1040.000000	2.2654    	1040.000000	1.73346   	1040.000000	1.81463   	1040.000000	1.72987   	1040.000000	1.73325   	1040.000000	0.000205513	
1060.000000	2.25654   	1060.000000	1.7277    	1060.000000	1.80903   	1060.000000	1.72437   	1060.000000	1.72749   	1060.000000	0.000201951	
1080.000000	2.24816   	1080.000000	1.72224   	1080.000000	1.80372   	1080.000000	1.71916   	1080.000000	1.72205   	1080.000000	0.000198514	
1100.000000	2.24024   	1100.000000	1.71709   	1100.000000	1.79868   	1100.000000	1.71423   	1100.000000	1.71689   	1100.000000	0.000195198	
1120.000000	2.23276   	1120.000000	1.71221   	1120.000000	1.79387   	1120.000000	1.70956   	1120.000000	1.71201   	1120.000000	0.000191994	
1140.000000	2.2257    	1140.000000	1.70759   	1140.000000	1.78931   	1140.000000	1.70514   	1140.000000	1.7074    	1140.000000	0.000188898	
1160.000000	2.21903   	1160.000000	1.70322   	1160.000000	1.78497   	1160.000000	1.70095   	1160.000000	1.70304   	1160.000000	0.000185904	
1180.000000	2.21274   	1180.000000	1.6991    	1180.000000	1.78086   	1180.000000	1.69697   	1180.000000	1.69891   	1180.000000	0.000183007	
1200.000000	2.20681   	1200.000000	1.6952    	1200.000000	1.77697   	1200.000000	1.69321   	1200.000000	1.69502   	1200.000000	0.000180203	
1220.000000	2.20122   	1220.000000	1.69151   	1220.000000	1.7733    	1220.000000	1.68964   	1220.000000	1.69133   	1220.000000	0.000177487	
1240.000000	2.19596   	1240.000000	1.68803   	1240.000000	1.76984   	1240.000000	1.68626   	1240.000000	1.68785   	1240.000000	0.000174854	
1260.000000	2.19101   	1260.000000	1.68474   	1260.000000	1.76656   	1260.000000	1.68306   	1260.000000	1.68457   	1260.000000	0.000172301	
1280.000000	2.18637   	1280.000000	1.68165   	1280.000000	1.76346   	1280.000000	1.68002   	1280.000000	1.68148   	1280.000000	0.000169825	
1300.000000	2.182     	1300.000000	1.67873   	1300.000000	1.76051   	1300.000000	1.67715   	1300.000000	1.67856   	1300.000000	0.000167421	
1320.000000	2.17792   	1320.000000	1.67598   	1320.000000	1.7577    	1320.000000	1.67442   	1320.000000	1.67581   	1320.000000	0.000165087	
1340.000000	2.1741    	1340.000000	1.67339   	1340.000000	1.75503   	1340.000000	1.67184   	1340.000000	1.67323   	1340.000000	0.00016282	
1360.000000	2.17053   	1360.000000	1.67096   	1360.000000	1.75249   	1360.000000	1.6694    	1360.000000	1.6708    	1360.000000	0.000160617	
1380.000000	2.1672    	1380.000000	1.66868   	1380.000000	1.75008   	1380.000000	1.66709   	1380.000000	1.66852   	1380.000000	0.000158475	
1400.000000	2.1641    	1400.000000	1.66654   	1400.000000	1.74779   	1400.000000	1.6649    	1400.000000	1.66638   	1400.000000	0.000156391	
1420.000000	2.16123   	1420.000000	1.66453   	1420.000000	1.74563   	1420.000000	1.66283   	1420.000000	1.66438   	1420.000000	0.000154364	
1440.000000	2.15858   	1440.000000	1.66266   	1440.000000	1.74357   	1440.000000	1.66088   	1440.000000	1.66251   	1440.000000	0.00015239	
1460.000000	2.15613   	1460.000000	1.66092   	1460.000000	1.74164   	1460.000000	1.65903   	1460.000000	1.66077   	1460.000000	0.000150468	
1480.000000	2.15388   	1480.000000	1.65929   	1480.000000	1.7398    	1480.000000	1.65728   	1480.000000	1.65914   	1480.000000	0.000148596	
1500.000000	2.15182   	1500.000000	1.65778   	1500.000000	1.73808   	1500.000000	1.65564   	1500.000000	1.65764   	1500.000000	0.000146772	
1520.000000	2.14994   	1520.000000	1.65639   	1520.000000	1.73644   	1520.000000	1.65408   	1520.000000	1.65624   	1520.000000	0.000144993	
1540.000000	2.14825   	1540.000000	1.6551    	1540.000000	1.7349    	1540.000000	1.65262   	1540.000000	1.65495   	1540.000000	0.000143259	
1560.000000	2.14672   	1560.000000	1.65391   	1560.000000	1.73345   	1560.000000	1.65124   	1560.000000	1.65377   	1560.000000	0.000141568	
1580.000000	2.14536   	1580.000000	1.65282   	1580.000000	1.73208   	1580.000000	1.64995   	1580.000000	1.65268   	1580.000000	0.000139917	
1600.000000	2.14417   	1600.000000	1.65183   	1600.000000	1.73079   	1600.000000	1.64873   	1600.000000	1.65169   	1600.000000	0.000138306	
1620.000000	2.14312   	1620.000000	1.65093   	1620.000000	1.72958   	1620.000000	1.64759   	1620.000000	1.6508    	1620.000000	0.000136733	
1640.000000	2.14223   	1640.000000	1.65012   	1640.000000	1.72844   	1640.000000	1.64652   	1640.000000	1.64999   	1640.000000	0.000135197	
1660.000000	2.14148   	1660.000000	1.6494    	1660.000000	1.72737   	1660.000000	1.64552   	1660.000000	1.64926   	1660.000000	0.000133696	
1680.000000	2.14087   	1680.000000	1.64876   	1680.000000	1.72636   	1680.000000	1.64458   	1680.000000	1.64862   	1680.000000	0.00013223	
1700.000000	2.1404    	1700.000000	1.64819   	1700.000000	1.72542   	1700.000000	1.64371   	1700.000000	1.64806   	1700.000000	0.000130796	
1750.000000	2.13978   	1750.000000	1.64712   	1750.000000	1.72334   	1750.000000	1.64179   	1750.000000	1.64699   	1750.000000	0.00012735	
1800.000000	2.13992   	1800.000000	1.64649   	1800.000000	1.72161   	1800.000000	1.64021   	1800.000000	1.64636   	1800.000000	0.000124087	
1850.000000	2.14076   	1850.000000	1.64626   	1850.000000	1.7202    	1850.000000	1.63894   	1850.000000	1.64614   	1850.000000	0.000120993	
1900.000000	2.14225   	1900.000000	1.64641   	1900.000000	1.71908   	1900.000000	1.63794   	1900.000000	1.64629   	1900.000000	0.000118055	
1950.000000	2.14435   	1950.000000	1.6469    	1950.000000	1.71823   	1950.000000	1.6372    	1950.000000	1.64679   	1950.000000	0.000115261	
2000.000000	2.14702   	2000.000000	1.64772   	2000.000000	1.7176    	2000.000000	1.63669   	2000.000000	1.64761   	2000.000000	0.000112602	
2100.000000	2.15391   	2100.000000	1.65022   	2100.000000	1.71697   	2100.000000	1.63627   	2100.000000	1.65011   	2100.000000	0.000107647	
2200.000000	2.16266   	2200.000000	1.65375   	2200.000000	1.71704   	2200.000000	1.63653   	2200.000000	1.65364   	2200.000000	0.000103125	
2300.000000	2.17306   	2300.000000	1.65817   	2300.000000	1.7177    	2300.000000	1.63736   	2300.000000	1.65807   	2300.000000	9.89806e-05	
2400.000000	2.18492   	2400.000000	1.66337   	2400.000000	1.71886   	2400.000000	1.63866   	2400.000000	1.66327   	2400.000000	9.51675e-05	
2500.000000	2.19811   	2500.000000	1.66926   	2500.000000	1.72045   	2500.000000	1.64038   	2500.000000	1.66916   	2500.000000	9.16472e-05	
2600.000000	2.21248   	2600.000000	1.67575   	2600.000000	1.72256   	2600.000000	1.64261   	2600.000000	1.67566   	2600.000000	8.83869e-05	
2700.000000	2.22792   	2700.000000	1.68279   	2700.000000	1.72495   	2700.000000	1.6451    	2700.000000	1.6827    	2700.000000	8.53585e-05	
2800.000000	2.24434   	2800.000000	1.6903    	2800.000000	1.72756   	2800.000000	1.64782   	2800.000000	1.69022   	2800.000000	8.25378e-05	
2900.000000	2.26166   	2900.000000	1.69825   	2900.000000	1.73037   	2900.000000	1.65072   	2900.000000	1.69817   	2900.000000	7.99039e-05	
3000.000000	2.27981   	3000.000000	1.70658   	3000.000000	1.73332   	3000.000000	1.65377   	3000.000000	1.70651   	3000.000000	7.74387e-05	
3200.000000	2.31832   	3200.000000	1.72426   	3200.000000	1.73959   	3200.000000	1.66024   	3200.000000	1.72419   	3200.000000	7.29526e-05	
3400.000000	2.35946   	3400.000000	1.74308   	3400.000000	1.74622   	3400.000000	1.66705   	3400.000000	1.74301   	3400.000000	6.8974e-05	
3600.000000	2.40289   	3600.000000	1.76285   	3600.000000	1.75308   	3600.000000	1.67408   	3600.000000	1.76278   	3600.000000	6.54206e-05	
3800.000000	2.44835   	3800.000000	1.78341   	3800.000000	1.76009   	3800.000000	1.68123   	3800.000000	1.78334   	3800.000000	6.2227e-05	
4000.000000	2.49564   	4000.000000	1.80463   	4000.000000	1.76716   	4000.000000	1.68845   	4000.000000	1.80457   	4000.000000	5.93406e-05	
4200.000000	2.54456   	4200.000000	1.82642   	4200.000000	1.77425   	4200.000000	1.69567   	4200.000000	1.82637   	4200.000000	5.67186e-05	
4400.000000	2.59499   	4400.000000	1.8487    	4400.000000	1.78133   	4400.000000	1.70287   	4400.000000	1.84865   	4400.000000	5.43259e-05	
4600.000000	2.64679   	4600.000000	1.87139   	4600.000000	1.78835   	4600.000000	1.71001   	4600.000000	1.87134   	4600.000000	5.21334e-05	
4800.000000	2.69988   	4800.000000	1.89445   	4800.000000	1.7953    	4800.000000	1.71708   	4800.000000	1.8944    	4800.000000	5.01167e-05	
5000.000000	2.75417   	5000.000000	1.91781   	5000.000000	1.80217   	5000.000000	1.72406   	5000.000000	1.91776   	5000.000000	4.82553e-05	
5250.000000	2.8236    	5250.000000	1.94739   	5250.000000	1.81062   	5250.000000	1.73263   	5250.000000	1.94735   	5250.000000	4.61204e-05	
5500.000000	2.89467   	5500.000000	1.97734   	5500.000000	1.8189    	5500.000000	1.74104   	5500.000000	1.9773    	5500.000000	4.41724e-05	
6000.000000	3.04136   	6000.000000	2.03811   	6000.000000	1.83494   	6000.000000	1.75731   	6000.000000	2.03807   	6000.000000	4.07457e-05	
6500.000000	3.19362   	6500.000000	2.09978   	6500.000000	1.85029   	6500.000000	1.77283   	6500.000000	2.09974   	6500.000000	3.78275e-05	
7000.000000	3.351     	7000.000000	2.16213   	7000.000000	1.86492   	7000.000000	1.78763   	7000.000000	2.16209   	7000.000000	3.53112e-05	
7500.000000	3.5132    	7500.000000	2.22498   	7500.000000	1.87875   	7500.000000	1.80172   	7500.000000	2.22495   	7500.000000	3.31185e-05	
8000.000000	3.67995   	8000.000000	2.28822   	8000.000000	1.89197   	8000.000000	1.81515   	8000.000000	2.28819   	8000.000000	3.11901e-05	
8500.000000	3.85106   	8500.000000	2.35175   	8500.000000	1.90458   	8500.000000	1.82796   	8500.000000	2.35172   	8500.000000	2.94805e-05	
9000.000000	4.0264    	9000.000000	2.41549   	9000.000000	1.91658   	9000.000000	1.84019   	9000.000000	2.41546   	9000.000000	2.79541e-05	
9500.000000	4.20584   	9500.000000	2.47939   	9500.000000	1.92802   	9500.000000	1.85187   	9500.000000	2.47937   	9500.000000	2.65826e-05	
10000.000000	4.38929   	10000.000000	2.54342   	10000.000000	1.93894   	10000.000000	1.86305   	10000.000000	2.54339   	10000.000000	2.53435e-05	
11000.000000	4.76794   	11000.000000	2.67169   	11000.000000	1.95941   	11000.000000	1.88403   	11000.000000	2.67167   	11000.000000	2.31915e-05	
12000.000000	5.16192   	12000.000000	2.80012   	12000.000000	1.97825   	12000.000000	1.90338   	12000.000000	2.8001    	12000.000000	2.13861e-05	
13000.000000	5.57091   	13000.000000	2.92856   	13000.000000	1.99567   	13000.000000	1.9213    	13000.000000	2.92854   	13000.000000	1.9849e-05	
14000.000000	5.99473   	14000.000000	3.05695   	14000.000000	2.01186   	14000.000000	1.93797   	14000.000000	3.05693   	14000.000000	1.85241e-05	
15000.000000	6.43325   	15000.000000	3.18522   	15000.000000	2.02694   	15000.000000	1.95354   	15000.000000	3.18521   	15000.000000	1.73698e-05	
16000.000000	6.88637   	16000.000000	3.31334   	16000.000000	2.04096   	16000.000000	1.96813   	16000.000000	3.31332   	16000.000000	1.63549e-05	
17000.000000	7.35405   	17000.000000	3.44128   	17000.000000	2.05402   	17000.000000	1.98185   	17000.000000	3.44126   	17000.000000	1.54554e-05	
18000.000000	7.83627   	18000.000000	3.56902   	18000.000000	2.06623   	18000.000000	1.9948    	18000.000000	3.56901   	18000.000000	1.46525e-05	
19000.000000	8.33302   	19000.000000	3.69656   	19000.000000	2.07771   	19000.000000	2.00704   	19000.000000	3.69655   	19000.000000	1.39312e-05	
20000.000000	8.8443    	20000.000000	3.82389   	20000.000000	2.08853   	20000.000000	2.01864   	20000.000000	3.82388   	20000.000000	1.32797e-05	
21000.000000	9.37013   	21000.000000	3.95101   	21000.000000	2.09879   	21000.000000	2.02967   	21000.000000	3.951     	21000.000000	1.2688e-05	
22000.000000	9.91056   	22000.000000	4.07792   	22000.000000	2.10853   	22000.000000	2.04018   	22000.000000	4.07791   	22000.000000	1.21484e-05	
23000.000000	10.4656   	23000.000000	4.20461   	23000.000000	2.11772   	23000.000000	2.0502    	23000.000000	4.2046    	23000.000000	1.16541e-05	
24000.000000	11.0353   	24000.000000	4.33109   	24000.000000	2.12645   	24000.000000	2.05979   	24000.000000	4.33108   	24000.000000	1.11996e-05	
25000.000000	11.6198   	25000.000000	4.45737   	25000.000000	2.13478   	25000.000000	2.06896   	25000.000000	4.45736   	25000.000000	1.07803e-05	
26000.000000	12.219    	26000.000000	4.58344   	26000.000000	2.14272   	26000.000000	2.07776   	26000.000000	4.58343   	26000.000000	1.03921e-05	
27000.000000	12.833    	27000.000000	4.70931   	27000.000000	2.15027   	27000.000000	2.08622   	27000.000000	4.7093    	27000.000000	1.00317e-05	
28000.000000	13.462    	28000.000000	4.83498   	28000.000000	2.15747   	28000.000000	2.09435   	28000.000000	4.83497   	28000.000000	9.69625e-06	
29000.000000	14.1059   	29000.000000	4.96047   	29000.000000	2.16436   	29000.000000	2.10218   	29000.000000	4.96046   	29000.000000	9.38313e-06	
30000.000000	14.7648   	30000.000000	5.08576   	30000.000000	2.17094   	30000.000000	2.10973   	30000.000000	5.08575   	30000.000000	9.09018e-06	
32000.000000	16.128    	32000.000000	5.3358    	32000.000000	2.18328   	32000.000000	2.12406   	32000.000000	5.33579   	32000.000000	8.55742e-06	
34000.000000	17.5521   	34000.000000	5.58513   	34000.000000	2.19463   	34000.000000	2.13748   	34000.000000	5.58512   	34000.000000	8.08532e-06	
36000.000000	19.0377   	36000.000000	5.83379   	36000.000000	2.20508   	36000.000000	2.15007   	36000.000000	5.83378   	36000.000000	7.66398e-06	
38000.000000	20.5856   	38000.000000	6.0818    	38000.000000	2.21476   	38000.000000	2.16194   	38000.000000	6.08179   	38000.000000	7.28557e-06	
40000.000000	22.1961   	40000.000000	6.3292    	40000.000000	2.22374   	40000.000000	2.17316   	40000.000000	6.32919   	40000.000000	6.94379e-06	
42000.000000	23.8702   	42000.000000	6.57601   	42000.000000	2.23207   	42000.000000	2.18378   	42000.000000	6.576     	42000.000000	6.63351e-06	
44000.000000	25.6082   	44000.000000	6.82226   	44000.000000	2.23985   	44000.000000	2.19388   	44000.000000	6.82225   	44000.000000	6.35053e-06	
46000.000000	27.4111   	46000.000000	7.06796   	46000.000000	2.24714   	46000.000000	2.2035    	46000.000000	7.06796   	46000.000000	6.09137e-06	
48000.000000	29.2794   	48000.000000	7.31315   	48000.000000	2.25398   	48000.000000	2.21267   	48000.000000	7.31314   	48000.000000	5.85312e-06	
50000.000000	31.2138   	50000.000000	7.55783   	50000.000000	2.26034   	50000.000000	2.22144   	50000.000000	7.55783   	50000.000000	5.63331e-06	
