Energy (MeV/u)1	0 - [He-base] F.Hubert et al, AD&ND Tables 46(1990)1	Energy (MeV/u)2	1 - [H -base] J.F.Ziegler et al, Pergamon Press, NY (low energy)	Energy (MeV/u)3	2 - ATIMA 1.2  LS-theory (recommended for high energy)	Energy (MeV/u)4	3 - ATIMA 1.2  without LS-correction	Energy (MeV/u)5	4 - electrical component of [1] - J.F.Ziegler et al	Energy (MeV/u)6	5 - nuclear component of [1] - J.F.Ziegler et al	
0.001000	12.2971   	0.001000	12.7019   	0.001000	12.0089   	0.001000	12.0089   	0.001000	2.66879   	0.001000	10.0331   	
0.002000	12.7202   	0.002000	13.2319   	0.002000	12.3202   	0.002000	12.3202   	0.002000	3.50144   	0.002000	9.73049   	
0.005000	12.7154   	0.005000	13.1398   	0.005000	11.8374   	0.005000	11.8374   	0.005000	5.01853   	0.005000	8.12131   	
0.008000	12.7332   	0.008000	12.9766   	0.008000	11.4169   	0.008000	11.4169   	0.008000	6.03896   	0.008000	6.93766   	
0.010000	12.81     	0.010000	12.9383   	0.010000	11.2403   	0.010000	11.2403   	0.010000	6.59441   	0.010000	6.34392   	
0.015000	13.1279   	0.015000	13.0119   	0.015000	11.0329   	0.015000	11.0329   	0.015000	7.73916   	0.015000	5.27272   	
0.020000	13.5292   	0.020000	13.2218   	0.020000	11.0178   	0.020000	11.0178   	0.020000	8.67127   	0.020000	4.55056   	
0.025000	13.9581   	0.025000	13.4974   	0.025000	11.1026   	0.025000	11.1026   	0.025000	9.47173   	0.025000	4.02563   	
0.030000	14.3917   	0.030000	13.8049   	0.030000	11.2431   	0.030000	11.2431   	0.030000	10.1809   	0.030000	3.62399   	
0.035000	14.8201   	0.035000	14.1273   	0.035000	11.4159   	0.035000	11.4159   	0.035000	10.8222   	0.035000	3.3051    	
0.040000	15.2388   	0.040000	14.4553   	0.040000	11.6079   	0.040000	11.6079   	0.040000	11.4106   	0.040000	3.04474   	
0.045000	15.6461   	0.045000	14.7839   	0.045000	11.8113   	0.045000	11.8113   	0.045000	11.9564   	0.045000	2.82751   	
0.050000	16.0414   	0.050000	15.11     	0.050000	12.0212   	0.050000	12.0212   	0.050000	12.4669   	0.050000	2.64304   	
0.055000	16.4248   	0.055000	15.4319   	0.055000	12.2344   	0.055000	12.2344   	0.055000	12.9478   	0.055000	2.48415   	
0.060000	16.8725   	0.060000	15.7487   	0.060000	12.4489   	0.060000	12.4489   	0.060000	13.403    	0.060000	2.34562   	
0.070000	18.9771   	0.070000	17.7761   	0.070000	14.0841   	0.070000	14.0841   	0.070000	15.6608   	0.070000	2.11523   	
0.080000	21.2109   	0.080000	20.0079   	0.080000	15.9575   	0.080000	15.9575   	0.080000	18.0772   	0.080000	1.93073   	
0.090000	23.2815   	0.090000	22.1793   	0.090000	17.8286   	0.090000	17.8286   	0.090000	20.4002   	0.090000	1.77919   	
0.100000	25.1868   	0.100000	24.2525   	0.100000	19.6605   	0.100000	19.6605   	0.100000	22.609    	0.100000	1.64343   	
0.120000	27.8294   	0.120000	28.0636   	0.120000	23.1763   	0.120000	23.1763   	0.120000	26.6244   	0.120000	1.43924   	
0.140000	29.7386   	0.140000	31.044    	0.140000	26.4141   	0.140000	26.4141   	0.140000	29.7569   	0.140000	1.28703   	
0.160000	31.4724   	0.160000	33.6308   	0.160000	29.3399   	0.160000	29.3399   	0.160000	32.4656   	0.160000	1.1652    	
0.180000	33.1367   	0.180000	35.8867   	0.180000	31.962    	0.180000	31.962    	0.180000	34.8192   	0.180000	1.0675    	
0.200000	34.7821   	0.200000	37.8708   	0.200000	34.3012   	0.200000	34.3012   	0.200000	36.8844   	0.200000	0.986317  	
0.250000	37.6861   	0.250000	41.7258   	0.250000	39.1093   	0.250000	39.1093   	0.250000	40.8934   	0.250000	0.832377  	
0.300000	40.4209   	0.300000	44.7689   	0.300000	42.7973   	0.300000	42.7973   	0.300000	44.0458   	0.300000	0.723146  	
0.350000	42.9491   	0.350000	47.3472   	0.350000	45.7259   	0.350000	45.7259   	0.350000	46.706    	0.350000	0.641217  	
0.400000	45.2502   	0.400000	49.6413   	0.400000	48.1376   	0.400000	48.1376   	0.400000	49.0641   	0.400000	0.577268  	
0.450000	47.5388   	0.450000	51.9464   	0.450000	50.1873   	0.450000	50.1873   	0.450000	51.4206   	0.450000	0.525831  	
0.500000	50.1767   	0.500000	54.7746   	0.500000	51.9728   	0.500000	51.9728   	0.500000	54.2912   	0.500000	0.483476  	
0.600000	52.7345   	0.600000	58.2536   	0.600000	54.9797   	0.600000	54.9797   	0.600000	57.8359   	0.600000	0.417646  	
0.700000	54.0759   	0.700000	60.8749   	0.700000	57.4752   	0.700000	57.4752   	0.700000	60.5062   	0.700000	0.368671  	
0.800000	56.712    	0.800000	62.9094   	0.800000	60.3709   	0.800000	60.3709   	0.800000	62.5787   	0.800000	0.330689  	
0.900000	58.9264   	0.900000	64.5615   	0.900000	62.7642   	0.900000	62.7642   	0.900000	64.2612   	0.900000	0.300298  	
1.000000	60.7873   	1.000000	65.8881   	1.000000	64.7559   	1.000000	64.7559   	1.000000	65.6127   	1.000000	0.275382  	
1.250000	63.8357   	1.250000	69.5274   	1.250000	68.4199   	1.250000	68.4199   	1.250000	69.2984   	1.250000	0.22897   	
1.500000	65.4909   	1.500000	71.8765   	1.500000	70.7553   	1.500000	70.7553   	1.500000	71.6798   	1.500000	0.196708  	
1.750000	65.4685   	1.750000	72.4815   	1.750000	72.204    	1.750000	72.204    	1.750000	72.3086   	1.750000	0.172882  	
2.000000	65.1385   	2.000000	72.7822   	2.000000	73.0418   	2.000000	73.0418   	2.000000	72.6277   	2.000000	0.154513  	
2.250000	64.7333   	2.250000	72.4411   	2.250000	73.4487   	2.250000	73.4487   	2.250000	72.3012   	2.250000	0.139886  	
2.500000	93.6651   	2.500000	71.9689   	2.500000	73.5464   	2.500000	73.5464   	2.500000	71.8409   	2.500000	0.127943  	
3.000000	90.6144   	3.000000	70.7732   	3.000000	73.1278   	3.000000	73.1278   	3.000000	70.6636   	3.000000	0.109569  	
3.500000	87.3161   	3.500000	69.389    	3.500000	72.2119   	3.500000	72.2119   	3.500000	69.293    	3.500000	0.0960537 	
4.000000	84.0337   	4.000000	67.92     	4.000000	71.0263   	4.000000	71.0263   	4.000000	67.8343   	4.000000	0.0856674 	
4.500000	80.88     	4.500000	66.4145   	4.500000	69.6111   	4.500000	69.6111   	4.500000	66.3371   	4.500000	0.0774192 	
5.000000	77.8995   	5.000000	64.9042   	5.000000	68.0029   	5.000000	68.0029   	5.000000	64.8335   	5.000000	0.0707001 	
5.500000	75.105    	5.500000	63.4924   	5.500000	66.443    	5.500000	66.443    	5.500000	63.4273   	5.500000	0.0651139 	
6.000000	72.4945   	6.000000	62.1294   	6.000000	64.9373   	6.000000	64.9373   	6.000000	62.069    	6.000000	0.0603916 	
6.500000	70.0587   	6.500000	60.81     	6.500000	63.4883   	6.500000	63.4883   	6.500000	60.7537   	6.500000	0.0563438 	
7.000000	67.7859   	7.000000	59.5331   	7.000000	62.0963   	7.000000	62.0963   	7.000000	59.4802   	7.000000	0.0528331 	
7.500000	65.6632   	7.500000	58.2935   	7.500000	60.7603   	7.500000	60.7603   	7.500000	58.2437   	7.500000	0.0497574 	
8.000000	63.6782   	8.000000	57.0806   	8.000000	59.4784   	8.000000	59.4784   	8.000000	57.0335   	8.000000	0.0470392 	
8.500000	61.8191   	8.500000	55.9252   	8.500000	58.2486   	8.500000	58.2486   	8.500000	55.8805   	8.500000	0.0446183 	
9.000000	60.0751   	9.000000	54.8216   	9.000000	57.0685   	9.000000	57.0685   	9.000000	54.7791   	9.000000	0.0424478 	
9.500000	58.4362   	9.500000	53.7652   	9.500000	55.9357   	9.500000	55.9357   	9.500000	53.7247   	9.500000	0.0404899 	
10.000000	56.8935   	10.000000	54.3658   	10.000000	54.8476   	10.000000	54.8476   	10.000000	54.3271   	10.000000	0.0387144 	
11.000000	54.065    	11.000000	52.5042   	11.000000	52.3644   	11.000000	52.9812   	11.000000	52.4686   	11.000000	0.0356155 	
12.000000	51.5344   	12.000000	50.7564   	12.000000	50.1049   	12.000000	51.2377   	12.000000	50.7234   	12.000000	0.0329995 	
13.000000	49.2565   	13.000000	49.1177   	13.000000	48.043    	13.000000	49.6096   	13.000000	49.087    	13.000000	0.0307599 	
14.000000	47.195    	14.000000	47.5819   	14.000000	46.156    	14.000000	48.0886   	14.000000	47.553    	14.000000	0.0288197 	
15.000000	45.32     	15.000000	46.1415   	15.000000	44.424    	15.000000	46.6664   	15.000000	46.1143   	15.000000	0.0271216 	
16.000000	43.6066   	16.000000	44.7893   	16.000000	42.8292   	16.000000	45.335    	16.000000	44.7636   	16.000000	0.0256223 	
17.000000	42.0344   	17.000000	43.5183   	17.000000	41.3564   	17.000000	44.087    	17.000000	43.494    	17.000000	0.0242882 	
18.000000	40.5863   	18.000000	42.322    	18.000000	39.9933   	18.000000	42.9157   	18.000000	42.2989   	18.000000	0.023093  	
19.000000	39.2477   	19.000000	41.1944   	19.000000	38.7295   	19.000000	41.8149   	19.000000	41.1724   	19.000000	0.0220157 	
20.000000	38.0063   	20.000000	40.1299   	20.000000	37.5557   	20.000000	40.779    	20.000000	40.1089   	20.000000	0.0210394 	
21.000000	36.8516   	21.000000	39.1236   	21.000000	36.4634   	21.000000	39.8029   	21.000000	39.1034   	21.000000	0.0201503 	
22.000000	35.7747   	22.000000	38.1708   	22.000000	35.4453   	22.000000	38.8821   	22.000000	38.1515   	22.000000	0.019337  	
23.000000	34.7676   	23.000000	37.2676   	23.000000	34.4947   	23.000000	38.0125   	23.000000	37.249    	23.000000	0.0185901 	
24.000000	33.8237   	24.000000	36.4101   	24.000000	33.6062   	24.000000	37.1904   	24.000000	36.3922   	24.000000	0.0179016 	
25.000000	32.9369   	25.000000	35.5951   	25.000000	32.7743   	25.000000	36.4122   	25.000000	35.5778   	25.000000	0.0172648 	
27.000000	31.3148   	27.000000	34.0801   	27.000000	31.2585   	27.000000	34.9761   	27.000000	34.064    	27.000000	0.0161242 	
29.000000	29.8665   	29.000000	32.7015   	29.000000	29.9208   	29.000000	33.6826   	29.000000	32.6863   	29.000000	0.0151318 	
31.000000	28.565    	31.000000	31.4414   	31.000000	28.8216   	31.000000	32.4203   	31.000000	31.4272   	31.000000	0.01426   	
33.000000	27.3883   	33.000000	30.2852   	33.000000	27.8931   	33.000000	31.1787   	33.000000	30.2717   	33.000000	0.0134877 	
35.000000	26.3188   	35.000000	29.2203   	35.000000	27.0351   	35.000000	30.0388   	35.000000	29.2075   	35.000000	0.0127986 	
38.000000	24.8848   	38.000000	27.7718   	38.000000	25.8501   	38.000000	28.4934   	38.000000	27.7599   	38.000000	0.0118932 	
41.000000	23.6216   	41.000000	26.4763   	41.000000	24.7807   	41.000000	27.116    	41.000000	26.4652   	41.000000	0.0111129 	
44.000000	22.4997   	44.000000	25.3107   	44.000000	23.8046   	44.000000	25.8803   	44.000000	25.3003   	44.000000	0.0104331 	
47.000000	21.496    	47.000000	24.2562   	47.000000	22.9144   	47.000000	24.7652   	47.000000	24.2463   	47.000000	0.0098353 	
50.000000	20.5922   	50.000000	23.2974   	50.000000	22.0986   	50.000000	23.7537   	50.000000	23.2881   	50.000000	0.00930525	
55.000000	19.2698   	55.000000	21.8792   	55.000000	20.8775   	55.000000	22.2614   	55.000000	21.8706   	55.000000	0.00854343	
60.000000	18.1337   	60.000000	20.6469   	60.000000	19.8056   	60.000000	20.9686   	60.000000	20.639    	60.000000	0.00790187	
65.000000	17.1463   	65.000000	19.566    	65.000000	18.8548   	65.000000	19.8377   	65.000000	19.5587   	65.000000	0.0073538 	
70.000000	16.2794   	70.000000	18.6101   	70.000000	18.0068   	70.000000	18.84     	70.000000	18.6033   	70.000000	0.00687992	
75.000000	15.5119   	75.000000	17.7587   	75.000000	17.247    	75.000000	17.9531   	75.000000	17.7522   	75.000000	0.00646591	
80.000000	14.827    	80.000000	16.9954   	80.000000	16.5608   	80.000000	17.1597   	80.000000	16.9893   	80.000000	0.00610094	
85.000000	14.2118   	85.000000	16.3072   	85.000000	15.938    	85.000000	16.4456   	85.000000	16.3014   	85.000000	0.00577668	
90.000000	13.656    	90.000000	15.6835   	90.000000	15.3702   	90.000000	15.7995   	90.000000	15.678    	90.000000	0.00548658	
95.000000	13.151    	95.000000	15.1156   	95.000000	14.8503   	95.000000	15.2123   	95.000000	15.1104   	95.000000	0.00522544	
100.000000	12.6902   	100.000000	14.5964   	100.000000	14.3743   	100.000000	14.6761   	100.000000	14.5914   	100.000000	0.00498906	
105.000000	12.2677   	105.000000	14.1198   	105.000000	13.9351   	105.000000	14.1847   	105.000000	14.115    	105.000000	0.00477404	
110.000000	11.8788   	110.000000	13.6808   	110.000000	13.5287   	110.000000	13.7327   	110.000000	13.6763   	110.000000	0.00457757	
115.000000	11.5197   	115.000000	13.2752   	115.000000	13.1513   	115.000000	13.3156   	115.000000	13.2708   	115.000000	0.0043973 	
120.000000	11.1869   	120.000000	12.8993   	120.000000	12.8009   	120.000000	12.9294   	120.000000	12.895    	120.000000	0.0042313 	
125.000000	10.8775   	125.000000	12.5499   	125.000000	12.4746   	125.000000	12.571    	125.000000	12.5458   	125.000000	0.0040779 	
130.000000	10.5892   	130.000000	12.2243   	130.000000	12.1693   	130.000000	12.2373   	130.000000	12.2204   	130.000000	0.0039357 	
135.000000	10.3197   	135.000000	11.9202   	135.000000	11.8841   	135.000000	11.926    	135.000000	11.9164   	135.000000	0.0038035 	
140.000000	10.0672   	140.000000	11.6356   	140.000000	11.6164   	140.000000	11.6349   	140.000000	11.6319   	140.000000	0.00368027	
145.000000	9.8302    	145.000000	11.3686   	145.000000	11.3642   	145.000000	11.3621   	145.000000	11.365    	145.000000	0.00356511	
150.000000	9.60718   	150.000000	11.1177   	150.000000	11.1264   	150.000000	11.1059   	150.000000	11.1142   	150.000000	0.00345724	
155.000000	9.28722   	155.000000	10.8814   	155.000000	10.9025   	155.000000	10.8649   	155.000000	10.878    	155.000000	0.00335599	
160.000000	9.1027    	160.000000	10.6585   	160.000000	10.691    	160.000000	10.6378   	160.000000	10.6552   	160.000000	0.00326075	
165.000000	8.92829   	165.000000	10.4479   	165.000000	10.4905   	165.000000	10.4234   	165.000000	10.4448   	165.000000	0.00317099	
170.000000	8.76315   	170.000000	10.2487   	170.000000	10.3005   	170.000000	10.2207   	170.000000	10.2456   	170.000000	0.00308625	
175.000000	8.60657   	175.000000	10.0599   	175.000000	10.1206   	175.000000	10.0288   	175.000000	10.0569   	175.000000	0.00300611	
180.000000	8.45787   	180.000000	9.88074   	180.000000	9.94988   	180.000000	9.84682   	180.000000	9.87781   	180.000000	0.0029302 	
185.000000	8.31648   	185.000000	9.71053   	185.000000	9.78742   	185.000000	9.67403   	185.000000	9.70767   	185.000000	0.00285819	
190.000000	8.18185   	190.000000	9.54859   	190.000000	9.63241   	190.000000	9.50978   	190.000000	9.54581   	190.000000	0.00278979	
195.000000	8.05352   	195.000000	9.39437   	195.000000	9.48419   	195.000000	9.35345   	195.000000	9.39164   	195.000000	0.00272472	
200.000000	7.93104   	200.000000	9.2473    	200.000000	9.3426    	200.000000	9.20448   	200.000000	9.24464   	200.000000	0.00266275	
210.000000	7.70211   	210.000000	8.9728    	210.000000	9.0795    	210.000000	8.92669   	210.000000	8.97025   	210.000000	0.00254723	
220.000000	7.49228   	220.000000	8.7217    	220.000000	8.83703   	220.000000	8.67291   	220.000000	8.71926   	220.000000	0.00244171	
230.000000	7.29926   	230.000000	8.49116   	230.000000	8.61488   	230.000000	8.44019   	230.000000	8.48882   	230.000000	0.00234493	
240.000000	7.12107   	240.000000	8.27879   	240.000000	8.40982   	240.000000	8.22606   	240.000000	8.27654   	240.000000	0.00225583	
250.000000	6.95608   	250.000000	8.08255   	250.000000	8.22002   	250.000000	8.02841   	250.000000	8.08038   	250.000000	0.00217352	
260.000000	6.80287   	260.000000	7.9007    	260.000000	8.04387   	260.000000	7.84546   	260.000000	7.8986    	260.000000	0.00209725	
270.000000	6.66021   	270.000000	7.73173   	270.000000	7.87964   	270.000000	7.67564   	270.000000	7.7297    	270.000000	0.00202636	
280.000000	6.52706   	280.000000	7.57434   	280.000000	7.72681   	280.000000	7.51764   	280.000000	7.57238   	280.000000	0.00196029	
290.000000	6.40249   	290.000000	7.42742   	290.000000	7.58421   	290.000000	7.37028   	290.000000	7.42552   	290.000000	0.00189857	
300.000000	6.28571   	300.000000	7.28995   	300.000000	7.4504    	300.000000	7.23255   	300.000000	7.28811   	300.000000	0.00184077	
310.000000	6.17602   	310.000000	7.1611    	310.000000	7.32467   	310.000000	7.10356   	310.000000	7.15931   	310.000000	0.00178652	
320.000000	6.07279   	320.000000	7.04007   	320.000000	7.2067    	320.000000	6.98253   	320.000000	7.03834   	320.000000	0.00173551	
330.000000	5.97548   	330.000000	6.92621   	330.000000	7.09571   	330.000000	6.86876   	330.000000	6.92452   	330.000000	0.00168744	
340.000000	5.8836    	340.000000	6.81891   	340.000000	6.99117   	340.000000	6.76164   	340.000000	6.81726   	340.000000	0.00164208	
350.000000	5.79671   	350.000000	6.71763   	350.000000	6.89256   	350.000000	6.66063   	350.000000	6.71603   	350.000000	0.00159918	
360.000000	5.71443   	360.000000	6.62189   	360.000000	6.79914   	360.000000	6.56525   	360.000000	6.62034   	360.000000	0.00155856	
370.000000	5.6364    	370.000000	6.53128   	370.000000	6.70999   	370.000000	6.47454   	370.000000	6.52976   	370.000000	0.00152003	
380.000000	5.56232   	380.000000	6.4454    	380.000000	6.62549   	380.000000	6.38865   	380.000000	6.44391   	380.000000	0.00148343	
390.000000	5.49189   	390.000000	6.3639    	390.000000	6.5454    	390.000000	6.30719   	390.000000	6.36245   	390.000000	0.00144863	
400.000000	5.42487   	400.000000	6.28647   	400.000000	6.46939   	400.000000	6.22987   	400.000000	6.28505   	400.000000	0.00141548	
410.000000	5.36102   	410.000000	6.21282   	410.000000	6.39699   	410.000000	6.15638   	410.000000	6.21144   	410.000000	0.00138388	
420.000000	5.30012   	420.000000	6.1427    	420.000000	6.32779   	420.000000	6.08646   	420.000000	6.14134   	420.000000	0.00135372	
430.000000	5.24198   	430.000000	6.07586   	430.000000	6.26186   	430.000000	6.01986   	430.000000	6.07454   	430.000000	0.00132489	
440.000000	5.18644   	440.000000	6.0121    	440.000000	6.19923   	440.000000	5.95638   	440.000000	6.01081   	440.000000	0.00129732	
450.000000	5.13332   	450.000000	5.95122   	450.000000	6.13954   	450.000000	5.8958    	450.000000	5.94995   	450.000000	0.00127091	
460.000000	5.08247   	460.000000	5.89303   	460.000000	6.08235   	460.000000	5.83794   	460.000000	5.89179   	460.000000	0.0012456 	
470.000000	5.03377   	470.000000	5.83737   	470.000000	6.02748   	470.000000	5.78264   	470.000000	5.83615   	470.000000	0.00122132	
480.000000	4.98709   	480.000000	5.7841    	480.000000	5.97494   	480.000000	5.72974   	480.000000	5.7829    	480.000000	0.00119801	
490.000000	4.9423    	490.000000	5.73305   	490.000000	5.92466   	490.000000	5.67909   	490.000000	5.73188   	490.000000	0.0011756 	
500.000000	4.89931   	500.000000	5.68412   	500.000000	5.87652   	500.000000	5.63056   	500.000000	5.68297   	500.000000	0.00115405	
520.000000	4.81832   	520.000000	5.59211   	520.000000	5.78607   	520.000000	5.53939   	520.000000	5.591     	520.000000	0.00111332	
540.000000	4.74341   	540.000000	5.50722   	540.000000	5.70226   	540.000000	5.45536   	540.000000	5.50614   	540.000000	0.00107548	
560.000000	4.67397   	560.000000	5.42869   	560.000000	5.62471   	560.000000	5.37772   	560.000000	5.42765   	560.000000	0.00104022	
580.000000	4.60946   	580.000000	5.3559    	580.000000	5.55324   	580.000000	5.30582   	580.000000	5.35489   	580.000000	0.00100729	
600.000000	4.54943   	600.000000	5.28829   	600.000000	5.48667   	600.000000	5.23908   	600.000000	5.28731   	600.000000	0.000976457	
620.000000	4.49346   	620.000000	5.22537   	620.000000	5.42451   	620.000000	5.17703   	620.000000	5.22443   	620.000000	0.000947526	
640.000000	4.4412    	640.000000	5.16672   	640.000000	5.36661   	640.000000	5.11922   	640.000000	5.1658    	640.000000	0.000920323	
660.000000	4.39233   	660.000000	5.11196   	660.000000	5.31258   	660.000000	5.06527   	660.000000	5.11107   	660.000000	0.000894698	
680.000000	4.34657   	680.000000	5.06076   	680.000000	5.26204   	680.000000	5.01484   	680.000000	5.05989   	680.000000	0.000870514	
700.000000	4.30368   	700.000000	5.01282   	700.000000	5.21474   	700.000000	4.96764   	700.000000	5.01197   	700.000000	0.000847652	
720.000000	4.26342   	720.000000	4.96787   	720.000000	5.17041   	720.000000	4.92338   	720.000000	4.96704   	720.000000	0.000826005	
740.000000	4.22559   	740.000000	4.92568   	740.000000	5.12867   	740.000000	4.88184   	740.000000	4.92488   	740.000000	0.000805478	
760.000000	4.19002   	760.000000	4.88605   	760.000000	5.08926   	760.000000	4.8428    	760.000000	4.88526   	760.000000	0.000785984	
780.000000	4.15654   	780.000000	4.84877   	780.000000	5.05216   	780.000000	4.80607   	780.000000	4.848     	780.000000	0.000767447	
800.000000	4.12501   	800.000000	4.81367   	800.000000	5.01735   	800.000000	4.77147   	800.000000	4.81292   	800.000000	0.000749797	
820.000000	4.09529   	820.000000	4.7806    	820.000000	4.98461   	820.000000	4.73884   	820.000000	4.77987   	820.000000	0.000732971	
840.000000	4.06726   	840.000000	4.74943   	840.000000	4.95365   	840.000000	4.70804   	840.000000	4.74871   	840.000000	0.000716912	
860.000000	4.04081   	860.000000	4.72001   	860.000000	4.92427   	860.000000	4.67895   	860.000000	4.71931   	860.000000	0.000701567	
880.000000	4.01584   	880.000000	4.69223   	880.000000	4.89642   	880.000000	4.65144   	880.000000	4.69154   	880.000000	0.000686891	
900.000000	3.99226   	900.000000	4.66599   	900.000000	4.87005   	900.000000	4.62541   	900.000000	4.66532   	900.000000	0.000672838	
920.000000	3.96998   	920.000000	4.64119   	920.000000	4.8451    	920.000000	4.60075   	920.000000	4.64053   	920.000000	0.000659371	
940.000000	3.94892   	940.000000	4.61773   	940.000000	4.82145   	940.000000	4.57739   	940.000000	4.61709   	940.000000	0.000646452	
960.000000	3.92902   	960.000000	4.59554   	960.000000	4.79902   	960.000000	4.55523   	960.000000	4.59491   	960.000000	0.000634049	
980.000000	3.9102    	980.000000	4.57455   	980.000000	4.77771   	980.000000	4.5342    	980.000000	4.57392   	980.000000	0.000622131	
1000.000000	3.89241   	1000.000000	4.55467   	1000.000000	4.75747   	1000.000000	4.51423   	1000.000000	4.55406   	1000.000000	0.000610669	
1020.000000	3.87559   	1020.000000	4.53584   	1020.000000	4.73825   	1020.000000	4.49526   	1020.000000	4.53525   	1020.000000	0.000599637	
1040.000000	3.85968   	1040.000000	4.51802   	1040.000000	4.71998   	1040.000000	4.47722   	1040.000000	4.51743   	1040.000000	0.000589012	
1060.000000	3.84464   	1060.000000	4.50113   	1060.000000	4.70261   	1060.000000	4.46006   	1060.000000	4.50055   	1060.000000	0.000578771	
1080.000000	3.83043   	1080.000000	4.48514   	1080.000000	4.68606   	1080.000000	4.44374   	1080.000000	4.48457   	1080.000000	0.000568893	
1100.000000	3.817     	1100.000000	4.46998   	1100.000000	4.67026   	1100.000000	4.42819   	1100.000000	4.46943   	1100.000000	0.000559359	
1120.000000	3.80431   	1120.000000	4.45563   	1120.000000	4.65517   	1120.000000	4.41339   	1120.000000	4.45508   	1120.000000	0.000550151	
1140.000000	3.79232   	1140.000000	4.44203   	1140.000000	4.64075   	1140.000000	4.39929   	1140.000000	4.44149   	1140.000000	0.000541253	
1160.000000	3.78101   	1160.000000	4.42915   	1160.000000	4.62698   	1160.000000	4.38584   	1160.000000	4.42862   	1160.000000	0.000532649	
1180.000000	3.77034   	1180.000000	4.41696   	1180.000000	4.61385   	1180.000000	4.37302   	1180.000000	4.41643   	1180.000000	0.000524324	
1200.000000	3.76028   	1200.000000	4.40541   	1200.000000	4.60135   	1200.000000	4.3608    	1200.000000	4.40489   	1200.000000	0.000516265	
1220.000000	3.7508    	1220.000000	4.39448   	1220.000000	4.58947   	1220.000000	4.34913   	1220.000000	4.39397   	1220.000000	0.000508459	
1240.000000	3.74188   	1240.000000	4.38414   	1240.000000	4.57815   	1240.000000	4.338     	1240.000000	4.38364   	1240.000000	0.000500895	
1260.000000	3.73349   	1260.000000	4.37436   	1260.000000	4.56736   	1260.000000	4.32737   	1260.000000	4.37386   	1260.000000	0.00049356	
1280.000000	3.72561   	1280.000000	4.36511   	1280.000000	4.55705   	1280.000000	4.31722   	1280.000000	4.36463   	1280.000000	0.000486446	
1300.000000	3.71821   	1300.000000	4.35638   	1300.000000	4.54718   	1300.000000	4.30753   	1300.000000	4.3559    	1300.000000	0.000479541	
1320.000000	3.71128   	1320.000000	4.34813   	1320.000000	4.53773   	1320.000000	4.29828   	1320.000000	4.34766   	1320.000000	0.000472837	
1340.000000	3.7048    	1340.000000	4.34035   	1340.000000	4.52867   	1340.000000	4.28943   	1340.000000	4.33989   	1340.000000	0.000466324	
1360.000000	3.69875   	1360.000000	4.33302   	1360.000000	4.51998   	1360.000000	4.28098   	1360.000000	4.33256   	1360.000000	0.000459995	
1380.000000	3.69311   	1380.000000	4.32611   	1380.000000	4.51167   	1380.000000	4.27291   	1380.000000	4.32566   	1380.000000	0.000453842	
1400.000000	3.68786   	1400.000000	4.31962   	1400.000000	4.50373   	1400.000000	4.26519   	1400.000000	4.31917   	1400.000000	0.000447857	
1420.000000	3.68299   	1420.000000	4.31351   	1420.000000	4.49614   	1420.000000	4.25782   	1420.000000	4.31307   	1420.000000	0.000442034	
1440.000000	3.67849   	1440.000000	4.30778   	1440.000000	4.4889    	1440.000000	4.25077   	1440.000000	4.30735   	1440.000000	0.000436366	
1460.000000	3.67434   	1460.000000	4.30242   	1460.000000	4.48199   	1460.000000	4.24403   	1460.000000	4.30199   	1460.000000	0.000430847	
1480.000000	3.67053   	1480.000000	4.2974    	1480.000000	4.4754    	1480.000000	4.23759   	1480.000000	4.29697   	1480.000000	0.000425471	
1500.000000	3.66704   	1500.000000	4.29271   	1500.000000	4.46912   	1500.000000	4.23143   	1500.000000	4.29229   	1500.000000	0.000420233	
1520.000000	3.66387   	1520.000000	4.28834   	1520.000000	4.46311   	1520.000000	4.22555   	1520.000000	4.28792   	1520.000000	0.000415126	
1540.000000	3.661     	1540.000000	4.28428   	1540.000000	4.45737   	1540.000000	4.21992   	1540.000000	4.28387   	1540.000000	0.000410147	
1560.000000	3.65842   	1560.000000	4.28051   	1560.000000	4.45188   	1560.000000	4.21455   	1560.000000	4.28011   	1560.000000	0.00040529	
1580.000000	3.65613   	1580.000000	4.27703   	1580.000000	4.44662   	1580.000000	4.20941   	1580.000000	4.27663   	1580.000000	0.000400551	
1600.000000	3.6541    	1600.000000	4.27383   	1600.000000	4.44159   	1600.000000	4.2045    	1600.000000	4.27343   	1600.000000	0.000395926	
1620.000000	3.65234   	1620.000000	4.27089   	1620.000000	4.43677   	1620.000000	4.19981   	1620.000000	4.2705    	1620.000000	0.00039141	
1640.000000	3.65084   	1640.000000	4.2682    	1640.000000	4.43215   	1640.000000	4.19533   	1640.000000	4.26781   	1640.000000	0.000387  	
1660.000000	3.64958   	1660.000000	4.26576   	1660.000000	4.42773   	1660.000000	4.19105   	1660.000000	4.26538   	1660.000000	0.000382692	
1680.000000	3.64855   	1680.000000	4.26355   	1680.000000	4.4235    	1680.000000	4.18696   	1680.000000	4.26317   	1680.000000	0.000378482	
1700.000000	3.64776   	1700.000000	4.26158   	1700.000000	4.41945   	1700.000000	4.18306   	1700.000000	4.2612    	1700.000000	0.000374367	
1750.000000	3.64674   	1750.000000	4.25759   	1750.000000	4.41009   	1750.000000	4.17408   	1750.000000	4.25722   	1750.000000	0.000364475	
1800.000000	3.64701   	1800.000000	4.25486   	1800.000000	4.40175   	1800.000000	4.1661    	1800.000000	4.25451   	1800.000000	0.00035511	
1850.000000	3.64847   	1850.000000	4.2533    	1850.000000	4.39434   	1850.000000	4.15904   	1850.000000	4.25295   	1850.000000	0.000346232	
1900.000000	3.65105   	1900.000000	4.25281   	1900.000000	4.38778   	1900.000000	4.15281   	1900.000000	4.25247   	1900.000000	0.000337801	
1950.000000	3.65465   	1950.000000	4.25331   	1950.000000	4.38199   	1950.000000	4.14733   	1950.000000	4.25299   	1950.000000	0.000329786	
2000.000000	3.65922   	2000.000000	4.25474   	2000.000000	4.37691   	2000.000000	4.14255   	2000.000000	4.25441   	2000.000000	0.000322156	
2100.000000	3.671     	2100.000000	4.26007   	2100.000000	4.36863   	2100.000000	4.13482   	2100.000000	4.25976   	2100.000000	0.000307943	
2200.000000	3.68594   	2200.000000	4.26834   	2200.000000	4.36252   	2200.000000	4.1292    	2200.000000	4.26805   	2200.000000	0.000294972	
2300.000000	3.70369   	2300.000000	4.27917   	2300.000000	4.35823   	2300.000000	4.12536   	2300.000000	4.27889   	2300.000000	0.000283085	
2400.000000	3.72394   	2400.000000	4.29225   	2400.000000	4.35546   	2400.000000	4.12303   	2400.000000	4.29197   	2400.000000	0.000272151	
2500.000000	3.74643   	2500.000000	4.30729   	2500.000000	4.354     	2500.000000	4.12197   	2500.000000	4.30703   	2500.000000	0.000262057	
2600.000000	3.77094   	2600.000000	4.32407   	2600.000000	4.35366   	2600.000000	4.122     	2600.000000	4.32382   	2600.000000	0.00025271	
2700.000000	3.79728   	2700.000000	4.3424    	2700.000000	4.35427   	2700.000000	4.12296   	2700.000000	4.34215   	2700.000000	0.000244029	
2800.000000	3.82529   	2800.000000	4.3621    	2800.000000	4.3557    	2800.000000	4.12471   	2800.000000	4.36187   	2800.000000	0.000235944	
2900.000000	3.85483   	2900.000000	4.38304   	2900.000000	4.35784   	2900.000000	4.12714   	2900.000000	4.38281   	2900.000000	0.000228396	
3000.000000	3.88576   	3000.000000	4.40508   	3000.000000	4.36058   	3000.000000	4.13016   	3000.000000	4.40486   	3000.000000	0.000221331	
3200.000000	3.95142   	3200.000000	4.45207   	3200.000000	4.36756   	3200.000000	4.13763   	3200.000000	4.45186   	3200.000000	0.000208477	
3400.000000	4.02156   	3400.000000	4.50234   	3400.000000	4.37608   	3400.000000	4.14659   	3400.000000	4.50214   	3400.000000	0.000197079	
3600.000000	4.0956    	3600.000000	4.55533   	3600.000000	4.38573   	3600.000000	4.15665   	3600.000000	4.55514   	3600.000000	0.000186901	
3800.000000	4.1731    	3800.000000	4.61058   	3800.000000	4.39622   	3800.000000	4.16752   	3800.000000	4.6104    	3800.000000	0.000177754	
4000.000000	4.2537    	4000.000000	4.66775   	4000.000000	4.4073    	4000.000000	4.17897   	4000.000000	4.66759   	4000.000000	0.000169489	
4200.000000	4.3371    	4200.000000	4.72655   	4200.000000	4.41881   	4200.000000	4.19082   	4200.000000	4.72639   	4200.000000	0.000161982	
4400.000000	4.42305   	4400.000000	4.78675   	4400.000000	4.4306    	4400.000000	4.20296   	4400.000000	4.78659   	4400.000000	0.000155132	
4600.000000	4.51136   	4600.000000	4.84813   	4600.000000	4.44257   	4600.000000	4.21526   	4600.000000	4.84798   	4600.000000	0.000148856	
4800.000000	4.60185   	4800.000000	4.91056   	4800.000000	4.45464   	4800.000000	4.22766   	4800.000000	4.91041   	4800.000000	0.000143085	
5000.000000	4.69438   	5000.000000	4.97388   	5000.000000	4.46675   	5000.000000	4.24009   	5000.000000	4.97374   	5000.000000	0.000137757	
5250.000000	4.81273   	5250.000000	5.05412   	5250.000000	4.48187   	5250.000000	4.2556    	5250.000000	5.05399   	5250.000000	0.000131649	
5500.000000	4.93387   	5500.000000	5.13541   	5500.000000	4.4969    	5500.000000	4.27102   	5500.000000	5.13529   	5500.000000	0.000126075	
6000.000000	5.1839    	6000.000000	5.30052   	6000.000000	4.52656   	6000.000000	4.30135   	6000.000000	5.3004    	6000.000000	0.000116273	
6500.000000	5.44343   	6500.000000	5.46826   	6500.000000	4.55549   	6500.000000	4.33084   	6500.000000	5.46815   	6500.000000	0.000107926	
7000.000000	5.7117    	7000.000000	5.63796   	7000.000000	4.58319   	7000.000000	4.35934   	7000.000000	5.63785   	7000.000000	0.000100731	
7500.000000	5.98815   	7500.000000	5.80913   	7500.000000	4.61002   	7500.000000	4.38681   	7500.000000	5.80904   	7500.000000	9.44623e-05	
8000.000000	6.27237   	8000.000000	5.98143   	8000.000000	4.63578   	8000.000000	4.41324   	8000.000000	5.98134   	8000.000000	8.895e-05 	
8500.000000	6.56403   	8500.000000	6.15458   	8500.000000	4.66044   	8500.000000	4.43866   	8500.000000	6.1545    	8500.000000	8.40638e-05	
9000.000000	6.86289   	9000.000000	6.32838   	9000.000000	4.6841    	9000.000000	4.4631    	9000.000000	6.3283    	9000.000000	7.97019e-05	
9500.000000	7.16875   	9500.000000	6.50266   	9500.000000	4.70688   	9500.000000	4.4866    	9500.000000	6.50259   	9500.000000	7.57833e-05	
10000.000000	7.48143   	10000.000000	6.67731   	10000.000000	4.72881   	10000.000000	4.50922   	10000.000000	6.67724   	10000.000000	7.22431e-05	
11000.000000	8.12684   	11000.000000	7.02732   	11000.000000	4.77008   	11000.000000	4.552     	11000.000000	7.02726   	11000.000000	6.60961e-05	
12000.000000	8.79836   	12000.000000	7.37785   	12000.000000	4.8081    	12000.000000	4.59178   	12000.000000	7.37779   	12000.000000	6.094e-05 	
13000.000000	9.49548   	13000.000000	7.72851   	13000.000000	4.84346   	13000.000000	4.62892   	13000.000000	7.72845   	13000.000000	5.65512e-05	
14000.000000	10.2179   	14000.000000	8.07907   	14000.000000	4.87662   	14000.000000	4.6637    	14000.000000	8.07902   	14000.000000	5.27687e-05	
15000.000000	10.9653   	15000.000000	8.42936   	15000.000000	4.90772   	15000.000000	4.69637   	15000.000000	8.42931   	15000.000000	4.94741e-05	
16000.000000	11.7376   	16000.000000	8.77927   	16000.000000	4.93671   	16000.000000	4.72716   	16000.000000	8.77922   	16000.000000	4.65777e-05	
17000.000000	12.5348   	17000.000000	9.12872   	17000.000000	4.96376   	17000.000000	4.75626   	17000.000000	9.12868   	17000.000000	4.4011e-05	
18000.000000	13.3567   	18000.000000	9.47767   	18000.000000	4.98907   	18000.000000	4.78383   	18000.000000	9.47763   	18000.000000	4.172e-05 	
19000.000000	14.2034   	19000.000000	9.82609   	19000.000000	5.01288   	19000.000000	4.81002   	19000.000000	9.82605   	19000.000000	3.96624e-05	
20000.000000	15.0749   	20000.000000	10.174    	20000.000000	5.03539   	20000.000000	4.83496   	20000.000000	10.1739   	20000.000000	3.78037e-05	
21000.000000	15.9712   	21000.000000	10.5213   	21000.000000	5.05681   	21000.000000	4.85874   	21000.000000	10.5212   	21000.000000	3.61163e-05	
22000.000000	16.8923   	22000.000000	10.868    	22000.000000	5.0773    	22000.000000	4.88147   	22000.000000	10.868    	22000.000000	3.45773e-05	
23000.000000	17.8384   	23000.000000	11.2141   	23000.000000	5.09663   	23000.000000	4.90324   	23000.000000	11.2141   	23000.000000	3.31678e-05	
24000.000000	18.8095   	24000.000000	11.5598   	24000.000000	5.11494   	24000.000000	4.92412   	24000.000000	11.5597   	24000.000000	3.18718e-05	
25000.000000	19.8056   	25000.000000	11.9048   	25000.000000	5.13245   	25000.000000	4.94417   	25000.000000	11.9048   	25000.000000	3.06762e-05	
26000.000000	20.827    	26000.000000	12.2493   	26000.000000	5.14913   	26000.000000	4.96346   	26000.000000	12.2493   	26000.000000	2.95696e-05	
27000.000000	21.8736   	27000.000000	12.5932   	27000.000000	5.16502   	27000.000000	4.98205   	27000.000000	12.5932   	27000.000000	2.85423e-05	
28000.000000	22.9456   	28000.000000	12.9367   	28000.000000	5.18017   	28000.000000	4.99997   	28000.000000	12.9366   	28000.000000	2.75859e-05	
29000.000000	24.0431   	29000.000000	13.2796   	29000.000000	5.19468   	29000.000000	5.01728   	29000.000000	13.2795   	29000.000000	2.66934e-05	
30000.000000	25.1662   	30000.000000	13.622    	30000.000000	5.20858   	30000.000000	5.03402   	30000.000000	13.6219   	30000.000000	2.58585e-05	
32000.000000	27.4897   	32000.000000	14.3053   	32000.000000	5.23476   	32000.000000	5.0659    	32000.000000	14.3052   	32000.000000	2.43402e-05	
34000.000000	29.9171   	34000.000000	14.9867   	34000.000000	5.25893   	34000.000000	5.09588   	34000.000000	14.9866   	34000.000000	2.2995e-05	
36000.000000	32.4494   	36000.000000	15.6662   	36000.000000	5.28113   	36000.000000	5.12415   	36000.000000	15.6662   	36000.000000	2.17946e-05	
38000.000000	35.0876   	38000.000000	16.3441   	38000.000000	5.30154   	38000.000000	5.15091   	38000.000000	16.344    	38000.000000	2.07165e-05	
40000.000000	37.8328   	40000.000000	17.0202   	40000.000000	5.32041   	40000.000000	5.1763    	40000.000000	17.0202   	40000.000000	1.9743e-05	
42000.000000	40.6861   	42000.000000	17.6947   	42000.000000	5.33801   	42000.000000	5.20045   	42000.000000	17.6947   	42000.000000	1.88592e-05	
44000.000000	43.6486   	44000.000000	18.3678   	44000.000000	5.35457   	44000.000000	5.22348   	44000.000000	18.3677   	44000.000000	1.80533e-05	
46000.000000	46.7215   	46000.000000	19.0393   	46000.000000	5.37028   	46000.000000	5.24549   	46000.000000	19.0393   	46000.000000	1.73153e-05	
48000.000000	49.906    	48000.000000	19.7094   	48000.000000	5.38515   	48000.000000	5.26656   	48000.000000	19.7094   	48000.000000	1.66368e-05	
50000.000000	53.2031   	50000.000000	20.3782   	50000.000000	5.39901   	50000.000000	5.28676   	50000.000000	20.3782   	50000.000000	1.6011e-05	
