Energy (MeV/u)1	0 - [He-base] F.Hubert et al, AD&ND Tables 46(1990)1	Energy (MeV/u)2	1 - [H -base] J.F.Ziegler et al, Pergamon Press, NY (low energy)	Energy (MeV/u)3	2 - ATIMA 1.2  LS-theory (recommended for high energy)	Energy (MeV/u)4	3 - ATIMA 1.2  without LS-correction	Energy (MeV/u)5	4 - electrical component of [1] - J.F.Ziegler et al	Energy (MeV/u)6	5 - nuclear component of [1] - J.F.Ziegler et al	
0.001000	1.44265   	0.001000	1.44265   	0.001000	1.59774   	0.001000	1.59774   	0.001000	0.528038  	0.001000	0.914613  	
0.002000	1.46839   	0.002000	1.46839   	0.002000	1.67361   	0.002000	1.67361   	0.002000	0.705838  	0.002000	0.762555  	
0.005000	1.55886   	0.005000	1.55886   	0.005000	1.85977   	0.005000	1.85977   	0.005000	1.03763   	0.005000	0.521236  	
0.008000	1.67179   	0.008000	1.67179   	0.008000	2.04004   	0.008000	2.04004   	0.008000	1.2653    	0.008000	0.406493  	
0.010000	1.7479    	0.010000	1.7479    	0.010000	2.15373   	0.010000	2.15373   	0.010000	1.3905    	0.010000	0.357394  	
0.015000	1.96044   	0.015000	1.96044   	0.015000	2.43922   	0.015000	2.43922   	0.015000	1.68189   	0.015000	0.278546  	
0.020000	2.34081   	0.020000	2.34081   	0.020000	2.85967   	0.020000	2.85967   	0.020000	2.10988   	0.020000	0.230925  	
0.025000	2.73096   	0.025000	2.73096   	0.025000	3.29064   	0.025000	3.29064   	0.025000	2.53236   	0.025000	0.198601  	
0.030000	3.12008   	0.030000	3.12008   	0.030000	3.63491   	0.030000	3.63491   	0.030000	2.94597   	0.030000	0.174111  	
0.035000	3.50333   	0.035000	3.50333   	0.035000	3.96884   	0.035000	3.96884   	0.035000	3.34716   	0.035000	0.156171  	
0.040000	3.87433   	0.040000	3.87433   	0.040000	4.28984   	0.040000	4.28984   	0.040000	3.73241   	0.040000	0.141919  	
0.045000	4.21884   	0.045000	4.21884   	0.045000	4.59646   	0.045000	4.59646   	0.045000	4.08908   	0.045000	0.129757  	
0.050000	4.54653   	0.050000	4.54653   	0.050000	4.88933   	0.050000	4.88933   	0.050000	4.42641   	0.050000	0.120114  	
0.055000	4.8561    	0.055000	4.8561    	0.055000	5.16764   	0.055000	5.16764   	0.055000	4.74416   	0.055000	0.111936  	
0.060000	5.14717   	0.060000	5.14717   	0.060000	5.43145   	0.060000	5.43145   	0.060000	5.04227   	0.060000	0.104901  	
0.070000	5.67465   	0.070000	5.67465   	0.070000	5.91651   	0.070000	5.91651   	0.070000	5.58125   	0.070000	0.0933985 	
0.080000	6.13361   	0.080000	6.13361   	0.080000	6.3477    	0.080000	6.3477    	0.080000	6.04924   	0.080000	0.0843637 	
0.090000	6.5391    	0.090000	6.5391    	0.090000	6.7294    	0.090000	6.7294    	0.090000	6.46204   	0.090000	0.0770599 	
0.100000	6.89871   	0.100000	6.89871   	0.100000	7.06649   	0.100000	7.06649   	0.100000	6.82769   	0.100000	0.0710203 	
0.120000	7.48331   	0.120000	7.48331   	0.120000	7.6262    	0.120000	7.6262    	0.120000	7.42173   	0.120000	0.0615867 	
0.140000	7.92934   	0.140000	7.92934   	0.140000	8.06211   	0.140000	8.06211   	0.140000	7.87481   	0.140000	0.0545301 	
0.160000	8.2709    	0.160000	8.2709    	0.160000	8.4026    	0.160000	8.4026    	0.160000	8.22187   	0.160000	0.0490338 	
0.180000	8.50929   	0.180000	8.50929   	0.180000	8.66925   	0.180000	8.66925   	0.180000	8.46467   	0.180000	0.0446206 	
0.200000	8.69698   	0.200000	8.69698   	0.200000	8.87823   	0.200000	8.87823   	0.200000	8.65599   	0.200000	0.0409917 	
0.250000	9.0152    	0.250000	9.0152    	0.250000	9.22127   	0.250000	9.22127   	0.250000	8.98099   	0.250000	0.0342051 	
0.300000	9.24893   	0.300000	9.24893   	0.300000	9.39734   	0.300000	9.39734   	0.300000	9.21947   	0.300000	0.0294655 	
0.350000	9.4291    	0.350000	9.4291    	0.350000	9.47459   	0.350000	9.47459   	0.350000	9.40315   	0.350000	0.0259528 	
0.400000	9.52979   	0.400000	9.52979   	0.400000	9.49225   	0.400000	9.49225   	0.400000	9.50655   	0.400000	0.0232367 	
0.450000	9.57744   	0.450000	9.57744   	0.450000	9.57103   	0.450000	9.57103   	0.450000	9.55638   	0.450000	0.0210688 	
0.500000	9.60629   	0.500000	9.60629   	0.500000	9.6154    	0.500000	9.6154    	0.500000	9.58699   	0.500000	0.0192952 	
0.600000	9.6       	0.600000	9.6       	0.600000	9.60628   	0.600000	9.60628   	0.600000	9.58344   	0.600000	0.0165599 	
0.700000	9.59141   	0.700000	9.59141   	0.700000	9.52209   	0.700000	9.52209   	0.700000	9.57687   	0.700000	0.0145425 	
0.800000	9.52876   	0.800000	9.52876   	0.800000	9.35599   	0.800000	9.35599   	0.800000	9.51577   	0.800000	0.0129887 	
0.900000	9.36606   	0.900000	9.36606   	0.900000	9.17907   	0.900000	9.17907   	0.900000	9.35431   	0.900000	0.0117525 	
1.000000	9.18473   	1.000000	9.18473   	1.000000	8.99952   	1.000000	8.99952   	1.000000	9.17398   	1.000000	0.0107439 	
1.250000	8.70025   	1.250000	8.70025   	1.250000	8.55619   	1.250000	8.55619   	1.250000	8.69137   	1.250000	0.00887748	
1.500000	8.23311   	1.500000	8.23311   	1.500000	8.08415   	1.500000	8.08415   	1.500000	8.22552   	1.500000	0.00759015	
1.750000	7.80044   	1.750000	7.80044   	1.750000	7.67088   	1.750000	7.67088   	1.750000	7.79379   	1.750000	0.00664516	
2.000000	7.40859   	2.000000	7.40859   	2.000000	7.30195   	2.000000	7.30195   	2.000000	7.40267   	2.000000	0.00592012	
2.250000	7.0553    	2.250000	7.0553    	2.250000	6.96875   	2.250000	6.96875   	2.250000	7.04996   	2.250000	0.00534512	
2.500000	6.90307   	2.500000	6.73453   	2.500000	6.66563   	2.500000	6.66563   	2.500000	6.72966   	2.500000	0.00487727	
3.000000	6.31808   	3.000000	6.1746    	3.000000	6.13386   	3.000000	6.13386   	3.000000	6.17044   	3.000000	0.00416051	
3.500000	5.82043   	3.500000	5.69713   	3.500000	5.68247   	3.500000	5.68247   	3.500000	5.69349   	3.500000	0.00363581	
4.000000	5.39494   	4.000000	5.29258   	4.000000	5.29465   	4.000000	5.29465   	4.000000	5.28934   	4.000000	0.00323414	
4.500000	5.02825   	4.500000	4.94617   	4.500000	4.95798   	4.500000	4.95798   	4.500000	4.94325   	4.500000	0.00291619	
5.000000	4.70954   	5.000000	4.64569   	5.000000	4.66304   	5.000000	4.66304   	5.000000	4.64303   	5.000000	0.0026579 	
5.500000	4.43025   	5.500000	4.38198   	5.500000	4.40256   	5.500000	4.40256   	5.500000	4.37954   	5.500000	0.00244368	
6.000000	4.18363   	6.000000	4.14744   	6.000000	4.17082   	6.000000	4.17082   	6.000000	4.14517   	6.000000	0.00226298	
6.500000	3.96434   	6.500000	3.93898   	6.500000	3.96331   	6.500000	3.96331   	6.500000	3.93687   	6.500000	0.00210838	
7.000000	3.76809   	7.000000	3.75222   	7.000000	3.77639   	7.000000	3.77639   	7.000000	3.75025   	7.000000	0.00197452	
7.500000	3.59145   	7.500000	3.58377   	7.500000	3.60714   	7.500000	3.60714   	7.500000	3.58191   	7.500000	0.00185744	
8.000000	3.43162   	8.000000	3.43093   	8.000000	3.45313   	8.000000	3.45313   	8.000000	3.42918   	8.000000	0.00175411	
8.500000	3.2863    	8.500000	3.29156   	8.500000	3.31238   	8.500000	3.31238   	8.500000	3.2899    	8.500000	0.00166221	
9.000000	3.15361   	9.000000	3.16389   	9.000000	3.18324   	9.000000	3.18324   	9.000000	3.16231   	9.000000	0.00157991	
9.500000	3.03195   	9.500000	3.04647   	9.500000	3.0643    	9.500000	3.0643    	9.500000	3.04497   	9.500000	0.00150576	
10.000000	2.92      	10.000000	2.95866   	10.000000	2.9544    	10.000000	2.9544    	10.000000	2.95722   	10.000000	0.00143858	
11.000000	2.72088   	11.000000	2.76385   	11.000000	2.75425   	11.000000	2.75874   	11.000000	2.76253   	11.000000	0.0013215 	
12.000000	2.5491    	12.000000	2.59395   	12.000000	2.58052   	12.000000	2.58806   	12.000000	2.59273   	12.000000	0.00122285	
13.000000	2.39933   	13.000000	2.44454   	13.000000	2.42825   	13.000000	2.4379    	13.000000	2.4434    	13.000000	0.00113852	
14.000000	2.26757   	14.000000	2.31218   	14.000000	2.29373   	14.000000	2.30479   	14.000000	2.31111   	14.000000	0.00106557	
15.000000	2.15072   	15.000000	2.19412   	15.000000	2.17406   	15.000000	2.18602   	15.000000	2.19312   	15.000000	0.00100181	
16.000000	2.04635   	16.000000	2.0882    	16.000000	2.06687   	16.000000	2.0794    	16.000000	2.08725   	16.000000	0.000945574	
17.000000	1.95256   	17.000000	1.99263   	17.000000	1.97029   	17.000000	1.98317   	17.000000	1.99173   	17.000000	0.000895592	
18.000000	1.86778   	18.000000	1.90598   	18.000000	1.8829    	18.000000	1.89591   	18.000000	1.90513   	18.000000	0.00085086	
19.000000	1.79077   	19.000000	1.82707   	19.000000	1.80347   	19.000000	1.81644   	19.000000	1.82626   	19.000000	0.000810579	
20.000000	1.72049   	20.000000	1.75489   	20.000000	1.73097   	20.000000	1.74376   	20.000000	1.75412   	20.000000	0.000774106	
21.000000	1.65608   	21.000000	1.68863   	21.000000	1.66454   	21.000000	1.67707   	21.000000	1.68789   	21.000000	0.000740919	
22.000000	1.59683   	22.000000	1.62759   	22.000000	1.60341   	22.000000	1.61566   	22.000000	1.62688   	22.000000	0.000710585	
23.000000	1.54213   	23.000000	1.57117   	23.000000	1.547     	23.000000	1.55895   	23.000000	1.57049   	23.000000	0.000682747	
24.000000	1.49147   	24.000000	1.51887   	24.000000	1.49481   	24.000000	1.50643   	24.000000	1.51821   	24.000000	0.000657104	
25.000000	1.44441   	25.000000	1.47025   	25.000000	1.4464    	25.000000	1.45766   	25.000000	1.46961   	25.000000	0.000633402	
27.000000	1.35964   	27.000000	1.38259   	27.000000	1.35944   	27.000000	1.36994   	27.000000	1.382     	27.000000	0.000590992	
29.000000	1.28537   	29.000000	1.30574   	29.000000	1.28356   	29.000000	1.29331   	29.000000	1.30518   	29.000000	0.000554131	
31.000000	1.21973   	31.000000	1.2378    	31.000000	1.21746   	31.000000	1.22602   	31.000000	1.23728   	31.000000	0.000521783	
33.000000	1.16128   	33.000000	1.1773    	33.000000	1.15925   	33.000000	1.16634   	33.000000	1.17681   	33.000000	0.000493157	
35.000000	1.10889   	35.000000	1.12308   	35.000000	1.10696   	35.000000	1.11289   	35.000000	1.12262   	35.000000	0.000467635	
38.000000	1.0397    	38.000000	1.05152   	38.000000	1.03791   	38.000000	1.04236   	38.000000	1.05109   	38.000000	0.00043414	
41.000000	0.979742  	41.000000	0.989573  	41.000000	0.977961  	41.000000	0.981318  	41.000000	0.989168  	41.000000	0.000405305	
44.000000	0.92726   	44.000000	0.935404  	44.000000	0.925476  	44.000000	0.927934  	44.000000	0.935023  	44.000000	0.000380209	
47.000000	0.88091   	47.000000	0.887625  	47.000000	0.879052  	47.000000	0.880833  	47.000000	0.887267  	47.000000	0.00035816	
50.000000	0.839659  	50.000000	0.845159  	50.000000	0.837705  	50.000000	0.838952  	50.000000	0.84482   	50.000000	0.000338627	
55.000000	0.780104  	55.000000	0.783968  	55.000000	0.778065  	55.000000	0.77856   	55.000000	0.783657  	55.000000	0.000310584	
60.000000	0.729696  	60.000000	0.732305  	60.000000	0.727604  	60.000000	0.72752   	60.000000	0.732018  	60.000000	0.000286996	
65.000000	0.686441  	65.000000	0.688087  	65.000000	0.684289  	65.000000	0.683788  	65.000000	0.68782   	65.000000	0.000266867	
70.000000	0.648888  	70.000000	0.649798  	70.000000	0.64673   	70.000000	0.645881  	70.000000	0.649549  	70.000000	0.000249479	
75.000000	0.615958  	75.000000	0.61631   	75.000000	0.61379   	75.000000	0.612692  	75.000000	0.616076  	75.000000	0.000234302	
80.000000	0.586828  	80.000000	0.586765  	80.000000	0.584603  	80.000000	0.583381  	80.000000	0.586544  	80.000000	0.000220934	
85.000000	0.560863  	85.000000	0.560498  	85.000000	0.558702  	85.000000	0.557299  	85.000000	0.560289  	85.000000	0.000209066	
90.000000	0.537563  	90.000000	0.536988  	90.000000	0.535491  	90.000000	0.533935  	90.000000	0.53679   	90.000000	0.000198456	
95.000000	0.516528  	95.000000	0.515819  	95.000000	0.514499  	95.000000	0.512879  	95.000000	0.51563   	95.000000	0.000188911	
100.000000	0.497435  	100.000000	0.496654  	100.000000	0.495477  	100.000000	0.493802  	100.000000	0.496473  	100.000000	0.000180277	
105.000000	0.480022  	105.000000	0.479218  	105.000000	0.478218  	105.000000	0.476436  	105.000000	0.479046  	105.000000	0.000172427	
110.000000	0.46407   	110.000000	0.463287  	110.000000	0.46239   	110.000000	0.460558  	110.000000	0.463121  	110.000000	0.000165259	
115.000000	0.449398  	115.000000	0.448671  	115.000000	0.447844  	115.000000	0.445983  	115.000000	0.448512  	115.000000	0.000158685	
120.000000	0.435855  	120.000000	0.435213  	120.000000	0.434448  	120.000000	0.432555  	120.000000	0.43506   	120.000000	0.000152634	
125.000000	0.423311  	125.000000	0.422779  	125.000000	0.422062  	125.000000	0.420145  	125.000000	0.422632  	125.000000	0.000147045	
130.000000	0.411658  	130.000000	0.411257  	130.000000	0.410578  	130.000000	0.408639  	130.000000	0.411115  	130.000000	0.000141867	
135.000000	0.400801  	135.000000	0.400548  	135.000000	0.3999    	135.000000	0.397941  	135.000000	0.400411  	135.000000	0.000137054	
140.000000	0.390659  	140.000000	0.390569  	140.000000	0.389943  	140.000000	0.38797   	140.000000	0.390436  	140.000000	0.000132571	
145.000000	0.381162  	145.000000	0.381247  	145.000000	0.380643  	145.000000	0.378652  	145.000000	0.381119  	145.000000	0.000128382	
150.000000	0.372248  	150.000000	0.372519  	150.000000	0.371933  	150.000000	0.369927  	150.000000	0.372395  	150.000000	0.00012446	
155.000000	0.361331  	155.000000	0.36433   	155.000000	0.363729  	155.000000	0.361738  	155.000000	0.364209  	155.000000	0.00012078	
160.000000	0.353917  	160.000000	0.356631  	160.000000	0.356012  	160.000000	0.354038  	160.000000	0.356514  	160.000000	0.000117319	
165.000000	0.346923  	165.000000	0.349379  	165.000000	0.348769  	165.000000	0.346785  	165.000000	0.349265  	165.000000	0.000114059	
170.000000	0.340313  	170.000000	0.342536  	170.000000	0.341935  	170.000000	0.33994   	170.000000	0.342425  	170.000000	0.000110982	
175.000000	0.334057  	175.000000	0.336069  	175.000000	0.335471  	175.000000	0.33347   	175.000000	0.335961  	175.000000	0.000108073	
180.000000	0.328126  	180.000000	0.329947  	180.000000	0.329355  	180.000000	0.327345  	180.000000	0.329841  	180.000000	0.000105319	
185.000000	0.322495  	185.000000	0.324143  	185.000000	0.323544  	185.000000	0.321539  	185.000000	0.32404   	185.000000	0.000102706	
190.000000	0.317142  	190.000000	0.318633  	190.000000	0.318013  	190.000000	0.316027  	190.000000	0.318533  	190.000000	0.000100226	
195.000000	0.312046  	195.000000	0.313395  	195.000000	0.312768  	195.000000	0.310787  	195.000000	0.313297  	195.000000	9.78665e-05	
200.000000	0.307189  	200.000000	0.30841   	200.000000	0.307789  	200.000000	0.305801  	200.000000	0.308314  	200.000000	9.562e-05 	
210.000000	0.298128  	210.000000	0.299128  	210.000000	0.298478  	210.000000	0.296517  	210.000000	0.299036  	210.000000	9.14342e-05	
220.000000	0.289842  	220.000000	0.290662  	220.000000	0.290015  	220.000000	0.288052  	220.000000	0.290574  	220.000000	8.76125e-05	
230.000000	0.282236  	230.000000	0.28291   	230.000000	0.282241  	230.000000	0.280303  	230.000000	0.282826  	230.000000	8.4109e-05	
240.000000	0.275227  	240.000000	0.275785  	240.000000	0.27512   	240.000000	0.273184  	240.000000	0.275704  	240.000000	8.08849e-05	
250.000000	0.268749  	250.000000	0.269215  	250.000000	0.268543  	250.000000	0.266623  	250.000000	0.269137  	250.000000	7.79078e-05	
260.000000	0.262743  	260.000000	0.263138  	260.000000	0.262462  	260.000000	0.260556  	260.000000	0.263062  	260.000000	7.51499e-05	
270.000000	0.257158  	270.000000	0.2575    	270.000000	0.256837  	270.000000	0.254932  	270.000000	0.257427  	270.000000	7.25877e-05	
280.000000	0.251953  	280.000000	0.252256  	280.000000	0.251584  	280.000000	0.249703  	280.000000	0.252186  	280.000000	7.02007e-05	
290.000000	0.247089  	290.000000	0.247368  	290.000000	0.246713  	290.000000	0.244832  	290.000000	0.2473    	290.000000	6.79713e-05	
300.000000	0.242535  	300.000000	0.242799  	300.000000	0.242157  	300.000000	0.240283  	300.000000	0.242733  	300.000000	6.58844e-05	
310.000000	0.238262  	310.000000	0.238521  	310.000000	0.237875  	310.000000	0.236026  	310.000000	0.238457  	310.000000	6.39264e-05	
320.000000	0.234244  	320.000000	0.234507  	320.000000	0.233864  	320.000000	0.232035  	320.000000	0.234445  	320.000000	6.20856e-05	
330.000000	0.23046   	330.000000	0.230733  	330.000000	0.230112  	330.000000	0.228286  	330.000000	0.230673  	330.000000	6.03517e-05	
340.000000	0.22689   	340.000000	0.22718   	340.000000	0.226585  	340.000000	0.224759  	340.000000	0.227121  	340.000000	5.87155e-05	
350.000000	0.223517  	350.000000	0.223829  	350.000000	0.223245  	350.000000	0.221435  	350.000000	0.223772  	350.000000	5.71689e-05	
360.000000	0.220325  	360.000000	0.220663  	360.000000	0.220088  	360.000000	0.218297  	360.000000	0.220607  	360.000000	5.57047e-05	
370.000000	0.217301  	370.000000	0.217668  	370.000000	0.217107  	370.000000	0.215331  	370.000000	0.217614  	370.000000	5.43163e-05	
380.000000	0.214431  	380.000000	0.214831  	380.000000	0.214298  	380.000000	0.212524  	380.000000	0.214778  	380.000000	5.29979e-05	
390.000000	0.211704  	390.000000	0.21214   	390.000000	0.211639  	390.000000	0.209864  	390.000000	0.212089  	390.000000	5.17443e-05	
400.000000	0.209111  	400.000000	0.209585  	400.000000	0.209106  	400.000000	0.207341  	400.000000	0.209534  	400.000000	5.05508e-05	
410.000000	0.206642  	410.000000	0.207155  	410.000000	0.206693  	410.000000	0.204943  	410.000000	0.207106  	410.000000	4.94131e-05	
420.000000	0.204288  	420.000000	0.204843  	420.000000	0.204398  	420.000000	0.202664  	420.000000	0.204795  	420.000000	4.83274e-05	
430.000000	0.202042  	430.000000	0.20264   	430.000000	0.202219  	430.000000	0.200494  	430.000000	0.202593  	430.000000	4.729e-05 	
440.000000	0.199897  	440.000000	0.200539  	440.000000	0.20015   	440.000000	0.198426  	440.000000	0.200492  	440.000000	4.62979e-05	
450.000000	0.197847  	450.000000	0.198533  	450.000000	0.198178  	450.000000	0.196454  	450.000000	0.198488  	450.000000	4.5348e-05	
460.000000	0.195885  	460.000000	0.196617  	460.000000	0.19629   	460.000000	0.194571  	460.000000	0.196572  	460.000000	4.44378e-05	
470.000000	0.194007  	470.000000	0.194784  	470.000000	0.194481  	470.000000	0.192773  	470.000000	0.19474   	470.000000	4.35647e-05	
480.000000	0.192208  	480.000000	0.19303   	480.000000	0.19275   	480.000000	0.191053  	480.000000	0.192987  	480.000000	4.27264e-05	
490.000000	0.190482  	490.000000	0.19135   	490.000000	0.191095  	490.000000	0.189407  	490.000000	0.191308  	490.000000	4.1921e-05	
500.000000	0.188826  	500.000000	0.18974   	500.000000	0.18951   	500.000000	0.187832  	500.000000	0.189699  	500.000000	4.11465e-05	
520.000000	0.185707  	520.000000	0.186714  	520.000000	0.186533  	520.000000	0.184873  	520.000000	0.186674  	520.000000	3.96833e-05	
540.000000	0.182825  	540.000000	0.183922  	540.000000	0.183803  	540.000000	0.182149  	540.000000	0.183884  	540.000000	3.8324e-05	
560.000000	0.180155  	560.000000	0.181341  	560.000000	0.181286  	560.000000	0.179634  	560.000000	0.181304  	560.000000	3.7058e-05	
580.000000	0.177675  	580.000000	0.178948  	580.000000	0.178945  	580.000000	0.177307  	580.000000	0.178912  	580.000000	3.58759e-05	
600.000000	0.175369  	600.000000	0.176727  	600.000000	0.176774  	600.000000	0.17515   	600.000000	0.176692  	600.000000	3.47694e-05	
620.000000	0.17322   	620.000000	0.17466   	620.000000	0.174758  	620.000000	0.173146  	620.000000	0.174626  	620.000000	3.37314e-05	
640.000000	0.171214  	640.000000	0.172734  	640.000000	0.172879  	640.000000	0.171281  	640.000000	0.172701  	640.000000	3.27558e-05	
660.000000	0.169339  	660.000000	0.170936  	660.000000	0.171132  	660.000000	0.169543  	660.000000	0.170904  	660.000000	3.18369e-05	
680.000000	0.167585  	680.000000	0.169255  	680.000000	0.169508  	680.000000	0.167919  	680.000000	0.169224  	680.000000	3.097e-05 	
700.000000	0.16594   	700.000000	0.167681  	700.000000	0.167988  	700.000000	0.166401  	700.000000	0.167651  	700.000000	3.01506e-05	
720.000000	0.164397  	720.000000	0.166206  	720.000000	0.166558  	720.000000	0.164979  	720.000000	0.166177  	720.000000	2.9375e-05	
740.000000	0.162949  	740.000000	0.164822  	740.000000	0.165214  	740.000000	0.163646  	740.000000	0.164794  	740.000000	2.86396e-05	
760.000000	0.161587  	760.000000	0.163522  	760.000000	0.163953  	760.000000	0.162395  	760.000000	0.163494  	760.000000	2.79415e-05	
780.000000	0.160305  	780.000000	0.162299  	780.000000	0.162769  	780.000000	0.161218  	780.000000	0.162272  	780.000000	2.72777e-05	
800.000000	0.159099  	800.000000	0.161148  	800.000000	0.161655  	800.000000	0.160112  	800.000000	0.161122  	800.000000	2.66458e-05	
820.000000	0.157962  	820.000000	0.160064  	820.000000	0.160608  	820.000000	0.159072  	820.000000	0.160038  	820.000000	2.60435e-05	
840.000000	0.156891  	840.000000	0.159042  	840.000000	0.159631  	840.000000	0.158103  	840.000000	0.159016  	840.000000	2.54688e-05	
860.000000	0.15588   	860.000000	0.158078  	860.000000	0.158709  	860.000000	0.157188  	860.000000	0.158053  	860.000000	2.49198e-05	
880.000000	0.154926  	880.000000	0.157167  	880.000000	0.157839  	880.000000	0.156325  	880.000000	0.157143  	880.000000	2.43948e-05	
900.000000	0.154025  	900.000000	0.156308  	900.000000	0.15702   	900.000000	0.155509  	900.000000	0.156284  	900.000000	2.38921e-05	
920.000000	0.153175  	920.000000	0.155495  	920.000000	0.156248  	920.000000	0.154738  	920.000000	0.155472  	920.000000	2.34105e-05	
940.000000	0.152371  	940.000000	0.154727  	940.000000	0.155519  	940.000000	0.154008  	940.000000	0.154704  	940.000000	2.29486e-05	
960.000000	0.151612  	960.000000	0.154     	960.000000	0.154826  	960.000000	0.153317  	960.000000	0.153978  	960.000000	2.25052e-05	
980.000000	0.150894  	980.000000	0.153313  	980.000000	0.154168  	980.000000	0.152662  	980.000000	0.153291  	980.000000	2.20792e-05	
1000.000000	0.150216  	1000.000000	0.152662  	1000.000000	0.153542  	1000.000000	0.152042  	1000.000000	0.15264   	1000.000000	2.16696e-05	
1020.000000	0.149575  	1020.000000	0.152046  	1020.000000	0.152948  	1020.000000	0.151454  	1020.000000	0.152025  	1020.000000	2.12754e-05	
1040.000000	0.14897   	1040.000000	0.151463  	1040.000000	0.152384  	1040.000000	0.150895  	1040.000000	0.151442  	1040.000000	2.08958e-05	
1060.000000	0.148397  	1060.000000	0.150911  	1060.000000	0.15185   	1060.000000	0.150366  	1060.000000	0.15089   	1060.000000	2.05299e-05	
1080.000000	0.147857  	1080.000000	0.150387  	1080.000000	0.151342  	1080.000000	0.149862  	1080.000000	0.150367  	1080.000000	2.01771e-05	
1100.000000	0.147346  	1100.000000	0.149892  	1100.000000	0.150861  	1100.000000	0.149385  	1100.000000	0.149872  	1100.000000	1.98367e-05	
1120.000000	0.146864  	1120.000000	0.149423  	1120.000000	0.150403  	1120.000000	0.14893   	1120.000000	0.149403  	1120.000000	1.95079e-05	
1140.000000	0.146409  	1140.000000	0.148979  	1140.000000	0.149967  	1140.000000	0.148499  	1140.000000	0.148959  	1140.000000	1.91902e-05	
1160.000000	0.14598   	1160.000000	0.148558  	1160.000000	0.149553  	1160.000000	0.148088  	1160.000000	0.148539  	1160.000000	1.8883e-05	
1180.000000	0.145575  	1180.000000	0.14816   	1180.000000	0.149159  	1180.000000	0.147698  	1180.000000	0.148141  	1180.000000	1.85859e-05	
1200.000000	0.145194  	1200.000000	0.147783  	1200.000000	0.148784  	1200.000000	0.147327  	1200.000000	0.147765  	1200.000000	1.82983e-05	
1220.000000	0.144835  	1220.000000	0.147426  	1220.000000	0.148428  	1220.000000	0.146974  	1220.000000	0.147408  	1220.000000	1.80197e-05	
1240.000000	0.144498  	1240.000000	0.147089  	1240.000000	0.148089  	1240.000000	0.146637  	1240.000000	0.147071  	1240.000000	1.77498e-05	
1260.000000	0.144181  	1260.000000	0.14677   	1260.000000	0.147766  	1260.000000	0.146318  	1260.000000	0.146753  	1260.000000	1.74882e-05	
1280.000000	0.143883  	1280.000000	0.146469  	1280.000000	0.147458  	1280.000000	0.146013  	1280.000000	0.146452  	1280.000000	1.72344e-05	
1300.000000	0.143604  	1300.000000	0.146185  	1300.000000	0.147165  	1300.000000	0.145723  	1300.000000	0.146168  	1300.000000	1.69881e-05	
1320.000000	0.143343  	1320.000000	0.145916  	1320.000000	0.146886  	1320.000000	0.145447  	1320.000000	0.145899  	1320.000000	1.6749e-05	
1340.000000	0.1431    	1340.000000	0.145663  	1340.000000	0.146621  	1340.000000	0.145185  	1340.000000	0.145647  	1340.000000	1.65168e-05	
1360.000000	0.142872  	1360.000000	0.145425  	1360.000000	0.146367  	1360.000000	0.144935  	1360.000000	0.145408  	1360.000000	1.62911e-05	
1380.000000	0.142661  	1380.000000	0.1452    	1380.000000	0.146127  	1380.000000	0.144697  	1380.000000	0.145184  	1380.000000	1.60717e-05	
1400.000000	0.142464  	1400.000000	0.144989  	1400.000000	0.145898  	1400.000000	0.14447   	1400.000000	0.144974  	1400.000000	1.58584e-05	
1420.000000	0.142283  	1420.000000	0.144791  	1420.000000	0.14568   	1420.000000	0.144255  	1420.000000	0.144776  	1420.000000	1.56508e-05	
1440.000000	0.142115  	1440.000000	0.144606  	1440.000000	0.145473  	1440.000000	0.14405   	1440.000000	0.14459   	1440.000000	1.54488e-05	
1460.000000	0.141961  	1460.000000	0.144432  	1460.000000	0.145277  	1460.000000	0.143854  	1460.000000	0.144417  	1460.000000	1.52521e-05	
1480.000000	0.141819  	1480.000000	0.14427   	1480.000000	0.145091  	1480.000000	0.143669  	1480.000000	0.144255  	1480.000000	1.50606e-05	
1500.000000	0.141691  	1500.000000	0.144118  	1500.000000	0.144914  	1500.000000	0.143492  	1500.000000	0.144103  	1500.000000	1.48739e-05	
1520.000000	0.141574  	1520.000000	0.143977  	1520.000000	0.144746  	1520.000000	0.143324  	1520.000000	0.143962  	1520.000000	1.4692e-05	
1540.000000	0.141469  	1540.000000	0.143846  	1540.000000	0.144586  	1540.000000	0.143165  	1540.000000	0.143832  	1540.000000	1.45146e-05	
1560.000000	0.141375  	1560.000000	0.143725  	1560.000000	0.144434  	1560.000000	0.143013  	1560.000000	0.143711  	1560.000000	1.43416e-05	
1580.000000	0.141292  	1580.000000	0.143613  	1580.000000	0.14429   	1580.000000	0.142869  	1580.000000	0.143599  	1580.000000	1.41728e-05	
1600.000000	0.14122   	1600.000000	0.143511  	1600.000000	0.144153  	1600.000000	0.142732  	1600.000000	0.143497  	1600.000000	1.40081e-05	
1620.000000	0.141157  	1620.000000	0.143416  	1620.000000	0.144022  	1620.000000	0.142602  	1620.000000	0.143403  	1620.000000	1.38473e-05	
1640.000000	0.141105  	1640.000000	0.143331  	1640.000000	0.143898  	1640.000000	0.142479  	1640.000000	0.143317  	1640.000000	1.36903e-05	
1660.000000	0.141062  	1660.000000	0.143253  	1660.000000	0.14378   	1660.000000	0.142363  	1660.000000	0.14324   	1660.000000	1.35369e-05	
1680.000000	0.141028  	1680.000000	0.143183  	1680.000000	0.143667  	1680.000000	0.142252  	1680.000000	0.14317   	1680.000000	1.3387e-05	
1700.000000	0.141002  	1700.000000	0.143121  	1700.000000	0.143561  	1700.000000	0.142147  	1700.000000	0.143108  	1700.000000	1.32405e-05	
1750.000000	0.140976  	1750.000000	0.142996  	1750.000000	0.14332   	1750.000000	0.14191   	1750.000000	0.142983  	1750.000000	1.28884e-05	
1800.000000	0.141     	1800.000000	0.142913  	1800.000000	0.14311   	1800.000000	0.141705  	1800.000000	0.142901  	1800.000000	1.25551e-05	
1850.000000	0.14107   	1850.000000	0.142868  	1850.000000	0.14293   	1850.000000	0.141529  	1850.000000	0.142856  	1850.000000	1.22392e-05	
1900.000000	0.141182  	1900.000000	0.142859  	1900.000000	0.142777  	1900.000000	0.141379  	1900.000000	0.142847  	1900.000000	1.19393e-05	
1950.000000	0.141334  	1950.000000	0.142882  	1950.000000	0.142648  	1950.000000	0.141253  	1950.000000	0.14287   	1950.000000	1.16543e-05	
2000.000000	0.141523  	2000.000000	0.142935  	2000.000000	0.142541  	2000.000000	0.141148  	2000.000000	0.142923  	2000.000000	1.13829e-05	
2100.000000	0.142003  	2100.000000	0.143123  	2100.000000	0.142385  	2100.000000	0.140997  	2100.000000	0.143112  	2100.000000	1.08776e-05	
2200.000000	0.142605  	2200.000000	0.143408  	2200.000000	0.142295  	2200.000000	0.140912  	2200.000000	0.143397  	2200.000000	1.04167e-05	
2300.000000	0.143316  	2300.000000	0.143777  	2300.000000	0.142261  	2300.000000	0.140883  	2300.000000	0.143767  	2300.000000	9.99432e-06	
2400.000000	0.144124  	2400.000000	0.144219  	2400.000000	0.142274  	2400.000000	0.1409    	2400.000000	0.144209  	2400.000000	9.60594e-06	
2500.000000	0.145018  	2500.000000	0.144726  	2500.000000	0.142327  	2500.000000	0.140957  	2500.000000	0.144717  	2500.000000	9.24753e-06	
2600.000000	0.14599   	2600.000000	0.145291  	2600.000000	0.142414  	2600.000000	0.141046  	2600.000000	0.145282  	2600.000000	8.91572e-06	
2700.000000	0.147034  	2700.000000	0.145906  	2700.000000	0.142529  	2700.000000	0.141164  	2700.000000	0.145897  	2700.000000	8.60761e-06	
2800.000000	0.148142  	2800.000000	0.146566  	2800.000000	0.142668  	2800.000000	0.141306  	2800.000000	0.146558  	2800.000000	8.32074e-06	
2900.000000	0.149309  	2900.000000	0.147267  	2900.000000	0.142827  	2900.000000	0.141468  	2900.000000	0.147259  	2900.000000	8.05296e-06	
3000.000000	0.150532  	3000.000000	0.148004  	3000.000000	0.143004  	3000.000000	0.141647  	3000.000000	0.147997  	3000.000000	7.8024e-06	
3200.000000	0.153124  	3200.000000	0.149574  	3200.000000	0.1434    	3200.000000	0.142047  	3200.000000	0.149567  	3200.000000	7.34665e-06	
3400.000000	0.155892  	3400.000000	0.151252  	3400.000000	0.143838  	3400.000000	0.142489  	3400.000000	0.151245  	3400.000000	6.94269e-06	
3600.000000	0.158813  	3600.000000	0.153018  	3600.000000	0.144308  	3600.000000	0.142961  	3600.000000	0.153012  	3600.000000	6.5821e-06	
3800.000000	0.16187   	3800.000000	0.15486   	3800.000000	0.144798  	3800.000000	0.143454  	3800.000000	0.154854  	3800.000000	6.25818e-06	
4000.000000	0.16505   	4000.000000	0.156764  	4000.000000	0.145303  	4000.000000	0.14396   	4000.000000	0.156758  	4000.000000	5.96555e-06	
4200.000000	0.168341  	4200.000000	0.158722  	4200.000000	0.145816  	4200.000000	0.144475  	4200.000000	0.158716  	4200.000000	5.69985e-06	
4400.000000	0.171734  	4400.000000	0.160725  	4400.000000	0.146334  	4400.000000	0.144995  	4400.000000	0.16072   	4400.000000	5.45749e-06	
4600.000000	0.175221  	4600.000000	0.162768  	4600.000000	0.146854  	4600.000000	0.145516  	4600.000000	0.162763  	4600.000000	5.23549e-06	
4800.000000	0.178795  	4800.000000	0.164845  	4800.000000	0.147372  	4800.000000	0.146036  	4800.000000	0.16484   	4800.000000	5.03137e-06	
5000.000000	0.182451  	5000.000000	0.166951  	5000.000000	0.147889  	5000.000000	0.146554  	5000.000000	0.166946  	5000.000000	4.84303e-06	
5250.000000	0.187129  	5250.000000	0.16962   	5250.000000	0.148528  	5250.000000	0.147195  	5250.000000	0.169615  	5250.000000	4.62711e-06	
5500.000000	0.19192   	5500.000000	0.172323  	5500.000000	0.149159  	5500.000000	0.147828  	5500.000000	0.172318  	5500.000000	4.43016e-06	
6000.000000	0.201818  	6000.000000	0.177811  	6000.000000	0.150391  	6000.000000	0.149065  	6000.000000	0.177807  	6000.000000	4.08392e-06	
6500.000000	0.212103  	6500.000000	0.183386  	6500.000000	0.151581  	6500.000000	0.150257  	6500.000000	0.183382  	6500.000000	3.78925e-06	
7000.000000	0.222747  	7000.000000	0.189025  	7000.000000	0.152724  	7000.000000	0.151403  	7000.000000	0.189022  	7000.000000	3.53533e-06	
7500.000000	0.233728  	7500.000000	0.194713  	7500.000000	0.153821  	7500.000000	0.152502  	7500.000000	0.19471   	7500.000000	3.31419e-06	
8000.000000	0.245032  	8000.000000	0.200437  	8000.000000	0.154875  	8000.000000	0.153556  	8000.000000	0.200434  	8000.000000	3.11982e-06	
8500.000000	0.256646  	8500.000000	0.206189  	8500.000000	0.155882  	8500.000000	0.154568  	8500.000000	0.206186  	8500.000000	2.94758e-06	
9000.000000	0.26856   	9000.000000	0.211962  	9000.000000	0.156845  	9000.000000	0.155538  	9000.000000	0.211959  	9000.000000	2.79387e-06	
9500.000000	0.280766  	9500.000000	0.217751  	9500.000000	0.157771  	9500.000000	0.156469  	9500.000000	0.217748  	9500.000000	2.65582e-06	
10000.000000	0.29326   	10000.000000	0.223551  	10000.000000	0.158664  	10000.000000	0.157364  	10000.000000	0.223549  	10000.000000	2.53115e-06	
11000.000000	0.31909   	11000.000000	0.235176  	11000.000000	0.160351  	11000.000000	0.159052  	11000.000000	0.235174  	11000.000000	2.31475e-06	
12000.000000	0.346023  	12000.000000	0.246816  	12000.000000	0.161913  	12000.000000	0.160621  	12000.000000	0.246814  	12000.000000	2.13332e-06	
13000.000000	0.374041  	13000.000000	0.258461  	13000.000000	0.163368  	13000.000000	0.162082  	13000.000000	0.258459  	13000.000000	1.97896e-06	
14000.000000	0.403133  	14000.000000	0.270102  	14000.000000	0.164731  	14000.000000	0.163449  	14000.000000	0.2701    	14000.000000	1.84597e-06	
15000.000000	0.433292  	15000.000000	0.281733  	15000.000000	0.166012  	15000.000000	0.164733  	15000.000000	0.281731  	15000.000000	1.73018e-06	
16000.000000	0.464515  	16000.000000	0.293352  	16000.000000	0.167217  	16000.000000	0.165942  	16000.000000	0.29335   	16000.000000	1.62843e-06	
17000.000000	0.496799  	17000.000000	0.304955  	17000.000000	0.168352  	17000.000000	0.167084  	17000.000000	0.304953  	17000.000000	1.53828e-06	
18000.000000	0.530145  	18000.000000	0.316541  	18000.000000	0.169425  	18000.000000	0.168165  	18000.000000	0.31654   	18000.000000	1.45784e-06	
19000.000000	0.564554  	19000.000000	0.32811   	19000.000000	0.170442  	19000.000000	0.169192  	19000.000000	0.328108  	19000.000000	1.38561e-06	
20000.000000	0.60003   	20000.000000	0.339659  	20000.000000	0.171408  	20000.000000	0.170169  	20000.000000	0.339658  	20000.000000	1.32039e-06	
21000.000000	0.636574  	21000.000000	0.35119   	21000.000000	0.172329  	21000.000000	0.171102  	21000.000000	0.351189  	21000.000000	1.26119e-06	
22000.000000	0.674191  	22000.000000	0.362702  	22000.000000	0.17321   	22000.000000	0.171992  	22000.000000	0.362701  	22000.000000	1.20721e-06	
23000.000000	0.712886  	23000.000000	0.374195  	23000.000000	0.174055  	23000.000000	0.172845  	23000.000000	0.374194  	23000.000000	1.15778e-06	
24000.000000	0.752662  	24000.000000	0.38567   	24000.000000	0.174864  	24000.000000	0.173663  	24000.000000	0.385668  	24000.000000	1.11234e-06	
25000.000000	0.793526  	25000.000000	0.397125  	25000.000000	0.175636  	25000.000000	0.174449  	25000.000000	0.397124  	25000.000000	1.07043e-06	
26000.000000	0.835483  	26000.000000	0.408563  	26000.000000	0.176379  	26000.000000	0.175204  	26000.000000	0.408562  	26000.000000	1.03164e-06	
27000.000000	0.878538  	27000.000000	0.419982  	27000.000000	0.177096  	27000.000000	0.175932  	27000.000000	0.419981  	27000.000000	9.95646e-07	
28000.000000	0.922697  	28000.000000	0.431384  	28000.000000	0.177788  	28000.000000	0.176634  	28000.000000	0.431383  	28000.000000	9.62141e-07	
29000.000000	0.967966  	29000.000000	0.442768  	29000.000000	0.178456  	29000.000000	0.177312  	29000.000000	0.442767  	29000.000000	9.30878e-07	
30000.000000	1.01435   	30000.000000	0.454136  	30000.000000	0.179101  	30000.000000	0.177968  	30000.000000	0.454135  	30000.000000	9.01636e-07	
32000.000000	1.1105    	32000.000000	0.476821  	32000.000000	0.180325  	32000.000000	0.179216  	32000.000000	0.476821  	32000.000000	8.48474e-07	
34000.000000	1.21119   	34000.000000	0.499444  	34000.000000	0.181469  	34000.000000	0.18039   	34000.000000	0.499443  	34000.000000	8.01384e-07	
36000.000000	1.31648   	36000.000000	0.522005  	36000.000000	0.182546  	36000.000000	0.181497  	36000.000000	0.522004  	36000.000000	7.59374e-07	
38000.000000	1.42643   	38000.000000	0.544508  	38000.000000	0.183564  	38000.000000	0.182544  	38000.000000	0.544507  	38000.000000	7.21657e-07	
40000.000000	1.54109   	40000.000000	0.566956  	40000.000000	0.184528  	40000.000000	0.183538  	40000.000000	0.566955  	40000.000000	6.87602e-07	
42000.000000	1.66052   	42000.000000	0.58935   	42000.000000	0.185441  	42000.000000	0.184484  	42000.000000	0.589349  	42000.000000	6.56697e-07	
44000.000000	1.78478   	44000.000000	0.611693  	44000.000000	0.186307  	44000.000000	0.185386  	44000.000000	0.611693  	44000.000000	6.28519e-07	
46000.000000	1.91392   	46000.000000	0.633988  	46000.000000	0.18713   	46000.000000	0.186247  	46000.000000	0.633987  	46000.000000	6.02721e-07	
48000.000000	2.04802   	48000.000000	0.656235  	48000.000000	0.187915  	48000.000000	0.187072  	48000.000000	0.656235  	48000.000000	5.7901e-07	
50000.000000	2.18712   	50000.000000	0.678438  	50000.000000	0.188664  	50000.000000	0.187863  	50000.000000	0.678437  	50000.000000	5.57141e-07	
