Energy (MeV/u)1	0 - [He-base] F.Hubert et al, AD&ND Tables 46(1990)1	Energy (MeV/u)2	1 - [H -base] J.F.Ziegler et al, Pergamon Press, NY (low energy)	Energy (MeV/u)3	2 - ATIMA 1.2  LS-theory (recommended for high energy)	Energy (MeV/u)4	3 - ATIMA 1.2  without LS-correction	Energy (MeV/u)5	4 - electrical component of [1] - J.F.Ziegler et al	Energy (MeV/u)6	5 - nuclear component of [1] - J.F.Ziegler et al	
0.001000	0.575296  	0.001000	0.286791  	0.001000	0.351602  	0.001000	0.351602  	0.001000	0.148595  	0.001000	0.138196  	
0.002000	0.667958  	0.002000	0.325638  	0.002000	0.409883  	0.002000	0.409883  	0.002000	0.217556  	0.002000	0.108083  	
0.005000	0.935789  	0.005000	0.428742  	0.005000	0.545815  	0.005000	0.545815  	0.005000	0.360112  	0.005000	0.0686302 	
0.008000	1.16157   	0.008000	0.518252  	0.008000	0.655508  	0.008000	0.655508  	0.008000	0.466341  	0.008000	0.0519115 	
0.010000	1.29601   	0.010000	0.572297  	0.010000	0.719903  	0.010000	0.719903  	0.010000	0.527234  	0.010000	0.0450627 	
0.015000	1.52158   	0.015000	0.700461  	0.015000	0.863834  	0.015000	0.863834  	0.015000	0.666053  	0.015000	0.0344082 	
0.020000	1.69851   	0.020000	0.850446  	0.020000	1.00637   	0.020000	1.00637   	0.020000	0.822279  	0.020000	0.0281671 	
0.025000	1.89101   	0.025000	0.995786  	0.025000	1.14339   	0.025000	1.14339   	0.025000	0.971992  	0.025000	0.0237944 	
0.030000	2.0471    	0.030000	1.13181   	0.030000	1.21799   	0.030000	1.21799   	0.030000	1.11098   	0.030000	0.0208334 	
0.035000	2.17195   	0.035000	1.25488   	0.035000	1.29394   	0.035000	1.29394   	0.035000	1.2363    	0.035000	0.0185853 	
0.040000	2.26773   	0.040000	1.36719   	0.040000	1.37013   	0.040000	1.37013   	0.040000	1.35038   	0.040000	0.016814  	
0.045000	2.33598   	0.045000	1.46882   	0.045000	1.44567   	0.045000	1.44567   	0.045000	1.45344   	0.045000	0.0153785 	
0.050000	2.37864   	0.050000	1.56019   	0.050000	1.51979   	0.050000	1.51979   	0.050000	1.546     	0.050000	0.014189  	
0.055000	2.47328   	0.055000	1.6419    	0.055000	1.59184   	0.055000	1.59184   	0.055000	1.62872   	0.055000	0.0131856 	
0.060000	2.55197   	0.060000	1.71466   	0.060000	1.66127   	0.060000	1.66127   	0.060000	1.70233   	0.060000	0.0123266 	
0.070000	2.6666    	0.070000	1.83626   	0.070000	1.79043   	0.070000	1.79043   	0.070000	1.82533   	0.070000	0.0109297 	
0.080000	2.78949   	0.080000	1.93081   	0.080000	1.90455   	0.080000	1.90455   	0.080000	1.92097   	0.080000	0.00983943	
0.090000	2.87806   	0.090000	2.00354   	0.090000	2.00215   	0.090000	2.00215   	0.090000	1.99458   	0.090000	0.00896251	
0.100000	2.94344   	0.100000	2.05883   	0.100000	2.08285   	0.100000	2.08285   	0.100000	2.05059   	0.100000	0.00824045	
0.120000	2.98496   	0.120000	2.15676   	0.120000	2.19634   	0.120000	2.19634   	0.120000	2.14964   	0.120000	0.00711822	
0.140000	2.99218   	0.140000	2.21558   	0.140000	2.25547   	0.140000	2.25547   	0.140000	2.20929   	0.140000	0.00628336	
0.160000	2.99243   	0.160000	2.25268   	0.160000	2.27421   	0.160000	2.27421   	0.160000	2.24705   	0.160000	0.00563591	
0.180000	2.98877   	0.180000	2.26751   	0.180000	2.26561   	0.180000	2.26561   	0.180000	2.26239   	0.180000	0.00511788	
0.200000	2.99668   	0.200000	2.27854   	0.200000	2.24002   	0.200000	2.24002   	0.200000	2.27384   	0.200000	0.00469318	
0.250000	2.93535   	0.250000	2.27064   	0.250000	2.14432   	0.250000	2.14432   	0.250000	2.26674   	0.250000	0.00390211	
0.300000	2.92577   	0.300000	2.27404   	0.300000	2.0561    	0.300000	2.0561    	0.300000	2.27068   	0.300000	0.00335223	
0.350000	2.89175   	0.350000	2.24178   	0.350000	1.97704   	0.350000	1.97704   	0.350000	2.23884   	0.350000	0.00294615	
0.400000	2.84294   	0.400000	2.19322   	0.400000	1.90409   	0.400000	1.90409   	0.400000	2.19059   	0.400000	0.00263307	
0.450000	2.77868   	0.450000	2.13139   	0.450000	1.83625   	0.450000	1.83625   	0.450000	2.12901   	0.450000	0.00238378	
0.500000	2.71622   	0.500000	2.07233   	0.500000	1.77625   	0.500000	1.77625   	0.500000	2.07015   	0.500000	0.00218024	
0.600000	2.49274   	0.600000	1.95146   	0.600000	1.67385   	0.600000	1.67385   	0.600000	1.9496    	0.600000	0.0018671 	
0.700000	2.26901   	0.700000	1.82944   	0.700000	1.58795   	0.700000	1.58795   	0.700000	1.82781   	0.700000	0.00163678	
0.800000	2.17014   	0.800000	1.74128   	0.800000	1.51336   	0.800000	1.51336   	0.800000	1.73982   	0.800000	0.00145978	
0.900000	2.0648    	0.900000	1.65111   	0.900000	1.44704   	0.900000	1.44704   	0.900000	1.64979   	0.900000	0.00131922	
1.000000	1.96025   	1.000000	1.56339   	1.000000	1.38359   	1.000000	1.38359   	1.000000	1.56219   	1.000000	0.00120471	
1.250000	1.72046   	1.250000	1.37117   	1.250000	1.25137   	1.250000	1.25137   	1.250000	1.37017   	1.250000	0.000993282	
1.500000	1.49374   	1.500000	1.1882    	1.500000	1.14476   	1.500000	1.14476   	1.500000	1.18736   	1.500000	0.00084783	
1.750000	1.32758   	1.750000	1.05896   	1.750000	1.05515   	1.750000	1.05515   	1.750000	1.05822   	1.750000	0.000741274	
2.000000	1.19909   	2.000000	0.961593  	2.000000	0.978355  	2.000000	0.978355  	2.000000	0.960933  	2.000000	0.000659652	
2.250000	1.09766   	2.250000	0.884729  	2.250000	0.911514  	2.250000	0.911514  	2.250000	0.884134  	2.250000	0.000595012	
2.500000	0.979644  	2.500000	0.821897  	2.500000	0.852958  	2.500000	0.852958  	2.500000	0.821355  	2.500000	0.000542478	
3.000000	0.860778  	3.000000	0.723974  	3.000000	0.755668  	3.000000	0.755668  	3.000000	0.723512  	3.000000	0.000462112	
3.500000	0.769179  	3.500000	0.650018  	3.500000	0.67858   	3.500000	0.67858   	3.500000	0.649614  	3.500000	0.000403377	
4.000000	0.696309  	4.000000	0.591566  	4.000000	0.616316  	4.000000	0.616316  	4.000000	0.591207  	4.000000	0.000358474	
4.500000	0.636875  	4.500000	0.543963  	4.500000	0.565134  	4.500000	0.565134  	4.500000	0.54364   	4.500000	0.000322971	
5.000000	0.587421  	5.000000	0.504345  	5.000000	0.522391  	5.000000	0.522391  	5.000000	0.504051  	5.000000	0.000294157	
5.500000	0.545589  	5.500000	0.470808  	5.500000	0.486184  	5.500000	0.486184  	5.500000	0.470538  	5.500000	0.000270281	
6.000000	0.509716  	6.000000	0.44202   	6.000000	0.455124  	6.000000	0.455124  	6.000000	0.44177   	6.000000	0.000250155	
6.500000	0.478593  	6.500000	0.417013  	6.500000	0.428181  	6.500000	0.428181  	6.500000	0.41678   	6.500000	0.000232948	
7.000000	0.45132   	7.000000	0.395069  	7.000000	0.404577  	7.000000	0.404577  	7.000000	0.394851  	7.000000	0.000218059	
7.500000	0.427213  	7.500000	0.375641  	7.500000	0.383714  	7.500000	0.383714  	7.500000	0.375436  	7.500000	0.000205043	
8.000000	0.405742  	8.000000	0.358305  	8.000000	0.365131  	8.000000	0.365131  	8.000000	0.358112  	8.000000	0.000193561	
8.500000	0.386489  	8.500000	0.34273   	8.500000	0.348462  	8.500000	0.348462  	8.500000	0.342547  	8.500000	0.000183354	
9.000000	0.369122  	9.000000	0.32865   	9.000000	0.333417  	9.000000	0.333417  	9.000000	0.328476  	9.000000	0.000174218	
9.500000	0.353373  	9.500000	0.315851  	9.500000	0.319762  	9.500000	0.319762  	9.500000	0.315685  	9.500000	0.000165989	
10.000000	0.339021  	10.000000	0.307086  	10.000000	0.307305  	10.000000	0.307305  	10.000000	0.306927  	10.000000	0.000158538	
11.000000	0.313814  	11.000000	0.285826  	11.000000	0.285166  	11.000000	0.285218  	11.000000	0.28568   	11.000000	0.000145558	
12.000000	0.29238   	12.000000	0.267504  	12.000000	0.266288  	12.000000	0.266374  	12.000000	0.267369  	12.000000	0.000134627	
13.000000	0.273919  	13.000000	0.251549  	13.000000	0.249979  	13.000000	0.250085  	13.000000	0.251424  	13.000000	0.000125289	
14.000000	0.257842  	14.000000	0.237527  	14.000000	0.235733  	14.000000	0.235848  	14.000000	0.23741   	14.000000	0.000117215	
15.000000	0.243709  	15.000000	0.225105  	15.000000	0.223171  	15.000000	0.223285  	15.000000	0.224995  	15.000000	0.000110161	
16.000000	0.231182  	16.000000	0.214021  	16.000000	0.211998  	16.000000	0.21211   	16.000000	0.213917  	16.000000	0.000103943	
17.000000	0.219996  	17.000000	0.204067  	17.000000	0.201989  	17.000000	0.202098  	17.000000	0.203968  	17.000000	9.84179e-05	
18.000000	0.209945  	18.000000	0.195077  	18.000000	0.192971  	18.000000	0.193073  	18.000000	0.194983  	18.000000	9.34752e-05	
19.000000	0.20086   	19.000000	0.186915  	19.000000	0.184798  	19.000000	0.184892  	19.000000	0.186826  	19.000000	8.90259e-05	
20.000000	0.192607  	20.000000	0.179472  	20.000000	0.17735   	20.000000	0.17744   	20.000000	0.179387  	20.000000	8.49986e-05	
21.000000	0.185075  	21.000000	0.172654  	21.000000	0.170535  	21.000000	0.170622  	21.000000	0.172573  	21.000000	8.13351e-05	
22.000000	0.17817   	22.000000	0.166385  	22.000000	0.164283  	22.000000	0.16436   	22.000000	0.166307  	22.000000	7.79877e-05	
23.000000	0.171818  	23.000000	0.160601  	23.000000	0.158526  	23.000000	0.158587  	23.000000	0.160526  	23.000000	7.49164e-05	
24.000000	0.165952  	24.000000	0.155247  	24.000000	0.1532    	24.000000	0.153249  	24.000000	0.155175  	24.000000	7.20881e-05	
25.000000	0.160518  	25.000000	0.150275  	25.000000	0.148255  	25.000000	0.148298  	25.000000	0.150206  	25.000000	6.94745e-05	
27.000000	0.150764  	27.000000	0.141325  	27.000000	0.139372  	27.000000	0.139402  	27.000000	0.14126   	27.000000	6.47995e-05	
29.000000	0.142255  	29.000000	0.13349   	29.000000	0.131622  	29.000000	0.131635  	29.000000	0.133429  	29.000000	6.07379e-05	
31.000000	0.134763  	31.000000	0.126571  	31.000000	0.124846  	31.000000	0.124842  	31.000000	0.126514  	31.000000	5.7175e-05	
33.000000	0.128112  	33.000000	0.120414  	33.000000	0.118861  	33.000000	0.118842  	33.000000	0.12036   	33.000000	5.40231e-05	
35.000000	0.122166  	35.000000	0.114899  	35.000000	0.113496  	35.000000	0.113465  	35.000000	0.114847  	35.000000	5.1214e-05	
38.000000	0.114338  	38.000000	0.107622  	38.000000	0.106412  	38.000000	0.106365  	38.000000	0.107575  	38.000000	4.75285e-05	
41.000000	0.107576  	41.000000	0.101324  	41.000000	0.100274  	41.000000	0.100214  	41.000000	0.10128   	41.000000	4.43572e-05	
44.000000	0.101671  	44.000000	0.0958167 	44.000000	0.0948999 	44.000000	0.0948291 	44.000000	0.0957751 	44.000000	4.15982e-05	
47.000000	0.0964691 	47.000000	0.0909586 	47.000000	0.0901556 	47.000000	0.0900738 	47.000000	0.0909195 	47.000000	3.9175e-05	
50.000000	0.0918481 	50.000000	0.0866399 	50.000000	0.0859228 	50.000000	0.0858418 	50.000000	0.0866029 	50.000000	3.70291e-05	
55.000000	0.0851919 	55.000000	0.0804146 	55.000000	0.0798178 	55.000000	0.0797326 	55.000000	0.0803807 	55.000000	3.39493e-05	
60.000000	0.0795716 	60.000000	0.0751561 	60.000000	0.0746546 	60.000000	0.074563  	60.000000	0.0751248 	60.000000	3.13599e-05	
65.000000	0.0747588 	65.000000	0.0706531 	65.000000	0.0702176 	65.000000	0.0701285 	65.000000	0.070624  	65.000000	2.91512e-05	
70.000000	0.0705878 	70.000000	0.0667519 	70.000000	0.0663784 	70.000000	0.0662807 	70.000000	0.0667247 	70.000000	2.7244e-05	
75.000000	0.0669357 	75.000000	0.0633383 	75.000000	0.0630015 	75.000000	0.0629087 	75.000000	0.0633127 	75.000000	2.55798e-05	
80.000000	0.0637096 	80.000000	0.0603252 	80.000000	0.060025  	80.000000	0.0599282 	80.000000	0.0603011 	80.000000	2.41145e-05	
85.000000	0.0608375 	85.000000	0.0576453 	85.000000	0.0573661 	85.000000	0.0572741 	85.000000	0.0576225 	85.000000	2.28139e-05	
90.000000	0.0582629 	90.000000	0.0552458 	90.000000	0.0549902 	90.000000	0.0548947 	90.000000	0.0552242 	90.000000	2.16514e-05	
95.000000	0.0559408 	95.000000	0.0530844 	95.000000	0.0528402 	95.000000	0.0527492 	95.000000	0.0530638 	95.000000	2.0606e-05	
100.000000	0.0538351 	100.000000	0.051127  	100.000000	0.0508983 	100.000000	0.0508042 	100.000000	0.0511073 	100.000000	1.96605e-05	
105.000000	0.0519162 	105.000000	0.0493457 	105.000000	0.0491228 	105.000000	0.0490326 	105.000000	0.0493269 	105.000000	1.88011e-05	
110.000000	0.0501596 	110.000000	0.0477176 	110.000000	0.0475042 	110.000000	0.0474121 	110.000000	0.0476996 	110.000000	1.80164e-05	
115.000000	0.0485451 	115.000000	0.0462236 	115.000000	0.046014  	115.000000	0.0459238 	115.000000	0.0462063 	115.000000	1.7297e-05	
120.000000	0.0470558 	120.000000	0.0448477 	120.000000	0.0446413 	120.000000	0.0445522 	120.000000	0.044831  	120.000000	1.66349e-05	
125.000000	0.0456773 	125.000000	0.0435762 	125.000000	0.0433747 	125.000000	0.0432839 	125.000000	0.0435601 	125.000000	1.60235e-05	
130.000000	0.0443973 	130.000000	0.0423976 	130.000000	0.042195  	130.000000	0.0421076 	130.000000	0.0423821 	130.000000	1.54571e-05	
135.000000	0.0432054 	135.000000	0.041302  	135.000000	0.0410975 	135.000000	0.0410136 	135.000000	0.0412871 	135.000000	1.49308e-05	
140.000000	0.0420926 	140.000000	0.0402809 	140.000000	0.0400781 	140.000000	0.0399935 	140.000000	0.0402665 	140.000000	1.44405e-05	
145.000000	0.041051  	145.000000	0.0393269 	145.000000	0.0391254 	145.000000	0.03904   	145.000000	0.0393129 	145.000000	1.39826e-05	
150.000000	0.0400739 	150.000000	0.0384336 	150.000000	0.0382295 	150.000000	0.0381468 	150.000000	0.03842   	150.000000	1.35539e-05	
155.000000	0.0386981 	155.000000	0.0375953 	155.000000	0.0373915 	155.000000	0.0373083 	155.000000	0.0375821 	155.000000	1.31516e-05	
160.000000	0.0378917 	160.000000	0.036807  	160.000000	0.0366036 	160.000000	0.0365197 	160.000000	0.0367942 	160.000000	1.27734e-05	
165.000000	0.0371312 	165.000000	0.0360644 	165.000000	0.0358581 	165.000000	0.0357766 	165.000000	0.036052  	165.000000	1.24172e-05	
170.000000	0.0364128 	170.000000	0.0353637 	170.000000	0.0351565 	170.000000	0.0350752 	170.000000	0.0353516 	170.000000	1.2081e-05	
175.000000	0.0357331 	175.000000	0.0347013 	175.000000	0.0344946 	175.000000	0.034412  	175.000000	0.0346895 	175.000000	1.17632e-05	
180.000000	0.0350889 	180.000000	0.0340742 	180.000000	0.0338657 	180.000000	0.0337842 	180.000000	0.0340628 	180.000000	1.14623e-05	
185.000000	0.0344776 	185.000000	0.0334797 	185.000000	0.0332678 	185.000000	0.0331888 	185.000000	0.0334685 	185.000000	1.1177e-05	
190.000000	0.0338966 	190.000000	0.0329152 	190.000000	0.0327006 	190.000000	0.0326235 	190.000000	0.0329043 	190.000000	1.09061e-05	
195.000000	0.0333436 	195.000000	0.0323786 	195.000000	0.0321631 	195.000000	0.032086  	195.000000	0.0323679 	195.000000	1.06485e-05	
200.000000	0.0328168 	200.000000	0.0318677 	200.000000	0.0316526 	200.000000	0.0315744 	200.000000	0.0318573 	200.000000	1.04032e-05	
210.000000	0.0318343 	210.000000	0.0309165 	210.000000	0.0306975 	210.000000	0.0306216 	210.000000	0.0309066 	210.000000	9.94622e-06	
220.000000	0.0309363 	220.000000	0.0300489 	220.000000	0.0298293 	220.000000	0.0297526 	220.000000	0.0300393 	220.000000	9.52907e-06	
230.000000	0.0301123 	230.000000	0.0292542 	230.000000	0.0290322 	230.000000	0.0289568 	230.000000	0.0292451 	230.000000	9.14672e-06	
240.000000	0.0293534 	240.000000	0.0285238 	240.000000	0.0282978 	240.000000	0.0282255 	240.000000	0.028515  	240.000000	8.79492e-06	
250.000000	0.0286523 	250.000000	0.0278502 	250.000000	0.027624  	250.000000	0.0275513 	250.000000	0.0278418 	250.000000	8.47012e-06	
260.000000	0.0280024 	260.000000	0.0272271 	260.000000	0.0270002 	260.000000	0.0269278 	260.000000	0.0272189 	260.000000	8.16928e-06	
270.000000	0.0273984 	270.000000	0.026649  	270.000000	0.0264203 	270.000000	0.0263495 	270.000000	0.0266411 	270.000000	7.88983e-06	
280.000000	0.0268357 	280.000000	0.0261113 	280.000000	0.0258838 	280.000000	0.0258119 	280.000000	0.0261036 	280.000000	7.62952e-06	
290.000000	0.02631   	290.000000	0.0256099 	290.000000	0.0253816 	290.000000	0.0253109 	290.000000	0.0256025 	290.000000	7.38644e-06	
300.000000	0.0258179 	300.000000	0.0251413 	300.000000	0.0249113 	300.000000	0.0248429 	300.000000	0.0251341 	300.000000	7.15891e-06	
310.000000	0.0253563 	310.000000	0.0247025 	310.000000	0.0244725 	310.000000	0.0244048 	310.000000	0.0246956 	310.000000	6.94546e-06	
320.000000	0.0249224 	320.000000	0.0242908 	320.000000	0.0240625 	320.000000	0.023994  	320.000000	0.024284  	320.000000	6.74482e-06	
330.000000	0.0245139 	330.000000	0.0239037 	330.000000	0.0236762 	330.000000	0.0236081 	330.000000	0.0238971 	330.000000	6.55584e-06	
340.000000	0.0241286 	340.000000	0.0235392 	340.000000	0.0233113 	340.000000	0.0232449 	340.000000	0.0235328 	340.000000	6.37754e-06	
350.000000	0.0237646 	350.000000	0.0231954 	350.000000	0.0229674 	350.000000	0.0229025 	350.000000	0.0231892 	350.000000	6.20902e-06	
360.000000	0.0234203 	360.000000	0.0228706 	360.000000	0.0226442 	360.000000	0.0225793 	360.000000	0.0228645 	360.000000	6.04948e-06	
370.000000	0.023094  	370.000000	0.0225633 	370.000000	0.0223393 	370.000000	0.0222738 	370.000000	0.0225574 	370.000000	5.89822e-06	
380.000000	0.0227845 	380.000000	0.0222723 	380.000000	0.0220494 	380.000000	0.0219845 	380.000000	0.0222665 	380.000000	5.75461e-06	
390.000000	0.0224905 	390.000000	0.0219962 	390.000000	0.0217741 	390.000000	0.0217103 	390.000000	0.0219906 	390.000000	5.61807e-06	
400.000000	0.0222109 	400.000000	0.021734  	400.000000	0.0215142 	400.000000	0.0214502 	400.000000	0.0217286 	400.000000	5.48808e-06	
410.000000	0.0219448 	410.000000	0.0214848 	410.000000	0.0212675 	410.000000	0.021203  	410.000000	0.0214794 	410.000000	5.36418e-06	
420.000000	0.0216911 	420.000000	0.0212475 	420.000000	0.021032  	420.000000	0.0209679 	420.000000	0.0212423 	420.000000	5.24595e-06	
430.000000	0.0214491 	430.000000	0.0210215 	430.000000	0.020807  	430.000000	0.020744  	430.000000	0.0210164 	430.000000	5.133e-06 	
440.000000	0.021218  	440.000000	0.0208059 	440.000000	0.0205925 	440.000000	0.0205307 	440.000000	0.0208009 	440.000000	5.02497e-06	
450.000000	0.0209972 	450.000000	0.0206001 	450.000000	0.0203883 	450.000000	0.0203272 	450.000000	0.0205952 	450.000000	4.92156e-06	
460.000000	0.0207859 	460.000000	0.0204035 	460.000000	0.0201941 	460.000000	0.0201329 	460.000000	0.0203987 	460.000000	4.82247e-06	
470.000000	0.0205836 	470.000000	0.0202155 	470.000000	0.0200089 	470.000000	0.0199472 	470.000000	0.0202107 	470.000000	4.72743e-06	
480.000000	0.0203898 	480.000000	0.0200355 	480.000000	0.0198315 	480.000000	0.0197696 	480.000000	0.0200309 	480.000000	4.63619e-06	
490.000000	0.020204  	490.000000	0.0198632 	490.000000	0.019661  	490.000000	0.0195997 	490.000000	0.0198586 	490.000000	4.54854e-06	
500.000000	0.0200257 	500.000000	0.019698  	500.000000	0.0194973 	500.000000	0.0194369 	500.000000	0.0196935 	500.000000	4.46424e-06	
520.000000	0.01969   	520.000000	0.0193875 	520.000000	0.01919   	520.000000	0.0191312 	520.000000	0.0193832 	520.000000	4.30501e-06	
540.000000	0.0193797 	540.000000	0.0191011 	540.000000	0.0189085 	540.000000	0.0188495 	540.000000	0.0190969 	540.000000	4.15712e-06	
560.000000	0.0190924 	560.000000	0.0188362 	560.000000	0.0186487 	560.000000	0.0185894 	560.000000	0.0188322 	560.000000	4.01939e-06	
580.000000	0.0188256 	580.000000	0.0185908 	580.000000	0.0184068 	580.000000	0.0183486 	580.000000	0.0185869 	580.000000	3.89079e-06	
600.000000	0.0185774 	600.000000	0.018363  	600.000000	0.0181833 	600.000000	0.0181253 	600.000000	0.0183592 	600.000000	3.77044e-06	
620.000000	0.0183462 	620.000000	0.018151  	620.000000	0.0179762 	620.000000	0.0179177 	620.000000	0.0181473 	620.000000	3.65756e-06	
640.000000	0.0181304 	640.000000	0.0179534 	640.000000	0.0177824 	640.000000	0.0177244 	640.000000	0.0179499 	640.000000	3.55146e-06	
660.000000	0.0179288 	660.000000	0.017769  	660.000000	0.017601  	660.000000	0.017544  	660.000000	0.0177656 	660.000000	3.45155e-06	
680.000000	0.01774   	680.000000	0.0175966 	680.000000	0.0174315 	680.000000	0.0173755 	680.000000	0.0175933 	680.000000	3.35729e-06	
700.000000	0.0175631 	700.000000	0.0174353 	700.000000	0.0172736 	700.000000	0.0172178 	700.000000	0.017432  	700.000000	3.26821e-06	
720.000000	0.0173972 	720.000000	0.017284  	720.000000	0.0171262 	720.000000	0.01707   	720.000000	0.0172809 	720.000000	3.1839e-06	
740.000000	0.0172413 	740.000000	0.0171421 	740.000000	0.0169891 	740.000000	0.0169328 	740.000000	0.017139  	740.000000	3.10397e-06	
760.000000	0.0170948 	760.000000	0.0170088 	760.000000	0.0168611 	760.000000	0.0168051 	760.000000	0.0170058 	760.000000	3.02808e-06	
780.000000	0.0169569 	780.000000	0.0168835 	780.000000	0.0167403 	780.000000	0.0166851 	780.000000	0.0168806 	780.000000	2.95595e-06	
800.000000	0.0168271 	800.000000	0.0167656 	800.000000	0.0166266 	800.000000	0.0165721 	800.000000	0.0167627 	800.000000	2.88728e-06	
820.000000	0.0167048 	820.000000	0.0166545 	820.000000	0.0165195 	820.000000	0.0164657 	820.000000	0.0166516 	820.000000	2.82184e-06	
840.000000	0.0165895 	840.000000	0.0165497 	840.000000	0.016419  	840.000000	0.0163652 	840.000000	0.016547  	840.000000	2.75939e-06	
860.000000	0.0164807 	860.000000	0.016451  	860.000000	0.0163244 	860.000000	0.0162705 	860.000000	0.0164483 	860.000000	2.69974e-06	
880.000000	0.016378  	880.000000	0.0163577 	880.000000	0.0162351 	880.000000	0.0161809 	880.000000	0.0163551 	880.000000	2.64271e-06	
900.000000	0.016281  	900.000000	0.0162697 	900.000000	0.0161505 	900.000000	0.0160962 	900.000000	0.0162671 	900.000000	2.58811e-06	
920.000000	0.0161894 	920.000000	0.0161865 	920.000000	0.0160701 	920.000000	0.0160161 	920.000000	0.016184  	920.000000	2.53579e-06	
940.000000	0.0161028 	940.000000	0.0161079 	940.000000	0.0159938 	940.000000	0.0159403 	940.000000	0.0161054 	940.000000	2.48562e-06	
960.000000	0.016021  	960.000000	0.0160335 	960.000000	0.0159214 	960.000000	0.0158684 	960.000000	0.0160311 	960.000000	2.43746e-06	
980.000000	0.0159436 	980.000000	0.0159632 	980.000000	0.0158528 	980.000000	0.0158003 	980.000000	0.0159608 	980.000000	2.3912e-06	
1000.000000	0.0158705 	1000.000000	0.0158966 	1000.000000	0.0157878 	1000.000000	0.0157357 	1000.000000	0.0158942 	1000.000000	2.34671e-06	
1020.000000	0.0158014 	1020.000000	0.0158336 	1020.000000	0.0157262 	1020.000000	0.0156744 	1020.000000	0.0158313 	1020.000000	2.30391e-06	
1040.000000	0.0157361 	1040.000000	0.015774  	1040.000000	0.015668  	1040.000000	0.0156161 	1040.000000	0.0157717 	1040.000000	2.26269e-06	
1060.000000	0.0156743 	1060.000000	0.0157175 	1060.000000	0.0156129 	1060.000000	0.0155608 	1060.000000	0.0157153 	1060.000000	2.22297e-06	
1080.000000	0.0156159 	1080.000000	0.015664  	1080.000000	0.0155605 	1080.000000	0.0155082 	1080.000000	0.0156619 	1080.000000	2.18466e-06	
1100.000000	0.0155607 	1100.000000	0.0156134 	1100.000000	0.0155107 	1100.000000	0.0154583 	1100.000000	0.0156113 	1100.000000	2.1477e-06	
1120.000000	0.0155086 	1120.000000	0.0155655 	1120.000000	0.015463  	1120.000000	0.0154107 	1120.000000	0.0155634 	1120.000000	2.11201e-06	
1140.000000	0.0154594 	1140.000000	0.0155202 	1140.000000	0.0154176 	1140.000000	0.0153655 	1140.000000	0.0155181 	1140.000000	2.07752e-06	
1160.000000	0.0154129 	1160.000000	0.0154772 	1160.000000	0.0153742 	1160.000000	0.0153224 	1160.000000	0.0154752 	1160.000000	2.04418e-06	
1180.000000	0.0153691 	1180.000000	0.0154366 	1180.000000	0.0153329 	1180.000000	0.0152815 	1180.000000	0.0154346 	1180.000000	2.01193e-06	
1200.000000	0.0153278 	1200.000000	0.0153982 	1200.000000	0.0152937 	1200.000000	0.0152424 	1200.000000	0.0153962 	1200.000000	1.98071e-06	
1220.000000	0.0152888 	1220.000000	0.0153618 	1220.000000	0.0152565 	1220.000000	0.0152053 	1220.000000	0.0153599 	1220.000000	1.95048e-06	
1240.000000	0.0152522 	1240.000000	0.0153275 	1240.000000	0.0152211 	1240.000000	0.0151698 	1240.000000	0.0153255 	1240.000000	1.92119e-06	
1260.000000	0.0152177 	1260.000000	0.015295  	1260.000000	0.0151875 	1260.000000	0.0151361 	1260.000000	0.0152931 	1260.000000	1.8928e-06	
1280.000000	0.0151854 	1280.000000	0.0152643 	1280.000000	0.0151555 	1280.000000	0.0151039 	1280.000000	0.0152625 	1280.000000	1.86525e-06	
1300.000000	0.015155  	1300.000000	0.0152354 	1300.000000	0.015125  	1300.000000	0.0150733 	1300.000000	0.0152335 	1300.000000	1.83853e-06	
1320.000000	0.0151265 	1320.000000	0.0152081 	1320.000000	0.0150958 	1320.000000	0.0150441 	1320.000000	0.0152063 	1320.000000	1.81259e-06	
1340.000000	0.0150999 	1340.000000	0.0151824 	1340.000000	0.0150678 	1340.000000	0.0150162 	1340.000000	0.0151806 	1340.000000	1.78739e-06	
1360.000000	0.015075  	1360.000000	0.0151582 	1360.000000	0.0150412 	1360.000000	0.0149896 	1360.000000	0.0151564 	1360.000000	1.7629e-06	
1380.000000	0.0150518 	1380.000000	0.0151354 	1380.000000	0.0150156 	1380.000000	0.0149643 	1380.000000	0.0151337 	1380.000000	1.7391e-06	
1400.000000	0.0150302 	1400.000000	0.015114  	1400.000000	0.0149913 	1400.000000	0.0149402 	1400.000000	0.0151123 	1400.000000	1.71596e-06	
1420.000000	0.0150102 	1420.000000	0.015094  	1420.000000	0.014968  	1420.000000	0.0149171 	1420.000000	0.0150923 	1420.000000	1.69344e-06	
1440.000000	0.0149917 	1440.000000	0.0150752 	1440.000000	0.0149458 	1440.000000	0.0148952 	1440.000000	0.0150735 	1440.000000	1.67153e-06	
1460.000000	0.0149746 	1460.000000	0.0150576 	1460.000000	0.0149247 	1460.000000	0.0148742 	1460.000000	0.015056  	1460.000000	1.65019e-06	
1480.000000	0.014959  	1480.000000	0.0150412 	1480.000000	0.0149045 	1480.000000	0.0148543 	1480.000000	0.0150396 	1480.000000	1.62941e-06	
1500.000000	0.0149446 	1500.000000	0.015026  	1500.000000	0.0148853 	1500.000000	0.0148353 	1500.000000	0.0150244 	1500.000000	1.60916e-06	
1520.000000	0.0149315 	1520.000000	0.0150118 	1520.000000	0.014867  	1520.000000	0.0148172 	1520.000000	0.0150102 	1520.000000	1.58943e-06	
1540.000000	0.0149197 	1540.000000	0.0149986 	1540.000000	0.0148496 	1540.000000	0.0147999 	1540.000000	0.014997  	1540.000000	1.57019e-06	
1560.000000	0.0149091 	1560.000000	0.0149865 	1560.000000	0.014833  	1560.000000	0.0147834 	1560.000000	0.0149849 	1560.000000	1.55143e-06	
1580.000000	0.0148996 	1580.000000	0.0149753 	1580.000000	0.0148173 	1580.000000	0.0147678 	1580.000000	0.0149737 	1580.000000	1.53312e-06	
1600.000000	0.0148912 	1600.000000	0.014965  	1600.000000	0.0148024 	1600.000000	0.0147528 	1600.000000	0.0149635 	1600.000000	1.51526e-06	
1620.000000	0.0148839 	1620.000000	0.0149556 	1620.000000	0.0147882 	1620.000000	0.0147386 	1620.000000	0.0149541 	1620.000000	1.49782e-06	
1640.000000	0.0148777 	1640.000000	0.0149471 	1640.000000	0.0147747 	1640.000000	0.0147251 	1640.000000	0.0149456 	1640.000000	1.48079e-06	
1660.000000	0.0148725 	1660.000000	0.0149394 	1660.000000	0.0147619 	1660.000000	0.0147123 	1660.000000	0.014938  	1660.000000	1.46416e-06	
1680.000000	0.0148682 	1680.000000	0.0149325 	1680.000000	0.0147498 	1680.000000	0.0147001 	1680.000000	0.0149311 	1680.000000	1.44791e-06	
1700.000000	0.0148649 	1700.000000	0.0149264 	1700.000000	0.0147382 	1700.000000	0.0146884 	1700.000000	0.014925  	1700.000000	1.43202e-06	
1750.000000	0.0148605 	1750.000000	0.0149143 	1750.000000	0.0147118 	1750.000000	0.0146619 	1750.000000	0.0149129 	1750.000000	1.39385e-06	
1800.000000	0.0148614 	1800.000000	0.0149065 	1800.000000	0.0146887 	1800.000000	0.0146387 	1800.000000	0.0149052 	1800.000000	1.35772e-06	
1850.000000	0.0148672 	1850.000000	0.0149026 	1850.000000	0.0146683 	1850.000000	0.0146184 	1850.000000	0.0149013 	1850.000000	1.32347e-06	
1900.000000	0.0148775 	1900.000000	0.0149024 	1900.000000	0.0146506 	1900.000000	0.0146009 	1900.000000	0.0149011 	1900.000000	1.29096e-06	
1950.000000	0.014892  	1950.000000	0.0149055 	1950.000000	0.0146353 	1950.000000	0.0145858 	1950.000000	0.0149042 	1950.000000	1.26006e-06	
2000.000000	0.0149105 	2000.000000	0.0149117 	2000.000000	0.0146222 	2000.000000	0.014573  	2000.000000	0.0149104 	2000.000000	1.23065e-06	
2100.000000	0.0149582 	2100.000000	0.0149325 	2100.000000	0.0146019 	2100.000000	0.0145532 	2100.000000	0.0149313 	2100.000000	1.17589e-06	
2200.000000	0.0150189 	2200.000000	0.0149632 	2200.000000	0.0145886 	2200.000000	0.0145403 	2200.000000	0.0149621 	2200.000000	1.12594e-06	
2300.000000	0.0150911 	2300.000000	0.0150026 	2300.000000	0.0145811 	2300.000000	0.0145331 	2300.000000	0.0150015 	2300.000000	1.08018e-06	
2400.000000	0.0151734 	2400.000000	0.0150495 	2400.000000	0.0145787 	2400.000000	0.0145307 	2400.000000	0.0150485 	2400.000000	1.0381e-06	
2500.000000	0.0152649 	2500.000000	0.0151031 	2500.000000	0.0145804 	2500.000000	0.0145324 	2500.000000	0.0151021 	2500.000000	9.99279e-07	
2600.000000	0.0153647 	2600.000000	0.0151625 	2600.000000	0.0145856 	2600.000000	0.0145375 	2600.000000	0.0151616 	2600.000000	9.63339e-07	
2700.000000	0.0154719 	2700.000000	0.0152272 	2700.000000	0.0145938 	2700.000000	0.0145455 	2700.000000	0.0152263 	2700.000000	9.29971e-07	
2800.000000	0.0155859 	2800.000000	0.0152965 	2800.000000	0.0146044 	2800.000000	0.014556  	2800.000000	0.0152957 	2800.000000	8.98905e-07	
2900.000000	0.0157062 	2900.000000	0.01537   	2900.000000	0.014617  	2900.000000	0.0145686 	2900.000000	0.0153692 	2900.000000	8.69908e-07	
3000.000000	0.0158322 	3000.000000	0.0154473 	3000.000000	0.0146313 	3000.000000	0.014583  	3000.000000	0.0154464 	3000.000000	8.4278e-07	
3200.000000	0.0160996 	3200.000000	0.0156115 	3200.000000	0.0146642 	3200.000000	0.0146161 	3200.000000	0.0156107 	3200.000000	7.9344e-07	
3400.000000	0.0163852 	3400.000000	0.0157868 	3400.000000	0.0147015 	3400.000000	0.0146537 	3400.000000	0.015786  	3400.000000	7.49715e-07	
3600.000000	0.0166868 	3600.000000	0.0159713 	3600.000000	0.014742  	3600.000000	0.0146944 	3600.000000	0.0159706 	3600.000000	7.10689e-07	
3800.000000	0.0170025 	3800.000000	0.0161634 	3800.000000	0.0147847 	3800.000000	0.0147373 	3800.000000	0.0161627 	3800.000000	6.75637e-07	
4000.000000	0.0173309 	4000.000000	0.016362  	4000.000000	0.0148289 	4000.000000	0.0147818 	4000.000000	0.0163614 	4000.000000	6.43975e-07	
4200.000000	0.0176706 	4200.000000	0.0165661 	4200.000000	0.0148742 	4200.000000	0.0148272 	4200.000000	0.0165655 	4200.000000	6.1523e-07	
4400.000000	0.0180208 	4400.000000	0.0167748 	4400.000000	0.01492   	4400.000000	0.0148731 	4400.000000	0.0167743 	4400.000000	5.89013e-07	
4600.000000	0.0183806 	4600.000000	0.0169877 	4600.000000	0.0149661 	4600.000000	0.0149193 	4600.000000	0.0169871 	4600.000000	5.65001e-07	
4800.000000	0.0187492 	4800.000000	0.0172039 	4800.000000	0.0150122 	4800.000000	0.0149655 	4800.000000	0.0172034 	4800.000000	5.42925e-07	
5000.000000	0.0191262 	5000.000000	0.0174233 	5000.000000	0.0150582 	5000.000000	0.0150115 	5000.000000	0.0174227 	5000.000000	5.22558e-07	
5250.000000	0.0196083 	5250.000000	0.0177011 	5250.000000	0.0151151 	5250.000000	0.0150686 	5250.000000	0.0177006 	5250.000000	4.99211e-07	
5500.000000	0.0201019 	5500.000000	0.0179824 	5500.000000	0.0151714 	5500.000000	0.0151249 	5500.000000	0.0179819 	5500.000000	4.77918e-07	
6000.000000	0.0211206 	6000.000000	0.0185536 	6000.000000	0.0152812 	6000.000000	0.0152349 	6000.000000	0.0185532 	6000.000000	4.40489e-07	
6500.000000	0.0221779 	6500.000000	0.0191336 	6500.000000	0.0153871 	6500.000000	0.0153408 	6500.000000	0.0191332 	6500.000000	4.08641e-07	
7000.000000	0.0232709 	7000.000000	0.0197202 	7000.000000	0.0154886 	7000.000000	0.0154425 	7000.000000	0.0197198 	7000.000000	3.81202e-07	
7500.000000	0.0243972 	7500.000000	0.0203117 	7500.000000	0.0155858 	7500.000000	0.0155398 	7500.000000	0.0203114 	7500.000000	3.5731e-07	
8000.000000	0.0255552 	8000.000000	0.020907  	8000.000000	0.015679  	8000.000000	0.0156329 	8000.000000	0.0209067 	8000.000000	3.36311e-07	
8500.000000	0.0267435 	8500.000000	0.0215051 	8500.000000	0.0157678 	8500.000000	0.0157219 	8500.000000	0.0215048 	8500.000000	3.17708e-07	
9000.000000	0.0279611 	9000.000000	0.0221054 	9000.000000	0.0158525 	9000.000000	0.0158072 	9000.000000	0.0221051 	9000.000000	3.01107e-07	
9500.000000	0.0292072 	9500.000000	0.0227073 	9500.000000	0.0159338 	9500.000000	0.0158888 	9500.000000	0.022707  	9500.000000	2.862e-07 	
10000.000000	0.0304812 	10000.000000	0.0233103 	10000.000000	0.016012  	10000.000000	0.015967  	10000.000000	0.02331   	10000.000000	2.72738e-07	
11000.000000	0.0331107 	11000.000000	0.0245188 	11000.000000	0.016159  	11000.000000	0.016114  	11000.000000	0.0245185 	11000.000000	2.49376e-07	
12000.000000	0.0358466 	12000.000000	0.0257288 	12000.000000	0.0162944 	12000.000000	0.0162499 	12000.000000	0.0257286 	12000.000000	2.29794e-07	
13000.000000	0.0386869 	13000.000000	0.0269392 	13000.000000	0.0164198 	13000.000000	0.0163759 	13000.000000	0.026939  	13000.000000	2.13135e-07	
14000.000000	0.0416301 	14000.000000	0.0281491 	14000.000000	0.0165367 	14000.000000	0.0164932 	14000.000000	0.0281489 	14000.000000	1.98786e-07	
15000.000000	0.0446753 	15000.000000	0.0293581 	15000.000000	0.016646  	15000.000000	0.0166029 	15000.000000	0.0293579 	15000.000000	1.86294e-07	
16000.000000	0.047822  	16000.000000	0.0305656 	16000.000000	0.0167485 	16000.000000	0.0167057 	16000.000000	0.0305655 	16000.000000	1.75318e-07	
17000.000000	0.0510698 	17000.000000	0.0317716 	17000.000000	0.0168448 	17000.000000	0.0168024 	17000.000000	0.0317714 	17000.000000	1.65595e-07	
18000.000000	0.0544185 	18000.000000	0.0329757 	18000.000000	0.0169357 	18000.000000	0.0168936 	18000.000000	0.0329756 	18000.000000	1.5692e-07	
19000.000000	0.0578682 	19000.000000	0.034178  	19000.000000	0.0170216 	19000.000000	0.0169799 	19000.000000	0.0341778 	19000.000000	1.49131e-07	
20000.000000	0.0614187 	20000.000000	0.0353783 	20000.000000	0.017103  	20000.000000	0.0170618 	20000.000000	0.0353782 	20000.000000	1.42099e-07	
21000.000000	0.0650704 	21000.000000	0.0365767 	21000.000000	0.0171803 	21000.000000	0.0171396 	21000.000000	0.0365765 	21000.000000	1.35716e-07	
22000.000000	0.0688233 	22000.000000	0.0377731 	22000.000000	0.0172538 	22000.000000	0.0172136 	22000.000000	0.0377729 	22000.000000	1.29897e-07	
23000.000000	0.0726779 	23000.000000	0.0389675 	23000.000000	0.017324  	23000.000000	0.0172843 	23000.000000	0.0389673 	23000.000000	1.24569e-07	
24000.000000	0.0766343 	24000.000000	0.0401599 	24000.000000	0.017391  	24000.000000	0.0173519 	24000.000000	0.0401598 	24000.000000	1.19672e-07	
25000.000000	0.0806929 	25000.000000	0.0413504 	25000.000000	0.0174551 	25000.000000	0.0174167 	25000.000000	0.0413503 	25000.000000	1.15155e-07	
26000.000000	0.0848541 	26000.000000	0.042539  	26000.000000	0.0175165 	26000.000000	0.0174787 	26000.000000	0.0425389 	26000.000000	1.10975e-07	
27000.000000	0.0891183 	27000.000000	0.0437257 	27000.000000	0.0175753 	27000.000000	0.0175384 	27000.000000	0.0437256 	27000.000000	1.07096e-07	
28000.000000	0.0934859 	28000.000000	0.0449106 	28000.000000	0.0176318 	28000.000000	0.0175957 	28000.000000	0.0449105 	28000.000000	1.03486e-07	
29000.000000	0.0979574 	29000.000000	0.0460936 	29000.000000	0.0176862 	29000.000000	0.017651  	29000.000000	0.0460935 	29000.000000	1.00117e-07	
30000.000000	0.102533  	30000.000000	0.0472749 	30000.000000	0.0177387 	30000.000000	0.0177042 	30000.000000	0.0472748 	30000.000000	9.69669e-08	
32000.000000	0.112     	32000.000000	0.0496324 	32000.000000	0.0178383 	32000.000000	0.0178054 	32000.000000	0.0496323 	32000.000000	9.12399e-08	
34000.000000	0.12189   	34000.000000	0.0519832 	34000.000000	0.0179313 	34000.000000	0.0179    	34000.000000	0.0519831 	34000.000000	8.61676e-08	
36000.000000	0.132207  	36000.000000	0.0543277 	36000.000000	0.0180185 	36000.000000	0.0179888 	36000.000000	0.0543276 	36000.000000	8.1643e-08	
38000.000000	0.142955  	38000.000000	0.0566662 	38000.000000	0.0181004 	38000.000000	0.0180726 	38000.000000	0.0566661 	38000.000000	7.75812e-08	
40000.000000	0.15414   	40000.000000	0.0589989 	40000.000000	0.0181777 	40000.000000	0.0181518 	40000.000000	0.0589988 	40000.000000	7.39142e-08	
42000.000000	0.165765  	42000.000000	0.061326  	42000.000000	0.0182507 	42000.000000	0.0182268 	42000.000000	0.0613259 	42000.000000	7.05865e-08	
44000.000000	0.177835  	44000.000000	0.0636478 	44000.000000	0.01832   	44000.000000	0.0182981 	44000.000000	0.0636478 	44000.000000	6.75528e-08	
46000.000000	0.190355  	46000.000000	0.0659646 	46000.000000	0.0183859 	46000.000000	0.018366  	46000.000000	0.0659645 	46000.000000	6.47755e-08	
48000.000000	0.203329  	48000.000000	0.0682765 	48000.000000	0.0184487 	48000.000000	0.0184307 	48000.000000	0.0682764 	48000.000000	6.22231e-08	
50000.000000	0.216762  	50000.000000	0.0705836 	50000.000000	0.0185084 	50000.000000	0.0184927 	50000.000000	0.0705836 	50000.000000	5.98691e-08	
