0.001000	2.65075   	0.001000	1.49782   	0.001000	1.52807   	0.001000	1.52807   	0.001000	0.480292  	0.001000	1.01752   	
0.002000	2.68106   	0.002000	1.52038   	0.002000	1.57713   	0.002000	1.57713   	0.002000	0.665257  	0.002000	0.855125  	
0.005000	2.91681   	0.005000	1.61248   	0.005000	1.73071   	0.005000	1.73071   	0.005000	1.02334   	0.005000	0.589133  	
0.008000	3.17734   	0.008000	1.73707   	0.008000	1.90474   	0.008000	1.90474   	0.008000	1.27632   	0.008000	0.460752  	
0.010000	3.34106   	0.010000	1.82299   	0.010000	2.01997   	0.010000	2.01997   	0.010000	1.41744   	0.010000	0.405551  	
0.015000	3.93411   	0.015000	2.03164   	0.015000	2.29387   	0.015000	2.29387   	0.015000	1.71502   	0.015000	0.31662   	
0.020000	4.5088    	0.020000	2.34345   	0.020000	2.67605   	0.020000	2.67605   	0.020000	2.0807    	0.020000	0.262754  	
0.025000	5.16652   	0.025000	2.71378   	0.025000	3.09623   	0.025000	3.09623   	0.025000	2.48765   	0.025000	0.226129  	
0.030000	5.76986   	0.030000	3.08011   	0.030000	3.41857   	0.030000	3.41857   	0.030000	2.88072   	0.030000	0.199385  	
0.035000	6.30616   	0.035000	3.43462   	0.035000	3.72174   	0.035000	3.72174   	0.035000	3.25742   	0.035000	0.177196  	
0.040000	6.76715   	0.040000	3.77739   	0.040000	4.00799   	0.040000	4.00799   	0.040000	3.61627   	0.040000	0.161116  	
0.045000	7.14422   	0.045000	4.10472   	0.045000	4.27493   	0.045000	4.27493   	0.045000	3.95675   	0.045000	0.147973  	
0.050000	7.3772    	0.050000	4.40258   	0.050000	4.52284   	0.050000	4.52284   	0.050000	4.26557   	0.050000	0.137007  	
0.055000	7.77197   	0.055000	4.63314   	0.055000	4.7524    	0.055000	4.7524    	0.055000	4.50544   	0.055000	0.127703  	
0.060000	8.1213    	0.060000	4.84875   	0.060000	4.96457   	0.060000	4.96457   	0.060000	4.72905   	0.060000	0.119698  	
0.070000	8.69166   	0.070000	5.24153   	0.070000	5.34149   	0.070000	5.34149   	0.070000	5.13492   	0.070000	0.106602  	
0.080000	9.29575   	0.080000	5.58387   	0.080000	5.66356   	0.080000	5.66356   	0.080000	5.48755   	0.080000	0.0963114 	
0.090000	9.7917    	0.090000	5.8948    	0.090000	5.94056   	0.090000	5.94056   	0.090000	5.80681   	0.090000	0.0879896 	
0.100000	10.1784   	0.100000	6.18258   	0.100000	6.18116   	0.100000	6.18116   	0.100000	6.10147   	0.100000	0.0811063 	
0.120000	10.4404   	0.120000	6.46236   	0.120000	6.58053   	0.120000	6.58053   	0.120000	6.392     	0.120000	0.070351  	
0.140000	10.617    	0.140000	6.70946   	0.140000	6.90318   	0.140000	6.90318   	0.140000	6.64716   	0.140000	0.0623028 	
0.160000	10.7763   	0.160000	6.93726   	0.160000	7.17389   	0.160000	7.17389   	0.160000	6.88123   	0.160000	0.0560324 	
0.180000	10.9464   	0.180000	7.1497    	0.180000	7.40713   	0.180000	7.40713   	0.180000	7.09871   	0.180000	0.0509963 	
0.200000	11.2151   	0.200000	7.39327   	0.200000	7.61147   	0.200000	7.61147   	0.200000	7.34642   	0.200000	0.0468545 	
0.250000	11.5148   	0.250000	7.81288   	0.250000	8.02697   	0.250000	8.02697   	0.250000	7.77378   	0.250000	0.0391065 	
0.300000	11.7818   	0.300000	8.09701   	0.300000	8.33932   	0.300000	8.33932   	0.300000	8.06332   	0.300000	0.0336937 	
0.350000	12.0702   	0.350000	8.32435   	0.350000	8.57395   	0.350000	8.57395   	0.350000	8.29467   	0.350000	0.0296811 	
0.400000	12.313    	0.400000	8.48642   	0.400000	8.80377   	0.400000	8.80377   	0.400000	8.45984   	0.400000	0.0265779 	
0.450000	12.4817   	0.450000	8.57298   	0.450000	9.04681   	0.450000	9.04681   	0.450000	8.54888   	0.450000	0.0241007 	
0.500000	12.5894   	0.500000	8.60292   	0.500000	9.22499   	0.500000	9.22499   	0.500000	8.58085   	0.500000	0.0220738 	
0.600000	12.2944   	0.600000	8.71745   	0.600000	9.43844   	0.600000	9.43844   	0.600000	8.6985    	0.600000	0.0189473 	
0.700000	11.88     	0.700000	8.74394   	0.700000	9.52041   	0.700000	9.52041   	0.700000	8.7273    	0.700000	0.0166409 	
0.800000	11.8313   	0.800000	8.83283   	0.800000	9.46566   	0.800000	9.46566   	0.800000	8.81796   	0.800000	0.0148643 	
0.900000	11.7187   	0.900000	8.87092   	0.900000	9.36503   	0.900000	9.36503   	0.900000	8.85747   	0.900000	0.0134507 	
1.000000	11.5846   	1.000000	8.88961   	1.000000	9.24002   	1.000000	9.24002   	1.000000	8.87731   	1.000000	0.0122972 	
1.250000	11.1232   	1.250000	8.69337   	1.250000	8.8721    	1.250000	8.8721    	1.250000	8.68321   	1.250000	0.0101623 	
1.500000	10.5397   	1.500000	8.38179   	1.500000	8.4237    	1.500000	8.4237    	1.500000	8.3731    	1.500000	0.00868958	
1.750000	9.9729    	1.750000	8.06659   	1.750000	8.01936   	1.750000	8.01936   	1.750000	8.05898   	1.750000	0.00760836	
2.000000	9.43391   	2.000000	7.75688   	2.000000	7.65236   	2.000000	7.65236   	2.000000	7.7501    	2.000000	0.00677871	
2.250000	8.95708   	2.250000	7.41583   	2.250000	7.31774   	2.250000	7.31774   	2.250000	7.40971   	2.250000	0.0061207 	
2.500000	8.86159   	2.500000	7.09626   	2.500000	7.01153   	2.500000	7.01153   	2.500000	7.09068   	2.500000	0.00558526	
3.000000	8.03384   	3.000000	6.52926   	3.000000	6.47147   	3.000000	6.47147   	3.000000	6.52449   	3.000000	0.00476488	
3.500000	7.3506    	3.500000	6.05466   	3.500000	6.01084   	3.500000	6.01084   	3.500000	6.0505    	3.500000	0.00416426	
4.000000	6.77846   	4.000000	5.64473   	4.000000	5.61367   	4.000000	5.61367   	4.000000	5.64102   	4.000000	0.00370442	
4.500000	6.29282   	4.500000	5.29265   	4.500000	5.26785   	4.500000	5.26785   	4.500000	5.28931   	4.500000	0.00334041	
5.000000	5.87556   	5.000000	4.98667   	5.000000	4.96406   	5.000000	4.96406   	5.000000	4.98362   	5.000000	0.00304468	
5.500000	5.51317   	5.500000	4.71752   	5.500000	4.69506   	5.500000	4.69506   	5.500000	4.71472   	5.500000	0.0027994 	
6.000000	5.19544   	6.000000	4.47849   	6.000000	4.45518   	6.000000	4.45518   	6.000000	4.4759    	6.000000	0.00259248	
6.500000	4.91455   	6.500000	4.26437   	6.500000	4.23989   	6.500000	4.23989   	6.500000	4.26196   	6.500000	0.00241545	
7.000000	4.66439   	7.000000	4.07134   	7.000000	4.04556   	7.000000	4.04556   	7.000000	4.06908   	7.000000	0.00226217	
7.500000	4.44011   	7.500000	3.89643   	7.500000	3.86923   	7.500000	3.86923   	7.500000	3.8943    	7.500000	0.00212808	
8.000000	4.23786   	8.000000	3.7371    	8.000000	3.70849   	8.000000	3.70849   	8.000000	3.73509   	8.000000	0.00200975	
8.500000	4.0545    	8.500000	3.59127   	8.500000	3.56133   	8.500000	3.56133   	8.500000	3.58937   	8.500000	0.00190449	
9.000000	3.88747   	9.000000	3.45725   	9.000000	3.42607   	9.000000	3.42607   	9.000000	3.45544   	9.000000	0.00181023	
9.500000	3.73466   	9.500000	3.33361   	9.500000	3.30131   	9.500000	3.30131   	9.500000	3.33188   	9.500000	0.00172531	
10.000000	3.59429   	10.000000	3.23455   	10.000000	3.18585   	10.000000	3.18585   	10.000000	3.23291   	10.000000	0.00164837	
11.000000	3.34522   	11.000000	3.03695   	11.000000	2.97922   	11.000000	2.98562   	11.000000	3.03543   	11.000000	0.00151427	
12.000000	3.13086   	12.000000	2.86231   	12.000000	2.79969   	12.000000	2.81052   	12.000000	2.86091   	12.000000	0.00140126	
13.000000	2.94436   	13.000000	2.70707   	13.000000	2.64227   	13.000000	2.65614   	13.000000	2.70576   	13.000000	0.00130467	
14.000000	2.78054   	14.000000	2.5683    	14.000000	2.50307   	14.000000	2.51902   	14.000000	2.56707   	14.000000	0.0012211 	
15.000000	2.63544   	15.000000	2.44358   	15.000000	2.37905   	15.000000	2.39643   	15.000000	2.44244   	15.000000	0.00114806	
16.000000	2.506     	16.000000	2.33095   	16.000000	2.26794   	16.000000	2.2862    	16.000000	2.32987   	16.000000	0.00108364	
17.000000	2.38976   	17.000000	2.22876   	17.000000	2.16787   	17.000000	2.18656   	17.000000	2.22774   	17.000000	0.00102638	
18.000000	2.28479   	18.000000	2.13566   	18.000000	2.07718   	18.000000	2.09607   	18.000000	2.13468   	18.000000	0.000975132	
19.000000	2.18949   	19.000000	2.05048   	19.000000	1.9946    	19.000000	2.01354   	19.000000	2.04955   	19.000000	0.000928984	
20.000000	2.10257   	20.000000	1.97229   	20.000000	1.91913   	20.000000	1.93798   	20.000000	1.9714    	20.000000	0.000887197	
21.000000	2.02296   	21.000000	1.90025   	21.000000	1.84991   	21.000000	1.86855   	21.000000	1.8994    	21.000000	0.000849174	
22.000000	1.94975   	22.000000	1.83368   	22.000000	1.78623   	22.000000	1.80455   	22.000000	1.83287   	22.000000	0.00081442	
23.000000	1.88219   	23.000000	1.77198   	23.000000	1.72747   	23.000000	1.74539   	23.000000	1.7712    	23.000000	0.000782524	
24.000000	1.81964   	24.000000	1.71464   	24.000000	1.67309   	24.000000	1.69054   	24.000000	1.71388   	24.000000	0.000753143	
25.000000	1.76156   	25.000000	1.6612    	25.000000	1.62263   	25.000000	1.63958   	25.000000	1.66048   	25.000000	0.000725987	
27.000000	1.65699   	27.000000	1.56458   	27.000000	1.53194   	27.000000	1.54779   	27.000000	1.5639    	27.000000	0.000677392	
29.000000	1.56541   	29.000000	1.47957   	29.000000	1.45278   	29.000000	1.46749   	29.000000	1.47893   	29.000000	0.000635156	
31.000000	1.48452   	31.000000	1.40418   	31.000000	1.38151   	31.000000	1.39445   	31.000000	1.40359   	31.000000	0.00059809	
33.000000	1.41253   	33.000000	1.33688   	33.000000	1.3164    	33.000000	1.32727   	33.000000	1.33632   	33.000000	0.000565286	
35.000000	1.34801   	35.000000	1.27642   	35.000000	1.25783   	35.000000	1.26703   	35.000000	1.27589   	35.000000	0.000536041	
38.000000	1.26285   	38.000000	1.19644   	38.000000	1.1804    	38.000000	1.18749   	38.000000	1.19594   	38.000000	0.000497657	
41.000000	1.18909   	41.000000	1.12702   	41.000000	1.11308   	41.000000	1.11856   	41.000000	1.12656   	41.000000	0.000464613	
44.000000	1.12456   	44.000000	1.06619   	44.000000	1.05407   	44.000000	1.05822   	44.000000	1.06576   	44.000000	0.000435853	
47.000000	1.0676    	47.000000	1.01245   	47.000000	1.00181   	47.000000	1.00494   	47.000000	1.01204   	47.000000	0.000410584	
50.000000	1.01693   	50.000000	0.964609  	50.000000	0.955242  	50.000000	0.957531  	50.000000	0.964221  	50.000000	0.000388199	
55.000000	0.943812  	55.000000	0.895555  	55.000000	0.887839  	55.000000	0.889113  	55.000000	0.895199  	55.000000	0.000356059	
60.000000	0.881971  	60.000000	0.837151  	60.000000	0.830878  	60.000000	0.83124   	60.000000	0.836822  	60.000000	0.000329024	
65.000000	0.828939  	65.000000	0.78709   	65.000000	0.781873  	65.000000	0.781618  	65.000000	0.786784  	65.000000	0.000305953	
70.000000	0.782928  	70.000000	0.74369   	70.000000	0.739249  	70.000000	0.738576  	70.000000	0.743404  	70.000000	0.000286024	
75.000000	0.742605  	75.000000	0.705693  	75.000000	0.701957  	75.000000	0.70087   	75.000000	0.705424  	75.000000	0.000268629	
80.000000	0.706957  	80.000000	0.67214   	80.000000	0.668912  	80.000000	0.667554  	80.000000	0.671887  	80.000000	0.000253306	
85.000000	0.6752    	85.000000	0.642289  	85.000000	0.639473  	85.000000	0.637895  	85.000000	0.642049  	85.000000	0.000239703	
90.000000	0.646717  	90.000000	0.615553  	90.000000	0.613082  	90.000000	0.611314  	90.000000	0.615326  	90.000000	0.00022754	
95.000000	0.621016  	95.000000	0.591465  	95.000000	0.589283  	95.000000	0.587351  	95.000000	0.591248  	95.000000	0.000216599	
100.000000	0.5977    	100.000000	0.569646  	100.000000	0.567707  	100.000000	0.565634  	100.000000	0.56944   	100.000000	0.000206702	
105.000000	0.576445  	105.000000	0.549788  	105.000000	0.54806   	105.000000	0.545857  	105.000000	0.54959   	105.000000	0.000197704	
110.000000	0.556983  	110.000000	0.531635  	110.000000	0.530018  	110.000000	0.527769  	110.000000	0.531446  	110.000000	0.000189486	
115.000000	0.53909   	115.000000	0.514976  	115.000000	0.513491  	115.000000	0.511161  	115.000000	0.514794  	115.000000	0.000181951	
120.000000	0.522581  	120.000000	0.499631  	120.000000	0.498258  	120.000000	0.495858  	120.000000	0.499455  	120.000000	0.000175014	
125.000000	0.507296  	125.000000	0.485449  	125.000000	0.484122  	125.000000	0.481709  	125.000000	0.485281  	125.000000	0.000168607	
130.000000	0.493102  	130.000000	0.472303  	130.000000	0.471026  	130.000000	0.468589  	130.000000	0.472141  	130.000000	0.000162671	
135.000000	0.479882  	135.000000	0.460083  	135.000000	0.458892  	135.000000	0.456388  	135.000000	0.459925  	135.000000	0.000157154	
140.000000	0.467538  	140.000000	0.448692  	140.000000	0.447554  	140.000000	0.445013  	140.000000	0.44854   	140.000000	0.000152014	
145.000000	0.455982  	145.000000	0.438049  	145.000000	0.436928  	145.000000	0.434382  	145.000000	0.437902  	145.000000	0.000147212	
150.000000	0.44514   	150.000000	0.428083  	150.000000	0.426981  	150.000000	0.424424  	150.000000	0.42794   	150.000000	0.000142716	
155.000000	0.429868  	155.000000	0.41873   	155.000000	0.417644  	155.000000	0.415078  	155.000000	0.418591  	155.000000	0.000138497	
160.000000	0.420919  	160.000000	0.409935  	160.000000	0.40886   	160.000000	0.406288  	160.000000	0.4098    	160.000000	0.00013453	
165.000000	0.412479  	165.000000	0.401649  	165.000000	0.400585  	165.000000	0.398006  	165.000000	0.401519  	165.000000	0.000130792	
170.000000	0.404506  	170.000000	0.39383   	170.000000	0.392773  	170.000000	0.390189  	170.000000	0.393703  	170.000000	0.000127265	
175.000000	0.396961  	175.000000	0.386439  	175.000000	0.385387  	175.000000	0.3828    	175.000000	0.386315  	175.000000	0.00012393	
180.000000	0.38981   	180.000000	0.379441  	180.000000	0.378395  	180.000000	0.375804  	180.000000	0.379321  	180.000000	0.000120772	
185.000000	0.383024  	185.000000	0.372807  	185.000000	0.371763  	185.000000	0.36917   	185.000000	0.372689  	185.000000	0.000117777	
190.000000	0.376573  	190.000000	0.366508  	190.000000	0.365465  	190.000000	0.362872  	190.000000	0.366393  	190.000000	0.000114933	
195.000000	0.370434  	195.000000	0.360519  	195.000000	0.359483  	195.000000	0.356885  	195.000000	0.360407  	195.000000	0.000112228	
200.000000	0.364585  	200.000000	0.354818  	200.000000	0.353786  	200.000000	0.351186  	200.000000	0.354709  	200.000000	0.000109652	
210.000000	0.353675  	210.000000	0.344203  	210.000000	0.343132  	210.000000	0.340574  	210.000000	0.344098  	210.000000	0.000104853	
220.000000	0.343703  	220.000000	0.334519  	220.000000	0.333445  	220.000000	0.330896  	220.000000	0.334419  	220.000000	0.000100472	
230.000000	0.334552  	230.000000	0.325651  	230.000000	0.324583  	230.000000	0.322035  	230.000000	0.325554  	230.000000	9.64547e-05	
240.000000	0.326125  	240.000000	0.317499  	240.000000	0.316443  	240.000000	0.313893  	240.000000	0.317406  	240.000000	9.27582e-05	
250.000000	0.318337  	250.000000	0.30998   	250.000000	0.308909  	250.000000	0.306386  	250.000000	0.309891  	250.000000	8.93448e-05	
260.000000	0.31112   	260.000000	0.303025  	260.000000	0.30194   	260.000000	0.299445  	260.000000	0.302939  	260.000000	8.61827e-05	
270.000000	0.304411  	270.000000	0.296573  	270.000000	0.295507  	270.000000	0.293008  	270.000000	0.29649   	270.000000	8.32449e-05	
280.000000	0.29816   	280.000000	0.290571  	280.000000	0.289518  	280.000000	0.287024  	280.000000	0.290491  	280.000000	8.0508e-05	
290.000000	0.292321  	290.000000	0.284975  	290.000000	0.283909  	290.000000	0.281448  	290.000000	0.284897  	290.000000	7.79519e-05	
300.000000	0.286855  	300.000000	0.279745  	300.000000	0.278687  	300.000000	0.276239  	300.000000	0.27967   	300.000000	7.5559e-05	
310.000000	0.281727  	310.000000	0.274847  	310.000000	0.273807  	310.000000	0.271365  	310.000000	0.274774  	310.000000	7.33139e-05	
320.000000	0.276908  	320.000000	0.270252  	320.000000	0.269207  	320.000000	0.266794  	320.000000	0.270181  	320.000000	7.12032e-05	
330.000000	0.272369  	330.000000	0.265932  	330.000000	0.264898  	330.000000	0.262499  	330.000000	0.265862  	330.000000	6.92151e-05	
340.000000	0.268089  	340.000000	0.261863  	340.000000	0.260858  	340.000000	0.258458  	340.000000	0.261796  	340.000000	6.7339e-05	
350.000000	0.264045  	350.000000	0.258026  	350.000000	0.257049  	350.000000	0.254649  	350.000000	0.257961  	350.000000	6.55656e-05	
360.000000	0.26022   	360.000000	0.254401  	360.000000	0.253437  	360.000000	0.251054  	360.000000	0.254337  	360.000000	6.38866e-05	
370.000000	0.256595  	370.000000	0.250972  	370.000000	0.250015  	370.000000	0.247655  	370.000000	0.25091   	370.000000	6.22946e-05	
380.000000	0.253157  	380.000000	0.247724  	380.000000	0.246789  	380.000000	0.244438  	380.000000	0.247663  	380.000000	6.07829e-05	
390.000000	0.249891  	390.000000	0.244643  	390.000000	0.243737  	390.000000	0.241388  	390.000000	0.244584  	390.000000	5.93454e-05	
400.000000	0.246785  	400.000000	0.241717  	400.000000	0.240828  	400.000000	0.238495  	400.000000	0.241659  	400.000000	5.79769e-05	
410.000000	0.243828  	410.000000	0.238935  	410.000000	0.238059  	410.000000	0.235746  	410.000000	0.238879  	410.000000	5.66723e-05	
420.000000	0.241009  	420.000000	0.236288  	420.000000	0.23543   	420.000000	0.233131  	420.000000	0.236232  	420.000000	5.54273e-05	
430.000000	0.238321  	430.000000	0.233765  	430.000000	0.232933  	430.000000	0.230642  	430.000000	0.233711  	430.000000	5.42378e-05	
440.000000	0.235753  	440.000000	0.23136   	440.000000	0.230554  	440.000000	0.22827   	440.000000	0.231307  	440.000000	5.31001e-05	
450.000000	0.233299  	450.000000	0.229064  	450.000000	0.228282  	450.000000	0.226008  	450.000000	0.229012  	450.000000	5.20109e-05	
460.000000	0.230952  	460.000000	0.22687   	460.000000	0.226106  	460.000000	0.223848  	460.000000	0.226819  	460.000000	5.09671e-05	
470.000000	0.228705  	470.000000	0.224772  	470.000000	0.224026  	470.000000	0.221783  	470.000000	0.224722  	470.000000	4.99659e-05	
480.000000	0.226552  	480.000000	0.222764  	480.000000	0.222043  	480.000000	0.21981   	480.000000	0.222715  	480.000000	4.90047e-05	
490.000000	0.224487  	490.000000	0.220841  	490.000000	0.220153  	490.000000	0.21792   	490.000000	0.220793  	490.000000	4.80811e-05	
500.000000	0.222506  	500.000000	0.218998  	500.000000	0.218341  	500.000000	0.216111  	500.000000	0.218951  	500.000000	4.71929e-05	
520.000000	0.218776  	520.000000	0.215534  	520.000000	0.214918  	520.000000	0.212713  	520.000000	0.215489  	520.000000	4.55149e-05	
540.000000	0.215329  	540.000000	0.212339  	540.000000	0.211776  	540.000000	0.209584  	540.000000	0.212295  	540.000000	4.39563e-05	
560.000000	0.212136  	560.000000	0.209385  	560.000000	0.208881  	560.000000	0.206694  	560.000000	0.209343  	560.000000	4.25045e-05	
580.000000	0.209172  	580.000000	0.206648  	580.000000	0.206186  	580.000000	0.20402   	580.000000	0.206607  	580.000000	4.11488e-05	
600.000000	0.206415  	600.000000	0.204107  	600.000000	0.203682  	600.000000	0.201539  	600.000000	0.204067  	600.000000	3.98799e-05	
620.000000	0.203846  	620.000000	0.201743  	620.000000	0.201361  	620.000000	0.199233  	620.000000	0.201705  	620.000000	3.86896e-05	
640.000000	0.201449  	640.000000	0.199541  	640.000000	0.199211  	640.000000	0.197087  	640.000000	0.199503  	640.000000	3.75708e-05	
660.000000	0.199208  	660.000000	0.197485  	660.000000	0.197203  	660.000000	0.195085  	660.000000	0.197449  	660.000000	3.6517e-05	
680.000000	0.197111  	680.000000	0.195564  	680.000000	0.195316  	680.000000	0.193215  	680.000000	0.195528  	680.000000	3.55228e-05	
700.000000	0.195145  	700.000000	0.193766  	700.000000	0.193554  	700.000000	0.191465  	700.000000	0.193731  	700.000000	3.45832e-05	
720.000000	0.193301  	720.000000	0.19208   	720.000000	0.191912  	720.000000	0.189826  	720.000000	0.192047  	720.000000	3.36937e-05	
740.000000	0.19157   	740.000000	0.190499  	740.000000	0.190383  	740.000000	0.1883    	740.000000	0.190466  	740.000000	3.28504e-05	
760.000000	0.189942  	760.000000	0.189014  	760.000000	0.188968  	760.000000	0.186896  	760.000000	0.188982  	760.000000	3.20497e-05	
780.000000	0.18841   	780.000000	0.187619  	780.000000	0.187633  	780.000000	0.185574  	780.000000	0.187587  	780.000000	3.12884e-05	
800.000000	0.186968  	800.000000	0.186305  	800.000000	0.186375  	800.000000	0.184331  	800.000000	0.186274  	800.000000	3.05638e-05	
820.000000	0.185609  	820.000000	0.185068  	820.000000	0.185192  	820.000000	0.183158  	820.000000	0.185038  	820.000000	2.98731e-05	
840.000000	0.184327  	840.000000	0.183902  	840.000000	0.184079  	840.000000	0.182052  	840.000000	0.183873  	840.000000	2.9214e-05	
860.000000	0.183118  	860.000000	0.182803  	860.000000	0.183032  	860.000000	0.181008  	860.000000	0.182774  	860.000000	2.85843e-05	
880.000000	0.181977  	880.000000	0.181766  	880.000000	0.182044  	880.000000	0.180021  	880.000000	0.181738  	880.000000	2.79822e-05	
900.000000	0.1809    	900.000000	0.180786  	900.000000	0.181107  	900.000000	0.179088  	900.000000	0.180759  	900.000000	2.74057e-05	
920.000000	0.179882  	920.000000	0.179861  	920.000000	0.180217  	920.000000	0.178205  	920.000000	0.179834  	920.000000	2.68534e-05	
940.000000	0.17892   	940.000000	0.178986  	940.000000	0.179371  	940.000000	0.177369  	940.000000	0.17896   	940.000000	2.63237e-05	
960.000000	0.178011  	960.000000	0.17816   	960.000000	0.178569  	960.000000	0.176576  	960.000000	0.178134  	960.000000	2.58151e-05	
980.000000	0.177152  	980.000000	0.177378  	980.000000	0.177808  	980.000000	0.175825  	980.000000	0.177353  	980.000000	2.53265e-05	
1000.000000	0.176339  	1000.000000	0.176638  	1000.000000	0.177087  	1000.000000	0.175111  	1000.000000	0.176614  	1000.000000	2.48567e-05	
1020.000000	0.175571  	1020.000000	0.175939  	1020.000000	0.176404  	1020.000000	0.174435  	1020.000000	0.175914  	1020.000000	2.44046e-05	
1040.000000	0.174845  	1040.000000	0.175277  	1040.000000	0.175758  	1040.000000	0.173792  	1040.000000	0.175253  	1040.000000	2.39693e-05	
1060.000000	0.174159  	1060.000000	0.17465   	1060.000000	0.175146  	1060.000000	0.173181  	1060.000000	0.174626  	1060.000000	2.35497e-05	
1080.000000	0.17351   	1080.000000	0.174057  	1080.000000	0.174564  	1080.000000	0.1726    	1080.000000	0.174034  	1080.000000	2.31451e-05	
1100.000000	0.172897  	1100.000000	0.173495  	1100.000000	0.17401   	1100.000000	0.172048  	1100.000000	0.173473  	1100.000000	2.27546e-05	
1120.000000	0.172318  	1120.000000	0.172964  	1120.000000	0.173482  	1120.000000	0.171522  	1120.000000	0.172942  	1120.000000	2.23775e-05	
1140.000000	0.171771  	1140.000000	0.172462  	1140.000000	0.172977  	1140.000000	0.171022  	1140.000000	0.17244   	1140.000000	2.20131e-05	
1160.000000	0.171255  	1160.000000	0.171986  	1160.000000	0.172496  	1160.000000	0.170546  	1160.000000	0.171964  	1160.000000	2.16609e-05	
1180.000000	0.170768  	1180.000000	0.171536  	1180.000000	0.172036  	1180.000000	0.170093  	1180.000000	0.171515  	1180.000000	2.13201e-05	
1200.000000	0.170309  	1200.000000	0.171111  	1200.000000	0.171599  	1200.000000	0.169661  	1200.000000	0.17109   	1200.000000	2.09902e-05	
1220.000000	0.169876  	1220.000000	0.170709  	1220.000000	0.171181  	1220.000000	0.169249  	1220.000000	0.170688  	1220.000000	2.06707e-05	
1240.000000	0.169469  	1240.000000	0.170329  	1240.000000	0.170784  	1240.000000	0.168857  	1240.000000	0.170309  	1240.000000	2.03612e-05	
1260.000000	0.169086  	1260.000000	0.16997   	1260.000000	0.170406  	1260.000000	0.168483  	1260.000000	0.16995   	1260.000000	2.00611e-05	
1280.000000	0.168726  	1280.000000	0.169632  	1280.000000	0.170045  	1280.000000	0.168127  	1280.000000	0.169612  	1280.000000	1.977e-05 	
1300.000000	0.168389  	1300.000000	0.169312  	1300.000000	0.169701  	1300.000000	0.167787  	1300.000000	0.169293  	1300.000000	1.94875e-05	
1320.000000	0.168072  	1320.000000	0.169012  	1320.000000	0.169374  	1320.000000	0.167463  	1320.000000	0.168992  	1320.000000	1.92133e-05	
1340.000000	0.167776  	1340.000000	0.168728  	1340.000000	0.169062  	1340.000000	0.167154  	1340.000000	0.168709  	1340.000000	1.89469e-05	
1360.000000	0.1675    	1360.000000	0.168462  	1360.000000	0.168764  	1360.000000	0.166859  	1360.000000	0.168443  	1360.000000	1.86881e-05	
1380.000000	0.167242  	1380.000000	0.168212  	1380.000000	0.16848   	1380.000000	0.166578  	1380.000000	0.168193  	1380.000000	1.84365e-05	
1400.000000	0.167003  	1400.000000	0.167977  	1400.000000	0.16821   	1400.000000	0.166309  	1400.000000	0.167959  	1400.000000	1.81918e-05	
1420.000000	0.16678   	1420.000000	0.167757  	1420.000000	0.167952  	1420.000000	0.166054  	1420.000000	0.167739  	1420.000000	1.79537e-05	
1440.000000	0.166575  	1440.000000	0.167551  	1440.000000	0.167706  	1440.000000	0.165809  	1440.000000	0.167533  	1440.000000	1.7722e-05	
1460.000000	0.166385  	1460.000000	0.167359  	1460.000000	0.167471  	1460.000000	0.165577  	1460.000000	0.167341  	1460.000000	1.74964e-05	
1480.000000	0.166211  	1480.000000	0.167179  	1480.000000	0.167247  	1480.000000	0.165354  	1480.000000	0.167162  	1480.000000	1.72767e-05	
1500.000000	0.166051  	1500.000000	0.167013  	1500.000000	0.167034  	1500.000000	0.165143  	1500.000000	0.166996  	1500.000000	1.70626e-05	
1520.000000	0.165906  	1520.000000	0.166858  	1520.000000	0.16683   	1520.000000	0.164941  	1520.000000	0.166841  	1520.000000	1.6854e-05	
1540.000000	0.165774  	1540.000000	0.166715  	1540.000000	0.166636  	1540.000000	0.164748  	1540.000000	0.166699  	1540.000000	1.66505e-05	
1560.000000	0.165656  	1560.000000	0.166583  	1560.000000	0.16645   	1560.000000	0.164564  	1560.000000	0.166567  	1560.000000	1.64521e-05	
1580.000000	0.165551  	1580.000000	0.166462  	1580.000000	0.166273  	1580.000000	0.164389  	1580.000000	0.166446  	1580.000000	1.62585e-05	
1600.000000	0.165458  	1600.000000	0.166352  	1600.000000	0.166105  	1600.000000	0.164223  	1600.000000	0.166335  	1600.000000	1.60696e-05	
1620.000000	0.165377  	1620.000000	0.166251  	1620.000000	0.165944  	1620.000000	0.164064  	1620.000000	0.166235  	1620.000000	1.58851e-05	
1640.000000	0.165308  	1640.000000	0.16616   	1640.000000	0.16579   	1640.000000	0.163912  	1640.000000	0.166144  	1640.000000	1.5705e-05	
1660.000000	0.16525   	1660.000000	0.166078  	1660.000000	0.165644  	1660.000000	0.163768  	1660.000000	0.166062  	1660.000000	1.5529e-05	
1680.000000	0.165202  	1680.000000	0.166005  	1680.000000	0.165504  	1680.000000	0.163631  	1680.000000	0.165989  	1680.000000	1.53571e-05	
1700.000000	0.165165  	1700.000000	0.16594   	1700.000000	0.165371  	1700.000000	0.163501  	1700.000000	0.165925  	1700.000000	1.51891e-05	
1750.000000	0.165117  	1750.000000	0.165815  	1750.000000	0.165067  	1750.000000	0.163203  	1750.000000	0.1658    	1750.000000	1.47853e-05	
1800.000000	0.165126  	1800.000000	0.165738  	1800.000000	0.164799  	1800.000000	0.162941  	1800.000000	0.165723  	1800.000000	1.4403e-05	
1850.000000	0.165191  	1850.000000	0.165704  	1850.000000	0.164564  	1850.000000	0.162711  	1850.000000	0.16569   	1850.000000	1.40407e-05	
1900.000000	0.165305  	1900.000000	0.165711  	1900.000000	0.16436   	1900.000000	0.162512  	1900.000000	0.165698  	1900.000000	1.36967e-05	
1950.000000	0.165467  	1950.000000	0.165756  	1950.000000	0.164183  	1950.000000	0.16234   	1950.000000	0.165742  	1950.000000	1.33697e-05	
2000.000000	0.165672  	2000.000000	0.165835  	2000.000000	0.164031  	2000.000000	0.162192  	2000.000000	0.165822  	2000.000000	1.30585e-05	
2100.000000	0.166202  	2100.000000	0.166087  	2100.000000	0.163795  	2100.000000	0.161962  	2100.000000	0.166074  	2100.000000	1.24789e-05	
2200.000000	0.166877  	2200.000000	0.16645   	2200.000000	0.163635  	2200.000000	0.161807  	2200.000000	0.166438  	2200.000000	1.19501e-05	
2300.000000	0.167679  	2300.000000	0.166909  	2300.000000	0.16354   	2300.000000	0.161715  	2300.000000	0.166898  	2300.000000	1.14657e-05	
2400.000000	0.168594  	2400.000000	0.167453  	2400.000000	0.163498  	2400.000000	0.161677  	2400.000000	0.167442  	2400.000000	1.10202e-05	
2500.000000	0.16961   	2500.000000	0.168071  	2500.000000	0.163501  	2500.000000	0.161682  	2500.000000	0.16806   	2500.000000	1.06091e-05	
2600.000000	0.170719  	2600.000000	0.168755  	2600.000000	0.163542  	2600.000000	0.161726  	2600.000000	0.168745  	2600.000000	1.02285e-05	
2700.000000	0.17191   	2700.000000	0.169497  	2700.000000	0.163616  	2700.000000	0.161802  	2700.000000	0.169487  	2700.000000	9.87505e-06	
2800.000000	0.173177  	2800.000000	0.170291  	2800.000000	0.163717  	2800.000000	0.161906  	2800.000000	0.170281  	2800.000000	9.54599e-06	
2900.000000	0.174513  	2900.000000	0.171131  	2900.000000	0.16384   	2900.000000	0.162032  	2900.000000	0.171122  	2900.000000	9.23882e-06	
3000.000000	0.175913  	3000.000000	0.172013  	3000.000000	0.163984  	3000.000000	0.162179  	3000.000000	0.172004  	3000.000000	8.9514e-06	
3200.000000	0.178884  	3200.000000	0.173886  	3200.000000	0.16432   	3200.000000	0.162519  	3200.000000	0.173878  	3200.000000	8.42861e-06	
3400.000000	0.182058  	3400.000000	0.175883  	3400.000000	0.164704  	3400.000000	0.162909  	3400.000000	0.175875  	3400.000000	7.96523e-06	
3600.000000	0.185409  	3600.000000	0.177982  	3600.000000	0.165124  	3600.000000	0.163334  	3600.000000	0.177974  	3600.000000	7.55159e-06	
3800.000000	0.188917  	3800.000000	0.180167  	3800.000000	0.16557   	3800.000000	0.163784  	3800.000000	0.180159  	3800.000000	7.18e-06  	
4000.000000	0.192565  	4000.000000	0.182423  	4000.000000	0.166032  	4000.000000	0.16425   	4000.000000	0.182416  	4000.000000	6.84432e-06	
4200.000000	0.19634   	4200.000000	0.184741  	4200.000000	0.166506  	4200.000000	0.164728  	4200.000000	0.184735  	4200.000000	6.53952e-06	
4400.000000	0.200231  	4400.000000	0.187111  	4400.000000	0.166987  	4400.000000	0.165212  	4400.000000	0.187105  	4400.000000	6.26149e-06	
4600.000000	0.204228  	4600.000000	0.189527  	4600.000000	0.167471  	4600.000000	0.165699  	4600.000000	0.189521  	4600.000000	6.00682e-06	
4800.000000	0.208325  	4800.000000	0.191981  	4800.000000	0.167955  	4800.000000	0.166187  	4800.000000	0.191975  	4800.000000	5.77266e-06	
5000.000000	0.212513  	5000.000000	0.194468  	5000.000000	0.168438  	5000.000000	0.166672  	5000.000000	0.194463  	5000.000000	5.5566e-06	
5250.000000	0.217871  	5250.000000	0.197619  	5250.000000	0.169038  	5250.000000	0.167275  	5250.000000	0.197614  	5250.000000	5.30889e-06	
5500.000000	0.223354  	5500.000000	0.200809  	5500.000000	0.16963   	5500.000000	0.16787   	5500.000000	0.200804  	5500.000000	5.08296e-06	
6000.000000	0.234673  	6000.000000	0.207283  	6000.000000	0.170788  	6000.000000	0.169033  	6000.000000	0.207278  	6000.000000	4.68575e-06	
6500.000000	0.246421  	6500.000000	0.213855  	6500.000000	0.171903  	6500.000000	0.170153  	6500.000000	0.213851  	6500.000000	4.34769e-06	
7000.000000	0.258565  	7000.000000	0.220501  	7000.000000	0.172975  	7000.000000	0.171228  	7000.000000	0.220497  	7000.000000	4.05639e-06	
7500.000000	0.27108   	7500.000000	0.227201  	7500.000000	0.174001  	7500.000000	0.172257  	7500.000000	0.227197  	7500.000000	3.80269e-06	
8000.000000	0.283946  	8000.000000	0.233943  	8000.000000	0.174984  	8000.000000	0.173241  	8000.000000	0.23394   	8000.000000	3.57969e-06	
8500.000000	0.29715   	8500.000000	0.240716  	8500.000000	0.175922  	8500.000000	0.174182  	8500.000000	0.240713  	8500.000000	3.38209e-06	
9000.000000	0.310679  	9000.000000	0.247513  	9000.000000	0.176818  	9000.000000	0.175083  	9000.000000	0.24751   	9000.000000	3.20574e-06	
9500.000000	0.324525  	9500.000000	0.254328  	9500.000000	0.177676  	9500.000000	0.175946  	9500.000000	0.254325  	9500.000000	3.04737e-06	
10000.000000	0.33868   	10000.000000	0.261156  	10000.000000	0.178499  	10000.000000	0.176772  	10000.000000	0.261153  	10000.000000	2.90433e-06	
11000.000000	0.367897  	11000.000000	0.274836  	11000.000000	0.180045  	11000.000000	0.178326  	11000.000000	0.274833  	11000.000000	2.65605e-06	
12000.000000	0.398296  	12000.000000	0.288534  	12000.000000	0.18147   	12000.000000	0.179761  	12000.000000	0.288531  	12000.000000	2.4479e-06	
13000.000000	0.429854  	13000.000000	0.302234  	13000.000000	0.18279   	13000.000000	0.181091  	13000.000000	0.302232  	13000.000000	2.27079e-06	
14000.000000	0.462557  	14000.000000	0.315929  	14000.000000	0.184021  	14000.000000	0.18233   	14000.000000	0.315927  	14000.000000	2.11822e-06	
15000.000000	0.496393  	15000.000000	0.329612  	15000.000000	0.185172  	15000.000000	0.183488  	15000.000000	0.32961   	15000.000000	1.98536e-06	
16000.000000	0.531356  	16000.000000	0.343278  	16000.000000	0.186249  	16000.000000	0.184573  	16000.000000	0.343277  	16000.000000	1.86861e-06	
17000.000000	0.567442  	17000.000000	0.356926  	17000.000000	0.187259  	17000.000000	0.185594  	17000.000000	0.356925  	17000.000000	1.76518e-06	
18000.000000	0.604651  	18000.000000	0.370554  	18000.000000	0.188209  	18000.000000	0.186558  	18000.000000	0.370552  	18000.000000	1.67289e-06	
19000.000000	0.64298   	19000.000000	0.38416   	19000.000000	0.189105  	19000.000000	0.187469  	19000.000000	0.384158  	19000.000000	1.59001e-06	
20000.000000	0.68243   	20000.000000	0.397744  	20000.000000	0.189953  	20000.000000	0.188333  	20000.000000	0.397742  	20000.000000	1.51518e-06	
21000.000000	0.723004  	21000.000000	0.411305  	21000.000000	0.190761  	21000.000000	0.189155  	21000.000000	0.411304  	21000.000000	1.44725e-06	
22000.000000	0.764704  	22000.000000	0.424844  	22000.000000	0.191533  	22000.000000	0.189937  	22000.000000	0.424842  	22000.000000	1.38531e-06	
23000.000000	0.807532  	23000.000000	0.43836   	23000.000000	0.192263  	23000.000000	0.190684  	23000.000000	0.438358  	23000.000000	1.32859e-06	
24000.000000	0.851492  	24000.000000	0.451854  	24000.000000	0.192958  	24000.000000	0.191399  	24000.000000	0.451852  	24000.000000	1.27646e-06	
25000.000000	0.896588  	25000.000000	0.465325  	25000.000000	0.193627  	25000.000000	0.192083  	25000.000000	0.465324  	25000.000000	1.22837e-06	
26000.000000	0.942823  	26000.000000	0.478775  	26000.000000	0.194268  	26000.000000	0.192739  	26000.000000	0.478774  	26000.000000	1.18387e-06	
27000.000000	0.990203  	27000.000000	0.492204  	27000.000000	0.194882  	27000.000000	0.19337   	27000.000000	0.492203  	27000.000000	1.14256e-06	
28000.000000	1.03873   	28000.000000	0.505612  	28000.000000	0.195471  	28000.000000	0.193977  	28000.000000	0.505611  	28000.000000	1.10412e-06	
29000.000000	1.08842   	29000.000000	0.518999  	29000.000000	0.196036  	29000.000000	0.194561  	29000.000000	0.518998  	29000.000000	1.06824e-06	
30000.000000	1.13926   	30000.000000	0.532367  	30000.000000	0.19658   	30000.000000	0.195125  	30000.000000	0.532365  	30000.000000	1.03469e-06	
32000.000000	1.24444   	32000.000000	0.559043  	32000.000000	0.197611  	32000.000000	0.196195  	32000.000000	0.559042  	32000.000000	9.7369e-07	
34000.000000	1.35433   	34000.000000	0.585644  	34000.000000	0.198577  	34000.000000	0.197198  	34000.000000	0.585643  	34000.000000	9.19656e-07	
36000.000000	1.46896   	36000.000000	0.612173  	36000.000000	0.199477  	36000.000000	0.19814   	36000.000000	0.612172  	36000.000000	8.71451e-07	
38000.000000	1.58839   	38000.000000	0.638634  	38000.000000	0.200316  	38000.000000	0.199028  	38000.000000	0.638633  	38000.000000	8.28172e-07	
40000.000000	1.71266   	40000.000000	0.665029  	40000.000000	0.201102  	40000.000000	0.199868  	40000.000000	0.665028  	40000.000000	7.89095e-07	
42000.000000	1.84183   	42000.000000	0.691362  	42000.000000	0.201845  	42000.000000	0.200665  	42000.000000	0.691361  	42000.000000	7.53631e-07	
44000.000000	1.97595   	44000.000000	0.717634  	44000.000000	0.202549  	44000.000000	0.201423  	44000.000000	0.717633  	44000.000000	7.21298e-07	
46000.000000	2.11505   	46000.000000	0.743848  	46000.000000	0.203221  	46000.000000	0.202145  	46000.000000	0.743848  	46000.000000	6.91694e-07	
48000.000000	2.25921   	48000.000000	0.770008  	48000.000000	0.203862  	48000.000000	0.202834  	48000.000000	0.770007  	48000.000000	6.64485e-07	
50000.000000	2.40847   	50000.000000	0.796114  	50000.000000	0.20447   	50000.000000	0.203494  	50000.000000	0.796113  	50000.000000	6.3939e-07	
