Energy (MeV/u)1	0 - [He-base] F.Hubert et al, AD&ND Tables 46(1990)1	Energy (MeV/u)2	1 - [H -base] J.F.Ziegler et al, Pergamon Press, NY (low energy)	Energy (MeV/u)3	2 - ATIMA 1.2  LS-theory (recommended for high energy)	Energy (MeV/u)4	3 - ATIMA 1.2  without LS-correction	Energy (MeV/u)5	4 - electrical component of [1] - J.F.Ziegler et al	Energy (MeV/u)6	5 - nuclear component of [1] - J.F.Ziegler et al	
0.001000	9.99594   	0.001000	2.85621   	0.001000	2.64651   	0.001000	2.64651   	0.001000	0.666965  	0.001000	2.18925   	
0.002000	10.2288   	0.002000	3.17094   	0.002000	2.89376   	0.002000	2.89376   	0.002000	0.92382   	0.002000	2.24712   	
0.005000	10.2898   	0.005000	3.46723   	0.005000	3.06855   	0.005000	3.06855   	0.005000	1.42108   	0.005000	2.04615   	
0.008000	10.4629   	0.008000	3.60145   	0.008000	3.1223    	0.008000	3.1223    	0.008000	1.77237   	0.008000	1.82907   	
0.010000	10.6278   	0.010000	3.67577   	0.010000	3.15328   	0.010000	3.15328   	0.010000	1.96835   	0.010000	1.70742   	
0.015000	11.1098   	0.015000	3.85136   	0.015000	3.24057   	0.015000	3.24057   	0.015000	2.38158   	0.015000	1.46977   	
0.020000	11.6184   	0.020000	4.02386   	0.020000	3.34221   	0.020000	3.34221   	0.020000	2.72639   	0.020000	1.29747   	
0.025000	12.1198   	0.025000	4.19432   	0.025000	3.45255   	0.025000	3.45255   	0.025000	3.02785   	0.025000	1.16647   	
0.030000	12.6034   	0.030000	4.36179   	0.030000	3.5673    	0.030000	3.5673    	0.030000	3.29876   	0.030000	1.06304   	
0.035000	13.0668   	0.035000	4.52559   	0.035000	3.68389   	0.035000	3.68389   	0.035000	3.54662   	0.035000	0.978969  	
0.040000	13.6105   	0.040000	4.68541   	0.040000	3.80074   	0.040000	3.80074   	0.040000	3.77634   	0.040000	0.909066  	
0.045000	14.1881   	0.045000	4.84115   	0.045000	3.91695   	0.045000	3.91695   	0.045000	3.99129   	0.045000	0.849867  	
0.050000	14.6511   	0.050000	5.02745   	0.050000	4.10143   	0.050000	4.10143   	0.050000	4.22847   	0.050000	0.798976  	
0.055000	15.4338   	0.055000	5.25551   	0.055000	4.39363   	0.055000	4.39363   	0.055000	4.50083   	0.055000	0.754679  	
0.060000	16.1418   	0.060000	5.47654   	0.060000	4.6866    	0.060000	4.6866    	0.060000	4.76083   	0.060000	0.715711  	
0.070000	17.3885   	0.070000	5.89697   	0.070000	5.2676    	0.070000	5.2676    	0.070000	5.24679   	0.070000	0.650175  	
0.080000	18.7534   	0.080000	6.28907   	0.080000	5.83191   	0.080000	5.83191   	0.080000	5.69203   	0.080000	0.597035  	
0.090000	19.9535   	0.090000	6.65428   	0.090000	6.37161   	0.090000	6.37161   	0.090000	6.10134   	0.090000	0.552942  	
0.100000	21.0219   	0.100000	6.99442   	0.100000	6.88261   	0.100000	6.88261   	0.100000	6.47875   	0.100000	0.515676  	
0.120000	22.3618   	0.120000	7.60743   	0.120000	7.81398   	0.120000	7.81398   	0.120000	7.15151   	0.120000	0.455923  	
0.140000	23.7653   	0.140000	8.14404   	0.140000	8.62939   	0.140000	8.62939   	0.140000	7.73412   	0.140000	0.409917  	
0.160000	25.4399   	0.160000	8.85728   	0.160000	9.34256   	0.160000	9.34256   	0.160000	8.48403   	0.160000	0.373252  	
0.180000	27.0184   	0.180000	9.50676   	0.180000	9.96665   	0.180000	9.96665   	0.180000	9.16667   	0.180000	0.340089  	
0.200000	28.5491   	0.200000	10.0877   	0.200000	10.5237   	0.200000	10.5237   	0.200000	9.77233   	0.200000	0.315321  	
0.250000	31.2619   	0.250000	11.3039   	0.250000	11.6888   	0.250000	11.6888   	0.250000	11.036    	0.250000	0.267913  	
0.300000	33.7122   	0.300000	12.2901   	0.300000	12.6353   	0.300000	12.6353   	0.300000	12.0562   	0.300000	0.233921  	
0.350000	35.9833   	0.350000	13.1527   	0.350000	13.4428   	0.350000	13.4428   	0.350000	12.9445   	0.350000	0.208229  	
0.400000	37.9926   	0.400000	13.9138   	0.400000	14.1532   	0.400000	14.1532   	0.400000	13.7257   	0.400000	0.188056  	
0.450000	39.7544   	0.450000	14.5905   	0.450000	14.7899   	0.450000	14.7899   	0.450000	14.4187   	0.450000	0.171752  	
0.500000	41.2933   	0.500000	15.1994   	0.500000	15.3669   	0.500000	15.3669   	0.500000	15.0411   	0.500000	0.158273  	
0.600000	42.4169   	0.600000	16.2576   	0.600000	16.671    	0.600000	16.671    	0.600000	16.1204   	0.600000	0.137225  	
0.700000	43.2714   	0.700000	17.3826   	0.700000	17.8037   	0.700000	17.8037   	0.700000	17.2611   	0.700000	0.121484  	
0.800000	45.1533   	0.800000	18.3119   	0.800000	18.7347   	0.800000	18.7347   	0.800000	18.2026   	0.800000	0.109226  	
0.900000	46.601    	0.900000	19.0862   	0.900000	19.5067   	0.900000	19.5067   	0.900000	18.9868   	0.900000	0.0993855 	
1.000000	47.712    	1.000000	19.7356   	1.000000	20.1507   	1.000000	20.1507   	1.000000	19.6444   	1.000000	0.0912951 	
1.250000	49.1542   	1.250000	20.8745   	1.250000	21.3427   	1.250000	21.3427   	1.250000	20.7983   	1.250000	0.0761673 	
1.500000	49.6608   	1.500000	21.6083   	1.500000	22.1173   	1.500000	22.1173   	1.500000	21.5427   	1.500000	0.0656048 	
1.750000	49.6503   	1.750000	22.0933   	1.750000	22.6166   	1.750000	22.6166   	1.750000	22.0355   	1.750000	0.0577778 	
2.000000	49.1533   	2.000000	22.3282   	2.000000	22.9274   	2.000000	22.9274   	2.000000	22.2764   	2.000000	0.0517267 	
2.250000	48.5629   	2.250000	22.4445   	2.250000	23.1053   	2.250000	23.1053   	2.250000	22.3976   	2.250000	0.0468975 	
2.500000	64.5389   	2.500000	22.4952   	2.500000	23.1872   	2.500000	23.1872   	2.500000	22.4522   	2.500000	0.042947  	
3.000000	61.7401   	3.000000	22.4583   	3.000000	23.1582   	3.000000	23.1582   	3.000000	22.4214   	3.000000	0.0368552 	
3.500000	58.9564   	3.500000	22.2599   	3.500000	22.8445   	3.500000	22.8445   	3.500000	22.2276   	3.500000	0.0323627 	
4.000000	56.3128   	4.000000	22.0104   	4.000000	22.4799   	4.000000	22.4799   	4.000000	21.9815   	4.000000	0.0289029 	
4.500000	53.8501   	4.500000	21.7467   	4.500000	22.098    	4.500000	22.098    	4.500000	21.7205   	4.500000	0.0261506 	
5.000000	51.5744   	5.000000	21.4538   	5.000000	21.7096   	5.000000	21.7096   	5.000000	21.4299   	5.000000	0.0239052 	
5.500000	49.4775   	5.500000	21.1401   	5.500000	21.3213   	5.500000	21.3213   	5.500000	21.1181   	5.500000	0.022036  	
6.000000	47.5458   	6.000000	20.8179   	6.000000	20.9375   	6.000000	20.9375   	6.000000	20.7975   	6.000000	0.020454  	
6.500000	45.7642   	6.500000	20.4947   	6.500000	20.5607   	6.500000	20.5607   	6.500000	20.4756   	6.500000	0.0190966 	
7.000000	44.1182   	7.000000	20.1731   	7.000000	20.1927   	7.000000	20.1927   	7.000000	20.1552   	7.000000	0.0179183 	
7.500000	42.594    	7.500000	19.8551   	7.500000	19.8343   	7.500000	19.8343   	7.500000	19.8383   	7.500000	0.0168851 	
8.000000	41.1795   	8.000000	19.5429   	8.000000	19.4863   	8.000000	19.4863   	8.000000	19.5269   	8.000000	0.0159713 	
8.500000	39.8635   	8.500000	19.2372   	8.500000	19.1487   	8.500000	19.1487   	8.500000	19.2221   	8.500000	0.0151569 	
9.000000	38.6364   	9.000000	18.9386   	9.000000	18.8215   	9.000000	18.8215   	9.000000	18.9242   	9.000000	0.0144262 	
9.500000	37.4896   	9.500000	18.6473   	9.500000	18.5048   	9.500000	18.5048   	9.500000	18.6335   	9.500000	0.0137668 	
10.000000	36.4155   	10.000000	18.4846   	10.000000	18.1981   	10.000000	18.1981   	10.000000	18.4715   	10.000000	0.0131684 	
11.000000	34.4592   	11.000000	18.0489   	11.000000	17.646    	11.000000	17.9163   	11.000000	18.0368   	11.000000	0.0121233 	
12.000000	32.7228   	12.000000	17.5965   	12.000000	17.1169   	12.000000	17.6073   	12.000000	17.5852   	12.000000	0.0112402 	
13.000000	31.1706   	13.000000	17.1419   	13.000000	16.6145   	13.000000	17.285    	13.000000	17.1314   	13.000000	0.0104836 	
14.000000	29.7744   	14.000000	16.6938   	14.000000	16.1383   	14.000000	16.9564   	14.000000	16.684    	14.000000	0.00982759	
15.000000	28.5113   	15.000000	16.2574   	15.000000	15.6875   	15.000000	16.6268   	15.000000	16.2481   	15.000000	0.0092531 	
16.000000	27.3629   	16.000000	15.8355   	16.000000	15.2604   	16.000000	16.2995   	16.000000	15.8268   	16.000000	0.00874553	
17.000000	26.3139   	17.000000	15.4297   	17.000000	14.8557   	17.000000	15.9772   	17.000000	15.4214   	17.000000	0.00829364	
18.000000	25.3515   	18.000000	15.0405   	18.000000	14.4722   	18.000000	15.6613   	18.000000	15.0326   	18.000000	0.00788858	
19.000000	24.4653   	19.000000	14.668    	19.000000	14.1089   	19.000000	15.3529   	19.000000	14.6605   	19.000000	0.00752331	
20.000000	23.6464   	20.000000	14.3119   	20.000000	13.7649   	20.000000	15.0528   	20.000000	14.3048   	20.000000	0.00719213	
21.000000	22.8872   	21.000000	13.9717   	21.000000	13.4278   	21.000000	14.7506   	21.000000	13.9649   	21.000000	0.0068904 	
22.000000	22.1812   	22.000000	13.6468   	22.000000	13.1057   	22.000000	14.4567   	22.000000	13.6402   	22.000000	0.00661429	
23.000000	21.5228   	23.000000	13.3364   	23.000000	12.8103   	23.000000	14.1835   	23.000000	13.3301   	23.000000	0.00636062	
24.000000	20.9074   	24.000000	13.0399   	24.000000	12.5304   	24.000000	13.9195   	24.000000	13.0338   	24.000000	0.0061267 	
25.000000	20.3307   	25.000000	12.7565   	25.000000	12.2649   	25.000000	13.6643   	25.000000	12.7506   	25.000000	0.00591027	
27.000000	19.2795   	27.000000	12.2262   	27.000000	11.7707   	27.000000	13.1799   	27.000000	12.2207   	27.000000	0.00552247	
29.000000	18.3449   	29.000000	11.7402   	29.000000	11.3205   	29.000000	12.7279   	29.000000	11.735    	29.000000	0.00518483	
31.000000	17.5082   	31.000000	11.2936   	31.000000	10.909    	31.000000	12.2385   	31.000000	11.2887   	31.000000	0.00488806	
33.000000	16.7545   	33.000000	10.8822   	33.000000	10.5302   	33.000000	11.7282   	33.000000	10.8776   	33.000000	0.00462505	
35.000000	16.0716   	35.000000	10.5021   	35.000000	10.1809   	35.000000	11.2644   	35.000000	10.4977   	35.000000	0.00439025	
38.000000	15.1594   	38.000000	9.98376   	38.000000	9.70447   	38.000000	10.6425   	38.000000	9.97968   	38.000000	0.00408161	
41.000000	14.359    	41.000000	9.51915   	41.000000	9.27851   	41.000000	10.0945   	41.000000	9.51534   	41.000000	0.00381547	
44.000000	13.6506   	44.000000	9.10057   	44.000000	8.89381   	44.000000	9.60782   	44.000000	9.09698   	44.000000	0.00358347	
47.000000	13.0189   	47.000000	8.72161   	47.000000	8.54536   	47.000000	9.17238   	47.000000	8.71823   	47.000000	0.00337936	
50.000000	12.4518   	50.000000	8.37699   	50.000000	8.22718   	50.000000	8.78037   	50.000000	8.3738    	50.000000	0.0031983 	
55.000000	11.6248   	55.000000	7.8673    	55.000000	7.7565    	55.000000	8.20697   	55.000000	7.86436   	55.000000	0.00293794	
60.000000	10.9172   	60.000000	7.42476   	60.000000	7.34499   	60.000000	7.7148    	60.000000	7.42205   	60.000000	0.00271855	
65.000000	10.3043   	65.000000	7.03703   	65.000000	6.98219   	65.000000	7.28755   	65.000000	7.0345    	65.000000	0.00253103	
70.000000	9.76785   	70.000000	6.69457   	70.000000	6.6615    	70.000000	6.91306   	70.000000	6.6922    	70.000000	0.00236882	
75.000000	9.29416   	75.000000	6.38994   	75.000000	6.3748    	75.000000	6.58204   	75.000000	6.38771   	75.000000	0.00222703	
80.000000	8.87257   	80.000000	6.11722   	80.000000	6.11695   	80.000000	6.28729   	80.000000	6.11512   	80.000000	0.00210199	
85.000000	8.49475   	85.000000	5.87169   	85.000000	5.8837    	85.000000	6.02313   	85.000000	5.8697    	85.000000	0.00199086	
90.000000	8.15406   	90.000000	5.64947   	90.000000	5.67168   	90.000000	5.785     	90.000000	5.64758   	90.000000	0.00189139	
95.000000	7.84517   	95.000000	5.44742   	95.000000	5.47887   	95.000000	5.56922   	95.000000	5.44562   	95.000000	0.00180183	
100.000000	7.56373   	100.000000	5.26292   	100.000000	5.30112   	100.000000	5.37277   	100.000000	5.2612    	100.000000	0.00172073	
105.000000	7.30614   	105.000000	5.09378   	105.000000	5.13902   	105.000000	5.19317   	105.000000	5.09214   	105.000000	0.00164695	
110.000000	7.06943   	110.000000	4.93818   	110.000000	4.98861   	110.000000	5.02832   	110.000000	4.9366    	110.000000	0.0015795 	
115.000000	6.85109   	115.000000	4.79456   	115.000000	4.8495    	115.000000	4.87649   	115.000000	4.79304   	115.000000	0.00151761	
120.000000	6.64903   	120.000000	4.66158   	120.000000	4.72044   	120.000000	4.73618   	120.000000	4.66012   	120.000000	0.0014606 	
125.000000	6.46143   	125.000000	4.53812   	125.000000	4.6002    	125.000000	4.60613   	125.000000	4.53672   	125.000000	0.0014079 	
130.000000	6.28676   	130.000000	4.4232    	130.000000	4.4883    	130.000000	4.48526   	130.000000	4.42184   	130.000000	0.00135904	
135.000000	6.1237    	135.000000	4.31595   	135.000000	4.3834    	135.000000	4.37263   	135.000000	4.31464   	135.000000	0.00131361	
140.000000	5.9711    	140.000000	4.21564   	140.000000	4.2851    	140.000000	4.26742   	140.000000	4.21437   	140.000000	0.00127125	
145.000000	5.82796   	145.000000	4.12163   	145.000000	4.19312   	145.000000	4.16893   	145.000000	4.12039   	145.000000	0.00123166	
150.000000	5.6934    	150.000000	4.03333   	150.000000	4.1067    	150.000000	4.07654   	150.000000	4.03213   	150.000000	0.00119457	
155.000000	5.50165   	155.000000	3.95025   	155.000000	4.02465   	155.000000	3.98969   	155.000000	3.94909   	155.000000	0.00115975	
160.000000	5.39039   	160.000000	3.87194   	160.000000	3.94714   	160.000000	3.90791   	160.000000	3.87081   	160.000000	0.00112699	
165.000000	5.2853    	165.000000	3.798     	165.000000	3.87435   	165.000000	3.83077   	165.000000	3.7969    	165.000000	0.00109611	
170.000000	5.18586   	170.000000	3.72808   	170.000000	3.8053    	170.000000	3.75788   	170.000000	3.72701   	170.000000	0.00106695	
175.000000	5.09164   	175.000000	3.66186   	175.000000	3.73966   	175.000000	3.68891   	175.000000	3.66082   	175.000000	0.00103937	
180.000000	5.00223   	180.000000	3.59906   	180.000000	3.67748   	180.000000	3.62356   	180.000000	3.59805   	180.000000	0.00101324	
185.000000	4.91726   	185.000000	3.53942   	185.000000	3.61832   	185.000000	3.56153   	185.000000	3.53843   	185.000000	0.000988456	
190.000000	4.8364    	190.000000	3.48271   	190.000000	3.56184   	190.000000	3.5026    	190.000000	3.48175   	190.000000	0.000964906	
195.000000	4.75937   	195.000000	3.42872   	195.000000	3.508     	195.000000	3.44654   	195.000000	3.42778   	195.000000	0.000942501	
200.000000	4.68589   	200.000000	3.37727   	200.000000	3.45674   	200.000000	3.39314   	200.000000	3.37635   	200.000000	0.000921159	
210.000000	4.54865   	210.000000	3.28128   	210.000000	3.36118   	210.000000	3.29362   	210.000000	3.2804    	210.000000	0.00088137	
220.000000	4.42298   	220.000000	3.19353   	220.000000	3.27329   	220.000000	3.20277   	220.000000	3.19269   	220.000000	0.000845017	
230.000000	4.30747   	230.000000	3.11303   	230.000000	3.19308   	230.000000	3.11951   	230.000000	3.11221   	230.000000	0.000811667	
240.000000	4.20093   	240.000000	3.03891   	240.000000	3.11863   	240.000000	3.04295   	240.000000	3.03813   	240.000000	0.000780958	
250.000000	4.10235   	250.000000	2.97045   	250.000000	3.04988   	250.000000	2.97233   	250.000000	2.9697    	250.000000	0.000752584	
260.000000	4.01087   	260.000000	2.90705   	260.000000	2.98632   	260.000000	2.90699   	260.000000	2.90632   	260.000000	0.000726284	
270.000000	3.92575   	270.000000	2.84816   	270.000000	2.92699   	270.000000	2.84638   	270.000000	2.84746   	270.000000	0.000701837	
280.000000	3.84635   	280.000000	2.79333   	280.000000	2.87188   	280.000000	2.79001   	280.000000	2.79265   	280.000000	0.000679049	
290.000000	3.77212   	290.000000	2.74217   	290.000000	2.82039   	290.000000	2.73747   	290.000000	2.74151   	290.000000	0.000657756	
300.000000	3.70256   	300.000000	2.69431   	300.000000	2.77224   	300.000000	2.68838   	300.000000	2.69367   	300.000000	0.000637813	
310.000000	3.63725   	310.000000	2.64946   	310.000000	2.7272    	310.000000	2.64244   	310.000000	2.64884   	310.000000	0.000619094	
320.000000	3.57582   	320.000000	2.60735   	320.000000	2.68494   	320.000000	2.59935   	320.000000	2.60675   	320.000000	0.000601488	
330.000000	3.51794   	330.000000	2.56775   	330.000000	2.64503   	330.000000	2.55887   	330.000000	2.56716   	330.000000	0.000584897	
340.000000	3.46331   	340.000000	2.53043   	340.000000	2.60734   	340.000000	2.52077   	340.000000	2.52986   	340.000000	0.000569234	
350.000000	3.41167   	350.000000	2.49522   	350.000000	2.57184   	350.000000	2.48487   	350.000000	2.49466   	350.000000	0.000554423	
360.000000	3.36278   	360.000000	2.46194   	360.000000	2.53831   	360.000000	2.45099   	360.000000	2.4614    	360.000000	0.000540395	
370.000000	3.31644   	370.000000	2.43044   	370.000000	2.5066    	370.000000	2.41896   	370.000000	2.42992   	370.000000	0.000527088	
380.000000	3.27246   	380.000000	2.4006    	380.000000	2.47662   	380.000000	2.38865   	380.000000	2.40008   	380.000000	0.000514449	
390.000000	3.23066   	390.000000	2.37228   	390.000000	2.44815   	390.000000	2.35992   	390.000000	2.37178   	390.000000	0.000502426	
400.000000	3.19089   	400.000000	2.34539   	400.000000	2.42097   	400.000000	2.33268   	400.000000	2.34489   	400.000000	0.000490976	
410.000000	3.15301   	410.000000	2.31981   	410.000000	2.39515   	410.000000	2.3068    	410.000000	2.31933   	410.000000	0.000480057	
420.000000	3.1169    	420.000000	2.29545   	420.000000	2.37073   	420.000000	2.28219   	420.000000	2.29498   	420.000000	0.000469633	
430.000000	3.08244   	430.000000	2.27225   	430.000000	2.34751   	430.000000	2.25878   	430.000000	2.27179   	430.000000	0.000459672	
440.000000	3.04951   	440.000000	2.25011   	440.000000	2.32528   	440.000000	2.23647   	440.000000	2.24966   	440.000000	0.000450141	
450.000000	3.01804   	450.000000	2.22898   	450.000000	2.304     	450.000000	2.21521   	450.000000	2.22854   	450.000000	0.000441014	
460.000000	2.98791   	460.000000	2.20878   	460.000000	2.2837    	460.000000	2.19491   	460.000000	2.20835   	460.000000	0.000432265	
470.000000	2.95907   	470.000000	2.18947   	470.000000	2.26432   	470.000000	2.17553   	470.000000	2.18904   	470.000000	0.00042387	
480.000000	2.93142   	480.000000	2.17098   	480.000000	2.24585   	480.000000	2.15705   	480.000000	2.17057   	480.000000	0.000415809	
490.000000	2.90491   	490.000000	2.15327   	490.000000	2.22821   	490.000000	2.13942   	490.000000	2.15287   	490.000000	0.000408061	
500.000000	2.87946   	500.000000	2.1363    	500.000000	2.21131   	500.000000	2.12254   	500.000000	2.1359    	500.000000	0.000400609	
520.000000	2.83153   	520.000000	2.10439   	520.000000	2.17957   	520.000000	2.09085   	520.000000	2.10401   	520.000000	0.000386524	
540.000000	2.78721   	540.000000	2.07496   	540.000000	2.15039   	540.000000	2.06169   	540.000000	2.07458   	540.000000	0.000373434	
560.000000	2.74614   	560.000000	2.04774   	560.000000	2.12338   	560.000000	2.03478   	560.000000	2.04738   	560.000000	0.000361236	
580.000000	2.708     	580.000000	2.02252   	580.000000	2.09824   	580.000000	2.00991   	580.000000	2.02217   	580.000000	0.000349841	
600.000000	2.67251   	600.000000	1.9991    	600.000000	2.07506   	600.000000	1.98686   	600.000000	1.99876   	600.000000	0.000339171	
620.000000	2.63944   	620.000000	1.97731   	620.000000	2.05361   	620.000000	1.96547   	620.000000	1.97698   	620.000000	0.000329157	
640.000000	2.60856   	640.000000	1.95701   	640.000000	2.03353   	640.000000	1.94558   	640.000000	1.95669   	640.000000	0.000319741	
660.000000	2.57969   	660.000000	1.93806   	660.000000	2.01475   	660.000000	1.92706   	660.000000	1.93775   	660.000000	0.00031087	
680.000000	2.55267   	680.000000	1.92035   	680.000000	1.99724   	680.000000	1.90978   	680.000000	1.92004   	680.000000	0.000302497	
700.000000	2.52734   	700.000000	1.90377   	700.000000	1.98096   	700.000000	1.89365   	700.000000	1.90348   	700.000000	0.00029458	
720.000000	2.50357   	720.000000	1.88824   	720.000000	1.9658    	720.000000	1.87856   	720.000000	1.88795   	720.000000	0.000287084	
740.000000	2.48124   	740.000000	1.87366   	740.000000	1.95159   	740.000000	1.86443   	740.000000	1.87338   	740.000000	0.000279974	
760.000000	2.46025   	760.000000	1.85998   	760.000000	1.93818   	760.000000	1.85119   	760.000000	1.85971   	760.000000	0.000273222	
780.000000	2.44049   	780.000000	1.84711   	780.000000	1.92556   	780.000000	1.83877   	780.000000	1.84685   	780.000000	0.000266801	
800.000000	2.42189   	800.000000	1.83501   	800.000000	1.9137    	800.000000	1.8271    	800.000000	1.83475   	800.000000	0.000260686	
820.000000	2.40435   	820.000000	1.82361   	820.000000	1.90256   	820.000000	1.81612   	820.000000	1.82336   	820.000000	0.000254856	
840.000000	2.38782   	840.000000	1.81287   	840.000000	1.89209   	840.000000	1.8058    	840.000000	1.81262   	840.000000	0.000249291	
860.000000	2.37221   	860.000000	1.80274   	860.000000	1.88224   	860.000000	1.79608   	860.000000	1.8025    	860.000000	0.000243973	
880.000000	2.35749   	880.000000	1.79319   	880.000000	1.87293   	880.000000	1.78692   	880.000000	1.79295   	880.000000	0.000238887	
900.000000	2.34358   	900.000000	1.78417   	900.000000	1.86411   	900.000000	1.77829   	900.000000	1.78393   	900.000000	0.000234016	
920.000000	2.33044   	920.000000	1.77564   	920.000000	1.85575   	920.000000	1.77014   	920.000000	1.77542   	920.000000	0.000229348	
940.000000	2.31802   	940.000000	1.76759   	940.000000	1.84785   	940.000000	1.76245   	940.000000	1.76737   	940.000000	0.00022487	
960.000000	2.30629   	960.000000	1.75998   	960.000000	1.84039   	960.000000	1.75518   	960.000000	1.75976   	960.000000	0.000220569	
980.000000	2.29519   	980.000000	1.75279   	980.000000	1.83338   	980.000000	1.74831   	980.000000	1.75257   	980.000000	0.000216437	
1000.000000	2.2847    	1000.000000	1.74598   	1000.000000	1.82677   	1000.000000	1.74182   	1000.000000	1.74577   	1000.000000	0.000212463	
1020.000000	2.27478   	1020.000000	1.73955   	1020.000000	1.82053   	1020.000000	1.73568   	1020.000000	1.73934   	1020.000000	0.000208637	
1040.000000	2.2654    	1040.000000	1.73346   	1040.000000	1.81462   	1040.000000	1.72987   	1040.000000	1.73325   	1040.000000	0.000204953	
1060.000000	2.25654   	1060.000000	1.7277    	1060.000000	1.80903   	1060.000000	1.72437   	1060.000000	1.72749   	1060.000000	0.000201401	
1080.000000	2.24816   	1080.000000	1.72224   	1080.000000	1.80372   	1080.000000	1.71916   	1080.000000	1.72205   	1080.000000	0.000197975	
1100.000000	2.24024   	1100.000000	1.71709   	1100.000000	1.79868   	1100.000000	1.71423   	1100.000000	1.71689   	1100.000000	0.000194668	
1120.000000	2.23276   	1120.000000	1.71221   	1120.000000	1.79387   	1120.000000	1.70956   	1120.000000	1.71201   	1120.000000	0.000191474	
1140.000000	2.2257    	1140.000000	1.70759   	1140.000000	1.78931   	1140.000000	1.70514   	1140.000000	1.7074    	1140.000000	0.000188387	
1160.000000	2.21903   	1160.000000	1.70322   	1160.000000	1.78497   	1160.000000	1.70094   	1160.000000	1.70304   	1160.000000	0.000185402	
1180.000000	2.21274   	1180.000000	1.6991    	1180.000000	1.78086   	1180.000000	1.69697   	1180.000000	1.69891   	1180.000000	0.000182514	
1200.000000	2.20681   	1200.000000	1.69519   	1200.000000	1.77697   	1200.000000	1.69321   	1200.000000	1.69502   	1200.000000	0.000179717	
1220.000000	2.20122   	1220.000000	1.69151   	1220.000000	1.7733    	1220.000000	1.68964   	1220.000000	1.69133   	1220.000000	0.000177009	
1240.000000	2.19596   	1240.000000	1.68803   	1240.000000	1.76984   	1240.000000	1.68626   	1240.000000	1.68785   	1240.000000	0.000174384	
1260.000000	2.19101   	1260.000000	1.68474   	1260.000000	1.76656   	1260.000000	1.68306   	1260.000000	1.68457   	1260.000000	0.000171839	
1280.000000	2.18637   	1280.000000	1.68165   	1280.000000	1.76346   	1280.000000	1.68002   	1280.000000	1.68148   	1280.000000	0.000169369	
1300.000000	2.182     	1300.000000	1.67873   	1300.000000	1.76051   	1300.000000	1.67715   	1300.000000	1.67856   	1300.000000	0.000166973	
1320.000000	2.17792   	1320.000000	1.67598   	1320.000000	1.7577    	1320.000000	1.67442   	1320.000000	1.67581   	1320.000000	0.000164646	
1340.000000	2.1741    	1340.000000	1.67339   	1340.000000	1.75503   	1340.000000	1.67184   	1340.000000	1.67323   	1340.000000	0.000162385	
1360.000000	2.17053   	1360.000000	1.67096   	1360.000000	1.75249   	1360.000000	1.6694    	1360.000000	1.6708    	1360.000000	0.000160188	
1380.000000	2.1672    	1380.000000	1.66868   	1380.000000	1.75008   	1380.000000	1.66709   	1380.000000	1.66852   	1380.000000	0.000158052	
1400.000000	2.1641    	1400.000000	1.66654   	1400.000000	1.74779   	1400.000000	1.6649    	1400.000000	1.66638   	1400.000000	0.000155975	
1420.000000	2.16123   	1420.000000	1.66453   	1420.000000	1.74563   	1420.000000	1.66283   	1420.000000	1.66438   	1420.000000	0.000153953	
1440.000000	2.15858   	1440.000000	1.66266   	1440.000000	1.74357   	1440.000000	1.66088   	1440.000000	1.66251   	1440.000000	0.000151985	
1460.000000	2.15613   	1460.000000	1.66092   	1460.000000	1.74163   	1460.000000	1.65903   	1460.000000	1.66077   	1460.000000	0.000150069	
1480.000000	2.15388   	1480.000000	1.65929   	1480.000000	1.7398    	1480.000000	1.65728   	1480.000000	1.65914   	1480.000000	0.000148202	
1500.000000	2.15182   	1500.000000	1.65778   	1500.000000	1.73807   	1500.000000	1.65564   	1500.000000	1.65764   	1500.000000	0.000146383	
1520.000000	2.14994   	1520.000000	1.65639   	1520.000000	1.73644   	1520.000000	1.65408   	1520.000000	1.65624   	1520.000000	0.00014461	
1540.000000	2.14825   	1540.000000	1.6551    	1540.000000	1.7349    	1540.000000	1.65262   	1540.000000	1.65495   	1540.000000	0.000142881	
1560.000000	2.14672   	1560.000000	1.65391   	1560.000000	1.73345   	1560.000000	1.65124   	1560.000000	1.65377   	1560.000000	0.000141194	
1580.000000	2.14536   	1580.000000	1.65282   	1580.000000	1.73208   	1580.000000	1.64995   	1580.000000	1.65268   	1580.000000	0.000139548	
1600.000000	2.14417   	1600.000000	1.65183   	1600.000000	1.73079   	1600.000000	1.64873   	1600.000000	1.65169   	1600.000000	0.000137942	
1620.000000	2.14312   	1620.000000	1.65093   	1620.000000	1.72958   	1620.000000	1.64759   	1620.000000	1.6508    	1620.000000	0.000136373	
1640.000000	2.14223   	1640.000000	1.65012   	1640.000000	1.72845   	1640.000000	1.64652   	1640.000000	1.64999   	1640.000000	0.000134842	
1660.000000	2.14148   	1660.000000	1.6494    	1660.000000	1.72738   	1660.000000	1.64552   	1660.000000	1.64926   	1660.000000	0.000133345	
1680.000000	2.14087   	1680.000000	1.64876   	1680.000000	1.72639   	1680.000000	1.64458   	1680.000000	1.64862   	1680.000000	0.000131883	
1700.000000	2.1404    	1700.000000	1.64819   	1700.000000	1.72545   	1700.000000	1.64371   	1700.000000	1.64806   	1700.000000	0.000130453	
1750.000000	2.13978   	1750.000000	1.64712   	1750.000000	1.72339   	1750.000000	1.64179   	1750.000000	1.64699   	1750.000000	0.000127016	
1800.000000	2.13992   	1800.000000	1.64649   	1800.000000	1.72167   	1800.000000	1.64021   	1800.000000	1.64636   	1800.000000	0.000123763	
1850.000000	2.14076   	1850.000000	1.64626   	1850.000000	1.72027   	1850.000000	1.63894   	1850.000000	1.64614   	1850.000000	0.000120678	
1900.000000	2.14225   	1900.000000	1.64641   	1900.000000	1.71915   	1900.000000	1.63794   	1900.000000	1.64629   	1900.000000	0.000117748	
1950.000000	2.14435   	1950.000000	1.6469    	1950.000000	1.71829   	1950.000000	1.6372    	1950.000000	1.64679   	1950.000000	0.000114963	
2000.000000	2.14702   	2000.000000	1.64772   	2000.000000	1.71766   	2000.000000	1.63669   	2000.000000	1.64761   	2000.000000	0.000112311	
2100.000000	2.15391   	2100.000000	1.65022   	2100.000000	1.71703   	2100.000000	1.63627   	2100.000000	1.65011   	2100.000000	0.00010737	
2200.000000	2.16266   	2200.000000	1.65375   	2200.000000	1.7171    	2200.000000	1.63653   	2200.000000	1.65364   	2200.000000	0.00010286	
2300.000000	2.17306   	2300.000000	1.65817   	2300.000000	1.71776   	2300.000000	1.63736   	2300.000000	1.65807   	2300.000000	9.87272e-05	
2400.000000	2.18492   	2400.000000	1.66337   	2400.000000	1.71891   	2400.000000	1.63866   	2400.000000	1.66327   	2400.000000	9.49246e-05	
2500.000000	2.19811   	2500.000000	1.66926   	2500.000000	1.7205    	2500.000000	1.64038   	2500.000000	1.66916   	2500.000000	9.14141e-05	
2600.000000	2.21248   	2600.000000	1.67575   	2600.000000	1.7226    	2600.000000	1.64261   	2600.000000	1.67566   	2600.000000	8.81628e-05	
2700.000000	2.22792   	2700.000000	1.68279   	2700.000000	1.72497   	2700.000000	1.6451    	2700.000000	1.6827    	2700.000000	8.51426e-05	
2800.000000	2.24434   	2800.000000	1.6903    	2800.000000	1.72757   	2800.000000	1.64782   	2800.000000	1.69022   	2800.000000	8.23297e-05	
2900.000000	2.26166   	2900.000000	1.69825   	2900.000000	1.73037   	2900.000000	1.65072   	2900.000000	1.69817   	2900.000000	7.9703e-05	
3000.000000	2.27981   	3000.000000	1.70658   	3000.000000	1.73331   	3000.000000	1.65377   	3000.000000	1.70651   	3000.000000	7.72444e-05	
3200.000000	2.31832   	3200.000000	1.72426   	3200.000000	1.73958   	3200.000000	1.66024   	3200.000000	1.72419   	3200.000000	7.27704e-05	
3400.000000	2.35946   	3400.000000	1.74308   	3400.000000	1.74621   	3400.000000	1.66705   	3400.000000	1.74301   	3400.000000	6.88026e-05	
3600.000000	2.40289   	3600.000000	1.76285   	3600.000000	1.75308   	3600.000000	1.67408   	3600.000000	1.76278   	3600.000000	6.52587e-05	
3800.000000	2.44835   	3800.000000	1.78341   	3800.000000	1.76009   	3800.000000	1.68123   	3800.000000	1.78334   	3800.000000	6.20736e-05	
4000.000000	2.49564   	4000.000000	1.80463   	4000.000000	1.76717   	4000.000000	1.68845   	4000.000000	1.80457   	4000.000000	5.91949e-05	
4200.000000	2.54456   	4200.000000	1.82642   	4200.000000	1.77427   	4200.000000	1.69567   	4200.000000	1.82637   	4200.000000	5.65798e-05	
4400.000000	2.59499   	4400.000000	1.8487    	4400.000000	1.78136   	4400.000000	1.70287   	4400.000000	1.84865   	4400.000000	5.41935e-05	
4600.000000	2.64679   	4600.000000	1.87139   	4600.000000	1.78839   	4600.000000	1.71001   	4600.000000	1.87134   	4600.000000	5.20067e-05	
4800.000000	2.69988   	4800.000000	1.89445   	4800.000000	1.79534   	4800.000000	1.71708   	4800.000000	1.8944    	4800.000000	4.99953e-05	
5000.000000	2.75417   	5000.000000	1.91781   	5000.000000	1.80222   	5000.000000	1.72406   	5000.000000	1.91776   	5000.000000	4.81387e-05	
5250.000000	2.8236    	5250.000000	1.94739   	5250.000000	1.81067   	5250.000000	1.73263   	5250.000000	1.94735   	5250.000000	4.60094e-05	
5500.000000	2.89467   	5500.000000	1.97734   	5500.000000	1.81895   	5500.000000	1.74104   	5500.000000	1.9773    	5500.000000	4.40664e-05	
6000.000000	3.04136   	6000.000000	2.03811   	6000.000000	1.835     	6000.000000	1.75731   	6000.000000	2.03807   	6000.000000	4.06486e-05	
6500.000000	3.19362   	6500.000000	2.09978   	6500.000000	1.85034   	6500.000000	1.77283   	6500.000000	2.09974   	6500.000000	3.77378e-05	
7000.000000	3.351     	7000.000000	2.16213   	7000.000000	1.86497   	7000.000000	1.78763   	7000.000000	2.16209   	7000.000000	3.52279e-05	
7500.000000	3.5132    	7500.000000	2.22498   	7500.000000	1.8788    	7500.000000	1.80172   	7500.000000	2.22495   	7500.000000	3.30408e-05	
8000.000000	3.67995   	8000.000000	2.28822   	8000.000000	1.89202   	8000.000000	1.81515   	8000.000000	2.28819   	8000.000000	3.11172e-05	
8500.000000	3.85106   	8500.000000	2.35175   	8500.000000	1.90464   	8500.000000	1.82796   	8500.000000	2.35172   	8500.000000	2.94119e-05	
9000.000000	4.0264    	9000.000000	2.41549   	9000.000000	1.91666   	9000.000000	1.84019   	9000.000000	2.41546   	9000.000000	2.78893e-05	
9500.000000	4.20584   	9500.000000	2.47939   	9500.000000	1.92812   	9500.000000	1.85187   	9500.000000	2.47937   	9500.000000	2.65213e-05	
10000.000000	4.38929   	10000.000000	2.54342   	10000.000000	1.93905   	10000.000000	1.86305   	10000.000000	2.54339   	10000.000000	2.52852e-05	
11000.000000	4.76794   	11000.000000	2.67169   	11000.000000	1.95952   	11000.000000	1.88403   	11000.000000	2.67167   	11000.000000	2.31385e-05	
12000.000000	5.16192   	12000.000000	2.80012   	12000.000000	1.97838   	12000.000000	1.90338   	12000.000000	2.8001    	12000.000000	2.13375e-05	
13000.000000	5.57091   	13000.000000	2.92856   	13000.000000	1.99582   	13000.000000	1.9213    	13000.000000	2.92854   	13000.000000	1.98042e-05	
14000.000000	5.99473   	14000.000000	3.05695   	14000.000000	2.01202   	14000.000000	1.93797   	14000.000000	3.05693   	14000.000000	1.84824e-05	
15000.000000	6.43325   	15000.000000	3.18522   	15000.000000	2.02709   	15000.000000	1.95354   	15000.000000	3.18521   	15000.000000	1.73309e-05	
16000.000000	6.88637   	16000.000000	3.31334   	16000.000000	2.04111   	16000.000000	1.96813   	16000.000000	3.31332   	16000.000000	1.63185e-05	
17000.000000	7.35405   	17000.000000	3.44128   	17000.000000	2.05418   	17000.000000	1.98185   	17000.000000	3.44126   	17000.000000	1.54212e-05	
18000.000000	7.83627   	18000.000000	3.56902   	18000.000000	2.06642   	18000.000000	1.9948    	18000.000000	3.56901   	18000.000000	1.46201e-05	
19000.000000	8.33302   	19000.000000	3.69656   	19000.000000	2.07793   	19000.000000	2.00704   	19000.000000	3.69655   	19000.000000	1.39006e-05	
20000.000000	8.8443    	20000.000000	3.82389   	20000.000000	2.0888    	20000.000000	2.01864   	20000.000000	3.82388   	20000.000000	1.32505e-05	
21000.000000	9.37013   	21000.000000	3.95101   	21000.000000	2.0991    	21000.000000	2.02967   	21000.000000	3.951     	21000.000000	1.26603e-05	
22000.000000	9.91056   	22000.000000	4.07792   	22000.000000	2.10888   	22000.000000	2.04018   	22000.000000	4.07791   	22000.000000	1.21219e-05	
23000.000000	10.4656   	23000.000000	4.20461   	23000.000000	2.1181    	23000.000000	2.0502    	23000.000000	4.2046    	23000.000000	1.16288e-05	
24000.000000	11.0353   	24000.000000	4.33109   	24000.000000	2.12686   	24000.000000	2.05979   	24000.000000	4.33108   	24000.000000	1.11753e-05	
25000.000000	11.6198   	25000.000000	4.45737   	25000.000000	2.13522   	25000.000000	2.06896   	25000.000000	4.45736   	25000.000000	1.0757e-05	
26000.000000	12.219    	26000.000000	4.58344   	26000.000000	2.14319   	26000.000000	2.07776   	26000.000000	4.58343   	26000.000000	1.03697e-05	
27000.000000	12.833    	27000.000000	4.70931   	27000.000000	2.15075   	27000.000000	2.08622   	27000.000000	4.7093    	27000.000000	1.00102e-05	
28000.000000	13.462    	28000.000000	4.83498   	28000.000000	2.15798   	28000.000000	2.09435   	28000.000000	4.83497   	28000.000000	9.67544e-06	
29000.000000	14.1059   	29000.000000	4.96047   	29000.000000	2.16489   	29000.000000	2.10218   	29000.000000	4.96046   	29000.000000	9.36303e-06	
30000.000000	14.7648   	30000.000000	5.08576   	30000.000000	2.17152   	30000.000000	2.10973   	30000.000000	5.08575   	30000.000000	9.07075e-06	
32000.000000	16.128    	32000.000000	5.3358    	32000.000000	2.18395   	32000.000000	2.12406   	32000.000000	5.33579   	32000.000000	8.5392e-06	
34000.000000	17.5521   	34000.000000	5.58513   	34000.000000	2.19538   	34000.000000	2.13748   	34000.000000	5.58512   	34000.000000	8.06817e-06	
36000.000000	19.0377   	36000.000000	5.83379   	36000.000000	2.20589   	36000.000000	2.15007   	36000.000000	5.83378   	36000.000000	7.64779e-06	
38000.000000	20.5856   	38000.000000	6.0818    	38000.000000	2.2156    	38000.000000	2.16194   	38000.000000	6.08179   	38000.000000	7.27024e-06	
40000.000000	22.1961   	40000.000000	6.3292    	40000.000000	2.22462   	40000.000000	2.17316   	40000.000000	6.32919   	40000.000000	6.92922e-06	
42000.000000	23.8702   	42000.000000	6.57601   	42000.000000	2.23301   	42000.000000	2.18378   	42000.000000	6.576     	42000.000000	6.61963e-06	
44000.000000	25.6082   	44000.000000	6.82226   	44000.000000	2.24086   	44000.000000	2.19388   	44000.000000	6.82225   	44000.000000	6.33728e-06	
46000.000000	27.4111   	46000.000000	7.06796   	46000.000000	2.24825   	46000.000000	2.2035    	46000.000000	7.06796   	46000.000000	6.0787e-06	
48000.000000	29.2794   	48000.000000	7.31315   	48000.000000	2.25519   	48000.000000	2.21267   	48000.000000	7.31314   	48000.000000	5.84097e-06	
50000.000000	31.2138   	50000.000000	7.55783   	50000.000000	2.26166   	50000.000000	2.22144   	50000.000000	7.55783   	50000.000000	5.62166e-06	
