Energy (MeV/u)1	0 - [He-base] F.Hubert et al, AD&ND Tables 46(1990)1	Energy (MeV/u)2	1 - [H -base] J.F.Ziegler et al, Pergamon Press, NY (low energy)	Energy (MeV/u)3	2 - ATIMA 1.2  LS-theory (recommended for high energy)	Energy (MeV/u)4	3 - ATIMA 1.2  without LS-correction	Energy (MeV/u)5	4 - electrical component of [1] - J.F.Ziegler et al	Energy (MeV/u)6	5 - nuclear component of [1] - J.F.Ziegler et al	
0.001000	3.73436   	0.001000	3.73436   	0.001000	3.42419   	0.001000	3.42419   	0.001000	1.63532   	0.001000	2.09905   	
0.002000	3.68233   	0.002000	3.68233   	0.002000	3.4356    	0.002000	3.4356    	0.002000	2.12074   	0.002000	1.56158   	
0.005000	3.93097   	0.005000	3.93097   	0.005000	3.9037    	0.005000	3.9037    	0.005000	2.9903    	0.005000	0.940665  	
0.008000	4.26352   	0.008000	4.26352   	0.008000	4.44484   	0.008000	4.44484   	0.008000	3.56665   	0.008000	0.69687   	
0.010000	4.47772   	0.010000	4.47772   	0.010000	4.79012   	0.010000	4.79012   	0.010000	3.87794   	0.010000	0.599774  	
0.015000	5.33849   	0.015000	5.33849   	0.015000	5.52715   	0.015000	5.52715   	0.015000	4.89093   	0.015000	0.44757   	
0.020000	6.5546    	0.020000	6.5546    	0.020000	6.25998   	0.020000	6.25998   	0.020000	6.19115   	0.020000	0.363453  	
0.025000	7.80273   	0.025000	7.80273   	0.025000	7.00399   	0.025000	7.00399   	0.025000	7.49473   	0.025000	0.307998  	
0.030000	9.06222   	0.030000	9.06222   	0.030000	7.95832   	0.030000	7.95832   	0.030000	8.79382   	0.030000	0.2684    	
0.035000	10.3152   	0.035000	10.3152   	0.035000	8.89308   	0.035000	8.89308   	0.035000	10.0767   	0.035000	0.238562  	
0.040000	11.547    	0.040000	11.547    	0.040000	9.80189   	0.040000	9.80189   	0.040000	11.3318   	0.040000	0.215188  	
0.045000	12.7453   	0.045000	12.7453   	0.045000	10.68     	0.045000	10.68     	0.045000	12.549    	0.045000	0.196332  	
0.050000	13.7882   	0.050000	13.7882   	0.050000	11.524    	0.050000	11.524    	0.050000	13.6074   	0.050000	0.180768  	
0.055000	14.7571   	0.055000	14.7571   	0.055000	12.3314   	0.055000	12.3314   	0.055000	14.5894   	0.055000	0.167681  	
0.060000	15.6691   	0.060000	15.6691   	0.060000	13.1004   	0.060000	13.1004   	0.060000	15.5126   	0.060000	0.156508  	
0.070000	17.3108   	0.070000	17.3108   	0.070000	14.5198   	0.070000	14.5198   	0.070000	17.1724   	0.070000	0.138402  	
0.080000	18.7001   	0.080000	18.7001   	0.080000	15.7801   	0.080000	15.7801   	0.080000	18.5757   	0.080000	0.124325  	
0.090000	19.8402   	0.090000	19.8402   	0.090000	16.8856   	0.090000	16.8856   	0.090000	19.7272   	0.090000	0.113038  	
0.100000	20.7126   	0.100000	20.7126   	0.100000	17.8448   	0.100000	17.8448   	0.100000	20.6089   	0.100000	0.103769  	
0.120000	21.6386   	0.120000	21.6386   	0.120000	19.3697   	0.120000	19.3697   	0.120000	21.5492   	0.120000	0.0894078 	
0.140000	22.0425   	0.140000	22.0425   	0.140000	20.4536   	0.140000	20.4536   	0.140000	21.9637   	0.140000	0.0787614 	
0.160000	22.1175   	0.160000	22.1175   	0.160000	21.1931   	0.160000	21.1931   	0.160000	22.0469   	0.160000	0.0705278 	
0.180000	22.0069   	0.180000	22.0069   	0.180000	21.6716   	0.180000	21.6716   	0.180000	21.9429   	0.180000	0.0639549 	
0.200000	21.9551   	0.200000	21.9551   	0.200000	21.9563   	0.200000	21.9563   	0.200000	21.8965   	0.200000	0.0585767 	
0.250000	21.6067   	0.250000	21.6067   	0.250000	22.1329   	0.250000	22.1329   	0.250000	21.5581   	0.250000	0.0485849 	
0.300000	21.2025   	0.300000	21.2025   	0.300000	21.9109   	0.300000	21.9109   	0.300000	21.1608   	0.300000	0.0416609 	
0.350000	20.973    	0.350000	20.973    	0.350000	21.5332   	0.350000	21.5332   	0.350000	20.9364   	0.350000	0.0365598 	
0.400000	20.8096   	0.400000	20.8096   	0.400000	21.2559   	0.400000	21.2559   	0.400000	20.7769   	0.400000	0.0326345 	
0.450000	20.6375   	0.450000	20.6375   	0.450000	21.0883   	0.450000	21.0883   	0.450000	20.608    	0.450000	0.0295139 	
0.500000	20.4553   	0.500000	20.4553   	0.500000	20.8631   	0.500000	20.8631   	0.500000	20.4284   	0.500000	0.0269694 	
0.600000	20.1402   	0.600000	20.1402   	0.600000	20.3353   	0.600000	20.3353   	0.600000	20.1172   	0.600000	0.0230612 	
0.700000	19.8038   	0.700000	19.8038   	0.700000	19.7749   	0.700000	19.7749   	0.700000	19.7836   	0.700000	0.020192  	
0.800000	19.4022   	0.800000	19.4022   	0.800000	19.1122   	0.800000	19.1122   	0.800000	19.3843   	0.800000	0.0179903 	
0.900000	18.9605   	0.900000	18.9605   	0.900000	18.4905   	0.900000	18.4905   	0.900000	18.9443   	0.900000	0.0162441 	
1.000000	18.5293   	1.000000	18.5293   	1.000000	17.9135   	1.000000	17.9135   	1.000000	18.5145   	1.000000	0.0148231 	
1.250000	17.4253   	1.250000	17.4253   	1.250000	16.6246   	1.250000	16.6246   	1.250000	17.4131   	1.250000	0.0122032 	
1.500000	16.246    	1.500000	16.246    	1.500000	15.4158   	1.500000	15.4158   	1.500000	16.2356   	1.500000	0.0104041 	
1.750000	15.1698   	1.750000	15.1698   	1.750000	14.4148   	1.750000	14.4148   	1.750000	15.1607   	1.750000	0.00908786	
2.000000	14.1893   	2.000000	14.1893   	2.000000	13.5594   	2.000000	13.5594   	2.000000	14.1812   	2.000000	0.0080808 	
2.250000	13.3197   	2.250000	13.3197   	2.250000	12.8136   	2.250000	12.8136   	2.250000	13.3124   	2.250000	0.00728402	
2.500000	13.4271   	2.500000	12.5339   	2.500000	12.1542   	2.500000	12.1542   	2.500000	12.5273   	2.500000	0.006637  	
3.000000	11.9972   	3.000000	11.1933   	3.000000	11.0346   	3.000000	11.0346   	3.000000	11.1877   	3.000000	0.00564819	
3.500000	10.8487   	3.500000	10.1119   	3.500000	10.1153   	3.500000	10.1153   	3.500000	10.107    	3.500000	0.00492635	
4.000000	9.90689   	4.000000	9.21062   	4.000000	9.3443    	4.000000	9.3443    	4.000000	9.20624   	4.000000	0.00437502	
4.500000	9.12081   	4.500000	8.45693   	4.500000	8.68721   	4.500000	8.68721   	4.500000	8.45299   	4.500000	0.00393945	
5.000000	8.4548    	5.000000	7.81722   	5.000000	8.11983   	5.000000	8.11983   	5.000000	7.81363   	5.000000	0.00358619	
5.500000	7.88323   	5.500000	7.26664   	5.500000	7.62456   	5.500000	7.62456   	5.500000	7.26335   	5.500000	0.00329364	
6.000000	7.38727   	6.000000	6.78737   	6.000000	7.18822   	6.000000	7.18822   	6.000000	6.78433   	6.000000	0.00304717	
6.500000	6.95278   	6.500000	6.36599   	6.500000	6.8007    	6.500000	6.8007    	6.500000	6.36315   	6.500000	0.00283655	
7.000000	6.56893   	7.000000	5.9926    	7.000000	6.45412   	7.000000	6.45412   	7.000000	5.98995   	7.000000	0.00265438	
7.500000	6.22731   	7.500000	5.6596    	7.500000	6.14222   	7.500000	6.14222   	7.500000	5.6571    	7.500000	0.00249519	
8.000000	5.92126   	8.000000	5.36072   	8.000000	5.85999   	8.000000	5.85999   	8.000000	5.35836   	8.000000	0.00235482	
8.500000	5.64548   	8.500000	5.09096   	8.500000	5.60332   	8.500000	5.60332   	8.500000	5.08873   	8.500000	0.00223007	
9.000000	5.39564   	9.000000	4.84627   	9.000000	5.36887   	9.000000	5.36887   	9.000000	4.84416   	9.000000	0.00211844	
9.500000	5.16822   	9.500000	4.62333   	9.500000	5.15383   	9.500000	5.15383   	9.500000	4.62131   	9.500000	0.00201793	
10.000000	4.96032   	10.000000	4.46262   	10.000000	4.95586   	10.000000	4.95586   	10.000000	4.46069   	10.000000	0.00192694	
11.000000	4.59374   	11.000000	4.18953   	11.000000	4.5947    	11.000000	4.6013    	11.000000	4.18776   	11.000000	0.0017685 	
12.000000	4.28069   	12.000000	3.94801   	12.000000	4.28376   	12.000000	4.29493   	12.000000	3.94638   	12.000000	0.00163512	
13.000000	4.01016   	13.000000	3.7332    	13.000000	4.01333   	13.000000	4.02762   	13.000000	3.73168   	13.000000	0.00152123	
14.000000	3.77397   	14.000000	3.54108   	14.000000	3.77598   	14.000000	3.79241   	14.000000	3.53966   	14.000000	0.0014228 	
15.000000	3.56592   	15.000000	3.36837   	15.000000	3.56599   	15.000000	3.58391   	15.000000	3.36703   	15.000000	0.00133682	
16.000000	3.38123   	16.000000	3.21234   	16.000000	3.37905   	16.000000	3.39787   	16.000000	3.21107   	16.000000	0.00126106	
17.000000	3.21614   	17.000000	3.07073   	17.000000	3.21165   	17.000000	3.23092   	17.000000	3.06954   	17.000000	0.00119377	
18.000000	3.06765   	18.000000	2.94168   	18.000000	3.06085   	18.000000	3.08032   	18.000000	2.94055   	18.000000	0.00113358	
19.000000	2.93336   	19.000000	2.82361   	19.000000	2.92432   	19.000000	2.94384   	19.000000	2.82253   	19.000000	0.00107941	
20.000000	2.8113    	20.000000	2.71519   	20.000000	2.80021   	20.000000	2.81964   	20.000000	2.71416   	20.000000	0.00103039	
21.000000	2.69987   	21.000000	2.6153    	21.000000	2.68696   	21.000000	2.70617   	21.000000	2.61431   	21.000000	0.000985814	
22.000000	2.59771   	22.000000	2.52297   	22.000000	2.58327   	22.000000	2.60215   	22.000000	2.52202   	22.000000	0.000945088	
23.000000	2.5037    	23.000000	2.43738   	23.000000	2.48803   	23.000000	2.5065    	23.000000	2.43648   	23.000000	0.000907729	
24.000000	2.41689   	24.000000	2.35783   	24.000000	2.40029   	24.000000	2.41827   	24.000000	2.35696   	24.000000	0.000873331	
25.000000	2.33649   	25.000000	2.2837    	25.000000	2.31923   	25.000000	2.33669   	25.000000	2.28286   	25.000000	0.000841551	
27.000000	2.19219   	27.000000	2.14964   	27.000000	2.17444   	27.000000	2.19077   	27.000000	2.14885   	27.000000	0.000784718	
29.000000	2.06637   	29.000000	2.03166   	29.000000	2.04912   	29.000000	2.06429   	29.000000	2.03092   	29.000000	0.000735358	
31.000000	1.95563   	31.000000	1.92703   	31.000000	1.94004   	31.000000	1.95338   	31.000000	1.92634   	31.000000	0.000692069	
33.000000	1.85739   	33.000000	1.83361   	33.000000	1.84353   	33.000000	1.85474   	33.000000	1.83295   	33.000000	0.000653784	
35.000000	1.76963   	35.000000	1.74968   	35.000000	1.75707   	35.000000	1.76656   	35.000000	1.74906   	35.000000	0.000619671	
38.000000	1.65417   	38.000000	1.63863   	38.000000	1.6432    	38.000000	1.65051   	38.000000	1.63805   	38.000000	0.000574929	
41.000000	1.55454   	41.000000	1.54224   	41.000000	1.54468   	41.000000	1.55033   	41.000000	1.54171   	41.000000	0.00053644	
44.000000	1.46765   	44.000000	1.45778   	44.000000	1.45866   	44.000000	1.46294   	44.000000	1.45728   	44.000000	0.000502963	
47.000000	1.39117   	47.000000	1.38314   	47.000000	1.38279   	47.000000	1.38602   	47.000000	1.38267   	47.000000	0.000473569	
50.000000	1.32331   	50.000000	1.3167    	50.000000	1.31541   	50.000000	1.31777   	50.000000	1.31625   	50.000000	0.000447545	
55.000000	1.22568   	55.000000	1.22079   	55.000000	1.2183    	55.000000	1.21962   	55.000000	1.22038   	55.000000	0.000410205	
60.000000	1.14338   	60.000000	1.13966   	60.000000	1.13654   	60.000000	1.13692   	60.000000	1.13928   	60.000000	0.000378822	
65.000000	1.073     	65.000000	1.07012   	65.000000	1.06652   	65.000000	1.06626   	65.000000	1.06977   	65.000000	0.000352059	
70.000000	1.01209   	70.000000	1.00983   	70.000000	1.00585   	70.000000	1.00516   	70.000000	1.0095    	70.000000	0.000328957	
75.000000	0.958825  	75.000000	0.957044  	75.000000	0.952909  	75.000000	0.95179   	75.000000	0.956735  	75.000000	0.000308802	
80.000000	0.911826  	80.000000	0.91043   	80.000000	0.906154  	80.000000	0.904755  	80.000000	0.910139  	80.000000	0.00029106	
85.000000	0.870029  	85.000000	0.868956  	85.000000	0.864609  	85.000000	0.862983  	85.000000	0.868681  	85.000000	0.000275316	
90.000000	0.832599  	90.000000	0.83181   	90.000000	0.827449  	90.000000	0.825628  	90.000000	0.831549  	90.000000	0.000261247	
95.000000	0.798872  	95.000000	0.798342  	95.000000	0.79401   	95.000000	0.792019  	95.000000	0.798093  	95.000000	0.000248596	
100.000000	0.768314  	100.000000	0.768027  	100.000000	0.763754  	100.000000	0.761617  	100.000000	0.767789  	100.000000	0.000237157	
105.000000	0.740488  	105.000000	0.740435  	105.000000	0.73625   	105.000000	0.73398   	105.000000	0.740208  	105.000000	0.000226761	
110.000000	0.715036  	110.000000	0.715213  	110.000000	0.711061  	110.000000	0.708744  	110.000000	0.714995  	110.000000	0.00021727	
115.000000	0.69166   	115.000000	0.692065  	115.000000	0.688009  	115.000000	0.685608  	115.000000	0.691856  	115.000000	0.00020857	
120.000000	0.670111  	120.000000	0.670744  	120.000000	0.666793  	120.000000	0.664319  	120.000000	0.670543  	120.000000	0.000200565	
125.000000	0.650176  	125.000000	0.651039  	125.000000	0.64715   	125.000000	0.644663  	125.000000	0.650846  	125.000000	0.000193173	
130.000000	0.631678  	130.000000	0.632774  	130.000000	0.62897   	130.000000	0.626459  	130.000000	0.632588  	130.000000	0.000186326	
135.000000	0.614462  	135.000000	0.615794  	135.000000	0.61213   	135.000000	0.60955   	135.000000	0.615614  	135.000000	0.000179964	
140.000000	0.598397  	140.000000	0.599967  	140.000000	0.596422  	140.000000	0.593804  	140.000000	0.599793  	140.000000	0.000174039	
145.000000	0.583367  	145.000000	0.58518   	145.000000	0.581726  	145.000000	0.579103  	145.000000	0.585012  	145.000000	0.000168505	
150.000000	0.569274  	150.000000	0.571333  	150.000000	0.567981  	150.000000	0.565346  	150.000000	0.571169  	150.000000	0.000163324	
155.000000	0.549539  	155.000000	0.558338  	155.000000	0.555091  	155.000000	0.552447  	155.000000	0.558179  	155.000000	0.000158464	
160.000000	0.537907  	160.000000	0.546118  	160.000000	0.542978  	160.000000	0.540326  	160.000000	0.545964  	160.000000	0.000153895	
165.000000	0.526943  	165.000000	0.534607  	165.000000	0.531574  	165.000000	0.528916  	165.000000	0.534457  	165.000000	0.000149592	
170.000000	0.51659   	170.000000	0.523743  	170.000000	0.520818  	170.000000	0.518156  	170.000000	0.523598  	170.000000	0.000145531	
175.000000	0.506796  	175.000000	0.513475  	175.000000	0.510658  	175.000000	0.507992  	175.000000	0.513333  	175.000000	0.000141693	
180.000000	0.497518  	180.000000	0.503753  	180.000000	0.501045  	180.000000	0.498375  	180.000000	0.503615  	180.000000	0.00013806	
185.000000	0.488714  	185.000000	0.494536  	185.000000	0.491936  	185.000000	0.489264  	185.000000	0.494401  	185.000000	0.000134614	
190.000000	0.48035   	190.000000	0.485785  	190.000000	0.483291  	190.000000	0.480619  	190.000000	0.485654  	190.000000	0.000131343	
195.000000	0.472393  	195.000000	0.477466  	195.000000	0.475083  	195.000000	0.472406  	195.000000	0.477337  	195.000000	0.000128232	
200.000000	0.464813  	200.000000	0.469547  	200.000000	0.467273  	200.000000	0.464593  	200.000000	0.469422  	200.000000	0.000125271	
210.000000	0.450681  	210.000000	0.4548    	210.000000	0.452694  	210.000000	0.450058  	210.000000	0.454681  	210.000000	0.000119754	
220.000000	0.437771  	220.000000	0.44135   	220.000000	0.439443  	220.000000	0.436816  	220.000000	0.441235  	220.000000	0.000114719	
230.000000	0.425929  	230.000000	0.429032  	230.000000	0.42733   	230.000000	0.424704  	230.000000	0.428922  	230.000000	0.000110105	
240.000000	0.415027  	240.000000	0.41771   	240.000000	0.416212  	240.000000	0.413584  	240.000000	0.417604  	240.000000	0.000105859	
250.000000	0.404957  	250.000000	0.407269  	250.000000	0.405941  	250.000000	0.403342  	250.000000	0.407167  	250.000000	0.00010194	
260.000000	0.395627  	260.000000	0.39761   	260.000000	0.396449  	260.000000	0.393877  	260.000000	0.397512  	260.000000	9.83107e-05	
270.000000	0.386957  	270.000000	0.388651  	270.000000	0.387683  	270.000000	0.385108  	270.000000	0.388556  	270.000000	9.49395e-05	
280.000000	0.378881  	280.000000	0.380317  	280.000000	0.37953   	280.000000	0.37696   	280.000000	0.380226  	280.000000	9.17996e-05	
290.000000	0.371339  	290.000000	0.372548  	290.000000	0.371908  	290.000000	0.369371  	290.000000	0.372459  	290.000000	8.88678e-05	
300.000000	0.364279  	300.000000	0.365288  	300.000000	0.364811  	300.000000	0.362288  	300.000000	0.365202  	300.000000	8.61237e-05	
310.000000	0.357658  	310.000000	0.358489  	310.000000	0.358179  	310.000000	0.355662  	310.000000	0.358406  	310.000000	8.35498e-05	
320.000000	0.351435  	320.000000	0.352111  	320.000000	0.351939  	320.000000	0.349451  	320.000000	0.35203   	320.000000	8.11304e-05	
330.000000	0.345577  	330.000000	0.346115  	330.000000	0.346091  	330.000000	0.343619  	330.000000	0.346036  	330.000000	7.8852e-05	
340.000000	0.340052  	340.000000	0.340469  	340.000000	0.340607  	340.000000	0.338133  	340.000000	0.340393  	340.000000	7.67024e-05	
350.000000	0.334833  	350.000000	0.335145  	350.000000	0.335437  	350.000000	0.332964  	350.000000	0.33507   	350.000000	7.46708e-05	
360.000000	0.329896  	360.000000	0.330116  	360.000000	0.330542  	360.000000	0.328087  	360.000000	0.330043  	360.000000	7.27477e-05	
370.000000	0.325218  	370.000000	0.325359  	370.000000	0.325908  	370.000000	0.323477  	370.000000	0.325288  	370.000000	7.09245e-05	
380.000000	0.320781  	380.000000	0.320853  	380.000000	0.321539  	380.000000	0.319115  	380.000000	0.320784  	380.000000	6.91936e-05	
390.000000	0.316567  	390.000000	0.31658   	390.000000	0.317403  	390.000000	0.314982  	390.000000	0.316512  	390.000000	6.7548e-05	
400.000000	0.312558  	400.000000	0.312522  	400.000000	0.313464  	400.000000	0.31106   	400.000000	0.312456  	400.000000	6.59816e-05	
410.000000	0.308743  	410.000000	0.308665  	410.000000	0.309719  	410.000000	0.307336  	410.000000	0.3086    	410.000000	6.44886e-05	
420.000000	0.305106  	420.000000	0.304994  	420.000000	0.30617   	420.000000	0.303794  	420.000000	0.304931  	420.000000	6.30639e-05	
430.000000	0.301636  	430.000000	0.301498  	430.000000	0.302796  	430.000000	0.300423  	430.000000	0.301436  	430.000000	6.1703e-05	
440.000000	0.298323  	440.000000	0.298163  	440.000000	0.299573  	440.000000	0.297211  	440.000000	0.298103  	440.000000	6.04015e-05	
450.000000	0.295155  	450.000000	0.294981  	450.000000	0.296493  	450.000000	0.294147  	450.000000	0.294922  	450.000000	5.91557e-05	
460.000000	0.292126  	460.000000	0.291941  	460.000000	0.293549  	460.000000	0.291223  	460.000000	0.291883  	460.000000	5.7962e-05	
470.000000	0.289225  	470.000000	0.289034  	470.000000	0.290739  	470.000000	0.288429  	470.000000	0.288977  	470.000000	5.68171e-05	
480.000000	0.286445  	480.000000	0.286253  	480.000000	0.288059  	480.000000	0.285757  	480.000000	0.286197  	480.000000	5.57181e-05	
490.000000	0.283779  	490.000000	0.283589  	490.000000	0.285501  	490.000000	0.2832    	490.000000	0.283535  	490.000000	5.46622e-05	
500.000000	0.281221  	500.000000	0.281037  	500.000000	0.283049  	500.000000	0.280751  	500.000000	0.280984  	500.000000	5.3647e-05	
520.000000	0.276404  	520.000000	0.276241  	520.000000	0.278425  	520.000000	0.276153  	520.000000	0.276189  	520.000000	5.17293e-05	
540.000000	0.271951  	540.000000	0.271819  	540.000000	0.274177  	540.000000	0.271918  	540.000000	0.271769  	540.000000	4.99484e-05	
560.000000	0.267824  	560.000000	0.267733  	560.000000	0.270262  	560.000000	0.268008  	560.000000	0.267684  	560.000000	4.82899e-05	
580.000000	0.263991  	580.000000	0.263947  	580.000000	0.266622  	580.000000	0.264389  	580.000000	0.263901  	580.000000	4.67416e-05	
600.000000	0.260425  	600.000000	0.260434  	600.000000	0.26324   	600.000000	0.261032  	600.000000	0.260389  	600.000000	4.52926e-05	
620.000000	0.2571    	620.000000	0.257168  	620.000000	0.260104  	620.000000	0.257912  	620.000000	0.257124  	620.000000	4.39337e-05	
640.000000	0.253996  	640.000000	0.254125  	640.000000	0.257196  	640.000000	0.255007  	640.000000	0.254082  	640.000000	4.26566e-05	
660.000000	0.251093  	660.000000	0.251287  	660.000000	0.254479  	660.000000	0.252297  	660.000000	0.251245  	660.000000	4.1454e-05	
680.000000	0.248374  	680.000000	0.248635  	680.000000	0.251931  	680.000000	0.249765  	680.000000	0.248595  	680.000000	4.03195e-05	
700.000000	0.245825  	700.000000	0.246155  	700.000000	0.249549  	700.000000	0.247396  	700.000000	0.246116  	700.000000	3.92475e-05	
720.000000	0.243431  	720.000000	0.243832  	720.000000	0.247326  	720.000000	0.245177  	720.000000	0.243793  	720.000000	3.82328e-05	
740.000000	0.241182  	740.000000	0.241653  	740.000000	0.24524   	740.000000	0.243094  	740.000000	0.241616  	740.000000	3.7271e-05	
760.000000	0.239065  	760.000000	0.239608  	760.000000	0.243274  	760.000000	0.241138  	760.000000	0.239572  	760.000000	3.63579e-05	
780.000000	0.237072  	780.000000	0.237687  	780.000000	0.241419  	780.000000	0.239297  	780.000000	0.237651  	780.000000	3.549e-05 	
800.000000	0.235194  	800.000000	0.23588   	800.000000	0.239672  	800.000000	0.237565  	800.000000	0.235846  	800.000000	3.46639e-05	
820.000000	0.233422  	820.000000	0.23418   	820.000000	0.238027  	820.000000	0.235932  	820.000000	0.234146  	820.000000	3.38765e-05	
840.000000	0.23175   	840.000000	0.232579  	840.000000	0.236479  	840.000000	0.234391  	840.000000	0.232546  	840.000000	3.31254e-05	
860.000000	0.23017   	860.000000	0.23107   	860.000000	0.235022  	860.000000	0.232936  	860.000000	0.231037  	860.000000	3.24078e-05	
880.000000	0.228678  	880.000000	0.229647  	880.000000	0.233645  	880.000000	0.23156   	880.000000	0.229615  	880.000000	3.17217e-05	
900.000000	0.227267  	900.000000	0.228305  	900.000000	0.23234   	900.000000	0.230259  	900.000000	0.228274  	900.000000	3.1065e-05	
920.000000	0.225932  	920.000000	0.227038  	920.000000	0.231101  	920.000000	0.229028  	920.000000	0.227007  	920.000000	3.04358e-05	
940.000000	0.22467   	940.000000	0.225841  	940.000000	0.229925  	940.000000	0.227861  	940.000000	0.225811  	940.000000	2.98324e-05	
960.000000	0.223474  	960.000000	0.224711  	960.000000	0.228809  	960.000000	0.226755  	960.000000	0.224682  	960.000000	2.92533e-05	
980.000000	0.222343  	980.000000	0.223644  	980.000000	0.22775   	980.000000	0.225706  	980.000000	0.223615  	980.000000	2.86969e-05	
1000.000000	0.221271  	1000.000000	0.222635  	1000.000000	0.226746  	1000.000000	0.22471   	1000.000000	0.222607  	1000.000000	2.8162e-05	
1020.000000	0.220256  	1020.000000	0.221681  	1020.000000	0.225794  	1020.000000	0.223764  	1020.000000	0.221654  	1020.000000	2.76473e-05	
1040.000000	0.219295  	1040.000000	0.22078   	1040.000000	0.224892  	1040.000000	0.222866  	1040.000000	0.220753  	1040.000000	2.71516e-05	
1060.000000	0.218385  	1060.000000	0.219928  	1060.000000	0.224036  	1060.000000	0.222011  	1060.000000	0.219901  	1060.000000	2.6674e-05	
1080.000000	0.217522  	1080.000000	0.219122  	1080.000000	0.223223  	1080.000000	0.221199  	1080.000000	0.219096  	1080.000000	2.62135e-05	
1100.000000	0.216706  	1100.000000	0.218361  	1100.000000	0.222448  	1100.000000	0.220425  	1100.000000	0.218335  	1100.000000	2.57691e-05	
1120.000000	0.215932  	1120.000000	0.217642  	1120.000000	0.221709  	1120.000000	0.219689  	1120.000000	0.217617  	1120.000000	2.534e-05 	
1140.000000	0.2152    	1140.000000	0.216962  	1140.000000	0.221003  	1140.000000	0.218988  	1140.000000	0.216937  	1140.000000	2.49254e-05	
1160.000000	0.214507  	1160.000000	0.21632   	1160.000000	0.22033   	1160.000000	0.21832   	1160.000000	0.216296  	1160.000000	2.45246e-05	
1180.000000	0.213852  	1180.000000	0.215714  	1180.000000	0.219687  	1180.000000	0.217684  	1180.000000	0.21569   	1180.000000	2.41369e-05	
1200.000000	0.213232  	1200.000000	0.215141  	1200.000000	0.219074  	1200.000000	0.217077  	1200.000000	0.215118  	1200.000000	2.37617e-05	
1220.000000	0.212646  	1220.000000	0.214602  	1220.000000	0.21849   	1220.000000	0.216499  	1220.000000	0.214578  	1220.000000	2.33983e-05	
1240.000000	0.212092  	1240.000000	0.214093  	1240.000000	0.217932  	1240.000000	0.215947  	1240.000000	0.214069  	1240.000000	2.30463e-05	
1260.000000	0.211569  	1260.000000	0.213613  	1260.000000	0.217401  	1260.000000	0.215421  	1260.000000	0.21359   	1260.000000	2.2705e-05	
1280.000000	0.211076  	1280.000000	0.213161  	1280.000000	0.216894  	1280.000000	0.214918  	1280.000000	0.213139  	1280.000000	2.2374e-05	
1300.000000	0.210612  	1300.000000	0.212736  	1300.000000	0.216411  	1300.000000	0.214439  	1300.000000	0.212714  	1300.000000	2.20528e-05	
1320.000000	0.210174  	1320.000000	0.212337  	1320.000000	0.215951  	1320.000000	0.213982  	1320.000000	0.212315  	1320.000000	2.1741e-05	
1340.000000	0.209762  	1340.000000	0.211962  	1340.000000	0.215513  	1340.000000	0.213545  	1340.000000	0.211941  	1340.000000	2.14381e-05	
1360.000000	0.209375  	1360.000000	0.211611  	1360.000000	0.215095  	1360.000000	0.213128  	1360.000000	0.21159   	1360.000000	2.11439e-05	
1380.000000	0.209012  	1380.000000	0.211282  	1380.000000	0.214696  	1380.000000	0.21273   	1380.000000	0.211261  	1380.000000	2.08579e-05	
1400.000000	0.208672  	1400.000000	0.210974  	1400.000000	0.214315  	1400.000000	0.21235   	1400.000000	0.210954  	1400.000000	2.05798e-05	
1420.000000	0.208355  	1420.000000	0.210687  	1420.000000	0.213951  	1420.000000	0.211986  	1420.000000	0.210667  	1420.000000	2.03092e-05	
1440.000000	0.208058  	1440.000000	0.21042   	1440.000000	0.213602  	1440.000000	0.21164   	1440.000000	0.2104    	1440.000000	2.00459e-05	
1460.000000	0.207781  	1460.000000	0.210172  	1460.000000	0.213269  	1460.000000	0.211309  	1460.000000	0.210152  	1460.000000	1.97895e-05	
1480.000000	0.207525  	1480.000000	0.209941  	1480.000000	0.21295   	1480.000000	0.210992  	1480.000000	0.209922  	1480.000000	1.95399e-05	
1500.000000	0.207287  	1500.000000	0.209728  	1500.000000	0.212646  	1500.000000	0.210691  	1500.000000	0.209709  	1500.000000	1.92966e-05	
1520.000000	0.207067  	1520.000000	0.209532  	1520.000000	0.212354  	1520.000000	0.210402  	1520.000000	0.209513  	1520.000000	1.90595e-05	
1540.000000	0.206865  	1540.000000	0.209352  	1540.000000	0.212076  	1540.000000	0.210127  	1540.000000	0.209334  	1540.000000	1.88284e-05	
1560.000000	0.20668   	1560.000000	0.209188  	1560.000000	0.21181   	1560.000000	0.209864  	1560.000000	0.209169  	1560.000000	1.8603e-05	
1580.000000	0.206511  	1580.000000	0.209038  	1580.000000	0.211556  	1580.000000	0.209614  	1580.000000	0.20902   	1580.000000	1.83831e-05	
1600.000000	0.206358  	1600.000000	0.208903  	1600.000000	0.211314  	1600.000000	0.209374  	1600.000000	0.208885  	1600.000000	1.81685e-05	
1620.000000	0.20622   	1620.000000	0.208782  	1620.000000	0.211083  	1620.000000	0.209146  	1620.000000	0.208764  	1620.000000	1.7959e-05	
1640.000000	0.206097  	1640.000000	0.208674  	1640.000000	0.210862  	1640.000000	0.208928  	1640.000000	0.208656  	1640.000000	1.77544e-05	
1660.000000	0.205988  	1660.000000	0.208579  	1660.000000	0.210652  	1660.000000	0.208721  	1660.000000	0.208561  	1660.000000	1.75546e-05	
1680.000000	0.205892  	1680.000000	0.208496  	1680.000000	0.210452  	1680.000000	0.208523  	1680.000000	0.208479  	1680.000000	1.73594e-05	
1700.000000	0.20581   	1700.000000	0.208425  	1700.000000	0.210261  	1700.000000	0.208334  	1700.000000	0.208408  	1700.000000	1.71686e-05	
1750.000000	0.205661  	1750.000000	0.208298  	1750.000000	0.209822  	1750.000000	0.207901  	1750.000000	0.208281  	1750.000000	1.67101e-05	
1800.000000	0.205585  	1800.000000	0.208237  	1800.000000	0.209434  	1800.000000	0.207518  	1800.000000	0.208221  	1800.000000	1.62761e-05	
1850.000000	0.205579  	1850.000000	0.208237  	1850.000000	0.209091  	1850.000000	0.207182  	1850.000000	0.208221  	1850.000000	1.58648e-05	
1900.000000	0.205636  	1900.000000	0.208294  	1900.000000	0.208791  	1900.000000	0.206887  	1900.000000	0.208278  	1900.000000	1.54744e-05	
1950.000000	0.205753  	1950.000000	0.208402  	1950.000000	0.208529  	1950.000000	0.20663   	1950.000000	0.208387  	1950.000000	1.51034e-05	
2000.000000	0.205925  	2000.000000	0.208558  	2000.000000	0.208303  	2000.000000	0.206408  	2000.000000	0.208543  	2000.000000	1.47502e-05	
2100.000000	0.206421  	2100.000000	0.209001  	2100.000000	0.207946  	2100.000000	0.206055  	2100.000000	0.208987  	2100.000000	1.40927e-05	
2200.000000	0.207099  	2200.000000	0.209598  	2200.000000	0.207698  	2200.000000	0.205809  	2200.000000	0.209584  	2200.000000	1.34929e-05	
2300.000000	0.207936  	2300.000000	0.210328  	2300.000000	0.207539  	2300.000000	0.205652  	2300.000000	0.210316  	2300.000000	1.29436e-05	
2400.000000	0.208917  	2400.000000	0.211176  	2400.000000	0.207456  	2400.000000	0.205571  	2400.000000	0.211164  	2400.000000	1.24385e-05	
2500.000000	0.210025  	2500.000000	0.212127  	2500.000000	0.207435  	2500.000000	0.205554  	2500.000000	0.212115  	2500.000000	1.19725e-05	
2600.000000	0.211247  	2600.000000	0.213169  	2600.000000	0.207468  	2600.000000	0.205591  	2600.000000	0.213158  	2600.000000	1.15412e-05	
2700.000000	0.212574  	2700.000000	0.214292  	2700.000000	0.207547  	2700.000000	0.205675  	2700.000000	0.214281  	2700.000000	1.11407e-05	
2800.000000	0.213994  	2800.000000	0.215487  	2800.000000	0.207667  	2800.000000	0.205799  	2800.000000	0.215476  	2800.000000	1.07679e-05	
2900.000000	0.215501  	2900.000000	0.216746  	2900.000000	0.207821  	2900.000000	0.205957  	2900.000000	0.216735  	2900.000000	1.042e-05 	
3000.000000	0.217087  	3000.000000	0.218063  	3000.000000	0.208004  	3000.000000	0.206144  	3000.000000	0.218053  	3000.000000	1.00945e-05	
3200.000000	0.22047   	3200.000000	0.220848  	3200.000000	0.208444  	3200.000000	0.206591  	3200.000000	0.220838  	3200.000000	9.5025e-06	
3400.000000	0.224103  	3400.000000	0.223804  	3400.000000	0.208961  	3400.000000	0.207112  	3400.000000	0.223795  	3400.000000	8.97796e-06	
3600.000000	0.227952  	3600.000000	0.226902  	3600.000000	0.209533  	3600.000000	0.207689  	3600.000000	0.226893  	3600.000000	8.50985e-06	
3800.000000	0.231992  	3800.000000	0.230118  	3800.000000	0.210146  	3800.000000	0.208305  	3800.000000	0.23011   	3800.000000	8.08944e-06	
4000.000000	0.236202  	4000.000000	0.233433  	4000.000000	0.210789  	4000.000000	0.208951  	4000.000000	0.233426  	4000.000000	7.70973e-06	
4200.000000	0.240565  	4200.000000	0.236834  	4200.000000	0.211452  	4200.000000	0.209616  	4200.000000	0.236826  	4200.000000	7.36503e-06	
4400.000000	0.245065  	4400.000000	0.240306  	4400.000000	0.212128  	4400.000000	0.210295  	4400.000000	0.240299  	4400.000000	7.05067e-06	
4600.000000	0.249692  	4600.000000	0.243841  	4600.000000	0.212814  	4600.000000	0.210983  	4600.000000	0.243834  	4600.000000	6.76278e-06	
4800.000000	0.254436  	4800.000000	0.247429  	4800.000000	0.213503  	4800.000000	0.211674  	4800.000000	0.247422  	4800.000000	6.49812e-06	
5000.000000	0.259289  	5000.000000	0.251063  	5000.000000	0.214193  	5000.000000	0.212367  	5000.000000	0.251057  	5000.000000	6.25396e-06	
5250.000000	0.265496  	5250.000000	0.255663  	5250.000000	0.215055  	5250.000000	0.213231  	5250.000000	0.255657  	5250.000000	5.9741e-06	
5500.000000	0.271849  	5500.000000	0.260316  	5500.000000	0.21591   	5500.000000	0.214089  	5500.000000	0.26031   	5500.000000	5.71888e-06	
6000.000000	0.284959  	6000.000000	0.269752  	6000.000000	0.217594  	6000.000000	0.215779  	6000.000000	0.269747  	6000.000000	5.27031e-06	
6500.000000	0.298557  	6500.000000	0.279323  	6500.000000	0.219233  	6500.000000	0.217422  	6500.000000	0.279319  	6500.000000	4.88868e-06	
7000.000000	0.3126    	7000.000000	0.288994  	7000.000000	0.22082   	7000.000000	0.219013  	7000.000000	0.28899   	7000.000000	4.55993e-06	
7500.000000	0.327056  	7500.000000	0.298739  	7500.000000	0.222352  	7500.000000	0.220548  	7500.000000	0.298735  	7500.000000	4.2737e-06	
8000.000000	0.341899  	8000.000000	0.308541  	8000.000000	0.223832  	8000.000000	0.222028  	8000.000000	0.308536  	8000.000000	4.02217e-06	
8500.000000	0.35711   	8500.000000	0.318384  	8500.000000	0.225253  	8500.000000	0.223453  	8500.000000	0.31838   	8500.000000	3.79934e-06	
9000.000000	0.372676  	9000.000000	0.328258  	9000.000000	0.226617  	9000.000000	0.224827  	9000.000000	0.328255  	9000.000000	3.60053e-06	
9500.000000	0.388583  	9500.000000	0.338156  	9500.000000	0.227933  	9500.000000	0.22615   	9500.000000	0.338153  	9500.000000	3.42202e-06	
10000.000000	0.404823  	10000.000000	0.348071  	10000.000000	0.229205  	10000.000000	0.227426  	10000.000000	0.348068  	10000.000000	3.26083e-06	
11000.000000	0.438272  	11000.000000	0.367932  	11000.000000	0.231622  	11000.000000	0.229844  	11000.000000	0.367929  	11000.000000	2.98112e-06	
12000.000000	0.472975  	12000.000000	0.387812  	12000.000000	0.233879  	12000.000000	0.232102  	12000.000000	0.387809  	12000.000000	2.74669e-06	
13000.000000	0.508901  	13000.000000	0.407693  	13000.000000	0.235985  	13000.000000	0.234216  	13000.000000	0.40769   	13000.000000	2.5473e-06	
14000.000000	0.546026  	14000.000000	0.427561  	14000.000000	0.237957  	14000.000000	0.236202  	14000.000000	0.427559  	14000.000000	2.37557e-06	
15000.000000	0.584336  	15000.000000	0.44741   	15000.000000	0.23981   	15000.000000	0.238073  	15000.000000	0.447408  	15000.000000	2.22608e-06	
16000.000000	0.623818  	16000.000000	0.467233  	16000.000000	0.241562  	16000.000000	0.239841  	16000.000000	0.467231  	16000.000000	2.09474e-06	
17000.000000	0.664465  	17000.000000	0.487028  	17000.000000	0.243225  	17000.000000	0.241517  	17000.000000	0.487026  	17000.000000	1.97841e-06	
18000.000000	0.70627   	18000.000000	0.506791  	18000.000000	0.244808  	18000.000000	0.243109  	18000.000000	0.506789  	18000.000000	1.87463e-06	
19000.000000	0.749229  	19000.000000	0.526522  	19000.000000	0.246318  	19000.000000	0.244624  	19000.000000	0.52652   	19000.000000	1.78146e-06	
20000.000000	0.793341  	20000.000000	0.546219  	20000.000000	0.247762  	20000.000000	0.24607   	20000.000000	0.546218  	20000.000000	1.69734e-06	
21000.000000	0.838604  	21000.000000	0.565883  	21000.000000	0.249141  	21000.000000	0.247452  	21000.000000	0.565882  	21000.000000	1.621e-06 	
22000.000000	0.885018  	22000.000000	0.585513  	22000.000000	0.250455  	22000.000000	0.248775  	22000.000000	0.585512  	22000.000000	1.5514e-06	
23000.000000	0.932582  	23000.000000	0.60511   	23000.000000	0.251706  	23000.000000	0.250045  	23000.000000	0.605109  	23000.000000	1.48768e-06	
24000.000000	0.981298  	24000.000000	0.624674  	24000.000000	0.252908  	24000.000000	0.251266  	24000.000000	0.624673  	24000.000000	1.42912e-06	
25000.000000	1.03117   	25000.000000	0.644206  	25000.000000	0.254074  	25000.000000	0.25244   	25000.000000	0.644205  	25000.000000	1.3751e-06	
26000.000000	1.08219   	26000.000000	0.663706  	26000.000000	0.255196  	26000.000000	0.253571  	26000.000000	0.663704  	26000.000000	1.32513e-06	
27000.000000	1.13438   	27000.000000	0.683174  	27000.000000	0.25627   	27000.000000	0.254663  	27000.000000	0.683173  	27000.000000	1.27875e-06	
28000.000000	1.18772   	28000.000000	0.702611  	28000.000000	0.257305  	28000.000000	0.255717  	28000.000000	0.70261   	28000.000000	1.23559e-06	
29000.000000	1.24222   	29000.000000	0.722019  	29000.000000	0.258308  	29000.000000	0.256737  	29000.000000	0.722018  	29000.000000	1.19532e-06	
30000.000000	1.29789   	30000.000000	0.741397  	30000.000000	0.259281  	30000.000000	0.257724  	30000.000000	0.741396  	30000.000000	1.15766e-06	
32000.000000	1.41275   	32000.000000	0.780068  	32000.000000	0.261138  	32000.000000	0.259609  	32000.000000	0.780067  	32000.000000	1.0892e-06	
34000.000000	1.53231   	34000.000000	0.818629  	34000.000000	0.262881  	34000.000000	0.261385  	34000.000000	0.818628  	34000.000000	1.02857e-06	
36000.000000	1.6566    	36000.000000	0.857086  	36000.000000	0.264522  	36000.000000	0.263064  	36000.000000	0.857085  	36000.000000	9.74492e-07	
38000.000000	1.78567   	38000.000000	0.895442  	38000.000000	0.266072  	38000.000000	0.264656  	38000.000000	0.895441  	38000.000000	9.25951e-07	
40000.000000	1.91953   	40000.000000	0.933703  	40000.000000	0.267541  	40000.000000	0.26617   	40000.000000	0.933702  	40000.000000	8.82129e-07	
42000.000000	2.05824   	42000.000000	0.971872  	42000.000000	0.268939  	42000.000000	0.267613  	42000.000000	0.971871  	42000.000000	8.42366e-07	
44000.000000	2.20182   	44000.000000	1.00995   	44000.000000	0.270272  	44000.000000	0.268991  	44000.000000	1.00995   	44000.000000	8.06119e-07	
46000.000000	2.35031   	46000.000000	1.04795   	46000.000000	0.271547  	46000.000000	0.27031   	46000.000000	1.04795   	46000.000000	7.72936e-07	
48000.000000	2.50375   	48000.000000	1.08587   	48000.000000	0.272767  	48000.000000	0.271574  	48000.000000	1.08587   	48000.000000	7.42442e-07	
50000.000000	2.66217   	50000.000000	1.12371   	50000.000000	0.273934  	50000.000000	0.272789  	50000.000000	1.12371   	50000.000000	7.14321e-07	
