Energy (MeV/u)1	0 - [He-base] F.Hubert et al, AD&ND Tables 46(1990)1	Energy (MeV/u)2	1 - [H -base] J.F.Ziegler et al, Pergamon Press, NY (low energy)	Energy (MeV/u)3	2 - ATIMA 1.2  LS-theory (recommended for high energy)	Energy (MeV/u)4	3 - ATIMA 1.2  without LS-correction	Energy (MeV/u)5	4 - electrical component of [1] - J.F.Ziegler et al	Energy (MeV/u)6	5 - nuclear component of [1] - J.F.Ziegler et al	
0.001000	2.49466   	0.001000	2.56137   	0.001000	2.58936   	0.001000	2.58936   	0.001000	0.863333  	0.001000	1.69804   	
0.002000	2.58211   	0.002000	2.38622   	0.002000	2.5271    	0.002000	2.5271    	0.002000	1.1196    	0.002000	1.26661   	
0.005000	2.90673   	0.005000	2.34374   	0.005000	2.75805   	0.005000	2.75805   	0.005000	1.57867   	0.005000	0.765065  	
0.008000	3.21338   	0.008000	2.45033   	0.008000	3.08832   	0.008000	3.08832   	0.008000	1.88294   	0.008000	0.567385  	
0.010000	3.39876   	0.010000	2.53583   	0.010000	3.30703   	0.010000	3.30703   	0.010000	2.04728   	0.010000	0.488544  	
0.015000	3.98527   	0.015000	2.74829   	0.015000	3.81672   	0.015000	3.81672   	0.015000	2.38349   	0.015000	0.364802  	
0.020000	4.50613   	0.020000	2.95138   	0.020000	4.28231   	0.020000	4.28231   	0.020000	2.655     	0.020000	0.296382  	
0.025000	5.09644   	0.025000	3.1564    	0.025000	4.70577   	0.025000	4.70577   	0.025000	2.90516   	0.025000	0.251241  	
0.030000	5.62361   	0.030000	3.70835   	0.030000	5.16053   	0.030000	5.16053   	0.030000	3.48936   	0.030000	0.218992  	
0.035000	6.08057   	0.035000	4.27906   	0.035000	5.6087    	0.035000	5.6087    	0.035000	4.08437   	0.035000	0.194683  	
0.040000	6.45255   	0.040000	4.85944   	0.040000	6.04921   	0.040000	6.04921   	0.040000	4.68381   	0.040000	0.175634  	
0.045000	6.74249   	0.045000	5.44186   	0.045000	6.48113   	0.045000	6.48113   	0.045000	5.2816    	0.045000	0.160265  	
0.050000	6.95964   	0.050000	6.01674   	0.050000	6.90362   	0.050000	6.90362   	0.050000	5.86916   	0.050000	0.147575  	
0.055000	7.32868   	0.055000	6.56174   	0.055000	7.31594   	0.055000	7.31594   	0.055000	6.42483   	0.055000	0.136904  	
0.060000	7.65369   	0.060000	7.09277   	0.060000	7.71744   	0.060000	7.71744   	0.060000	6.96498   	0.060000	0.127792  	
0.070000	8.17997   	0.070000	8.10172   	0.070000	8.48582   	0.070000	8.48582   	0.070000	7.9887    	0.070000	0.113023  	
0.080000	8.73508   	0.080000	9.02892   	0.080000	9.20534   	0.080000	9.20534   	0.080000	8.92738   	0.080000	0.101539  	
0.090000	9.20166   	0.090000	9.86969   	0.090000	9.87393   	0.090000	9.87393   	0.090000	9.77736   	0.090000	0.0923294 	
0.100000	9.59037   	0.100000	10.6434   	0.100000	10.4907   	0.100000	10.4907   	0.100000	10.5586   	0.100000	0.084765  	
0.120000	9.95488   	0.120000	11.9795   	0.120000	11.5702   	0.120000	11.5702   	0.120000	11.9065   	0.120000	0.0730437 	
0.140000	10.191    	0.140000	13.044    	0.140000	12.4543   	0.140000	12.4543   	0.140000	12.9796   	0.140000	0.0643527 	
0.160000	10.3689   	0.160000	13.8918   	0.160000	13.1617   	0.160000	13.1617   	0.160000	13.8342   	0.160000	0.0576303 	
0.180000	10.508    	0.180000	14.5284   	0.180000	13.715    	0.180000	13.715    	0.180000	14.4761   	0.180000	0.0522632 	
0.200000	10.6571   	0.200000	15.0167   	0.200000	14.1373   	0.200000	14.1373   	0.200000	14.9688   	0.200000	0.0478712 	
0.250000	10.7236   	0.250000	15.8491   	0.250000	14.7608   	0.250000	14.7608   	0.250000	15.8094   	0.250000	0.0397105 	
0.300000	10.882    	0.300000	16.3689   	0.300000	14.9785   	0.300000	14.9785   	0.300000	16.3348   	0.300000	0.0340546 	
0.350000	11.0546   	0.350000	16.7466   	0.350000	14.9726   	0.350000	14.9726   	0.350000	16.7168   	0.350000	0.0298872 	
0.400000	11.1709   	0.400000	16.9064   	0.400000	14.8506   	0.400000	14.8506   	0.400000	16.8798   	0.400000	0.02668   	
0.450000	11.238    	0.450000	16.9228   	0.450000	14.8031   	0.450000	14.8031   	0.450000	16.8987   	0.450000	0.02413   	
0.500000	11.286    	0.500000	16.8681   	0.500000	14.7465   	0.500000	14.7465   	0.500000	16.846    	0.500000	0.0220508 	
0.600000	10.9158   	0.600000	16.6267   	0.600000	14.5088   	0.600000	14.5088   	0.600000	16.6078   	0.600000	0.0188569 	
0.700000	10.5243   	0.700000	16.3583   	0.700000	14.1981   	0.700000	14.1981   	0.700000	16.3418   	0.700000	0.0165118 	
0.800000	10.4679   	0.800000	16.0203   	0.800000	13.7999   	0.800000	13.7999   	0.800000	16.0056   	0.800000	0.0147122 	
0.900000	10.292    	0.900000	15.5272   	0.900000	13.4083   	0.900000	13.4083   	0.900000	15.5139   	0.900000	0.0132847 	
1.000000	10.0904   	1.000000	15.0141   	1.000000	13.0363   	1.000000	13.0363   	1.000000	15.002    	1.000000	0.0121231 	
1.250000	9.51196   	1.250000	13.7811   	1.250000	12.1845   	1.250000	12.1845   	1.250000	13.7711   	1.250000	0.00998121	
1.500000	8.94569   	1.500000	12.6963   	1.500000	11.3532   	1.500000	11.3532   	1.500000	12.6878   	1.500000	0.00851017	
1.750000	8.41873   	1.750000	11.7559   	1.750000	10.6491   	1.750000	10.6491   	1.750000	11.7485   	1.750000	0.00743393	
2.000000	7.94066   	2.000000	10.9454   	2.000000	10.0379   	2.000000	10.0379   	2.000000	10.9388   	2.000000	0.00661043	
2.250000	7.52213   	2.250000	10.2429   	2.250000	9.49799   	2.250000	9.49799   	2.250000	10.2369   	2.250000	0.00595884	
2.500000	7.40535   	2.500000	9.62629   	2.500000	9.01549   	2.500000	9.01549   	2.500000	9.62086   	2.500000	0.0054297 	
3.000000	6.68704   	3.000000	8.59303   	3.000000	8.18676   	3.000000	8.18676   	3.000000	8.5884    	3.000000	0.004621  	
3.500000	6.09952   	3.500000	7.75205   	3.500000	7.49911   	3.500000	7.49911   	3.500000	7.74802   	3.500000	0.00403061	
4.000000	5.61088   	4.000000	7.06354   	4.000000	6.91882   	4.000000	6.91882   	4.000000	7.05996   	4.000000	0.00357965	
4.500000	5.19831   	4.500000	6.49041   	4.500000	6.42249   	4.500000	6.42249   	4.500000	6.48719   	4.500000	0.00322336	
5.000000	4.84534   	5.000000	6.00506   	5.000000	5.99313   	5.000000	5.99313   	5.000000	6.00213   	5.000000	0.0029344 	
5.500000	4.53989   	5.500000	5.588     	5.500000	5.61805   	5.500000	5.61805   	5.500000	5.58531   	5.500000	0.00269508	
6.000000	4.27289   	6.000000	5.22405   	6.000000	5.28756   	6.000000	5.28756   	6.000000	5.22155   	6.000000	0.00249345	
6.500000	4.03745   	6.500000	4.90571   	6.500000	4.99417   	6.500000	4.99417   	6.500000	4.90339   	6.500000	0.00232115	
7.000000	3.82823   	7.000000	4.62462   	7.000000	4.73196   	7.000000	4.73196   	7.000000	4.62245   	7.000000	0.00217212	
7.500000	3.64104   	7.500000	4.37441   	7.500000	4.4962    	7.500000	4.4962    	7.500000	4.37237   	7.500000	0.00204188	
8.000000	3.47253   	8.000000	4.15015   	8.000000	4.28309   	8.000000	4.28309   	8.000000	4.14823   	8.000000	0.00192704	
8.500000	3.32      	8.500000	3.94794   	8.500000	4.08949   	8.500000	4.08949   	8.500000	3.94611   	8.500000	0.00182498	
9.000000	3.18126   	9.000000	3.76463   	9.000000	3.91286   	9.000000	3.91286   	9.000000	3.7629    	9.000000	0.00173365	
9.500000	3.05448   	9.500000	3.59768   	9.500000	3.75104   	9.500000	3.75104   	9.500000	3.59602   	9.500000	0.00165142	
10.000000	2.93817   	10.000000	3.39778   	10.000000	3.60226   	10.000000	3.60226   	10.000000	3.3962    	10.000000	0.00157697	
11.000000	2.73209   	11.000000	3.17882   	11.000000	3.33305   	11.000000	3.33754   	11.000000	3.17738   	11.000000	0.00144733	
12.000000	2.55507   	12.000000	2.98702   	12.000000	3.10266   	12.000000	3.11021   	12.000000	2.98568   	12.000000	0.00133821	
13.000000	2.40128   	13.000000	2.81774   	13.000000	2.90342   	13.000000	2.91307   	13.000000	2.81649   	13.000000	0.00124502	
14.000000	2.26639   	14.000000	2.66732   	14.000000	2.72957   	14.000000	2.74064   	14.000000	2.66615   	14.000000	0.00116447	
15.000000	2.14705   	15.000000	2.53283   	15.000000	2.57672   	15.000000	2.58869   	15.000000	2.53174   	15.000000	0.00109412	
16.000000	2.0407    	16.000000	2.4119    	16.000000	2.44136   	16.000000	2.45389   	16.000000	2.41087   	16.000000	0.00103213	
17.000000	1.94529   	17.000000	2.30261   	17.000000	2.32072   	17.000000	2.33361   	17.000000	2.30163   	17.000000	0.000977064	
18.000000	1.8592    	18.000000	2.20336   	18.000000	2.21269   	18.000000	2.22572   	18.000000	2.20243   	18.000000	0.000927811	
19.000000	1.7811    	19.000000	2.11283   	19.000000	2.11549   	19.000000	2.12847   	19.000000	2.11195   	19.000000	0.000883486	
20.000000	1.70991   	20.000000	2.02994   	20.000000	2.02765   	20.000000	2.04045   	20.000000	2.0291    	20.000000	0.000843373	
21.000000	1.64475   	21.000000	1.95376   	21.000000	1.94793   	21.000000	1.96047   	21.000000	1.95296   	21.000000	0.000806892	
22.000000	1.58486   	22.000000	1.88351   	22.000000	1.87529   	22.000000	1.88755   	22.000000	1.88274   	22.000000	0.000773564	
23.000000	1.52963   	23.000000	1.81852   	23.000000	1.80888   	23.000000	1.82084   	23.000000	1.81778   	23.000000	0.000742991	
24.000000	1.47852   	24.000000	1.75822   	24.000000	1.74801   	24.000000	1.75964   	24.000000	1.75751   	24.000000	0.000714842	
25.000000	1.43107   	25.000000	1.70213   	25.000000	1.69207   	25.000000	1.70334   	25.000000	1.70144   	25.000000	0.000688834	
27.000000	1.3457    	27.000000	1.6009    	27.000000	1.59293   	27.000000	1.60343   	27.000000	1.60026   	27.000000	0.000642324	
29.000000	1.271     	29.000000	1.51205   	29.000000	1.50799   	29.000000	1.51775   	29.000000	1.51145   	29.000000	0.000601928	
31.000000	1.20505   	31.000000	1.43343   	31.000000	1.43166   	31.000000	1.44023   	31.000000	1.43287   	31.000000	0.000566501	
33.000000	1.14638   	33.000000	1.36336   	33.000000	1.36134   	33.000000	1.36844   	33.000000	1.36283   	33.000000	0.000535168	
35.000000	1.09383   	35.000000	1.30051   	35.000000	1.29829   	35.000000	1.30422   	35.000000	1.30001   	35.000000	0.000507249	
38.000000	1.0245    	38.000000	1.2175    	38.000000	1.21518   	38.000000	1.21964   	38.000000	1.21703   	38.000000	0.000470631	
41.000000	0.964493  	41.000000	1.14558   	41.000000	1.1432    	41.000000	1.14656   	41.000000	1.14514   	41.000000	0.000439129	
44.000000	0.912011  	44.000000	1.08264   	44.000000	1.0803    	44.000000	1.08276   	44.000000	1.08223   	44.000000	0.000411731	
47.000000	0.865703  	47.000000	1.02709   	47.000000	1.02477   	47.000000	1.02655   	47.000000	1.0267    	47.000000	0.000387672	
50.000000	0.824521  	50.000000	0.977694  	50.000000	0.9754    	50.000000	0.976648  	50.000000	0.977327  	50.000000	0.000366372	
55.000000	0.765122  	55.000000	0.906471  	55.000000	0.904313  	55.000000	0.904808  	55.000000	0.906136  	55.000000	0.00033581	
60.000000	0.714901  	60.000000	0.8463    	60.000000	0.844297  	60.000000	0.844212  	60.000000	0.84599   	60.000000	0.000310122	
65.000000	0.671849  	65.000000	0.79477   	65.000000	0.792887  	65.000000	0.792385  	65.000000	0.794482  	65.000000	0.000288217	
70.000000	0.634506  	70.000000	0.75013   	70.000000	0.748381  	70.000000	0.747532  	70.000000	0.74986   	70.000000	0.000269307	
75.000000	0.601787  	75.000000	0.711071  	75.000000	0.709417  	75.000000	0.708318  	75.000000	0.710818  	75.000000	0.00025281	
80.000000	0.572866  	80.000000	0.676598  	80.000000	0.674956  	80.000000	0.673733  	80.000000	0.67636   	80.000000	0.000238287	
85.000000	0.547107  	85.000000	0.645942  	85.000000	0.644399  	85.000000	0.642995  	85.000000	0.645717  	85.000000	0.000225399	
90.000000	0.524007  	90.000000	0.618496  	90.000000	0.617047  	90.000000	0.61549   	90.000000	0.618282  	90.000000	0.000213883	
95.000000	0.503165  	95.000000	0.593776  	95.000000	0.59235   	95.000000	0.590729  	95.000000	0.593572  	95.000000	0.000203527	
100.000000	0.48426   	100.000000	0.571391  	100.000000	0.569993  	100.000000	0.568317  	100.000000	0.571197  	100.000000	0.000194163	
105.000000	0.467027  	105.000000	0.551024  	105.000000	0.549716  	105.000000	0.547933  	105.000000	0.550838  	105.000000	0.000185653	
110.000000	0.451249  	110.000000	0.53241   	110.000000	0.531144  	110.000000	0.52931   	110.000000	0.532232  	110.000000	0.000177884	
115.000000	0.436744  	115.000000	0.51533   	115.000000	0.514092  	115.000000	0.51223   	115.000000	0.51516   	115.000000	0.000170762	
120.000000	0.423362  	120.000000	0.499602  	120.000000	0.4984    	120.000000	0.496506  	120.000000	0.499438  	120.000000	0.000164209	
125.000000	0.410973  	125.000000	0.485069  	125.000000	0.483901  	125.000000	0.481983  	125.000000	0.484911  	125.000000	0.000158158	
130.000000	0.399469  	130.000000	0.471599  	130.000000	0.470468  	130.000000	0.468527  	130.000000	0.471446  	130.000000	0.000152553	
135.000000	0.388755  	135.000000	0.459079  	135.000000	0.457985  	135.000000	0.456025  	135.000000	0.458932  	135.000000	0.000147345	
140.000000	0.37875   	140.000000	0.447411  	140.000000	0.446353  	140.000000	0.444377  	140.000000	0.447269  	140.000000	0.000142494	
145.000000	0.369385  	145.000000	0.436511  	145.000000	0.435492  	145.000000	0.4335    	145.000000	0.436373  	145.000000	0.000137964	
150.000000	0.360599  	150.000000	0.426305  	150.000000	0.425327  	150.000000	0.423319  	150.000000	0.426171  	150.000000	0.000133723	
155.000000	0.348225  	155.000000	0.416727  	155.000000	0.415762  	155.000000	0.413769  	155.000000	0.416598  	155.000000	0.000129745	
160.000000	0.340973  	160.000000	0.407723  	160.000000	0.406769  	160.000000	0.404794  	160.000000	0.407597  	160.000000	0.000126004	
165.000000	0.334134  	165.000000	0.399241  	165.000000	0.398327  	165.000000	0.396342  	165.000000	0.399118  	165.000000	0.000122481	
170.000000	0.327674  	170.000000	0.391237  	170.000000	0.390367  	170.000000	0.38837   	170.000000	0.391118  	170.000000	0.000119157	
175.000000	0.32156   	175.000000	0.383672  	175.000000	0.38284   	175.000000	0.380838  	175.000000	0.383556  	175.000000	0.000116015	
180.000000	0.315766  	180.000000	0.37651   	180.000000	0.375711  	180.000000	0.37371   	180.000000	0.376397  	180.000000	0.00011304	
185.000000	0.310267  	185.000000	0.36972   	185.000000	0.368949  	185.000000	0.366955  	185.000000	0.36961   	185.000000	0.000110219	
190.000000	0.305041  	190.000000	0.363274  	190.000000	0.362528  	190.000000	0.360545  	190.000000	0.363167  	190.000000	0.000107541	
195.000000	0.300067  	195.000000	0.357147  	195.000000	0.356437  	195.000000	0.354454  	195.000000	0.357042  	195.000000	0.000104995	
200.000000	0.295328  	200.000000	0.351314  	200.000000	0.350649  	200.000000	0.348659  	200.000000	0.351212  	200.000000	0.00010257	
210.000000	0.286489  	210.000000	0.340454  	210.000000	0.339836  	210.000000	0.337874  	210.000000	0.340356  	210.000000	9.8054e-05	
220.000000	0.27841   	220.000000	0.330549  	220.000000	0.33001   	220.000000	0.328046  	220.000000	0.330455  	220.000000	9.39319e-05	
230.000000	0.270996  	230.000000	0.321479  	230.000000	0.320994  	230.000000	0.319054  	230.000000	0.321389  	230.000000	9.0154e-05	
240.000000	0.264169  	240.000000	0.313142  	240.000000	0.312734  	240.000000	0.310797  	240.000000	0.313056  	240.000000	8.66784e-05	
250.000000	0.25786   	250.000000	0.305455  	250.000000	0.305112  	250.000000	0.30319   	250.000000	0.305371  	250.000000	8.34699e-05	
260.000000	0.252013  	260.000000	0.298344  	260.000000	0.298067  	260.000000	0.296159  	260.000000	0.298263  	260.000000	8.04984e-05	
270.000000	0.246578  	270.000000	0.291747  	270.000000	0.29155   	270.000000	0.289643  	270.000000	0.29167   	270.000000	7.77383e-05	
280.000000	0.241514  	280.000000	0.285612  	280.000000	0.285471  	280.000000	0.283589  	280.000000	0.285537  	280.000000	7.51677e-05	
290.000000	0.236784  	290.000000	0.279892  	290.000000	0.279831  	290.000000	0.277949  	290.000000	0.27982   	290.000000	7.27673e-05	
300.000000	0.232356  	300.000000	0.274548  	300.000000	0.274559  	300.000000	0.272684  	300.000000	0.274477  	300.000000	7.05207e-05	
310.000000	0.228202  	310.000000	0.269543  	310.000000	0.269608  	310.000000	0.267758  	310.000000	0.269474  	310.000000	6.84133e-05	
320.000000	0.224298  	320.000000	0.264847  	320.000000	0.264971  	320.000000	0.263141  	320.000000	0.26478   	320.000000	6.64326e-05	
330.000000	0.220622  	330.000000	0.260432  	330.000000	0.260632  	330.000000	0.258805  	330.000000	0.260368  	330.000000	6.45671e-05	
340.000000	0.217154  	340.000000	0.256276  	340.000000	0.256552  	340.000000	0.254725  	340.000000	0.256213  	340.000000	6.28071e-05	
350.000000	0.213879  	350.000000	0.252356  	350.000000	0.252694  	350.000000	0.250882  	350.000000	0.252295  	350.000000	6.11438e-05	
360.000000	0.21078   	360.000000	0.248653  	360.000000	0.249047  	360.000000	0.247255  	360.000000	0.248594  	360.000000	5.95693e-05	
370.000000	0.207844  	370.000000	0.245151  	370.000000	0.245604  	370.000000	0.243827  	370.000000	0.245093  	370.000000	5.80766e-05	
380.000000	0.205058  	380.000000	0.241833  	380.000000	0.242358  	380.000000	0.240583  	380.000000	0.241776  	380.000000	5.66594e-05	
390.000000	0.202413  	390.000000	0.238687  	390.000000	0.239285  	390.000000	0.237509  	390.000000	0.238631  	390.000000	5.53121e-05	
400.000000	0.199897  	400.000000	0.235699  	400.000000	0.23636   	400.000000	0.234593  	400.000000	0.235645  	400.000000	5.40295e-05	
410.000000	0.197501  	410.000000	0.232858  	410.000000	0.233574  	410.000000	0.231823  	410.000000	0.232806  	410.000000	5.28071e-05	
420.000000	0.195219  	420.000000	0.230155  	420.000000	0.230925  	420.000000	0.229189  	420.000000	0.230104  	420.000000	5.16407e-05	
430.000000	0.193041  	430.000000	0.22758   	430.000000	0.228409  	430.000000	0.226683  	430.000000	0.22753   	430.000000	5.05264e-05	
440.000000	0.190961  	440.000000	0.225124  	440.000000	0.226019  	440.000000	0.224294  	440.000000	0.225075  	440.000000	4.94608e-05	
450.000000	0.188973  	450.000000	0.22278   	450.000000	0.223742  	450.000000	0.222016  	450.000000	0.222732  	450.000000	4.84408e-05	
460.000000	0.187072  	460.000000	0.220541  	460.000000	0.221562  	460.000000	0.219842  	460.000000	0.220493  	460.000000	4.74634e-05	
470.000000	0.185252  	470.000000	0.2184    	470.000000	0.219474  	470.000000	0.217765  	470.000000	0.218353  	470.000000	4.6526e-05	
480.000000	0.183507  	480.000000	0.216351  	480.000000	0.217476  	480.000000	0.215778  	480.000000	0.216305  	480.000000	4.56262e-05	
490.000000	0.181835  	490.000000	0.214389  	490.000000	0.215567  	490.000000	0.213878  	490.000000	0.214344  	490.000000	4.47616e-05	
500.000000	0.18023   	500.000000	0.212508  	500.000000	0.213737  	500.000000	0.212058  	500.000000	0.212464  	500.000000	4.39304e-05	
520.000000	0.177209  	520.000000	0.208974  	520.000000	0.210301  	520.000000	0.208641  	520.000000	0.208932  	520.000000	4.23602e-05	
540.000000	0.174417  	540.000000	0.205715  	540.000000	0.207149  	540.000000	0.205494  	540.000000	0.205674  	540.000000	4.0902e-05	
560.000000	0.171831  	560.000000	0.202702  	560.000000	0.204243  	560.000000	0.202589  	560.000000	0.202663  	560.000000	3.95441e-05	
580.000000	0.16943   	580.000000	0.199911  	580.000000	0.201541  	580.000000	0.199902  	580.000000	0.199873  	580.000000	3.82763e-05	
600.000000	0.167196  	600.000000	0.197321  	600.000000	0.199034  	600.000000	0.197409  	600.000000	0.197283  	600.000000	3.70899e-05	
620.000000	0.165116  	620.000000	0.194911  	620.000000	0.196706  	620.000000	0.195094  	620.000000	0.194875  	620.000000	3.59772e-05	
640.000000	0.163174  	640.000000	0.192666  	640.000000	0.194537  	640.000000	0.192939  	640.000000	0.192631  	640.000000	3.49315e-05	
660.000000	0.161359  	660.000000	0.190572  	660.000000	0.19252   	660.000000	0.190929  	660.000000	0.190538  	660.000000	3.39468e-05	
680.000000	0.15966   	680.000000	0.188614  	680.000000	0.190643  	680.000000	0.189052  	680.000000	0.188581  	680.000000	3.30179e-05	
700.000000	0.158068  	700.000000	0.186782  	700.000000	0.188885  	700.000000	0.187297  	700.000000	0.18675   	700.000000	3.21401e-05	
720.000000	0.156574  	720.000000	0.185066  	720.000000	0.187233  	720.000000	0.185653  	720.000000	0.185035  	720.000000	3.13093e-05	
740.000000	0.155172  	740.000000	0.183457  	740.000000	0.18568   	740.000000	0.184111  	740.000000	0.183426  	740.000000	3.05217e-05	
760.000000	0.153853  	760.000000	0.181945  	760.000000	0.184223  	760.000000	0.182664  	760.000000	0.181916  	760.000000	2.97741e-05	
780.000000	0.152612  	780.000000	0.180525  	780.000000	0.182855  	780.000000	0.181303  	780.000000	0.180496  	780.000000	2.90634e-05	
800.000000	0.151444  	800.000000	0.179189  	800.000000	0.181567  	800.000000	0.180022  	800.000000	0.17916   	800.000000	2.83869e-05	
820.000000	0.150343  	820.000000	0.17793   	820.000000	0.180353  	820.000000	0.178816  	820.000000	0.177903  	820.000000	2.77423e-05	
840.000000	0.149305  	840.000000	0.176745  	840.000000	0.179208  	840.000000	0.177678  	840.000000	0.176718  	840.000000	2.71272e-05	
860.000000	0.148326  	860.000000	0.175628  	860.000000	0.178126  	860.000000	0.176605  	860.000000	0.175601  	860.000000	2.65396e-05	
880.000000	0.147401  	880.000000	0.174573  	880.000000	0.177106  	880.000000	0.175591  	880.000000	0.174547  	880.000000	2.59778e-05	
900.000000	0.146529  	900.000000	0.173578  	900.000000	0.176144  	900.000000	0.174632  	900.000000	0.173553  	900.000000	2.54401e-05	
920.000000	0.145704  	920.000000	0.172639  	920.000000	0.175237  	920.000000	0.173725  	920.000000	0.172614  	920.000000	2.49249e-05	
940.000000	0.144925  	940.000000	0.171751  	940.000000	0.174379  	940.000000	0.172867  	940.000000	0.171726  	940.000000	2.44308e-05	
960.000000	0.144189  	960.000000	0.170912  	960.000000	0.173564  	960.000000	0.172054  	960.000000	0.170888  	960.000000	2.39566e-05	
980.000000	0.143493  	980.000000	0.170119  	980.000000	0.17279   	980.000000	0.171284  	980.000000	0.170095  	980.000000	2.3501e-05	
1000.000000	0.142835  	1000.000000	0.169369  	1000.000000	0.172054  	1000.000000	0.170553  	1000.000000	0.169346  	1000.000000	2.30629e-05	
1020.000000	0.142213  	1020.000000	0.168659  	1020.000000	0.171354  	1020.000000	0.169859  	1020.000000	0.168637  	1020.000000	2.26415e-05	
1040.000000	0.141625  	1040.000000	0.167988  	1040.000000	0.170691  	1040.000000	0.169201  	1040.000000	0.167966  	1040.000000	2.22356e-05	
1060.000000	0.141069  	1060.000000	0.167354  	1060.000000	0.170061  	1060.000000	0.168576  	1060.000000	0.167332  	1060.000000	2.18445e-05	
1080.000000	0.140543  	1080.000000	0.166753  	1080.000000	0.169462  	1080.000000	0.167982  	1080.000000	0.166732  	1080.000000	2.14674e-05	
1100.000000	0.140047  	1100.000000	0.166185  	1100.000000	0.168894  	1100.000000	0.167417  	1100.000000	0.166164  	1100.000000	2.11035e-05	
1120.000000	0.139577  	1120.000000	0.165648  	1120.000000	0.168353  	1120.000000	0.16688   	1120.000000	0.165627  	1120.000000	2.07522e-05	
1140.000000	0.139134  	1140.000000	0.16514   	1140.000000	0.167838  	1140.000000	0.166369  	1140.000000	0.16512   	1140.000000	2.04127e-05	
1160.000000	0.138716  	1160.000000	0.16466   	1160.000000	0.167348  	1160.000000	0.165883  	1160.000000	0.16464   	1160.000000	2.00845e-05	
1180.000000	0.138322  	1180.000000	0.164206  	1180.000000	0.166882  	1180.000000	0.16542   	1180.000000	0.164186  	1180.000000	1.9767e-05	
1200.000000	0.13795   	1200.000000	0.163776  	1200.000000	0.166438  	1200.000000	0.16498   	1200.000000	0.163757  	1200.000000	1.94597e-05	
1220.000000	0.1376    	1220.000000	0.163371  	1220.000000	0.166015  	1220.000000	0.16456   	1220.000000	0.163352  	1220.000000	1.91622e-05	
1240.000000	0.13727   	1240.000000	0.162988  	1240.000000	0.165612  	1240.000000	0.16416   	1240.000000	0.16297   	1240.000000	1.88739e-05	
1260.000000	0.13696   	1260.000000	0.162627  	1260.000000	0.165229  	1260.000000	0.16378   	1260.000000	0.162609  	1260.000000	1.85944e-05	
1280.000000	0.136668  	1280.000000	0.162287  	1280.000000	0.164863  	1280.000000	0.163417  	1280.000000	0.162269  	1280.000000	1.83234e-05	
1300.000000	0.136395  	1300.000000	0.161966  	1300.000000	0.164514  	1300.000000	0.163072  	1300.000000	0.161948  	1300.000000	1.80603e-05	
1320.000000	0.136139  	1320.000000	0.161664  	1320.000000	0.164182  	1320.000000	0.162742  	1320.000000	0.161646  	1320.000000	1.7805e-05	
1340.000000	0.135899  	1340.000000	0.16138   	1340.000000	0.163865  	1340.000000	0.162428  	1340.000000	0.161363  	1340.000000	1.7557e-05	
1360.000000	0.135675  	1360.000000	0.161114  	1360.000000	0.163563  	1360.000000	0.162129  	1360.000000	0.161096  	1360.000000	1.73161e-05	
1380.000000	0.135466  	1380.000000	0.160863  	1380.000000	0.163275  	1380.000000	0.161844  	1380.000000	0.160846  	1380.000000	1.70819e-05	
1400.000000	0.135272  	1400.000000	0.160629  	1400.000000	0.163001  	1400.000000	0.161572  	1400.000000	0.160612  	1400.000000	1.68542e-05	
1420.000000	0.135092  	1420.000000	0.160409  	1420.000000	0.16274   	1420.000000	0.161313  	1420.000000	0.160392  	1420.000000	1.66326e-05	
1440.000000	0.134925  	1440.000000	0.160204  	1440.000000	0.162491  	1440.000000	0.161066  	1440.000000	0.160188  	1440.000000	1.6417e-05	
1460.000000	0.134772  	1460.000000	0.160013  	1460.000000	0.162254  	1460.000000	0.160831  	1460.000000	0.159997  	1460.000000	1.6207e-05	
1480.000000	0.134631  	1480.000000	0.159835  	1480.000000	0.162029  	1480.000000	0.160607  	1480.000000	0.159819  	1480.000000	1.60026e-05	
1500.000000	0.134501  	1500.000000	0.15967   	1500.000000	0.161814  	1500.000000	0.160394  	1500.000000	0.159655  	1500.000000	1.58034e-05	
1520.000000	0.134384  	1520.000000	0.159518  	1520.000000	0.16161   	1520.000000	0.16019   	1520.000000	0.159502  	1520.000000	1.56092e-05	
1540.000000	0.134277  	1540.000000	0.159377  	1540.000000	0.161415  	1540.000000	0.159997  	1540.000000	0.159361  	1540.000000	1.542e-05 	
1560.000000	0.134182  	1560.000000	0.159248  	1560.000000	0.16123   	1560.000000	0.159812  	1560.000000	0.159232  	1560.000000	1.52354e-05	
1580.000000	0.134096  	1580.000000	0.159129  	1580.000000	0.161054  	1580.000000	0.159637  	1580.000000	0.159114  	1580.000000	1.50553e-05	
1600.000000	0.134021  	1600.000000	0.159021  	1600.000000	0.160886  	1600.000000	0.15947   	1600.000000	0.159006  	1600.000000	1.48796e-05	
1620.000000	0.133955  	1620.000000	0.158924  	1620.000000	0.160727  	1620.000000	0.159311  	1620.000000	0.158909  	1620.000000	1.4708e-05	
1640.000000	0.133899  	1640.000000	0.158836  	1640.000000	0.160575  	1640.000000	0.15916   	1640.000000	0.158821  	1640.000000	1.45405e-05	
1660.000000	0.133852  	1660.000000	0.158757  	1660.000000	0.160431  	1660.000000	0.159017  	1660.000000	0.158743  	1660.000000	1.43769e-05	
1680.000000	0.133814  	1680.000000	0.158688  	1680.000000	0.160293  	1680.000000	0.15888   	1680.000000	0.158674  	1680.000000	1.4217e-05	
1700.000000	0.133784  	1700.000000	0.158627  	1700.000000	0.160163  	1700.000000	0.158751  	1700.000000	0.158613  	1700.000000	1.40608e-05	
1750.000000	0.133744  	1750.000000	0.158513  	1750.000000	0.159866  	1750.000000	0.158456  	1750.000000	0.158499  	1750.000000	1.36853e-05	
1800.000000	0.133752  	1800.000000	0.158447  	1800.000000	0.159605  	1800.000000	0.158199  	1800.000000	0.158433  	1800.000000	1.33299e-05	
1850.000000	0.133804  	1850.000000	0.158425  	1850.000000	0.159379  	1850.000000	0.157976  	1850.000000	0.158412  	1850.000000	1.29931e-05	
1900.000000	0.133897  	1900.000000	0.158445  	1900.000000	0.159183  	1900.000000	0.157783  	1900.000000	0.158433  	1900.000000	1.26734e-05	
1950.000000	0.134028  	1950.000000	0.158504  	1950.000000	0.159016  	1950.000000	0.157619  	1950.000000	0.158491  	1950.000000	1.23695e-05	
2000.000000	0.134194  	2000.000000	0.158597  	2000.000000	0.158874  	2000.000000	0.15748   	2000.000000	0.158585  	2000.000000	1.20803e-05	
2100.000000	0.134624  	2100.000000	0.15888   	2100.000000	0.158659  	2100.000000	0.157271  	2100.000000	0.158869  	2100.000000	1.15419e-05	
2200.000000	0.13517   	2200.000000	0.159276  	2200.000000	0.158523  	2200.000000	0.15714   	2200.000000	0.159265  	2200.000000	1.10507e-05	
2300.000000	0.13582   	2300.000000	0.159771  	2300.000000	0.158453  	2300.000000	0.157074  	2300.000000	0.15976   	2300.000000	1.06009e-05	
2400.000000	0.136561  	2400.000000	0.160352  	2400.000000	0.158439  	2400.000000	0.157064  	2400.000000	0.160342  	2400.000000	1.01873e-05	
2500.000000	0.137384  	2500.000000	0.161008  	2500.000000	0.158473  	2500.000000	0.157101  	2500.000000	0.160999  	2500.000000	9.80563e-06	
2600.000000	0.138282  	2600.000000	0.161732  	2600.000000	0.158546  	2600.000000	0.157178  	2600.000000	0.161722  	2600.000000	9.45238e-06	
2700.000000	0.139247  	2700.000000	0.162515  	2700.000000	0.158654  	2700.000000	0.157288  	2700.000000	0.162506  	2700.000000	9.12443e-06	
2800.000000	0.140273  	2800.000000	0.163351  	2800.000000	0.15879   	2800.000000	0.157427  	2800.000000	0.163342  	2800.000000	8.81913e-06	
2900.000000	0.141356  	2900.000000	0.164234  	2900.000000	0.158952  	2900.000000	0.157591  	2900.000000	0.164225  	2900.000000	8.53418e-06	
3000.000000	0.142489  	3000.000000	0.16516   	3000.000000	0.159135  	3000.000000	0.157776  	3000.000000	0.165151  	3000.000000	8.26761e-06	
3200.000000	0.144896  	3200.000000	0.167122  	3200.000000	0.159552  	3200.000000	0.158198  	3200.000000	0.167115  	3200.000000	7.78282e-06	
3400.000000	0.147467  	3400.000000	0.169211  	3400.000000	0.160022  	3400.000000	0.158672  	3400.000000	0.169204  	3400.000000	7.35325e-06	
3600.000000	0.150181  	3600.000000	0.171404  	3600.000000	0.160531  	3600.000000	0.159184  	3600.000000	0.171397  	3600.000000	6.96988e-06	
3800.000000	0.153023  	3800.000000	0.173684  	3800.000000	0.161068  	3800.000000	0.159723  	3800.000000	0.173678  	3800.000000	6.62558e-06	
4000.000000	0.155978  	4000.000000	0.176038  	4000.000000	0.161624  	4000.000000	0.160281  	4000.000000	0.176032  	4000.000000	6.3146e-06	
4200.000000	0.159036  	4200.000000	0.178454  	4200.000000	0.162192  	4200.000000	0.160852  	4200.000000	0.178448  	4200.000000	6.03231e-06	
4400.000000	0.162187  	4400.000000	0.180923  	4400.000000	0.162768  	4400.000000	0.16143   	4400.000000	0.180917  	4400.000000	5.77486e-06	
4600.000000	0.165425  	4600.000000	0.183438  	4600.000000	0.163349  	4600.000000	0.162013  	4600.000000	0.183433  	4600.000000	5.53908e-06	
4800.000000	0.168743  	4800.000000	0.185993  	4800.000000	0.16393   	4800.000000	0.162596  	4800.000000	0.185987  	4800.000000	5.32233e-06	
5000.000000	0.172136  	5000.000000	0.188581  	5000.000000	0.164511  	5000.000000	0.163179  	5000.000000	0.188576  	5000.000000	5.12236e-06	
5250.000000	0.176475  	5250.000000	0.191859  	5250.000000	0.165233  	5250.000000	0.163903  	5250.000000	0.191854  	5250.000000	4.89316e-06	
5500.000000	0.180917  	5500.000000	0.195176  	5500.000000	0.165947  	5500.000000	0.16462   	5500.000000	0.195172  	5500.000000	4.68414e-06	
6000.000000	0.190085  	6000.000000	0.201907  	6000.000000	0.16735   	6000.000000	0.166026  	6000.000000	0.201903  	6000.000000	4.31676e-06	
6500.000000	0.199601  	6500.000000	0.208738  	6500.000000	0.16871   	6500.000000	0.167389  	6500.000000	0.208734  	6500.000000	4.0042e-06	
7000.000000	0.209438  	7000.000000	0.215643  	7000.000000	0.170023  	7000.000000	0.168705  	7000.000000	0.215639  	7000.000000	3.73495e-06	
7500.000000	0.219575  	7500.000000	0.222603  	7500.000000	0.171287  	7500.000000	0.169972  	7500.000000	0.2226    	7500.000000	3.50053e-06	
8000.000000	0.229997  	8000.000000	0.229605  	8000.000000	0.172506  	8000.000000	0.171191  	8000.000000	0.229602  	8000.000000	3.29452e-06	
8500.000000	0.240691  	8500.000000	0.236639  	8500.000000	0.173676  	8500.000000	0.172364  	8500.000000	0.236636  	8500.000000	3.11202e-06	
9000.000000	0.25165   	9000.000000	0.243697  	9000.000000	0.1748    	9000.000000	0.173493  	9000.000000	0.243694  	9000.000000	2.94919e-06	
9500.000000	0.262865  	9500.000000	0.250772  	9500.000000	0.175882  	9500.000000	0.17458   	9500.000000	0.250769  	9500.000000	2.80298e-06	
10000.000000	0.274331  	10000.000000	0.25786   	10000.000000	0.176927  	10000.000000	0.175626  	10000.000000	0.257857  	10000.000000	2.67096e-06	
11000.000000	0.297997  	11000.000000	0.272061  	11000.000000	0.178905  	11000.000000	0.177609  	11000.000000	0.272058  	11000.000000	2.44186e-06	
12000.000000	0.32262   	12000.000000	0.286278  	12000.000000	0.180746  	12000.000000	0.179458  	12000.000000	0.286276  	12000.000000	2.24986e-06	
13000.000000	0.348182  	13000.000000	0.300497  	13000.000000	0.182468  	13000.000000	0.181188  	13000.000000	0.300495  	13000.000000	2.08654e-06	
14000.000000	0.374671  	14000.000000	0.314709  	14000.000000	0.184086  	14000.000000	0.182812  	14000.000000	0.314707  	14000.000000	1.94589e-06	
15000.000000	0.402078  	15000.000000	0.328908  	15000.000000	0.185611  	15000.000000	0.184342  	15000.000000	0.328906  	15000.000000	1.82345e-06	
16000.000000	0.430398  	16000.000000	0.34309   	16000.000000	0.18705   	16000.000000	0.185787  	16000.000000	0.343088  	16000.000000	1.71587e-06	
17000.000000	0.459628  	17000.000000	0.357251  	17000.000000	0.188411  	17000.000000	0.187156  	17000.000000	0.35725   	17000.000000	1.62058e-06	
18000.000000	0.489767  	18000.000000	0.371391  	18000.000000	0.189702  	18000.000000	0.188456  	18000.000000	0.37139   	18000.000000	1.53558e-06	
19000.000000	0.520813  	19000.000000	0.385509  	19000.000000	0.190928  	19000.000000	0.189693  	19000.000000	0.385507  	19000.000000	1.45927e-06	
20000.000000	0.552768  	20000.000000	0.399603  	20000.000000	0.192097  	20000.000000	0.190874  	20000.000000	0.399602  	20000.000000	1.39036e-06	
21000.000000	0.585633  	21000.000000	0.413673  	21000.000000	0.193214  	21000.000000	0.192002  	21000.000000	0.413672  	21000.000000	1.32784e-06	
22000.000000	0.61941   	22000.000000	0.42772   	22000.000000	0.194285  	22000.000000	0.193082  	22000.000000	0.427719  	22000.000000	1.27083e-06	
23000.000000	0.654101  	23000.000000	0.441743  	23000.000000	0.195312  	23000.000000	0.194119  	23000.000000	0.441742  	23000.000000	1.21864e-06	
24000.000000	0.689708  	24000.000000	0.455743  	24000.000000	0.196295  	24000.000000	0.195114  	24000.000000	0.455742  	24000.000000	1.17067e-06	
25000.000000	0.726236  	25000.000000	0.46972   	25000.000000	0.197238  	25000.000000	0.196072  	25000.000000	0.469719  	25000.000000	1.12643e-06	
26000.000000	0.763687  	26000.000000	0.483674  	26000.000000	0.198146  	26000.000000	0.196996  	26000.000000	0.483673  	26000.000000	1.08549e-06	
27000.000000	0.802065  	27000.000000	0.497606  	27000.000000	0.199024  	27000.000000	0.197886  	27000.000000	0.497605  	27000.000000	1.0475e-06	
28000.000000	0.841373  	28000.000000	0.511516  	28000.000000	0.199873  	28000.000000	0.198746  	28000.000000	0.511515  	28000.000000	1.01215e-06	
29000.000000	0.881617  	29000.000000	0.525405  	29000.000000	0.200693  	29000.000000	0.199578  	29000.000000	0.525404  	29000.000000	9.79163e-07	
30000.000000	0.922799  	30000.000000	0.539273  	30000.000000	0.201485  	30000.000000	0.200383  	30000.000000	0.539272  	30000.000000	9.48314e-07	
32000.000000	1.008     	32000.000000	0.566948  	32000.000000	0.202993  	32000.000000	0.20192   	32000.000000	0.566947  	32000.000000	8.92239e-07	
34000.000000	1.09701   	34000.000000	0.594544  	34000.000000	0.204409  	34000.000000	0.203369  	34000.000000	0.594543  	34000.000000	8.42578e-07	
36000.000000	1.18986   	36000.000000	0.622067  	36000.000000	0.205744  	36000.000000	0.204738  	36000.000000	0.622066  	36000.000000	7.98282e-07	
38000.000000	1.2866    	38000.000000	0.649517  	38000.000000	0.207009  	38000.000000	0.206037  	38000.000000	0.649517  	38000.000000	7.58521e-07	
40000.000000	1.38726   	40000.000000	0.6769    	40000.000000	0.20821   	40000.000000	0.207271  	40000.000000	0.676899  	40000.000000	7.22626e-07	
42000.000000	1.49188   	42000.000000	0.704217  	42000.000000	0.209349  	42000.000000	0.208447  	42000.000000	0.704217  	42000.000000	6.90055e-07	
44000.000000	1.60052   	44000.000000	0.731472  	44000.000000	0.210432  	44000.000000	0.209571  	44000.000000	0.731472  	44000.000000	6.60363e-07	
46000.000000	1.71319   	46000.000000	0.758667  	46000.000000	0.211463  	46000.000000	0.210646  	46000.000000	0.758667  	46000.000000	6.33182e-07	
48000.000000	1.82996   	48000.000000	0.785805  	48000.000000	0.212448  	48000.000000	0.211677  	48000.000000	0.785804  	48000.000000	6.08204e-07	
50000.000000	1.95086   	50000.000000	0.812887  	50000.000000	0.21339   	50000.000000	0.212667  	50000.000000	0.812886  	50000.000000	5.85168e-07	
