Energy (MeV/u)1	0 - [He-base] F.Hubert et al, AD&ND Tables 46(1990)1	Energy (MeV/u)2	1 - [H -base] J.F.Ziegler et al, Pergamon Press, NY (low energy)	Energy (MeV/u)3	2 - ATIMA 1.2  LS-theory (recommended for high energy)	Energy (MeV/u)4	3 - ATIMA 1.2  without LS-correction	Energy (MeV/u)5	4 - electrical component of [1] - J.F.Ziegler et al	Energy (MeV/u)6	5 - nuclear component of [1] - J.F.Ziegler et al	
0.001000	12.3098   	0.001000	36.4626   	0.001000	28.4083   	0.001000	28.4083   	0.001000	12.7067   	0.001000	23.756    	
0.002000	12.7305   	0.002000	40.5895   	0.002000	30.6903   	0.002000	30.6903   	0.002000	16.4785   	0.002000	24.111    	
0.005000	12.7218   	0.005000	44.7997   	0.005000	31.9669   	0.005000	31.9669   	0.005000	23.2352   	0.005000	21.5645   	
0.008000	12.7379   	0.008000	46.8028   	0.008000	32.2472   	0.008000	32.2472   	0.008000	27.7135   	0.008000	19.0894   	
0.010000	12.8139   	0.010000	47.8712   	0.010000	32.4497   	0.010000	32.4497   	0.010000	30.1323   	0.010000	17.7389   	
0.015000	13.1307   	0.015000	50.231    	0.015000	33.1672   	0.015000	33.1672   	0.015000	35.0806   	0.015000	15.1504   	
0.020000	13.5315   	0.020000	52.3824   	0.020000	34.1096   	0.020000	34.1096   	0.020000	39.0768   	0.020000	13.3057   	
0.025000	13.9599   	0.025000	54.4053   	0.025000	35.1774   	0.025000	35.1774   	0.025000	42.4874   	0.025000	11.9179   	
0.030000	14.3932   	0.030000	56.3243   	0.030000	36.3098   	0.030000	36.3098   	0.030000	45.4939   	0.030000	10.8304   	
0.035000	14.8214   	0.035000	58.1526   	0.035000	37.4723   	0.035000	37.4723   	0.035000	48.2012   	0.035000	9.95139   	
0.040000	15.24     	0.040000	59.9      	0.040000	38.6447   	0.040000	38.6447   	0.040000	50.6763   	0.040000	9.22367   	
0.045000	15.6472   	0.045000	61.5743   	0.045000	39.8153   	0.045000	39.8153   	0.045000	52.9648   	0.045000	8.60957   	
0.050000	16.0424   	0.050000	63.1825   	0.050000	40.9769   	0.050000	40.9769   	0.050000	55.0993   	0.050000	8.0832    	
0.055000	16.4257   	0.055000	64.7304   	0.055000	42.1253   	0.055000	42.1253   	0.055000	57.1043   	0.055000	7.62618   	
0.060000	16.8733   	0.060000	66.2233   	0.060000	43.2582   	0.060000	43.2582   	0.060000	58.9983   	0.060000	7.225     	
0.070000	18.9778   	0.070000	76.1556   	0.070000	50.0884   	0.070000	50.0884   	0.070000	69.6035   	0.070000	6.5521    	
0.080000	21.2115   	0.080000	85.971    	0.080000	57.1974   	0.080000	57.1974   	0.080000	79.9629   	0.080000	6.00811   	
0.090000	23.2821   	0.090000	94.989    	0.090000	64.1398   	0.090000	64.1398   	0.090000	89.4312   	0.090000	5.55782   	
0.100000	25.1873   	0.100000	103.086   	0.100000	70.8067   	0.100000	70.8067   	0.100000	97.9078   	0.100000	5.17802   	
0.120000	27.8298   	0.120000	116.033   	0.120000	83.0717   	0.120000	83.0717   	0.120000	111.463   	0.120000	4.57051   	
0.140000	29.7389   	0.140000	124.15    	0.140000	93.7635   	0.140000	93.7635   	0.140000	120.046   	0.140000	4.10398   	
0.160000	31.4727   	0.160000	129.83    	0.160000	102.882   	0.160000	102.882   	0.160000	126.132   	0.160000	3.69841   	
0.180000	33.137    	0.180000	133.897   	0.180000	110.655   	0.180000	110.655   	0.180000	130.498   	0.180000	3.3989    	
0.200000	34.7824   	0.200000	136.895   	0.200000	117.238   	0.200000	117.238   	0.200000	133.746   	0.200000	3.14872   	
0.250000	37.6863   	0.250000	142.066   	0.250000	129.713   	0.250000	129.713   	0.250000	139.395   	0.250000	2.67097   	
0.300000	40.421    	0.300000	146.055   	0.300000	138.333   	0.300000	138.333   	0.300000	143.726   	0.300000	2.32929   	
0.350000	42.9492   	0.350000	149.785   	0.350000	144.629   	0.350000	144.629   	0.350000	147.714   	0.350000	2.07154   	
0.400000	45.2504   	0.400000	153.412   	0.400000	149.491   	0.400000	149.491   	0.400000	151.542   	0.400000	1.86944   	
0.450000	47.5389   	0.450000	157.555   	0.450000	153.425   	0.450000	153.425   	0.450000	155.849   	0.450000	1.70629   	
0.500000	50.1768   	0.500000	163.385   	0.500000	156.723   	0.500000	156.723   	0.500000	161.813   	0.500000	1.57155   	
0.600000	52.7346   	0.600000	173.041   	0.600000	162.042   	0.600000	162.042   	0.600000	171.68    	0.600000	1.36137   	
0.700000	54.076    	0.700000	180.484   	0.700000	166.299   	0.700000	166.299   	0.700000	179.279   	0.700000	1.20439   	
0.800000	56.7121   	0.800000	186.165   	0.800000	171.957   	0.800000	171.957   	0.800000	185.083   	0.800000	1.08226   	
0.900000	58.9265   	0.900000	190.809   	0.900000	176.392   	0.900000	176.392   	0.900000	189.825   	0.900000	0.984294  	
1.000000	60.7874   	1.000000	194.561   	1.000000	179.886   	1.000000	179.886   	1.000000	193.657   	1.000000	0.903806  	
1.250000	63.8357   	1.250000	200.049   	1.250000	185.675   	1.250000	185.675   	1.250000	199.296   	1.250000	0.753443  	
1.500000	65.491    	1.500000	201.917   	1.500000	188.644   	1.500000	188.644   	1.500000	201.268   	1.500000	0.648567  	
1.750000	65.4685   	1.750000	199.164   	1.750000	189.849   	1.750000	189.849   	1.750000	198.593   	1.750000	0.570914  	
2.000000	65.1385   	2.000000	195.922   	2.000000	189.907   	2.000000	189.907   	2.000000	195.411   	2.000000	0.510919  	
2.250000	64.7333   	2.250000	192.486   	2.250000	189.201   	2.250000	189.201   	2.250000	192.023   	2.250000	0.463064  	
2.500000	93.6651   	2.500000	188.97    	2.500000	187.98    	2.500000	187.98    	2.500000	188.546   	2.500000	0.423934  	
3.000000	90.6144   	3.000000	181.955   	3.000000	184.601   	3.000000	184.601   	3.000000	181.591   	3.000000	0.363627  	
3.500000	87.3161   	3.500000	175.177   	3.500000	180.567   	3.500000	180.567   	3.500000	174.858   	3.500000	0.31918   	
4.000000	84.0337   	4.000000	168.749   	4.000000	176.273   	4.000000	176.273   	4.000000	168.464   	4.000000	0.284967  	
4.500000	80.88     	4.500000	162.676   	4.500000	171.707   	4.500000	171.707   	4.500000	162.418   	4.500000	0.257761  	
5.000000	77.8995   	5.000000	156.955   	5.000000	166.891   	5.000000	166.891   	5.000000	156.719   	5.000000	0.235574  	
5.500000	75.105    	5.500000	151.616   	5.500000	162.363   	5.500000	162.363   	5.500000	151.399   	5.500000	0.217109  	
6.000000	72.4945   	6.000000	146.648   	6.000000	158.098   	6.000000	158.098   	6.000000	146.446   	6.000000	0.201486  	
6.500000	70.0587   	6.500000	141.995   	6.500000	154.074   	6.500000	154.074   	6.500000	141.807   	6.500000	0.188084  	
7.000000	67.7859   	7.000000	137.623   	7.000000	150.269   	7.000000	150.269   	7.000000	137.447   	7.000000	0.176452  	
7.500000	65.6632   	7.500000	133.494   	7.500000	146.666   	7.500000	146.666   	7.500000	133.328   	7.500000	0.166255  	
8.000000	63.6782   	8.000000	129.563   	8.000000	143.249   	8.000000	143.249   	8.000000	129.406   	8.000000	0.157238  	
8.500000	61.8191   	8.500000	125.883   	8.500000	140.002   	8.500000	140.002   	8.500000	125.734   	8.500000	0.149203  	
9.000000	60.0751   	9.000000	122.425   	9.000000	136.914   	9.000000	136.914   	9.000000	122.283   	9.000000	0.141995  	
9.500000	58.4362   	9.500000	119.165   	9.500000	133.971   	9.500000	133.971   	9.500000	119.029   	9.500000	0.135491  	
10.000000	56.8935   	10.000000	117.218   	10.000000	131.163   	10.000000	131.163   	10.000000	117.089   	10.000000	0.12959   	
11.000000	54.065    	11.000000	113.9     	11.000000	124.841   	11.000000	126.017   	11.000000	113.781   	11.000000	0.119285  	
12.000000	51.5344   	12.000000	110.664   	12.000000	119.137   	12.000000	121.297   	12.000000	110.553   	12.000000	0.110579  	
13.000000	49.2565   	13.000000	107.542   	13.000000	113.966   	13.000000	116.952   	13.000000	107.439   	13.000000	0.103121  	
14.000000	47.195    	14.000000	104.549   	14.000000	109.256   	14.000000	112.941   	14.000000	104.453   	14.000000	0.0966568 	
15.000000	45.32     	15.000000	101.692   	15.000000	104.95    	15.000000	109.224   	15.000000	101.601   	15.000000	0.0909963 	
16.000000	43.6066   	16.000000	98.9711   	16.000000	100.995   	16.000000	105.772   	16.000000	98.8851   	16.000000	0.0859959 	
17.000000	42.0344   	17.000000	96.3819   	17.000000	97.3514   	17.000000	102.557   	17.000000	96.3004   	17.000000	0.0815446 	
18.000000	40.5863   	18.000000	93.9197   	18.000000	93.9844   	18.000000	99.5557   	18.000000	93.8422   	18.000000	0.077555  	
19.000000	39.2477   	19.000000	91.5783   	19.000000	90.8654   	19.000000	96.7475   	19.000000	91.5043   	19.000000	0.0739578 	
20.000000	38.0063   	20.000000	89.3511   	20.000000	87.9699   	20.000000	94.1149   	20.000000	89.2804   	20.000000	0.0706966 	
21.000000	36.8516   	21.000000	87.2314   	21.000000	85.2759   	21.000000	91.6424   	21.000000	87.1637   	21.000000	0.0677257 	
22.000000	35.7747   	22.000000	85.2128   	22.000000	82.7639   	22.000000	89.3162   	22.000000	85.1478   	22.000000	0.0650073 	
23.000000	34.7676   	23.000000	83.289    	23.000000	80.4176   	23.000000	87.1242   	23.000000	83.2265   	23.000000	0.06251   	
24.000000	33.8237   	24.000000	81.4542   	24.000000	78.2227   	24.000000	85.0557   	24.000000	81.394    	24.000000	0.0602074 	
25.000000	32.9369   	25.000000	79.7027   	25.000000	76.1654   	25.000000	83.101    	25.000000	79.6446   	25.000000	0.0580772 	
27.000000	31.3148   	27.000000	76.4294   	27.000000	72.4124   	27.000000	79.4998   	27.000000	76.3752   	27.000000	0.0542606 	
29.000000	29.8665   	29.000000	73.4317   	29.000000	69.09     	29.000000	76.2618   	29.000000	73.3808   	29.000000	0.050938  	
31.000000	28.565    	31.000000	70.6773   	31.000000	66.3833   	31.000000	73.2441   	31.000000	70.6293   	31.000000	0.0480181 	
33.000000	27.3883   	33.000000	68.1383   	33.000000	64.1366   	33.000000	70.4005   	33.000000	68.0929   	33.000000	0.0454305 	
35.000000	26.3188   	35.000000	65.7908   	35.000000	62.0636   	35.000000	67.7901   	35.000000	65.7477   	35.000000	0.0431207 	
38.000000	24.8848   	38.000000	62.5843   	38.000000	59.2123   	38.000000	64.2516   	38.000000	62.5442   	38.000000	0.040085  	
41.000000	23.6216   	41.000000	59.7045   	41.000000	56.647    	41.000000	61.099    	41.000000	59.6671   	41.000000	0.0374675 	
44.000000	22.4997   	44.000000	57.1042   	44.000000	54.3147   	44.000000	58.2719   	44.000000	57.069    	44.000000	0.0351862 	
47.000000	21.496    	47.000000	54.7445   	47.000000	52.1936   	47.000000	55.7219   	47.000000	54.7113   	47.000000	0.0331793 	
50.000000	20.5922   	50.000000	52.5937   	50.000000	50.2547   	50.000000	53.41     	50.000000	52.5623   	50.000000	0.0313992 	
55.000000	19.2698   	55.000000	49.4027   	55.000000	47.3631   	55.000000	50.0014   	55.000000	49.3739   	55.000000	0.0288398 	
60.000000	18.1337   	60.000000	46.6217   	60.000000	44.834    	60.000000	47.0512   	60.000000	46.5951   	60.000000	0.0266835 	
65.000000	17.1463   	65.000000	44.1765   	65.000000	42.5986   	65.000000	44.4725   	65.000000	44.1516   	65.000000	0.0248406 	
70.000000	16.2794   	70.000000	42.0095   	70.000000	40.611    	70.000000	42.1993   	70.000000	41.9862   	70.000000	0.0232465 	
75.000000	15.5119   	75.000000	40.0759   	75.000000	38.8342   	75.000000	40.1804   	75.000000	40.054    	75.000000	0.0218534 	
80.000000	14.827    	80.000000	38.3398   	80.000000	37.2338   	80.000000	38.3756   	80.000000	38.3192   	80.000000	0.0206249 	
85.000000	14.2118   	85.000000	36.7725   	85.000000	35.7848   	85.000000	36.7524   	85.000000	36.753    	85.000000	0.0195332 	
90.000000	13.656    	90.000000	35.3505   	90.000000	34.4665   	90.000000	35.285    	90.000000	35.332    	90.000000	0.0185561 	
95.000000	13.151    	95.000000	34.0546   	95.000000	33.262    	95.000000	33.952    	95.000000	34.0369   	95.000000	0.0176764 	
100.000000	12.6902   	100.000000	32.8686   	100.000000	32.1603   	100.000000	32.7358   	100.000000	32.8517   	100.000000	0.0168799 	
105.000000	12.2677   	105.000000	31.7793   	105.000000	31.1459   	105.000000	31.6218   	105.000000	31.7631   	105.000000	0.0161553 	
110.000000	11.8788   	110.000000	30.7752   	110.000000	30.2087   	110.000000	30.5977   	110.000000	30.7597   	110.000000	0.0154929 	
115.000000	11.5197   	115.000000	29.8468   	115.000000	29.3399   	115.000000	29.6531   	115.000000	29.8319   	115.000000	0.0148852 	
120.000000	11.1869   	120.000000	28.9859   	120.000000	28.5341   	120.000000	28.7792   	120.000000	28.9715   	120.000000	0.0143253 	
125.000000	10.8775   	125.000000	28.1853   	125.000000	27.7846   	125.000000	27.9683   	125.000000	28.1715   	125.000000	0.0138079 	
130.000000	10.5892   	130.000000	27.4391   	130.000000	27.0842   	130.000000	27.2139   	130.000000	27.4257   	130.000000	0.0133282 	
135.000000	10.3197   	135.000000	26.7418   	135.000000	26.4305   	135.000000	26.5104   	135.000000	26.7289   	135.000000	0.0128822 	
140.000000	10.0672   	140.000000	26.0888   	140.000000	25.8176   	140.000000	25.8528   	140.000000	26.0764   	140.000000	0.0124664 	
145.000000	9.8302    	145.000000	25.4761   	145.000000	25.2409   	145.000000	25.2369   	145.000000	25.464    	145.000000	0.0120777 	
150.000000	9.60718   	150.000000	24.9001   	150.000000	24.6978   	150.000000	24.6587   	150.000000	24.8883   	150.000000	0.0117136 	
155.000000	9.28722   	155.000000	24.3575   	155.000000	24.1867   	155.000000	24.115    	155.000000	24.3461   	155.000000	0.0113718 	
160.000000	9.1027    	160.000000	23.8456   	160.000000	23.7042   	160.000000	23.6028   	160.000000	23.8346   	160.000000	0.0110502 	
165.000000	8.92829   	165.000000	23.3619   	165.000000	23.2473   	165.000000	23.1195   	165.000000	23.3511   	165.000000	0.0107471 	
170.000000	8.76315   	170.000000	22.9041   	170.000000	22.8148   	170.000000	22.6627   	170.000000	22.8936   	170.000000	0.0104609 	
175.000000	8.60657   	175.000000	22.4702   	175.000000	22.4054   	175.000000	22.2303   	175.000000	22.46     	175.000000	0.0101902 	
180.000000	8.45787   	180.000000	22.0584   	180.000000	22.017    	180.000000	21.8205   	180.000000	22.0484   	180.000000	0.0099338 	
185.000000	8.31648   	185.000000	21.667    	185.000000	21.6477   	185.000000	21.4315   	185.000000	21.6573   	185.000000	0.00969054	
190.000000	8.18185   	190.000000	21.2947   	190.000000	21.2957   	190.000000	21.0619   	190.000000	21.2852   	190.000000	0.00945943	
195.000000	8.05352   	195.000000	20.94     	195.000000	20.9594   	195.000000	20.7101   	195.000000	20.9308   	195.000000	0.00923956	
200.000000	7.93104   	200.000000	20.6017   	200.000000	20.6384   	200.000000	20.3751   	200.000000	20.5927   	200.000000	0.00903013	
210.000000	7.70211   	210.000000	19.9703   	210.000000	20.0418   	210.000000	19.7505   	210.000000	19.9616   	210.000000	0.00863969	
220.000000	7.49228   	220.000000	19.3925   	220.000000	19.4931   	220.000000	19.1802   	220.000000	19.3842   	220.000000	0.00828298	
230.000000	7.29926   	230.000000	18.862    	230.000000	18.9905   	230.000000	18.6575   	230.000000	18.854    	230.000000	0.00795576	
240.000000	7.12107   	240.000000	18.3732   	240.000000	18.5271   	240.000000	18.1767   	240.000000	18.3656   	240.000000	0.00765447	
250.000000	6.95608   	250.000000	17.9215   	250.000000	18.0985   	250.000000	17.7332   	250.000000	17.9141   	250.000000	0.00737609	
260.000000	6.80287   	260.000000	17.5029   	260.000000	17.7011   	260.000000	17.3228   	260.000000	17.4958   	260.000000	0.00711809	
270.000000	6.66021   	270.000000	17.1139   	270.000000	17.331    	270.000000	16.9421   	270.000000	17.107    	270.000000	0.00687825	
280.000000	6.52706   	280.000000	16.7516   	280.000000	16.9867   	280.000000	16.5879   	280.000000	16.7449   	280.000000	0.00665472	
290.000000	6.40249   	290.000000	16.4133   	290.000000	16.6656   	290.000000	16.2578   	290.000000	16.4069   	290.000000	0.00644585	
300.000000	6.28571   	300.000000	16.0969   	300.000000	16.3646   	300.000000	15.9493   	300.000000	16.0906   	300.000000	0.00625023	
310.000000	6.17602   	310.000000	15.8002   	310.000000	16.082    	310.000000	15.6605   	310.000000	15.7941   	310.000000	0.00606662	
320.000000	6.07279   	320.000000	15.5216   	320.000000	15.8169   	320.000000	15.3896   	320.000000	15.5157   	320.000000	0.00589394	
330.000000	5.97548   	330.000000	15.2595   	330.000000	15.5677   	330.000000	15.135    	330.000000	15.2537   	330.000000	0.00573121	
340.000000	5.8836    	340.000000	15.0125   	340.000000	15.333    	340.000000	14.8954   	340.000000	15.0069   	340.000000	0.0055776 	
350.000000	5.79671   	350.000000	14.7793   	350.000000	15.1117   	350.000000	14.6695   	350.000000	14.7739   	350.000000	0.00543234	
360.000000	5.71443   	360.000000	14.559    	360.000000	14.9021   	360.000000	14.4562   	360.000000	14.5537   	360.000000	0.00529477	
370.000000	5.6364    	370.000000	14.3505   	370.000000	14.7034   	370.000000	14.2546   	370.000000	14.3453   	370.000000	0.00516428	
380.000000	5.56232   	380.000000	14.1528   	380.000000	14.5152   	380.000000	14.0637   	380.000000	14.1478   	380.000000	0.00504032	
390.000000	5.49189   	390.000000	13.9653   	390.000000	14.3368   	390.000000	13.8827   	390.000000	13.9604   	390.000000	0.00492243	
400.000000	5.42487   	400.000000	13.7872   	400.000000	14.1676   	400.000000	13.711    	400.000000	13.7824   	400.000000	0.00481014	
410.000000	5.36102   	410.000000	13.6178   	410.000000	14.0065   	410.000000	13.5478   	410.000000	13.6131   	410.000000	0.00470308	
420.000000	5.30012   	420.000000	13.4565   	420.000000	13.8526   	420.000000	13.3925   	420.000000	13.4519   	420.000000	0.00460087	
430.000000	5.24198   	430.000000	13.3028   	430.000000	13.7061   	430.000000	13.2447   	430.000000	13.2983   	430.000000	0.00450319	
440.000000	5.18644   	440.000000	13.1562   	440.000000	13.5669   	440.000000	13.1039   	440.000000	13.1518   	440.000000	0.00440974	
450.000000	5.13332   	450.000000	13.0163   	450.000000	13.4342   	450.000000	12.9695   	450.000000	13.0119   	450.000000	0.00432025	
460.000000	5.08247   	460.000000	12.8825   	460.000000	13.3071   	460.000000	12.8412   	460.000000	12.8783   	460.000000	0.00423447	
470.000000	5.03377   	470.000000	12.7546   	470.000000	13.1853   	470.000000	12.7185   	470.000000	12.7505   	470.000000	0.00415217	
480.000000	4.98709   	480.000000	12.6322   	480.000000	13.0687   	480.000000	12.6013   	480.000000	12.6281   	480.000000	0.00407313	
490.000000	4.9423    	490.000000	12.515    	490.000000	12.9572   	490.000000	12.489    	490.000000	12.511    	490.000000	0.00399717	
500.000000	4.89931   	500.000000	12.4026   	500.000000	12.8504   	500.000000	12.3815   	500.000000	12.3987   	500.000000	0.00392411	
520.000000	4.81832   	520.000000	12.1914   	520.000000	12.6498   	520.000000	12.1795   	520.000000	12.1876   	520.000000	0.00378603	
540.000000	4.74341   	540.000000	11.9966   	540.000000	12.4641   	540.000000	11.9934   	540.000000	11.9929   	540.000000	0.00365771	
560.000000	4.67397   	560.000000	11.8165   	560.000000	12.2924   	560.000000	11.8215   	560.000000	11.813    	560.000000	0.00353813	
580.000000	4.60946   	580.000000	11.6497   	580.000000	12.1341   	580.000000	11.6624   	580.000000	11.6462   	580.000000	0.00342643	
600.000000	4.54943   	600.000000	11.4948   	600.000000	11.9868   	600.000000	11.5148   	600.000000	11.4915   	600.000000	0.00332184	
620.000000	4.49346   	620.000000	11.3508   	620.000000	11.8494   	620.000000	11.3776   	620.000000	11.3475   	620.000000	0.00322369	
640.000000	4.4412    	640.000000	11.2166   	640.000000	11.7214   	640.000000	11.2498   	640.000000	11.2134   	640.000000	0.00313139	
660.000000	4.39233   	660.000000	11.0914   	660.000000	11.6021   	660.000000	11.1306   	660.000000	11.0884   	660.000000	0.00304444	
680.000000	4.34657   	680.000000	10.9744   	680.000000	11.4904   	680.000000	11.0192   	680.000000	10.9715   	680.000000	0.00296238	
700.000000	4.30368   	700.000000	10.865    	700.000000	11.386    	700.000000	10.9149   	700.000000	10.8621   	700.000000	0.00288479	
720.000000	4.26342   	720.000000	10.7625   	720.000000	11.2882   	720.000000	10.8172   	720.000000	10.7597   	720.000000	0.00281132	
740.000000	4.22559   	740.000000	10.6664   	740.000000	11.1961   	740.000000	10.7255   	740.000000	10.6637   	740.000000	0.00274164	
760.000000	4.19002   	760.000000	10.5762   	760.000000	11.1093   	760.000000	10.6394   	760.000000	10.5735   	760.000000	0.00267547	
780.000000	4.15654   	780.000000	10.4914   	780.000000	11.0275   	780.000000	10.5584   	780.000000	10.4888   	780.000000	0.00261254	
800.000000	4.12501   	800.000000	10.4117   	800.000000	10.9509   	800.000000	10.4821   	800.000000	10.4091   	800.000000	0.00255261	
820.000000	4.09529   	820.000000	10.3366   	820.000000	10.8787   	820.000000	10.4102   	820.000000	10.3341   	820.000000	0.00249548	
840.000000	4.06726   	840.000000	10.266    	840.000000	10.8105   	840.000000	10.3423   	840.000000	10.2635   	840.000000	0.00244095	
860.000000	4.04081   	860.000000	10.1994   	860.000000	10.7459   	860.000000	10.2782   	860.000000	10.197    	860.000000	0.00238884	
880.000000	4.01584   	880.000000	10.1366   	880.000000	10.6847   	880.000000	10.2176   	880.000000	10.1342   	880.000000	0.002339  	
900.000000	3.99226   	900.000000	10.0773   	900.000000	10.6267   	900.000000	10.1603   	900.000000	10.075    	900.000000	0.00229127	
920.000000	3.96998   	920.000000	10.0214   	920.000000	10.5719   	920.000000	10.1061   	920.000000	10.0191   	920.000000	0.00224553	
940.000000	3.94892   	940.000000	9.96858   	940.000000	10.52     	940.000000	10.0547   	940.000000	9.96638   	940.000000	0.00220165	
960.000000	3.92902   	960.000000	9.9187    	960.000000	10.4707   	960.000000	10.006    	960.000000	9.91654   	960.000000	0.00215952	
980.000000	3.9102    	980.000000	9.87157   	980.000000	10.424    	980.000000	9.95973   	980.000000	9.86945   	980.000000	0.00211903	
1000.000000	3.89241   	1000.000000	9.82704   	1000.000000	10.3796   	1000.000000	9.91586   	1000.000000	9.82496   	1000.000000	0.00208009	
1020.000000	3.87559   	1020.000000	9.78494   	1020.000000	10.3374   	1020.000000	9.87418   	1020.000000	9.7829    	1020.000000	0.00204261	
1040.000000	3.85968   	1040.000000	9.74515   	1040.000000	10.2974   	1040.000000	9.83458   	1040.000000	9.74314   	1040.000000	0.00200651	
1060.000000	3.84464   	1060.000000	9.70754   	1060.000000	10.2593   	1060.000000	9.79693   	1060.000000	9.70557   	1060.000000	0.00197171	
1080.000000	3.83043   	1080.000000	9.67198   	1080.000000	10.2231   	1080.000000	9.76112   	1080.000000	9.67004   	1080.000000	0.00193814	
1100.000000	3.817     	1100.000000	9.63837   	1100.000000	10.1885   	1100.000000	9.72705   	1100.000000	9.63647   	1100.000000	0.00190574	
1120.000000	3.80431   	1120.000000	9.60661   	1120.000000	10.1555   	1120.000000	9.69461   	1120.000000	9.60474   	1120.000000	0.00187445	
1140.000000	3.79232   	1140.000000	9.5766    	1140.000000	10.124    	1140.000000	9.66371   	1140.000000	9.57476   	1140.000000	0.00184421	
1160.000000	3.78101   	1160.000000	9.54825   	1160.000000	10.094    	1160.000000	9.63428   	1160.000000	9.54644   	1160.000000	0.00181497	
1180.000000	3.77034   	1180.000000	9.52149   	1180.000000	10.0654   	1180.000000	9.60623   	1180.000000	9.5197    	1180.000000	0.00178667	
1200.000000	3.76028   	1200.000000	9.49622   	1200.000000	10.0381   	1200.000000	9.57949   	1200.000000	9.49446   	1200.000000	0.00175928	
1220.000000	3.7508    	1220.000000	9.47238   	1220.000000	10.0122   	1220.000000	9.55399   	1220.000000	9.47065   	1220.000000	0.00173274	
1240.000000	3.74188   	1240.000000	9.4499    	1240.000000	9.98751   	1240.000000	9.52967   	1240.000000	9.4482    	1240.000000	0.00170703	
1260.000000	3.73349   	1260.000000	9.42872   	1260.000000	9.96399   	1260.000000	9.50647   	1260.000000	9.42704   	1260.000000	0.0016821 	
1280.000000	3.72561   	1280.000000	9.40878   	1280.000000	9.94155   	1280.000000	9.48434   	1280.000000	9.40713   	1280.000000	0.00165791	
1300.000000	3.71821   	1300.000000	9.39003   	1300.000000	9.92009   	1300.000000	9.46321   	1300.000000	9.38839   	1300.000000	0.00163443	
1320.000000	3.71128   	1320.000000	9.3724    	1320.000000	9.89955   	1320.000000	9.44304   	1320.000000	9.37078   	1320.000000	0.00161164	
1340.000000	3.7048    	1340.000000	9.35584   	1340.000000	9.87988   	1340.000000	9.42379   	1340.000000	9.35426   	1340.000000	0.0015895 	
1360.000000	3.69875   	1360.000000	9.34033   	1360.000000	9.86105   	1360.000000	9.40541   	1360.000000	9.33876   	1360.000000	0.00156798	
1380.000000	3.69311   	1380.000000	9.3258    	1380.000000	9.84305   	1380.000000	9.38786   	1380.000000	9.32425   	1380.000000	0.00154705	
1400.000000	3.68786   	1400.000000	9.31221   	1400.000000	9.82586   	1400.000000	9.3711    	1400.000000	9.31069   	1400.000000	0.0015267 	
1420.000000	3.68299   	1420.000000	9.29954   	1420.000000	9.80944   	1420.000000	9.3551    	1420.000000	9.29803   	1420.000000	0.0015069 	
1440.000000	3.67849   	1440.000000	9.28773   	1440.000000	9.79379   	1440.000000	9.33981   	1440.000000	9.28624   	1440.000000	0.00148763	
1460.000000	3.67434   	1460.000000	9.27676   	1460.000000	9.77888   	1460.000000	9.32522   	1460.000000	9.27529   	1460.000000	0.00146886	
1480.000000	3.67053   	1480.000000	9.26659   	1480.000000	9.76466   	1480.000000	9.31128   	1480.000000	9.26514   	1480.000000	0.00145057	
1500.000000	3.66704   	1500.000000	9.25719   	1500.000000	9.7511    	1500.000000	9.29797   	1500.000000	9.25576   	1500.000000	0.00143275	
1520.000000	3.66387   	1520.000000	9.24853   	1520.000000	9.73816   	1520.000000	9.28526   	1520.000000	9.24711   	1520.000000	0.00141539	
1540.000000	3.661     	1540.000000	9.24058   	1540.000000	9.72581   	1540.000000	9.27313   	1540.000000	9.23918   	1540.000000	0.00139845	
1560.000000	3.65842   	1560.000000	9.23331   	1560.000000	9.71401   	1560.000000	9.26155   	1560.000000	9.23193   	1560.000000	0.00138193	
1580.000000	3.65613   	1580.000000	9.22671   	1580.000000	9.70273   	1580.000000	9.2505    	1580.000000	9.22534   	1580.000000	0.00136581	
1600.000000	3.6541    	1600.000000	9.22074   	1600.000000	9.69195   	1600.000000	9.23995   	1600.000000	9.21939   	1600.000000	0.00135008	
1620.000000	3.65234   	1620.000000	9.21537   	1620.000000	9.68164   	1620.000000	9.22988   	1620.000000	9.21404   	1620.000000	0.00133471	
1640.000000	3.65084   	1640.000000	9.2106    	1640.000000	9.67178   	1640.000000	9.22029   	1640.000000	9.20928   	1640.000000	0.00131971	
1660.000000	3.64958   	1660.000000	9.2064    	1660.000000	9.66236   	1660.000000	9.21113   	1660.000000	9.20509   	1660.000000	0.00130505	
1680.000000	3.64855   	1680.000000	9.20274   	1680.000000	9.65335   	1680.000000	9.20241   	1680.000000	9.20145   	1680.000000	0.00129073	
1700.000000	3.64776   	1700.000000	9.19961   	1700.000000	9.64476   	1700.000000	9.19409   	1700.000000	9.19833   	1700.000000	0.00127673	
1750.000000	3.64674   	1750.000000	9.19398   	1750.000000	9.62495   	1750.000000	9.175     	1750.000000	9.19274   	1750.000000	0.00124308	
1800.000000	3.64701   	1800.000000	9.19129   	1800.000000	9.60738   	1800.000000	9.15813   	1800.000000	9.19007   	1800.000000	0.00121121	
1850.000000	3.64847   	1850.000000	9.19128   	1850.000000	9.59186   	1850.000000	9.14329   	1850.000000	9.1901    	1850.000000	0.001181  	
1900.000000	3.65105   	1900.000000	9.19375   	1900.000000	9.57821   	1900.000000	9.1303    	1900.000000	9.1926    	1900.000000	0.00115231	
1950.000000	3.65465   	1950.000000	9.19852   	1950.000000	9.56627   	1950.000000	9.11897   	1950.000000	9.19739   	1950.000000	0.00112503	
2000.000000	3.65922   	2000.000000	9.2054    	2000.000000	9.55589   	2000.000000	9.10918   	2000.000000	9.2043    	2000.000000	0.00109906	
2100.000000	3.671     	2100.000000	9.22492   	2100.000000	9.53932   	2100.000000	9.09365   	2100.000000	9.22387   	2100.000000	0.00105068	
2200.000000	3.68594   	2200.000000	9.25125   	2200.000000	9.52756   	2200.000000	9.0828    	2200.000000	9.25024   	2200.000000	0.00100652	
2300.000000	3.70369   	2300.000000	9.28349   	2300.000000	9.51981   	2300.000000	9.07589   	2300.000000	9.28252   	2300.000000	0.000966052	
2400.000000	3.72394   	2400.000000	9.3209    	2400.000000	9.51545   	2400.000000	9.07232   	2400.000000	9.31997   	2400.000000	0.000928819	
2500.000000	3.74643   	2500.000000	9.36286   	2500.000000	9.51394   	2500.000000	9.07157   	2500.000000	9.36196   	2500.000000	0.000894447	
2600.000000	3.77094   	2600.000000	9.40883   	2600.000000	9.51489   	2600.000000	9.07323   	2600.000000	9.40797   	2600.000000	0.000862614	
2700.000000	3.79728   	2700.000000	9.45837   	2700.000000	9.51793   	2700.000000	9.07694   	2700.000000	9.45754   	2700.000000	0.000833045	
2800.000000	3.82529   	2800.000000	9.51109   	2800.000000	9.52278   	2800.000000	9.08241   	2800.000000	9.51028   	2800.000000	0.000805506	
2900.000000	3.85483   	2900.000000	9.56665   	2900.000000	9.52919   	2900.000000	9.08938   	2900.000000	9.56587   	2900.000000	0.00077979	
3000.000000	3.88576   	3000.000000	9.62476   	3000.000000	9.53692   	3000.000000	9.09765   	3000.000000	9.624     	3000.000000	0.000755721	
3200.000000	3.95142   	3200.000000	9.74766   	3200.000000	9.55568   	3200.000000	9.11737   	3200.000000	9.74695   	3200.000000	0.000711923	
3400.000000	4.02156   	3400.000000	9.87812   	3400.000000	9.57782   	3400.000000	9.14038   	3400.000000	9.87745   	3400.000000	0.000673082	
3600.000000	4.0956    	3600.000000	10.0148   	3600.000000	9.60247   	3600.000000	9.16582   	3600.000000	10.0142   	3600.000000	0.000638392	
3800.000000	4.1731    	3800.000000	10.1568   	3800.000000	9.62895   	3800.000000	9.19304   	3800.000000	10.1562   	3800.000000	0.000607215	
4000.000000	4.2537    	4000.000000	10.3031   	4000.000000	9.65674   	4000.000000	9.22152   	4000.000000	10.3025   	4000.000000	0.000579038	
4200.000000	4.3371    	4200.000000	10.4532   	4200.000000	9.68545   	4200.000000	9.2509    	4200.000000	10.4526   	4200.000000	0.000553443	
4400.000000	4.42305   	4400.000000	10.6064   	4400.000000	9.71477   	4400.000000	9.28087   	4400.000000	10.6059   	4400.000000	0.000530087	
4600.000000	4.51136   	4600.000000	10.7624   	4600.000000	9.74446   	4600.000000	9.3112    	4600.000000	10.7619   	4600.000000	0.000508685	
4800.000000	4.60185   	4800.000000	10.9208   	4800.000000	9.77436   	4800.000000	9.34173   	4800.000000	10.9203   	4800.000000	0.000489  	
5000.000000	4.69438   	5000.000000	11.0812   	5000.000000	9.80432   	5000.000000	9.3723    	5000.000000	11.0807   	5000.000000	0.00047083	
5250.000000	4.81273   	5250.000000	11.2842   	5250.000000	9.8417    	5250.000000	9.41043   	5250.000000	11.2837   	5250.000000	0.000449992	
5500.000000	4.93387   	5500.000000	11.4895   	5500.000000	9.87886   	5500.000000	9.4483    	5500.000000	11.4891   	5500.000000	0.000430978	
6000.000000	5.1839    	6000.000000	11.906    	6000.000000	9.95213   	6000.000000	9.52286   	6000.000000	11.9056   	6000.000000	0.000397533	
6500.000000	5.44343   	6500.000000	12.3284   	6500.000000	10.0236   	6500.000000	9.59538   	6500.000000	12.3281   	6500.000000	0.00036905	
7000.000000	5.7117    	7000.000000	12.7552   	7000.000000	10.0923   	7000.000000	9.66557   	7000.000000	12.7549   	7000.000000	0.000344492	
7500.000000	5.98815   	7500.000000	13.1853   	7500.000000	10.1588   	7500.000000	9.73333   	7500.000000	13.185    	7500.000000	0.000323092	
8000.000000	6.27237   	8000.000000	13.6179   	8000.000000	10.2228   	8000.000000	9.79863   	8000.000000	13.6176   	8000.000000	0.000304273	
8500.000000	6.56403   	8500.000000	14.0524   	8500.000000	10.2843   	8500.000000	9.86155   	8500.000000	14.0521   	8500.000000	0.000287589	
9000.000000	6.86289   	9000.000000	14.4882   	9000.000000	10.3434   	9000.000000	9.92215   	9000.000000	14.4879   	9000.000000	0.000272693	
9500.000000	7.16875   	9500.000000	14.925    	9500.000000	10.4003   	9500.000000	9.98055   	9500.000000	14.9248   	9500.000000	0.00025931	
10000.000000	7.48143   	10000.000000	15.3626   	10000.000000	10.4553   	10000.000000	10.0368   	10000.000000	15.3624   	10000.000000	0.000247218	
11000.000000	8.12684   	11000.000000	16.2392   	11000.000000	10.5591   	11000.000000	10.1436   	11000.000000	16.239    	11000.000000	0.000226219	
12000.000000	8.79836   	12000.000000	17.1166   	12000.000000	10.6553   	12000.000000	10.2432   	12000.000000	17.1164   	12000.000000	0.000208602	
13000.000000	9.49548   	13000.000000	17.9941   	13000.000000	10.7453   	13000.000000	10.3365   	13000.000000	17.9939   	13000.000000	0.000193604	
14000.000000	10.2179   	14000.000000	18.871    	14000.000000	10.8298   	14000.000000	10.4241   	14000.000000	18.8708   	14000.000000	0.000180677	
15000.000000	10.9653   	15000.000000	19.747    	15000.000000	10.9094   	15000.000000	10.5067   	15000.000000	19.7469   	15000.000000	0.000169415	
16000.000000	11.7376   	16000.000000	20.622    	16000.000000	10.984    	16000.000000	10.5848   	16000.000000	20.6218   	16000.000000	0.000159513	
17000.000000	12.5348   	17000.000000	21.4956   	17000.000000	11.054    	17000.000000	10.6587   	17000.000000	21.4955   	17000.000000	0.000150738	
18000.000000	13.3567   	18000.000000	22.3679   	18000.000000	11.1198   	18000.000000	10.7289   	18000.000000	22.3677   	18000.000000	0.000142904	
19000.000000	14.2034   	19000.000000	23.2387   	19000.000000	11.1821   	19000.000000	10.7958   	19000.000000	23.2386   	19000.000000	0.000135867	
20000.000000	15.0749   	20000.000000	24.1081   	20000.000000	11.2412   	20000.000000	10.8596   	20000.000000	24.108    	20000.000000	0.000129511	
21000.000000	15.9712   	21000.000000	24.976    	21000.000000	11.2976   	21000.000000	10.9206   	21000.000000	24.9758   	21000.000000	0.000123739	
22000.000000	16.8923   	22000.000000	25.8424   	22000.000000	11.3517   	22000.000000	10.979    	22000.000000	25.8423   	22000.000000	0.000118475	
23000.000000	17.8384   	23000.000000	26.7073   	23000.000000	11.4031   	23000.000000	11.0351   	23000.000000	26.7072   	23000.000000	0.000113653	
24000.000000	18.8095   	24000.000000	27.5708   	24000.000000	11.452    	24000.000000	11.0889   	24000.000000	27.5707   	24000.000000	0.000109219	
25000.000000	19.8056   	25000.000000	28.4328   	25000.000000	11.4989   	25000.000000	11.1407   	25000.000000	28.4327   	25000.000000	0.000105128	
26000.000000	20.827    	26000.000000	29.2935   	26000.000000	11.5438   	26000.000000	11.1907   	26000.000000	29.2934   	26000.000000	0.000101342	
27000.000000	21.8736   	27000.000000	30.1527   	27000.000000	11.5867   	27000.000000	11.2388   	27000.000000	30.1526   	27000.000000	9.78265e-05	
28000.000000	22.9456   	28000.000000	31.0106   	28000.000000	11.6279   	28000.000000	11.2854   	28000.000000	31.0105   	28000.000000	9.45539e-05	
29000.000000	24.0431   	29000.000000	31.8672   	29000.000000	11.6675   	29000.000000	11.3304   	29000.000000	31.8671   	29000.000000	9.14995e-05	
30000.000000	25.1662   	30000.000000	32.7225   	30000.000000	11.7056   	30000.000000	11.3739   	30000.000000	32.7224   	30000.000000	8.86419e-05	
32000.000000	27.4897   	32000.000000	34.4292   	32000.000000	11.7778   	32000.000000	11.4571   	32000.000000	34.4292   	32000.000000	8.34452e-05	
34000.000000	29.9171   	34000.000000	36.1312   	34000.000000	11.8451   	34000.000000	11.5355   	34000.000000	36.1311   	34000.000000	7.88403e-05	
36000.000000	32.4494   	36000.000000	37.8285   	36000.000000	11.9075   	36000.000000	11.6096   	36000.000000	37.8284   	36000.000000	7.47307e-05	
38000.000000	35.0876   	38000.000000	39.5214   	38000.000000	11.9655   	38000.000000	11.6799   	38000.000000	39.5213   	38000.000000	7.10398e-05	
40000.000000	37.8328   	40000.000000	41.2101   	40000.000000	12.0198   	40000.000000	11.7467   	40000.000000	41.21     	40000.000000	6.77061e-05	
42000.000000	40.6861   	42000.000000	42.8947   	42000.000000	12.0709   	42000.000000	11.8103   	42000.000000	42.8947   	42000.000000	6.46798e-05	
44000.000000	43.6486   	44000.000000	44.5755   	44000.000000	12.1193   	44000.000000	11.8712   	44000.000000	44.5755   	44000.000000	6.19199e-05	
46000.000000	46.7215   	46000.000000	46.2526   	46000.000000	12.1654   	46000.000000	11.9294   	46000.000000	46.2525   	46000.000000	5.93923e-05	
48000.000000	49.906    	48000.000000	47.9261   	48000.000000	12.2093   	48000.000000	11.9852   	48000.000000	47.926    	48000.000000	5.70686e-05	
50000.000000	53.2031   	50000.000000	49.5962   	50000.000000	12.2507   	50000.000000	12.0388   	50000.000000	49.5962   	50000.000000	5.49249e-05	
