Energy (MeV/u)1	0 - [He-base] F.Hubert et al, AD&ND Tables 46(1990)1	Energy (MeV/u)2	1 - [H -base] J.F.Ziegler et al, Pergamon Press, NY (low energy)	Energy (MeV/u)3	2 - ATIMA 1.2  LS-theory (recommended for high energy)	Energy (MeV/u)4	3 - ATIMA 1.2  without LS-correction	Energy (MeV/u)5	4 - electrical component of [1] - J.F.Ziegler et al	Energy (MeV/u)6	5 - nuclear component of [1] - J.F.Ziegler et al	
0.001000	12.2971   	0.001000	10.0812   	0.001000	9.47468   	0.001000	9.47468   	0.001000	1.68099   	0.001000	8.4002    	
0.002000	12.7202   	0.002000	10.54     	0.002000	9.73114   	0.002000	9.73114   	0.002000	2.32836   	0.002000	8.21168   	
0.005000	12.7154   	0.005000	10.5143   	0.005000	9.33499   	0.005000	9.33499   	0.005000	3.58164   	0.005000	6.93265   	
0.008000	12.7332   	0.008000	10.4222   	0.008000	8.99385   	0.008000	8.99385   	0.008000	4.46702   	0.008000	5.95517   	
0.010000	12.81     	0.010000	10.4197   	0.010000	8.85605   	0.010000	8.85605   	0.010000	4.96096   	0.010000	5.45873   	
0.015000	13.1279   	0.015000	10.5576   	0.015000	8.71595   	0.015000	8.71595   	0.015000	6.00245   	0.015000	4.55514   	
0.020000	13.5292   	0.020000	10.8125   	0.020000	8.74552   	0.020000	8.74552   	0.020000	6.87148   	0.020000	3.94107   	
0.025000	13.9581   	0.025000	11.1238   	0.025000	8.86406   	0.025000	8.86406   	0.025000	7.63129   	0.025000	3.49253   	
0.030000	14.3917   	0.030000	11.4622   	0.030000	9.03238   	0.030000	9.03238   	0.030000	8.31406   	0.030000	3.14819   	
0.035000	14.8201   	0.035000	11.8129   	0.035000	9.22975   	0.035000	9.22975   	0.035000	8.93877   	0.035000	2.87411   	
0.040000	15.2388   	0.040000	12.1677   	0.040000	9.44438   	0.040000	9.44438   	0.040000	9.51775   	0.040000	2.64992   	
0.045000	15.6461   	0.045000	12.522    	0.045000	9.66917   	0.045000	9.66917   	0.045000	10.0595   	0.045000	2.46256   	
0.050000	16.0414   	0.050000	12.8734   	0.050000	9.89969   	0.050000	9.89969   	0.050000	10.5702   	0.050000	2.30327   	
0.055000	16.4248   	0.055000	13.2203   	0.055000	10.1331   	0.055000	10.1331   	0.055000	11.0544   	0.055000	2.16591   	
0.060000	16.8725   	0.060000	13.564    	0.060000	10.369    	0.060000	10.369    	0.060000	11.5179   	0.060000	2.04605   	
0.070000	18.9771   	0.070000	15.3656   	0.070000	11.7613   	0.070000	11.7613   	0.070000	13.5192   	0.070000	1.84647   	
0.080000	21.2109   	0.080000	17.2027   	0.080000	13.2634   	0.080000	13.2634   	0.080000	15.5163   	0.080000	1.68645   	
0.090000	23.2815   	0.090000	18.9207   	0.090000	14.7375   	0.090000	14.7375   	0.090000	17.3658   	0.090000	1.55487   	
0.100000	25.1868   	0.100000	20.5057   	0.100000	16.1589   	0.100000	16.1589   	0.100000	19.0668   	0.100000	1.43891   	
0.120000	27.8294   	0.120000	23.2441   	0.120000	18.8282   	0.120000	18.8282   	0.120000	21.9867   	0.120000	1.25744   	
0.140000	29.7386   	0.140000	25.273    	0.140000	21.2499   	0.140000	21.2499   	0.140000	24.1478   	0.140000	1.12524   	
0.160000	31.4724   	0.160000	27.0098   	0.160000	23.4261   	0.160000	23.4261   	0.160000	25.9892   	0.160000	1.02054   	
0.180000	33.1367   	0.180000	28.5294   	0.180000	25.3814   	0.180000	25.3814   	0.180000	27.5941   	0.180000	0.935331  	
0.200000	34.7821   	0.200000	29.8858   	0.200000	27.1428   	0.200000	27.1428   	0.200000	29.0213   	0.200000	0.864492  	
0.250000	37.6861   	0.250000	32.7803   	0.250000	30.8579   	0.250000	30.8579   	0.250000	32.0503   	0.250000	0.730045  	
0.300000	40.4209   	0.300000	35.1957   	0.300000	33.8294   	0.300000	33.8294   	0.300000	34.5611   	0.300000	0.634551  	
0.350000	42.9491   	0.350000	37.2803   	0.350000	36.2729   	0.350000	36.2729   	0.350000	36.7175   	0.350000	0.562874  	
0.400000	45.2502   	0.400000	39.1112   	0.400000	38.3329   	0.400000	38.3329   	0.400000	38.6043   	0.400000	0.506896  	
0.450000	47.5388   	0.450000	40.901    	0.450000	40.1068   	0.450000	40.1068   	0.450000	40.4392   	0.450000	0.46185   	
0.500000	50.1767   	0.500000	43.0261   	0.500000	41.6612   	0.500000	41.6612   	0.500000	42.6013   	0.500000	0.424742  	
0.600000	52.7345   	0.600000	46.5497   	0.600000	44.2818   	0.600000	44.2818   	0.600000	46.1827   	0.600000	0.367042  	
0.700000	54.0759   	0.700000	49.3254   	0.700000	46.4531   	0.700000	46.4531   	0.700000	49.0013   	0.700000	0.324094  	
0.800000	56.712    	0.800000	51.5413   	0.800000	48.914    	0.800000	48.914    	0.800000	51.2506   	0.800000	0.290773  	
0.900000	58.9264   	0.900000	53.4281   	0.900000	50.9539   	0.900000	50.9539   	0.900000	53.164    	0.900000	0.264103  	
1.000000	60.7873   	1.000000	55.0433   	1.000000	52.6599   	1.000000	52.6599   	1.000000	54.8011   	1.000000	0.242231  	
1.250000	63.8357   	1.250000	57.9159   	1.250000	55.8397   	1.250000	55.8397   	1.250000	57.7145   	1.250000	0.201475  	
1.500000	65.4909   	1.500000	59.6694   	1.500000	57.9292   	1.500000	57.9292   	1.500000	59.4963   	1.500000	0.173132  	
1.750000	65.4685   	1.750000	59.968    	1.750000	59.2912   	1.750000	59.2912   	1.750000	59.8158   	1.750000	0.152194  	
2.000000	65.1385   	2.000000	60.0185   	2.000000	60.149    	2.000000	60.149    	2.000000	59.8825   	2.000000	0.136046  	
2.250000	64.7333   	2.250000	59.9185   	2.250000	60.648    	2.250000	60.648    	2.250000	59.7953   	2.250000	0.123184  	
2.500000	93.6651   	2.500000	59.7105   	2.500000	60.8862   	2.500000	60.8862   	2.500000	59.5979   	2.500000	0.112682  	
3.000000	90.6144   	3.000000	59.0793   	3.000000	60.8347   	3.000000	60.8347   	3.000000	58.9827   	3.000000	0.0965193 	
3.500000	87.3161   	3.500000	58.273    	3.500000	60.3419   	3.500000	60.3419   	3.500000	58.1884   	3.500000	0.0846282 	
4.000000	84.0337   	4.000000	57.3725   	4.000000	59.5966   	4.000000	59.5966   	4.000000	57.297    	4.000000	0.0754877 	
4.500000	80.88     	4.500000	56.4163   	4.500000	58.6329   	4.500000	58.6329   	4.500000	56.3481   	4.500000	0.0682278 	
5.000000	77.8995   	5.000000	55.4313   	5.000000	57.4832   	5.000000	57.4832   	5.000000	55.369    	5.000000	0.0623127 	
5.500000	75.105    	5.500000	54.453    	5.500000	56.352    	5.500000	56.352    	5.500000	54.3956   	5.500000	0.0573945 	
6.000000	72.4945   	6.000000	53.4966   	6.000000	55.2474   	6.000000	55.2474   	6.000000	53.4434   	6.000000	0.0532363 	
6.500000	70.0587   	6.500000	52.5591   	6.500000	54.1738   	6.500000	54.1738   	6.500000	52.5095   	6.500000	0.0496717 	
7.000000	67.7859   	7.000000	51.6414   	7.000000	53.1333   	7.000000	53.1333   	7.000000	51.5948   	7.000000	0.0465798 	
7.500000	65.6632   	7.500000	50.7404   	7.500000	52.1271   	7.500000	52.1271   	7.500000	50.6965   	7.500000	0.0438708 	
8.000000	63.6782   	8.000000	49.8483   	8.000000	51.155    	8.000000	51.155    	8.000000	49.8068   	8.000000	0.0414764 	
8.500000	61.8191   	8.500000	48.9931   	8.500000	50.2166   	8.500000	50.2166   	8.500000	48.9538   	8.500000	0.0393438 	
9.000000	60.0751   	9.000000	48.1714   	9.000000	49.3111   	9.000000	49.3111   	9.000000	48.1339   	9.000000	0.0374316 	
9.500000	58.4362   	9.500000	47.3801   	9.500000	48.4373   	9.500000	48.4373   	9.500000	47.3444   	9.500000	0.0357067 	
10.000000	56.8935   	10.000000	46.9336   	10.000000	47.5941   	10.000000	47.5941   	10.000000	46.8995   	10.000000	0.0341424 	
11.000000	54.065    	11.000000	45.4852   	11.000000	45.6188   	11.000000	46.2103   	11.000000	45.4538   	11.000000	0.0314118 	
12.000000	51.5344   	12.000000	44.0992   	12.000000	43.7983   	12.000000	44.8845   	12.000000	44.0701   	12.000000	0.0291065 	
13.000000	49.2565   	13.000000	42.7811   	13.000000	42.1176   	13.000000	43.6198   	13.000000	42.7539   	13.000000	0.0271328 	
14.000000	47.195    	14.000000	41.5314   	14.000000	40.563    	14.000000	42.4161   	14.000000	41.506    	14.000000	0.0254227 	
15.000000	45.32     	15.000000	40.3486   	15.000000	39.1216   	15.000000	41.2717   	15.000000	40.3247   	15.000000	0.023926  	
16.000000	43.6066   	16.000000	39.2299   	16.000000	37.7815   	16.000000	40.1843   	16.000000	39.2073   	16.000000	0.0226044 	
17.000000	42.0344   	17.000000	38.1716   	17.000000	36.5325   	17.000000	39.1509   	17.000000	38.1502   	17.000000	0.0214284 	
18.000000	40.5863   	18.000000	37.1701   	18.000000	35.3663   	18.000000	38.1685   	18.000000	37.1497   	18.000000	0.0203747 	
19.000000	39.2477   	19.000000	36.2217   	19.000000	34.2758   	19.000000	37.2343   	19.000000	36.2023   	19.000000	0.0194249 	
20.000000	38.0063   	20.000000	35.3227   	20.000000	33.2545   	20.000000	36.3453   	20.000000	35.3042   	20.000000	0.0185642 	
21.000000	36.8516   	21.000000	34.4699   	21.000000	32.2966   	21.000000	35.4987   	21.000000	34.4521   	21.000000	0.0177803 	
22.000000	35.7747   	22.000000	33.6599   	22.000000	31.3964   	22.000000	34.692    	22.000000	33.6429   	22.000000	0.0170632 	
23.000000	34.7676   	23.000000	32.8899   	23.000000	30.5495   	23.000000	33.9228   	23.000000	32.8735   	23.000000	0.0164045 	
24.000000	33.8237   	24.000000	32.157    	24.000000	29.7519   	24.000000	33.1886   	24.000000	32.1412   	24.000000	0.0157974 	
25.000000	32.9369   	25.000000	31.4588   	25.000000	28.9992   	25.000000	32.4876   	25.000000	31.4436   	25.000000	0.0152359 	
27.000000	31.3148   	27.000000	30.1572   	27.000000	27.6121   	27.000000	31.1769   	27.000000	30.143    	27.000000	0.0142301 	
29.000000	29.8665   	29.000000	28.9686   	29.000000	26.3695   	29.000000	29.9767   	29.000000	28.9553   	29.000000	0.0133548 	
31.000000	28.565    	31.000000	27.8791   	31.000000	25.3762   	31.000000	28.827    	31.000000	27.8666   	31.000000	0.0125859 	
33.000000	27.3883   	33.000000	26.8769   	33.000000	24.5776   	33.000000	27.7282   	33.000000	26.865    	33.000000	0.0119047 	
35.000000	26.3188   	35.000000	25.9519   	35.000000	23.8394   	35.000000	26.7197   	35.000000	25.9406   	35.000000	0.0112969 	
38.000000	24.8848   	38.000000	24.6908   	38.000000	22.8181   	38.000000	25.3527   	38.000000	24.6803   	38.000000	0.0104983 	
41.000000	23.6216   	41.000000	23.5603   	41.000000	21.8953   	41.000000	24.1346   	41.000000	23.5505   	41.000000	0.00980993	
44.000000	22.4997   	44.000000	22.5411   	44.000000	21.0515   	44.000000	23.0418   	44.000000	22.5318   	44.000000	0.00921021	
47.000000	21.496    	47.000000	21.6174   	47.000000	20.2811   	47.000000	22.0558   	47.000000	21.6087   	47.000000	0.00868278	
50.000000	20.5922   	50.000000	20.7764   	50.000000	19.5743   	50.000000	21.1614   	50.000000	20.7682   	50.000000	0.00821513	
55.000000	19.2698   	55.000000	19.5303   	55.000000	18.5147   	55.000000	19.8417   	55.000000	19.5227   	55.000000	0.00754295	
60.000000	18.1337   	60.000000	18.4457   	60.000000	17.583    	60.000000	18.6982   	60.000000	18.4387   	60.000000	0.00697684	
65.000000	17.1463   	65.000000	17.493    	65.000000	16.7552   	65.000000	17.6977   	65.000000	17.4865   	65.000000	0.00649321	
70.000000	16.2794   	70.000000	16.6494   	70.000000	16.0159   	70.000000	16.8148   	70.000000	16.6433   	70.000000	0.00607502	
75.000000	15.5119   	75.000000	15.8972   	75.000000	15.3528   	75.000000	16.0299   	75.000000	15.8915   	75.000000	0.00570964	
80.000000	14.827    	80.000000	15.2223   	80.000000	14.7532   	80.000000	15.3274   	80.000000	15.2169   	80.000000	0.00538754	
85.000000	14.2118   	85.000000	14.6133   	85.000000	14.2084   	85.000000	14.6951   	85.000000	14.6082   	85.000000	0.00510135	
90.000000	13.656    	90.000000	14.061    	90.000000	13.7112   	90.000000	14.1229   	90.000000	14.0562   	90.000000	0.0048453 	
95.000000	13.151    	95.000000	13.5578   	95.000000	13.2555   	95.000000	13.6026   	95.000000	13.5532   	95.000000	0.00461481	
100.000000	12.6902   	100.000000	13.0975   	100.000000	12.838    	100.000000	13.1275   	100.000000	13.0931   	100.000000	0.00440616	
105.000000	12.2677   	105.000000	12.6748   	105.000000	12.4526   	105.000000	12.692    	105.000000	12.6706   	105.000000	0.00421636	
110.000000	11.8788   	110.000000	12.2853   	110.000000	12.0956   	110.000000	12.2913   	110.000000	12.2813   	110.000000	0.00404293	
115.000000	11.5197   	115.000000	11.9252   	115.000000	11.7638   	115.000000	11.9214   	115.000000	11.9213   	115.000000	0.0038838 	
120.000000	11.1869   	120.000000	11.5914   	120.000000	11.4556   	120.000000	11.5789   	120.000000	11.5876   	120.000000	0.00373725	
125.000000	10.8775   	125.000000	11.281    	125.000000	11.1685   	125.000000	11.2609   	125.000000	11.2774   	125.000000	0.00360183	
130.000000	10.5892   	130.000000	10.9917   	130.000000	10.8997   	130.000000	10.9649   	130.000000	10.9882   	130.000000	0.0034763 	
135.000000	10.3197   	135.000000	10.7214   	135.000000	10.6485   	135.000000	10.6887   	135.000000	10.718    	135.000000	0.00335959	
140.000000	10.0672   	140.000000	10.4683   	140.000000	10.4126   	140.000000	10.4304   	140.000000	10.4651   	140.000000	0.00325079	
145.000000	9.8302    	145.000000	10.2309   	145.000000	10.1903   	145.000000	10.1882   	145.000000	10.2277   	145.000000	0.00314912	
150.000000	9.60718   	150.000000	10.0077   	150.000000	9.98048   	150.000000	9.96082   	150.000000	10.0046   	150.000000	0.00305389	
155.000000	9.28722   	155.000000	9.79742   	155.000000	9.78292   	155.000000	9.74686   	155.000000	9.79446   	155.000000	0.00296449	
160.000000	9.1027    	160.000000	9.59909   	160.000000	9.59621   	160.000000	9.5452    	160.000000	9.59621   	160.000000	0.0028804 	
165.000000	8.92829   	165.000000	9.41168   	165.000000	9.41909   	165.000000	9.35481   	165.000000	9.40887   	165.000000	0.00280115	
170.000000	8.76315   	170.000000	9.23431   	170.000000	9.25131   	170.000000	9.17479   	170.000000	9.23159   	170.000000	0.00272632	
175.000000	8.60657   	175.000000	9.06622   	175.000000	9.09236   	175.000000	9.00432   	175.000000	9.06356   	175.000000	0.00265556	
180.000000	8.45787   	180.000000	8.90669   	180.000000	8.9415    	180.000000	8.84267   	180.000000	8.9041    	180.000000	0.00258854	
185.000000	8.31648   	185.000000	8.7551    	185.000000	8.7979    	185.000000	8.68917   	185.000000	8.75257   	185.000000	0.00252496	
190.000000	8.18185   	190.000000	8.61086   	190.000000	8.66084   	190.000000	8.54324   	190.000000	8.6084    	190.000000	0.00246456	
195.000000	8.05352   	195.000000	8.47347   	195.000000	8.52971   	195.000000	8.40434   	195.000000	8.47106   	195.000000	0.00240711	
200.000000	7.93104   	200.000000	8.34245   	200.000000	8.40442   	200.000000	8.27198   	200.000000	8.3401    	200.000000	0.00235238	
210.000000	7.70211   	210.000000	8.09785   	210.000000	8.17165   	210.000000	8.02512   	210.000000	8.0956    	210.000000	0.00225037	
220.000000	7.49228   	220.000000	7.87405   	220.000000	7.95695   	220.000000	7.79957   	220.000000	7.87189   	220.000000	0.00215719	
230.000000	7.29926   	230.000000	7.66855   	230.000000	7.76024   	230.000000	7.59273   	230.000000	7.66648   	230.000000	0.00207173	
240.000000	7.12107   	240.000000	7.47921   	240.000000	7.57861   	240.000000	7.4024    	240.000000	7.47722   	240.000000	0.00199304	
250.000000	6.95608   	250.000000	7.30423   	250.000000	7.41045   	250.000000	7.22672   	250.000000	7.30231   	250.000000	0.00192036	
260.000000	6.80287   	260.000000	7.14206   	260.000000	7.25434   	260.000000	7.06409   	260.000000	7.1402    	260.000000	0.00185299	
270.000000	6.66021   	270.000000	6.99136   	270.000000	7.10875   	270.000000	6.91314   	270.000000	6.98957   	270.000000	0.00179039	
280.000000	6.52706   	280.000000	6.85098   	280.000000	6.97326   	280.000000	6.77269   	280.000000	6.84924   	280.000000	0.00173204	
290.000000	6.40249   	290.000000	6.71991   	290.000000	6.84685   	290.000000	6.64171   	290.000000	6.71823   	290.000000	0.00167753	
300.000000	6.28571   	300.000000	6.59728   	300.000000	6.72819   	300.000000	6.51929   	300.000000	6.59565   	300.000000	0.00162648	
310.000000	6.17602   	310.000000	6.48231   	310.000000	6.61668   	310.000000	6.40465   	310.000000	6.48073   	310.000000	0.00157857	
320.000000	6.07279   	320.000000	6.37433   	320.000000	6.51205   	320.000000	6.2971    	320.000000	6.3728    	320.000000	0.00153351	
330.000000	5.97548   	330.000000	6.27273   	330.000000	6.41363   	330.000000	6.19601   	330.000000	6.27124   	330.000000	0.00149106	
340.000000	5.8836    	340.000000	6.17698   	340.000000	6.32093   	340.000000	6.10084   	340.000000	6.17553   	340.000000	0.00145099	
350.000000	5.79671   	350.000000	6.08661   	350.000000	6.23349   	350.000000	6.0111    	350.000000	6.08519   	350.000000	0.0014131 	
360.000000	5.71443   	360.000000	6.00118   	360.000000	6.15065   	360.000000	5.92636   	360.000000	5.9998    	360.000000	0.00137721	
370.000000	5.6364    	370.000000	5.92031   	370.000000	6.072     	370.000000	5.84624   	370.000000	5.91897   	370.000000	0.00134318	
380.000000	5.56232   	380.000000	5.84367   	380.000000	5.99748   	380.000000	5.77037   	380.000000	5.84236   	380.000000	0.00131086	
390.000000	5.49189   	390.000000	5.77093   	390.000000	5.92686   	390.000000	5.69845   	390.000000	5.76965   	390.000000	0.00128012	
400.000000	5.42487   	400.000000	5.70183   	400.000000	5.85986   	400.000000	5.63018   	400.000000	5.70058   	400.000000	0.00125084	
410.000000	5.36102   	410.000000	5.6361    	410.000000	5.79604   	410.000000	5.56532   	410.000000	5.63488   	410.000000	0.00122293	
420.000000	5.30012   	420.000000	5.57352   	420.000000	5.73503   	420.000000	5.50362   	420.000000	5.57232   	420.000000	0.00119628	
430.000000	5.24198   	430.000000	5.51387   	430.000000	5.67691   	430.000000	5.44487   	430.000000	5.5127    	430.000000	0.00117082	
440.000000	5.18644   	440.000000	5.45697   	440.000000	5.62174   	440.000000	5.38888   	440.000000	5.45582   	440.000000	0.00114646	
450.000000	5.13332   	450.000000	5.40263   	450.000000	5.56918   	450.000000	5.33546   	450.000000	5.40151   	450.000000	0.00112313	
460.000000	5.08247   	460.000000	5.3507    	460.000000	5.51881   	460.000000	5.28446   	460.000000	5.3496    	460.000000	0.00110078	
470.000000	5.03377   	470.000000	5.30104   	470.000000	5.47049   	470.000000	5.23572   	470.000000	5.29996   	470.000000	0.00107933	
480.000000	4.98709   	480.000000	5.25349   	480.000000	5.42423   	480.000000	5.18911   	480.000000	5.25243   	480.000000	0.00105873	
490.000000	4.9423    	490.000000	5.20794   	490.000000	5.37998   	490.000000	5.14449   	490.000000	5.2069    	490.000000	0.00103894	
500.000000	4.89931   	500.000000	5.16428   	500.000000	5.33761   	500.000000	5.10176   	500.000000	5.16326   	500.000000	0.0010199 	
520.000000	4.81832   	520.000000	5.08218   	520.000000	5.25805   	520.000000	5.02152   	520.000000	5.08119   	520.000000	0.00098392	
540.000000	4.74341   	540.000000	5.00643   	540.000000	5.18435   	540.000000	4.9476    	540.000000	5.00548   	540.000000	0.000950489	
560.000000	4.67397   	560.000000	4.93637   	560.000000	5.11619   	560.000000	4.87935   	560.000000	4.93545   	560.000000	0.000919341	
580.000000	4.60946   	580.000000	4.87143   	580.000000	5.05344   	580.000000	4.81619   	580.000000	4.87054   	580.000000	0.000890246	
600.000000	4.54943   	600.000000	4.81113   	600.000000	4.99502   	600.000000	4.75761   	600.000000	4.81026   	600.000000	0.000863005	
620.000000	4.49346   	620.000000	4.75501   	620.000000	4.94047   	620.000000	4.70317   	620.000000	4.75417   	620.000000	0.000837445	
640.000000	4.4412    	640.000000	4.70271   	640.000000	4.88972   	640.000000	4.65249   	640.000000	4.7019    	640.000000	0.000813411	
660.000000	4.39233   	660.000000	4.65388   	660.000000	4.84238   	660.000000	4.60524   	660.000000	4.65309   	660.000000	0.000790771	
680.000000	4.34657   	680.000000	4.60824   	680.000000	4.79814   	680.000000	4.5611    	680.000000	4.60747   	680.000000	0.000769404	
700.000000	4.30368   	700.000000	4.56551   	700.000000	4.75676   	700.000000	4.51982   	700.000000	4.56476   	700.000000	0.000749205	
720.000000	4.26342   	720.000000	4.52545   	720.000000	4.71802   	720.000000	4.48115   	720.000000	4.52472   	720.000000	0.00073008	
740.000000	4.22559   	740.000000	4.48786   	740.000000	4.68156   	740.000000	4.44488   	740.000000	4.48715   	740.000000	0.000711943	
760.000000	4.19002   	760.000000	4.45255   	760.000000	4.64714   	760.000000	4.41082   	760.000000	4.45186   	760.000000	0.000694719	
780.000000	4.15654   	780.000000	4.41935   	780.000000	4.61478   	780.000000	4.37881   	780.000000	4.41867   	780.000000	0.00067834	
800.000000	4.12501   	800.000000	4.3881    	800.000000	4.58445   	800.000000	4.34868   	800.000000	4.38744   	800.000000	0.000662745	
820.000000	4.09529   	820.000000	4.35867   	820.000000	4.55604   	820.000000	4.32037   	820.000000	4.35802   	820.000000	0.000647878	
840.000000	4.06726   	840.000000	4.33092   	840.000000	4.52958   	840.000000	4.29407   	840.000000	4.33029   	840.000000	0.000633688	
860.000000	4.04081   	860.000000	4.30475   	860.000000	4.50449   	860.000000	4.26925   	860.000000	4.30413   	860.000000	0.00062013	
880.000000	4.01584   	880.000000	4.28004   	880.000000	4.48072   	880.000000	4.24581   	880.000000	4.27943   	880.000000	0.000607161	
900.000000	3.99226   	900.000000	4.25671   	900.000000	4.45824   	900.000000	4.22365   	900.000000	4.25611   	900.000000	0.000594744	
920.000000	3.96998   	920.000000	4.23466   	920.000000	4.437     	920.000000	4.2027    	920.000000	4.23408   	920.000000	0.000582844	
940.000000	3.94892   	940.000000	4.21382   	940.000000	4.4169    	940.000000	4.18286   	940.000000	4.21325   	940.000000	0.000571429	
960.000000	3.92902   	960.000000	4.19411   	960.000000	4.39785   	960.000000	4.16408   	960.000000	4.19355   	960.000000	0.000560469	
980.000000	3.9102    	980.000000	4.17546   	980.000000	4.37979   	980.000000	4.14628   	980.000000	4.17491   	980.000000	0.000549937	
1000.000000	3.89241   	1000.000000	4.15782   	1000.000000	4.36265   	1000.000000	4.12941   	1000.000000	4.15728   	1000.000000	0.000539809	
1020.000000	3.87559   	1020.000000	4.14112   	1020.000000	4.34641   	1020.000000	4.11341   	1020.000000	4.14059   	1020.000000	0.000530061	
1040.000000	3.85968   	1040.000000	4.12531   	1040.000000	4.33099   	1040.000000	4.09821   	1040.000000	4.12479   	1040.000000	0.000520672	
1060.000000	3.84464   	1060.000000	4.11034   	1060.000000	4.31636   	1060.000000	4.08379   	1060.000000	4.10983   	1060.000000	0.000511622	
1080.000000	3.83043   	1080.000000	4.09617   	1080.000000	4.30245   	1080.000000	4.07009   	1080.000000	4.09567   	1080.000000	0.000502893	
1100.000000	3.817     	1100.000000	4.08275   	1100.000000	4.28919   	1100.000000	4.05708   	1100.000000	4.08226   	1100.000000	0.000494468	
1120.000000	3.80431   	1120.000000	4.07005   	1120.000000	4.27654   	1120.000000	4.0447    	1120.000000	4.06956   	1120.000000	0.000486331	
1140.000000	3.79232   	1140.000000	4.05802   	1140.000000	4.26447   	1140.000000	4.03294   	1140.000000	4.05754   	1140.000000	0.000478468	
1160.000000	3.78101   	1160.000000	4.04664   	1160.000000	4.25297   	1160.000000	4.02175   	1160.000000	4.04617   	1160.000000	0.000470864	
1180.000000	3.77034   	1180.000000	4.03586   	1180.000000	4.24203   	1180.000000	4.0111    	1180.000000	4.0354    	1180.000000	0.000463508	
1200.000000	3.76028   	1200.000000	4.02567   	1200.000000	4.23164   	1200.000000	4.00097   	1200.000000	4.02521   	1200.000000	0.000456386	
1220.000000	3.7508    	1220.000000	4.01603   	1220.000000	4.22178   	1220.000000	3.99132   	1220.000000	4.01558   	1220.000000	0.000449488	
1240.000000	3.74188   	1240.000000	4.00692   	1240.000000	4.21242   	1240.000000	3.98214   	1240.000000	4.00647   	1240.000000	0.000442803	
1260.000000	3.73349   	1260.000000	3.9983    	1260.000000	4.20352   	1260.000000	3.9734    	1260.000000	3.99787   	1260.000000	0.000436321	
1280.000000	3.72561   	1280.000000	3.99017   	1280.000000	4.19505   	1280.000000	3.96508   	1280.000000	3.98974   	1280.000000	0.000430034	
1300.000000	3.71821   	1300.000000	3.98249   	1300.000000	4.18695   	1300.000000	3.95716   	1300.000000	3.98207   	1300.000000	0.000423932	
1320.000000	3.71128   	1320.000000	3.97525   	1320.000000	4.17922   	1320.000000	3.94961   	1320.000000	3.97484   	1320.000000	0.000418007	
1340.000000	3.7048    	1340.000000	3.96843   	1340.000000	4.17182   	1340.000000	3.94242   	1340.000000	3.96802   	1340.000000	0.000412251	
1360.000000	3.69875   	1360.000000	3.96201   	1360.000000	4.16474   	1360.000000	3.93557   	1360.000000	3.9616    	1360.000000	0.000406658	
1380.000000	3.69311   	1380.000000	3.95597   	1380.000000	4.158     	1380.000000	3.92905   	1380.000000	3.95556   	1380.000000	0.00040122	
1400.000000	3.68786   	1400.000000	3.95029   	1400.000000	4.15156   	1400.000000	3.92284   	1400.000000	3.94989   	1400.000000	0.000395931	
1420.000000	3.68299   	1420.000000	3.94497   	1420.000000	4.14544   	1420.000000	3.91692   	1420.000000	3.94457   	1420.000000	0.000390785	
1440.000000	3.67849   	1440.000000	3.93998   	1440.000000	4.13963   	1440.000000	3.91129   	1440.000000	3.93959   	1440.000000	0.000385776	
1460.000000	3.67434   	1460.000000	3.93531   	1460.000000	4.1341    	1460.000000	3.90592   	1460.000000	3.93493   	1460.000000	0.000380898	
1480.000000	3.67053   	1480.000000	3.93096   	1480.000000	4.12886   	1480.000000	3.90082   	1480.000000	3.93058   	1480.000000	0.000376147	
1500.000000	3.66704   	1500.000000	3.9269    	1500.000000	4.12387   	1500.000000	3.89596   	1500.000000	3.92653   	1500.000000	0.000371517	
1520.000000	3.66387   	1520.000000	3.92313   	1520.000000	4.11913   	1520.000000	3.89133   	1520.000000	3.92276   	1520.000000	0.000367004	
1540.000000	3.661     	1540.000000	3.91963   	1540.000000	4.11462   	1540.000000	3.88693   	1540.000000	3.91927   	1540.000000	0.000362604	
1560.000000	3.65842   	1560.000000	3.9164    	1560.000000	4.11032   	1560.000000	3.88275   	1560.000000	3.91604   	1560.000000	0.000358311	
1580.000000	3.65613   	1580.000000	3.91342   	1580.000000	4.10623   	1580.000000	3.87877   	1580.000000	3.91307   	1580.000000	0.000354123	
1600.000000	3.6541    	1600.000000	3.91069   	1600.000000	4.10233   	1600.000000	3.87499   	1600.000000	3.91034   	1600.000000	0.000350035	
1620.000000	3.65234   	1620.000000	3.90819   	1620.000000	4.09862   	1620.000000	3.8714    	1620.000000	3.90785   	1620.000000	0.000346044	
1640.000000	3.65084   	1640.000000	3.90593   	1640.000000	4.09507   	1640.000000	3.86799   	1640.000000	3.90558   	1640.000000	0.000342146	
1660.000000	3.64958   	1660.000000	3.90388   	1660.000000	4.0917    	1660.000000	3.86475   	1660.000000	3.90354   	1660.000000	0.000338339	
1680.000000	3.64855   	1680.000000	3.90204   	1680.000000	4.08849   	1680.000000	3.86168   	1680.000000	3.90171   	1680.000000	0.000334618	
1700.000000	3.64776   	1700.000000	3.90041   	1700.000000	4.08544   	1700.000000	3.85877   	1700.000000	3.90008   	1700.000000	0.000330981	
1750.000000	3.64674   	1750.000000	3.89718   	1750.000000	4.07846   	1750.000000	3.85215   	1750.000000	3.89686   	1750.000000	0.000322238	
1800.000000	3.64701   	1800.000000	3.89508   	1800.000000	4.07237   	1800.000000	3.84641   	1800.000000	3.89477   	1800.000000	0.000313961	
1850.000000	3.64847   	1850.000000	3.89402   	1850.000000	4.06707   	1850.000000	3.84144   	1850.000000	3.89372   	1850.000000	0.000306114	
1900.000000	3.65105   	1900.000000	3.89393   	1900.000000	4.06251   	1900.000000	3.83719   	1900.000000	3.89363   	1900.000000	0.000298663	
1950.000000	3.65465   	1950.000000	3.89472   	1950.000000	4.0586    	1950.000000	3.83359   	1950.000000	3.89443   	1950.000000	0.000291579	
2000.000000	3.65922   	2000.000000	3.89633   	2000.000000	4.05531   	2000.000000	3.83058   	2000.000000	3.89604   	2000.000000	0.000284834	
2100.000000	3.671     	2100.000000	3.90178   	2100.000000	4.05032   	2100.000000	3.82612   	2100.000000	3.9015    	2100.000000	0.000272272	
2200.000000	3.68594   	2200.000000	3.90986   	2200.000000	4.04718   	2200.000000	3.82345   	2200.000000	3.9096    	2200.000000	0.000260807	
2300.000000	3.70369   	2300.000000	3.92023   	2300.000000	4.04558   	2300.000000	3.82229   	2300.000000	3.91998   	2300.000000	0.0002503 	
2400.000000	3.72394   	2400.000000	3.9326    	2400.000000	4.04527   	2400.000000	3.82239   	2400.000000	3.93236   	2400.000000	0.000240635	
2500.000000	3.74643   	2500.000000	3.94673   	2500.000000	4.04606   	2500.000000	3.82356   	2500.000000	3.9465    	2500.000000	0.000231713	
2600.000000	3.77094   	2600.000000	3.96242   	2600.000000	4.04777   	2600.000000	3.82563   	2600.000000	3.9622    	2600.000000	0.00022345	
2700.000000	3.79728   	2700.000000	3.97949   	2700.000000	4.05027   	2700.000000	3.82847   	2700.000000	3.97928   	2700.000000	0.000215777	
2800.000000	3.82529   	2800.000000	3.9978    	2800.000000	4.05345   	2800.000000	3.83196   	2800.000000	3.99759   	2800.000000	0.00020863	
2900.000000	3.85483   	2900.000000	4.0172    	2900.000000	4.0572    	2900.000000	3.836     	2900.000000	4.017     	2900.000000	0.000201957	
3000.000000	3.88576   	3000.000000	4.0376    	3000.000000	4.06145   	3000.000000	3.8405    	3000.000000	4.0374    	3000.000000	0.000195712	
3200.000000	3.95142   	3200.000000	4.08098   	3200.000000	4.07113   	3200.000000	3.85065   	3200.000000	4.08079   	3200.000000	0.000184349	
3400.000000	4.02156   	3400.000000	4.12729   	3400.000000	4.08201   	3400.000000	3.86195   	3400.000000	4.12712   	3400.000000	0.000174273	
3600.000000	4.0956    	3600.000000	4.17603   	3600.000000	4.09374   	3600.000000	3.87407   	3600.000000	4.17587   	3600.000000	0.000165275	
3800.000000	4.1731    	3800.000000	4.22681   	3800.000000	4.10606   	3800.000000	3.88677   	3800.000000	4.22665   	3800.000000	0.000157189	
4000.000000	4.2537    	4000.000000	4.27929   	4000.000000	4.11879   	4000.000000	3.89984   	4000.000000	4.27914   	4000.000000	0.000149882	
4200.000000	4.3371    	4200.000000	4.33322   	4200.000000	4.13177   	4200.000000	3.91316   	4200.000000	4.33308   	4200.000000	0.000143245	
4400.000000	4.42305   	4400.000000	4.3884    	4400.000000	4.14489   	4400.000000	3.9266    	4400.000000	4.38827   	4400.000000	0.00013719	
4600.000000	4.51136   	4600.000000	4.44465   	4600.000000	4.15806   	4600.000000	3.9401    	4600.000000	4.44452   	4600.000000	0.000131641	
4800.000000	4.60185   	4800.000000	4.50182   	4800.000000	4.17123   	4800.000000	3.95358   	4800.000000	4.50169   	4800.000000	0.000126538	
5000.000000	4.69438   	5000.000000	4.55979   	5000.000000	4.18434   	5000.000000	3.967     	5000.000000	4.55967   	5000.000000	0.000121828	
5250.000000	4.81273   	5250.000000	4.63323   	5250.000000	4.2006    	5250.000000	3.98364   	5250.000000	4.63312   	5250.000000	0.000116427	
5500.000000	4.93387   	5500.000000	4.7076    	5500.000000	4.21666   	5500.000000	4.00006   	5500.000000	4.70749   	5500.000000	0.0001115 	
6000.000000	5.1839    	6000.000000	4.85859   	6000.000000	4.24809   	6000.000000	4.03214   	6000.000000	4.85849   	6000.000000	0.000102833	
6500.000000	5.44343   	6500.000000	5.01192   	6500.000000	4.27848   	6500.000000	4.06306   	6500.000000	5.01183   	6500.000000	9.54529e-05	
7000.000000	5.7117    	7000.000000	5.167     	7000.000000	4.30743   	7000.000000	4.09278   	7000.000000	5.16691   	7000.000000	8.90909e-05	
7500.000000	5.98815   	7500.000000	5.32339   	7500.000000	4.33533   	7500.000000	4.12128   	7500.000000	5.3233    	7500.000000	8.35478e-05	
8000.000000	6.27237   	8000.000000	5.48076   	8000.000000	4.362     	8000.000000	4.1486    	8000.000000	5.48069   	8000.000000	7.86736e-05	
8500.000000	6.56403   	8500.000000	5.63889   	8500.000000	4.38746   	8500.000000	4.17479   	8500.000000	5.63882   	8500.000000	7.4353e-05	
9000.000000	6.86289   	9000.000000	5.79759   	9000.000000	4.41182   	9000.000000	4.1999    	9000.000000	5.79752   	9000.000000	7.04958e-05	
9500.000000	7.16875   	9500.000000	5.95672   	9500.000000	4.43521   	9500.000000	4.22399   	9500.000000	5.95665   	9500.000000	6.70307e-05	
10000.000000	7.48143   	10000.000000	6.11616   	10000.000000	4.45769   	10000.000000	4.24712   	10000.000000	6.1161    	10000.000000	6.39001e-05	
11000.000000	8.12684   	11000.000000	6.43566   	11000.000000	4.49988   	11000.000000	4.29075   	11000.000000	6.4356    	11000.000000	5.84643e-05	
12000.000000	8.79836   	12000.000000	6.75559   	12000.000000	4.53864   	12000.000000	4.33122   	12000.000000	6.75553   	12000.000000	5.39046e-05	
13000.000000	9.49548   	13000.000000	7.07561   	13000.000000	4.57462   	13000.000000	4.3689    	13000.000000	7.07556   	13000.000000	5.00234e-05	
14000.000000	10.2179   	14000.000000	7.39551   	14000.000000	4.60827   	14000.000000	4.40411   	14000.000000	7.39546   	14000.000000	4.66783e-05	
15000.000000	10.9653   	15000.000000	7.71515   	15000.000000	4.63978   	15000.000000	4.43713   	15000.000000	7.71511   	15000.000000	4.37646e-05	
16000.000000	11.7376   	16000.000000	8.03442   	16000.000000	4.66913   	16000.000000	4.4682    	16000.000000	8.03438   	16000.000000	4.1203e-05	
17000.000000	12.5348   	17000.000000	8.35327   	17000.000000	4.69649   	17000.000000	4.49752   	17000.000000	8.35323   	17000.000000	3.8933e-05	
18000.000000	13.3567   	18000.000000	8.67165   	18000.000000	4.72207   	18000.000000	4.52527   	18000.000000	8.67161   	18000.000000	3.69068e-05	
19000.000000	14.2034   	19000.000000	8.98953   	19000.000000	4.74612   	19000.000000	4.5516    	19000.000000	8.9895    	19000.000000	3.50869e-05	
20000.000000	15.0749   	20000.000000	9.3069    	20000.000000	4.76884   	20000.000000	4.57664   	20000.000000	9.30687   	20000.000000	3.34431e-05	
21000.000000	15.9712   	21000.000000	9.62375   	21000.000000	4.79044   	21000.000000	4.60051   	21000.000000	9.62371   	21000.000000	3.19506e-05	
22000.000000	16.8923   	22000.000000	9.94007   	22000.000000	4.81108   	22000.000000	4.6233    	22000.000000	9.94004   	22000.000000	3.05894e-05	
23000.000000	17.8384   	23000.000000	10.2559   	23000.000000	4.83055   	23000.000000	4.6451    	23000.000000	10.2558   	23000.000000	2.93427e-05	
24000.000000	18.8095   	24000.000000	10.5712   	24000.000000	4.84898   	24000.000000	4.666     	24000.000000	10.5711   	24000.000000	2.81965e-05	
25000.000000	19.8056   	25000.000000	10.8859   	25000.000000	4.8666    	25000.000000	4.68606   	25000.000000	10.8859   	25000.000000	2.7139e-05	
26000.000000	20.827    	26000.000000	11.2002   	26000.000000	4.88338   	26000.000000	4.70535   	26000.000000	11.2002   	26000.000000	2.61601e-05	
27000.000000	21.8736   	27000.000000	11.514    	27000.000000	4.89936   	27000.000000	4.72391   	27000.000000	11.5139   	27000.000000	2.52515e-05	
28000.000000	22.9456   	28000.000000	11.8272   	28000.000000	4.9146    	28000.000000	4.74181   	28000.000000	11.8272   	28000.000000	2.44056e-05	
29000.000000	24.0431   	29000.000000	12.14     	29000.000000	4.92918   	29000.000000	4.75908   	29000.000000	12.14     	29000.000000	2.36161e-05	
30000.000000	25.1662   	30000.000000	12.4524   	30000.000000	4.94316   	30000.000000	4.77577   	30000.000000	12.4524   	30000.000000	2.28776e-05	
32000.000000	27.4897   	32000.000000	13.0757   	32000.000000	4.96946   	32000.000000	4.80755   	32000.000000	13.0757   	32000.000000	2.15346e-05	
34000.000000	29.9171   	34000.000000	13.6973   	34000.000000	4.99375   	34000.000000	4.83739   	34000.000000	13.6973   	34000.000000	2.03447e-05	
36000.000000	32.4494   	36000.000000	14.3172   	36000.000000	5.01605   	36000.000000	4.86552   	36000.000000	14.3172   	36000.000000	1.92828e-05	
38000.000000	35.0876   	38000.000000	14.9355   	38000.000000	5.03655   	38000.000000	4.89212   	38000.000000	14.9355   	38000.000000	1.83293e-05	
40000.000000	37.8328   	40000.000000	15.5522   	40000.000000	5.05552   	40000.000000	4.91734   	40000.000000	15.5522   	40000.000000	1.7468e-05	
42000.000000	40.6861   	42000.000000	16.1675   	42000.000000	5.07321   	42000.000000	4.94131   	42000.000000	16.1675   	42000.000000	1.66863e-05	
44000.000000	43.6486   	44000.000000	16.7814   	44000.000000	5.08985   	44000.000000	4.96415   	44000.000000	16.7814   	44000.000000	1.59733e-05	
46000.000000	46.7215   	46000.000000	17.394    	46000.000000	5.10562   	46000.000000	4.98596   	46000.000000	17.394    	46000.000000	1.53205e-05	
48000.000000	49.906    	48000.000000	18.0053   	48000.000000	5.12055   	48000.000000	5.00683   	48000.000000	18.0053   	48000.000000	1.47203e-05	
50000.000000	53.2031   	50000.000000	18.6153   	50000.000000	5.13448   	50000.000000	5.02684   	50000.000000	18.6153   	50000.000000	1.41667e-05	
