Energy (MeV/u)1	0 - [He-base] F.Hubert et al, AD&ND Tables 46(1990)1	Energy (MeV/u)2	1 - [H -base] J.F.Ziegler et al, Pergamon Press, NY (low energy)	Energy (MeV/u)3	2 - ATIMA 1.2  LS-theory (recommended for high energy)	Energy (MeV/u)4	3 - ATIMA 1.2  without LS-correction	Energy (MeV/u)5	4 - electrical component of [1] - J.F.Ziegler et al	Energy (MeV/u)6	5 - nuclear component of [1] - J.F.Ziegler et al	
0.001000	1.80139   	0.001000	5.95425   	0.001000	5.14876   	0.001000	5.14876   	0.001000	3.06156   	0.001000	2.89268   	
0.002000	1.96143   	0.002000	6.13986   	0.002000	5.36004   	0.002000	5.36004   	0.002000	3.97036   	0.002000	2.1695    	
0.005000	2.36973   	0.005000	6.91612   	0.005000	6.36245   	0.005000	6.36245   	0.005000	5.59831   	0.005000	1.31781   	
0.008000	2.69565   	0.008000	7.65678   	0.008000	7.36046   	0.008000	7.36046   	0.008000	6.67732   	0.008000	0.979459  	
0.010000	2.8827    	0.010000	8.10423   	0.010000	7.97829   	0.010000	7.97829   	0.010000	7.26011   	0.010000	0.84412   	
0.015000	3.35756   	0.015000	9.55665   	0.015000	9.13624   	0.015000	9.13624   	0.015000	8.9255    	0.015000	0.631147  	
0.020000	3.73712   	0.020000	11.2744   	0.020000	10.1179   	0.020000	10.1179   	0.020000	10.7612   	0.020000	0.513278  	
0.025000	4.15613   	0.025000	12.9274   	0.025000	11.0798   	0.025000	11.0798   	0.025000	12.492    	0.025000	0.435392  	
0.030000	4.51131   	0.030000	14.515    	0.030000	12.343    	0.030000	12.343    	0.030000	14.1353   	0.030000	0.379692  	
0.035000	4.80332   	0.035000	16.0323   	0.035000	13.5452   	0.035000	13.5452   	0.035000	15.6946   	0.035000	0.337673  	
0.040000	5.03347   	0.040000	17.4736   	0.040000	14.6847   	0.040000	14.6847   	0.040000	17.1689   	0.040000	0.304728  	
0.045000	5.20418   	0.045000	18.8333   	0.045000	15.7607   	0.045000	15.7607   	0.045000	18.5552   	0.045000	0.278133  	
0.050000	5.31895   	0.050000	20.1065   	0.050000	16.7727   	0.050000	16.7727   	0.050000	19.8503   	0.050000	0.256167  	
0.055000	5.55052   	0.055000	21.2894   	0.055000	17.7211   	0.055000	17.7211   	0.055000	21.0517   	0.055000	0.237688  	
0.060000	5.74777   	0.060000	22.3792   	0.060000	18.6065   	0.060000	18.6065   	0.060000	22.1573   	0.060000	0.221906  	
0.070000	6.04908   	0.070000	24.2755   	0.070000	20.1933   	0.070000	20.1933   	0.070000	24.0792   	0.070000	0.196316  	
0.080000	6.3724    	0.080000	25.7996   	0.080000	21.5468   	0.080000	21.5468   	0.080000	25.6232   	0.080000	0.176409  	
0.090000	6.6264    	0.090000	26.9927   	0.090000	22.6848   	0.090000	22.6848   	0.090000	26.8322   	0.090000	0.160439  	
0.100000	6.83011   	0.100000	27.9034   	0.100000	23.6273   	0.100000	23.6273   	0.100000	27.7561   	0.100000	0.147319  	
0.120000	6.95384   	0.120000	28.9242   	0.120000	25.0103   	0.120000	25.0103   	0.120000	28.7972   	0.120000	0.126982  	
0.140000	7.00301   	0.140000	29.1697   	0.140000	25.8571   	0.140000	25.8571   	0.140000	29.0578   	0.140000	0.111898  	
0.160000	7.02041   	0.160000	28.9063   	0.160000	26.3074   	0.160000	26.3074   	0.160000	28.8061   	0.160000	0.100227  	
0.180000	7.01892   	0.180000	28.2968   	0.180000	26.473    	0.180000	26.473    	0.180000	28.2059   	0.180000	0.0909062 	
0.200000	7.03426   	0.200000	27.6118   	0.200000	26.4394   	0.200000	26.4394   	0.200000	27.5285   	0.200000	0.0832775 	
0.250000	6.90588   	0.250000	25.9601   	0.250000	25.8574   	0.250000	25.8574   	0.250000	25.891    	0.250000	0.069099  	
0.300000	6.93423   	0.300000	24.98     	0.300000	24.9731   	0.300000	24.9731   	0.300000	24.9207   	0.300000	0.059269  	
0.350000	6.98619   	0.350000	24.302    	0.350000	24.0346   	0.350000	24.0346   	0.350000	24.2499   	0.350000	0.0520243 	
0.400000	6.97399   	0.400000	23.5931   	0.400000	23.1745   	0.400000	23.1745   	0.400000	23.5466   	0.400000	0.0464477 	
0.450000	6.9355    	0.450000	22.9505   	0.450000	22.5264   	0.450000	22.5264   	0.450000	22.9085   	0.450000	0.0420132 	
0.500000	6.91605   	0.500000	22.4856   	0.500000	21.8898   	0.500000	21.8898   	0.500000	22.4472   	0.500000	0.0383966 	
0.600000	6.60873   	0.600000	21.6652   	0.600000	20.7023   	0.600000	20.7023   	0.600000	21.6324   	0.600000	0.0328405 	
0.700000	6.2635    	0.700000	20.8954   	0.700000	19.5939   	0.700000	19.5939   	0.700000	20.8666   	0.700000	0.0287601 	
0.800000	6.13026   	0.800000	20.12     	0.800000	18.6111   	0.800000	18.6111   	0.800000	20.0944   	0.800000	0.0256283 	
0.900000	5.98306   	0.900000	19.3754   	0.900000	17.7422   	0.900000	17.7422   	0.900000	19.3523   	0.900000	0.0231439 	
1.000000	5.8283    	1.000000	18.6606   	1.000000	16.9647   	1.000000	16.9647   	1.000000	18.6395   	1.000000	0.0211219 	
1.250000	5.38647   	1.250000	16.891    	1.250000	15.2991   	1.250000	15.2991   	1.250000	16.8736   	1.250000	0.0173929 	
1.500000	4.93156   	1.500000	15.2108   	1.500000	13.9114   	1.500000	13.9114   	1.500000	15.196    	1.500000	0.0148314 	
1.750000	4.54335   	1.750000	13.8253   	1.750000	12.7891   	1.750000	12.7891   	1.750000	13.8124   	1.750000	0.0129571 	
2.000000	4.18215   	2.000000	12.5792   	2.000000	11.8508   	2.000000	11.8508   	2.000000	12.5677   	2.000000	0.0115227 	
2.250000	3.88171   	2.250000	11.5402   	2.250000	11.0492   	2.250000	11.0492   	2.250000	11.5298   	2.250000	0.0103877 	
2.500000	3.61506   	2.500000	10.6735   	2.500000	10.3541   	2.500000	10.3541   	2.500000	10.664    	2.500000	0.00946588	
3.000000	3.22152   	3.000000	9.29728   	3.000000	9.20488   	3.000000	9.20488   	3.000000	9.28922   	3.000000	0.00805688	
3.500000	2.90887   	3.500000	8.23966   	3.500000	8.29165   	3.500000	8.29165   	3.500000	8.23263   	3.500000	0.00702812	
4.000000	2.65443   	4.000000	7.40035   	4.000000	7.54776   	4.000000	7.54776   	4.000000	7.3941    	4.000000	0.00624225	
4.500000	2.44324   	4.500000	6.71665   	4.500000	6.9299    	4.500000	6.9299    	4.500000	6.71103   	4.500000	0.0056213 	
5.000000	2.26502   	5.000000	6.14762   	5.000000	6.40843   	5.000000	6.40843   	5.000000	6.14251   	5.000000	0.00511765	
5.500000	2.11254   	5.500000	5.66611   	5.500000	5.96237   	5.500000	5.96237   	5.500000	5.66141   	5.500000	0.0047005 	
6.000000	1.98053   	6.000000	5.25318   	6.000000	5.57639   	6.000000	5.57639   	6.000000	5.24883   	6.000000	0.00434904	
6.500000	1.86508   	6.500000	4.89511   	6.500000	5.23906   	6.500000	5.23906   	6.500000	4.89106   	6.500000	0.00404867	
7.000000	1.76322   	7.000000	4.58167   	7.000000	4.94167   	7.000000	4.94167   	7.000000	4.57788   	7.000000	0.00378886	
7.500000	1.67266   	7.500000	4.30503   	7.500000	4.67748   	7.500000	4.67748   	7.500000	4.30147   	7.500000	0.0035618 	
8.000000	1.59158   	8.000000	4.05911   	8.000000	4.44117   	8.000000	4.44117   	8.000000	4.05575   	8.000000	0.00336157	
8.500000	1.51855   	8.500000	3.83911   	8.500000	4.22853   	8.500000	4.22853   	8.500000	3.83593   	8.500000	0.00318362	
9.000000	1.45241   	9.000000	3.64117   	9.000000	4.03613   	9.000000	4.03613   	9.000000	3.63814   	9.000000	0.00302438	
9.500000	1.39222   	9.500000	3.46215   	9.500000	3.86118   	9.500000	3.86118   	9.500000	3.45927   	9.500000	0.002881  	
10.000000	1.33719   	10.000000	3.33178   	10.000000	3.7014    	10.000000	3.7014    	10.000000	3.32903   	10.000000	0.00275118	
11.000000	1.24016   	11.000000	3.11166   	11.000000	3.41474   	11.000000	3.41659   	11.000000	3.10914   	11.000000	0.00252512	
12.000000	1.15727   	12.000000	2.91967   	12.000000	3.17071   	12.000000	3.17378   	12.000000	2.91733   	12.000000	0.00233481	
13.000000	1.0856    	13.000000	2.75087   	13.000000	2.96048   	13.000000	2.96434   	13.000000	2.7487    	13.000000	0.0021723 	
14.000000	1.02299   	14.000000	2.6014    	14.000000	2.7775    	14.000000	2.78187   	14.000000	2.59936   	14.000000	0.00203183	
15.000000	0.967789  	15.000000	2.46815   	15.000000	2.6168    	15.000000	2.62151   	15.000000	2.46624   	15.000000	0.00190914	
16.000000	0.918748  	16.000000	2.34866   	16.000000	2.47463   	16.000000	2.47949   	16.000000	2.34686   	16.000000	0.00180101	
17.000000	0.874874  	17.000000	2.24091   	17.000000	2.34801   	17.000000	2.35288   	17.000000	2.2392    	17.000000	0.00170496	
18.000000	0.835377  	18.000000	2.14326   	18.000000	2.23447   	18.000000	2.23932   	18.000000	2.14164   	18.000000	0.00161906	
19.000000	0.799626  	19.000000	2.05435   	19.000000	2.13212   	19.000000	2.13693   	19.000000	2.0528    	19.000000	0.00154174	
20.000000	0.767103  	20.000000	1.97306   	20.000000	2.03947   	20.000000	2.04416   	20.000000	1.97159   	20.000000	0.00147177	
21.000000	0.737382  	21.000000	1.89845   	21.000000	1.95524   	21.000000	1.95976   	21.000000	1.89704   	21.000000	0.00140813	
22.000000	0.710112  	22.000000	1.82972   	22.000000	1.87832   	22.000000	1.88265   	22.000000	1.82837   	22.000000	0.00134999	
23.000000	0.684997  	23.000000	1.76621   	23.000000	1.80781   	23.000000	1.81197   	23.000000	1.76491   	23.000000	0.00129666	
24.000000	0.661786  	24.000000	1.70734   	24.000000	1.74296   	24.000000	1.74696   	24.000000	1.70609   	24.000000	0.00124756	
25.000000	0.640267  	25.000000	1.65261   	25.000000	1.68315   	25.000000	1.68699   	25.000000	1.65141   	25.000000	0.00120219	
27.000000	0.601606  	27.000000	1.55394   	27.000000	1.57661   	27.000000	1.58009   	27.000000	1.55282   	27.000000	0.00112104	
29.000000	0.567839  	29.000000	1.46742   	29.000000	1.48471   	29.000000	1.48775   	29.000000	1.46637   	29.000000	0.00105057	
31.000000	0.538078  	31.000000	1.39092   	31.000000	1.40466   	31.000000	1.40716   	31.000000	1.38993   	31.000000	0.000988761	
33.000000	0.511639  	33.000000	1.32277   	33.000000	1.33375   	33.000000	1.33574   	33.000000	1.32184   	33.000000	0.000934094	
35.000000	0.487986  	35.000000	1.26167   	35.000000	1.27042   	35.000000	1.27197   	35.000000	1.26079   	35.000000	0.000885382	
38.000000	0.456822  	38.000000	1.181     	38.000000	1.18715   	38.000000	1.18813   	38.000000	1.18018   	38.000000	0.000821489	
41.000000	0.429883  	41.000000	1.11111   	41.000000	1.11533   	41.000000	1.11583   	41.000000	1.11034   	41.000000	0.000766524	
44.000000	0.406349  	44.000000	1.04996   	44.000000	1.0526    	44.000000	1.05281   	44.000000	1.04924   	44.000000	0.000718715	
47.000000	0.385603  	47.000000	0.995984  	47.000000	0.997467  	47.000000	0.997366  	47.000000	0.995307  	47.000000	0.000676734	
50.000000	0.367168  	50.000000	0.947981  	50.000000	0.948543  	50.000000	0.948197  	50.000000	0.947342  	50.000000	0.000639564	
55.000000	0.340603  	55.000000	0.878754  	55.000000	0.878104  	55.000000	0.877514  	55.000000	0.878168  	55.000000	0.000586231	
60.000000	0.318163  	60.000000	0.82025   	60.000000	0.818755  	60.000000	0.81798   	60.000000	0.819708  	60.000000	0.000541403	
65.000000	0.298941  	65.000000	0.77013   	65.000000	0.767987  	65.000000	0.767124  	65.000000	0.769627  	65.000000	0.000503174	
70.000000	0.282278  	70.000000	0.726695  	70.000000	0.724181  	70.000000	0.723158  	70.000000	0.726225  	70.000000	0.000470171	
75.000000	0.267685  	75.000000	0.688678  	75.000000	0.685814  	75.000000	0.684757  	75.000000	0.688237  	75.000000	0.000441379	
80.000000	0.254792  	80.000000	0.655114  	80.000000	0.652069  	80.000000	0.650916  	80.000000	0.654698  	80.000000	0.000416031	
85.000000	0.243313  	85.000000	0.625257  	85.000000	0.622029  	85.000000	0.620863  	85.000000	0.624864  	85.000000	0.000393538	
90.000000	0.233021  	90.000000	0.598518  	90.000000	0.59523   	90.000000	0.593988  	90.000000	0.598145  	90.000000	0.000373437	
95.000000	0.223739  	95.000000	0.574429  	95.000000	0.571053  	95.000000	0.56981   	95.000000	0.574074  	95.000000	0.000355362	
100.000000	0.21532   	100.000000	0.552611  	100.000000	0.549184  	100.000000	0.547938  	100.000000	0.552272  	100.000000	0.000339018	
105.000000	0.207647  	105.000000	0.532754  	105.000000	0.529298  	105.000000	0.528055  	105.000000	0.53243   	105.000000	0.000324163	
110.000000	0.200624  	110.000000	0.514603  	110.000000	0.511188  	110.000000	0.5099    	110.000000	0.514292  	110.000000	0.000310602	
115.000000	0.194168  	115.000000	0.497945  	115.000000	0.494558  	115.000000	0.493256  	115.000000	0.497647  	115.000000	0.000298171	
120.000000	0.188213  	120.000000	0.482602  	120.000000	0.479233  	120.000000	0.477941  	120.000000	0.482315  	120.000000	0.000286731	
125.000000	0.1827    	125.000000	0.468423  	125.000000	0.46509   	125.000000	0.4638    	125.000000	0.468147  	125.000000	0.000276168	
130.000000	0.177582  	130.000000	0.455279  	130.000000	0.451989  	130.000000	0.450703  	130.000000	0.455013  	130.000000	0.000266383	
135.000000	0.172815  	135.000000	0.443061  	135.000000	0.43982   	135.000000	0.438539  	135.000000	0.442804  	135.000000	0.000257293	
140.000000	0.168365  	140.000000	0.431673  	140.000000	0.428486  	140.000000	0.42721   	140.000000	0.431424  	140.000000	0.000248825	
145.000000	0.164199  	145.000000	0.421032  	145.000000	0.417905  	145.000000	0.416634  	145.000000	0.420791  	145.000000	0.000240916	
150.000000	0.160291  	150.000000	0.411068  	150.000000	0.408004  	150.000000	0.406737  	150.000000	0.410835  	150.000000	0.000233513	
155.000000	0.154789  	155.000000	0.401717  	155.000000	0.398718  	155.000000	0.397457  	155.000000	0.401491  	155.000000	0.000226568	
160.000000	0.151563  	160.000000	0.392925  	160.000000	0.389993  	160.000000	0.388737  	160.000000	0.392705  	160.000000	0.000220038	
165.000000	0.148522  	165.000000	0.384642  	165.000000	0.381779  	165.000000	0.380528  	165.000000	0.384428  	165.000000	0.000213888	
170.000000	0.145649  	170.000000	0.376825  	170.000000	0.374033  	170.000000	0.372786  	170.000000	0.376617  	170.000000	0.000208084	
175.000000	0.14293   	175.000000	0.369436  	175.000000	0.366715  	175.000000	0.365474  	175.000000	0.369233  	175.000000	0.000202599	
180.000000	0.140354  	180.000000	0.362441  	180.000000	0.359792  	180.000000	0.358555  	180.000000	0.362243  	180.000000	0.000197405	
185.000000	0.137908  	185.000000	0.355809  	185.000000	0.353232  	185.000000	0.352     	185.000000	0.355616  	185.000000	0.000192481	
190.000000	0.135585  	190.000000	0.349512  	190.000000	0.347007  	190.000000	0.345781  	190.000000	0.349324  	190.000000	0.000187805	
195.000000	0.133373  	195.000000	0.343525  	195.000000	0.341094  	195.000000	0.339872  	195.000000	0.343342  	195.000000	0.000183359	
200.000000	0.131266  	200.000000	0.337827  	200.000000	0.335468  	200.000000	0.334251  	200.000000	0.337648  	200.000000	0.000179127	
210.000000	0.127336  	210.000000	0.327217  	210.000000	0.325001  	210.000000	0.323793  	210.000000	0.327045  	210.000000	0.000171242	
220.000000	0.123744  	220.000000	0.317538  	220.000000	0.315465  	220.000000	0.314266  	220.000000	0.317374  	220.000000	0.000164045	
230.000000	0.120448  	230.000000	0.308675  	230.000000	0.306742  	230.000000	0.305551  	230.000000	0.308517  	230.000000	0.000157449	
240.000000	0.117413  	240.000000	0.300528  	240.000000	0.298732  	240.000000	0.297551  	240.000000	0.300377  	240.000000	0.00015138	
250.000000	0.114608  	250.000000	0.293015  	250.000000	0.291359  	250.000000	0.290181  	250.000000	0.292869  	250.000000	0.000145778	
260.000000	0.112009  	260.000000	0.286065  	260.000000	0.284529  	260.000000	0.283372  	260.000000	0.285925  	260.000000	0.00014059	
270.000000	0.109593  	270.000000	0.279618  	270.000000	0.278192  	270.000000	0.277062  	270.000000	0.279483  	270.000000	0.000135771	
280.000000	0.107342  	280.000000	0.273622  	280.000000	0.272325  	280.000000	0.2712    	280.000000	0.273491  	280.000000	0.000131282	
290.000000	0.10524   	290.000000	0.268032  	290.000000	0.266859  	290.000000	0.26574   	290.000000	0.267905  	290.000000	0.000127091	
300.000000	0.103271  	300.000000	0.262808  	300.000000	0.261756  	300.000000	0.260644  	300.000000	0.262684  	300.000000	0.000123168	
310.000000	0.101425  	310.000000	0.257916  	310.000000	0.256983  	310.000000	0.255876  	310.000000	0.257796  	310.000000	0.000119489	
320.000000	0.0996896 	320.000000	0.253326  	320.000000	0.252509  	320.000000	0.251408  	320.000000	0.25321   	320.000000	0.00011603	
330.000000	0.0980555 	330.000000	0.249012  	330.000000	0.248306  	330.000000	0.247211  	330.000000	0.248899  	330.000000	0.000112773	
340.000000	0.0965143 	340.000000	0.244949  	340.000000	0.244355  	340.000000	0.243264  	340.000000	0.24484   	340.000000	0.0001097 	
350.000000	0.0950584 	350.000000	0.241118  	350.000000	0.240633  	350.000000	0.239545  	350.000000	0.241011  	350.000000	0.000106795	
360.000000	0.0936809 	360.000000	0.237499  	360.000000	0.23711   	360.000000	0.236035  	360.000000	0.237395  	360.000000	0.000104046	
370.000000	0.0923759 	370.000000	0.234076  	370.000000	0.233775  	370.000000	0.232719  	370.000000	0.233975  	370.000000	0.000101439	
380.000000	0.0911379 	380.000000	0.230834  	380.000000	0.230627  	380.000000	0.22958   	380.000000	0.230735  	380.000000	9.89646e-05	
390.000000	0.089962  	390.000000	0.227759  	390.000000	0.227651  	390.000000	0.226606  	390.000000	0.227663  	390.000000	9.66119e-05	
400.000000	0.0888437 	400.000000	0.22484   	400.000000	0.224826  	400.000000	0.223785  	400.000000	0.224745  	400.000000	9.43722e-05	
410.000000	0.087779  	410.000000	0.222064  	410.000000	0.222142  	410.000000	0.221105  	410.000000	0.221972  	410.000000	9.22376e-05	
420.000000	0.0867644 	420.000000	0.219423  	420.000000	0.219589  	420.000000	0.218556  	420.000000	0.219333  	420.000000	9.02007e-05	
430.000000	0.0857964 	430.000000	0.216907  	430.000000	0.21716   	430.000000	0.216131  	430.000000	0.216818  	430.000000	8.82548e-05	
440.000000	0.084872  	440.000000	0.214507  	440.000000	0.214847  	440.000000	0.213819  	440.000000	0.214421  	440.000000	8.6394e-05	
450.000000	0.0839886 	450.000000	0.212217  	450.000000	0.212639  	450.000000	0.211615  	450.000000	0.212133  	450.000000	8.46128e-05	
460.000000	0.0831435 	460.000000	0.21003   	460.000000	0.210525  	460.000000	0.209511  	460.000000	0.209947  	460.000000	8.2906e-05	
470.000000	0.0823344 	470.000000	0.207938  	470.000000	0.208502  	470.000000	0.2075    	470.000000	0.207857  	470.000000	8.1269e-05	
480.000000	0.0815592 	480.000000	0.205937  	480.000000	0.20657   	480.000000	0.205578  	480.000000	0.205857  	480.000000	7.96976e-05	
490.000000	0.0808159 	490.000000	0.204021  	490.000000	0.204727  	490.000000	0.203738  	490.000000	0.203943  	490.000000	7.81879e-05	
500.000000	0.0801027 	500.000000	0.202184  	500.000000	0.202964  	500.000000	0.201976  	500.000000	0.202107  	500.000000	7.67363e-05	
520.000000	0.0787599 	520.000000	0.198733  	520.000000	0.19965   	520.000000	0.198668  	520.000000	0.198659  	520.000000	7.39942e-05	
540.000000	0.077519  	540.000000	0.195551  	540.000000	0.196598  	540.000000	0.195621  	540.000000	0.19548   	540.000000	7.14476e-05	
560.000000	0.0763694 	560.000000	0.192611  	560.000000	0.193779  	560.000000	0.192807  	560.000000	0.192541  	560.000000	6.90761e-05	
580.000000	0.0753022 	580.000000	0.189887  	580.000000	0.191167  	580.000000	0.190203  	580.000000	0.18982   	580.000000	6.68621e-05	
600.000000	0.0743097 	600.000000	0.187359  	600.000000	0.18874   	600.000000	0.187787  	600.000000	0.187294  	600.000000	6.47902e-05	
620.000000	0.0733848 	620.000000	0.185008  	620.000000	0.186485  	620.000000	0.185542  	620.000000	0.184945  	620.000000	6.28469e-05	
640.000000	0.0725217 	640.000000	0.182819  	640.000000	0.18439   	640.000000	0.183452  	640.000000	0.182758  	640.000000	6.10206e-05	
660.000000	0.071715  	660.000000	0.180777  	660.000000	0.182437  	660.000000	0.181502  	660.000000	0.180717  	660.000000	5.93009e-05	
680.000000	0.07096   	680.000000	0.178868  	680.000000	0.180612  	680.000000	0.17968   	680.000000	0.178811  	680.000000	5.76786e-05	
700.000000	0.0702524 	700.000000	0.177084  	700.000000	0.178905  	700.000000	0.177975  	700.000000	0.177027  	700.000000	5.61455e-05	
720.000000	0.0695886 	720.000000	0.175412  	720.000000	0.177306  	720.000000	0.176378  	720.000000	0.175357  	720.000000	5.46945e-05	
740.000000	0.0689652 	740.000000	0.173844  	740.000000	0.175802  	740.000000	0.17488   	740.000000	0.173791  	740.000000	5.3319e-05	
760.000000	0.0683791 	760.000000	0.172373  	760.000000	0.174385  	760.000000	0.173472  	760.000000	0.172321  	760.000000	5.20133e-05	
780.000000	0.0678277 	780.000000	0.17099   	780.000000	0.173051  	780.000000	0.172147  	780.000000	0.170939  	780.000000	5.0772e-05	
800.000000	0.0673084 	800.000000	0.16969   	800.000000	0.171799  	800.000000	0.170901  	800.000000	0.16964   	800.000000	4.95906e-05	
820.000000	0.0668192 	820.000000	0.168467  	820.000000	0.170622  	820.000000	0.169725  	820.000000	0.168418  	820.000000	4.84646e-05	
840.000000	0.0663578 	840.000000	0.167314  	840.000000	0.169512  	840.000000	0.168617  	840.000000	0.167267  	840.000000	4.73903e-05	
860.000000	0.0659226 	860.000000	0.166228  	860.000000	0.168463  	860.000000	0.16757   	860.000000	0.166182  	860.000000	4.63641e-05	
880.000000	0.0655118 	880.000000	0.165204  	880.000000	0.167471  	880.000000	0.16658   	880.000000	0.165159  	880.000000	4.53829e-05	
900.000000	0.0651239 	900.000000	0.164238  	900.000000	0.166533  	900.000000	0.165644  	900.000000	0.164194  	900.000000	4.44437e-05	
920.000000	0.0647574 	920.000000	0.163327  	920.000000	0.165646  	920.000000	0.164757  	920.000000	0.163283  	920.000000	4.35438e-05	
940.000000	0.0644112 	940.000000	0.162466  	940.000000	0.164805  	940.000000	0.163918  	940.000000	0.162423  	940.000000	4.26808e-05	
960.000000	0.0640839 	960.000000	0.161652  	960.000000	0.164005  	960.000000	0.163122  	960.000000	0.161611  	960.000000	4.18525e-05	
980.000000	0.0637746 	980.000000	0.160884  	980.000000	0.163245  	980.000000	0.162367  	980.000000	0.160843  	980.000000	4.10568e-05	
1000.000000	0.0634821 	1000.000000	0.160158  	1000.000000	0.162522  	1000.000000	0.16165   	1000.000000	0.160118  	1000.000000	4.02917e-05	
1020.000000	0.0632057 	1020.000000	0.159472  	1020.000000	0.161835  	1020.000000	0.16097   	1020.000000	0.159432  	1020.000000	3.95555e-05	
1040.000000	0.0629443 	1040.000000	0.158823  	1040.000000	0.161185  	1040.000000	0.160323  	1040.000000	0.158784  	1040.000000	3.88467e-05	
1060.000000	0.0626972 	1060.000000	0.15821   	1060.000000	0.160568  	1060.000000	0.159708  	1060.000000	0.158172  	1060.000000	3.81636e-05	
1080.000000	0.0624636 	1080.000000	0.15763   	1080.000000	0.159983  	1080.000000	0.159123  	1080.000000	0.157593  	1080.000000	3.75049e-05	
1100.000000	0.0622429 	1100.000000	0.157082  	1100.000000	0.159425  	1100.000000	0.158567  	1100.000000	0.157046  	1100.000000	3.68693e-05	
1120.000000	0.0620344 	1120.000000	0.156565  	1120.000000	0.158895  	1120.000000	0.158037  	1120.000000	0.156528  	1120.000000	3.62555e-05	
1140.000000	0.0618375 	1140.000000	0.156075  	1140.000000	0.158389  	1140.000000	0.157532  	1140.000000	0.15604   	1140.000000	3.56626e-05	
1160.000000	0.0616517 	1160.000000	0.155613  	1160.000000	0.157907  	1160.000000	0.157052  	1160.000000	0.155578  	1160.000000	3.50893e-05	
1180.000000	0.0614764 	1180.000000	0.155177  	1180.000000	0.157448  	1180.000000	0.156594  	1180.000000	0.155142  	1180.000000	3.45348e-05	
1200.000000	0.0613111 	1200.000000	0.154765  	1200.000000	0.15701   	1200.000000	0.156157  	1200.000000	0.154731  	1200.000000	3.39981e-05	
1220.000000	0.0611554 	1220.000000	0.154376  	1220.000000	0.156593  	1220.000000	0.155741  	1220.000000	0.154343  	1220.000000	3.34783e-05	
1240.000000	0.0610088 	1240.000000	0.15401   	1240.000000	0.156196  	1240.000000	0.155344  	1240.000000	0.153977  	1240.000000	3.29747e-05	
1260.000000	0.0608709 	1260.000000	0.153665  	1260.000000	0.155816  	1260.000000	0.154965  	1260.000000	0.153632  	1260.000000	3.24866e-05	
1280.000000	0.0607414 	1280.000000	0.15334   	1280.000000	0.155454  	1280.000000	0.154603  	1280.000000	0.153308  	1280.000000	3.20131e-05	
1300.000000	0.0606199 	1300.000000	0.153034  	1300.000000	0.155107  	1300.000000	0.154258  	1300.000000	0.153002  	1300.000000	3.15537e-05	
1320.000000	0.060506  	1320.000000	0.152747  	1320.000000	0.154776  	1320.000000	0.153929  	1320.000000	0.152715  	1320.000000	3.11077e-05	
1340.000000	0.0603995 	1340.000000	0.152477  	1340.000000	0.154459  	1340.000000	0.153615  	1340.000000	0.152446  	1340.000000	3.06745e-05	
1360.000000	0.0603    	1360.000000	0.152224  	1360.000000	0.154156  	1360.000000	0.153315  	1360.000000	0.152194  	1360.000000	3.02537e-05	
1380.000000	0.0602072 	1380.000000	0.151987  	1380.000000	0.153866  	1380.000000	0.153028  	1380.000000	0.151957  	1380.000000	2.98446e-05	
1400.000000	0.060121  	1400.000000	0.151765  	1400.000000	0.153589  	1400.000000	0.152754  	1400.000000	0.151736  	1400.000000	2.94467e-05	
1420.000000	0.0600409 	1420.000000	0.151559  	1420.000000	0.153325  	1420.000000	0.152493  	1420.000000	0.15153   	1420.000000	2.90597e-05	
1440.000000	0.0599669 	1440.000000	0.151366  	1440.000000	0.153073  	1440.000000	0.152243  	1440.000000	0.151338  	1440.000000	2.86831e-05	
1460.000000	0.0598986 	1460.000000	0.151187  	1460.000000	0.152833  	1460.000000	0.152005  	1460.000000	0.151159  	1460.000000	2.83164e-05	
1480.000000	0.0598358 	1480.000000	0.151022  	1480.000000	0.152604  	1480.000000	0.151778  	1480.000000	0.150994  	1480.000000	2.79592e-05	
1500.000000	0.0597784 	1500.000000	0.150868  	1500.000000	0.152386  	1500.000000	0.15156   	1500.000000	0.150841  	1500.000000	2.76113e-05	
1520.000000	0.0597261 	1520.000000	0.150727  	1520.000000	0.152178  	1520.000000	0.151353  	1520.000000	0.1507    	1520.000000	2.72721e-05	
1540.000000	0.0596788 	1540.000000	0.150598  	1540.000000	0.15198   	1540.000000	0.151155  	1540.000000	0.150571  	1540.000000	2.69415e-05	
1560.000000	0.0596363 	1560.000000	0.150479  	1560.000000	0.15179   	1560.000000	0.150965  	1560.000000	0.150453  	1560.000000	2.66191e-05	
1580.000000	0.0595984 	1580.000000	0.150371  	1580.000000	0.151609  	1580.000000	0.150785  	1580.000000	0.150345  	1580.000000	2.63045e-05	
1600.000000	0.0595649 	1600.000000	0.150274  	1600.000000	0.151437  	1600.000000	0.150613  	1600.000000	0.150248  	1600.000000	2.59975e-05	
1620.000000	0.0595358 	1620.000000	0.150187  	1620.000000	0.151272  	1620.000000	0.150448  	1620.000000	0.150161  	1620.000000	2.56978e-05	
1640.000000	0.0595108 	1640.000000	0.150109  	1640.000000	0.151115  	1640.000000	0.150292  	1640.000000	0.150083  	1640.000000	2.54052e-05	
1660.000000	0.0594898 	1660.000000	0.15004   	1660.000000	0.150965  	1660.000000	0.150142  	1660.000000	0.150015  	1660.000000	2.51194e-05	
1680.000000	0.0594728 	1680.000000	0.149981  	1680.000000	0.150822  	1680.000000	0.15      	1680.000000	0.149956  	1680.000000	2.48401e-05	
1700.000000	0.0594595 	1700.000000	0.14993   	1700.000000	0.150686  	1700.000000	0.149864  	1700.000000	0.149905  	1700.000000	2.45672e-05	
1750.000000	0.059442  	1750.000000	0.149838  	1750.000000	0.150373  	1750.000000	0.149552  	1750.000000	0.149814  	1750.000000	2.39113e-05	
1800.000000	0.0594455 	1800.000000	0.149794  	1800.000000	0.150096  	1800.000000	0.149276  	1800.000000	0.14977   	1800.000000	2.32905e-05	
1850.000000	0.0594686 	1850.000000	0.149793  	1850.000000	0.149852  	1850.000000	0.149034  	1850.000000	0.149771  	1850.000000	2.27021e-05	
1900.000000	0.0595099 	1900.000000	0.149834  	1900.000000	0.149637  	1900.000000	0.148822  	1900.000000	0.149811  	1900.000000	2.21436e-05	
1950.000000	0.059568  	1950.000000	0.149911  	1950.000000	0.149451  	1950.000000	0.148637  	1950.000000	0.14989   	1950.000000	2.16128e-05	
2000.000000	0.0596419 	2000.000000	0.150023  	2000.000000	0.149288  	2000.000000	0.148477  	2000.000000	0.150002  	2000.000000	2.11076e-05	
2100.000000	0.0598329 	2100.000000	0.150341  	2100.000000	0.14903   	2100.000000	0.148223  	2100.000000	0.150321  	2100.000000	2.0167e-05	
2200.000000	0.0600757 	2200.000000	0.15077   	2200.000000	0.148848  	2200.000000	0.148045  	2200.000000	0.150751  	2200.000000	1.9309e-05	
2300.000000	0.0603643 	2300.000000	0.151295  	2300.000000	0.148732  	2300.000000	0.147932  	2300.000000	0.151277  	2300.000000	1.85231e-05	
2400.000000	0.0606937 	2400.000000	0.151905  	2400.000000	0.14867   	2400.000000	0.147873  	2400.000000	0.151887  	2400.000000	1.78005e-05	
2500.000000	0.0610597 	2500.000000	0.152589  	2500.000000	0.148656  	2500.000000	0.14786   	2500.000000	0.152572  	2500.000000	1.71338e-05	
2600.000000	0.0614587 	2600.000000	0.153338  	2600.000000	0.148682  	2600.000000	0.147887  	2600.000000	0.153321  	2600.000000	1.65167e-05	
2700.000000	0.0618876 	2700.000000	0.154145  	2700.000000	0.148741  	2700.000000	0.147947  	2700.000000	0.154129  	2700.000000	1.59437e-05	
2800.000000	0.0623437 	2800.000000	0.155004  	2800.000000	0.148829  	2800.000000	0.148036  	2800.000000	0.154989  	2800.000000	1.54104e-05	
2900.000000	0.0628247 	2900.000000	0.15591   	2900.000000	0.148942  	2900.000000	0.148149  	2900.000000	0.155895  	2900.000000	1.49125e-05	
3000.000000	0.0633286 	3000.000000	0.156857  	3000.000000	0.149075  	3000.000000	0.148284  	3000.000000	0.156842  	3000.000000	1.44468e-05	
3200.000000	0.0643983 	3200.000000	0.158859  	3200.000000	0.149394  	3200.000000	0.148605  	3200.000000	0.158846  	3200.000000	1.35999e-05	
3400.000000	0.0655409 	3400.000000	0.160985  	3400.000000	0.149766  	3400.000000	0.148979  	3400.000000	0.160972  	3400.000000	1.28494e-05	
3600.000000	0.0667473 	3600.000000	0.163213  	3600.000000	0.150179  	3600.000000	0.149393  	3600.000000	0.163201  	3600.000000	1.21796e-05	
3800.000000	0.0680102 	3800.000000	0.165526  	3800.000000	0.15062   	3800.000000	0.149837  	3800.000000	0.165515  	3800.000000	1.1578e-05	
4000.000000	0.0693235 	4000.000000	0.167911  	4000.000000	0.151082  	4000.000000	0.150301  	4000.000000	0.1679    	4000.000000	1.10347e-05	
4200.000000	0.0706825 	4200.000000	0.170356  	4200.000000	0.151559  	4200.000000	0.150779  	4200.000000	0.170346  	4200.000000	1.05415e-05	
4400.000000	0.0720832 	4400.000000	0.172854  	4400.000000	0.152046  	4400.000000	0.151267  	4400.000000	0.172844  	4400.000000	1.00917e-05	
4600.000000	0.0735222 	4600.000000	0.175396  	4600.000000	0.152539  	4600.000000	0.151762  	4600.000000	0.175386  	4600.000000	9.67971e-06	
4800.000000	0.0749969 	4800.000000	0.177977  	4800.000000	0.153035  	4800.000000	0.152259  	4800.000000	0.177967  	4800.000000	9.301e-06 	
5000.000000	0.0765048 	5000.000000	0.180591  	5000.000000	0.153532  	5000.000000	0.152757  	5000.000000	0.180582  	5000.000000	8.95161e-06	
5250.000000	0.0784334 	5250.000000	0.183899  	5250.000000	0.154152  	5250.000000	0.153378  	5250.000000	0.18389   	5250.000000	8.55114e-06	
5500.000000	0.0804076 	5500.000000	0.187246  	5500.000000	0.154768  	5500.000000	0.153995  	5500.000000	0.187237  	5500.000000	8.18592e-06	
6000.000000	0.0844822 	6000.000000	0.194033  	6000.000000	0.155981  	6000.000000	0.15521   	6000.000000	0.194025  	6000.000000	7.54401e-06	
6500.000000	0.0887116 	6500.000000	0.200917  	6500.000000	0.157161  	6500.000000	0.156392  	6500.000000	0.20091   	6500.000000	6.99787e-06	
7000.000000	0.0930835 	7000.000000	0.207873  	7000.000000	0.158303  	7000.000000	0.157536  	7000.000000	0.207866  	7000.000000	6.5274e-06	
7500.000000	0.0975888 	7500.000000	0.214882  	7500.000000	0.159402  	7500.000000	0.15864   	7500.000000	0.214876  	7500.000000	6.11777e-06	
8000.000000	0.102221  	8000.000000	0.221932  	8000.000000	0.160465  	8000.000000	0.159704  	8000.000000	0.221926  	8000.000000	5.7578e-06	
8500.000000	0.106974  	8500.000000	0.229012  	8500.000000	0.16149   	8500.000000	0.16073   	8500.000000	0.229006  	8500.000000	5.4389e-06	
9000.000000	0.111844  	9000.000000	0.236114  	9000.000000	0.162478  	9000.000000	0.161717  	9000.000000	0.236109  	9000.000000	5.15436e-06	
9500.000000	0.116829  	9500.000000	0.243233  	9500.000000	0.163428  	9500.000000	0.162669  	9500.000000	0.243228  	9500.000000	4.89887e-06	
10000.000000	0.121925  	10000.000000	0.250365  	10000.000000	0.16434   	10000.000000	0.163586  	10000.000000	0.25036   	10000.000000	4.66816e-06	
11000.000000	0.132443  	11000.000000	0.26465   	11000.000000	0.166072  	11000.000000	0.165326  	11000.000000	0.264646  	11000.000000	4.26783e-06	
12000.000000	0.143387  	12000.000000	0.27895   	12000.000000	0.167696  	12000.000000	0.16695   	12000.000000	0.278946  	12000.000000	3.9323e-06	
13000.000000	0.154748  	13000.000000	0.293249  	13000.000000	0.169215  	13000.000000	0.16847   	13000.000000	0.293246  	13000.000000	3.6469e-06	
14000.000000	0.16652   	14000.000000	0.30754   	14000.000000	0.170638  	14000.000000	0.169898  	14000.000000	0.307537  	14000.000000	3.4011e-06	
15000.000000	0.178701  	15000.000000	0.321817  	15000.000000	0.171975  	15000.000000	0.171244  	15000.000000	0.321814  	15000.000000	3.18712e-06	
16000.000000	0.191288  	16000.000000	0.336076  	16000.000000	0.173238  	16000.000000	0.172516  	16000.000000	0.336073  	16000.000000	2.99912e-06	
17000.000000	0.204279  	17000.000000	0.350314  	17000.000000	0.174436  	17000.000000	0.173721  	17000.000000	0.350311  	17000.000000	2.8326e-06	
18000.000000	0.217674  	18000.000000	0.364529  	18000.000000	0.175575  	18000.000000	0.174866  	18000.000000	0.364526  	18000.000000	2.68405e-06	
19000.000000	0.231473  	19000.000000	0.378721  	19000.000000	0.176661  	19000.000000	0.175956  	19000.000000	0.378718  	19000.000000	2.55068e-06	
20000.000000	0.245675  	20000.000000	0.392889  	20000.000000	0.177698  	20000.000000	0.176996  	20000.000000	0.392886  	20000.000000	2.43026e-06	
21000.000000	0.260282  	21000.000000	0.407033  	21000.000000	0.178688  	21000.000000	0.17799   	21000.000000	0.40703   	21000.000000	2.32098e-06	
22000.000000	0.275293  	22000.000000	0.421153  	22000.000000	0.179632  	22000.000000	0.178942  	22000.000000	0.42115   	22000.000000	2.22135e-06	
23000.000000	0.290711  	23000.000000	0.435248  	23000.000000	0.180538  	23000.000000	0.179855  	23000.000000	0.435246  	23000.000000	2.13013e-06	
24000.000000	0.306537  	24000.000000	0.44932   	24000.000000	0.181408  	24000.000000	0.180733  	24000.000000	0.449318  	24000.000000	2.0463e-06	
25000.000000	0.322772  	25000.000000	0.463369  	25000.000000	0.182245  	25000.000000	0.181577  	25000.000000	0.463367  	25000.000000	1.96898e-06	
26000.000000	0.339416  	26000.000000	0.477395  	26000.000000	0.183052  	26000.000000	0.182391  	26000.000000	0.477393  	26000.000000	1.89743e-06	
27000.000000	0.356473  	27000.000000	0.491398  	27000.000000	0.183829  	27000.000000	0.183176  	27000.000000	0.491396  	27000.000000	1.83104e-06	
28000.000000	0.373944  	28000.000000	0.505379  	28000.000000	0.18458   	28000.000000	0.183935  	28000.000000	0.505377  	28000.000000	1.76925e-06	
29000.000000	0.39183   	29000.000000	0.519339  	29000.000000	0.185306  	29000.000000	0.184668  	29000.000000	0.519337  	29000.000000	1.7116e-06	
30000.000000	0.410133  	30000.000000	0.533277  	30000.000000	0.186007  	30000.000000	0.185378  	30000.000000	0.533276  	30000.000000	1.65768e-06	
32000.000000	0.447999  	32000.000000	0.561093  	32000.000000	0.187345  	32000.000000	0.186734  	32000.000000	0.561091  	32000.000000	1.55967e-06	
34000.000000	0.487558  	34000.000000	0.588829  	34000.000000	0.188604  	34000.000000	0.188011  	34000.000000	0.588827  	34000.000000	1.47288e-06	
36000.000000	0.528826  	36000.000000	0.61649   	36000.000000	0.189791  	36000.000000	0.189219  	36000.000000	0.616489  	36000.000000	1.39545e-06	
38000.000000	0.571821  	38000.000000	0.644079  	38000.000000	0.190912  	38000.000000	0.190364  	38000.000000	0.644078  	38000.000000	1.32596e-06	
40000.000000	0.616559  	40000.000000	0.6716    	40000.000000	0.191975  	40000.000000	0.191453  	40000.000000	0.671598  	40000.000000	1.26322e-06	
42000.000000	0.66306   	42000.000000	0.699054  	42000.000000	0.192987  	42000.000000	0.192491  	42000.000000	0.699053  	42000.000000	1.20629e-06	
44000.000000	0.71134   	44000.000000	0.726446  	44000.000000	0.193953  	44000.000000	0.193482  	44000.000000	0.726445  	44000.000000	1.15439e-06	
46000.000000	0.76142   	46000.000000	0.753777  	46000.000000	0.194878  	46000.000000	0.194431  	46000.000000	0.753776  	46000.000000	1.10688e-06	
48000.000000	0.813316  	48000.000000	0.78105   	48000.000000	0.195765  	48000.000000	0.19534   	48000.000000	0.781049  	48000.000000	1.06322e-06	
50000.000000	0.86705   	50000.000000	0.808268  	50000.000000	0.196614  	50000.000000	0.196214  	50000.000000	0.808267  	50000.000000	1.02296e-06	
