0.001000	0.210784  	0.001000	0.121586  	0.001000	0.117981  	0.001000	0.117981  	0.001000	0.100343  	0.001000	0.0212432 	
0.002000	0.248273  	0.002000	0.152657  	0.002000	0.147732  	0.002000	0.147732  	0.002000	0.137073  	0.002000	0.0155844 	
0.005000	0.323858  	0.005000	0.21628   	0.005000	0.208842  	0.005000	0.208842  	0.005000	0.207026  	0.005000	0.00925467	
0.008000	0.376425  	0.008000	0.262605  	0.008000	0.253414  	0.008000	0.253414  	0.008000	0.255787  	0.008000	0.00681812	
0.010000	0.405109  	0.010000	0.28866   	0.010000	0.278499  	0.010000	0.278499  	0.010000	0.282806  	0.010000	0.00585476	
0.015000	0.488342  	0.015000	0.340986  	0.015000	0.331572  	0.015000	0.331572  	0.015000	0.336632  	0.015000	0.00435405	
0.020000	0.55659   	0.020000	0.380567  	0.020000	0.37597   	0.020000	0.37597   	0.020000	0.37704   	0.020000	0.00352707	
0.025000	0.613053  	0.025000	0.410853  	0.025000	0.414767  	0.025000	0.414767  	0.025000	0.407869  	0.025000	0.00298394	
0.030000	0.65945   	0.030000	0.433877  	0.030000	0.434637  	0.030000	0.434637  	0.030000	0.43128   	0.030000	0.00259711	
0.035000	0.696916  	0.035000	0.451048  	0.035000	0.449698  	0.035000	0.449698  	0.035000	0.448742  	0.035000	0.00230618	
0.040000	0.726348  	0.040000	0.463457  	0.040000	0.46086   	0.040000	0.46086   	0.040000	0.461379  	0.040000	0.0020786 	
0.045000	0.748553  	0.045000	0.471995  	0.045000	0.468826  	0.045000	0.468826  	0.045000	0.4701    	0.045000	0.00189523	
0.050000	0.764309  	0.050000	0.477405  	0.050000	0.474163  	0.050000	0.474163  	0.050000	0.475661  	0.050000	0.00174402	
0.055000	0.774383  	0.055000	0.480313  	0.055000	0.477341  	0.055000	0.477341  	0.055000	0.478696  	0.055000	0.00161698	
0.060000	0.779528  	0.060000	0.481243  	0.060000	0.478751  	0.060000	0.478751  	0.060000	0.479734  	0.060000	0.0015086 	
0.070000	0.777911  	0.070000	0.478822  	0.070000	0.477547  	0.070000	0.477547  	0.070000	0.477489  	0.070000	0.00133313	
0.080000	0.764757  	0.080000	0.472741  	0.080000	0.472623  	0.080000	0.472623  	0.080000	0.471544  	0.080000	0.00119683	
0.090000	0.744427  	0.090000	0.464681  	0.090000	0.465427  	0.090000	0.465427  	0.090000	0.463593  	0.090000	0.00108765	
0.100000	0.720228  	0.100000	0.455684  	0.100000	0.456952  	0.100000	0.456952  	0.100000	0.454686  	0.100000	0.000998039	
0.120000	0.668724  	0.120000	0.437103  	0.120000	0.438569  	0.120000	0.438569  	0.120000	0.436243  	0.120000	0.000859323	
0.140000	0.620423  	0.140000	0.419367  	0.140000	0.420371  	0.140000	0.420371  	0.140000	0.41861   	0.140000	0.000756583	
0.160000	0.578492  	0.160000	0.403084  	0.160000	0.403403  	0.160000	0.403403  	0.160000	0.402407  	0.160000	0.000677184	
0.180000	0.543066  	0.180000	0.388272  	0.180000	0.387917  	0.180000	0.387917  	0.180000	0.387658  	0.180000	0.000613838	
0.200000	0.513258  	0.200000	0.374776  	0.200000	0.37386   	0.200000	0.37386   	0.200000	0.374214  	0.200000	0.000562033	
0.250000	0.456649  	0.250000	0.345691  	0.250000	0.343946  	0.250000	0.343946  	0.250000	0.345225  	0.250000	0.000465855	
0.300000	0.416286  	0.300000	0.321623  	0.300000	0.319656  	0.300000	0.319656  	0.300000	0.321224  	0.300000	0.000399262	
0.350000	0.385293  	0.350000	0.301211  	0.350000	0.299338  	0.350000	0.299338  	0.350000	0.300861  	0.350000	0.000350233	
0.400000	0.36016   	0.400000	0.283597  	0.400000	0.281952  	0.400000	0.281952  	0.400000	0.283284  	0.400000	0.000312523	
0.450000	0.339008  	0.450000	0.268196  	0.450000	0.266823  	0.450000	0.266823  	0.450000	0.267914  	0.450000	0.000282557	
0.500000	0.320752  	0.500000	0.254592  	0.500000	0.253488  	0.500000	0.253488  	0.500000	0.254334  	0.500000	0.000258133	
0.600000	0.290446  	0.600000	0.231598  	0.600000	0.230959  	0.600000	0.230959  	0.600000	0.231378  	0.600000	0.000220636	
0.700000	0.26602   	0.700000	0.21286   	0.700000	0.212572  	0.700000	0.212572  	0.700000	0.212667  	0.700000	0.00019312	
0.800000	0.24576   	0.800000	0.197261  	0.800000	0.197226  	0.800000	0.197226  	0.800000	0.197089  	0.800000	0.000172015	
0.900000	0.228618  	0.900000	0.184052  	0.900000	0.184192  	0.900000	0.184192  	0.900000	0.183896  	0.900000	0.000155282	
1.000000	0.213891  	1.000000	0.172704  	1.000000	0.172965  	1.000000	0.172965  	1.000000	0.172563  	1.000000	0.000141669	
1.250000	0.184702  	1.250000	0.150225  	1.250000	0.150632  	1.250000	0.150632  	1.250000	0.150108  	1.250000	0.000116581	
1.500000	0.162957  	1.500000	0.133479  	1.500000	0.133915  	1.500000	0.133915  	1.500000	0.133379  	1.500000	9.93608e-05	
1.750000	0.146076  	1.750000	0.120465  	1.750000	0.120878  	1.750000	0.120878  	1.750000	0.120378  	1.750000	8.6768e-05	
2.000000	0.132563  	2.000000	0.110027  	2.000000	0.110394  	2.000000	0.110394  	2.000000	0.10995   	2.000000	7.71359e-05	
2.250000	0.121481  	2.250000	0.101447  	2.250000	0.10176   	2.250000	0.10176   	2.250000	0.101377  	2.250000	6.9517e-05	
2.500000	0.11173   	2.500000	0.0942538 	2.500000	0.0945115 	2.500000	0.0945115 	2.500000	0.0941904 	2.500000	6.33316e-05	
3.000000	0.0975606 	3.000000	0.0828355 	3.000000	0.0829891 	3.000000	0.0829891 	3.000000	0.0827817 	3.000000	5.38813e-05	
3.500000	0.0868065 	3.500000	0.0741432 	3.500000	0.074207  	3.500000	0.074207  	3.500000	0.0740962 	3.500000	4.69848e-05	
4.000000	0.0783425 	4.000000	0.0672787 	4.000000	0.0672677 	4.000000	0.0672677 	4.000000	0.067237  	4.000000	4.17186e-05	
4.500000	0.0714933 	4.500000	0.0617043 	4.500000	0.0616312 	4.500000	0.0616312 	4.500000	0.0616667 	4.500000	3.75591e-05	
5.000000	0.0658281 	5.000000	0.0570768 	5.000000	0.0569522 	5.000000	0.0569522 	5.000000	0.0570426 	5.000000	3.41863e-05	
5.500000	0.0610583 	5.500000	0.0531667 	5.500000	0.0529992 	5.500000	0.0529992 	5.500000	0.0531353 	5.500000	3.13936e-05	
6.000000	0.056983  	6.000000	0.0498139 	6.000000	0.0496106 	6.000000	0.0496106 	6.000000	0.0497849 	6.000000	2.90411e-05	
6.500000	0.0534578 	6.500000	0.0469035 	6.500000	0.0466701 	6.500000	0.0466701 	6.500000	0.0468765 	6.500000	2.70311e-05	
7.000000	0.0503763 	7.000000	0.0443505 	7.000000	0.0440917 	7.000000	0.0440917 	7.000000	0.0443252 	7.000000	2.52928e-05	
7.500000	0.0476579 	7.500000	0.0420908 	7.500000	0.0418104 	7.500000	0.0418104 	7.500000	0.042067  	7.500000	2.37738e-05	
8.000000	0.0452408 	8.000000	0.0400749 	8.000000	0.0397762 	8.000000	0.0397762 	8.000000	0.0400525 	8.000000	2.24347e-05	
8.500000	0.0430766 	8.500000	0.0382641 	8.500000	0.0379497 	8.500000	0.0379497 	8.500000	0.0382429 	8.500000	2.12446e-05	
9.000000	0.0411268 	9.000000	0.0366276 	9.000000	0.0362998 	9.000000	0.0362998 	9.000000	0.0366074 	9.000000	2.01799e-05	
9.500000	0.0393604 	9.500000	0.0351404 	9.500000	0.0348012 	9.500000	0.0348012 	9.500000	0.0351212 	9.500000	1.92212e-05	
10.000000	0.0377522 	10.000000	0.033944  	10.000000	0.0334334 	10.000000	0.0334334 	10.000000	0.0339257 	10.000000	1.83534e-05	
11.000000	0.0349308 	11.000000	0.0316298 	11.000000	0.0310333 	11.000000	0.0310336 	11.000000	0.0316129 	11.000000	1.68425e-05	
12.000000	0.0325348 	12.000000	0.0296292 	12.000000	0.0289892 	12.000000	0.0289898 	12.000000	0.0296136 	12.000000	1.55708e-05	
13.000000	0.030473  	13.000000	0.0278827 	13.000000	0.0272265 	13.000000	0.0272268 	13.000000	0.0278682 	13.000000	1.4485e-05	
14.000000	0.0286789 	14.000000	0.0263446 	14.000000	0.0256895 	14.000000	0.0256895 	14.000000	0.0263311 	14.000000	1.35466e-05	
15.000000	0.0271027 	15.000000	0.0249797 	15.000000	0.0243362 	15.000000	0.0243363 	15.000000	0.024967  	15.000000	1.27271e-05	
16.000000	0.0257062 	16.000000	0.0237601 	16.000000	0.0231358 	16.000000	0.0231355 	16.000000	0.023748  	16.000000	1.2005e-05	
17.000000	0.0244599 	17.000000	0.0226635 	17.000000	0.0220635 	17.000000	0.0220623 	17.000000	0.0226521 	17.000000	1.13637e-05	
18.000000	0.0233404 	18.000000	0.0216721 	18.000000	0.0210988 	18.000000	0.0210971 	18.000000	0.0216613 	18.000000	1.07901e-05	
19.000000	0.0223288 	19.000000	0.0207713 	19.000000	0.0202259 	19.000000	0.0202242 	19.000000	0.020761  	19.000000	1.02739e-05	
20.000000	0.0214101 	20.000000	0.019949  	20.000000	0.0194327 	20.000000	0.0194309 	20.000000	0.0199392 	20.000000	9.80685e-06	
21.000000	0.0205717 	21.000000	0.0191955 	21.000000	0.0187086 	21.000000	0.0187067 	21.000000	0.0191861 	21.000000	9.3821e-06	
22.000000	0.0198034 	22.000000	0.0185021 	22.000000	0.0180447 	22.000000	0.0180429 	22.000000	0.0184932 	22.000000	8.99409e-06	
23.000000	0.0190966 	23.000000	0.0178621 	23.000000	0.0174341 	23.000000	0.0174323 	23.000000	0.0178534 	23.000000	8.63818e-06	
24.000000	0.018444  	24.000000	0.0172693 	24.000000	0.0168713 	24.000000	0.0168687 	24.000000	0.017261  	24.000000	8.3105e-06	
25.000000	0.0178395 	25.000000	0.0167186 	25.000000	0.0163507 	25.000000	0.016347  	25.000000	0.0167106 	25.000000	8.00777e-06	
27.000000	0.0167548 	27.000000	0.0157268 	27.000000	0.0154167 	27.000000	0.015412  	27.000000	0.0157193 	27.000000	7.46643e-06	
29.000000	0.0158086 	29.000000	0.0148579 	29.000000	0.0146032 	29.000000	0.0145985 	29.000000	0.0148509 	29.000000	6.9963e-06	
31.000000	0.0149756 	31.000000	0.0140902 	31.000000	0.0138728 	31.000000	0.0138681 	31.000000	0.0140836 	31.000000	6.58404e-06	
33.000000	0.0142362 	33.000000	0.0134068 	33.000000	0.0132073 	33.000000	0.0132029 	33.000000	0.0134005 	33.000000	6.21946e-06	
35.000000	0.0135753 	35.000000	0.0127943 	35.000000	0.0126104 	35.000000	0.0126065 	35.000000	0.0127884 	35.000000	5.89463e-06	
38.000000	0.0127051 	38.000000	0.0119859 	38.000000	0.0118242 	38.000000	0.0118189 	38.000000	0.0119804 	38.000000	5.46861e-06	
41.000000	0.0119535 	41.000000	0.0112858 	41.000000	0.0111417 	41.000000	0.0111362 	41.000000	0.0112807 	41.000000	5.10216e-06	
44.000000	0.0112973 	44.000000	0.0106735 	44.000000	0.0105435 	44.000000	0.0105385 	44.000000	0.0106687 	44.000000	4.78347e-06	
47.000000	0.0107192 	47.000000	0.0101331 	47.000000	0.0100153 	47.000000	0.0100106 	47.000000	0.0101286 	47.000000	4.50366e-06	
50.000000	0.0102057 	50.000000	0.0096526 	50.000000	0.00954508	50.000000	0.00954063	50.000000	0.00964835	50.000000	4.25594e-06	
55.000000	0.00946597	55.000000	0.00895976	55.000000	0.00886621	55.000000	0.0088621 	55.000000	0.00895586	55.000000	3.90054e-06	
60.000000	0.00884144	60.000000	0.00837431	60.000000	0.00829188	60.000000	0.00828782	60.000000	0.0083707 	60.000000	3.60187e-06	
65.000000	0.00830663	65.000000	0.00787282	65.000000	0.00779993	65.000000	0.00779513	65.000000	0.00786947	65.000000	3.34719e-06	
70.000000	0.00784316	70.000000	0.00743825	70.000000	0.00737193	70.000000	0.00736756	70.000000	0.00743513	70.000000	3.12735e-06	
75.000000	0.00743736	75.000000	0.00705791	75.000000	0.00699696	75.000000	0.00699284	75.000000	0.00705498	75.000000	2.93559e-06	
80.000000	0.00707889	80.000000	0.00672214	80.000000	0.00666549	80.000000	0.0066616 	80.000000	0.00671938	80.000000	2.76678e-06	
85.000000	0.00675975	85.000000	0.00642346	85.000000	0.00637029	85.000000	0.00636661	85.000000	0.00642084	85.000000	2.617e-06 	
90.000000	0.00647368	90.000000	0.00615599	90.000000	0.00610568	90.000000	0.00610215	90.000000	0.0061535 	90.000000	2.48316e-06	
95.000000	0.00621567	95.000000	0.00591502	95.000000	0.00586786	95.000000	0.00586366	95.000000	0.00591266	95.000000	2.36281e-06	
100.000000	0.0059817 	100.000000	0.00569677	100.000000	0.00565148	100.000000	0.00564746	100.000000	0.00569452	100.000000	2.254e-06 	
105.000000	0.00576847	105.000000	0.00549815	105.000000	0.00545437	105.000000	0.00545053	105.000000	0.00549599	105.000000	2.15511e-06	
110.000000	0.0055733 	110.000000	0.00531659	110.000000	0.00527408	110.000000	0.00527038	110.000000	0.00531452	110.000000	2.06484e-06	
115.000000	0.00539391	115.000000	0.00514997	115.000000	0.0051085 	115.000000	0.00510494	115.000000	0.00514798	115.000000	1.98209e-06	
120.000000	0.00522843	120.000000	0.0049965 	120.000000	0.00495589	120.000000	0.00495246	120.000000	0.00499459	120.000000	1.90596e-06	
125.000000	0.00507526	125.000000	0.00485467	125.000000	0.00481479	125.000000	0.00481146	125.000000	0.00485283	125.000000	1.83565e-06	
130.000000	0.00493304	130.000000	0.0047232 	130.000000	0.00468392	130.000000	0.00468069	130.000000	0.00472143	130.000000	1.77054e-06	
135.000000	0.00480061	135.000000	0.00460098	135.000000	0.00456213	135.000000	0.00455907	135.000000	0.00459927	135.000000	1.71005e-06	
140.000000	0.00467696	140.000000	0.00448706	140.000000	0.00444894	140.000000	0.00444567	140.000000	0.00448541	140.000000	1.6537e-06	
145.000000	0.00456123	145.000000	0.00438063	145.000000	0.00434324	145.000000	0.00433967	145.000000	0.00437903	145.000000	1.60107e-06	
150.000000	0.00445266	150.000000	0.00428096	150.000000	0.00424383	150.000000	0.00424037	150.000000	0.00427941	150.000000	1.55181e-06	
155.000000	0.00429979	155.000000	0.00418742	155.000000	0.00415049	155.000000	0.00414715	155.000000	0.00418592	155.000000	1.5056e-06	
160.000000	0.00421019	160.000000	0.00409947	160.000000	0.00406275	160.000000	0.00405948	160.000000	0.00409801	160.000000	1.46216e-06	
165.000000	0.00412569	165.000000	0.00401661	165.000000	0.00398006	165.000000	0.00397687	165.000000	0.00401519	165.000000	1.42124e-06	
170.000000	0.00404587	170.000000	0.00393841	170.000000	0.00390201	170.000000	0.00389889	170.000000	0.00393703	170.000000	1.38263e-06	
175.000000	0.00397035	175.000000	0.0038645 	175.000000	0.00382822	175.000000	0.00382517	175.000000	0.00386315	175.000000	1.34614e-06	
180.000000	0.00389877	180.000000	0.00379452	180.000000	0.00375835	180.000000	0.00375537	180.000000	0.00379321	180.000000	1.31159e-06	
185.000000	0.00383084	185.000000	0.00372817	185.000000	0.00369211	185.000000	0.00368918	185.000000	0.00372689	185.000000	1.27884e-06	
190.000000	0.00376628	190.000000	0.00366518	190.000000	0.00362921	190.000000	0.00362634	190.000000	0.00366393	190.000000	1.24774e-06	
195.000000	0.00370485	195.000000	0.00360529	195.000000	0.00356937	195.000000	0.00356659	195.000000	0.00360407	195.000000	1.21816e-06	
200.000000	0.00364631	200.000000	0.00354828	200.000000	0.00351242	200.000000	0.00350971	200.000000	0.00354709	200.000000	1.19001e-06	
210.000000	0.00353714	210.000000	0.00344212	210.000000	0.00340682	210.000000	0.0034038 	210.000000	0.00344098	210.000000	1.13757e-06	
220.000000	0.00343736	220.000000	0.00334528	220.000000	0.00331021	220.000000	0.00330719	220.000000	0.00334419	220.000000	1.08971e-06	
230.000000	0.00334581	230.000000	0.00325659	230.000000	0.00322163	230.000000	0.00321873	230.000000	0.00325554	230.000000	1.04584e-06	
240.000000	0.00326149	240.000000	0.00317506	240.000000	0.00314026	240.000000	0.00313744	240.000000	0.00317406	240.000000	1.00549e-06	
250.000000	0.00318358	250.000000	0.00309988	250.000000	0.00306523	250.000000	0.0030625 	250.000000	0.00309891	250.000000	9.68238e-07	
260.000000	0.00311138	260.000000	0.00303032	260.000000	0.00299585	260.000000	0.00299319	260.000000	0.00302939	260.000000	9.33741e-07	
270.000000	0.00304427	270.000000	0.0029658 	270.000000	0.00293151	270.000000	0.00292891	270.000000	0.0029649 	270.000000	9.01699e-07	
280.000000	0.00298174	280.000000	0.00290578	280.000000	0.00287169	280.000000	0.00286916	280.000000	0.00290491	280.000000	8.71857e-07	
290.000000	0.00292333	290.000000	0.00284981	290.000000	0.0028159 	290.000000	0.00281347	290.000000	0.00284897	290.000000	8.43993e-07	
300.000000	0.00286866	300.000000	0.00279751	300.000000	0.00276401	300.000000	0.00276145	300.000000	0.0027967 	300.000000	8.17915e-07	
310.000000	0.00281737	310.000000	0.00274853	310.000000	0.00271549	310.000000	0.00271277	310.000000	0.00274774	310.000000	7.93454e-07	
320.000000	0.00276916	320.000000	0.00270258	320.000000	0.00266978	320.000000	0.00266711	320.000000	0.00270181	320.000000	7.70462e-07	
330.000000	0.00272377	330.000000	0.00265937	330.000000	0.00262681	330.000000	0.00262422	330.000000	0.00265862	330.000000	7.4881e-07	
340.000000	0.00268096	340.000000	0.00261869	340.000000	0.00258641	340.000000	0.00258385	340.000000	0.00261796	340.000000	7.28383e-07	
350.000000	0.00264051	350.000000	0.00258031	350.000000	0.00254832	350.000000	0.00254581	350.000000	0.00257961	350.000000	7.09078e-07	
360.000000	0.00260225	360.000000	0.00254407	360.000000	0.00251236	360.000000	0.00250989	360.000000	0.00254337	360.000000	6.90804e-07	
370.000000	0.002566  	370.000000	0.00250977	370.000000	0.00247836	370.000000	0.00247594	370.000000	0.0025091 	370.000000	6.7348e-07	
380.000000	0.00253161	380.000000	0.00247729	380.000000	0.00244618	380.000000	0.00244379	380.000000	0.00247663	380.000000	6.57033e-07	
390.000000	0.00249895	390.000000	0.00244648	390.000000	0.00241568	390.000000	0.00241333	390.000000	0.00244584	390.000000	6.41397e-07	
400.000000	0.00246788	400.000000	0.00241722	400.000000	0.00238674	400.000000	0.00238442	400.000000	0.00241659	400.000000	6.26513e-07	
410.000000	0.00243831	410.000000	0.0023894 	410.000000	0.00235924	410.000000	0.00235696	410.000000	0.00238879	410.000000	6.12327e-07	
420.000000	0.00241012	420.000000	0.00236292	420.000000	0.0023331 	420.000000	0.00233084	420.000000	0.00236232	420.000000	5.98791e-07	
430.000000	0.00238323	430.000000	0.0023377 	430.000000	0.0023082 	430.000000	0.00230597	430.000000	0.00233711	430.000000	5.8586e-07	
440.000000	0.00235756	440.000000	0.00231364	440.000000	0.00228444	440.000000	0.00228227	440.000000	0.00231307	440.000000	5.73495e-07	
450.000000	0.00233302	450.000000	0.00229068	450.000000	0.00226181	450.000000	0.00225966	450.000000	0.00229012	450.000000	5.61659e-07	
460.000000	0.00230954	460.000000	0.00226874	460.000000	0.00224029	460.000000	0.00223808	460.000000	0.00226819	460.000000	5.50318e-07	
470.000000	0.00228707	470.000000	0.00224776	470.000000	0.00221977	470.000000	0.00221746	470.000000	0.00224722	470.000000	5.39441e-07	
480.000000	0.00226553	480.000000	0.00222768	480.000000	0.00220011	480.000000	0.00219773	480.000000	0.00222715	480.000000	5.29e-07  	
490.000000	0.00224489	490.000000	0.00220845	490.000000	0.00218121	490.000000	0.00217886	490.000000	0.00220793	490.000000	5.18969e-07	
500.000000	0.00222507	500.000000	0.00219002	500.000000	0.00216309	500.000000	0.00216078	500.000000	0.00218951	500.000000	5.09324e-07	
520.000000	0.00218778	520.000000	0.00215538	520.000000	0.00212908	520.000000	0.00212683	520.000000	0.00215489	520.000000	4.91106e-07	
540.000000	0.00215331	540.000000	0.00212343	540.000000	0.00209778	540.000000	0.00209555	540.000000	0.00212295	540.000000	4.74188e-07	
560.000000	0.00212137	560.000000	0.00209389	560.000000	0.00206886	560.000000	0.00206667	560.000000	0.00209343	560.000000	4.58433e-07	
580.000000	0.00209173	580.000000	0.00206652	580.000000	0.00204209	580.000000	0.00203995	580.000000	0.00206607	580.000000	4.43725e-07	
600.000000	0.00206416	600.000000	0.0020411 	600.000000	0.00201727	600.000000	0.00201516	600.000000	0.00204067	600.000000	4.29962e-07	
620.000000	0.00203847	620.000000	0.00201747	620.000000	0.0019942 	620.000000	0.00199212	620.000000	0.00201705	620.000000	4.17054e-07	
640.000000	0.00201449	640.000000	0.00199544	640.000000	0.00197272	640.000000	0.00197067	640.000000	0.00199503	640.000000	4.04923e-07	
660.000000	0.00199208	660.000000	0.00197488	660.000000	0.00195268	660.000000	0.00195066	660.000000	0.00197449	660.000000	3.935e-07 	
680.000000	0.00197111	680.000000	0.00195567	680.000000	0.00193394	680.000000	0.00193197	680.000000	0.00195528	680.000000	3.82725e-07	
700.000000	0.00195146	700.000000	0.00193768	700.000000	0.00191647	700.000000	0.00191448	700.000000	0.00193731	700.000000	3.72543e-07	
720.000000	0.00193302	720.000000	0.00192083	720.000000	0.00190018	720.000000	0.0018981 	720.000000	0.00192047	720.000000	3.62906e-07	
740.000000	0.0019157 	740.000000	0.00190502	740.000000	0.001885  	740.000000	0.00188285	740.000000	0.00190466	740.000000	3.53771e-07	
760.000000	0.00189942	760.000000	0.00189017	760.000000	0.00187096	760.000000	0.00186881	760.000000	0.00188982	760.000000	3.45099e-07	
780.000000	0.0018841 	780.000000	0.00187621	780.000000	0.00185771	780.000000	0.00185561	780.000000	0.00187587	780.000000	3.36856e-07	
800.000000	0.00186968	800.000000	0.00186307	800.000000	0.00184525	800.000000	0.00184318	800.000000	0.00186274	800.000000	3.2901e-07	
820.000000	0.00185609	820.000000	0.0018507 	820.000000	0.00183352	820.000000	0.00183146	820.000000	0.00185038	820.000000	3.21533e-07	
840.000000	0.00184327	840.000000	0.00183905	840.000000	0.00182245	840.000000	0.00182041	840.000000	0.00183873	840.000000	3.14399e-07	
860.000000	0.00183118	860.000000	0.00182805	860.000000	0.001812  	860.000000	0.00180997	860.000000	0.00182774	860.000000	3.07585e-07	
880.000000	0.00181977	880.000000	0.00181768	880.000000	0.00180212	880.000000	0.00180011	880.000000	0.00181738	880.000000	3.01069e-07	
900.000000	0.001809  	900.000000	0.00180788	900.000000	0.00179278	900.000000	0.00179078	900.000000	0.00180759	900.000000	2.94833e-07	
920.000000	0.00179882	920.000000	0.00179863	920.000000	0.00178393	920.000000	0.00178195	920.000000	0.00179834	920.000000	2.88857e-07	
940.000000	0.0017892 	940.000000	0.00178988	940.000000	0.00177556	940.000000	0.00177359	940.000000	0.0017896 	940.000000	2.83128e-07	
960.000000	0.00178011	960.000000	0.00178162	960.000000	0.00176763	960.000000	0.00176567	960.000000	0.00178134	960.000000	2.77628e-07	
980.000000	0.00177152	980.000000	0.0017738 	980.000000	0.0017601 	980.000000	0.00175816	980.000000	0.00177353	980.000000	2.72344e-07	
1000.000000	0.00176339	1000.000000	0.0017664 	1000.000000	0.00175296	1000.000000	0.00175103	1000.000000	0.00176614	1000.000000	2.67265e-07	
1020.000000	0.00175571	1020.000000	0.00175941	1020.000000	0.00174618	1020.000000	0.00174427	1020.000000	0.00175914	1020.000000	2.62377e-07	
1040.000000	0.00174845	1040.000000	0.00175278	1040.000000	0.00173975	1040.000000	0.00173784	1040.000000	0.00175253	1040.000000	2.57671e-07	
1060.000000	0.00174159	1060.000000	0.00174652	1060.000000	0.00173363	1060.000000	0.00173174	1060.000000	0.00174626	1060.000000	2.53136e-07	
1080.000000	0.0017351 	1080.000000	0.00174059	1080.000000	0.00172781	1080.000000	0.00172593	1080.000000	0.00174034	1080.000000	2.48763e-07	
1100.000000	0.00172897	1100.000000	0.00173497	1100.000000	0.00172228	1100.000000	0.00172041	1100.000000	0.00173473	1100.000000	2.44543e-07	
1120.000000	0.00172318	1120.000000	0.00172966	1120.000000	0.00171702	1120.000000	0.00171516	1120.000000	0.00172942	1120.000000	2.40469e-07	
1140.000000	0.00171771	1140.000000	0.00172463	1140.000000	0.00171202	1140.000000	0.00171016	1140.000000	0.0017244 	1140.000000	2.36533e-07	
1160.000000	0.00171255	1160.000000	0.00171988	1160.000000	0.00170725	1160.000000	0.0017054 	1160.000000	0.00171964	1160.000000	2.32727e-07	
1180.000000	0.00170768	1180.000000	0.00171538	1180.000000	0.00170271	1180.000000	0.00170087	1180.000000	0.00171515	1180.000000	2.29046e-07	
1200.000000	0.00170309	1200.000000	0.00171112	1200.000000	0.00169838	1200.000000	0.00169655	1200.000000	0.0017109 	1200.000000	2.25483e-07	
1220.000000	0.00169876	1220.000000	0.0017071 	1220.000000	0.00169426	1220.000000	0.00169244	1220.000000	0.00170688	1220.000000	2.22033e-07	
1240.000000	0.00169469	1240.000000	0.0017033 	1240.000000	0.00169032	1240.000000	0.00168852	1240.000000	0.00170309	1240.000000	2.1869e-07	
1260.000000	0.00169086	1260.000000	0.00169972	1260.000000	0.00168657	1260.000000	0.00168478	1260.000000	0.0016995 	1260.000000	2.1545e-07	
1280.000000	0.00168726	1280.000000	0.00169633	1280.000000	0.001683  	1280.000000	0.00168122	1280.000000	0.00169612	1280.000000	2.12307e-07	
1300.000000	0.00168389	1300.000000	0.00169314	1300.000000	0.0016796 	1300.000000	0.00167782	1300.000000	0.00169293	1300.000000	2.09258e-07	
1320.000000	0.00168072	1320.000000	0.00169013	1320.000000	0.00167637	1320.000000	0.00167458	1320.000000	0.00168992	1320.000000	2.06298e-07	
1340.000000	0.00167776	1340.000000	0.0016873 	1340.000000	0.0016733 	1340.000000	0.00167149	1340.000000	0.00168709	1340.000000	2.03423e-07	
1360.000000	0.001675  	1360.000000	0.00168463	1360.000000	0.00167038	1360.000000	0.00166855	1360.000000	0.00168443	1360.000000	2.00629e-07	
1380.000000	0.00167242	1380.000000	0.00168213	1380.000000	0.0016676 	1380.000000	0.00166574	1380.000000	0.00168193	1380.000000	1.97914e-07	
1400.000000	0.00167003	1400.000000	0.00167978	1400.000000	0.00166494	1400.000000	0.00166305	1400.000000	0.00167959	1400.000000	1.95273e-07	
1420.000000	0.0016678 	1420.000000	0.00167758	1420.000000	0.0016624 	1420.000000	0.0016605 	1420.000000	0.00167739	1420.000000	1.92705e-07	
1440.000000	0.00166575	1440.000000	0.00167552	1440.000000	0.00165998	1440.000000	0.00165806	1440.000000	0.00167533	1440.000000	1.90205e-07	
1460.000000	0.00166385	1460.000000	0.0016736 	1460.000000	0.00165766	1460.000000	0.00165573	1460.000000	0.00167341	1460.000000	1.87771e-07	
1480.000000	0.00166211	1480.000000	0.00167181	1480.000000	0.00165544	1480.000000	0.00165351	1480.000000	0.00167162	1480.000000	1.85401e-07	
1500.000000	0.00166051	1500.000000	0.00167014	1500.000000	0.00165332	1500.000000	0.00165139	1500.000000	0.00166996	1500.000000	1.83091e-07	
1520.000000	0.00165906	1520.000000	0.00166859	1520.000000	0.00165129	1520.000000	0.00164937	1520.000000	0.00166841	1520.000000	1.80841e-07	
1540.000000	0.00165774	1540.000000	0.00166716	1540.000000	0.00164936	1540.000000	0.00164745	1540.000000	0.00166699	1540.000000	1.78646e-07	
1560.000000	0.00165656	1560.000000	0.00166585	1560.000000	0.00164751	1560.000000	0.00164561	1560.000000	0.00166567	1560.000000	1.76506e-07	
1580.000000	0.00165551	1580.000000	0.00166463	1580.000000	0.00164575	1580.000000	0.00164386	1580.000000	0.00166446	1580.000000	1.74419e-07	
1600.000000	0.00165458	1600.000000	0.00166353	1600.000000	0.00164408	1600.000000	0.0016422 	1600.000000	0.00166335	1600.000000	1.72382e-07	
1620.000000	0.00165377	1620.000000	0.00166252	1620.000000	0.00164248	1620.000000	0.00164061	1620.000000	0.00166235	1620.000000	1.70393e-07	
1640.000000	0.00165308	1640.000000	0.00166161	1640.000000	0.00164097	1640.000000	0.0016391 	1640.000000	0.00166144	1640.000000	1.68451e-07	
1660.000000	0.0016525 	1660.000000	0.00166079	1660.000000	0.00163952	1660.000000	0.00163766	1660.000000	0.00166062	1660.000000	1.66554e-07	
1680.000000	0.00165202	1680.000000	0.00166006	1680.000000	0.00163815	1680.000000	0.00163629	1680.000000	0.00165989	1680.000000	1.64701e-07	
1700.000000	0.00165165	1700.000000	0.00165941	1700.000000	0.00163684	1700.000000	0.00163498	1700.000000	0.00165925	1700.000000	1.6289e-07	
1750.000000	0.00165117	1750.000000	0.00165816	1750.000000	0.00163385	1750.000000	0.001632  	1750.000000	0.001658  	1750.000000	1.58537e-07	
1800.000000	0.00165126	1800.000000	0.00165739	1800.000000	0.00163122	1800.000000	0.00162938	1800.000000	0.00165723	1800.000000	1.54418e-07	
1850.000000	0.00165191	1850.000000	0.00165705	1850.000000	0.00162893	1850.000000	0.00162709	1850.000000	0.0016569 	1850.000000	1.50514e-07	
1900.000000	0.00165305	1900.000000	0.00165712	1900.000000	0.00162693	1900.000000	0.0016251 	1900.000000	0.00165698	1900.000000	1.46808e-07	
1950.000000	0.00165467	1950.000000	0.00165757	1950.000000	0.00162519	1950.000000	0.00162338	1950.000000	0.00165742	1950.000000	1.43286e-07	
2000.000000	0.00165672	2000.000000	0.00165836	2000.000000	0.00162371	2000.000000	0.0016219 	2000.000000	0.00165822	2000.000000	1.39934e-07	
2100.000000	0.00166202	2100.000000	0.00166088	2100.000000	0.0016214 	2100.000000	0.0016196 	2100.000000	0.00166074	2100.000000	1.33693e-07	
2200.000000	0.00166877	2200.000000	0.00166451	2200.000000	0.00161984	2200.000000	0.00161806	2200.000000	0.00166438	2200.000000	1.28e-07  	
2300.000000	0.00167679	2300.000000	0.0016691 	2300.000000	0.00161892	2300.000000	0.00161714	2300.000000	0.00166898	2300.000000	1.22786e-07	
2400.000000	0.00168594	2400.000000	0.00167454	2400.000000	0.00161852	2400.000000	0.00161675	2400.000000	0.00167442	2400.000000	1.17993e-07	
2500.000000	0.0016961 	2500.000000	0.00168072	2500.000000	0.00161857	2500.000000	0.00161681	2500.000000	0.0016806 	2500.000000	1.1357e-07	
2600.000000	0.00170719	2600.000000	0.00168755	2600.000000	0.001619  	2600.000000	0.00161725	2600.000000	0.00168745	2600.000000	1.09476e-07	
2700.000000	0.0017191 	2700.000000	0.00169497	2700.000000	0.00161976	2700.000000	0.00161801	2700.000000	0.00169487	2700.000000	1.05676e-07	
2800.000000	0.00173177	2800.000000	0.00170291	2800.000000	0.00162078	2800.000000	0.00161905	2800.000000	0.00170281	2800.000000	1.02138e-07	
2900.000000	0.00174513	2900.000000	0.00171131	2900.000000	0.00162204	2900.000000	0.00162032	2900.000000	0.00171122	2900.000000	9.88356e-08	
3000.000000	0.00175913	3000.000000	0.00172013	3000.000000	0.0016235 	3000.000000	0.00162178	3000.000000	0.00172004	3000.000000	9.57466e-08	
3200.000000	0.00178884	3200.000000	0.00173887	3200.000000	0.0016269 	3200.000000	0.00162519	3200.000000	0.00173878	3200.000000	9.01291e-08	
3400.000000	0.00182058	3400.000000	0.00175883	3400.000000	0.00163079	3400.000000	0.00162909	3400.000000	0.00175875	3400.000000	8.51516e-08	
3600.000000	0.00185409	3600.000000	0.00177983	3600.000000	0.00163504	3600.000000	0.00163334	3600.000000	0.00177974	3600.000000	8.07096e-08	
3800.000000	0.00188917	3800.000000	0.00180167	3800.000000	0.00163953	3800.000000	0.00163783	3800.000000	0.00180159	3800.000000	7.67205e-08	
4000.000000	0.00192565	4000.000000	0.00182424	4000.000000	0.00164419	4000.000000	0.0016425 	4000.000000	0.00182416	4000.000000	7.31176e-08	
4200.000000	0.0019634 	4200.000000	0.00184742	4200.000000	0.00164896	4200.000000	0.00164728	4200.000000	0.00184735	4200.000000	6.9847e-08	
4400.000000	0.00200231	4400.000000	0.00187112	4400.000000	0.0016538 	4400.000000	0.00165212	4400.000000	0.00187105	4400.000000	6.68644e-08	
4600.000000	0.00204228	4600.000000	0.00189527	4600.000000	0.00165867	4600.000000	0.00165699	4600.000000	0.00189521	4600.000000	6.41329e-08	
4800.000000	0.00208325	4800.000000	0.00191981	4800.000000	0.00166354	4800.000000	0.00166187	4800.000000	0.00191975	4800.000000	6.16219e-08	
5000.000000	0.00212513	5000.000000	0.00194469	5000.000000	0.00166839	5000.000000	0.00166672	5000.000000	0.00194463	5000.000000	5.93055e-08	
5250.000000	0.00217871	5250.000000	0.00197619	5250.000000	0.00167441	5250.000000	0.00167275	5250.000000	0.00197614	5250.000000	5.66504e-08	
5500.000000	0.00223354	5500.000000	0.00200809	5500.000000	0.00168036	5500.000000	0.0016787 	5500.000000	0.00200804	5500.000000	5.42292e-08	
6000.000000	0.00234673	6000.000000	0.00207283	6000.000000	0.00169199	6000.000000	0.00169033	6000.000000	0.00207278	6000.000000	4.99737e-08	
6500.000000	0.00246421	6500.000000	0.00213856	6500.000000	0.00170318	6500.000000	0.00170153	6500.000000	0.00213851	6500.000000	4.63535e-08	
7000.000000	0.00258565	7000.000000	0.00220501	7000.000000	0.00171393	7000.000000	0.00171228	7000.000000	0.00220497	7000.000000	4.3235e-08	
7500.000000	0.0027108 	7500.000000	0.00227202	7500.000000	0.00172421	7500.000000	0.00172257	7500.000000	0.00227197	7500.000000	4.05199e-08	
8000.000000	0.00283946	8000.000000	0.00233943	8000.000000	0.00173406	8000.000000	0.00173241	8000.000000	0.0023394 	8000.000000	3.81341e-08	
8500.000000	0.0029715 	8500.000000	0.00240717	8500.000000	0.00174347	8500.000000	0.00174182	8500.000000	0.00240713	8500.000000	3.60206e-08	
9000.000000	0.00310679	9000.000000	0.00247514	9000.000000	0.00175247	9000.000000	0.00175083	9000.000000	0.0024751 	9000.000000	3.41349e-08	
9500.000000	0.00324525	9500.000000	0.00254328	9500.000000	0.0017611 	9500.000000	0.00175946	9500.000000	0.00254325	9500.000000	3.24419e-08	
10000.000000	0.0033868 	10000.000000	0.00261156	10000.000000	0.00176937	10000.000000	0.00176772	10000.000000	0.00261153	10000.000000	3.0913e-08	
11000.000000	0.00367897	11000.000000	0.00274836	11000.000000	0.0017849 	11000.000000	0.00178326	11000.000000	0.00274833	11000.000000	2.82603e-08	
12000.000000	0.00398296	12000.000000	0.00288534	12000.000000	0.00179921	12000.000000	0.00179761	12000.000000	0.00288531	12000.000000	2.60371e-08	
13000.000000	0.00429854	13000.000000	0.00302234	13000.000000	0.00181247	13000.000000	0.00181091	13000.000000	0.00302232	13000.000000	2.41462e-08	
14000.000000	0.00462557	14000.000000	0.00315929	14000.000000	0.00182483	14000.000000	0.0018233 	14000.000000	0.00315927	14000.000000	2.25177e-08	
15000.000000	0.00496393	15000.000000	0.00329612	15000.000000	0.00183639	15000.000000	0.00183488	15000.000000	0.0032961 	15000.000000	2.11002e-08	
16000.000000	0.00531356	16000.000000	0.00343279	16000.000000	0.00184724	16000.000000	0.00184573	16000.000000	0.00343277	16000.000000	1.98547e-08	
17000.000000	0.00567442	17000.000000	0.00356927	17000.000000	0.00185743	17000.000000	0.00185594	17000.000000	0.00356925	17000.000000	1.87516e-08	
18000.000000	0.00604651	18000.000000	0.00370554	18000.000000	0.00186705	18000.000000	0.00186558	18000.000000	0.00370552	18000.000000	1.77676e-08	
19000.000000	0.0064298 	19000.000000	0.0038416 	19000.000000	0.00187614	19000.000000	0.00187469	19000.000000	0.00384158	19000.000000	1.68842e-08	
20000.000000	0.0068243 	20000.000000	0.00397744	20000.000000	0.00188476	20000.000000	0.00188333	20000.000000	0.00397742	20000.000000	1.60866e-08	
21000.000000	0.00723004	21000.000000	0.00411305	21000.000000	0.00189293	21000.000000	0.00189155	21000.000000	0.00411304	21000.000000	1.53629e-08	
22000.000000	0.00764704	22000.000000	0.00424844	22000.000000	0.00190067	22000.000000	0.00189938	22000.000000	0.00424842	22000.000000	1.4703e-08	
23000.000000	0.00807532	23000.000000	0.0043836 	23000.000000	0.00190813	23000.000000	0.00190685	23000.000000	0.00438358	23000.000000	1.40989e-08	
24000.000000	0.00851492	24000.000000	0.00451854	24000.000000	0.00191527	24000.000000	0.00191399	24000.000000	0.00451852	24000.000000	1.35437e-08	
25000.000000	0.00896588	25000.000000	0.00465325	25000.000000	0.00192205	25000.000000	0.00192083	25000.000000	0.00465324	25000.000000	1.30316e-08	
26000.000000	0.00942823	26000.000000	0.00478775	26000.000000	0.00192858	26000.000000	0.00192739	26000.000000	0.00478774	26000.000000	1.25578e-08	
27000.000000	0.00990203	27000.000000	0.00492204	27000.000000	0.00193489	27000.000000	0.0019337 	27000.000000	0.00492203	27000.000000	1.21181e-08	
28000.000000	0.0103873 	28000.000000	0.00505612	28000.000000	0.00194096	28000.000000	0.00193977	28000.000000	0.00505611	28000.000000	1.17089e-08	
29000.000000	0.0108842 	29000.000000	0.00518999	29000.000000	0.00194677	29000.000000	0.00194561	29000.000000	0.00518998	29000.000000	1.13272e-08	
30000.000000	0.0113926 	30000.000000	0.00532367	30000.000000	0.00195234	30000.000000	0.00195125	30000.000000	0.00532365	30000.000000	1.09702e-08	
32000.000000	0.0124444 	32000.000000	0.00559043	32000.000000	0.00196289	32000.000000	0.00196195	32000.000000	0.00559042	32000.000000	1.03212e-08	
34000.000000	0.0135433 	34000.000000	0.00585644	34000.000000	0.0019728 	34000.000000	0.00197198	34000.000000	0.00585643	34000.000000	9.74649e-09	
36000.000000	0.0146896 	36000.000000	0.00612173	36000.000000	0.00198213	36000.000000	0.0019814 	36000.000000	0.00612172	36000.000000	9.23389e-09	
38000.000000	0.0158839 	38000.000000	0.00638634	38000.000000	0.00199093	38000.000000	0.00199028	38000.000000	0.00638633	38000.000000	8.77376e-09	
40000.000000	0.0171266 	40000.000000	0.00665029	40000.000000	0.00199925	40000.000000	0.00199868	40000.000000	0.00665028	40000.000000	8.35839e-09	
42000.000000	0.0184183 	42000.000000	0.00691362	42000.000000	0.00200713	42000.000000	0.00200665	42000.000000	0.00691361	42000.000000	7.98149e-09	
44000.000000	0.0197595 	44000.000000	0.00717634	44000.000000	0.00201463	44000.000000	0.00201423	44000.000000	0.00717633	44000.000000	7.63792e-09	
46000.000000	0.0211505 	46000.000000	0.00743849	46000.000000	0.00202177	46000.000000	0.00202145	46000.000000	0.00743848	46000.000000	7.32341e-09	
48000.000000	0.0225921 	48000.000000	0.00770008	48000.000000	0.00202859	48000.000000	0.00202834	48000.000000	0.00770007	48000.000000	7.03439e-09	
50000.000000	0.0240847 	50000.000000	0.00796114	50000.000000	0.0020351 	50000.000000	0.00203494	50000.000000	0.00796113	50000.000000	6.76785e-09	
