0.001000	8.14146   	0.001000	5.17108   	0.001000	4.87295   	0.001000	4.87295   	0.001000	1.08423   	0.001000	4.08684   	
0.002000	8.2898    	0.002000	5.34971   	0.002000	4.95961   	0.002000	4.95961   	0.002000	1.50178   	0.002000	3.84793   	
0.005000	8.42367   	0.005000	5.38389   	0.005000	4.83139   	0.005000	4.83139   	0.005000	2.31014   	0.005000	3.07375   	
0.008000	8.67704   	0.008000	5.45      	0.008000	4.79203   	0.008000	4.79203   	0.008000	2.8812    	0.008000	2.56879   	
0.010000	8.87848   	0.010000	5.52584   	0.010000	4.81169   	0.010000	4.81169   	0.010000	3.19979   	0.010000	2.32605   	
0.015000	9.41116   	0.015000	5.7733    	0.015000	4.946     	0.015000	4.946     	0.015000	3.87155   	0.015000	1.90176   	
0.020000	9.93674   	0.020000	6.05621   	0.020000	5.13933   	0.020000	5.13933   	0.020000	4.43206   	0.020000	1.62415   	
0.025000	10.4631   	0.025000	6.34827   	0.025000	5.35622   	0.025000	5.35622   	0.025000	4.92213   	0.025000	1.42613   	
0.030000	11.2956   	0.030000	6.82385   	0.030000	5.69861   	0.030000	5.69861   	0.030000	5.54724   	0.030000	1.27661   	
0.035000	12.0395   	0.035000	7.46698   	0.035000	6.19103   	0.035000	6.19103   	0.035000	6.30792   	0.035000	1.15907   	
0.040000	12.6795   	0.040000	8.09775   	0.040000	6.72667   	0.040000	6.72667   	0.040000	7.0339    	0.040000	1.06385   	
0.045000	13.2077   	0.045000	8.70757   	0.045000	7.2948    	0.045000	7.2948    	0.045000	7.72267   	0.045000	0.984906  	
0.050000	13.613    	0.050000	9.29167   	0.050000	7.88677   	0.050000	7.88677   	0.050000	8.37345   	0.050000	0.918228  	
0.055000	14.3279   	0.055000	9.8477    	0.055000	8.49524   	0.055000	8.49524   	0.055000	8.98665   	0.055000	0.861052  	
0.060000	14.9776   	0.060000	10.3749   	0.060000	9.11379   	0.060000	9.11379   	0.060000	9.56351   	0.060000	0.8114    	
0.070000	16.0866   	0.070000	11.3447   	0.070000	10.3589   	0.070000	10.3589   	0.070000	10.6155   	0.070000	0.729217  	
0.080000	17.2984   	0.080000	12.2036   	0.080000	11.5772   	0.080000	11.5772   	0.080000	11.5461   	0.080000	0.657499  	
0.090000	18.3504   	0.090000	12.9775   	0.090000	12.7524   	0.090000	12.7524   	0.090000	12.3728   	0.090000	0.604661  	
0.100000	19.411    	0.100000	13.716    	0.100000	13.8566   	0.100000	13.8566   	0.100000	13.1555   	0.100000	0.560472  	
0.120000	21.0995   	0.120000	15.3553   	0.120000	15.8063   	0.120000	15.8063   	0.120000	14.8648   	0.120000	0.490531  	
0.140000	22.4762   	0.140000	16.7301   	0.140000	17.3947   	0.140000	17.3947   	0.140000	16.2926   	0.140000	0.437465  	
0.160000	23.6994   	0.160000	17.8977   	0.160000	18.6549   	0.160000	18.6549   	0.160000	17.502    	0.160000	0.395675  	
0.180000	24.855    	0.180000	18.9025   	0.180000	19.6465   	0.180000	19.6465   	0.180000	18.5406   	0.180000	0.36182   	
0.200000	25.9845   	0.200000	19.7778   	0.200000	20.4327   	0.200000	20.4327   	0.200000	19.444    	0.200000	0.333776  	
0.250000	28.1194   	0.250000	21.734    	0.250000	21.8274   	0.250000	21.8274   	0.250000	21.4532   	0.250000	0.28081   	
0.300000	30.2345   	0.300000	23.4022   	0.300000	22.797    	0.300000	22.797    	0.300000	23.1588   	0.300000	0.243397  	
0.350000	32.0767   	0.350000	24.7075   	0.350000	23.5818   	0.350000	23.5818   	0.350000	24.492    	0.350000	0.21543   	
0.400000	33.6663   	0.400000	25.7527   	0.400000	24.6147   	0.400000	24.6147   	0.400000	25.559    	0.400000	0.193658  	
0.450000	35.0719   	0.450000	26.6318   	0.450000	25.6061   	0.450000	25.6061   	0.450000	26.4556   	0.450000	0.176184  	
0.500000	36.4065   	0.500000	27.4692   	0.500000	26.4732   	0.500000	26.4732   	0.500000	27.3074   	0.500000	0.161821  	
0.600000	37.2087   	0.600000	28.7494   	0.600000	27.9133   	0.600000	27.9133   	0.600000	28.6099   	0.600000	0.139545  	
0.700000	37.2964   	0.700000	29.656    	0.700000	29.0415   	0.700000	29.0415   	0.700000	29.533    	0.700000	0.123012  	
0.800000	38.4205   	0.800000	30.3376   	0.800000	29.9252   	0.800000	29.9252   	0.800000	30.2274   	0.800000	0.110214  	
0.900000	39.4961   	0.900000	31.0486   	0.900000	30.6141   	0.900000	30.6141   	0.900000	30.9486   	0.900000	0.0999898 	
1.000000	40.2807   	1.000000	31.576    	1.000000	31.147    	1.000000	31.147    	1.000000	31.4843   	1.000000	0.0916184 	
1.250000	41.2601   	1.250000	32.3469   	1.250000	31.9798   	1.250000	31.9798   	1.250000	32.2708   	1.250000	0.0760525 	
1.500000	41.1819   	1.500000	32.4167   	1.500000	32.3334   	1.500000	32.3334   	1.500000	32.3514   	1.500000	0.0652548 	
1.750000	40.608    	1.750000	32.1575   	1.750000	32.3916   	1.750000	32.3916   	1.750000	32.1002   	1.750000	0.0572935 	
2.000000	39.8792   	2.000000	31.8077   	2.000000	32.2631   	2.000000	32.2631   	2.000000	31.7566   	2.000000	0.0511632 	
2.250000	39.1343   	2.250000	31.4059   	2.250000	32.0148   	2.250000	32.0148   	2.250000	31.3597   	2.250000	0.0462871 	
2.500000	47.1356   	2.500000	30.8395   	2.500000	31.5568   	2.500000	31.5568   	2.500000	30.7972   	2.500000	0.0423095 	
3.000000	44.6944   	3.000000	29.7713   	3.000000	30.5945   	3.000000	30.5945   	3.000000	29.7351   	3.000000	0.0361967 	
3.500000	42.3753   	3.500000	28.8421   	3.500000	29.6477   	3.500000	29.6477   	3.500000	28.8104   	3.500000	0.0317062 	
4.000000	40.2345   	4.000000	27.9471   	4.000000	28.7349   	4.000000	28.7349   	4.000000	27.9188   	4.000000	0.0282586 	
4.500000	38.2793   	4.500000	27.0641   	4.500000	27.8637   	4.500000	27.8637   	4.500000	27.0386   	4.500000	0.0255231 	
5.000000	36.4994   	5.000000	26.2621   	5.000000	27.0366   	5.000000	27.0366   	5.000000	26.2388   	5.000000	0.0232963 	
5.500000	34.8786   	5.500000	25.5212   	5.500000	26.2534   	5.500000	26.2534   	5.500000	25.4998   	5.500000	0.0214462 	
6.000000	33.4      	6.000000	24.8338   	6.000000	25.5125   	6.000000	25.5125   	6.000000	24.8139   	6.000000	0.019883  	
6.500000	32.0476   	6.500000	24.1929   	6.500000	24.8117   	6.500000	24.8117   	6.500000	24.1743   	6.500000	0.0185438 	
7.000000	30.8068   	7.000000	23.5918   	7.000000	24.1485   	7.000000	24.1485   	7.000000	23.5745   	7.000000	0.0173828 	
7.500000	29.6651   	7.500000	23.0274   	7.500000	23.5204   	7.500000	23.5204   	7.500000	23.011    	7.500000	0.0163661 	
8.000000	28.6112   	8.000000	22.4929   	8.000000	22.925    	8.000000	22.925    	8.000000	22.4774   	8.000000	0.0154678 	
8.500000	27.6356   	8.500000	21.9856   	8.500000	22.36     	8.500000	22.36     	8.500000	21.9709   	8.500000	0.0146681 	
9.000000	26.73     	9.000000	21.5033   	9.000000	21.8232   	9.000000	21.8232   	9.000000	21.4894   	9.000000	0.0139513 	
9.500000	25.887    	9.500000	21.044    	9.500000	21.3127   	9.500000	21.3127   	9.500000	21.0307   	9.500000	0.013305  	
10.000000	25.1004   	10.000000	20.8042   	10.000000	20.8267   	10.000000	20.8267   	10.000000	20.7914   	10.000000	0.012719  	
11.000000	23.6749   	11.000000	19.9454   	11.000000	19.8301   	11.000000	20.0149   	11.000000	19.9337   	11.000000	0.0116966 	
12.000000	22.417    	12.000000	19.1475   	12.000000	18.9277   	12.000000	19.2588   	12.000000	19.1367   	12.000000	0.0108339 	
13.000000	21.2985   	13.000000	18.4073   	13.000000	18.107    	13.000000	18.5546   	13.000000	18.3972   	13.000000	0.0100956 	
14.000000	20.297    	14.000000	17.7204   	14.000000	17.3574   	14.000000	17.8982   	14.000000	17.7109   	14.000000	0.00945626	
15.000000	19.3948   	15.000000	17.0825   	15.000000	16.6703   	15.000000	17.2857   	15.000000	17.0736   	15.000000	0.0088969 	
16.000000	18.5774   	16.000000	16.4893   	16.000000	16.0386   	16.000000	16.7132   	16.000000	16.4809   	16.000000	0.00840316	
17.000000	17.8333   	17.000000	15.9367   	17.000000	15.4559   	17.000000	16.1773   	17.000000	15.9287   	17.000000	0.00796394	
18.000000	17.1529   	18.000000	15.4211   	18.000000	14.9165   	18.000000	15.6749   	18.000000	15.4135   	18.000000	0.00757056	
19.000000	16.5281   	19.000000	14.939    	19.000000	14.4156   	19.000000	15.2031   	19.000000	14.9318   	19.000000	0.00721607	
20.000000	15.9522   	20.000000	14.4875   	20.000000	13.9496   	20.000000	14.7593   	20.000000	14.4806   	20.000000	0.00689489	
21.000000	15.4196   	21.000000	14.0639   	21.000000	13.5153   	21.000000	14.3414   	21.000000	14.0573   	21.000000	0.00660245	
22.000000	14.9255   	22.000000	13.6657   	22.000000	13.1097   	22.000000	13.9471   	22.000000	13.6594   	22.000000	0.006335  	
23.000000	14.4657   	23.000000	13.2908   	23.000000	12.7302   	23.000000	13.5748   	23.000000	13.2847   	23.000000	0.00608943	
24.000000	14.0368   	24.000000	12.9373   	24.000000	12.3742   	24.000000	13.2226   	24.000000	12.9314   	24.000000	0.0058631 	
25.000000	13.6356   	25.000000	12.6034   	25.000000	12.0395   	25.000000	12.8892   	25.000000	12.5977   	25.000000	0.0056538 	
27.000000	12.9061   	27.000000	11.9883   	27.000000	11.4269   	27.000000	12.2731   	27.000000	11.983    	27.000000	0.00527903	
29.000000	12.2598   	29.000000	11.4349   	29.000000	10.8809   	29.000000	11.7171   	29.000000	11.4299   	29.000000	0.00495303	
31.000000	11.6827   	31.000000	10.9343   	31.000000	10.4151   	31.000000	11.1966   	31.000000	10.9297   	31.000000	0.00466671	
33.000000	11.1643   	33.000000	10.4795   	33.000000	10.0136   	33.000000	10.7094   	33.000000	10.4751   	33.000000	0.00441315	
35.000000	10.6957   	35.000000	10.0645   	35.000000	9.64402   	35.000000	10.2671   	35.000000	10.0603   	35.000000	0.00418694	
38.000000	10.0714   	38.000000	9.50577   	38.000000	9.14264   	38.000000	9.67486   	38.000000	9.50188   	38.000000	0.00388982	
41.000000	9.52519   	41.000000	9.01193   	41.000000	8.69726   	41.000000	9.15424   	41.000000	9.00829   	41.000000	0.00363383	
44.000000	9.04308   	44.000000	8.57229   	44.000000	8.29923   	44.000000	8.6929    	44.000000	8.56888   	44.000000	0.00341087	
47.000000	8.61417   	47.000000	8.17841   	47.000000	7.94039   	47.000000	8.2812    	47.000000	8.1752    	47.000000	0.00321483	
50.000000	8.22995   	50.000000	7.82352   	50.000000	7.61436   	50.000000	7.9115    	50.000000	7.82048   	50.000000	0.00304106	
55.000000	7.67108   	55.000000	7.30417   	55.000000	7.13573   	55.000000	7.37251   	55.000000	7.30138   	55.000000	0.00279137	
60.000000	7.1942    	60.000000	6.8584    	60.000000	6.72142   	60.000000	6.91171   	60.000000	6.85581   	60.000000	0.00258116	
65.000000	6.78217   	65.000000	6.47162   	65.000000	6.36056   	65.000000	6.51318   	65.000000	6.46922   	65.000000	0.00240163	
70.000000	6.42236   	70.000000	6.13287   	70.000000	6.0426    	70.000000	6.16506   	70.000000	6.13062   	70.000000	0.00224644	
75.000000	6.10524   	75.000000	5.83373   	75.000000	5.76078   	75.000000	5.85834   	75.000000	5.83162   	75.000000	0.00211089	
80.000000	5.82349   	80.000000	5.56764   	80.000000	5.50907   	80.000000	5.58603   	80.000000	5.56565   	80.000000	0.00199142	
85.000000	5.57139   	85.000000	5.32942   	85.000000	5.28261   	85.000000	5.34262   	85.000000	5.32753   	85.000000	0.0018853 	
90.000000	5.34439   	90.000000	5.11491   	90.000000	5.07777   	90.000000	5.12375   	90.000000	5.11312   	90.000000	0.00179037	
95.000000	5.13885   	95.000000	4.92074   	95.000000	4.89222   	95.000000	4.92586   	95.000000	4.91904   	95.000000	0.00170493	
100.000000	4.95179   	100.000000	4.74416   	100.000000	4.72273   	100.000000	4.74608   	100.000000	4.74253   	100.000000	0.00162761	
105.000000	4.78077   	105.000000	4.58287   	105.000000	4.56725   	105.000000	4.58203   	105.000000	4.58131   	105.000000	0.00155728	
110.000000	4.62378   	110.000000	4.43498   	110.000000	4.42453   	110.000000	4.43172   	110.000000	4.43349   	110.000000	0.00149303	
115.000000	4.47911   	115.000000	4.29888   	115.000000	4.29323   	115.000000	4.29349   	115.000000	4.29745   	115.000000	0.00143409	
120.000000	4.34533   	120.000000	4.17323   	120.000000	4.17161   	120.000000	4.16595   	120.000000	4.17185   	120.000000	0.00137981	
125.000000	4.22124   	125.000000	4.05686   	125.000000	4.05867   	125.000000	4.0479    	125.000000	4.05553   	125.000000	0.00132967	
130.000000	4.10578   	130.000000	3.94878   	130.000000	3.95375   	130.000000	3.93832   	130.000000	3.94749   	130.000000	0.00128319	
135.000000	3.99808   	135.000000	3.84814   	135.000000	3.85564   	135.000000	3.83633   	135.000000	3.8469    	135.000000	0.00123998	
140.000000	3.89734   	140.000000	3.75419   	140.000000	3.76399   	140.000000	3.74116   	140.000000	3.75299   	140.000000	0.00119971	
145.000000	3.80291   	145.000000	3.6663    	145.000000	3.67815   	145.000000	3.65216   	145.000000	3.66514   	145.000000	0.00116208	
150.000000	3.7142    	150.000000	3.5839    	150.000000	3.59734   	150.000000	3.56875   	150.000000	3.58277   	150.000000	0.00112683	
155.000000	3.58829   	155.000000	3.50648   	155.000000	3.52139   	155.000000	3.49042   	155.000000	3.50538   	155.000000	0.00109375	
160.000000	3.51497   	160.000000	3.43361   	160.000000	3.44991   	160.000000	3.41671   	160.000000	3.43255   	160.000000	0.00106264	
165.000000	3.44574   	165.000000	3.3649    	165.000000	3.38248   	165.000000	3.34724   	165.000000	3.36387   	165.000000	0.00103332	
170.000000	3.38028   	170.000000	3.30002   	170.000000	3.31882   	170.000000	3.28165   	170.000000	3.29901   	170.000000	0.00100564	
175.000000	3.31827   	175.000000	3.23863   	175.000000	3.25853   	175.000000	3.21962   	175.000000	3.23765   	175.000000	0.000979464	
180.000000	3.25945   	180.000000	3.18048   	180.000000	3.20121   	180.000000	3.16087   	180.000000	3.17953   	180.000000	0.000954674	
185.000000	3.20358   	185.000000	3.12532   	185.000000	3.14674   	185.000000	3.10516   	185.000000	3.12438   	185.000000	0.00093116	
190.000000	3.15043   	190.000000	3.07291   	190.000000	3.09502   	190.000000	3.05224   	190.000000	3.072     	190.000000	0.000908824	
195.000000	3.09981   	195.000000	3.02306   	195.000000	3.04586   	195.000000	3.00193   	195.000000	3.02218   	195.000000	0.000887579	
200.000000	3.05155   	200.000000	2.9756    	200.000000	2.99902   	200.000000	2.95403   	200.000000	2.97473   	200.000000	0.000867345	
210.000000	2.96144   	210.000000	2.88715   	210.000000	2.91134   	210.000000	2.86482   	210.000000	2.88632   	210.000000	0.000829632	
220.000000	2.87898   	220.000000	2.80641   	220.000000	2.83158   	220.000000	2.78344   	220.000000	2.80562   	220.000000	0.000795188	
230.000000	2.80323   	230.000000	2.73243   	230.000000	2.75827   	230.000000	2.70891   	230.000000	2.73166   	230.000000	0.0007636 	
240.000000	2.7334    	240.000000	2.66439   	240.000000	2.69079   	240.000000	2.64041   	240.000000	2.66366   	240.000000	0.000734523	
250.000000	2.66882   	250.000000	2.60162   	250.000000	2.62832   	250.000000	2.57724   	250.000000	2.60091   	250.000000	0.000707665	
260.000000	2.60891   	260.000000	2.54352   	260.000000	2.57053   	260.000000	2.51883   	260.000000	2.54284   	260.000000	0.000682777	
270.000000	2.55319   	270.000000	2.48961   	270.000000	2.51706   	270.000000	2.46466   	270.000000	2.48896   	270.000000	0.000659649	
280.000000	2.50123   	280.000000	2.43946   	280.000000	2.46707   	280.000000	2.41429   	280.000000	2.43882   	280.000000	0.000638096	
290.000000	2.45266   	290.000000	2.39268   	290.000000	2.42047   	290.000000	2.36735   	290.000000	2.39206   	290.000000	0.000617962	
300.000000	2.40717   	300.000000	2.34896   	300.000000	2.37695   	300.000000	2.32351   	300.000000	2.34836   	300.000000	0.000599109	
310.000000	2.36448   	310.000000	2.308     	310.000000	2.33618   	310.000000	2.28247   	310.000000	2.30742   	310.000000	0.000581417	
320.000000	2.32433   	320.000000	2.26957   	320.000000	2.29794   	320.000000	2.24398   	320.000000	2.269     	320.000000	0.000564781	
330.000000	2.28651   	330.000000	2.23343   	330.000000	2.26203   	330.000000	2.20783   	330.000000	2.23288   	330.000000	0.000549107	
340.000000	2.25082   	340.000000	2.1994    	340.000000	2.22816   	340.000000	2.1738    	340.000000	2.19887   	340.000000	0.000534313	
350.000000	2.21709   	350.000000	2.1673    	350.000000	2.19608   	350.000000	2.14173   	350.000000	2.16678   	350.000000	0.000520326	
360.000000	2.18517   	360.000000	2.13697   	360.000000	2.16587   	360.000000	2.11145   	360.000000	2.13646   	360.000000	0.000507082	
370.000000	2.15492   	370.000000	2.10827   	370.000000	2.13741   	370.000000	2.08283   	370.000000	2.10778   	370.000000	0.000494521	
380.000000	2.12621   	380.000000	2.08109   	380.000000	2.11037   	380.000000	2.05573   	380.000000	2.08061   	380.000000	0.000482591	
390.000000	2.09893   	390.000000	2.05531   	390.000000	2.08464   	390.000000	2.03005   	390.000000	2.05484   	390.000000	0.000471246	
400.000000	2.07299   	400.000000	2.03082   	400.000000	2.0602    	400.000000	2.00568   	400.000000	2.03036   	400.000000	0.000460442	
410.000000	2.04828   	410.000000	2.00754   	410.000000	2.03704   	410.000000	1.98253   	410.000000	2.00709   	410.000000	0.000450143	
420.000000	2.02472   	420.000000	1.98537   	420.000000	2.0151    	420.000000	1.96051   	420.000000	1.98493   	420.000000	0.000440311	
430.000000	2.00224   	430.000000	1.96426   	430.000000	1.99422   	430.000000	1.93954   	430.000000	1.96383   	430.000000	0.000430917	
440.000000	1.98078   	440.000000	1.94412   	440.000000	1.97422   	440.000000	1.91956   	440.000000	1.9437    	440.000000	0.00042193	
450.000000	1.96025   	450.000000	1.92489   	450.000000	1.9551    	450.000000	1.9005    	450.000000	1.92448   	450.000000	0.000413326	
460.000000	1.94062   	460.000000	1.90653   	460.000000	1.93686   	460.000000	1.88231   	460.000000	1.90612   	460.000000	0.000405078	
470.000000	1.92181   	470.000000	1.88896   	470.000000	1.91944   	470.000000	1.86492   	470.000000	1.88856   	470.000000	0.000397167	
480.000000	1.90379   	480.000000	1.87215   	480.000000	1.90272   	480.000000	1.84829   	480.000000	1.87176   	480.000000	0.00038957	
490.000000	1.88651   	490.000000	1.85605   	490.000000	1.88666   	490.000000	1.83237   	490.000000	1.85566   	490.000000	0.00038227	
500.000000	1.86993   	500.000000	1.84061   	500.000000	1.87128   	500.000000	1.81713   	500.000000	1.84024   	500.000000	0.000375248	
520.000000	1.8387    	520.000000	1.8116    	520.000000	1.84252   	520.000000	1.7885    	520.000000	1.81124   	520.000000	0.000361981	
540.000000	1.80984   	540.000000	1.78484   	540.000000	1.8161    	540.000000	1.76213   	540.000000	1.78449   	540.000000	0.000349654	
560.000000	1.78309   	560.000000	1.7601    	560.000000	1.7916    	560.000000	1.73778   	560.000000	1.75976   	560.000000	0.00033817	
580.000000	1.75825   	580.000000	1.73717   	580.000000	1.76881   	580.000000	1.71523   	580.000000	1.73684   	580.000000	0.000327443	
600.000000	1.73514   	600.000000	1.71588   	600.000000	1.74776   	600.000000	1.69432   	600.000000	1.71556   	600.000000	0.000317401	
620.000000	1.71361   	620.000000	1.69607   	620.000000	1.72824   	620.000000	1.67489   	620.000000	1.69576   	620.000000	0.00030798	
640.000000	1.69351   	640.000000	1.67761   	640.000000	1.70994   	640.000000	1.65679   	640.000000	1.67731   	640.000000	0.000299122	
660.000000	1.67472   	660.000000	1.66038   	660.000000	1.69287   	660.000000	1.6399    	660.000000	1.66009   	660.000000	0.000290778	
680.000000	1.65714   	680.000000	1.64428   	680.000000	1.67702   	680.000000	1.62413   	680.000000	1.64399   	680.000000	0.000282903	
700.000000	1.64065   	700.000000	1.6292    	700.000000	1.66217   	700.000000	1.60937   	700.000000	1.62892   	700.000000	0.00027546	
720.000000	1.62519   	720.000000	1.61507   	720.000000	1.64817   	720.000000	1.59554   	720.000000	1.6148    	720.000000	0.000268413	
740.000000	1.61066   	740.000000	1.60181   	740.000000	1.63514   	740.000000	1.58269   	740.000000	1.60155   	740.000000	0.000261731	
760.000000	1.597     	760.000000	1.58935   	760.000000	1.62303   	760.000000	1.57074   	760.000000	1.5891    	760.000000	0.000255385	
780.000000	1.58415   	780.000000	1.57764   	780.000000	1.61165   	780.000000	1.55951   	780.000000	1.57739   	780.000000	0.000249351	
800.000000	1.57205   	800.000000	1.56662   	800.000000	1.60094   	800.000000	1.54893   	800.000000	1.56638   	800.000000	0.000243606	
820.000000	1.56064   	820.000000	1.55624   	820.000000	1.59083   	820.000000	1.53896   	820.000000	1.556     	820.000000	0.00023813	
840.000000	1.54989   	840.000000	1.54646   	840.000000	1.5813    	840.000000	1.52957   	840.000000	1.54622   	840.000000	0.000232903	
860.000000	1.53974   	860.000000	1.53723   	860.000000	1.5723    	860.000000	1.5207    	860.000000	1.537     	860.000000	0.00022791	
880.000000	1.53016   	880.000000	1.52852   	880.000000	1.5638    	880.000000	1.51231   	880.000000	1.52829   	880.000000	0.000223133	
900.000000	1.52112   	900.000000	1.52029   	900.000000	1.55576   	900.000000	1.50439   	900.000000	1.52007   	900.000000	0.000218561	
920.000000	1.51257   	920.000000	1.51252   	920.000000	1.54815   	920.000000	1.49689   	920.000000	1.5123    	920.000000	0.000214178	
940.000000	1.5045    	940.000000	1.50517   	940.000000	1.54094   	940.000000	1.48979   	940.000000	1.50496   	940.000000	0.000209975	
960.000000	1.49687   	960.000000	1.49822   	960.000000	1.53411   	960.000000	1.48307   	960.000000	1.49801   	960.000000	0.000205939	
980.000000	1.48965   	980.000000	1.49165   	980.000000	1.52764   	980.000000	1.47669   	980.000000	1.49144   	980.000000	0.000202061	
1000.000000	1.48283   	1000.000000	1.48543   	1000.000000	1.52149   	1000.000000	1.47065   	1000.000000	1.48523   	1000.000000	0.000198332	
1020.000000	1.47638   	1020.000000	1.47954   	1020.000000	1.51566   	1020.000000	1.46491   	1020.000000	1.47935   	1020.000000	0.000194743	
1040.000000	1.47029   	1040.000000	1.47397   	1040.000000	1.51012   	1040.000000	1.45946   	1040.000000	1.47378   	1040.000000	0.000191287	
1060.000000	1.46452   	1060.000000	1.46869   	1060.000000	1.50486   	1060.000000	1.45428   	1060.000000	1.4685    	1060.000000	0.000187955	
1080.000000	1.45908   	1080.000000	1.4637    	1080.000000	1.49985   	1080.000000	1.44936   	1080.000000	1.46351   	1080.000000	0.000184742	
1100.000000	1.45393   	1100.000000	1.45897   	1100.000000	1.49509   	1100.000000	1.44468   	1100.000000	1.45879   	1100.000000	0.000181641	
1120.000000	1.44907   	1120.000000	1.45449   	1120.000000	1.49057   	1120.000000	1.44023   	1120.000000	1.45431   	1120.000000	0.000178646	
1140.000000	1.44447   	1140.000000	1.45025   	1140.000000	1.48626   	1140.000000	1.436     	1140.000000	1.45008   	1140.000000	0.000175751	
1160.000000	1.44014   	1160.000000	1.44624   	1160.000000	1.48216   	1160.000000	1.43197   	1160.000000	1.44607   	1160.000000	0.000172953	
1180.000000	1.43605   	1180.000000	1.44245   	1180.000000	1.47825   	1180.000000	1.42814   	1180.000000	1.44228   	1180.000000	0.000170245	
1200.000000	1.43219   	1200.000000	1.43886   	1200.000000	1.47453   	1200.000000	1.42448   	1200.000000	1.43869   	1200.000000	0.000167624	
1220.000000	1.42856   	1220.000000	1.43546   	1220.000000	1.47098   	1220.000000	1.421     	1220.000000	1.43529   	1220.000000	0.000165085	
1240.000000	1.42514   	1240.000000	1.43225   	1240.000000	1.4676    	1240.000000	1.41769   	1240.000000	1.43209   	1240.000000	0.000162625	
1260.000000	1.42192   	1260.000000	1.42921   	1260.000000	1.46438   	1260.000000	1.41453   	1260.000000	1.42905   	1260.000000	0.00016024	
1280.000000	1.4189    	1280.000000	1.42635   	1280.000000	1.46131   	1280.000000	1.41152   	1280.000000	1.42619   	1280.000000	0.000157926	
1300.000000	1.41607   	1300.000000	1.42365   	1300.000000	1.45838   	1300.000000	1.40865   	1300.000000	1.42349   	1300.000000	0.000155681	
1320.000000	1.41341   	1320.000000	1.4211    	1320.000000	1.45559   	1320.000000	1.40592   	1320.000000	1.42094   	1320.000000	0.000153501	
1340.000000	1.41093   	1340.000000	1.41869   	1340.000000	1.45293   	1340.000000	1.40331   	1340.000000	1.41854   	1340.000000	0.000151383	
1360.000000	1.40861   	1360.000000	1.41643   	1360.000000	1.45039   	1360.000000	1.40082   	1360.000000	1.41628   	1360.000000	0.000149325	
1380.000000	1.40644   	1380.000000	1.41431   	1380.000000	1.44797   	1380.000000	1.39845   	1380.000000	1.41416   	1380.000000	0.000147325	
1400.000000	1.40443   	1400.000000	1.41231   	1400.000000	1.44565   	1400.000000	1.39619   	1400.000000	1.41216   	1400.000000	0.000145379	
1420.000000	1.40256   	1420.000000	1.41043   	1420.000000	1.44344   	1420.000000	1.39404   	1420.000000	1.41029   	1420.000000	0.000143485	
1440.000000	1.40083   	1440.000000	1.40868   	1440.000000	1.44132   	1440.000000	1.39198   	1440.000000	1.40854   	1440.000000	0.000141643	
1460.000000	1.39924   	1460.000000	1.40704   	1460.000000	1.4393    	1460.000000	1.39003   	1460.000000	1.4069    	1460.000000	0.000139848	
1480.000000	1.39778   	1480.000000	1.40551   	1480.000000	1.43737   	1480.000000	1.38816   	1480.000000	1.40537   	1480.000000	0.0001381 	
1500.000000	1.39644   	1500.000000	1.40408   	1500.000000	1.43553   	1500.000000	1.38638   	1500.000000	1.40394   	1500.000000	0.000136397	
1520.000000	1.39522   	1520.000000	1.40275   	1520.000000	1.43377   	1520.000000	1.38468   	1520.000000	1.40262   	1520.000000	0.000134737	
1540.000000	1.39412   	1540.000000	1.40152   	1540.000000	1.4321    	1540.000000	1.38307   	1540.000000	1.40139   	1540.000000	0.000133119	
1560.000000	1.39312   	1560.000000	1.40039   	1560.000000	1.4305    	1560.000000	1.38153   	1560.000000	1.40026   	1560.000000	0.00013154	
1580.000000	1.39224   	1580.000000	1.39934   	1580.000000	1.42899   	1580.000000	1.38006   	1580.000000	1.39921   	1580.000000	0.000129999	
1600.000000	1.39146   	1600.000000	1.39838   	1600.000000	1.42754   	1600.000000	1.37866   	1600.000000	1.39825   	1600.000000	0.000128496	
1620.000000	1.39078   	1620.000000	1.39751   	1620.000000	1.42617   	1620.000000	1.37733   	1620.000000	1.39738   	1620.000000	0.000127028	
1640.000000	1.3902    	1640.000000	1.39671   	1640.000000	1.42487   	1640.000000	1.37607   	1640.000000	1.39659   	1640.000000	0.000125594	
1660.000000	1.38971   	1660.000000	1.39599   	1660.000000	1.42363   	1660.000000	1.37487   	1660.000000	1.39587   	1660.000000	0.000124194	
1680.000000	1.38931   	1680.000000	1.39535   	1680.000000	1.42246   	1680.000000	1.37372   	1680.000000	1.39523   	1680.000000	0.000122825	
1700.000000	1.38901   	1700.000000	1.39478   	1700.000000	1.42134   	1700.000000	1.37263   	1700.000000	1.39466   	1700.000000	0.000121488	
1750.000000	1.3886    	1750.000000	1.39365   	1750.000000	1.41878   	1750.000000	1.37015   	1750.000000	1.39353   	1750.000000	0.000118273	
1800.000000	1.38869   	1800.000000	1.39292   	1800.000000	1.41652   	1800.000000	1.36798   	1800.000000	1.3928    	1800.000000	0.000115229	
1850.000000	1.38923   	1850.000000	1.39256   	1850.000000	1.41453   	1850.000000	1.36608   	1850.000000	1.39245   	1850.000000	0.000112344	
1900.000000	1.39019   	1900.000000	1.39253   	1900.000000	1.41278   	1900.000000	1.36444   	1900.000000	1.39242   	1900.000000	0.000109604	
1950.000000	1.39155   	1950.000000	1.39282   	1950.000000	1.41127   	1950.000000	1.36302   	1950.000000	1.39272   	1950.000000	0.000107  	
2000.000000	1.39328   	2000.000000	1.3934    	2000.000000	1.40998   	2000.000000	1.36182   	2000.000000	1.3933    	2000.000000	0.00010452	
2100.000000	1.39775   	2100.000000	1.39535   	2100.000000	1.408     	2100.000000	1.35997   	2100.000000	1.39525   	2100.000000	9.99019e-05	
2200.000000	1.40342   	2200.000000	1.39822   	2200.000000	1.40669   	2200.000000	1.35876   	2200.000000	1.39812   	2200.000000	9.56876e-05	
2300.000000	1.41016   	2300.000000	1.4019    	2300.000000	1.40593   	2300.000000	1.35808   	2300.000000	1.40181   	2300.000000	9.18258e-05	
2400.000000	1.41786   	2400.000000	1.40628   	2400.000000	1.40562   	2400.000000	1.35785   	2400.000000	1.4062    	2400.000000	8.82737e-05	
2500.000000	1.42641   	2500.000000	1.41129   	2500.000000	1.40568   	2500.000000	1.35801   	2500.000000	1.41121   	2500.000000	8.4995e-05	
2600.000000	1.43574   	2600.000000	1.41685   	2600.000000	1.40606   	2600.000000	1.35848   	2600.000000	1.41677   	2600.000000	8.1959e-05	
2700.000000	1.44576   	2700.000000	1.42289   	2700.000000	1.40671   	2700.000000	1.35923   	2700.000000	1.42281   	2700.000000	7.91394e-05	
2800.000000	1.45641   	2800.000000	1.42937   	2800.000000	1.4076    	2800.000000	1.36021   	2800.000000	1.42929   	2800.000000	7.65136e-05	
2900.000000	1.46765   	2900.000000	1.43624   	2900.000000	1.4087    	2900.000000	1.36138   	2900.000000	1.43616   	2900.000000	7.40622e-05	
3000.000000	1.47942   	3000.000000	1.44345   	3000.000000	1.40997   	3000.000000	1.36272   	3000.000000	1.44338   	3000.000000	7.1768e-05	
3200.000000	1.50441   	3200.000000	1.4588    	3200.000000	1.41294   	3200.000000	1.36582   	3200.000000	1.45873   	3200.000000	6.75941e-05	
3400.000000	1.53111   	3400.000000	1.47518   	3400.000000	1.41635   	3400.000000	1.36932   	3400.000000	1.47512   	3400.000000	6.38934e-05	
3600.000000	1.55929   	3600.000000	1.49242   	3600.000000	1.42006   	3600.000000	1.37312   	3600.000000	1.49236   	3600.000000	6.05891e-05	
3800.000000	1.58879   	3800.000000	1.51037   	3800.000000	1.42399   	3800.000000	1.37713   	3800.000000	1.51032   	3800.000000	5.762e-05 	
4000.000000	1.61947   	4000.000000	1.52893   	4000.000000	1.42808   	4000.000000	1.38128   	4000.000000	1.52888   	4000.000000	5.49371e-05	
4200.000000	1.65122   	4200.000000	1.548     	4200.000000	1.43226   	4200.000000	1.38552   	4200.000000	1.54795   	4200.000000	5.25005e-05	
4400.000000	1.68394   	4400.000000	1.56751   	4400.000000	1.43649   	4400.000000	1.38982   	4400.000000	1.56746   	4400.000000	5.02774e-05	
4600.000000	1.71756   	4600.000000	1.5874    	4600.000000	1.44074   	4600.000000	1.39413   	4600.000000	1.58735   	4600.000000	4.82407e-05	
4800.000000	1.75201   	4800.000000	1.60761   	4800.000000	1.445     	4800.000000	1.39845   	4800.000000	1.60756   	4800.000000	4.63677e-05	
5000.000000	1.78724   	5000.000000	1.6281    	5000.000000	1.44924   	5000.000000	1.40275   	5000.000000	1.62806   	5000.000000	4.46391e-05	
5250.000000	1.83229   	5250.000000	1.65406   	5250.000000	1.45449   	5250.000000	1.40808   	5250.000000	1.65402   	5250.000000	4.2657e-05	
5500.000000	1.87841   	5500.000000	1.68035   	5500.000000	1.45968   	5500.000000	1.41334   	5500.000000	1.68031   	5500.000000	4.08487e-05	
6000.000000	1.9736    	6000.000000	1.73373   	6000.000000	1.46983   	6000.000000	1.42362   	6000.000000	1.73369   	6000.000000	3.76687e-05	
6500.000000	2.0724    	6500.000000	1.78793   	6500.000000	1.47961   	6500.000000	1.43351   	6500.000000	1.78789   	6500.000000	3.49613e-05	
7000.000000	2.17453   	7000.000000	1.84274   	7000.000000	1.48902   	7000.000000	1.44301   	7000.000000	1.84271   	7000.000000	3.26276e-05	
7500.000000	2.27978   	7500.000000	1.89802   	7500.000000	1.49805   	7500.000000	1.4521    	7500.000000	1.89799   	7500.000000	3.05946e-05	
8000.000000	2.38799   	8000.000000	1.95364   	8000.000000	1.50662   	8000.000000	1.4608    	8000.000000	1.95361   	8000.000000	2.8807e-05	
8500.000000	2.49903   	8500.000000	2.00953   	8500.000000	1.51481   	8500.000000	1.46913   	8500.000000	2.00951   	8500.000000	2.72227e-05	
9000.000000	2.61281   	9000.000000	2.06562   	9000.000000	1.52265   	9000.000000	1.47709   	9000.000000	2.0656    	9000.000000	2.58084e-05	
9500.000000	2.72925   	9500.000000	2.12187   	9500.000000	1.53018   	9500.000000	1.48472   	9500.000000	2.12184   	9500.000000	2.4538e-05	
10000.000000	2.8483    	10000.000000	2.17822   	10000.000000	1.53739   	10000.000000	1.49202   	10000.000000	2.17819   	10000.000000	2.33903e-05	
11000.000000	3.09401   	11000.000000	2.29114   	11000.000000	1.55091   	11000.000000	1.50577   	11000.000000	2.29112   	11000.000000	2.13978e-05	
12000.000000	3.34967   	12000.000000	2.40421   	12000.000000	1.56333   	12000.000000	1.51846   	12000.000000	2.40419   	12000.000000	1.97267e-05	
13000.000000	3.61508   	13000.000000	2.51732   	13000.000000	1.57482   	13000.000000	1.53023   	13000.000000	2.5173    	13000.000000	1.83044e-05	
14000.000000	3.8901    	14000.000000	2.63038   	14000.000000	1.58553   	14000.000000	1.5412    	14000.000000	2.63036   	14000.000000	1.70787e-05	
15000.000000	4.17466   	15000.000000	2.74335   	15000.000000	1.59553   	15000.000000	1.55144   	15000.000000	2.74333   	15000.000000	1.60112e-05	
16000.000000	4.4687    	16000.000000	2.85619   	16000.000000	1.60486   	16000.000000	1.56105   	16000.000000	2.85617   	16000.000000	1.50728e-05	
17000.000000	4.77219   	17000.000000	2.96888   	17000.000000	1.61359   	17000.000000	1.57009   	17000.000000	2.96886   	17000.000000	1.42412e-05	
18000.000000	5.08511   	18000.000000	3.0814    	18000.000000	1.62178   	18000.000000	1.57861   	18000.000000	3.08138   	18000.000000	1.34991e-05	
19000.000000	5.40746   	19000.000000	3.19374   	19000.000000	1.62949   	19000.000000	1.58668   	19000.000000	3.19373   	19000.000000	1.28326e-05	
20000.000000	5.73924   	20000.000000	3.30591   	20000.000000	1.63678   	20000.000000	1.59432   	20000.000000	3.30589   	20000.000000	1.22306e-05	
21000.000000	6.08047   	21000.000000	3.41789   	21000.000000	1.64369   	21000.000000	1.60159   	21000.000000	3.41788   	21000.000000	1.16841e-05	
22000.000000	6.43116   	22000.000000	3.52968   	22000.000000	1.65024   	22000.000000	1.60852   	22000.000000	3.52967   	22000.000000	1.11856e-05	
23000.000000	6.79134   	23000.000000	3.64129   	23000.000000	1.65643   	23000.000000	1.61512   	23000.000000	3.64128   	23000.000000	1.07292e-05	
24000.000000	7.16105   	24000.000000	3.75272   	24000.000000	1.66234   	24000.000000	1.62144   	24000.000000	3.75271   	24000.000000	1.03095e-05	
25000.000000	7.5403    	25000.000000	3.86396   	25000.000000	1.66801   	25000.000000	1.62749   	25000.000000	3.86395   	25000.000000	9.92235e-06	
26000.000000	7.92914   	26000.000000	3.97503   	26000.000000	1.67341   	26000.000000	1.63329   	26000.000000	3.97502   	26000.000000	9.56402e-06	
27000.000000	8.32761   	27000.000000	4.08592   	27000.000000	1.67854   	27000.000000	1.63886   	27000.000000	4.08591   	27000.000000	9.23139e-06	
28000.000000	8.73574   	28000.000000	4.19664   	28000.000000	1.68343   	28000.000000	1.64422   	28000.000000	4.19663   	28000.000000	8.92177e-06	
29000.000000	9.15358   	29000.000000	4.30719   	29000.000000	1.68811   	29000.000000	1.64938   	29000.000000	4.30718   	29000.000000	8.63281e-06	
30000.000000	9.58116   	30000.000000	4.41758   	30000.000000	1.69261   	30000.000000	1.65436   	30000.000000	4.41757   	30000.000000	8.36251e-06	
32000.000000	10.4658   	32000.000000	4.63787   	32000.000000	1.70108   	32000.000000	1.66381   	32000.000000	4.63786   	32000.000000	7.87101e-06	
34000.000000	11.3899   	34000.000000	4.85754   	34000.000000	1.70892   	34000.000000	1.67265   	34000.000000	4.85753   	34000.000000	7.43556e-06	
36000.000000	12.354    	36000.000000	5.07662   	36000.000000	1.71615   	36000.000000	1.68095   	36000.000000	5.07662   	36000.000000	7.047e-06 	
38000.000000	13.3584   	38000.000000	5.29514   	38000.000000	1.72282   	38000.000000	1.68878   	38000.000000	5.29513   	38000.000000	6.69808e-06	
40000.000000	14.4035   	40000.000000	5.51312   	40000.000000	1.72901   	40000.000000	1.69618   	40000.000000	5.51311   	40000.000000	6.38299e-06	
42000.000000	15.4898   	42000.000000	5.73057   	42000.000000	1.7348    	42000.000000	1.70319   	42000.000000	5.73057   	42000.000000	6.09698e-06	
44000.000000	16.6177   	44000.000000	5.94754   	44000.000000	1.74025   	44000.000000	1.70985   	44000.000000	5.94753   	44000.000000	5.83618e-06	
46000.000000	17.7876   	46000.000000	6.16402   	46000.000000	1.74541   	46000.000000	1.71619   	46000.000000	6.16402   	46000.000000	5.59736e-06	
48000.000000	19        	48000.000000	6.38005   	48000.000000	1.75029   	48000.000000	1.72225   	48000.000000	6.38005   	48000.000000	5.37784e-06	
50000.000000	20.2552   	50000.000000	6.59565   	50000.000000	1.75485   	50000.000000	1.72804   	50000.000000	6.59564   	50000.000000	5.17533e-06	
