0.001000	5.78661   	0.001000	5.77332   	0.001000	5.80168   	0.001000	5.80168   	0.001000	1.67256   	0.001000	4.10077   	
0.002000	5.81806   	0.002000	5.74065   	0.002000	5.78281   	0.002000	5.78281   	0.002000	2.19165   	0.002000	3.549     	
0.005000	5.99811   	0.005000	5.67121   	0.005000	5.74933   	0.005000	5.74933   	0.005000	3.13578   	0.005000	2.53543   	
0.008000	6.29916   	0.008000	5.78412   	0.008000	5.89367   	0.008000	5.89367   	0.008000	3.76988   	0.008000	2.01424   	
0.010000	6.5134    	0.010000	5.89946   	0.010000	6.02838   	0.010000	6.02838   	0.010000	4.11477   	0.010000	1.78469   	
0.015000	7.35814   	0.015000	6.28249   	0.015000	6.45321   	0.015000	6.45321   	0.015000	4.87417   	0.015000	1.40831   	
0.020000	8.17035   	0.020000	6.80855   	0.020000	7.11847   	0.020000	7.11847   	0.020000	5.63207   	0.020000	1.17648   	
0.025000	9.13854   	0.025000	7.49133   	0.025000	7.84827   	0.025000	7.84827   	0.025000	6.47414   	0.025000	1.01719   	
0.030000	10.0285   	0.030000	8.18886   	0.030000	8.54376   	0.030000	8.54376   	0.030000	7.28885   	0.030000	0.900012  	
0.035000	10.8137   	0.035000	8.88536   	0.035000	9.24619   	0.035000	9.24619   	0.035000	8.07568   	0.035000	0.809683  	
0.040000	11.4932   	0.040000	9.57095   	0.040000	9.94665   	0.040000	9.94665   	0.040000	8.83332   	0.040000	0.737627  	
0.045000	12.0538   	0.045000	10.2335   	0.045000	10.634    	0.045000	10.634    	0.045000	9.56028   	0.045000	0.673214  	
0.050000	12.4943   	0.050000	10.8795   	0.050000	11.3155   	0.050000	11.3155   	0.050000	10.2551   	0.050000	0.624394  	
0.055000	13.2081   	0.055000	11.5906   	0.055000	11.9824   	0.055000	11.9824   	0.055000	11.0078   	0.055000	0.582855  	
0.060000	13.8512   	0.060000	12.2832   	0.060000	12.6319   	0.060000	12.6319   	0.060000	11.7369   	0.060000	0.546329  	
0.070000	14.9326   	0.070000	13.6071   	0.070000	13.8767   	0.070000	13.8767   	0.070000	13.1194   	0.070000	0.487637  	
0.080000	16.0826   	0.080000	14.8219   	0.080000	15.0417   	0.080000	15.0417   	0.080000	14.3806   	0.080000	0.441352  	
0.090000	17.0568   	0.090000	15.9353   	0.090000	16.1238   	0.090000	16.1238   	0.090000	15.5315   	0.090000	0.403816  	
0.100000	17.8913   	0.100000	16.9469   	0.100000	17.123    	0.100000	17.123    	0.100000	16.5742   	0.100000	0.372694  	
0.120000	18.8193   	0.120000	18.72     	0.120000	18.8814   	0.120000	18.8814   	0.120000	18.3961   	0.120000	0.323932  	
0.140000	19.5444   	0.140000	20.1785   	0.140000	20.3463   	0.140000	20.3463   	0.140000	19.8912   	0.140000	0.287334  	
0.160000	20.2086   	0.160000	21.4011   	0.160000	21.5562   	0.160000	21.5562   	0.160000	21.1424   	0.160000	0.258752  	
0.180000	20.8425   	0.180000	22.4003   	0.180000	22.5509   	0.180000	22.5509   	0.180000	22.1646   	0.180000	0.235753  	
0.200000	21.4758   	0.200000	23.227    	0.200000	23.3678   	0.200000	23.3678   	0.200000	23.0102   	0.200000	0.216808  	
0.250000	22.3618   	0.250000	24.6374   	0.250000	24.8351   	0.250000	24.8351   	0.250000	24.4561   	0.250000	0.181291  	
0.300000	23.5114   	0.300000	25.9311   	0.300000	25.764    	0.300000	25.764    	0.300000	25.7747   	0.300000	0.156417  	
0.350000	24.584    	0.350000	27.0173   	0.350000	26.3828   	0.350000	26.3828   	0.350000	26.8793   	0.350000	0.137943  	
0.400000	25.4765   	0.400000	27.8834   	0.400000	27.1127   	0.400000	27.1127   	0.400000	27.7598   	0.400000	0.123634  	
0.450000	26.209    	0.450000	28.6061   	0.450000	28.5541   	0.450000	28.5541   	0.450000	28.4939   	0.450000	0.112198  	
0.500000	26.9919   	0.500000	29.4221   	0.500000	29.4109   	0.500000	29.4109   	0.500000	29.3193   	0.500000	0.10283   	
0.600000	27.5028   	0.600000	30.3572   	0.600000	30.0093   	0.600000	30.0093   	0.600000	30.2689   	0.600000	0.0883623 	
0.700000	27.4363   	0.700000	30.8774   	0.700000	30.3534   	0.700000	30.3534   	0.700000	30.7997   	0.700000	0.0776746 	
0.800000	28.0693   	0.800000	31.1377   	0.800000	30.5336   	0.800000	30.5336   	0.800000	31.0683   	0.800000	0.0694323 	
0.900000	28.319    	0.900000	31.0369   	0.900000	30.5982   	0.900000	30.5982   	0.900000	30.974    	0.900000	0.0628678 	
1.000000	28.3923   	1.000000	30.7849   	1.000000	30.5774   	1.000000	30.5774   	1.000000	30.7274   	1.000000	0.057507  	
1.250000	28.1009   	1.250000	30.6188   	1.250000	30.2722   	1.250000	30.2722   	1.250000	30.5712   	1.250000	0.0475746 	
1.500000	27.3459   	1.500000	30.0238   	1.500000	29.6122   	1.500000	29.6122   	1.500000	29.9831   	1.500000	0.0407138 	
1.750000	26.3874   	1.750000	29.2217   	1.750000	28.7827   	1.750000	28.7827   	1.750000	29.1861   	1.750000	0.0356717 	
2.000000	25.3487   	2.000000	28.3291   	2.000000	27.9836   	2.000000	27.9836   	2.000000	28.2973   	2.000000	0.0317996 	
2.250000	24.4213   	2.250000	27.3323   	2.250000	27.2154   	2.250000	27.2154   	2.250000	27.3036   	2.250000	0.0287264 	
2.500000	26.9801   	2.500000	26.328    	2.500000	26.479    	2.500000	26.479    	2.500000	26.3018   	2.500000	0.0262242 	
3.000000	25.1836   	3.000000	24.5785   	3.000000	25.1016   	3.000000	25.1016   	3.000000	24.5561   	3.000000	0.0223876 	
3.500000	23.5776   	3.500000	23.2464   	3.500000	23.8471   	3.500000	23.8471   	3.500000	23.2269   	3.500000	0.0195765 	
4.000000	22.1535   	4.000000	22.0895   	4.000000	22.7056   	4.000000	22.7056   	4.000000	22.0721   	4.000000	0.0174228 	
4.500000	20.8907   	4.500000	21.0499   	4.500000	21.6656   	4.500000	21.6656   	4.500000	21.0341   	4.500000	0.015717  	
5.000000	19.767    	5.000000	20.1046   	5.000000	20.7159   	5.000000	20.7159   	5.000000	20.0903   	5.000000	0.0143305 	
5.500000	18.7625   	5.500000	19.2577   	5.500000	19.8462   	5.500000	19.8462   	5.500000	19.2445   	5.500000	0.01318   	
6.000000	17.8602   	6.000000	18.4795   	6.000000	19.0473   	6.000000	19.0473   	6.000000	18.4673   	6.000000	0.0122092 	
6.500000	17.0456   	6.500000	17.762    	6.500000	18.3111   	6.500000	18.3111   	6.500000	17.7507   	6.500000	0.0113782 	
7.000000	16.3067   	7.000000	17.0985   	7.000000	17.6308   	7.000000	17.6308   	7.000000	17.0878   	7.000000	0.0106585 	
7.500000	15.6336   	7.500000	16.4832   	7.500000	17.0002   	7.500000	17.0002   	7.500000	16.4732   	7.500000	0.0100288 	
8.000000	15.0178   	8.000000	15.9115   	8.000000	16.4141   	8.000000	16.4141   	8.000000	15.902    	8.000000	0.00947293	
8.500000	14.4524   	8.500000	15.3788   	8.500000	15.868    	8.500000	15.868    	8.500000	15.3698   	8.500000	0.00897838	
9.000000	13.9312   	9.000000	14.8814   	9.000000	15.358    	9.000000	15.358    	9.000000	14.8729   	9.000000	0.0085354 	
9.500000	13.4493   	9.500000	14.4159   	9.500000	14.8805   	9.500000	14.8805   	9.500000	14.4078   	9.500000	0.00813619	
10.000000	13.0024   	10.000000	14.4072   	10.000000	14.4325   	10.000000	14.4325   	10.000000	14.3994   	10.000000	0.00777447	
11.000000	12.199    	11.000000	13.6169   	11.000000	13.5698   	11.000000	13.6404   	11.000000	13.6098   	11.000000	0.00714385	
12.000000	11.497    	12.000000	12.911    	12.000000	12.8088   	12.000000	12.9327   	12.000000	12.9044   	12.000000	0.00661226	
13.000000	10.878    	13.000000	12.277    	13.000000	12.1329   	13.000000	12.2971   	13.000000	12.2709   	13.000000	0.00615774	
14.000000	10.3279   	14.000000	11.7047   	14.000000	11.5288   	14.000000	11.7234   	14.000000	11.6989   	14.000000	0.00576442	
15.000000	9.83564   	15.000000	11.1856   	15.000000	10.9857   	15.000000	11.2033   	15.000000	11.1802   	15.000000	0.00542056	
16.000000	9.39241   	16.000000	10.7127   	16.000000	10.4949   	16.000000	10.7298   	16.000000	10.7075   	16.000000	0.00511722	
17.000000	8.9911    	17.000000	10.2801   	17.000000	10.0496   	17.000000	10.2971   	17.000000	10.2752   	17.000000	0.00484755	
18.000000	8.62594   	18.000000	9.88294   	18.000000	9.64398   	18.000000	9.90043   	18.000000	9.87833   	18.000000	0.00460615	
19.000000	8.29218   	19.000000	9.51704   	19.000000	9.27311   	19.000000	9.53556   	19.000000	9.51265   	19.000000	0.00438874	
20.000000	7.98585   	20.000000	9.17886   	20.000000	8.93286   	20.000000	9.19902   	20.000000	9.17467   	20.000000	0.00419184	
21.000000	7.70366   	21.000000	8.86537   	21.000000	8.61975   	21.000000	8.88778   	21.000000	8.86136   	21.000000	0.00401265	
22.000000	7.44281   	22.000000	8.57397   	22.000000	8.33081   	22.000000	8.59924   	22.000000	8.57013   	22.000000	0.00384884	
23.000000	7.20092   	23.000000	8.30241   	23.000000	8.06342   	23.000000	8.33116   	23.000000	8.29871   	23.000000	0.00369849	
24.000000	6.97596   	24.000000	8.04872   	24.000000	7.81527   	24.000000	8.08155   	24.000000	8.04516   	24.000000	0.00355997	
25.000000	6.76619   	25.000000	7.81121   	25.000000	7.58459   	25.000000	7.84872   	25.000000	7.80777   	25.000000	0.00343192	
27.000000	6.38633   	27.000000	7.37887   	27.000000	7.17022   	27.000000	7.42748   	27.000000	7.37567   	27.000000	0.00320276	
29.000000	6.05141   	29.000000	6.99543   	29.000000	6.8086    	29.000000	7.05732   	29.000000	6.99243   	29.000000	0.00300353	
31.000000	5.75376   	31.000000	6.65302   	31.000000	6.48891   	31.000000	6.71745   	31.000000	6.6502    	31.000000	0.00282867	
33.000000	5.48739   	33.000000	6.3454    	33.000000	6.20084   	33.000000	6.40136   	33.000000	6.34273   	33.000000	0.00267388	
35.000000	5.24754   	35.000000	6.06752   	35.000000	5.93999   	35.000000	6.11642   	35.000000	6.06499   	35.000000	0.00253587	
38.000000	4.92928   	38.000000	5.69767   	38.000000	5.59188   	38.000000	5.73802   	38.000000	5.69531   	38.000000	0.00235469	
41.000000	4.65209   	41.000000	5.37464   	41.000000	5.28625   	41.000000	5.4083    	41.000000	5.37245   	41.000000	0.00219868	
44.000000	4.40837   	44.000000	5.09009   	44.000000	5.01525   	44.000000	5.1184    	44.000000	5.08803   	44.000000	0.00206288	
47.000000	4.19231   	47.000000	4.83751   	47.000000	4.77432   	47.000000	4.8615    	47.000000	4.83556   	47.000000	0.00194354	
50.000000	3.99937   	50.000000	4.61179   	50.000000	4.55866   	50.000000	4.63225   	50.000000	4.60996   	50.000000	0.0018378 	
55.000000	3.71976   	55.000000	4.28461   	55.000000	4.24471   	55.000000	4.30042   	55.000000	4.28292   	55.000000	0.00168596	
60.000000	3.48215   	60.000000	4.00667   	60.000000	3.97676   	60.000000	4.01896   	60.000000	4.00511   	60.000000	0.00155821	
65.000000	3.27758   	65.000000	3.76762   	65.000000	3.74554   	65.000000	3.77716   	65.000000	3.76617   	65.000000	0.00144917	
70.000000	3.09949   	70.000000	3.55982   	70.000000	3.54408   	70.000000	3.56715   	70.000000	3.55847   	70.000000	0.00135496	
75.000000	2.94296   	75.000000	3.37751   	75.000000	3.36648   	75.000000	3.38302   	75.000000	3.37623   	75.000000	0.00127272	
80.000000	2.80422   	80.000000	3.21625   	80.000000	3.20924   	80.000000	3.22024   	80.000000	3.21505   	80.000000	0.00120026	
85.000000	2.68035   	85.000000	3.07259   	85.000000	3.06862   	85.000000	3.07528   	85.000000	3.07145   	85.000000	0.00113593	
90.000000	2.56904   	90.000000	2.94379   	90.000000	2.94247   	90.000000	2.94536   	90.000000	2.94271   	90.000000	0.0010784 	
95.000000	2.46842   	95.000000	2.82765   	95.000000	2.82864   	95.000000	2.82823   	95.000000	2.82662   	95.000000	0.00102665	
100.000000	2.377     	100.000000	2.72238   	100.000000	2.72507   	100.000000	2.72209   	100.000000	2.7214    	100.000000	0.000979823	
105.000000	2.29354   	105.000000	2.62653   	105.000000	2.63073   	105.000000	2.62544   	105.000000	2.62559   	105.000000	0.000937249	
110.000000	2.21703   	110.000000	2.53888   	110.000000	2.54415   	110.000000	2.53708   	110.000000	2.53798   	110.000000	0.000898363	
115.000000	2.1466    	115.000000	2.45841   	115.000000	2.46458   	115.000000	2.45596   	115.000000	2.45754   	115.000000	0.000862701	
120.000000	2.08156   	120.000000	2.38427   	120.000000	2.39125   	120.000000	2.38124   	120.000000	2.38344   	120.000000	0.000829873	
125.000000	2.02129   	125.000000	2.31575   	125.000000	2.32346   	125.000000	2.31218   	125.000000	2.31495   	125.000000	0.000799548	
130.000000	1.96526   	130.000000	2.25223   	130.000000	2.26057   	130.000000	2.24816   	130.000000	2.25146   	130.000000	0.000771448	
135.000000	1.91305   	135.000000	2.19317   	135.000000	2.20188   	135.000000	2.18864   	135.000000	2.19243   	135.000000	0.000745333	
140.000000	1.86425   	140.000000	2.13813   	140.000000	2.14726   	140.000000	2.13317   	140.000000	2.13741   	140.000000	0.000720997	
145.000000	1.81854   	145.000000	2.08669   	145.000000	2.09631   	145.000000	2.08134   	145.000000	2.086     	145.000000	0.000698262	
150.000000	1.77564   	150.000000	2.03853   	150.000000	2.0484    	150.000000	2.03281   	150.000000	2.03786   	150.000000	0.000676973	
155.000000	1.71501   	155.000000	1.99334   	155.000000	2.00327   	155.000000	1.98728   	155.000000	1.99268   	155.000000	0.000656994	
160.000000	1.67957   	160.000000	1.95084   	160.000000	1.96086   	160.000000	1.94446   	160.000000	1.9502    	160.000000	0.000638207	
165.000000	1.64613   	165.000000	1.91081   	165.000000	1.92104   	165.000000	1.90414   	165.000000	1.91019   	165.000000	0.000620507	
170.000000	1.61452   	170.000000	1.87303   	170.000000	1.88334   	170.000000	1.86609   	170.000000	1.87243   	170.000000	0.0006038 	
175.000000	1.5846    	175.000000	1.83732   	175.000000	1.84765   	175.000000	1.83013   	175.000000	1.83674   	175.000000	0.000588005	
180.000000	1.55623   	180.000000	1.80352   	180.000000	1.81399   	180.000000	1.7961    	180.000000	1.80295   	180.000000	0.000573047	
185.000000	1.5293    	185.000000	1.77148   	185.000000	1.78207   	185.000000	1.76383   	185.000000	1.77092   	185.000000	0.000558861	
190.000000	1.50369   	190.000000	1.74105   	190.000000	1.75165   	190.000000	1.73321   	190.000000	1.74051   	190.000000	0.000545387	
195.000000	1.47931   	195.000000	1.71213   	195.000000	1.72272   	195.000000	1.7041    	195.000000	1.7116    	195.000000	0.000532574	
200.000000	1.45607   	200.000000	1.68461   	200.000000	1.69521   	200.000000	1.6764    	200.000000	1.68409   	200.000000	0.000520372	
210.000000	1.41272   	210.000000	1.63335   	210.000000	1.64397   	210.000000	1.62484   	210.000000	1.63285   	210.000000	0.000497634	
220.000000	1.37307   	220.000000	1.58661   	220.000000	1.59726   	220.000000	1.57783   	220.000000	1.58613   	220.000000	0.000476873	
230.000000	1.33667   	230.000000	1.5438    	230.000000	1.55431   	230.000000	1.53481   	230.000000	1.54335   	230.000000	0.000457838	
240.000000	1.30313   	240.000000	1.50447   	240.000000	1.51497   	240.000000	1.49529   	240.000000	1.50403   	240.000000	0.00044032	
250.000000	1.27213   	250.000000	1.46819   	250.000000	1.47866   	250.000000	1.45886   	250.000000	1.46777   	250.000000	0.000424143	
260.000000	1.24339   	260.000000	1.43464   	260.000000	1.44497   	260.000000	1.42519   	260.000000	1.43423   	260.000000	0.000409155	
270.000000	1.21666   	270.000000	1.40351   	270.000000	1.41382   	270.000000	1.39398   	270.000000	1.40312   	270.000000	0.00039523	
280.000000	1.19176   	280.000000	1.37457   	280.000000	1.38493   	280.000000	1.36496   	280.000000	1.37418   	280.000000	0.000382256	
290.000000	1.16849   	290.000000	1.34758   	290.000000	1.3579    	290.000000	1.33792   	290.000000	1.34721   	290.000000	0.000370138	
300.000000	1.1467    	300.000000	1.32236   	300.000000	1.33264   	300.000000	1.31268   	300.000000	1.322     	300.000000	0.000358794	
310.000000	1.12625   	310.000000	1.29874   	310.000000	1.309     	310.000000	1.28905   	310.000000	1.2984    	310.000000	0.000348149	
320.000000	1.10703   	320.000000	1.27659   	320.000000	1.28684   	320.000000	1.2669    	320.000000	1.27625   	320.000000	0.000338142	
330.000000	1.08893   	330.000000	1.25576   	330.000000	1.26601   	330.000000	1.24609   	330.000000	1.25543   	330.000000	0.000328714	
340.000000	1.07185   	340.000000	1.23615   	340.000000	1.24641   	340.000000	1.22651   	340.000000	1.23583   	340.000000	0.000319818	
350.000000	1.05572   	350.000000	1.21765   	350.000000	1.22793   	350.000000	1.20805   	350.000000	1.21734   	350.000000	0.000311408	
360.000000	1.04046   	360.000000	1.20018   	360.000000	1.2105    	360.000000	1.19063   	360.000000	1.19987   	360.000000	0.000303446	
370.000000	1.02599   	370.000000	1.18365   	370.000000	1.19392   	370.000000	1.17407   	370.000000	1.18335   	370.000000	0.000295895	
380.000000	1.01227   	380.000000	1.16799   	380.000000	1.17816   	380.000000	1.1584    	380.000000	1.1677    	380.000000	0.000288726	
390.000000	0.999229  	390.000000	1.15314   	390.000000	1.16321   	390.000000	1.14354   	390.000000	1.15286   	390.000000	0.000281908	
400.000000	0.98683   	400.000000	1.13904   	400.000000	1.14906   	400.000000	1.12945   	400.000000	1.13876   	400.000000	0.000275416	
410.000000	0.975024  	410.000000	1.12563   	410.000000	1.13565   	410.000000	1.11605   	410.000000	1.12536   	410.000000	0.000269228	
420.000000	0.963771  	420.000000	1.11287   	420.000000	1.12291   	420.000000	1.10331   	420.000000	1.1126    	420.000000	0.000263322	
430.000000	0.953035  	430.000000	1.10071   	430.000000	1.11074   	430.000000	1.09118   	430.000000	1.10045   	430.000000	0.000257679	
440.000000	0.942783  	440.000000	1.08911   	440.000000	1.0991    	440.000000	1.07962   	440.000000	1.08886   	440.000000	0.000252282	
450.000000	0.932983  	450.000000	1.07804   	450.000000	1.08798   	450.000000	1.06859   	450.000000	1.0778    	450.000000	0.000247115	
460.000000	0.923607  	460.000000	1.06747   	460.000000	1.07741   	460.000000	1.05806   	460.000000	1.06723   	460.000000	0.000242163	
470.000000	0.914631  	470.000000	1.05735   	470.000000	1.06733   	470.000000	1.04799   	470.000000	1.05712   	470.000000	0.000237413	
480.000000	0.90603   	480.000000	1.04768   	480.000000	1.05766   	480.000000	1.03836   	480.000000	1.04744   	480.000000	0.000232852	
490.000000	0.897783  	490.000000	1.0384    	490.000000	1.04837   	490.000000	1.02915   	490.000000	1.03818   	490.000000	0.00022847	
500.000000	0.889869  	500.000000	1.02952   	500.000000	1.03948   	500.000000	1.02032   	500.000000	1.02929   	500.000000	0.000224256	
520.000000	0.874969  	520.000000	1.01282   	520.000000	1.02285   	520.000000	1.00374   	520.000000	1.0126    	520.000000	0.000216293	
540.000000	0.861196  	540.000000	0.997408  	540.000000	1.00749   	540.000000	0.988469  	540.000000	0.997199  	540.000000	0.000208897	
560.000000	0.848437  	560.000000	0.98316   	560.000000	0.993247  	560.000000	0.974357  	560.000000	0.982958  	560.000000	0.000202007	
580.000000	0.836592  	580.000000	0.969957  	580.000000	0.980064  	580.000000	0.961292  	580.000000	0.969761  	580.000000	0.000195573	
600.000000	0.825574  	600.000000	0.957695  	600.000000	0.967885  	600.000000	0.949169  	600.000000	0.957506  	600.000000	0.00018955	
620.000000	0.815307  	620.000000	0.946287  	620.000000	0.956576  	620.000000	0.937897  	620.000000	0.946103  	620.000000	0.000183901	
640.000000	0.805725  	640.000000	0.935654  	640.000000	0.945994  	640.000000	0.927398  	640.000000	0.935475  	640.000000	0.00017859	
660.000000	0.796768  	660.000000	0.925727  	660.000000	0.936097  	660.000000	0.917602  	660.000000	0.925553  	660.000000	0.000173588	
680.000000	0.788385  	680.000000	0.916446  	680.000000	0.926855  	680.000000	0.908447  	680.000000	0.916278  	680.000000	0.000168868	
700.000000	0.780529  	700.000000	0.907758  	700.000000	0.918208  	700.000000	0.899877  	700.000000	0.907593  	700.000000	0.000164407	
720.000000	0.773158  	720.000000	0.899613  	720.000000	0.9101    	720.000000	0.891844  	720.000000	0.899452  	720.000000	0.000160184	
740.000000	0.766235  	740.000000	0.891969  	740.000000	0.902485  	740.000000	0.884305  	740.000000	0.891812  	740.000000	0.00015618	
760.000000	0.759727  	760.000000	0.884787  	760.000000	0.895325  	760.000000	0.87722   	760.000000	0.884634  	760.000000	0.000152379	
780.000000	0.753604  	780.000000	0.878032  	780.000000	0.888599  	780.000000	0.870554  	780.000000	0.877883  	780.000000	0.000148764	
800.000000	0.747837  	800.000000	0.871674  	800.000000	0.882285  	800.000000	0.864276  	800.000000	0.871529  	800.000000	0.000145323	
820.000000	0.742404  	820.000000	0.865684  	820.000000	0.876341  	820.000000	0.858356  	820.000000	0.865542  	820.000000	0.000142044	
840.000000	0.73728   	840.000000	0.860036  	840.000000	0.870721  	840.000000	0.852769  	840.000000	0.859897  	840.000000	0.000138914	
860.000000	0.732447  	860.000000	0.854707  	860.000000	0.865392  	860.000000	0.847491  	860.000000	0.854571  	860.000000	0.000135924	
880.000000	0.727884  	880.000000	0.849675  	880.000000	0.860343  	880.000000	0.8425    	880.000000	0.849542  	880.000000	0.000133064	
900.000000	0.723576  	900.000000	0.844922  	900.000000	0.855564  	900.000000	0.837778  	900.000000	0.844792  	900.000000	0.000130327	
920.000000	0.719506  	920.000000	0.84043   	920.000000	0.851042  	920.000000	0.833306  	920.000000	0.840302  	920.000000	0.000127703	
940.000000	0.71566   	940.000000	0.836181  	940.000000	0.846757  	940.000000	0.829068  	940.000000	0.836056  	940.000000	0.000125187	
960.000000	0.712026  	960.000000	0.832163  	960.000000	0.842693  	960.000000	0.825049  	960.000000	0.83204   	960.000000	0.000122772	
980.000000	0.70859   	980.000000	0.828359  	980.000000	0.838836  	980.000000	0.821235  	980.000000	0.828239  	980.000000	0.000120451	
1000.000000	0.705341  	1000.000000	0.824759  	1000.000000	0.835172  	1000.000000	0.817613  	1000.000000	0.824641  	1000.000000	0.00011822	
1020.000000	0.70227   	1020.000000	0.82135   	1020.000000	0.83169   	1020.000000	0.814172  	1020.000000	0.821234  	1020.000000	0.000116072	
1040.000000	0.699367  	1040.000000	0.818121  	1040.000000	0.828379  	1040.000000	0.810901  	1040.000000	0.818007  	1040.000000	0.000114004	
1060.000000	0.696622  	1060.000000	0.815063  	1060.000000	0.82523   	1060.000000	0.80779   	1060.000000	0.814951  	1060.000000	0.000112011	
1080.000000	0.694028  	1080.000000	0.812167  	1080.000000	0.822234  	1080.000000	0.80483   	1080.000000	0.812056  	1080.000000	0.000110089	
1100.000000	0.691577  	1100.000000	0.809422  	1100.000000	0.81938   	1100.000000	0.802011  	1100.000000	0.809314  	1100.000000	0.000108234	
1120.000000	0.689261  	1120.000000	0.806822  	1120.000000	0.816662  	1120.000000	0.799327  	1120.000000	0.806716  	1120.000000	0.000106443	
1140.000000	0.687074  	1140.000000	0.80436   	1140.000000	0.814072  	1140.000000	0.79677   	1140.000000	0.804255  	1140.000000	0.000104712	
1160.000000	0.68501   	1160.000000	0.802027  	1160.000000	0.811602  	1160.000000	0.794332  	1160.000000	0.801924  	1160.000000	0.000103038	
1180.000000	0.683062  	1180.000000	0.799818  	1180.000000	0.809247  	1180.000000	0.792008  	1180.000000	0.799717  	1180.000000	0.000101419	
1200.000000	0.681226  	1200.000000	0.797727  	1200.000000	0.807001  	1200.000000	0.789791  	1200.000000	0.797627  	1200.000000	9.98519e-05	
1220.000000	0.679496  	1220.000000	0.795748  	1220.000000	0.804858  	1220.000000	0.787676  	1220.000000	0.79565   	1220.000000	9.83341e-05	
1240.000000	0.677868  	1240.000000	0.793875  	1240.000000	0.802812  	1240.000000	0.785657  	1240.000000	0.793778  	1240.000000	9.68633e-05	
1260.000000	0.676337  	1260.000000	0.792104  	1260.000000	0.800858  	1260.000000	0.78373   	1260.000000	0.792008  	1260.000000	9.54374e-05	
1280.000000	0.674898  	1280.000000	0.79043   	1280.000000	0.798993  	1280.000000	0.781891  	1280.000000	0.790336  	1280.000000	9.40544e-05	
1300.000000	0.673548  	1300.000000	0.788848  	1300.000000	0.797211  	1300.000000	0.780134  	1300.000000	0.788755  	1300.000000	9.27122e-05	
1320.000000	0.672283  	1320.000000	0.787355  	1320.000000	0.795508  	1320.000000	0.778455  	1320.000000	0.787263  	1320.000000	9.14091e-05	
1340.000000	0.6711    	1340.000000	0.785946  	1340.000000	0.79388   	1340.000000	0.776852  	1340.000000	0.785856  	1340.000000	9.01434e-05	
1360.000000	0.669995  	1360.000000	0.784618  	1360.000000	0.792324  	1360.000000	0.77532   	1360.000000	0.784529  	1360.000000	8.89135e-05	
1380.000000	0.668964  	1380.000000	0.783367  	1380.000000	0.790838  	1380.000000	0.773856  	1380.000000	0.78328   	1380.000000	8.77179e-05	
1400.000000	0.668006  	1400.000000	0.782191  	1400.000000	0.789417  	1400.000000	0.772457  	1400.000000	0.782104  	1400.000000	8.65551e-05	
1420.000000	0.667117  	1420.000000	0.781085  	1420.000000	0.78806   	1420.000000	0.77112   	1420.000000	0.781     	1420.000000	8.54238e-05	
1440.000000	0.666294  	1440.000000	0.780048  	1440.000000	0.786763  	1440.000000	0.769842  	1440.000000	0.779964  	1440.000000	8.43228e-05	
1460.000000	0.665536  	1460.000000	0.779076  	1460.000000	0.785523  	1460.000000	0.76862   	1460.000000	0.778993  	1460.000000	8.32507e-05	
1480.000000	0.664838  	1480.000000	0.778167  	1480.000000	0.784339  	1480.000000	0.767453  	1480.000000	0.778085  	1480.000000	8.22065e-05	
1500.000000	0.664201  	1500.000000	0.777318  	1500.000000	0.783206  	1500.000000	0.766336  	1500.000000	0.777237  	1500.000000	8.1189e-05	
1520.000000	0.66362   	1520.000000	0.776527  	1520.000000	0.782122  	1520.000000	0.765269  	1520.000000	0.776446  	1520.000000	8.01974e-05	
1540.000000	0.663095  	1540.000000	0.775791  	1540.000000	0.781085  	1540.000000	0.76425   	1540.000000	0.775712  	1540.000000	7.92304e-05	
1560.000000	0.662622  	1560.000000	0.775109  	1560.000000	0.780093  	1560.000000	0.763275  	1560.000000	0.775031  	1560.000000	7.82874e-05	
1580.000000	0.662201  	1580.000000	0.774479  	1580.000000	0.779142  	1580.000000	0.762343  	1580.000000	0.774402  	1580.000000	7.73672e-05	
1600.000000	0.661829  	1600.000000	0.773899  	1600.000000	0.778232  	1600.000000	0.761453  	1600.000000	0.773822  	1600.000000	7.64693e-05	
1620.000000	0.661506  	1620.000000	0.773366  	1620.000000	0.77736   	1620.000000	0.760603  	1620.000000	0.77329   	1620.000000	7.55926e-05	
1640.000000	0.661228  	1640.000000	0.772879  	1640.000000	0.776524  	1640.000000	0.759791  	1640.000000	0.772804  	1640.000000	7.47365e-05	
1660.000000	0.660996  	1660.000000	0.772437  	1660.000000	0.775725  	1660.000000	0.759015  	1660.000000	0.772363  	1660.000000	7.39002e-05	
1680.000000	0.660806  	1680.000000	0.772038  	1680.000000	0.774961  	1680.000000	0.758274  	1680.000000	0.771965  	1680.000000	7.30831e-05	
1700.000000	0.660659  	1700.000000	0.77168   	1700.000000	0.774231  	1700.000000	0.757567  	1700.000000	0.771608  	1700.000000	7.22845e-05	
1750.000000	0.660464  	1750.000000	0.770957  	1750.000000	0.772548  	1750.000000	0.755938  	1750.000000	0.770887  	1750.000000	7.03648e-05	
1800.000000	0.660504  	1800.000000	0.770463  	1800.000000	0.771056  	1800.000000	0.754491  	1800.000000	0.770395  	1800.000000	6.85478e-05	
1850.000000	0.660761  	1850.000000	0.770181  	1850.000000	0.769739  	1850.000000	0.753211  	1850.000000	0.770114  	1850.000000	6.68253e-05	
1900.000000	0.66122   	1900.000000	0.770092  	1900.000000	0.768581  	1900.000000	0.752081  	1900.000000	0.770027  	1900.000000	6.51901e-05	
1950.000000	0.661866  	1950.000000	0.770183  	1950.000000	0.767563  	1950.000000	0.751088  	1950.000000	0.77012   	1950.000000	6.36356e-05	
2000.000000	0.662687  	2000.000000	0.77044   	2000.000000	0.766674  	2000.000000	0.750221  	2000.000000	0.770378  	2000.000000	6.2156e-05	
2100.000000	0.664809  	2100.000000	0.771405  	2100.000000	0.765228  	2100.000000	0.748818  	2100.000000	0.771346  	2100.000000	5.94004e-05	
2200.000000	0.667507  	2200.000000	0.772903  	2200.000000	0.764167  	2200.000000	0.747799  	2200.000000	0.772847  	2200.000000	5.68862e-05	
2300.000000	0.670713  	2300.000000	0.774865  	2300.000000	0.763432  	2300.000000	0.747102  	2300.000000	0.77481   	2300.000000	5.45828e-05	
2400.000000	0.674374  	2400.000000	0.777232  	2400.000000	0.762975  	2400.000000	0.746678  	2400.000000	0.77718   	2400.000000	5.24644e-05	
2500.000000	0.678441  	2500.000000	0.779956  	2500.000000	0.762755  	2500.000000	0.746485  	2500.000000	0.779905  	2500.000000	5.05093e-05	
2600.000000	0.682874  	2600.000000	0.782995  	2600.000000	0.762734  	2600.000000	0.74649   	2600.000000	0.782946  	2600.000000	4.86992e-05	
2700.000000	0.68764   	2700.000000	0.786313  	2700.000000	0.762881  	2700.000000	0.746662  	2700.000000	0.786266  	2700.000000	4.70184e-05	
2800.000000	0.692708  	2800.000000	0.789881  	2800.000000	0.763172  	2800.000000	0.746978  	2800.000000	0.789836  	2800.000000	4.54533e-05	
2900.000000	0.698052  	2900.000000	0.793672  	2900.000000	0.763586  	2900.000000	0.747418  	2900.000000	0.793628  	2900.000000	4.39923e-05	
3000.000000	0.703651  	3000.000000	0.797664  	3000.000000	0.764104  	3000.000000	0.747963  	3000.000000	0.797621  	3000.000000	4.26252e-05	
3200.000000	0.715536  	3200.000000	0.806172  	3200.000000	0.765401  	3200.000000	0.749315  	3200.000000	0.806132  	3200.000000	4.01384e-05	
3400.000000	0.728232  	3400.000000	0.815274  	3400.000000	0.766974  	3400.000000	0.750936  	3400.000000	0.815236  	3400.000000	3.7934e-05	
3600.000000	0.741637  	3600.000000	0.824869  	3600.000000	0.768755  	3600.000000	0.752757  	3600.000000	0.824833  	3600.000000	3.59661e-05	
3800.000000	0.755668  	3800.000000	0.834874  	3800.000000	0.77069   	3800.000000	0.754724  	3800.000000	0.83484   	3800.000000	3.41982e-05	
4000.000000	0.770261  	4000.000000	0.845227  	4000.000000	0.772737  	4000.000000	0.756797  	4000.000000	0.845194  	4000.000000	3.2601e-05	
4200.000000	0.785361  	4200.000000	0.855874  	4200.000000	0.774862  	4200.000000	0.758943  	4200.000000	0.855843  	4200.000000	3.11507e-05	
4400.000000	0.800924  	4400.000000	0.866773  	4400.000000	0.777038  	4400.000000	0.761139  	4400.000000	0.866743  	4400.000000	2.98277e-05	
4600.000000	0.816913  	4600.000000	0.877889  	4600.000000	0.779247  	4600.000000	0.763367  	4600.000000	0.877861  	4600.000000	2.86158e-05	
4800.000000	0.833299  	4800.000000	0.889192  	4800.000000	0.781474  	4800.000000	0.765612  	4800.000000	0.889165  	4800.000000	2.75014e-05	
5000.000000	0.850053  	5000.000000	0.900659  	5000.000000	0.783706  	5000.000000	0.767863  	5000.000000	0.900632  	5000.000000	2.64731e-05	
5250.000000	0.871482  	5250.000000	0.915189  	5250.000000	0.786492  	5250.000000	0.770672  	5250.000000	0.915164  	5250.000000	2.52941e-05	
5500.000000	0.893418  	5500.000000	0.929908  	5500.000000	0.78926   	5500.000000	0.773462  	5500.000000	0.929884  	5500.000000	2.42187e-05	
6000.000000	0.938691  	6000.000000	0.959805  	6000.000000	0.794708  	6000.000000	0.778955  	6000.000000	0.959783  	6000.000000	2.2328e-05	
6500.000000	0.985685  	6500.000000	0.990179  	6500.000000	0.80001   	6500.000000	0.784294  	6500.000000	0.990158  	6500.000000	2.07187e-05	
7000.000000	1.03426   	7000.000000	1.02091   	7000.000000	0.805136  	7000.000000	0.789455  	7000.000000	1.02089   	7000.000000	1.93318e-05	
7500.000000	1.08432   	7500.000000	1.0519    	7500.000000	0.810032  	7500.000000	0.794429  	7500.000000	1.05189   	7500.000000	1.81239e-05	
8000.000000	1.13579   	8000.000000	1.0831    	8000.000000	0.814794  	8000.000000	0.799215  	8000.000000	1.08309   	8000.000000	1.7062e-05	
8500.000000	1.1886    	8500.000000	1.11446   	8500.000000	0.819373  	8500.000000	0.803818  	8500.000000	1.11444   	8500.000000	1.61211e-05	
9000.000000	1.24272   	9000.000000	1.14593   	9000.000000	0.82375   	9000.000000	0.808244  	9000.000000	1.14591   	9000.000000	1.52813e-05	
9500.000000	1.2981    	9500.000000	1.17749   	9500.000000	0.827968  	9500.000000	0.8125    	9500.000000	1.17747   	9500.000000	1.4527e-05	
10000.000000	1.35472   	10000.000000	1.20911   	10000.000000	0.832044  	10000.000000	0.816597  	10000.000000	1.2091    	10000.000000	1.38458e-05	
11000.000000	1.47159   	11000.000000	1.27249   	11000.000000	0.839726  	11000.000000	0.824342  	11000.000000	1.27248   	11000.000000	1.26632e-05	
12000.000000	1.59318   	12000.000000	1.33596   	12000.000000	0.846805  	12000.000000	0.831547  	12000.000000	1.33595   	12000.000000	1.16717e-05	
13000.000000	1.71942   	13000.000000	1.39946   	13000.000000	0.853419  	13000.000000	0.838272  	13000.000000	1.39945   	13000.000000	1.0828e-05	
14000.000000	1.85023   	14000.000000	1.46294   	14000.000000	0.859656  	14000.000000	0.84457   	14000.000000	1.46293   	14000.000000	1.01011e-05	
15000.000000	1.98557   	15000.000000	1.52637   	15000.000000	0.865539  	15000.000000	0.850487  	15000.000000	1.52636   	15000.000000	9.46808e-06	
16000.000000	2.12542   	16000.000000	1.58973   	16000.000000	0.871055  	16000.000000	0.856063  	16000.000000	1.58972   	16000.000000	8.91178e-06	
17000.000000	2.26977   	17000.000000	1.65301   	17000.000000	0.876225  	17000.000000	0.861333  	17000.000000	1.653     	17000.000000	8.4189e-06	
18000.000000	2.4186    	18000.000000	1.71619   	18000.000000	0.881082  	18000.000000	0.866326  	18000.000000	1.71619   	18000.000000	7.97909e-06	
19000.000000	2.57192   	19000.000000	1.77928   	19000.000000	0.88566   	19000.000000	0.871068  	19000.000000	1.77928   	19000.000000	7.58415e-06	
20000.000000	2.72972   	20000.000000	1.84227   	20000.000000	0.889992  	20000.000000	0.875583  	20000.000000	1.84227   	20000.000000	7.22748e-06	
21000.000000	2.89202   	21000.000000	1.90516   	21000.000000	0.894134  	21000.000000	0.87989   	21000.000000	1.90515   	21000.000000	6.90374e-06	
22000.000000	3.05881   	22000.000000	1.96795   	22000.000000	0.898153  	22000.000000	0.884007  	22000.000000	1.96794   	22000.000000	6.60852e-06	
23000.000000	3.23013   	23000.000000	2.03063   	23000.000000	0.90196   	23000.000000	0.887949  	23000.000000	2.03062   	23000.000000	6.33818e-06	
24000.000000	3.40597   	24000.000000	2.09321   	24000.000000	0.905575  	24000.000000	0.891729  	24000.000000	2.0932    	24000.000000	6.08967e-06	
25000.000000	3.58635   	25000.000000	2.15569   	25000.000000	0.90905   	25000.000000	0.895361  	25000.000000	2.15568   	25000.000000	5.86044e-06	
26000.000000	3.77129   	26000.000000	2.21807   	26000.000000	0.912385  	26000.000000	0.898855  	26000.000000	2.21806   	26000.000000	5.64829e-06	
27000.000000	3.96081   	27000.000000	2.28035   	27000.000000	0.915582  	27000.000000	0.902221  	27000.000000	2.28035   	27000.000000	5.45138e-06	
28000.000000	4.15493   	28000.000000	2.34254   	28000.000000	0.918652  	28000.000000	0.905467  	28000.000000	2.34253   	28000.000000	5.2681e-06	
29000.000000	4.35366   	29000.000000	2.40463   	29000.000000	0.921607  	29000.000000	0.908602  	29000.000000	2.40463   	29000.000000	5.09708e-06	
30000.000000	4.55703   	30000.000000	2.46663   	30000.000000	0.924456  	30000.000000	0.911632  	30000.000000	2.46663   	30000.000000	4.93711e-06	
32000.000000	4.97777   	32000.000000	2.59036   	32000.000000	0.929863  	32000.000000	0.917406  	32000.000000	2.59036   	32000.000000	4.64627e-06	
34000.000000	5.41731   	34000.000000	2.71375   	34000.000000	0.934917  	34000.000000	0.922834  	34000.000000	2.71374   	34000.000000	4.38863e-06	
36000.000000	5.87585   	36000.000000	2.8368    	36000.000000	0.939636  	36000.000000	0.927955  	36000.000000	2.8368    	36000.000000	4.15877e-06	
38000.000000	6.35357   	38000.000000	2.95954   	38000.000000	0.94405   	38000.000000	0.9328    	38000.000000	2.95954   	38000.000000	3.95239e-06	
40000.000000	6.85066   	40000.000000	3.08197   	40000.000000	0.948195  	40000.000000	0.937398  	40000.000000	3.08197   	40000.000000	3.76604e-06	
42000.000000	7.36733   	42000.000000	3.20412   	42000.000000	0.952105  	42000.000000	0.941772  	42000.000000	3.20412   	42000.000000	3.59692e-06	
44000.000000	7.90378   	44000.000000	3.32599   	44000.000000	0.95581   	44000.000000	0.945943  	44000.000000	3.32598   	44000.000000	3.44272e-06	
46000.000000	8.46022   	46000.000000	3.44759   	46000.000000	0.959335  	46000.000000	0.949928  	46000.000000	3.44758   	46000.000000	3.30153e-06	
48000.000000	9.03685   	48000.000000	3.56893   	48000.000000	0.96269   	48000.000000	0.953743  	48000.000000	3.56893   	48000.000000	3.17175e-06	
50000.000000	9.63389   	50000.000000	3.69003   	50000.000000	0.965865  	50000.000000	0.957402  	50000.000000	3.69003   	50000.000000	3.05206e-06	
