Energy (MeV/u)1	0 - [He-base] F.Hubert et al, AD&ND Tables 46(1990)1	Energy (MeV/u)2	1 - [H -base] J.F.Ziegler et al, Pergamon Press, NY (low energy)	Energy (MeV/u)3	2 - ATIMA 1.2  LS-theory (recommended for high energy)	Energy (MeV/u)4	3 - ATIMA 1.2  without LS-correction	Energy (MeV/u)5	4 - electrical component of [1] - J.F.Ziegler et al	Energy (MeV/u)6	5 - nuclear component of [1] - J.F.Ziegler et al	
0.001000	12.7666   	0.001000	9.97205   	0.001000	9.41791   	0.001000	9.41791   	0.001000	1.61982   	0.001000	8.35223   	
0.002000	13.1997   	0.002000	10.5336   	0.002000	9.79696   	0.002000	9.79696   	0.002000	2.24363   	0.002000	8.28994   	
0.005000	13.102    	0.005000	10.6117   	0.005000	9.54311   	0.005000	9.54311   	0.005000	3.4513    	0.005000	7.16044   	
0.008000	13.0236   	0.008000	10.527    	0.008000	9.23634   	0.008000	9.23634   	0.008000	4.30446   	0.008000	6.22254   	
0.010000	13.0457   	0.010000	10.514    	0.010000	9.10307   	0.010000	9.10307   	0.010000	4.78042   	0.010000	5.73356   	
0.015000	13.2545   	0.015000	10.6105   	0.015000	8.95325   	0.015000	8.95325   	0.015000	5.78401   	0.015000	4.82651   	
0.020000	13.5733   	0.020000	10.8206   	0.020000	8.96435   	0.020000	8.96435   	0.020000	6.62141   	0.020000	4.19924   	
0.025000	13.9366   	0.025000	11.0897   	0.025000	9.06362   	0.025000	9.06362   	0.025000	7.35357   	0.025000	3.73609   	
0.030000	14.316    	0.030000	11.3893   	0.030000	9.21385   	0.030000	9.21385   	0.030000	8.01149   	0.030000	3.37784   	
0.035000	14.6982   	0.035000	11.7046   	0.035000	9.3947    	0.035000	9.3947    	0.035000	8.61347   	0.035000	3.0911    	
0.040000	15.0769   	0.040000	12.0269   	0.040000	9.59434   	0.040000	9.59434   	0.040000	9.17138   	0.040000	2.85552   	
0.045000	15.4488   	0.045000	12.3513   	0.045000	9.80554   	0.045000	9.80554   	0.045000	9.6934    	0.045000	2.65795   	
0.050000	15.8123   	0.050000	12.675    	0.050000	10.0237   	0.050000	10.0237   	0.050000	10.1855   	0.050000	2.48948   	
0.055000	16.1669   	0.055000	12.996    	0.055000	10.2458   	0.055000	10.2458   	0.055000	10.6521   	0.055000	2.34384   	
0.060000	16.5124   	0.060000	13.3133   	0.060000	10.4698   	0.060000	10.4698   	0.060000	11.0968   	0.060000	2.21648   	
0.070000	17.6793   	0.070000	14.1181   	0.070000	11.1091   	0.070000	11.1091   	0.070000	12.1143   	0.070000	2.00385   	
0.080000	19.7107   	0.080000	15.5878   	0.080000	12.5073   	0.080000	12.5073   	0.080000	13.755    	0.080000	1.83285   	
0.090000	21.5786   	0.090000	16.9263   	0.090000	13.8571   	0.090000	13.8571   	0.090000	15.2344   	0.090000	1.69191   	
0.100000	23.3223   	0.100000	18.1385   	0.100000	15.1401   	0.100000	15.1401   	0.100000	16.565    	0.100000	1.57345   	
0.120000	25.8762   	0.120000	20.2378   	0.120000	17.4789   	0.120000	17.4789   	0.120000	18.8531   	0.120000	1.38477   	
0.140000	28.0658   	0.140000	21.9937   	0.140000	19.5126   	0.140000	19.5126   	0.140000	20.7645   	0.140000	1.22923   	
0.160000	30.0653   	0.160000	23.5305   	0.160000	21.3066   	0.160000	21.3066   	0.160000	22.4143   	0.160000	1.11618   	
0.180000	31.9764   	0.180000	24.9042   	0.180000	22.8968   	0.180000	22.8968   	0.180000	23.8802   	0.180000	1.024     	
0.200000	33.8512   	0.200000	26.1591   	0.200000	24.3264   	0.200000	24.3264   	0.200000	25.2119   	0.200000	0.947229  	
0.250000	37.4094   	0.250000	29.0265   	0.250000	27.4015   	0.250000	27.4015   	0.250000	28.2253   	0.250000	0.80121   	
0.300000	40.7156   	0.300000	31.5326   	0.300000	29.9997   	0.300000	29.9997   	0.300000	30.8354   	0.300000	0.697244  	
0.350000	43.7281   	0.350000	33.7373   	0.350000	32.2778   	0.350000	32.2778   	0.350000	33.1183   	0.350000	0.619066  	
0.400000	46.4466   	0.400000	35.6955   	0.400000	34.3127   	0.400000	34.3127   	0.400000	35.1376   	0.400000	0.557925  	
0.450000	48.8845   	0.450000	37.4455   	0.450000	36.148    	0.450000	36.148    	0.450000	36.9369   	0.450000	0.508668  	
0.500000	51.5195   	0.500000	39.3391   	0.500000	37.8126   	0.500000	37.8126   	0.500000	38.871    	0.500000	0.468053  	
0.600000	54.9356   	0.600000	43.3001   	0.600000	40.711    	0.600000	40.711    	0.600000	42.8953   	0.600000	0.404829  	
0.700000	56.9224   	0.700000	46.4865   	0.700000	43.1374   	0.700000	43.1374   	0.700000	46.1288   	0.700000	0.35771   	
0.800000	60.1662   	0.800000	49.0813   	0.800000	45.4458   	0.800000	45.4458   	0.800000	48.7602   	0.800000	0.321118  	
0.900000	62.7788   	0.900000	51.2155   	0.900000	47.716    	0.900000	47.716    	0.900000	50.9237   	0.900000	0.291805  	
1.000000	64.6134   	1.000000	52.7604   	1.000000	49.6283   	1.000000	49.6283   	1.000000	52.4926   	1.000000	0.267751  	
1.250000	67.4868   	1.250000	55.4732   	1.250000	53.2345   	1.250000	53.2345   	1.250000	55.2503   	1.250000	0.222886  	
1.500000	69.0473   	1.500000	57.2295   	1.500000	55.6621   	1.500000	55.6621   	1.500000	57.0378   	1.500000	0.191652  	
1.750000	69.4967   	1.750000	58.1221   	1.750000	57.3084   	1.750000	57.3084   	1.750000	57.9535   	1.750000	0.168559  	
2.000000	69.2176   	2.000000	58.4153   	2.000000	58.4159   	2.000000	58.4159   	2.000000	58.2646   	2.000000	0.150738  	
2.250000	68.863    	2.250000	58.5489   	2.250000	59.1402   	2.250000	59.1402   	2.250000	58.4124   	2.250000	0.136536  	
2.500000	101.77    	2.500000	58.5629   	2.500000	59.5853   	2.500000	59.5853   	2.500000	58.438    	2.500000	0.124933  	
3.000000	98.7303   	3.000000	58.3535   	3.000000	59.9041   	3.000000	59.9041   	3.000000	58.2464   	3.000000	0.107067  	
3.500000	95.3501   	3.500000	57.9298   	3.500000	59.7354   	3.500000	59.7354   	3.500000	57.8359   	3.500000	0.093915  	
4.000000	91.937    	4.000000	57.3553   	4.000000	59.2764   	4.000000	59.2764   	4.000000	57.2715   	4.000000	0.0837998 	
4.500000	88.6274   	4.500000	56.6878   	4.500000	58.6415   	4.500000	58.6415   	4.500000	56.6121   	4.500000	0.0757622 	
5.000000	85.4795   	5.000000	55.964    	5.000000	57.7877   	5.000000	57.7877   	5.000000	55.8948   	5.000000	0.0692112 	
5.500000	82.5137   	5.500000	55.2078   	5.500000	56.8333   	5.500000	56.8333   	5.500000	55.144    	5.500000	0.0637624 	
6.000000	79.7324   	6.000000	54.4352   	6.000000	55.8886   	6.000000	55.8886   	6.000000	54.3761   	6.000000	0.0591544 	
6.500000	77.1292   	6.500000	53.6506   	6.500000	54.96     	6.500000	54.96     	6.500000	53.5954   	6.500000	0.0552032 	
7.000000	74.6937   	7.000000	52.8687   	7.000000	54.0515   	7.000000	54.0515   	7.000000	52.8169   	7.000000	0.0517752 	
7.500000	72.4139   	7.500000	52.0966   	7.500000	53.1654   	7.500000	53.1654   	7.500000	52.0479   	7.500000	0.0487711 	
8.000000	70.2777   	8.000000	51.3372   	8.000000	52.3029   	8.000000	52.3029   	8.000000	51.2911   	8.000000	0.0461154 	
8.500000	68.2736   	8.500000	50.5789   	8.500000	51.4646   	8.500000	51.4646   	8.500000	50.5352   	8.500000	0.0437498 	
9.000000	66.3905   	9.000000	49.8425   	9.000000	50.6506   	9.000000	50.6506   	9.000000	49.8008   	9.000000	0.0416282 	
9.500000	64.6184   	9.500000	49.1279   	9.500000	49.8607   	9.500000	49.8607   	9.500000	49.0882   	9.500000	0.0397142 	
10.000000	62.9482   	10.000000	48.6521   	10.000000	49.0943   	10.000000	49.0943   	10.000000	48.6141   	10.000000	0.037978  	
11.000000	59.8807   	11.000000	47.2882   	11.000000	47.2107   	11.000000	47.8845   	11.000000	47.2532   	11.000000	0.034947  	
12.000000	57.1306   	12.000000	45.9675   	12.000000	45.4551   	12.000000	46.6955   	12.000000	45.9351   	12.000000	0.0323876 	
13.000000	54.6509   	13.000000	44.6969   	13.000000	43.8179   	13.000000	45.5371   	13.000000	44.6667   	13.000000	0.0301958 	
14.000000	52.4033   	14.000000	43.4814   	14.000000	42.2888   	14.000000	44.4147   	14.000000	43.4531   	14.000000	0.0282965 	
15.000000	50.3561   	15.000000	42.3223   	15.000000	40.8576   	15.000000	43.3309   	15.000000	42.2956   	15.000000	0.0266338 	
16.000000	48.4831   	16.000000	41.219    	16.000000	39.516    	16.000000	42.2865   	16.000000	41.1938   	16.000000	0.0251655 	
17.000000	46.7625   	17.000000	40.1697   	17.000000	38.2567   	17.000000	41.2817   	17.000000	40.1458   	17.000000	0.0238587 	
18.000000	45.1761   	18.000000	39.1721   	18.000000	37.0738   	18.000000	40.3155   	18.000000	39.1494   	18.000000	0.0226877 	
19.000000	43.7082   	19.000000	38.2235   	19.000000	35.9598   	19.000000	39.387    	19.000000	38.2018   	19.000000	0.021632  	
20.000000	42.3458   	20.000000	37.3211   	20.000000	34.9072   	20.000000	38.4947   	20.000000	37.3004   	20.000000	0.0206752 	
21.000000	41.0775   	21.000000	36.4621   	21.000000	33.9119   	21.000000	37.6373   	21.000000	36.4423   	21.000000	0.0198037 	
22.000000	39.8937   	22.000000	35.6439   	22.000000	32.972    	22.000000	36.8133   	22.000000	35.6249   	22.000000	0.0190064 	
23.000000	38.7859   	23.000000	34.864    	23.000000	32.0832   	23.000000	36.0211   	23.000000	34.8457   	23.000000	0.0182741 	
24.000000	37.7469   	24.000000	34.1198   	24.000000	31.24     	24.000000	35.2592   	24.000000	34.1022   	24.000000	0.017599  	
25.000000	36.7702   	25.000000	33.4093   	25.000000	30.4388   	25.000000	34.5263   	25.000000	33.3923   	25.000000	0.0169744 	
27.000000	34.9819   	27.000000	32.0806   	27.000000	28.953    	27.000000	33.1418   	27.000000	32.0647   	27.000000	0.0158558 	
29.000000	33.3838   	29.000000	30.8628   	29.000000	27.6072   	29.000000	31.8574   	29.000000	30.8479   	29.000000	0.0148821 	
31.000000	31.946    	31.000000	29.7429   	31.000000	26.565    	31.000000	30.6416   	31.000000	29.7289   	31.000000	0.0140267 	
33.000000	30.6451   	33.000000	28.7098   	33.000000	25.7743   	33.000000	29.5025   	33.000000	28.6965   	33.000000	0.0132688 	
35.000000	29.4617   	35.000000	27.7538   	35.000000	25.0345   	35.000000	28.4556   	35.000000	27.7412   	35.000000	0.0125923 	
38.000000	27.8736   	38.000000	26.4467   	38.000000	24.0134   	38.000000	27.0342   	38.000000	26.435    	38.000000	0.0117035 	
41.000000	26.4732   	41.000000	25.2714   	41.000000	23.0869   	41.000000	25.7653   	41.000000	25.2604   	41.000000	0.0109373 	
44.000000	25.2283   	44.000000	24.2089   	44.000000	22.2379   	44.000000	24.625    	44.000000	24.1986   	44.000000	0.0102697 	
47.000000	24.1137   	47.000000	23.2437   	47.000000	21.4593   	47.000000	23.5944   	47.000000	23.234    	47.000000	0.00968244	
50.000000	23.1094   	50.000000	22.363    	50.000000	20.7405   	50.000000	22.658    	50.000000	22.3538   	50.000000	0.00916171	
55.000000	21.6385   	55.000000	21.0547   	55.000000	19.6635   	55.000000	21.2739   	55.000000	21.0462   	55.000000	0.00841314	
60.000000	20.3736   	60.000000	19.9127   	60.000000	18.7094   	60.000000	20.072    	60.000000	19.9049   	60.000000	0.0077826 	
65.000000	19.2732   	65.000000	18.9071   	65.000000	17.862    	65.000000	19.0182   	65.000000	18.8999   	65.000000	0.00724385	
70.000000	18.3065   	70.000000	18.0148   	70.000000	17.1025   	70.000000	18.0867   	70.000000	18.008    	70.000000	0.00677794	
75.000000	17.4498   	75.000000	17.2176   	75.000000	16.4161   	75.000000	17.2571   	75.000000	17.2112   	75.000000	0.00637084	
80.000000	16.685    	80.000000	16.501    	80.000000	15.7969   	80.000000	16.5136   	80.000000	16.495    	80.000000	0.00601191	
85.000000	15.9976   	85.000000	15.8534   	85.000000	15.2305   	85.000000	15.8434   	85.000000	15.8477   	85.000000	0.00569297	
90.000000	15.3762   	90.000000	15.2653   	90.000000	14.7147   	90.000000	15.2361   	90.000000	15.2599   	90.000000	0.00540759	
95.000000	14.8114   	95.000000	14.7287   	95.000000	14.2409   	95.000000	14.6833   	95.000000	14.7236   	95.000000	0.00515067	
100.000000	14.2957   	100.000000	14.2373   	100.000000	13.8041   	100.000000	14.178    	100.000000	14.2324   	100.000000	0.0049181 	
105.000000	13.8227   	105.000000	13.7856   	105.000000	13.4019   	105.000000	13.7143   	105.000000	13.7808   	105.000000	0.00470651	
110.000000	13.3872   	110.000000	13.3688   	110.000000	13.0288   	110.000000	13.2872   	110.000000	13.3643   	110.000000	0.00451315	
115.000000	12.9849   	115.000000	12.9832   	115.000000	12.6817   	115.000000	12.8927   	115.000000	12.9789   	115.000000	0.00433573	
120.000000	12.6119   	120.000000	12.6254   	120.000000	12.3578   	120.000000	12.5272   	120.000000	12.6212   	120.000000	0.00417233	
125.000000	12.2651   	125.000000	12.2925   	125.000000	12.0554   	125.000000	12.1875   	125.000000	12.2885   	125.000000	0.00402133	
130.000000	11.9417   	130.000000	11.9819   	130.000000	11.773    	130.000000	11.8711   	130.000000	11.978    	130.000000	0.00388134	
135.000000	11.6394   	135.000000	11.6916   	135.000000	11.5076   	135.000000	11.5756   	135.000000	11.6878   	135.000000	0.00375119	
140.000000	11.3561   	140.000000	11.4195   	140.000000	11.2587   	140.000000	11.2991   	140.000000	11.4159   	140.000000	0.00362986	
145.000000	11.0901   	145.000000	11.1641   	145.000000	11.0245   	145.000000	11.0398   	145.000000	11.1606   	145.000000	0.00351647	
150.000000	10.8398   	150.000000	10.9239   	150.000000	10.8031   	150.000000	10.7961   	150.000000	10.9205   	150.000000	0.00341025	
155.000000	10.4799   	155.000000	10.6975   	155.000000	10.5944   	155.000000	10.5667   	155.000000	10.6942   	155.000000	0.00331053	
160.000000	10.2727   	160.000000	10.4838   	160.000000	10.3972   	160.000000	10.3504   	160.000000	10.4806   	160.000000	0.00321673	
165.000000	10.0769   	165.000000	10.2818   	165.000000	10.2099   	165.000000	10.1461   	165.000000	10.2786   	165.000000	0.00312833	
170.000000	9.89139   	170.000000	10.0905   	170.000000	10.0318   	170.000000	9.95283   	170.000000	10.0875   	170.000000	0.00304486	
175.000000	9.71548   	175.000000	9.90914   	175.000000	9.86255   	175.000000	9.76975   	175.000000	9.90618   	175.000000	0.00296593	
180.000000	9.54841   	180.000000	9.73695   	180.000000	9.7018    	180.000000	9.59607   	180.000000	9.73406   	180.000000	0.00289115	
185.000000	9.38952   	185.000000	9.57326   	185.000000	9.54903   	185.000000	9.4311    	185.000000	9.57044   	185.000000	0.00282022	
190.000000	9.23822   	190.000000	9.41746   	190.000000	9.40356   	190.000000	9.2742    	190.000000	9.41471   	190.000000	0.00275283	
195.000000	9.09396   	195.000000	9.269     	195.000000	9.26458   	195.000000	9.12481   	195.000000	9.26631   	195.000000	0.00268873	
200.000000	8.95626   	200.000000	9.12737   	200.000000	9.13154   	200.000000	8.9824    	200.000000	9.12475   	200.000000	0.00262767	
210.000000	8.69883   	210.000000	8.86285   	210.000000	8.88235   	210.000000	8.71671   	210.000000	8.86033   	210.000000	0.00251385	
220.000000	8.46282   	220.000000	8.62069   	220.000000	8.6542    	220.000000	8.47381   	220.000000	8.61828   	220.000000	0.00240987	
230.000000	8.24566   	230.000000	8.3982    	230.000000	8.44415   	230.000000	8.25095   	230.000000	8.39588   	230.000000	0.00231449	
240.000000	8.04515   	240.000000	8.19311   	240.000000	8.24953   	240.000000	8.04579   	240.000000	8.19089   	240.000000	0.00222668	
250.000000	7.85945   	250.000000	8.00349   	250.000000	8.06929   	250.000000	7.85633   	250.000000	8.00135   	250.000000	0.00214556	
260.000000	7.68697   	260.000000	7.82768   	260.000000	7.90221   	260.000000	7.68089   	260.000000	7.82561   	260.000000	0.00207038	
270.000000	7.52634   	270.000000	7.66425   	270.000000	7.74689   	270.000000	7.51799   	270.000000	7.66225   	270.000000	0.0020005 	
280.000000	7.3764    	280.000000	7.51196   	280.000000	7.60213   	280.000000	7.36636   	280.000000	7.51002   	280.000000	0.00193537	
290.000000	7.2361    	290.000000	7.36972   	290.000000	7.46643   	290.000000	7.22492   	290.000000	7.36785   	290.000000	0.00187452	
300.000000	7.10455   	300.000000	7.23661   	300.000000	7.33872   	300.000000	7.09268   	300.000000	7.23479   	300.000000	0.00181754	
310.000000	6.98097   	310.000000	7.11178   	310.000000	7.21897   	310.000000	6.96882   	310.000000	7.11001   	310.000000	0.00176405	
320.000000	6.86466   	320.000000	6.9945    	320.000000	7.10703   	320.000000	6.85257   	320.000000	6.99279   	320.000000	0.00171375	
330.000000	6.755     	330.000000	6.88414   	330.000000	7.00136   	330.000000	6.74329   	330.000000	6.88247   	330.000000	0.00166636	
340.000000	6.65144   	340.000000	6.7801    	340.000000	6.90143   	340.000000	6.64038   	340.000000	6.77848   	340.000000	0.00162162	
350.000000	6.5535    	350.000000	6.68189   	350.000000	6.80718   	350.000000	6.54333   	350.000000	6.68031   	350.000000	0.00157932	
360.000000	6.46075   	360.000000	6.58903   	360.000000	6.7182    	360.000000	6.45167   	360.000000	6.58749   	360.000000	0.00153925	
370.000000	6.37278   	370.000000	6.50112   	370.000000	6.63392   	370.000000	6.36498   	370.000000	6.49961   	370.000000	0.00150126	
380.000000	6.28925   	380.000000	6.41778   	380.000000	6.55376   	380.000000	6.28288   	380.000000	6.41631   	380.000000	0.00146516	
390.000000	6.20984   	390.000000	6.33868   	390.000000	6.47751   	390.000000	6.20503   	390.000000	6.33725   	390.000000	0.00143084	
400.000000	6.13426   	400.000000	6.26353   	400.000000	6.40512   	400.000000	6.13113   	400.000000	6.26213   	400.000000	0.00139814	
410.000000	6.06224   	410.000000	6.19203   	410.000000	6.33632   	410.000000	6.0609    	410.000000	6.19067   	410.000000	0.00136697	
420.000000	5.99356   	420.000000	6.12395   	420.000000	6.2708    	420.000000	5.99409   	420.000000	6.12261   	420.000000	0.00133722	
430.000000	5.92798   	430.000000	6.05906   	430.000000	6.20839   	430.000000	5.93046   	430.000000	6.05775   	430.000000	0.00130878	
440.000000	5.86532   	440.000000	5.99714   	440.000000	6.14892   	440.000000	5.8698    	440.000000	5.99586   	440.000000	0.00128158	
450.000000	5.8054    	450.000000	5.93801   	450.000000	6.09209   	450.000000	5.81193   	450.000000	5.93676   	450.000000	0.00125553	
460.000000	5.74804   	460.000000	5.8815    	460.000000	6.03761   	460.000000	5.75667   	460.000000	5.88027   	460.000000	0.00123056	
470.000000	5.69309   	470.000000	5.82744   	470.000000	5.98539   	470.000000	5.70385   	470.000000	5.82623   	470.000000	0.0012066 	
480.000000	5.64041   	480.000000	5.77569   	480.000000	5.93539   	480.000000	5.65333   	480.000000	5.7745    	480.000000	0.0011836 	
490.000000	5.58988   	490.000000	5.7261    	490.000000	5.88756   	490.000000	5.60497   	490.000000	5.72494   	490.000000	0.00116149	
500.000000	5.54137   	500.000000	5.67857   	500.000000	5.84172   	500.000000	5.55864   	500.000000	5.67743   	500.000000	0.00114023	
520.000000	5.44997   	520.000000	5.58919   	520.000000	5.75555   	520.000000	5.47162   	520.000000	5.58809   	520.000000	0.00110004	
540.000000	5.36542   	540.000000	5.50671   	540.000000	5.67619   	540.000000	5.39145   	540.000000	5.50564   	540.000000	0.0010627 	
560.000000	5.28704   	560.000000	5.43042   	560.000000	5.60266   	560.000000	5.31739   	560.000000	5.42939   	560.000000	0.00102791	
580.000000	5.21422   	580.000000	5.3597    	580.000000	5.5342    	580.000000	5.24884   	580.000000	5.3587    	580.000000	0.000995407	
600.000000	5.14644   	600.000000	5.29402   	600.000000	5.47092   	600.000000	5.18524   	600.000000	5.29305   	600.000000	0.000964975	
620.000000	5.08325   	620.000000	5.2329    	620.000000	5.41224   	620.000000	5.12612   	620.000000	5.23196   	620.000000	0.00093642	
640.000000	5.02425   	640.000000	5.17593   	640.000000	5.35728   	640.000000	5.07107   	640.000000	5.17502   	640.000000	0.000909571	
660.000000	4.96907   	660.000000	5.12275   	660.000000	5.30584   	660.000000	5.01972   	660.000000	5.12186   	660.000000	0.000884276	
680.000000	4.9174    	680.000000	5.07302   	680.000000	5.2578    	680.000000	4.97175   	680.000000	5.07216   	680.000000	0.000860404	
700.000000	4.86895   	700.000000	5.02647   	700.000000	5.2129    	700.000000	4.92686   	700.000000	5.02563   	700.000000	0.000837836	
720.000000	4.82348   	720.000000	4.98284   	720.000000	5.17081   	720.000000	4.88479   	720.000000	4.98202   	720.000000	0.000816467	
740.000000	4.78077   	740.000000	4.94189   	740.000000	5.13118   	740.000000	4.84533   	740.000000	4.94109   	740.000000	0.000796201	
760.000000	4.74059   	760.000000	4.90342   	760.000000	5.09375   	760.000000	4.80825   	760.000000	4.90265   	760.000000	0.000776956	
780.000000	4.70278   	780.000000	4.86725   	780.000000	5.05853   	780.000000	4.77339   	780.000000	4.86649   	780.000000	0.000758654	
800.000000	4.66717   	800.000000	4.83321   	800.000000	5.02553   	800.000000	4.74056   	800.000000	4.83247   	800.000000	0.000741228	
820.000000	4.6336    	820.000000	4.80114   	820.000000	4.99466   	820.000000	4.70977   	820.000000	4.80042   	820.000000	0.000724614	
840.000000	4.60194   	840.000000	4.77091   	840.000000	4.9662    	840.000000	4.68145   	840.000000	4.7702    	840.000000	0.000708757	
860.000000	4.57206   	860.000000	4.7424    	860.000000	4.93919   	860.000000	4.65471   	860.000000	4.7417    	860.000000	0.000693605	
880.000000	4.54385   	880.000000	4.71548   	880.000000	4.91359   	880.000000	4.62945   	880.000000	4.71481   	880.000000	0.000679113	
900.000000	4.51721   	900.000000	4.69007   	900.000000	4.88937   	900.000000	4.60557   	900.000000	4.6894    	900.000000	0.000665236	
920.000000	4.49204   	920.000000	4.66605   	920.000000	4.86647   	920.000000	4.58297   	920.000000	4.6654    	920.000000	0.000651937	
940.000000	4.46825   	940.000000	4.64335   	940.000000	4.8448    	940.000000	4.56157   	940.000000	4.64271   	940.000000	0.000639179	
960.000000	4.44577   	960.000000	4.62188   	960.000000	4.82425   	960.000000	4.5413    	960.000000	4.62125   	960.000000	0.00062693	
980.000000	4.42451   	980.000000	4.60157   	980.000000	4.80476   	980.000000	4.52208   	980.000000	4.60095   	980.000000	0.000615159	
1000.000000	4.40441   	1000.000000	4.58235   	1000.000000	4.78627   	1000.000000	4.50385   	1000.000000	4.58175   	1000.000000	0.000603839	
1020.000000	4.3854    	1020.000000	4.56416   	1020.000000	4.76871   	1020.000000	4.48655   	1020.000000	4.56357   	1020.000000	0.000592943	
1040.000000	4.36743   	1040.000000	4.54694   	1040.000000	4.75204   	1040.000000	4.47013   	1040.000000	4.54636   	1040.000000	0.000582449	
1060.000000	4.35044   	1060.000000	4.53064   	1060.000000	4.7362    	1060.000000	4.45452   	1060.000000	4.53007   	1060.000000	0.000572334	
1080.000000	4.33438   	1080.000000	4.51521   	1080.000000	4.72114   	1080.000000	4.43969   	1080.000000	4.51465   	1080.000000	0.000562577	
1100.000000	4.31921   	1100.000000	4.5006    	1100.000000	4.7068    	1100.000000	4.42559   	1100.000000	4.50005   	1100.000000	0.00055316	
1120.000000	4.30487   	1120.000000	4.48677   	1120.000000	4.69313   	1120.000000	4.41219   	1120.000000	4.48622   	1120.000000	0.000544065	
1140.000000	4.29133   	1140.000000	4.47367   	1140.000000	4.6801    	1140.000000	4.39943   	1140.000000	4.47314   	1140.000000	0.000535275	
1160.000000	4.27855   	1160.000000	4.46128   	1160.000000	4.66768   	1160.000000	4.38729   	1160.000000	4.46075   	1160.000000	0.000526776	
1180.000000	4.26649   	1180.000000	4.44955   	1180.000000	4.65585   	1180.000000	4.37573   	1180.000000	4.44903   	1180.000000	0.000518552	
1200.000000	4.25513   	1200.000000	4.43845   	1200.000000	4.64458   	1200.000000	4.36472   	1200.000000	4.43794   	1200.000000	0.000510591	
1220.000000	4.24442   	1220.000000	4.42796   	1220.000000	4.63385   	1220.000000	4.35424   	1220.000000	4.42746   	1220.000000	0.00050288	
1240.000000	4.23434   	1240.000000	4.41804   	1240.000000	4.62363   	1240.000000	4.34426   	1240.000000	4.41755   	1240.000000	0.000495407	
1260.000000	4.22486   	1260.000000	4.40867   	1260.000000	4.61389   	1260.000000	4.33474   	1260.000000	4.40818   	1260.000000	0.000488161	
1280.000000	4.21595   	1280.000000	4.39982   	1280.000000	4.6046    	1280.000000	4.32568   	1280.000000	4.39934   	1280.000000	0.000481132	
1300.000000	4.2076    	1300.000000	4.39147   	1300.000000	4.59575   	1300.000000	4.31704   	1300.000000	4.39099   	1300.000000	0.000474311	
1320.000000	4.19977   	1320.000000	4.38359   	1320.000000	4.58731   	1320.000000	4.3088    	1320.000000	4.38312   	1320.000000	0.000467687	
1340.000000	4.19245   	1340.000000	4.37617   	1340.000000	4.57926   	1340.000000	4.30095   	1340.000000	4.37571   	1340.000000	0.000461252	
1360.000000	4.18561   	1360.000000	4.36918   	1360.000000	4.57157   	1360.000000	4.29347   	1360.000000	4.36873   	1360.000000	0.000454999	
1380.000000	4.17924   	1380.000000	4.36261   	1380.000000	4.56424   	1380.000000	4.28633   	1380.000000	4.36216   	1380.000000	0.00044892	
1400.000000	4.17332   	1400.000000	4.35644   	1400.000000	4.55724   	1400.000000	4.27953   	1400.000000	4.356     	1400.000000	0.000443007	
1420.000000	4.16782   	1420.000000	4.35066   	1420.000000	4.55055   	1420.000000	4.27304   	1420.000000	4.35022   	1420.000000	0.000437253	
1440.000000	4.16274   	1440.000000	4.34524   	1440.000000	4.54417   	1440.000000	4.26686   	1440.000000	4.3448    	1440.000000	0.000431653	
1460.000000	4.15805   	1460.000000	4.34017   	1460.000000	4.53808   	1460.000000	4.26097   	1460.000000	4.33974   	1460.000000	0.000426199	
1480.000000	4.15375   	1480.000000	4.33544   	1480.000000	4.53226   	1480.000000	4.25535   	1480.000000	4.33502   	1480.000000	0.000420887	
1500.000000	4.14981   	1500.000000	4.33103   	1500.000000	4.52671   	1500.000000	4.25      	1500.000000	4.33061   	1500.000000	0.000415711	
1520.000000	4.14623   	1520.000000	4.32694   	1520.000000	4.52142   	1520.000000	4.2449    	1520.000000	4.32653   	1520.000000	0.000410665	
1540.000000	4.14299   	1540.000000	4.32314   	1540.000000	4.51637   	1540.000000	4.24004   	1540.000000	4.32274   	1540.000000	0.000405745	
1560.000000	4.14008   	1560.000000	4.31964   	1560.000000	4.51155   	1560.000000	4.23541   	1560.000000	4.31924   	1560.000000	0.000400945	
1580.000000	4.13749   	1580.000000	4.31641   	1580.000000	4.50696   	1580.000000	4.231     	1580.000000	4.31601   	1580.000000	0.000396262	
1600.000000	4.13521   	1600.000000	4.31345   	1600.000000	4.50259   	1600.000000	4.22681   	1600.000000	4.31306   	1600.000000	0.000391691	
1620.000000	4.13322   	1620.000000	4.31075   	1620.000000	4.49843   	1620.000000	4.22282   	1620.000000	4.31036   	1620.000000	0.000387229	
1640.000000	4.13153   	1640.000000	4.30829   	1640.000000	4.49447   	1640.000000	4.21902   	1640.000000	4.30791   	1640.000000	0.000382871	
1660.000000	4.13011   	1660.000000	4.30608   	1660.000000	4.4907    	1660.000000	4.21541   	1660.000000	4.3057    	1660.000000	0.000378613	
1680.000000	4.12896   	1680.000000	4.30409   	1680.000000	4.48711   	1680.000000	4.21197   	1680.000000	4.30372   	1680.000000	0.000374452	
1700.000000	4.12807   	1700.000000	4.30233   	1700.000000	4.4837    	1700.000000	4.20871   	1700.000000	4.30196   	1700.000000	0.000370386	
1750.000000	4.12693   	1750.000000	4.29885   	1750.000000	4.47588   	1750.000000	4.20127   	1750.000000	4.29849   	1750.000000	0.000360609	
1800.000000	4.12725   	1800.000000	4.29661   	1800.000000	4.469     	1800.000000	4.19475   	1800.000000	4.29626   	1800.000000	0.000351354	
1850.000000	4.12891   	1850.000000	4.29551   	1850.000000	4.46297   	1850.000000	4.18908   	1850.000000	4.29517   	1850.000000	0.000342578	
1900.000000	4.13184   	1900.000000	4.29545   	1900.000000	4.45771   	1900.000000	4.18417   	1900.000000	4.29511   	1900.000000	0.000334246	
1950.000000	4.13593   	1950.000000	4.29636   	1950.000000	4.45316   	1950.000000	4.17995   	1950.000000	4.29603   	1950.000000	0.000326324	
2000.000000	4.14111   	2000.000000	4.29816   	2000.000000	4.44926   	2000.000000	4.17637   	2000.000000	4.29784   	2000.000000	0.000318782	
2100.000000	4.15445   	2100.000000	4.30419   	2100.000000	4.44318   	2100.000000	4.17088   	2100.000000	4.30389   	2100.000000	0.000304732	
2200.000000	4.17138   	2200.000000	4.3131    	2200.000000	4.43909   	2200.000000	4.16731   	2200.000000	4.3128    	2200.000000	0.000291909	
2300.000000	4.19149   	2300.000000	4.3245    	2300.000000	4.43665   	2300.000000	4.16536   	2300.000000	4.32422   	2300.000000	0.000280158	
2400.000000	4.21441   	2400.000000	4.33808   	2400.000000	4.43559   	2400.000000	4.16476   	2400.000000	4.33781   	2400.000000	0.000269347	
2500.000000	4.23988   	2500.000000	4.35359   	2500.000000	4.43571   	2500.000000	4.16531   	2500.000000	4.35333   	2500.000000	0.000259368	
2600.000000	4.26762   	2600.000000	4.37079   	2600.000000	4.43682   	2600.000000	4.16682   	2600.000000	4.37054   	2600.000000	0.000250126	
2700.000000	4.29744   	2700.000000	4.3895    	2700.000000	4.43878   	2700.000000	4.16915   	2700.000000	4.38926   	2700.000000	0.000241542	
2800.000000	4.32914   	2800.000000	4.40955   	2800.000000	4.44146   	2800.000000	4.17218   	2800.000000	4.40932   	2800.000000	0.000233548	
2900.000000	4.36257   	2900.000000	4.43081   	2900.000000	4.44476   	2900.000000	4.1758    	2900.000000	4.43058   	2900.000000	0.000226083	
3000.000000	4.39759   	3000.000000	4.45314   	3000.000000	4.44859   	3000.000000	4.17992   	3000.000000	4.45292   	3000.000000	0.000219097	
3200.000000	4.47191   	3200.000000	4.50063   	3200.000000	4.45749   	3200.000000	4.18938   	3200.000000	4.50043   	3200.000000	0.000206385	
3400.000000	4.55129   	3400.000000	4.55132   	3400.000000	4.46766   	3400.000000	4.20008   	3400.000000	4.55113   	3400.000000	0.000195112	
3600.000000	4.63509   	3600.000000	4.60466   	3600.000000	4.47872   	3600.000000	4.21166   	3600.000000	4.60448   	3600.000000	0.000185045	
3800.000000	4.72281   	3800.000000	4.66021   	3800.000000	4.49041   	3800.000000	4.22385   	3800.000000	4.66004   	3800.000000	0.000175998	
4000.000000	4.81403   	4000.000000	4.71763   	4000.000000	4.50253   	4000.000000	4.23646   	4000.000000	4.71746   	4000.000000	0.000167822	
4200.000000	4.90842   	4200.000000	4.77663   	4200.000000	4.51493   	4200.000000	4.24933   	4200.000000	4.77647   	4200.000000	0.000160395	
4400.000000	5.0057    	4400.000000	4.83699   	4400.000000	4.52751   	4400.000000	4.26235   	4400.000000	4.83684   	4400.000000	0.000153619	
4600.000000	5.10564   	4600.000000	4.89851   	4600.000000	4.54018   	4600.000000	4.27543   	4600.000000	4.89837   	4600.000000	0.00014741	
4800.000000	5.20805   	4800.000000	4.96104   	4800.000000	4.55288   	4800.000000	4.2885    	4800.000000	4.9609    	4800.000000	0.0001417 	
5000.000000	5.31278   	5000.000000	5.02445   	5000.000000	4.56554   	5000.000000	4.30151   	5000.000000	5.02431   	5000.000000	0.000136429	
5250.000000	5.44672   	5250.000000	5.10476   	5250.000000	4.58128   	5250.000000	4.31764   	5250.000000	5.10463   	5250.000000	0.000130384	
5500.000000	5.58382   	5500.000000	5.18609   	5500.000000	4.59684   	5500.000000	4.33355   	5500.000000	5.18596   	5500.000000	0.000124869	
6000.000000	5.86679   	6000.000000	5.3512    	6000.000000	4.62719   	6000.000000	4.3646    	6000.000000	5.35109   	6000.000000	0.000115169	
6500.000000	6.1605    	6500.000000	5.51887   	6500.000000	4.65601   	6500.000000	4.39449   	6500.000000	5.51876   	6500.000000	0.000106909	
7000.000000	6.46411   	7000.000000	5.68844   	7000.000000	4.68395   	7000.000000	4.42314   	7000.000000	5.68834   	7000.000000	9.97878e-05	
7500.000000	6.77699   	7500.000000	5.85943   	7500.000000	4.71051   	7500.000000	4.45056   	7500.000000	5.85934   	7500.000000	9.35828e-05	
8000.000000	7.09865   	8000.000000	6.0315    	8000.000000	4.73578   	8000.000000	4.47677   	8000.000000	6.03141   	8000.000000	8.81264e-05	
8500.000000	7.42874   	8500.000000	6.2044    	8500.000000	4.75993   	8500.000000	4.50183   	8500.000000	6.20431   	8500.000000	8.32895e-05	
9000.000000	7.76696   	9000.000000	6.37791   	9000.000000	4.78305   	9000.000000	4.52581   	9000.000000	6.37783   	9000.000000	7.89713e-05	
9500.000000	8.11311   	9500.000000	6.55188   	9500.000000	4.80513   	9500.000000	4.54875   	9500.000000	6.55181   	9500.000000	7.50918e-05	
10000.000000	8.46699   	10000.000000	6.7262    	10000.000000	4.82621   	10000.000000	4.57073   	10000.000000	6.72613   	10000.000000	7.15868e-05	
11000.000000	9.19742   	11000.000000	7.07551   	11000.000000	4.86559   	11000.000000	4.61204   	11000.000000	7.07544   	11000.000000	6.55005e-05	
12000.000000	9.9574    	12000.000000	7.42528   	12000.000000	4.90168   	12000.000000	4.65018   	12000.000000	7.42522   	12000.000000	6.03949e-05	
13000.000000	10.7464   	13000.000000	7.77515   	13000.000000	4.93481   	13000.000000	4.68553   	13000.000000	7.77509   	13000.000000	5.60487e-05	
14000.000000	11.5639   	14000.000000	8.12489   	14000.000000	4.96539   	14000.000000	4.71843   	14000.000000	8.12483   	14000.000000	5.23028e-05	
15000.000000	12.4098   	15000.000000	8.47433   	15000.000000	4.99371   	15000.000000	4.74917   	15000.000000	8.47428   	15000.000000	4.90397e-05	
16000.000000	13.2839   	16000.000000	8.82338   	16000.000000	5.01999   	16000.000000	4.77798   	16000.000000	8.82333   	16000.000000	4.6171e-05	
17000.000000	14.1861   	17000.000000	9.17195   	17000.000000	5.04446   	17000.000000	4.80508   	17000.000000	9.17191   	17000.000000	4.36285e-05	
18000.000000	15.1163   	18000.000000	9.52002   	18000.000000	5.06737   	18000.000000	4.83064   	18000.000000	9.51998   	18000.000000	4.13592e-05	
19000.000000	16.0745   	19000.000000	9.86753   	19000.000000	5.08893   	19000.000000	4.85481   	19000.000000	9.86749   	19000.000000	3.93209e-05	
20000.000000	17.0608   	20000.000000	10.2145   	20000.000000	5.10931   	20000.000000	4.87773   	20000.000000	10.2145   	20000.000000	3.74796e-05	
21000.000000	18.0751   	21000.000000	10.5609   	21000.000000	5.12847   	21000.000000	4.89951   	21000.000000	10.5608   	21000.000000	3.58079e-05	
22000.000000	19.1176   	22000.000000	10.9067   	22000.000000	5.14616   	22000.000000	4.92025   	22000.000000	10.9067   	22000.000000	3.42832e-05	
23000.000000	20.1883   	23000.000000	11.2519   	23000.000000	5.16286   	23000.000000	4.94004   	23000.000000	11.2519   	23000.000000	3.28866e-05	
24000.000000	21.2873   	24000.000000	11.5966   	24000.000000	5.17874   	24000.000000	4.95895   	24000.000000	11.5966   	24000.000000	3.16026e-05	
25000.000000	22.4147   	25000.000000	11.9407   	25000.000000	5.19378   	25000.000000	4.97707   	25000.000000	11.9407   	25000.000000	3.0418e-05	
26000.000000	23.5706   	26000.000000	12.2843   	26000.000000	5.20799   	26000.000000	4.99445   	26000.000000	12.2842   	26000.000000	2.93214e-05	
27000.000000	24.7551   	27000.000000	12.6273   	27000.000000	5.22141   	27000.000000	5.01114   	27000.000000	12.6273   	27000.000000	2.83035e-05	
28000.000000	25.9683   	28000.000000	12.9698   	28000.000000	5.23412   	28000.000000	5.02719   	28000.000000	12.9697   	28000.000000	2.73558e-05	
29000.000000	27.2104   	29000.000000	13.3117   	29000.000000	5.24619   	29000.000000	5.04265   	29000.000000	13.3117   	29000.000000	2.64714e-05	
30000.000000	28.4815   	30000.000000	13.6532   	30000.000000	5.25768   	30000.000000	5.05756   	30000.000000	13.6532   	30000.000000	2.5644e-05	
32000.000000	31.1111   	32000.000000	14.3346   	32000.000000	5.27901   	32000.000000	5.08586   	32000.000000	14.3346   	32000.000000	2.41394e-05	
34000.000000	33.8582   	34000.000000	15.0141   	34000.000000	5.29839   	34000.000000	5.11235   	34000.000000	15.0141   	34000.000000	2.28062e-05	
36000.000000	36.724    	36000.000000	15.6918   	36000.000000	5.31593   	36000.000000	5.13723   	36000.000000	15.6918   	36000.000000	2.16164e-05	
38000.000000	39.7098   	38000.000000	16.3677   	38000.000000	5.33185   	38000.000000	5.16068   	38000.000000	16.3677   	38000.000000	2.05479e-05	
40000.000000	42.8166   	40000.000000	17.042    	40000.000000	5.34638   	40000.000000	5.18285   	40000.000000	17.042    	40000.000000	1.95829e-05	
42000.000000	46.0458   	42000.000000	17.7146   	42000.000000	5.3597    	42000.000000	5.20386   	42000.000000	17.7146   	42000.000000	1.87069e-05	
44000.000000	49.3986   	44000.000000	18.3858   	44000.000000	5.37202   	44000.000000	5.22383   	44000.000000	18.3857   	44000.000000	1.7908e-05	
46000.000000	52.8764   	46000.000000	19.0554   	46000.000000	5.38352   	46000.000000	5.24285   	46000.000000	19.0554   	46000.000000	1.71764e-05	
48000.000000	56.4803   	48000.000000	19.7236   	48000.000000	5.39423   	48000.000000	5.26101   	48000.000000	19.7236   	48000.000000	1.65039e-05	
50000.000000	60.2118   	50000.000000	20.3905   	50000.000000	5.40401   	50000.000000	5.27837   	50000.000000	20.3905   	50000.000000	1.58835e-05	
