Energy (MeV/u)1	0 - [He-base] F.Hubert et al, AD&ND Tables 46(1990)1	Energy (MeV/u)2	1 - [H -base] J.F.Ziegler et al, Pergamon Press, NY (low energy)	Energy (MeV/u)3	2 - ATIMA 1.2  LS-theory (recommended for high energy)	Energy (MeV/u)4	3 - ATIMA 1.2  without LS-correction	Energy (MeV/u)5	4 - electrical component of [1] - J.F.Ziegler et al	Energy (MeV/u)6	5 - nuclear component of [1] - J.F.Ziegler et al	
0.001000	12.8097   	0.001000	4.25238   	0.001000	3.99719   	0.001000	3.99719   	0.001000	0.711272  	0.001000	3.54111   	
0.002000	13.2353   	0.002000	4.68181   	0.002000	4.34159   	0.002000	4.34159   	0.002000	0.985189  	0.002000	3.69662   	
0.005000	13.1245   	0.005000	4.97455   	0.005000	4.47879   	0.005000	4.47879   	0.005000	1.51548   	0.005000	3.45907   	
0.008000	13.04     	0.008000	5.02956   	0.008000	4.42928   	0.008000	4.42928   	0.008000	1.89011   	0.008000	3.13944   	
0.010000	13.0596   	0.010000	5.05079   	0.010000	4.39375   	0.010000	4.39375   	0.010000	2.09911   	0.010000	2.95168   	
0.015000	13.2645   	0.015000	5.11264   	0.015000	4.33898   	0.015000	4.33898   	0.015000	2.53979   	0.015000	2.57284   	
0.020000	13.5812   	0.020000	5.19761   	0.020000	4.32946   	0.020000	4.32946   	0.020000	2.9075    	0.020000	2.29011   	
0.025000	13.9431   	0.025000	5.30027   	0.025000	4.35132   	0.025000	4.35132   	0.025000	3.229     	0.025000	2.07127   	
0.030000	14.3215   	0.030000	5.41422   	0.030000	4.39399   	0.030000	4.39399   	0.030000	3.51789   	0.030000	1.89632   	
0.035000	14.703    	0.035000	5.53503   	0.035000	4.45058   	0.035000	4.45058   	0.035000	3.78223   	0.035000	1.7528    	
0.040000	15.0811   	0.040000	5.65979   	0.040000	4.51662   	0.040000	4.51662   	0.040000	4.02721   	0.040000	1.63258   	
0.045000	15.4526   	0.045000	5.7866    	0.045000	4.58915   	0.045000	4.58915   	0.045000	4.25643   	0.045000	1.53017   	
0.050000	15.8158   	0.050000	5.9142    	0.050000	4.66613   	0.050000	4.66613   	0.050000	4.47251   	0.050000	1.44169   	
0.055000	16.17     	0.055000	6.04177   	0.055000	4.74618   	0.055000	4.74618   	0.055000	4.67742   	0.055000	1.36435   	
0.060000	16.5152   	0.060000	6.16874   	0.060000	4.82827   	0.060000	4.82827   	0.060000	4.87267   	0.060000	1.29608   	
0.070000	17.6818   	0.070000	6.41953   	0.070000	4.99594   	0.070000	4.99594   	0.070000	5.2388    	0.070000	1.18074   	
0.080000	19.7129   	0.080000	6.82837   	0.080000	5.34526   	0.080000	5.34526   	0.080000	5.74162   	0.080000	1.08674   	
0.090000	21.5805   	0.090000	7.43228   	0.090000	5.93317   	0.090000	5.93317   	0.090000	6.42384   	0.090000	1.00844   	
0.100000	23.3241   	0.100000	8.00944   	0.100000	6.51309   	0.100000	6.51309   	0.100000	7.06741   	0.100000	0.942033  	
0.120000	25.8776   	0.120000	9.07578   	0.120000	7.62377   	0.120000	7.62377   	0.120000	8.24066   	0.120000	0.835129  	
0.140000	28.0671   	0.140000	10.026    	0.140000	8.64994   	0.140000	8.64994   	0.140000	9.27351   	0.140000	0.752457  	
0.160000	30.0664   	0.160000	10.8711   	0.160000	9.58699   	0.160000	9.58699   	0.160000	10.1847   	0.160000	0.686345  	
0.180000	31.9774   	0.180000	11.6264   	0.180000	10.4406   	0.180000	10.4406   	0.180000	10.9943   	0.180000	0.632102  	
0.200000	33.8521   	0.200000	12.3015   	0.200000	11.215    	0.200000	11.215    	0.200000	11.7203   	0.200000	0.581197  	
0.250000	37.4101   	0.250000	13.7993   	0.250000	12.9084   	0.250000	12.9084   	0.250000	13.3041   	0.250000	0.495159  	
0.300000	40.7162   	0.300000	15.0756   	0.300000	14.3341   	0.300000	14.3341   	0.300000	14.6424   	0.300000	0.433196  	
0.350000	43.7286   	0.350000	16.1876   	0.350000	15.5766   	0.350000	15.5766   	0.350000	15.8014   	0.350000	0.386214  	
0.400000	46.447    	0.400000	17.1836   	0.400000	16.6851   	0.400000	16.6851   	0.400000	16.8343   	0.400000	0.349232  	
0.450000	48.8849   	0.450000	18.0905   	0.450000	17.6891   	0.450000	17.6891   	0.450000	17.7712   	0.450000	0.319285  	
0.500000	51.5198   	0.500000	19.0338   	0.500000	18.6071   	0.500000	18.6071   	0.500000	18.7393   	0.500000	0.294487  	
0.600000	54.9359   	0.600000	21.1909   	0.600000	20.2321   	0.600000	20.2321   	0.600000	20.9352   	0.600000	0.255687  	
0.700000	56.9226   	0.700000	22.9983   	0.700000	21.6276   	0.700000	21.6276   	0.700000	22.7717   	0.700000	0.226612  	
0.800000	60.1664   	0.800000	24.5302   	0.800000	22.951    	0.800000	22.951    	0.800000	24.3263   	0.800000	0.203933  	
0.900000	62.779    	0.900000	25.8398   	0.900000	24.2933   	0.900000	24.2933   	0.900000	25.6541   	0.900000	0.185702  	
1.000000	64.6135   	1.000000	26.8562   	1.000000	25.4521   	1.000000	25.4521   	1.000000	26.6855   	1.000000	0.170697  	
1.250000	67.487    	1.250000	28.7572   	1.250000	27.7318   	1.250000	27.7318   	1.250000	28.6146   	1.250000	0.142598  	
1.500000	69.0474   	1.500000	30.1241   	1.500000	29.3711   	1.500000	29.3711   	1.500000	30.0011   	1.500000	0.122944  	
1.750000	69.4968   	1.750000	30.9935   	1.750000	30.5691   	1.750000	30.5691   	1.750000	30.8852   	1.750000	0.108361  	
2.000000	69.2177   	2.000000	31.4844   	2.000000	31.4517   	2.000000	31.4517   	2.000000	31.3874   	2.000000	0.0970753 	
2.250000	68.863    	2.250000	31.8562   	2.250000	32.1027   	2.250000	32.1027   	2.250000	31.7681   	2.250000	0.0880604 	
2.500000	101.77    	2.500000	32.1337   	2.500000	32.5792   	2.500000	32.5792   	2.500000	32.053    	2.500000	0.0806804 	
3.000000	98.7303   	3.000000	32.4852   	3.000000	33.1612   	3.000000	33.1612   	3.000000	32.4159   	3.000000	0.06929   	
3.500000	95.3501   	3.500000	32.6402   	3.500000	33.4099   	3.500000	33.4099   	3.500000	32.5793   	3.500000	0.0608817 	
4.000000	91.937    	4.000000	32.6494   	4.000000	33.4456   	4.000000	33.4456   	4.000000	32.595    	4.000000	0.0544011 	
4.500000	88.6274   	4.500000	32.5576   	4.500000	33.3413   	4.500000	33.3413   	4.500000	32.5083   	4.500000	0.0492421 	
5.000000	85.4795   	5.000000	32.3944   	5.000000	33.0776   	5.000000	33.0776   	5.000000	32.3494   	5.000000	0.0450309 	
5.500000	82.5137   	5.500000	32.1806   	5.500000	32.7248   	5.500000	32.7248   	5.500000	32.1391   	5.500000	0.0415236 	
6.000000	79.7324   	6.000000	31.9305   	6.000000	32.3548   	6.000000	32.3548   	6.000000	31.8919   	6.000000	0.038554  	
6.500000	77.1292   	6.500000	31.6508   	6.500000	31.9746   	6.500000	31.9746   	6.500000	31.6148   	6.500000	0.0360049 	
7.000000	74.6937   	7.000000	31.3533   	7.000000	31.5893   	7.000000	31.5893   	7.000000	31.3195   	7.000000	0.0337914 	
7.500000	72.4139   	7.500000	31.045    	7.500000	31.2025   	7.500000	31.2025   	7.500000	31.0131   	7.500000	0.0318499 	
8.000000	70.2777   	8.000000	30.7297   	8.000000	30.8168   	8.000000	30.8168   	8.000000	30.6996   	8.000000	0.0301322 	
8.500000	68.2736   	8.500000	30.4025   	8.500000	30.4342   	8.500000	30.4342   	8.500000	30.3739   	8.500000	0.0286011 	
9.000000	66.3905   	9.000000	30.0769   	9.000000	30.0559   	9.000000	30.0559   	9.000000	30.0497   	9.000000	0.027227  	
9.500000	64.6184   	9.500000	29.7546   	9.500000	29.6831   	9.500000	29.6831   	9.500000	29.7286   	9.500000	0.0259866 	
10.000000	62.9482   	10.000000	29.6309   	10.000000	29.3163   	10.000000	29.3163   	10.000000	29.606    	10.000000	0.0248608 	
11.000000	59.8807   	11.000000	29.1868   	11.000000	28.6372   	11.000000	29.1991   	11.000000	29.1639   	11.000000	0.0228939 	
12.000000	57.1306   	12.000000	28.6833   	12.000000	27.9589   	12.000000	28.9933   	12.000000	28.6621   	12.000000	0.0212315 	
13.000000	54.6509   	13.000000	28.1464   	13.000000	27.2954   	13.000000	28.7291   	13.000000	28.1266   	13.000000	0.0198066 	
14.000000	52.4033   	14.000000	27.5942   	14.000000	26.6499   	14.000000	28.4228   	14.000000	27.5756   	14.000000	0.018571  	
15.000000	50.3561   	15.000000	27.0386   	15.000000	26.0244   	15.000000	28.0869   	15.000000	27.0211   	15.000000	0.0174885 	
16.000000	48.4831   	16.000000	26.4875   	16.000000	25.4205   	16.000000	27.7309   	16.000000	26.4709   	16.000000	0.016532  	
17.000000	46.7625   	17.000000	25.9458   	17.000000	24.8393   	17.000000	27.3619   	17.000000	25.9301   	17.000000	0.0156802 	
18.000000	45.1761   	18.000000	25.4167   	18.000000	24.2818   	18.000000	26.9852   	18.000000	25.4018   	18.000000	0.0149165 	
19.000000	43.7082   	19.000000	24.9024   	19.000000	23.7466   	19.000000	26.6046   	19.000000	24.8881   	19.000000	0.0142277 	
20.000000	42.3458   	20.000000	24.4037   	20.000000	23.2314   	20.000000	26.2232   	20.000000	24.3901   	20.000000	0.0136031 	
21.000000	41.0775   	21.000000	23.9214   	21.000000	22.7128   	21.000000	25.8195   	21.000000	23.9084   	21.000000	0.0130339 	
22.000000	39.8937   	22.000000	23.4555   	22.000000	22.2146   	22.000000	25.4179   	22.000000	23.443    	22.000000	0.012513  	
23.000000	38.7859   	23.000000	23.006    	23.000000	21.7636   	23.000000	25.0474   	23.000000	22.994    	23.000000	0.0120344 	
24.000000	37.7469   	24.000000	22.5725   	24.000000	21.3314   	24.000000	24.6834   	24.000000	22.5609   	24.000000	0.011593  	
25.000000	36.7702   	25.000000	22.1546   	25.000000	20.9169   	25.000000	24.3264   	25.000000	22.1434   	25.000000	0.0111845 	
27.000000	34.9819   	27.000000	21.3635   	27.000000	20.1415   	27.000000	23.6352   	27.000000	21.3531   	27.000000	0.0104525 	
29.000000	33.3838   	29.000000	20.6283   	29.000000	19.4312   	29.000000	22.9754   	29.000000	20.6185   	29.000000	0.00981498	
31.000000	31.946    	31.000000	19.9444   	31.000000	18.7992   	31.000000	22.1989   	31.000000	19.9351   	31.000000	0.00925455	
33.000000	30.6451   	33.000000	19.3073   	33.000000	18.2352   	33.000000	21.3443   	33.000000	19.2985   	33.000000	0.00875777	
35.000000	29.4617   	35.000000	18.7128   	35.000000	17.7107   	35.000000	20.5636   	35.000000	18.7045   	35.000000	0.00831421	
38.000000	27.8736   	38.000000	17.893    	38.000000	16.9912   	38.000000	19.5103   	38.000000	17.8852   	38.000000	0.00773105	
41.000000	26.4732   	41.000000	17.1493   	41.000000	16.3424   	41.000000	18.5759   	41.000000	17.142    	41.000000	0.00722808	
44.000000	25.2283   	44.000000	16.472    	44.000000	15.7499   	44.000000	17.7405   	44.000000	16.4652   	44.000000	0.00678956	
47.000000	24.1137   	47.000000	15.8529   	47.000000	15.2082   	47.000000	16.9887   	47.000000	15.8465   	47.000000	0.00640367	
50.000000	23.1094   	50.000000	15.2851   	50.000000	14.7089   	50.000000	16.308    	50.000000	15.279    	50.000000	0.00606132	
55.000000	21.6385   	55.000000	14.4364   	55.000000	13.9627   	55.000000	15.3056   	55.000000	14.4309   	55.000000	0.00556893	
60.000000	20.3736   	60.000000	13.6911   	60.000000	13.3022   	60.000000	14.4385   	60.000000	13.6859   	60.000000	0.00515392	
65.000000	19.2732   	65.000000	13.0314   	65.000000	12.7163   	65.000000	13.6805   	65.000000	13.0266   	65.000000	0.00479913	
70.000000	18.3065   	70.000000	12.4436   	70.000000	12.1913   	70.000000	13.012    	70.000000	12.4391   	70.000000	0.00449216	
75.000000	17.4498   	75.000000	11.9165   	75.000000	11.7163   	75.000000	12.4177   	75.000000	11.9122   	75.000000	0.00422381	
80.000000	16.685    	80.000000	11.4412   	80.000000	11.2881   	80.000000	11.8858   	80.000000	11.4372   	80.000000	0.00398712	
85.000000	15.9976   	85.000000	11.0105   	85.000000	10.8958   	85.000000	11.4069   	85.000000	11.0067   	85.000000	0.00377671	
90.000000	15.3762   	90.000000	10.6184   	90.000000	10.5386   	90.000000	10.9734   	90.000000	10.6148   	90.000000	0.00358838	
95.000000	14.8114   	95.000000	10.2599   	95.000000	10.2101   	95.000000	10.579    	95.000000	10.2565   	95.000000	0.00341878	
100.000000	14.2957   	100.000000	9.93103   	100.000000	9.90703   	100.000000	10.2188   	100.000000	9.92776   	100.000000	0.0032652 	
105.000000	13.8227   	105.000000	9.62815   	105.000000	9.62787   	105.000000	9.88837   	105.000000	9.62502   	105.000000	0.00312543	
110.000000	13.3872   	110.000000	9.34833   	110.000000	9.36873   	110.000000	9.58422   	110.000000	9.34534   	110.000000	0.00299768	
115.000000	12.9849   	115.000000	9.08906   	115.000000	9.12737   	115.000000	9.30332   	115.000000	9.08618   	115.000000	0.00288042	
120.000000	12.6119   	120.000000	8.84816   	120.000000	8.90186   	120.000000	9.04311   	120.000000	8.84539   	120.000000	0.00277241	
125.000000	12.2651   	125.000000	8.62376   	125.000000	8.69121   	125.000000	8.80138   	125.000000	8.62109   	125.000000	0.00267256	
130.000000	11.9417   	130.000000	8.41422   	130.000000	8.49446   	130.000000	8.57623   	130.000000	8.41164   	130.000000	0.00257998	
135.000000	11.6394   	135.000000	8.21812   	135.000000	8.30934   	135.000000	8.36603   	135.000000	8.21563   	135.000000	0.00249388	
140.000000	11.3561   	140.000000	8.03422   	140.000000	8.13562   	140.000000	8.16933   	140.000000	8.03181   	140.000000	0.0024136 	
145.000000	11.0901   	145.000000	7.86143   	145.000000	7.97213   	145.000000	7.98488   	145.000000	7.85909   	145.000000	0.00233857	
150.000000	10.8398   	150.000000	7.69876   	150.000000	7.81745   	150.000000	7.81158   	150.000000	7.69649   	150.000000	0.00226826	
155.000000	10.4799   	155.000000	7.54537   	155.000000	7.67158   	155.000000	7.64845   	155.000000	7.54317   	155.000000	0.00220225	
160.000000	10.2727   	160.000000	7.40048   	160.000000	7.53364   	160.000000	7.49463   	160.000000	7.39834   	160.000000	0.00214014	
165.000000	10.0769   	165.000000	7.26342   	165.000000	7.40254   	165.000000	7.34935   	165.000000	7.26134   	165.000000	0.0020816 	
170.000000	9.89139   	170.000000	7.13358   	170.000000	7.27778   	170.000000	7.21193   	170.000000	7.13155   	170.000000	0.00202632	
175.000000	9.71548   	175.000000	7.01039   	175.000000	7.15913   	175.000000	7.08175   	175.000000	7.00842   	175.000000	0.00197403	
180.000000	9.54841   	180.000000	6.89337   	180.000000	7.04643   	180.000000	6.95826   	180.000000	6.89145   	180.000000	0.00192449	
185.000000	9.38952   	185.000000	6.78208   	185.000000	6.93931   	185.000000	6.84096   	185.000000	6.7802    	185.000000	0.00187749	
190.000000	9.23822   	190.000000	6.6761    	190.000000	6.83727   	190.000000	6.7294    	190.000000	6.67426   	190.000000	0.00183283	
195.000000	9.09396   	195.000000	6.57506   	195.000000	6.73976   	195.000000	6.62319   	195.000000	6.57327   	195.000000	0.00179034	
200.000000	8.95626   	200.000000	6.47864   	200.000000	6.64634   	200.000000	6.52194   	200.000000	6.47689   	200.000000	0.00174987	
210.000000	8.69883   	210.000000	6.29844   	210.000000	6.47094   	210.000000	6.33304   	210.000000	6.29677   	210.000000	0.0016744 	
220.000000	8.46282   	220.000000	6.13336   	220.000000	6.31074   	220.000000	6.16036   	220.000000	6.13176   	220.000000	0.00160545	
230.000000	8.24566   	230.000000	5.9816    	230.000000	6.16307   	230.000000	6.00194   	230.000000	5.98006   	230.000000	0.00154218	
240.000000	8.04515   	240.000000	5.84162   	240.000000	6.026     	240.000000	5.8561    	240.000000	5.84014   	240.000000	0.00148393	
250.000000	7.85945   	250.000000	5.71213   	250.000000	5.89903   	250.000000	5.72144   	250.000000	5.7107    	250.000000	0.00143009	
260.000000	7.68697   	260.000000	5.59202   	260.000000	5.78132   	260.000000	5.59675   	260.000000	5.59064   	260.000000	0.0013802 	
270.000000	7.52634   	270.000000	5.48031   	270.000000	5.67188   	270.000000	5.48099   	270.000000	5.47897   	270.000000	0.00133381	
280.000000	7.3764    	280.000000	5.37617   	280.000000	5.56987   	280.000000	5.37326   	280.000000	5.37488   	280.000000	0.00129057	
290.000000	7.2361    	290.000000	5.27887   	290.000000	5.47418   	290.000000	5.27278   	290.000000	5.27762   	290.000000	0.00125016	
300.000000	7.10455   	300.000000	5.18779   	300.000000	5.38403   	300.000000	5.17885   	300.000000	5.18657   	300.000000	0.00121231	
310.000000	6.98097   	310.000000	5.10234   	310.000000	5.2995    	310.000000	5.09089   	310.000000	5.10116   	310.000000	0.00117678	
320.000000	6.86466   	320.000000	5.02204   	320.000000	5.22056   	320.000000	5.00836   	320.000000	5.0209    	320.000000	0.00114336	
330.000000	6.755     	330.000000	4.94646   	330.000000	5.14601   	330.000000	4.93079   	330.000000	4.94535   	330.000000	0.00111187	
340.000000	6.65144   	340.000000	4.87519   	340.000000	5.07546   	340.000000	4.85777   	340.000000	4.87411   	340.000000	0.00108214	
350.000000	6.5535    	350.000000	4.80789   	350.000000	5.00895   	350.000000	4.78892   	350.000000	4.80684   	350.000000	0.00105402	
360.000000	6.46075   	360.000000	4.74425   	360.000000	4.94619   	360.000000	4.72392   	360.000000	4.74323   	360.000000	0.00102739	
370.000000	6.37278   	370.000000	4.684     	370.000000	4.88674   	370.000000	4.66246   	370.000000	4.68299   	370.000000	0.00100213	
380.000000	6.28925   	380.000000	4.62686   	380.000000	4.83017   	380.000000	4.60427   	380.000000	4.62588   	380.000000	0.000978135	
390.000000	6.20984   	390.000000	4.57263   	390.000000	4.77635   	390.000000	4.54912   	390.000000	4.57167   	390.000000	0.000955308	
400.000000	6.13426   	400.000000	4.52109   	400.000000	4.72528   	400.000000	4.49679   	400.000000	4.52015   	400.000000	0.000933567	
410.000000	6.06224   	410.000000	4.47205   	410.000000	4.67676   	410.000000	4.44708   	410.000000	4.47114   	410.000000	0.000912835	
420.000000	5.99356   	420.000000	4.42535   	420.000000	4.63057   	420.000000	4.39981   	420.000000	4.42446   	420.000000	0.000893042	
430.000000	5.92798   	430.000000	4.38083   	430.000000	4.58659   	430.000000	4.35481   	430.000000	4.37996   	430.000000	0.000874125	
440.000000	5.86532   	440.000000	4.33835   	440.000000	4.5447    	440.000000	4.31194   	440.000000	4.33749   	440.000000	0.000856027	
450.000000	5.8054    	450.000000	4.29778   	450.000000	4.50468   	450.000000	4.27105   	450.000000	4.29694   	450.000000	0.000838694	
460.000000	5.74804   	460.000000	4.259     	460.000000	4.46632   	460.000000	4.23203   	460.000000	4.25818   	460.000000	0.000822078	
470.000000	5.69309   	470.000000	4.2219    	470.000000	4.42954   	470.000000	4.19476   	470.000000	4.22109   	470.000000	0.000806135	
480.000000	5.64041   	480.000000	4.18638   	480.000000	4.39445   	480.000000	4.15922   	480.000000	4.18559   	480.000000	0.000790825	
490.000000	5.58988   	490.000000	4.15235   	490.000000	4.36097   	490.000000	4.12531   	490.000000	4.15158   	490.000000	0.00077611	
500.000000	5.54137   	500.000000	4.11973   	500.000000	4.3289    	500.000000	4.09283   	500.000000	4.11897   	500.000000	0.000761955	
520.000000	5.44997   	520.000000	4.05838   	520.000000	4.26864   	520.000000	4.03186   	520.000000	4.05764   	520.000000	0.000735201	
540.000000	5.36542   	540.000000	4.00176   	540.000000	4.21319   	540.000000	3.97573   	540.000000	4.00105   	540.000000	0.000710336	
560.000000	5.28704   	560.000000	3.94939   	560.000000	4.16184   	560.000000	3.92395   	560.000000	3.9487    	560.000000	0.000687164	
580.000000	5.21422   	580.000000	3.90085   	580.000000	4.11403   	580.000000	3.87606   	580.000000	3.90018   	580.000000	0.000665516	
600.000000	5.14644   	600.000000	3.85576   	600.000000	4.06992   	600.000000	3.83168   	600.000000	3.85512   	600.000000	0.000645244	
620.000000	5.08325   	620.000000	3.81382   	620.000000	4.02909   	620.000000	3.79049   	620.000000	3.81319   	620.000000	0.000626219	
640.000000	5.02425   	640.000000	3.77472   	640.000000	3.99086   	640.000000	3.75218   	640.000000	3.77411   	640.000000	0.000608328	
660.000000	4.96907   	660.000000	3.73822   	660.000000	3.9551    	660.000000	3.7165    	660.000000	3.73763   	660.000000	0.000591472	
680.000000	4.9174    	680.000000	3.7041    	680.000000	3.92178   	680.000000	3.68323   	680.000000	3.70352   	680.000000	0.000575561	
700.000000	4.86895   	700.000000	3.67216   	700.000000	3.89068   	700.000000	3.65214   	700.000000	3.6716    	700.000000	0.000560518	
720.000000	4.82348   	720.000000	3.64223   	720.000000	3.86159   	720.000000	3.62307   	720.000000	3.64168   	720.000000	0.000546272	
740.000000	4.78077   	740.000000	3.61415   	740.000000	3.83423   	740.000000	3.59585   	740.000000	3.61361   	740.000000	0.00053276	
760.000000	4.74059   	760.000000	3.58777   	760.000000	3.80842   	760.000000	3.57033   	760.000000	3.58725   	760.000000	0.000519928	
780.000000	4.70278   	780.000000	3.56297   	780.000000	3.78418   	780.000000	3.54639   	780.000000	3.56247   	780.000000	0.000507723	
800.000000	4.66717   	800.000000	3.53964   	800.000000	3.76155   	800.000000	3.5239    	800.000000	3.53914   	800.000000	0.000496101	
820.000000	4.6336    	820.000000	3.51767   	820.000000	3.74034   	820.000000	3.50275   	820.000000	3.51718   	820.000000	0.00048502	
840.000000	4.60194   	840.000000	3.49696   	840.000000	3.72032   	840.000000	3.48286   	840.000000	3.49649   	840.000000	0.000474442	
860.000000	4.57206   	860.000000	3.47744   	860.000000	3.70136   	860.000000	3.46412   	860.000000	3.47697   	860.000000	0.000464334	
880.000000	4.54385   	880.000000	3.45901   	880.000000	3.68342   	880.000000	3.44647   	880.000000	3.45856   	880.000000	0.000454665	
900.000000	4.51721   	900.000000	3.44162   	900.000000	3.66649   	900.000000	3.42982   	900.000000	3.44117   	900.000000	0.000445407	
920.000000	4.49204   	920.000000	3.42519   	920.000000	3.65054   	920.000000	3.41411   	920.000000	3.42475   	920.000000	0.000436532	
940.000000	4.46825   	940.000000	3.40966   	940.000000	3.63548   	940.000000	3.39928   	940.000000	3.40924   	940.000000	0.000428018	
960.000000	4.44577   	960.000000	3.39499   	960.000000	3.62124   	960.000000	3.38527   	960.000000	3.39457   	960.000000	0.000419843	
980.000000	4.42451   	980.000000	3.38111   	980.000000	3.60777   	980.000000	3.37204   	980.000000	3.3807    	980.000000	0.000411987	
1000.000000	4.40441   	1000.000000	3.36799   	1000.000000	3.59503   	1000.000000	3.35952   	1000.000000	3.36759   	1000.000000	0.000404431	
1020.000000	4.3854    	1020.000000	3.35558   	1020.000000	3.58297   	1020.000000	3.34768   	1020.000000	3.35518   	1020.000000	0.000397158	
1040.000000	4.36743   	1040.000000	3.34383   	1040.000000	3.57157   	1040.000000	3.33648   	1040.000000	3.34344   	1040.000000	0.000390152	
1060.000000	4.35044   	1060.000000	3.33272   	1060.000000	3.56079   	1060.000000	3.32587   	1060.000000	3.33234   	1060.000000	0.000383399	
1080.000000	4.33438   	1080.000000	3.32221   	1080.000000	3.55055   	1080.000000	3.31583   	1080.000000	3.32183   	1080.000000	0.000376884	
1100.000000	4.31921   	1100.000000	3.31226   	1100.000000	3.54084   	1100.000000	3.30633   	1100.000000	3.31189   	1100.000000	0.000370596	
1120.000000	4.30487   	1120.000000	3.30285   	1120.000000	3.5316    	1120.000000	3.29732   	1120.000000	3.30248   	1120.000000	0.000364523	
1140.000000	4.29133   	1140.000000	3.29394   	1140.000000	3.52281   	1140.000000	3.28879   	1140.000000	3.29359   	1140.000000	0.000358653	
1160.000000	4.27855   	1160.000000	3.28552   	1160.000000	3.51446   	1160.000000	3.28071   	1160.000000	3.28517   	1160.000000	0.000352977	
1180.000000	4.26649   	1180.000000	3.27756   	1180.000000	3.50655   	1180.000000	3.27305   	1180.000000	3.27722   	1180.000000	0.000347484	
1200.000000	4.25513   	1200.000000	3.27004   	1200.000000	3.49906   	1200.000000	3.26579   	1200.000000	3.2697    	1200.000000	0.000342167	
1220.000000	4.24442   	1220.000000	3.26293   	1220.000000	3.49198   	1220.000000	3.25891   	1220.000000	3.26259   	1220.000000	0.000337016	
1240.000000	4.23434   	1240.000000	3.25622   	1240.000000	3.48529   	1240.000000	3.25239   	1240.000000	3.25589   	1240.000000	0.000332024	
1260.000000	4.22486   	1260.000000	3.24988   	1260.000000	3.47895   	1260.000000	3.24621   	1260.000000	3.24955   	1260.000000	0.000327183	
1280.000000	4.21595   	1280.000000	3.24391   	1280.000000	3.47294   	1280.000000	3.24036   	1280.000000	3.24358   	1280.000000	0.000322487	
1300.000000	4.2076    	1300.000000	3.23827   	1300.000000	3.46724   	1300.000000	3.23481   	1300.000000	3.23796   	1300.000000	0.00031793	
1320.000000	4.19977   	1320.000000	3.23297   	1320.000000	3.46182   	1320.000000	3.22956   	1320.000000	3.23266   	1320.000000	0.000313504	
1340.000000	4.19245   	1340.000000	3.22798   	1340.000000	3.45667   	1340.000000	3.22459   	1340.000000	3.22767   	1340.000000	0.000309204	
1360.000000	4.18561   	1360.000000	3.22329   	1360.000000	3.45177   	1360.000000	3.21988   	1360.000000	3.22299   	1360.000000	0.000305026	
1380.000000	4.17924   	1380.000000	3.21889   	1380.000000	3.44713   	1380.000000	3.21542   	1380.000000	3.21859   	1380.000000	0.000300963	
1400.000000	4.17332   	1400.000000	3.21476   	1400.000000	3.44273   	1400.000000	3.2112    	1400.000000	3.21446   	1400.000000	0.000297011	
1420.000000	4.16782   	1420.000000	3.2109    	1420.000000	3.43855   	1420.000000	3.20721   	1420.000000	3.21061   	1420.000000	0.000293166	
1440.000000	4.16274   	1440.000000	3.20729   	1440.000000	3.4346    	1440.000000	3.20344   	1440.000000	3.207     	1440.000000	0.000289423	
1460.000000	4.15805   	1460.000000	3.20392   	1460.000000	3.43086   	1460.000000	3.19987   	1460.000000	3.20364   	1460.000000	0.000285778	
1480.000000	4.15375   	1480.000000	3.20079   	1480.000000	3.42732   	1480.000000	3.19651   	1480.000000	3.20051   	1480.000000	0.000282227	
1500.000000	4.14981   	1500.000000	3.19788   	1500.000000	3.42398   	1500.000000	3.19333   	1500.000000	3.1976    	1500.000000	0.000278767	
1520.000000	4.14623   	1520.000000	3.19518   	1520.000000	3.42083   	1520.000000	3.19034   	1520.000000	3.19491   	1520.000000	0.000275394	
1540.000000	4.14299   	1540.000000	3.1927    	1540.000000	3.41785   	1540.000000	3.18751   	1540.000000	3.19242   	1540.000000	0.000272104	
1560.000000	4.14008   	1560.000000	3.19041   	1560.000000	3.41504   	1560.000000	3.18486   	1560.000000	3.19014   	1560.000000	0.000268896	
1580.000000	4.13749   	1580.000000	3.18831   	1580.000000	3.41239   	1580.000000	3.18236   	1580.000000	3.18805   	1580.000000	0.000265765	
1600.000000	4.13521   	1600.000000	3.1864    	1600.000000	3.4099    	1600.000000	3.18001   	1600.000000	3.18614   	1600.000000	0.000262709	
1620.000000	4.13322   	1620.000000	3.18466   	1620.000000	3.40755   	1620.000000	3.17781   	1620.000000	3.1844    	1620.000000	0.000259725	
1640.000000	4.13153   	1640.000000	3.1831    	1640.000000	3.40535   	1640.000000	3.17574   	1640.000000	3.18284   	1640.000000	0.000256811	
1660.000000	4.13011   	1660.000000	3.1817    	1660.000000	3.40329   	1660.000000	3.17381   	1660.000000	3.18145   	1660.000000	0.000253964	
1680.000000	4.12896   	1680.000000	3.18047   	1680.000000	3.40135   	1680.000000	3.17201   	1680.000000	3.18021   	1680.000000	0.000251182	
1700.000000	4.12807   	1700.000000	3.17938   	1700.000000	3.39954   	1700.000000	3.17033   	1700.000000	3.17913   	1700.000000	0.000248462	
1750.000000	4.12693   	1750.000000	3.17731   	1750.000000	3.39552   	1750.000000	3.16662   	1750.000000	3.17707   	1750.000000	0.000241924	
1800.000000	4.12725   	1800.000000	3.17609   	1800.000000	3.39219   	1800.000000	3.16358   	1800.000000	3.17585   	1800.000000	0.000235733	
1850.000000	4.12891   	1850.000000	3.17565   	1850.000000	3.38946   	1850.000000	3.16112   	1850.000000	3.17543   	1850.000000	0.000229863	
1900.000000	4.13184   	1900.000000	3.17594   	1900.000000	3.38728   	1900.000000	3.15921   	1900.000000	3.17572   	1900.000000	0.000224289	
1950.000000	4.13593   	1950.000000	3.1769    	1950.000000	3.38559   	1950.000000	3.15778   	1950.000000	3.17668   	1950.000000	0.000218989	
2000.000000	4.14111   	2000.000000	3.17847   	2000.000000	3.38435   	2000.000000	3.15679   	2000.000000	3.17825   	2000.000000	0.000213942	
2100.000000	4.15445   	2100.000000	3.18329   	2100.000000	3.38304   	2100.000000	3.15597   	2100.000000	3.18308   	2100.000000	0.000204541	
2200.000000	4.17138   	2200.000000	3.19009   	2200.000000	3.38308   	2200.000000	3.15647   	2200.000000	3.1899    	2200.000000	0.000195959	
2300.000000	4.19149   	2300.000000	3.19862   	2300.000000	3.38424   	2300.000000	3.15807   	2300.000000	3.19843   	2300.000000	0.000188093	
2400.000000	4.21441   	2400.000000	3.20865   	2400.000000	3.38635   	2400.000000	3.16058   	2400.000000	3.20847   	2400.000000	0.000180856	
2500.000000	4.23988   	2500.000000	3.22001   	2500.000000	3.3893    	2500.000000	3.16391   	2500.000000	3.21984   	2500.000000	0.000174174	
2600.000000	4.26762   	2600.000000	3.23254   	2600.000000	3.39326   	2600.000000	3.1682    	2600.000000	3.23238   	2600.000000	0.000167985	
2700.000000	4.29744   	2700.000000	3.24612   	2700.000000	3.39776   	2700.000000	3.17301   	2700.000000	3.24595   	2700.000000	0.000162237	
2800.000000	4.32914   	2800.000000	3.26062   	2800.000000	3.40271   	2800.000000	3.17825   	2800.000000	3.26046   	2800.000000	0.000156882	
2900.000000	4.36257   	2900.000000	3.27594   	2900.000000	3.40805   	2900.000000	3.18384   	2900.000000	3.27579   	2900.000000	0.000151882	
3000.000000	4.39759   	3000.000000	3.29202   	3000.000000	3.4137    	3000.000000	3.18974   	3000.000000	3.29187   	3000.000000	0.000147201	
3200.000000	4.47191   	3200.000000	3.32612   	3200.000000	3.42571   	3200.000000	3.20221   	3200.000000	3.32598   	3200.000000	0.000138684	
3400.000000	4.55129   	3400.000000	3.36242   	3400.000000	3.43841   	3400.000000	3.21534   	3400.000000	3.36229   	3400.000000	0.000131129	
3600.000000	4.63509   	3600.000000	3.40055   	3600.000000	3.45153   	3600.000000	3.2289    	3600.000000	3.40043   	3600.000000	0.000124381	
3800.000000	4.72281   	3800.000000	3.44021   	3800.000000	3.4649    	3800.000000	3.2427    	3800.000000	3.44009   	3800.000000	0.000118316	
4000.000000	4.81403   	4000.000000	3.48116   	4000.000000	3.4784    	4000.000000	3.25661   	4000.000000	3.48104   	4000.000000	0.000112835	
4200.000000	4.90842   	4200.000000	3.52319   	4200.000000	3.49193   	4200.000000	3.27055   	4200.000000	3.52309   	4200.000000	0.000107855	
4400.000000	5.0057    	4400.000000	3.56617   	4400.000000	3.50544   	4400.000000	3.28443   	4400.000000	3.56606   	4400.000000	0.00010331	
4600.000000	5.10564   	4600.000000	3.60994   	4600.000000	3.51887   	4600.000000	3.29821   	4600.000000	3.60984   	4600.000000	9.9145e-05	
4800.000000	5.20805   	4800.000000	3.65441   	4800.000000	3.53217   	4800.000000	3.31184   	4800.000000	3.65431   	4800.000000	9.5314e-05	
5000.000000	5.31278   	5000.000000	3.69948   	5000.000000	3.54533   	5000.000000	3.3253    	5000.000000	3.69939   	5000.000000	9.17777e-05	
5250.000000	5.44672   	5250.000000	3.75655   	5250.000000	3.56154   	5250.000000	3.34184   	5250.000000	3.75646   	5250.000000	8.77218e-05	
5500.000000	5.58382   	5500.000000	3.81431   	5500.000000	3.57745   	5500.000000	3.35806   	5500.000000	3.81423   	5500.000000	8.40206e-05	
6000.000000	5.86679   	6000.000000	3.93153   	6000.000000	3.60824   	6000.000000	3.38943   	6000.000000	3.93145   	6000.000000	7.75096e-05	
6500.000000	6.1605    	6500.000000	4.0505    	6500.000000	3.63729   	6500.000000	3.41938   	6500.000000	4.05043   	6500.000000	7.1964e-05	
7000.000000	6.46411   	7000.000000	4.17077   	7000.000000	3.66515   	7000.000000	3.44792   	7000.000000	4.17071   	7000.000000	6.71819e-05	
7500.000000	6.77699   	7500.000000	4.29202   	7500.000000	3.6917    	7500.000000	3.4751    	7500.000000	4.29196   	7500.000000	6.30144e-05	
8000.000000	7.09865   	8000.000000	4.41401   	8000.000000	3.7168    	8000.000000	3.50101   	8000.000000	4.41395   	8000.000000	5.9349e-05	
8500.000000	7.42874   	8500.000000	4.53655   	8500.000000	3.74067   	8500.000000	3.52571   	8500.000000	4.53649   	8500.000000	5.60992e-05	
9000.000000	7.76696   	9000.000000	4.65951   	9000.000000	3.7635    	9000.000000	3.54929   	9000.000000	4.65946   	9000.000000	5.31975e-05	
9500.000000	8.11311   	9500.000000	4.78278   	9500.000000	3.78528   	9500.000000	3.57183   	9500.000000	4.78273   	9500.000000	5.05902e-05	
10000.000000	8.46699   	10000.000000	4.90628   	10000.000000	3.80607   	10000.000000	3.59339   	10000.000000	4.90623   	10000.000000	4.82342e-05	
11000.000000	9.19742   	11000.000000	5.15373   	11000.000000	3.84488   	11000.000000	3.63386   	11000.000000	5.15368   	11000.000000	4.41425e-05	
12000.000000	9.9574    	12000.000000	5.40146   	12000.000000	3.88043   	12000.000000	3.67117   	12000.000000	5.40142   	12000.000000	4.07093e-05	
13000.000000	10.7464   	13000.000000	5.64924   	13000.000000	3.91308   	13000.000000	3.70574   	13000.000000	5.6492    	13000.000000	3.77861e-05	
14000.000000	11.5639   	14000.000000	5.8969    	14000.000000	3.94322   	14000.000000	3.73789   	14000.000000	5.89686   	14000.000000	3.52662e-05	
15000.000000	12.4098   	15000.000000	6.14433   	15000.000000	3.97117   	15000.000000	3.76792   	15000.000000	6.1443    	15000.000000	3.30708e-05	
16000.000000	13.2839   	16000.000000	6.39147   	16000.000000	3.99712   	16000.000000	3.79607   	16000.000000	6.39144   	16000.000000	3.11403e-05	
17000.000000	14.1861   	17000.000000	6.63827   	17000.000000	4.02132   	17000.000000	3.82254   	17000.000000	6.63824   	17000.000000	2.94292e-05	
18000.000000	15.1163   	18000.000000	6.88469   	18000.000000	4.04399   	18000.000000	3.8475    	18000.000000	6.88466   	18000.000000	2.79017e-05	
19000.000000	16.0745   	19000.000000	7.13072   	19000.000000	4.06533   	19000.000000	3.87111   	19000.000000	7.13069   	19000.000000	2.65295e-05	
20000.000000	17.0608   	20000.000000	7.37634   	20000.000000	4.08551   	20000.000000	3.8935    	20000.000000	7.37632   	20000.000000	2.52898e-05	
21000.000000	18.0751   	21000.000000	7.62155   	21000.000000	4.10452   	21000.000000	3.91477   	21000.000000	7.62153   	21000.000000	2.41641e-05	
22000.000000	19.1176   	22000.000000	7.86635   	22000.000000	4.12219   	22000.000000	3.93504   	22000.000000	7.86633   	22000.000000	2.31373e-05	
23000.000000	20.1883   	23000.000000	8.11075   	23000.000000	4.13881   	23000.000000	3.95437   	23000.000000	8.11072   	23000.000000	2.21967e-05	
24000.000000	21.2873   	24000.000000	8.35473   	24000.000000	4.1546    	24000.000000	3.97285   	24000.000000	8.35471   	24000.000000	2.13319e-05	
25000.000000	22.4147   	25000.000000	8.59832   	25000.000000	4.16963   	25000.000000	3.99055   	25000.000000	8.5983    	25000.000000	2.05338e-05	
26000.000000	23.5706   	26000.000000	8.84151   	26000.000000	4.1839    	26000.000000	4.00753   	26000.000000	8.84149   	26000.000000	1.97951e-05	
27000.000000	24.7551   	27000.000000	9.08432   	27000.000000	4.19742   	27000.000000	4.02383   	27000.000000	9.0843    	27000.000000	1.91093e-05	
28000.000000	25.9683   	28000.000000	9.32674   	28000.000000	4.21025   	28000.000000	4.03952   	28000.000000	9.32673   	28000.000000	1.84707e-05	
29000.000000	27.2104   	29000.000000	9.5688    	29000.000000	4.22245   	29000.000000	4.05462   	29000.000000	9.56878   	29000.000000	1.78748e-05	
30000.000000	28.4815   	30000.000000	9.81049   	30000.000000	4.23406   	30000.000000	4.06919   	30000.000000	9.81047   	30000.000000	1.73172e-05	
32000.000000	31.1111   	32000.000000	10.2928   	32000.000000	4.25569   	32000.000000	4.09683   	32000.000000	10.2928   	32000.000000	1.63031e-05	
34000.000000	33.8582   	34000.000000	10.7738   	34000.000000	4.27543   	34000.000000	4.1227    	34000.000000	10.7738   	34000.000000	1.54044e-05	
36000.000000	36.724    	36000.000000	11.2534   	36000.000000	4.2934    	36000.000000	4.14699   	36000.000000	11.2534   	36000.000000	1.46023e-05	
38000.000000	39.7098   	38000.000000	11.7319   	38000.000000	4.30981   	38000.000000	4.16988   	38000.000000	11.7319   	38000.000000	1.38819e-05	
40000.000000	42.8166   	40000.000000	12.2091   	40000.000000	4.32488   	40000.000000	4.19152   	40000.000000	12.2091   	40000.000000	1.32312e-05	
42000.000000	46.0458   	42000.000000	12.6852   	42000.000000	4.33878   	42000.000000	4.21202   	42000.000000	12.6852   	42000.000000	1.26405e-05	
44000.000000	49.3986   	44000.000000	13.1602   	44000.000000	4.35171   	44000.000000	4.23149   	44000.000000	13.1602   	44000.000000	1.21017e-05	
46000.000000	52.8764   	46000.000000	13.6342   	46000.000000	4.36382   	46000.000000	4.25004   	46000.000000	13.6342   	46000.000000	1.16082e-05	
48000.000000	56.4803   	48000.000000	14.1072   	48000.000000	4.37516   	48000.000000	4.26773   	48000.000000	14.1071   	48000.000000	1.11546e-05	
50000.000000	60.2118   	50000.000000	14.5792   	50000.000000	4.3856    	50000.000000	4.28464   	50000.000000	14.5791   	50000.000000	1.0736e-05	
