Energy (MeV/u)1	0 - [He-base] F.Hubert et al, AD&ND Tables 46(1990)1	Energy (MeV/u)2	1 - [H -base] J.F.Ziegler et al, Pergamon Press, NY (low energy)	Energy (MeV/u)3	2 - ATIMA 1.2  LS-theory (recommended for high energy)	Energy (MeV/u)4	3 - ATIMA 1.2  without LS-correction	Energy (MeV/u)5	4 - electrical component of [1] - J.F.Ziegler et al	Energy (MeV/u)6	5 - nuclear component of [1] - J.F.Ziegler et al	
0.001000	0.292351  	0.001000	0.0542357 	0.001000	0.055551  	0.001000	0.055551  	0.001000	0.0345099 	0.001000	0.0197258 	
0.002000	0.363394  	0.002000	0.0775442 	0.002000	0.0798201 	0.002000	0.0798201 	0.002000	0.0597197 	0.002000	0.0178244 	
0.005000	0.553642  	0.005000	0.130441  	0.005000	0.134899  	0.005000	0.134899  	0.005000	0.116987  	0.005000	0.0134543 	
0.008000	0.698326  	0.008000	0.171187  	0.008000	0.177292  	0.008000	0.177292  	0.008000	0.160236  	0.008000	0.0109507 	
0.010000	0.778396  	0.010000	0.194382  	0.010000	0.201416  	0.010000	0.201416  	0.010000	0.184579  	0.010000	0.00980286	
0.015000	0.992136  	0.015000	0.241105  	0.015000	0.252818  	0.015000	0.252818  	0.015000	0.233239  	0.015000	0.00786529	
0.020000	1.17113   	0.020000	0.280044  	0.020000	0.296268  	0.020000	0.296268  	0.020000	0.273406  	0.020000	0.00663852	
0.025000	1.32383   	0.025000	0.313701  	0.025000	0.334935  	0.025000	0.334935  	0.025000	0.30792   	0.025000	0.00578111	
0.030000	1.45476   	0.030000	0.34343   	0.030000	0.36143   	0.030000	0.36143   	0.030000	0.338287  	0.030000	0.00514284	
0.035000	1.56668   	0.035000	0.370053  	0.035000	0.385008  	0.035000	0.385008  	0.035000	0.365406  	0.035000	0.00464641	
0.040000	1.66151   	0.040000	0.394112  	0.040000	0.406271  	0.040000	0.406271  	0.040000	0.389864  	0.040000	0.00424762	
0.045000	1.74076   	0.045000	0.415982  	0.045000	0.42562   	0.045000	0.42562   	0.045000	0.412063  	0.045000	0.00391923	
0.050000	1.80582   	0.050000	0.435941  	0.050000	0.443337  	0.050000	0.443337  	0.050000	0.432297  	0.050000	0.00364343	
0.055000	1.85802   	0.055000	0.454195  	0.055000	0.459628  	0.055000	0.459628  	0.055000	0.450787  	0.055000	0.00340806	
0.060000	1.8987    	0.060000	0.470882  	0.060000	0.474615  	0.060000	0.474615  	0.060000	0.467708  	0.060000	0.00317446	
0.070000	1.95071   	0.070000	0.500228  	0.070000	0.501296  	0.070000	0.501296  	0.070000	0.497385  	0.070000	0.00284337	
0.080000	1.97197   	0.080000	0.524802  	0.080000	0.524062  	0.080000	0.524062  	0.080000	0.522222  	0.080000	0.00258072	
0.090000	1.97142   	0.090000	0.545269  	0.090000	0.543425  	0.090000	0.543425  	0.090000	0.542902  	0.090000	0.00236671	
0.100000	1.95641   	0.100000	0.562174  	0.100000	0.559787  	0.100000	0.559787  	0.100000	0.559985  	0.100000	0.0021886 	
0.120000	1.90378   	0.120000	0.58711   	0.120000	0.584804  	0.120000	0.584804  	0.120000	0.585202  	0.120000	0.00190828	
0.140000	1.84164   	0.140000	0.602689  	0.140000	0.601347  	0.140000	0.601347  	0.140000	0.600992  	0.140000	0.00169687	
0.160000	1.78172   	0.160000	0.611285  	0.160000	0.611226  	0.160000	0.611226  	0.160000	0.609754  	0.160000	0.00153114	
0.180000	1.72773   	0.180000	0.614724  	0.180000	0.615929  	0.180000	0.615929  	0.180000	0.613326  	0.180000	0.00139739	
0.200000	1.67993   	0.200000	0.614387  	0.200000	0.616668  	0.200000	0.616668  	0.200000	0.6131    	0.200000	0.00128693	
0.250000	1.58126   	0.250000	0.60321   	0.250000	0.607053  	0.250000	0.607053  	0.250000	0.602131  	0.250000	0.00107915	
0.300000	1.50069   	0.300000	0.58443   	0.300000	0.58851   	0.300000	0.58851   	0.300000	0.583497  	0.300000	0.000933073	
0.350000	1.42966   	0.350000	0.562893  	0.350000	0.566495  	0.350000	0.566495  	0.350000	0.562069  	0.350000	0.000824256	
0.400000	1.3646    	0.400000	0.540896  	0.400000	0.543764  	0.400000	0.543764  	0.400000	0.540157  	0.400000	0.000739778	
0.450000	1.30418   	0.450000	0.51952   	0.450000	0.521644  	0.450000	0.521644  	0.450000	0.518847  	0.450000	0.000672129	
0.500000	1.2479    	0.500000	0.499249  	0.500000	0.500727  	0.500000	0.500727  	0.500000	0.498632  	0.500000	0.000616628	
0.600000	1.14676   	0.600000	0.462618  	0.600000	0.463189  	0.600000	0.463189  	0.600000	0.462087  	0.600000	0.000530746	
0.700000	1.05944   	0.700000	0.431086  	0.700000	0.431178  	0.700000	0.431178  	0.700000	0.430619  	0.700000	0.000467165	
0.800000	0.984052  	0.800000	0.403992  	0.800000	0.403884  	0.800000	0.403884  	0.800000	0.403574  	0.800000	0.000418046	
0.900000	0.918706  	0.900000	0.380582  	0.900000	0.380433  	0.900000	0.380433  	0.900000	0.380203  	0.900000	0.000378871	
1.000000	0.861706  	1.000000	0.360187  	1.000000	0.360082  	1.000000	0.360082  	1.000000	0.35984   	1.000000	0.00034684	
1.250000	0.747004  	1.250000	0.31906   	1.250000	0.319201  	1.250000	0.319201  	1.250000	0.318772  	1.250000	0.000287394	
1.500000	0.660395  	1.500000	0.287745  	1.500000	0.28814   	1.500000	0.28814   	1.500000	0.287499  	1.500000	0.00024625	
1.750000	0.592563  	1.750000	0.262928  	1.750000	0.263523  	1.750000	0.263523  	1.750000	0.262712  	1.750000	0.000215968	
2.000000	0.537894  	2.000000	0.242665  	2.000000	0.243405  	2.000000	0.243405  	2.000000	0.242473  	2.000000	0.000192683	
2.250000	0.492836  	2.250000	0.225747  	2.250000	0.226586  	2.250000	0.226586  	2.250000	0.225573  	2.250000	0.000174183	
2.500000	0.447396  	2.500000	0.211373  	2.500000	0.212277  	2.500000	0.212277  	2.500000	0.211213  	2.500000	0.000159107	
3.000000	0.390509  	3.000000	0.188196  	3.000000	0.189164  	3.000000	0.189164  	3.000000	0.18806   	3.000000	0.000135967	
3.500000	0.347387  	3.500000	0.170268  	3.500000	0.171247  	3.500000	0.171247  	3.500000	0.170149  	3.500000	0.000118991	
4.000000	0.313472  	4.000000	0.155951  	4.000000	0.156914  	4.000000	0.156914  	4.000000	0.155845  	4.000000	0.000105973	
4.500000	0.286041  	4.500000	0.144229  	4.500000	0.145162  	4.500000	0.145162  	4.500000	0.144134  	4.500000	9.56528e-05	
5.000000	0.263359  	5.000000	0.134438  	5.000000	0.135334  	5.000000	0.135334  	5.000000	0.134351  	5.000000	8.72587e-05	
5.500000	0.244266  	5.500000	0.126122  	5.500000	0.126978  	5.500000	0.126978  	5.500000	0.126042  	5.500000	8.02893e-05	
6.000000	0.227956  	6.000000	0.11896   	6.000000	0.119776  	6.000000	0.119776  	6.000000	0.118885  	6.000000	7.44045e-05	
6.500000	0.213849  	6.500000	0.112717  	6.500000	0.113495  	6.500000	0.113495  	6.500000	0.112648  	6.500000	6.93655e-05	
7.000000	0.201518  	7.000000	0.10722   	7.000000	0.107961  	7.000000	0.107961  	7.000000	0.107155  	7.000000	6.49993e-05	
7.500000	0.190642  	7.500000	0.102337  	7.500000	0.103042  	7.500000	0.103042  	7.500000	0.102276  	7.500000	6.11773e-05	
8.000000	0.180971  	8.000000	0.0979648 	8.000000	0.0986365 	8.000000	0.0986365 	8.000000	0.097907  	8.000000	5.78021e-05	
8.500000	0.172313  	8.500000	0.0940235 	8.500000	0.0946635 	8.500000	0.0946635 	8.500000	0.0939687 	8.500000	5.47984e-05	
9.000000	0.164512  	9.000000	0.0904489 	9.000000	0.0910592 	9.000000	0.0910592 	9.000000	0.0903968 	9.000000	5.2107e-05	
9.500000	0.157445  	9.500000	0.0871894 	9.500000	0.0877717 	9.500000	0.0877717 	9.500000	0.0871397 	9.500000	4.96809e-05	
10.000000	0.151012  	10.000000	0.084987  	10.000000	0.0847587 	10.000000	0.0847587 	10.000000	0.0849395 	10.000000	4.74819e-05	
11.000000	0.139725  	11.000000	0.0803105 	11.000000	0.0796534 	11.000000	0.0796609 	11.000000	0.0802669 	11.000000	4.3647e-05	
12.000000	0.13014   	12.000000	0.0761002 	12.000000	0.0752366 	12.000000	0.0752492 	12.000000	0.0760598 	12.000000	4.04127e-05	
13.000000	0.121893  	13.000000	0.0723058 	13.000000	0.0713695 	13.000000	0.0713835 	13.000000	0.0722681 	13.000000	3.76463e-05	
14.000000	0.114716  	14.000000	0.0688775 	14.000000	0.0679481 	14.000000	0.0679614 	14.000000	0.0688423 	14.000000	3.52515e-05	
15.000000	0.108411  	15.000000	0.0657702 	15.000000	0.0648921 	15.000000	0.0649052 	15.000000	0.0657371 	15.000000	3.3157e-05	
16.000000	0.102825  	16.000000	0.062944  	16.000000	0.0621426 	16.000000	0.0621553 	16.000000	0.0629127 	16.000000	3.13089e-05	
17.000000	0.0978401 	17.000000	0.0603642 	17.000000	0.0596533 	17.000000	0.0596644 	17.000000	0.0603346 	17.000000	2.96654e-05	
18.000000	0.0933617 	18.000000	0.0580013 	18.000000	0.0573865 	18.000000	0.0573949 	18.000000	0.0579731 	18.000000	2.81938e-05	
19.000000	0.0893154 	19.000000	0.0558298 	19.000000	0.0553102 	19.000000	0.0553164 	19.000000	0.055803  	19.000000	2.68681e-05	
20.000000	0.0856404 	20.000000	0.0538279 	20.000000	0.0533931 	20.000000	0.0533993 	20.000000	0.0538022 	20.000000	2.56672e-05	
21.000000	0.0822869 	21.000000	0.0519767 	21.000000	0.0516255 	21.000000	0.0516322 	21.000000	0.0519521 	21.000000	2.45741e-05	
22.000000	0.0792136 	22.000000	0.05026   	22.000000	0.0499883 	22.000000	0.0499934 	22.000000	0.0502364 	22.000000	2.35747e-05	
23.000000	0.0763863 	23.000000	0.0486638 	23.000000	0.0484666 	23.000000	0.0484681 	23.000000	0.0486411 	23.000000	2.26571e-05	
24.000000	0.073776  	24.000000	0.0471759 	24.000000	0.0470461 	24.000000	0.047044  	24.000000	0.0471541 	24.000000	2.18116e-05	
25.000000	0.0713582 	25.000000	0.0457857 	25.000000	0.0457159 	25.000000	0.0457107 	25.000000	0.0457647 	25.000000	2.10299e-05	
27.000000	0.0670193 	27.000000	0.0432623 	27.000000	0.0432941 	27.000000	0.0432809 	27.000000	0.0432426 	27.000000	1.96306e-05	
29.000000	0.0632345 	29.000000	0.0410316 	29.000000	0.041136  	29.000000	0.0411195 	29.000000	0.0410132 	29.000000	1.84137e-05	
31.000000	0.0599024 	31.000000	0.0390454 	31.000000	0.0391781 	31.000000	0.0391607 	31.000000	0.0390281 	31.000000	1.73453e-05	
33.000000	0.0569449 	33.000000	0.0372655 	33.000000	0.0374084 	33.000000	0.0373856 	33.000000	0.0372491 	33.000000	1.63993e-05	
35.000000	0.0543011 	35.000000	0.0356609 	35.000000	0.0358103 	35.000000	0.0357886 	35.000000	0.0356454 	35.000000	1.55557e-05	
38.000000	0.0508205 	38.000000	0.0335298 	38.000000	0.0336959 	38.000000	0.0336708 	38.000000	0.0335154 	38.000000	1.44479e-05	
41.000000	0.047814  	41.000000	0.0316725 	41.000000	0.0318523 	41.000000	0.0318267 	41.000000	0.031659  	41.000000	1.34937e-05	
44.000000	0.0451893 	44.000000	0.0300388 	44.000000	0.0302278 	44.000000	0.0302051 	44.000000	0.0300261 	44.000000	1.26629e-05	
47.000000	0.0428767 	47.000000	0.0285903 	47.000000	0.0287929 	47.000000	0.0287671 	47.000000	0.0285784 	47.000000	1.19326e-05	
50.000000	0.0408226 	50.000000	0.0272969 	50.000000	0.0275084 	50.000000	0.0274823 	50.000000	0.0272856 	50.000000	1.12855e-05	
55.000000	0.0378639 	55.000000	0.0254233 	55.000000	0.0256476 	55.000000	0.0256193 	55.000000	0.0254129 	55.000000	1.03558e-05	
60.000000	0.0353657 	60.000000	0.0238321 	60.000000	0.0240606 	60.000000	0.0240345 	60.000000	0.0238226 	60.000000	9.57344e-06	
65.000000	0.0332265 	65.000000	0.0224635 	65.000000	0.0226957 	65.000000	0.0226689 	65.000000	0.0224546 	65.000000	8.90547e-06	
70.000000	0.0313726 	70.000000	0.0212733 	70.000000	0.0215063 	70.000000	0.0214792 	70.000000	0.021265  	70.000000	8.32821e-06	
75.000000	0.0297494 	75.000000	0.0202285 	75.000000	0.0204578 	75.000000	0.0204328 	75.000000	0.0202207 	75.000000	7.82412e-06	
80.000000	0.0283156 	80.000000	0.0193037 	80.000000	0.019532  	80.000000	0.0195048 	80.000000	0.0192963 	80.000000	7.37995e-06	
85.000000	0.027039  	85.000000	0.0184791 	85.000000	0.0187019 	85.000000	0.0186761 	85.000000	0.0184721 	85.000000	6.98548e-06	
90.000000	0.0258947 	90.000000	0.0177392 	90.000000	0.0179558 	90.000000	0.0179311 	90.000000	0.0177326 	90.000000	6.6327e-06	
95.000000	0.0248627 	95.000000	0.0170714 	95.000000	0.0172841 	95.000000	0.0172577 	95.000000	0.0170651 	95.000000	6.31524e-06	
100.000000	0.0239268 	100.000000	0.0164656 	100.000000	0.0166711 	100.000000	0.0166459 	100.000000	0.0164595 	100.000000	6.02799e-06	
105.000000	0.0230739 	105.000000	0.0159134 	105.000000	0.0161117 	105.000000	0.0160874 	105.000000	0.0159076 	105.000000	5.76677e-06	
110.000000	0.0222932 	110.000000	0.015408  	110.000000	0.0155986 	110.000000	0.0155756 	110.000000	0.0154025 	110.000000	5.52815e-06	
115.000000	0.0215756 	115.000000	0.0149436 	115.000000	0.0151286 	115.000000	0.0151048 	115.000000	0.0149383 	115.000000	5.30928e-06	
120.000000	0.0209137 	120.000000	0.0145154 	120.000000	0.0146945 	120.000000	0.0146701 	120.000000	0.0145103 	120.000000	5.10777e-06	
125.000000	0.020301  	125.000000	0.0141193 	125.000000	0.0142907 	125.000000	0.0142676 	125.000000	0.0141144 	125.000000	4.92161e-06	
130.000000	0.0197322 	130.000000	0.0137518 	130.000000	0.0139162 	130.000000	0.0138937 	130.000000	0.013747  	130.000000	4.74909e-06	
135.000000	0.0192024 	135.000000	0.0134098 	135.000000	0.013569  	135.000000	0.0135456 	135.000000	0.0134053 	135.000000	4.58873e-06	
140.000000	0.0187078 	140.000000	0.0130909 	140.000000	0.013244  	140.000000	0.0132205 	140.000000	0.0130864 	140.000000	4.43929e-06	
145.000000	0.0182449 	145.000000	0.0127926 	145.000000	0.012939  	145.000000	0.0129164 	145.000000	0.0127883 	145.000000	4.29966e-06	
150.000000	0.0178106 	150.000000	0.0125131 	150.000000	0.0126532 	150.000000	0.0126311 	150.000000	0.012509  	150.000000	4.1689e-06	
155.000000	0.0171992 	155.000000	0.0122507 	155.000000	0.0123844 	155.000000	0.0123631 	155.000000	0.0122466 	155.000000	4.04618e-06	
160.000000	0.0168407 	160.000000	0.0120037 	160.000000	0.0121319 	160.000000	0.0121107 	160.000000	0.0119998 	160.000000	3.93076e-06	
165.000000	0.0165028 	165.000000	0.011771  	165.000000	0.0118947 	165.000000	0.0118728 	165.000000	0.0117671 	165.000000	3.82201e-06	
170.000000	0.0161835 	170.000000	0.0115512 	170.000000	0.0116699 	170.000000	0.0116479 	170.000000	0.0115475 	170.000000	3.71936e-06	
175.000000	0.0158814 	175.000000	0.0113433 	175.000000	0.0114565 	175.000000	0.0114352 	175.000000	0.0113397 	175.000000	3.6223e-06	
180.000000	0.0155951 	180.000000	0.0111464 	180.000000	0.0112545 	180.000000	0.0112336 	180.000000	0.0111429 	180.000000	3.53038e-06	
185.000000	0.0153234 	185.000000	0.0109597 	185.000000	0.0110627 	185.000000	0.0110423 	185.000000	0.0109562 	185.000000	3.4432e-06	
190.000000	0.0150651 	190.000000	0.0107823 	190.000000	0.0108804 	190.000000	0.0108606 	190.000000	0.0107789 	190.000000	3.36039e-06	
195.000000	0.0148194 	195.000000	0.0106136 	195.000000	0.0107076 	195.000000	0.0106877 	195.000000	0.0106103 	195.000000	3.28163e-06	
200.000000	0.0145852 	200.000000	0.010453  	200.000000	0.0105435 	200.000000	0.010523  	200.000000	0.0104497 	200.000000	3.20662e-06	
210.000000	0.0141486 	210.000000	0.0101536 	210.000000	0.0102362 	210.000000	0.010216  	210.000000	0.0101506 	210.000000	3.06684e-06	
220.000000	0.0137495 	220.000000	0.00988043	220.000000	0.00995525	220.000000	0.00993577	220.000000	0.00987749	220.000000	2.93919e-06	
230.000000	0.0133832 	230.000000	0.00963008	230.000000	0.00969761	230.000000	0.0096789 	230.000000	0.00962726	230.000000	2.82214e-06	
240.000000	0.013046  	240.000000	0.00939984	240.000000	0.00946188	240.000000	0.00944265	240.000000	0.00939712	240.000000	2.71441e-06	
250.000000	0.0127343 	250.000000	0.00918739	250.000000	0.00924393	250.000000	0.00922467	250.000000	0.00918478	250.000000	2.61491e-06	
260.000000	0.0124455 	260.000000	0.00899077	260.000000	0.00904156	260.000000	0.00902294	260.000000	0.00898825	260.000000	2.52272e-06	
270.000000	0.0121771 	270.000000	0.00880829	270.000000	0.00885388	270.000000	0.00883576	270.000000	0.00880586	270.000000	2.43705e-06	
280.000000	0.011927  	280.000000	0.0086385 	280.000000	0.00867932	280.000000	0.00866164	280.000000	0.00863614	280.000000	2.35724e-06	
290.000000	0.0116933 	290.000000	0.00848013	290.000000	0.00851749	290.000000	0.00849929	290.000000	0.00847784	290.000000	2.28268e-06	
300.000000	0.0114746 	300.000000	0.00833208	300.000000	0.00836585	300.000000	0.00834759	300.000000	0.00832987	300.000000	2.21287e-06	
310.000000	0.0112695 	310.000000	0.0081934 	310.000000	0.00822329	310.000000	0.00820554	310.000000	0.00819125	310.000000	2.14736e-06	
320.000000	0.0110766 	320.000000	0.00806323	320.000000	0.00808971	320.000000	0.0080723 	320.000000	0.00806115	320.000000	2.08577e-06	
330.000000	0.0108951 	330.000000	0.00794084	330.000000	0.00796405	330.000000	0.00794708	330.000000	0.00793881	330.000000	2.02775e-06	
340.000000	0.0107238 	340.000000	0.00782556	340.000000	0.00784601	340.000000	0.00782921	340.000000	0.00782359	340.000000	1.97299e-06	
350.000000	0.0105621 	350.000000	0.00771681	350.000000	0.00773532	350.000000	0.00771809	350.000000	0.00771489	350.000000	1.92122e-06	
360.000000	0.010409  	360.000000	0.00761406	360.000000	0.00763053	360.000000	0.00761317	360.000000	0.00761219	360.000000	1.87221e-06	
370.000000	0.010264  	370.000000	0.00751684	370.000000	0.00753098	370.000000	0.00751398	370.000000	0.00751501	370.000000	1.82572e-06	
380.000000	0.0101264 	380.000000	0.00742473	380.000000	0.00743677	380.000000	0.00742008	380.000000	0.00742295	380.000000	1.78158e-06	
390.000000	0.00999578	390.000000	0.00733736	390.000000	0.00734753	390.000000	0.00733107	390.000000	0.00733562	390.000000	1.7396e-06	
400.000000	0.00987153	400.000000	0.00725437	400.000000	0.00726272	400.000000	0.0072466 	400.000000	0.00725267	400.000000	1.69963e-06	
410.000000	0.00975323	410.000000	0.00717547	410.000000	0.00718232	410.000000	0.00716635	410.000000	0.00717381	410.000000	1.66152e-06	
420.000000	0.00964049	420.000000	0.00710036	420.000000	0.00710625	420.000000	0.00709004	420.000000	0.00709874	420.000000	1.62515e-06	
430.000000	0.00953294	430.000000	0.0070288 	430.000000	0.00703387	430.000000	0.00701739	430.000000	0.00702721	430.000000	1.5904e-06	
440.000000	0.00943023	440.000000	0.00696054	440.000000	0.00696458	440.000000	0.00694816	440.000000	0.00695899	440.000000	1.55715e-06	
450.000000	0.00933207	450.000000	0.00689538	450.000000	0.00689828	450.000000	0.00688213	450.000000	0.00689386	450.000000	1.52533e-06	
460.000000	0.00923817	460.000000	0.00683313	460.000000	0.00683502	460.000000	0.0068191 	460.000000	0.00683163	460.000000	1.49482e-06	
470.000000	0.00914827	470.000000	0.00677359	470.000000	0.00677464	470.000000	0.00675888	470.000000	0.00677213	470.000000	1.46556e-06	
480.000000	0.00906213	480.000000	0.00671661	480.000000	0.00671686	480.000000	0.0067013 	480.000000	0.00671518	480.000000	1.43747e-06	
490.000000	0.00897954	490.000000	0.00666204	490.000000	0.00666154	490.000000	0.00664621	490.000000	0.00666063	490.000000	1.41047e-06	
500.000000	0.0089003 	500.000000	0.00660974	500.000000	0.00660868	500.000000	0.00659346	500.000000	0.00660835	500.000000	1.38451e-06	
520.000000	0.00875111	520.000000	0.00651142	520.000000	0.00651003	520.000000	0.00649445	520.000000	0.00651008	520.000000	1.33545e-06	
540.000000	0.00861322	540.000000	0.00642074	540.000000	0.00641893	540.000000	0.0064033 	540.000000	0.00641945	540.000000	1.28987e-06	
560.000000	0.00848549	560.000000	0.0063369 	560.000000	0.00633445	560.000000	0.00631919	560.000000	0.00633566	560.000000	1.24741e-06	
580.000000	0.00836692	580.000000	0.00625923	580.000000	0.00625644	580.000000	0.00624142	580.000000	0.00625802	580.000000	1.20776e-06	
600.000000	0.00825663	600.000000	0.00618711	600.000000	0.00618406	600.000000	0.00616934	600.000000	0.00618594	600.000000	1.17064e-06	
620.000000	0.00815387	620.000000	0.00612004	620.000000	0.00611698	620.000000	0.00610243	620.000000	0.0061189 	620.000000	1.13582e-06	
640.000000	0.00805797	640.000000	0.00605754	640.000000	0.00605499	640.000000	0.00604019	640.000000	0.00605644	640.000000	1.10308e-06	
660.000000	0.00796833	660.000000	0.00599922	660.000000	0.0059972 	660.000000	0.00598222	660.000000	0.00599815	660.000000	1.07225e-06	
680.000000	0.00788444	680.000000	0.00594472	680.000000	0.00594295	680.000000	0.00592812	680.000000	0.00594368	680.000000	1.04315e-06	
700.000000	0.00780583	700.000000	0.00589372	700.000000	0.00589216	700.000000	0.00587758	700.000000	0.0058927 	700.000000	1.01565e-06	
720.000000	0.00773207	720.000000	0.00584594	720.000000	0.00584472	720.000000	0.0058303 	720.000000	0.00584495	720.000000	9.89611e-07	
740.000000	0.0076628 	740.000000	0.00580112	740.000000	0.00580026	740.000000	0.00578601	740.000000	0.00580015	740.000000	9.64923e-07	
760.000000	0.00759768	760.000000	0.00575903	760.000000	0.00575851	760.000000	0.00574447	760.000000	0.00575809	760.000000	9.4148e-07	
780.000000	0.00753641	780.000000	0.00571948	780.000000	0.0057194 	780.000000	0.00570547	780.000000	0.00571856	780.000000	9.19191e-07	
800.000000	0.00747872	800.000000	0.00568227	800.000000	0.00568285	800.000000	0.00566882	800.000000	0.00568138	800.000000	8.9797e-07	
820.000000	0.00742435	820.000000	0.00564725	820.000000	0.00564857	820.000000	0.00563435	820.000000	0.00564637	820.000000	8.77742e-07	
840.000000	0.00737309	840.000000	0.00561425	840.000000	0.00561621	840.000000	0.00560189	840.000000	0.00561339	840.000000	8.58438e-07	
860.000000	0.00732473	860.000000	0.00558314	860.000000	0.00558556	860.000000	0.0055713 	860.000000	0.0055823 	860.000000	8.39995e-07	
880.000000	0.00727909	880.000000	0.00555379	880.000000	0.00555656	880.000000	0.00554245	880.000000	0.00555297	880.000000	8.22356e-07	
900.000000	0.00723599	900.000000	0.00552609	900.000000	0.00552918	900.000000	0.00551523	900.000000	0.00552529	900.000000	8.05469e-07	
920.000000	0.00719527	920.000000	0.00549994	920.000000	0.00550335	920.000000	0.00548952	920.000000	0.00549915	920.000000	7.89287e-07	
940.000000	0.0071568 	940.000000	0.00547524	940.000000	0.00547897	940.000000	0.00546523	940.000000	0.00547447	940.000000	7.73765e-07	
960.000000	0.00712044	960.000000	0.0054519 	960.000000	0.00545592	960.000000	0.00544225	960.000000	0.00545114	960.000000	7.58864e-07	
980.000000	0.00708607	980.000000	0.00542983	980.000000	0.00543411	980.000000	0.00542052	980.000000	0.00542909	980.000000	7.44546e-07	
1000.000000	0.00705357	1000.000000	0.00540897	1000.000000	0.00541345	1000.000000	0.00539995	1000.000000	0.00540824	1000.000000	7.30778e-07	
1020.000000	0.00702285	1020.000000	0.00538925	1020.000000	0.00539387	1020.000000	0.00538046	1020.000000	0.00538853	1020.000000	7.17528e-07	
1040.000000	0.00699381	1040.000000	0.00537059	1040.000000	0.0053753 	1040.000000	0.005362  	1040.000000	0.00536989	1040.000000	7.04768e-07	
1060.000000	0.00696635	1060.000000	0.00535295	1060.000000	0.00535769	1060.000000	0.0053445 	1060.000000	0.00535226	1060.000000	6.92469e-07	
1080.000000	0.0069404 	1080.000000	0.00533627	1080.000000	0.00534101	1080.000000	0.00532791	1080.000000	0.00533559	1080.000000	6.80607e-07	
1100.000000	0.00691588	1100.000000	0.00532049	1100.000000	0.00532522	1100.000000	0.00531217	1100.000000	0.00531982	1100.000000	6.6916e-07	
1120.000000	0.00689271	1120.000000	0.00530556	1120.000000	0.00531056	1120.000000	0.00529748	1120.000000	0.00530491	1120.000000	6.58105e-07	
1140.000000	0.00687084	1140.000000	0.00529146	1140.000000	0.00529676	1140.000000	0.0052836 	1140.000000	0.00529081	1140.000000	6.47422e-07	
1160.000000	0.00685019	1160.000000	0.00527812	1160.000000	0.00528369	1160.000000	0.00527043	1160.000000	0.00527748	1160.000000	6.37093e-07	
1180.000000	0.00683071	1180.000000	0.00526552	1180.000000	0.00527129	1180.000000	0.00525795	1180.000000	0.00526489	1180.000000	6.271e-07 	
1200.000000	0.00681234	1200.000000	0.00525362	1200.000000	0.0052595 	1200.000000	0.0052461 	1200.000000	0.005253  	1200.000000	6.17427e-07	
1220.000000	0.00679504	1220.000000	0.00524238	1220.000000	0.00524827	1220.000000	0.00523485	1220.000000	0.00524177	1220.000000	6.08058e-07	
1240.000000	0.00677875	1240.000000	0.00523177	1240.000000	0.00523757	1240.000000	0.00522419	1240.000000	0.00523117	1240.000000	5.98979e-07	
1260.000000	0.00676344	1260.000000	0.00522177	1260.000000	0.00522738	1260.000000	0.00521407	1260.000000	0.00522118	1260.000000	5.90178e-07	
1280.000000	0.00674905	1280.000000	0.00521234	1280.000000	0.00521771	1280.000000	0.00520446	1280.000000	0.00521176	1280.000000	5.8164e-07	
1300.000000	0.00673554	1300.000000	0.00520347	1300.000000	0.00520852	1300.000000	0.00519535	1300.000000	0.00520289	1300.000000	5.73354e-07	
1320.000000	0.00672289	1320.000000	0.00519512	1320.000000	0.00519981	1320.000000	0.00518671	1320.000000	0.00519455	1320.000000	5.6531e-07	
1340.000000	0.00671106	1340.000000	0.00518727	1340.000000	0.00519157	1340.000000	0.00517851	1340.000000	0.00518671	1340.000000	5.57496e-07	
1360.000000	0.0067    	1360.000000	0.0051799 	1360.000000	0.00518375	1360.000000	0.00517074	1360.000000	0.00517935	1360.000000	5.49903e-07	
1380.000000	0.00668969	1380.000000	0.00517299	1380.000000	0.00517634	1380.000000	0.00516337	1380.000000	0.00517245	1380.000000	5.42522e-07	
1400.000000	0.00668011	1400.000000	0.00516652	1400.000000	0.00516931	1400.000000	0.00515638	1400.000000	0.00516598	1400.000000	5.35343e-07	
1420.000000	0.00667121	1420.000000	0.00516047	1420.000000	0.00516265	1420.000000	0.00514976	1420.000000	0.00515994	1420.000000	5.28358e-07	
1440.000000	0.00666299	1440.000000	0.00515483	1440.000000	0.00515634	1440.000000	0.00514349	1440.000000	0.00515431	1440.000000	5.21559e-07	
1460.000000	0.0066554 	1460.000000	0.00514958	1460.000000	0.00515035	1460.000000	0.00513755	1460.000000	0.00514906	1460.000000	5.1494e-07	
1480.000000	0.00664842	1480.000000	0.0051447 	1480.000000	0.00514467	1480.000000	0.00513193	1480.000000	0.00514419	1480.000000	5.08492e-07	
1500.000000	0.00664204	1500.000000	0.00514017	1500.000000	0.0051393 	1500.000000	0.00512661	1500.000000	0.00513967	1500.000000	5.0221e-07	
1520.000000	0.00663624	1520.000000	0.00513599	1520.000000	0.00513423	1520.000000	0.00512159	1520.000000	0.0051355 	1520.000000	4.96086e-07	
1540.000000	0.00663098	1540.000000	0.00513215	1540.000000	0.00512944	1540.000000	0.00511684	1540.000000	0.00513166	1540.000000	4.90115e-07	
1560.000000	0.00662625	1560.000000	0.00512862	1560.000000	0.00512493	1560.000000	0.00511236	1560.000000	0.00512813	1560.000000	4.84291e-07	
1580.000000	0.00662204	1580.000000	0.0051254 	1580.000000	0.00512069	1580.000000	0.00510813	1580.000000	0.00512492	1580.000000	4.78609e-07	
1600.000000	0.00661832	1600.000000	0.00512247	1600.000000	0.00511671	1600.000000	0.00510415	1600.000000	0.005122  	1600.000000	4.73064e-07	
1620.000000	0.00661509	1620.000000	0.00511983	1620.000000	0.00511297	1620.000000	0.0051004 	1620.000000	0.00511936	1620.000000	4.67649e-07	
1640.000000	0.00661231	1640.000000	0.00511746	1640.000000	0.00510947	1640.000000	0.00509687	1640.000000	0.005117  	1640.000000	4.62362e-07	
1660.000000	0.00660998	1660.000000	0.00511535	1660.000000	0.0051062 	1660.000000	0.00509355	1660.000000	0.0051149 	1660.000000	4.57197e-07	
1680.000000	0.00660809	1680.000000	0.0051135 	1680.000000	0.00510313	1680.000000	0.00509044	1680.000000	0.00511305	1680.000000	4.52151e-07	
1700.000000	0.00660661	1700.000000	0.0051119 	1700.000000	0.00510026	1700.000000	0.00508753	1700.000000	0.00511145	1700.000000	4.47218e-07	
1750.000000	0.00660466	1750.000000	0.00510891	1750.000000	0.00509388	1750.000000	0.00508105	1750.000000	0.00510848	1750.000000	4.35361e-07	
1800.000000	0.00660506	1800.000000	0.00510729	1800.000000	0.00508851	1800.000000	0.00507563	1800.000000	0.00510687	1800.000000	4.24138e-07	
1850.000000	0.00660763	1850.000000	0.00510692	1850.000000	0.00508405	1850.000000	0.00507117	1850.000000	0.00510651	1850.000000	4.13498e-07	
1900.000000	0.00661221	1900.000000	0.00510771	1900.000000	0.00508041	1900.000000	0.00506758	1900.000000	0.0051073 	1900.000000	4.03396e-07	
1950.000000	0.00661867	1950.000000	0.00510956	1950.000000	0.00507754	1950.000000	0.00506478	1950.000000	0.00510917	1950.000000	3.93793e-07	
2000.000000	0.00662688	2000.000000	0.0051124 	2000.000000	0.00507538	2000.000000	0.0050627 	2000.000000	0.00511202	2000.000000	3.84652e-07	
2100.000000	0.0066481 	2100.000000	0.00512076	2100.000000	0.00507298	2100.000000	0.00506042	2100.000000	0.00512039	2100.000000	3.67627e-07	
2200.000000	0.00667507	2200.000000	0.00513229	2200.000000	0.00507278	2200.000000	0.0050603 	2200.000000	0.00513194	2200.000000	3.52092e-07	
2300.000000	0.00670714	2300.000000	0.00514658	2300.000000	0.00507439	2300.000000	0.00506198	2300.000000	0.00514624	2300.000000	3.37857e-07	
2400.000000	0.00674375	2400.000000	0.00516328	2400.000000	0.00507751	2400.000000	0.00506516	2400.000000	0.00516295	2400.000000	3.24766e-07	
2500.000000	0.00678441	2500.000000	0.00518209	2500.000000	0.00508187	2500.000000	0.00506959	2500.000000	0.00518178	2500.000000	3.12683e-07	
2600.000000	0.00682875	2600.000000	0.00520278	2600.000000	0.0050873 	2600.000000	0.00507508	2600.000000	0.00520248	2600.000000	3.01495e-07	
2700.000000	0.0068764 	2700.000000	0.00522513	2700.000000	0.00509362	2700.000000	0.00508146	2700.000000	0.00522484	2700.000000	2.91105e-07	
2800.000000	0.00692708	2800.000000	0.00524897	2800.000000	0.00510069	2800.000000	0.00508857	2800.000000	0.00524869	2800.000000	2.81431e-07	
2900.000000	0.00698053	2900.000000	0.00527413	2900.000000	0.0051084 	2900.000000	0.00509631	2900.000000	0.00527386	2900.000000	2.72399e-07	
3000.000000	0.00703652	3000.000000	0.00530048	3000.000000	0.00511665	3000.000000	0.00510456	3000.000000	0.00530022	3000.000000	2.63947e-07	
3200.000000	0.00715537	3200.000000	0.0053563 	3200.000000	0.00513438	3200.000000	0.0051223 	3200.000000	0.00535605	3200.000000	2.48571e-07	
3400.000000	0.00728233	3400.000000	0.00541565	3400.000000	0.00515333	3400.000000	0.00514125	3400.000000	0.00541541	3400.000000	2.3494e-07	
3600.000000	0.00741637	3600.000000	0.00547791	3600.000000	0.00517308	3600.000000	0.005161  	3600.000000	0.00547769	3600.000000	2.2277e-07	
3800.000000	0.00755668	3800.000000	0.00554261	3800.000000	0.00519331	3800.000000	0.00518126	3800.000000	0.0055424 	3800.000000	2.11837e-07	
4000.000000	0.00770261	4000.000000	0.00560937	4000.000000	0.00521383	4000.000000	0.0052018 	4000.000000	0.00560917	4000.000000	2.01957e-07	
4200.000000	0.00785361	4200.000000	0.00567788	4200.000000	0.00523446	4200.000000	0.00522246	4200.000000	0.00567768	4200.000000	1.92986e-07	
4400.000000	0.00800924	4400.000000	0.00574787	4400.000000	0.00525509	4400.000000	0.00524312	4400.000000	0.00574769	4400.000000	1.84802e-07	
4600.000000	0.00816914	4600.000000	0.00581915	4600.000000	0.00527562	4600.000000	0.00526368	4600.000000	0.00581897	4600.000000	1.77304e-07	
4800.000000	0.00833299	4800.000000	0.00589153	4800.000000	0.00529599	4800.000000	0.00528408	4800.000000	0.00589136	4800.000000	1.70409e-07	
5000.000000	0.00850053	5000.000000	0.00596487	5000.000000	0.00531614	5000.000000	0.00530426	5000.000000	0.00596471	5000.000000	1.64046e-07	
5250.000000	0.00871482	5250.000000	0.00605771	5250.000000	0.00534098	5250.000000	0.00532912	5250.000000	0.00605756	5250.000000	1.56751e-07	
5500.000000	0.00893418	5500.000000	0.00615166	5500.000000	0.00536536	5500.000000	0.00535353	5500.000000	0.00615151	5500.000000	1.50096e-07	
6000.000000	0.00938691	6000.000000	0.00634226	6000.000000	0.00541267	6000.000000	0.00540087	6000.000000	0.00634212	6000.000000	1.38394e-07	
6500.000000	0.00985685	6500.000000	0.00653565	6500.000000	0.00545794	6500.000000	0.00544617	6500.000000	0.00653552	6500.000000	1.28433e-07	
7000.000000	0.0103426 	7000.000000	0.0067311 	7000.000000	0.00550117	7000.000000	0.00548942	7000.000000	0.00673098	7000.000000	1.19848e-07	
7500.000000	0.0108432 	7500.000000	0.00692811	7500.000000	0.00554241	7500.000000	0.00553068	7500.000000	0.006928  	7500.000000	1.12369e-07	
8000.000000	0.0113579 	8000.000000	0.00712628	8000.000000	0.00558178	8000.000000	0.00557004	8000.000000	0.00712618	8000.000000	1.05794e-07	
8500.000000	0.011886  	8500.000000	0.00732533	8500.000000	0.00561931	8500.000000	0.00560762	8500.000000	0.00732523	8500.000000	9.99677e-08	
9000.000000	0.0124272 	9000.000000	0.00752504	9000.000000	0.00565509	9000.000000	0.00564353	9000.000000	0.00752495	9000.000000	9.47669e-08	
9500.000000	0.012981  	9500.000000	0.00772525	9500.000000	0.00568933	9500.000000	0.00567786	9500.000000	0.00772516	9500.000000	9.00955e-08	
10000.000000	0.0135472 	10000.000000	0.00792581	10000.000000	0.00572218	10000.000000	0.00571073	10000.000000	0.00792572	10000.000000	8.58758e-08	
11000.000000	0.0147159 	11000.000000	0.00832761	11000.000000	0.00578393	11000.000000	0.00577248	11000.000000	0.00832753	11000.000000	7.85505e-08	
12000.000000	0.0159318 	12000.000000	0.00872984	12000.000000	0.00584089	12000.000000	0.00582946	12000.000000	0.00872977	12000.000000	7.24076e-08	
13000.000000	0.0171942 	13000.000000	0.00913212	13000.000000	0.00589359	13000.000000	0.00588229	13000.000000	0.00913205	13000.000000	6.718e-08 	
14000.000000	0.0185023 	14000.000000	0.00953418	14000.000000	0.00594252	14000.000000	0.00593146	14000.000000	0.00953412	14000.000000	6.26757e-08	
15000.000000	0.0198557 	15000.000000	0.00993586	15000.000000	0.00598818	15000.000000	0.00597741	15000.000000	0.0099358 	15000.000000	5.87529e-08	
16000.000000	0.0212542 	16000.000000	0.010337  	16000.000000	0.00603103	16000.000000	0.0060205 	16000.000000	0.010337  	16000.000000	5.53051e-08	
17000.000000	0.0226977 	17000.000000	0.0107377 	17000.000000	0.0060714 	17000.000000	0.00606103	17000.000000	0.0107376 	17000.000000	5.225e-08 	
18000.000000	0.024186  	18000.000000	0.0111377 	18000.000000	0.00610955	18000.000000	0.00609928	18000.000000	0.0111376 	18000.000000	4.95238e-08	
19000.000000	0.0257192 	19000.000000	0.011537  	19000.000000	0.00614571	19000.000000	0.00613546	19000.000000	0.011537  	19000.000000	4.70754e-08	
20000.000000	0.0272972 	20000.000000	0.0119357 	20000.000000	0.00618005	20000.000000	0.00616978	20000.000000	0.0119357 	20000.000000	4.48642e-08	
21000.000000	0.0289202 	21000.000000	0.0123337 	21000.000000	0.00621267	21000.000000	0.00620241	21000.000000	0.0123337 	21000.000000	4.28569e-08	
22000.000000	0.0305881 	22000.000000	0.0127311 	22000.000000	0.00624356	22000.000000	0.00623349	22000.000000	0.012731  	22000.000000	4.10264e-08	
23000.000000	0.0323013 	23000.000000	0.0131277 	23000.000000	0.00627284	23000.000000	0.00626315	23000.000000	0.0131277 	23000.000000	3.93501e-08	
24000.000000	0.0340597 	24000.000000	0.0135237 	24000.000000	0.00630094	24000.000000	0.00629152	24000.000000	0.0135237 	24000.000000	3.78091e-08	
25000.000000	0.0358635 	25000.000000	0.0139191 	25000.000000	0.00632814	25000.000000	0.00631869	25000.000000	0.0139191 	25000.000000	3.63874e-08	
26000.000000	0.0377129 	26000.000000	0.0143138 	26000.000000	0.00635417	26000.000000	0.00634476	26000.000000	0.0143138 	26000.000000	3.50718e-08	
27000.000000	0.0396081 	27000.000000	0.0147079 	27000.000000	0.00637893	27000.000000	0.0063698 	27000.000000	0.0147079 	27000.000000	3.38505e-08	
28000.000000	0.0415493 	28000.000000	0.0151014 	28000.000000	0.00640266	28000.000000	0.00639389	28000.000000	0.0151013 	28000.000000	3.27138e-08	
29000.000000	0.0435366 	29000.000000	0.0154942 	29000.000000	0.00642556	29000.000000	0.0064171 	29000.000000	0.0154942 	29000.000000	3.1653e-08	
30000.000000	0.0455703 	30000.000000	0.0158865 	30000.000000	0.0064477 	30000.000000	0.00643948	30000.000000	0.0158865 	30000.000000	3.06607e-08	
32000.000000	0.0497777 	32000.000000	0.0166693 	32000.000000	0.00648974	32000.000000	0.00648198	32000.000000	0.0166693 	32000.000000	2.88565e-08	
34000.000000	0.0541731 	34000.000000	0.0174499 	34000.000000	0.006529  	34000.000000	0.00652176	34000.000000	0.0174499 	34000.000000	2.72581e-08	
36000.000000	0.0587585 	36000.000000	0.0182284 	36000.000000	0.00656583	36000.000000	0.00655914	36000.000000	0.0182284 	36000.000000	2.5832e-08	
38000.000000	0.0635357 	38000.000000	0.0190049 	38000.000000	0.00660054	38000.000000	0.00659437	38000.000000	0.0190048 	38000.000000	2.45515e-08	
40000.000000	0.0685066 	40000.000000	0.0197794 	40000.000000	0.00663332	40000.000000	0.00662767	40000.000000	0.0197794 	40000.000000	2.33952e-08	
42000.000000	0.0736733 	42000.000000	0.0205521 	42000.000000	0.00666433	42000.000000	0.00665924	42000.000000	0.0205521 	42000.000000	2.23457e-08	
44000.000000	0.0790378 	44000.000000	0.021323  	44000.000000	0.00669371	44000.000000	0.00668924	44000.000000	0.021323  	44000.000000	2.13888e-08	
46000.000000	0.0846022 	46000.000000	0.0220922 	46000.000000	0.00672161	46000.000000	0.00671782	46000.000000	0.0220922 	46000.000000	2.05126e-08	
48000.000000	0.0903685 	48000.000000	0.0228598 	48000.000000	0.00674817	48000.000000	0.00674509	48000.000000	0.0228598 	48000.000000	1.97071e-08	
50000.000000	0.0963389 	50000.000000	0.0236259 	50000.000000	0.00677349	50000.000000	0.00677116	50000.000000	0.0236258 	50000.000000	1.89642e-08	
