0.001000	2.87072   	0.001000	1.50236   	0.001000	1.54947   	0.001000	1.54947   	0.001000	0.384865  	0.001000	1.1175    	
0.002000	2.82943   	0.002000	1.51645   	0.002000	1.59425   	0.002000	1.59425   	0.002000	0.53308   	0.002000	0.983373  	
0.005000	2.92047   	0.005000	1.53707   	0.005000	1.68292   	0.005000	1.68292   	0.005000	0.82002   	0.005000	0.717051  	
0.008000	3.09653   	0.008000	1.59739   	0.008000	1.79639   	0.008000	1.79639   	0.008000	1.02273   	0.008000	0.57466   	
0.010000	3.21911   	0.010000	1.64686   	0.010000	1.87698   	0.010000	1.87698   	0.010000	1.13582   	0.010000	0.511043  	
0.015000	3.74475   	0.015000	1.82079   	0.015000	2.11041   	0.015000	2.11041   	0.015000	1.41513   	0.015000	0.405658  	
0.020000	4.27038   	0.020000	2.19371   	0.020000	2.49774   	0.020000	2.49774   	0.020000	1.8536    	0.020000	0.340114  	
0.025000	4.9028    	0.025000	2.60818   	0.025000	2.92033   	0.025000	2.92033   	0.025000	2.31337   	0.025000	0.294808  	
0.030000	5.5016    	0.030000	3.0451    	0.030000	3.223     	0.030000	3.223     	0.030000	2.78376   	0.030000	0.261342  	
0.035000	6.04698   	0.035000	3.48424   	0.035000	3.54275   	0.035000	3.54275   	0.035000	3.24877   	0.035000	0.235464  	
0.040000	6.52776   	0.040000	3.91638   	0.040000	3.87438   	0.040000	3.87438   	0.040000	3.70161   	0.040000	0.21477   	
0.045000	6.93722   	0.045000	4.33552   	0.045000	4.21377   	0.045000	4.21377   	0.045000	4.13773   	0.045000	0.197792  	
0.050000	7.27233   	0.050000	4.73611   	0.050000	4.55571   	0.050000	4.55571   	0.050000	4.55425   	0.050000	0.181861  	
0.055000	7.76539   	0.055000	5.11947   	0.055000	4.90066   	0.055000	4.90066   	0.055000	4.94956   	0.055000	0.169912  	
0.060000	8.2145    	0.060000	5.48255   	0.060000	5.24392   	0.060000	5.24392   	0.060000	5.32296   	0.060000	0.159589  	
0.070000	8.954     	0.070000	6.13215   	0.070000	5.91563   	0.070000	5.91563   	0.070000	5.98953   	0.070000	0.142615  	
0.080000	9.725     	0.080000	6.69787   	0.080000	6.55407   	0.080000	6.55407   	0.080000	6.56866   	0.080000	0.129204  	
0.090000	10.3811   	0.090000	7.19374   	0.090000	7.14696   	0.090000	7.14696   	0.090000	7.07543   	0.090000	0.118309  	
0.100000	10.9437   	0.100000	7.62836   	0.100000	7.68644   	0.100000	7.68644   	0.100000	7.51909   	0.100000	0.109265  	
0.120000	11.589    	0.120000	8.34615   	0.120000	8.59313   	0.120000	8.59313   	0.120000	8.25107   	0.120000	0.0950734 	
0.140000	12.0862   	0.140000	8.9193    	0.140000	9.27876   	0.140000	9.27876   	0.140000	8.8349    	0.140000	0.084404  	
0.160000	12.5125   	0.160000	9.38328   	0.160000	9.77664   	0.160000	9.77664   	0.160000	9.30721   	0.160000	0.076061  	
0.180000	12.9041   	0.180000	9.75614   	0.180000	10.1288   	0.180000	10.1288   	0.180000	9.6868    	0.180000	0.0693407 	
0.200000	13.2829   	0.200000	10.0594   	0.200000	10.3746   	0.200000	10.3746   	0.200000	9.99556   	0.200000	0.0638001 	
0.250000	13.8201   	0.250000	10.6454   	0.250000	10.7121   	0.250000	10.7121   	0.250000	10.592    	0.250000	0.053401  	
0.300000	14.387    	0.300000	11.1074   	0.300000	10.8634   	0.300000	10.8634   	0.300000	11.0613   	0.300000	0.0461084 	
0.350000	14.8363   	0.350000	11.405    	0.350000	11.039    	0.350000	11.039    	0.350000	11.3643   	0.350000	0.0406865 	
0.400000	15.1818   	0.400000	11.5944   	0.400000	11.3132   	0.400000	11.3132   	0.400000	11.558    	0.400000	0.0364837 	
0.450000	15.6078   	0.450000	11.8345   	0.450000	11.524    	0.450000	11.524    	0.450000	11.8013   	0.450000	0.0331223 	
0.500000	15.9573   	0.500000	12.0271   	0.500000	11.6875   	0.500000	11.6875   	0.500000	11.9967   	0.500000	0.0303675 	
0.600000	15.8525   	0.600000	12.2437   	0.600000	11.9076   	0.600000	11.9076   	0.600000	12.2176   	0.600000	0.02611   	
0.700000	15.4737   	0.700000	12.3072   	0.700000	12.0137   	0.700000	12.0137   	0.700000	12.2843   	0.700000	0.0229625 	
0.800000	15.4589   	0.800000	12.2145   	0.800000	11.935    	0.800000	11.935    	0.800000	12.194    	0.800000	0.0205337 	
0.900000	15.3563   	0.900000	12.0794   	0.900000	11.8292   	0.900000	11.8292   	0.900000	12.0608   	0.900000	0.0185984 	
1.000000	15.0953   	1.000000	11.8396   	1.000000	11.7035   	1.000000	11.7035   	1.000000	11.8226   	1.000000	0.0170172 	
1.250000	14.3406   	1.250000	11.2438   	1.250000	11.3045   	1.250000	11.3045   	1.250000	11.2298   	1.250000	0.014086  	
1.500000	13.5631   	1.500000	10.6738   	1.500000	10.8171   	1.500000	10.8171   	1.500000	10.6617   	1.500000	0.0120598 	
1.750000	12.8313   	1.750000	10.1584   	1.750000	10.3773   	1.750000	10.3773   	1.750000	10.1478   	1.750000	0.01057   	
2.000000	12.1744   	2.000000	9.70755   	2.000000	9.97472   	2.000000	9.97472   	2.000000	9.69812   	2.000000	0.00942535	
2.250000	11.6111   	2.250000	9.31559   	2.250000	9.60357   	2.250000	9.60357   	2.250000	9.30708   	2.250000	0.00851655	
2.500000	12.0084   	2.500000	8.96691   	2.500000	9.2599    	2.500000	9.2599    	2.500000	8.95914   	2.500000	0.00777638	
3.000000	10.9663   	3.000000	8.36089   	3.000000	8.64333   	3.000000	8.64333   	3.000000	8.35425   	3.000000	0.00664107	
3.500000	10.0908   	3.500000	7.84533   	3.500000	8.10617   	3.500000	8.10617   	3.500000	7.83952   	3.500000	0.00580885	
4.000000	9.34815   	4.000000	7.39887   	4.000000	7.63426   	4.000000	7.63426   	4.000000	7.3937    	4.000000	0.00517104	
4.500000	8.71141   	4.500000	7.00662   	4.500000	7.21653   	4.500000	7.21653   	4.500000	7.00195   	4.500000	0.00466572	
5.000000	8.15987   	5.000000	6.65804   	5.000000	6.84421   	5.000000	6.84421   	5.000000	6.65379   	5.000000	0.00425488	
5.500000	7.67763   	5.500000	6.34554   	5.500000	6.51028   	5.500000	6.51028   	5.500000	6.34163   	5.500000	0.00391391	
6.000000	7.25242   	6.000000	6.06374   	6.000000	6.20905   	6.000000	6.20905   	6.000000	6.06011   	6.000000	0.00362611	
6.500000	6.87466   	6.500000	5.80825   	6.500000	5.93591   	6.500000	5.93591   	6.500000	5.80487   	6.500000	0.00337976	
7.000000	6.53678   	7.000000	5.57548   	7.000000	5.68707   	7.000000	5.68707   	7.000000	5.57231   	7.000000	0.00316635	
7.500000	6.23273   	7.500000	5.36246   	7.500000	5.45938   	7.500000	5.45938   	7.500000	5.35948   	7.500000	0.00297959	
8.000000	5.95762   	8.000000	5.16673   	8.000000	5.25023   	8.000000	5.25023   	8.000000	5.16391   	8.000000	0.00281471	
8.500000	5.70745   	8.500000	4.98619   	8.500000	5.0574    	8.500000	5.0574    	8.500000	4.98352   	8.500000	0.002668  	
9.000000	5.47896   	9.000000	4.81911   	9.000000	4.87903   	9.000000	4.87903   	9.000000	4.81658   	9.000000	0.00253658	
9.500000	5.26939   	9.500000	4.664     	9.500000	4.71353   	9.500000	4.71353   	9.500000	4.66158   	9.500000	0.00241813	
10.000000	5.07647   	10.000000	4.56305   	10.000000	4.55953   	10.000000	4.55953   	10.000000	4.56074   	10.000000	0.00231079	
11.000000	4.7331    	11.000000	4.29275   	11.000000	4.27671   	11.000000	4.28908   	11.000000	4.29063   	11.000000	0.00212364	
12.000000	4.43656   	12.000000	4.05277   	12.000000	4.02839   	12.000000	4.0495    	12.000000	4.0508    	12.000000	0.00196585	
13.000000	4.17777   	13.000000	3.83859   	13.000000	3.8086    	13.000000	3.83587   	13.000000	3.83676   	13.000000	0.00183091	
14.000000	3.94985   	14.000000	3.64646   	14.000000	3.61263   	14.000000	3.64423   	14.000000	3.64475   	14.000000	0.00171414	
15.000000	3.74752   	15.000000	3.47328   	15.000000	3.43677   	15.000000	3.47138   	15.000000	3.47166   	15.000000	0.00161203	
16.000000	3.56664   	16.000000	3.31644   	16.000000	3.27813   	16.000000	3.31472   	16.000000	3.31492   	16.000000	0.00152195	
17.000000	3.40392   	17.000000	3.1738    	17.000000	3.13435   	17.000000	3.1721    	17.000000	3.17236   	17.000000	0.00144185	
18.000000	3.25672   	18.000000	3.04355   	18.000000	3.00337   	18.000000	3.04174   	18.000000	3.04218   	18.000000	0.00137015	
19.000000	3.12289   	19.000000	2.92416   	19.000000	2.88351   	19.000000	2.92213   	19.000000	2.92286   	19.000000	0.00130556	
20.000000	3.00066   	20.000000	2.81436   	20.000000	2.77339   	20.000000	2.81203   	20.000000	2.81311   	20.000000	0.00124707	
21.000000	2.88856   	21.000000	2.71304   	21.000000	2.67193   	21.000000	2.71036   	21.000000	2.71185   	21.000000	0.00119383	
22.000000	2.78536   	22.000000	2.61927   	22.000000	2.57823   	22.000000	2.61622   	22.000000	2.61812   	22.000000	0.00114516	
23.000000	2.69003   	23.000000	2.53224   	23.000000	2.49148   	23.000000	2.52881   	23.000000	2.53114   	23.000000	0.00110048	
24.000000	2.60169   	24.000000	2.45125   	24.000000	2.41095   	24.000000	2.44746   	24.000000	2.45019   	24.000000	0.00105932	
25.000000	2.51959   	25.000000	2.37571   	25.000000	2.336     	25.000000	2.37157   	25.000000	2.37469   	25.000000	0.00102126	
27.000000	2.37158   	27.000000	2.23889   	27.000000	2.2005    	27.000000	2.23421   	27.000000	2.23793   	27.000000	0.000953155	
29.000000	2.24178   	29.000000	2.11829   	29.000000	2.08159   	29.000000	2.11331   	29.000000	2.11739   	29.000000	0.000893938	
31.000000	2.12699   	31.000000	2.01119   	31.000000	1.97744   	31.000000	2.00576   	31.000000	2.01035   	31.000000	0.000841956	
33.000000	2.0247    	33.000000	1.91545   	33.000000	1.88515   	33.000000	1.90948   	33.000000	1.91465   	33.000000	0.000795939	
35.000000	1.93294   	35.000000	1.82935   	35.000000	1.80229   	35.000000	1.82308   	35.000000	1.82859   	35.000000	0.000754904	
38.000000	1.81171   	38.000000	1.71531   	38.000000	1.69236   	38.000000	1.7089    	38.000000	1.7146    	38.000000	0.000701031	
41.000000	1.7066    	41.000000	1.61622   	41.000000	1.59687   	41.000000	1.60988   	41.000000	1.61556   	41.000000	0.000654638	
44.000000	1.61454   	44.000000	1.52931   	44.000000	1.5127    	44.000000	1.52317   	44.000000	1.52869   	44.000000	0.000614249	
47.000000	1.53322   	47.000000	1.45246   	47.000000	1.43835   	47.000000	1.44656   	47.000000	1.45188   	47.000000	0.000578754	
50.000000	1.46082   	50.000000	1.38401   	50.000000	1.37196   	50.000000	1.37837   	50.000000	1.38347   	50.000000	0.000547302	
55.000000	1.35627   	55.000000	1.28515   	55.000000	1.2757    	55.000000	1.27994   	55.000000	1.28465   	55.000000	0.000502131	
60.000000	1.26777   	60.000000	1.20149   	60.000000	1.1942    	60.000000	1.19665   	60.000000	1.20103   	60.000000	0.000464123	
65.000000	1.19182   	65.000000	1.12975   	65.000000	1.12415   	65.000000	1.12522   	65.000000	1.12932   	65.000000	0.000431678	
70.000000	1.12588   	70.000000	1.06753   	70.000000	1.0632    	70.000000	1.06326   	70.000000	1.06713   	70.000000	0.000403645	
75.000000	1.06807   	75.000000	1.01305   	75.000000	1.00979   	75.000000	1.00898   	75.000000	1.01267   	75.000000	0.000379168	
80.000000	1.01694   	80.000000	0.964939  	80.000000	0.962409  	80.000000	0.961011  	80.000000	0.964582  	80.000000	0.000357604	
85.000000	0.971367  	85.000000	0.922129  	85.000000	0.920196  	85.000000	0.918309  	85.000000	0.92179   	85.000000	0.000338455	
90.000000	0.930483  	90.000000	0.883784  	90.000000	0.882348  	90.000000	0.880039  	90.000000	0.883462  	90.000000	0.000321332	
95.000000	0.893582  	95.000000	0.849235  	95.000000	0.848214  	95.000000	0.845538  	95.000000	0.848929  	95.000000	0.000305925	
100.000000	0.860097  	100.000000	0.817941  	100.000000	0.817269  	100.000000	0.81427   	100.000000	0.817649  	100.000000	0.000291986	
105.000000	0.829564  	105.000000	0.789459  	105.000000	0.788971  	105.000000	0.785796  	105.000000	0.78918   	105.000000	0.000279311	
110.000000	0.801601  	110.000000	0.763423  	110.000000	0.763173  	110.000000	0.759754  	110.000000	0.763155  	110.000000	0.000267734	
115.000000	0.77589   	115.000000	0.739529  	115.000000	0.739433  	115.000000	0.735844  	115.000000	0.739272  	115.000000	0.000257115	
120.000000	0.752162  	120.000000	0.717521  	120.000000	0.717507  	120.000000	0.713811  	120.000000	0.717274  	120.000000	0.00024734	
125.000000	0.730191  	125.000000	0.697183  	125.000000	0.697246  	125.000000	0.693441  	125.000000	0.696945  	125.000000	0.000238311	
130.000000	0.709785  	130.000000	0.67833   	130.000000	0.67845   	130.000000	0.674552  	130.000000	0.6781    	130.000000	0.000229943	
135.000000	0.690778  	135.000000	0.660805  	135.000000	0.660969  	135.000000	0.656987  	135.000000	0.660583  	135.000000	0.000222166	
140.000000	0.673028  	140.000000	0.64447   	140.000000	0.644665  	140.000000	0.640611  	140.000000	0.644255  	140.000000	0.000214919	
145.000000	0.65641   	145.000000	0.629209  	145.000000	0.629431  	145.000000	0.625306  	145.000000	0.629001  	145.000000	0.000208148	
150.000000	0.640817  	150.000000	0.614917  	150.000000	0.615161  	150.000000	0.610971  	150.000000	0.614715  	150.000000	0.000201807	
155.000000	0.618844  	155.000000	0.601506  	155.000000	0.601715  	155.000000	0.597516  	155.000000	0.60131   	155.000000	0.000195857	
160.000000	0.605972  	160.000000	0.588895  	160.000000	0.589063  	160.000000	0.584861  	160.000000	0.588705  	160.000000	0.000190261	
165.000000	0.593832  	165.000000	0.577015  	165.000000	0.577186  	165.000000	0.572939  	165.000000	0.57683   	165.000000	0.000184989	
170.000000	0.582363  	170.000000	0.565804  	170.000000	0.565986  	170.000000	0.561686  	170.000000	0.565624  	170.000000	0.000180013	
175.000000	0.571509  	175.000000	0.555206  	175.000000	0.555381  	175.000000	0.551048  	175.000000	0.555031  	175.000000	0.000175308	
180.000000	0.561221  	180.000000	0.545174  	180.000000	0.545309  	180.000000	0.540977  	180.000000	0.545003  	180.000000	0.000170852	
185.000000	0.551457  	185.000000	0.535661  	185.000000	0.535741  	185.000000	0.531428  	185.000000	0.535495  	185.000000	0.000166626	
190.000000	0.542176  	190.000000	0.52663   	190.000000	0.52666   	190.000000	0.522361  	190.000000	0.526468  	190.000000	0.000162613	
195.000000	0.533343  	195.000000	0.518045  	195.000000	0.518053  	195.000000	0.513742  	195.000000	0.517886  	195.000000	0.000158795	
200.000000	0.524926  	200.000000	0.509872  	200.000000	0.509879  	200.000000	0.505537  	200.000000	0.509717  	200.000000	0.00015516	
210.000000	0.509226  	210.000000	0.494653  	210.000000	0.494598  	210.000000	0.490261  	210.000000	0.494505  	210.000000	0.000148386	
220.000000	0.494876  	220.000000	0.480771  	220.000000	0.480633  	220.000000	0.476328  	220.000000	0.480629  	220.000000	0.000142201	
230.000000	0.481706  	230.000000	0.468058  	230.000000	0.467907  	230.000000	0.463571  	230.000000	0.467921  	230.000000	0.000136529	
240.000000	0.469577  	240.000000	0.456372  	240.000000	0.456179  	240.000000	0.451849  	240.000000	0.456241  	240.000000	0.00013131	
250.000000	0.458368  	250.000000	0.445595  	250.000000	0.445343  	250.000000	0.441042  	250.000000	0.445468  	250.000000	0.000126489	
260.000000	0.447979  	260.000000	0.435625  	260.000000	0.435329  	260.000000	0.431049  	260.000000	0.435503  	260.000000	0.000122023	
270.000000	0.438323  	270.000000	0.426375  	270.000000	0.42604   	270.000000	0.421782  	270.000000	0.426257  	270.000000	0.000117874	
280.000000	0.429325  	280.000000	0.417772  	280.000000	0.417403  	280.000000	0.413167  	280.000000	0.417658  	280.000000	0.000114007	
290.000000	0.420919  	290.000000	0.40975   	290.000000	0.409354  	290.000000	0.405138  	290.000000	0.40964   	290.000000	0.000110396	
300.000000	0.413051  	300.000000	0.402253  	300.000000	0.401835  	300.000000	0.397639  	300.000000	0.402146  	300.000000	0.000107015	
310.000000	0.405669  	310.000000	0.395233  	310.000000	0.394796  	310.000000	0.390621  	310.000000	0.395129  	310.000000	0.000103843	
320.000000	0.39873   	320.000000	0.388645  	320.000000	0.388196  	320.000000	0.384039  	320.000000	0.388544  	320.000000	0.00010086	
330.000000	0.392197  	330.000000	0.382452  	330.000000	0.381994  	330.000000	0.377856  	330.000000	0.382354  	330.000000	9.80505e-05	
340.000000	0.386035  	340.000000	0.37662   	340.000000	0.376157  	340.000000	0.372037  	340.000000	0.376525  	340.000000	9.5399e-05	
350.000000	0.380213  	350.000000	0.371119  	350.000000	0.370655  	350.000000	0.366553  	350.000000	0.371027  	350.000000	9.28923e-05	
360.000000	0.374705  	360.000000	0.365923  	360.000000	0.365461  	360.000000	0.361375  	360.000000	0.365833  	360.000000	9.0519e-05	
370.000000	0.369487  	370.000000	0.361007  	370.000000	0.36055   	370.000000	0.356481  	370.000000	0.360919  	370.000000	8.82684e-05	
380.000000	0.364537  	380.000000	0.356351  	380.000000	0.355901  	380.000000	0.351848  	380.000000	0.356264  	380.000000	8.61312e-05	
390.000000	0.359834  	390.000000	0.351934  	390.000000	0.351494  	390.000000	0.347456  	390.000000	0.35185   	390.000000	8.40989e-05	
400.000000	0.355362  	400.000000	0.347739  	400.000000	0.347312  	400.000000	0.343289  	400.000000	0.347657  	400.000000	8.21638e-05	
410.000000	0.351105  	410.000000	0.343751  	410.000000	0.343338  	410.000000	0.33933   	410.000000	0.343671  	410.000000	8.03191e-05	
420.000000	0.347047  	420.000000	0.339955  	420.000000	0.339557  	420.000000	0.335564  	420.000000	0.339877  	420.000000	7.85585e-05	
430.000000	0.343176  	430.000000	0.336339  	430.000000	0.335959  	430.000000	0.331979  	430.000000	0.336262  	430.000000	7.68764e-05	
440.000000	0.339479  	440.000000	0.332889  	440.000000	0.332532  	440.000000	0.328562  	440.000000	0.332814  	440.000000	7.52674e-05	
450.000000	0.335946  	450.000000	0.329597  	450.000000	0.32926   	450.000000	0.325303  	450.000000	0.329523  	450.000000	7.37269e-05	
460.000000	0.332566  	460.000000	0.326451  	460.000000	0.326123  	460.000000	0.322191  	460.000000	0.326379  	460.000000	7.22505e-05	
470.000000	0.329331  	470.000000	0.323443  	470.000000	0.323118  	470.000000	0.319218  	470.000000	0.323372  	470.000000	7.08343e-05	
480.000000	0.32623   	480.000000	0.320564  	480.000000	0.320251  	480.000000	0.316374  	480.000000	0.320494  	480.000000	6.94746e-05	
490.000000	0.323258  	490.000000	0.317806  	490.000000	0.317517  	490.000000	0.313652  	490.000000	0.317738  	490.000000	6.8168e-05	
500.000000	0.320405  	500.000000	0.315163  	500.000000	0.314903  	500.000000	0.311045  	500.000000	0.315096  	500.000000	6.69116e-05	
520.000000	0.315035  	520.000000	0.310195  	520.000000	0.309986  	520.000000	0.30615   	520.000000	0.310131  	520.000000	6.45375e-05	
540.000000	0.310072  	540.000000	0.305613  	540.000000	0.30546   	540.000000	0.30164   	540.000000	0.30555   	540.000000	6.23321e-05	
560.000000	0.305474  	560.000000	0.301376  	560.000000	0.301271  	560.000000	0.297475  	560.000000	0.301315  	560.000000	6.02778e-05	
580.000000	0.301206  	580.000000	0.297449  	580.000000	0.297373  	580.000000	0.293619  	580.000000	0.297391  	580.000000	5.83593e-05	
600.000000	0.297236  	600.000000	0.293804  	600.000000	0.29377   	600.000000	0.290043  	600.000000	0.293747  	600.000000	5.65634e-05	
620.000000	0.293537  	620.000000	0.290412  	620.000000	0.290434  	620.000000	0.286719  	620.000000	0.290357  	620.000000	5.48787e-05	
640.000000	0.290085  	640.000000	0.287251  	640.000000	0.287323  	640.000000	0.283623  	640.000000	0.287198  	640.000000	5.32949e-05	
660.000000	0.286858  	660.000000	0.284301  	660.000000	0.284422  	660.000000	0.280736  	660.000000	0.284249  	660.000000	5.18033e-05	
680.000000	0.283838  	680.000000	0.281543  	680.000000	0.281714  	680.000000	0.278038  	680.000000	0.281492  	680.000000	5.03958e-05	
700.000000	0.281008  	700.000000	0.278961  	700.000000	0.279171  	700.000000	0.275513  	700.000000	0.278912  	700.000000	4.90654e-05	
720.000000	0.278353  	720.000000	0.276542  	720.000000	0.276777  	720.000000	0.273147  	720.000000	0.276494  	720.000000	4.7806e-05	
740.000000	0.27586   	740.000000	0.274271  	740.000000	0.274554  	740.000000	0.27095   	740.000000	0.274225  	740.000000	4.66119e-05	
760.000000	0.273515  	760.000000	0.272139  	760.000000	0.272496  	760.000000	0.268906  	760.000000	0.272093  	760.000000	4.54781e-05	
780.000000	0.27131   	780.000000	0.270133  	780.000000	0.270567  	780.000000	0.266984  	780.000000	0.270089  	780.000000	4.44001e-05	
800.000000	0.269233  	800.000000	0.268246  	800.000000	0.268752  	800.000000	0.265175  	800.000000	0.268203  	800.000000	4.33738e-05	
820.000000	0.267276  	820.000000	0.266469  	820.000000	0.267039  	820.000000	0.263471  	820.000000	0.266426  	820.000000	4.23955e-05	
840.000000	0.265431  	840.000000	0.264793  	840.000000	0.265417  	840.000000	0.261863  	840.000000	0.264752  	840.000000	4.1462e-05	
860.000000	0.26369   	860.000000	0.263213  	860.000000	0.263881  	860.000000	0.260346  	860.000000	0.263172  	860.000000	4.05701e-05	
880.000000	0.262047  	880.000000	0.261721  	880.000000	0.262427  	880.000000	0.258912  	880.000000	0.261682  	880.000000	3.97172e-05	
900.000000	0.260495  	900.000000	0.260313  	900.000000	0.261056  	900.000000	0.257557  	900.000000	0.260274  	900.000000	3.89006e-05	
920.000000	0.259029  	920.000000	0.258982  	920.000000	0.259764  	920.000000	0.256275  	920.000000	0.258943  	920.000000	3.81182e-05	
940.000000	0.257644  	940.000000	0.257723  	940.000000	0.258544  	940.000000	0.25506   	940.000000	0.257686  	940.000000	3.73676e-05	
960.000000	0.256335  	960.000000	0.256534  	960.000000	0.257389  	960.000000	0.25391   	960.000000	0.256497  	960.000000	3.66472e-05	
980.000000	0.255098  	980.000000	0.255408  	980.000000	0.256295  	980.000000	0.252819  	980.000000	0.255372  	980.000000	3.59549e-05	
1000.000000	0.253928  	1000.000000	0.254343  	1000.000000	0.255255  	1000.000000	0.251785  	1000.000000	0.254308  	1000.000000	3.52893e-05	
1020.000000	0.252822  	1020.000000	0.253335  	1020.000000	0.254265  	1020.000000	0.250803  	1020.000000	0.253301  	1020.000000	3.46487e-05	
1040.000000	0.251777  	1040.000000	0.252381  	1040.000000	0.253321  	1040.000000	0.249871  	1040.000000	0.252347  	1040.000000	3.40317e-05	
1060.000000	0.250788  	1060.000000	0.251478  	1060.000000	0.252422  	1060.000000	0.248985  	1060.000000	0.251444  	1060.000000	3.34372e-05	
1080.000000	0.249854  	1080.000000	0.250623  	1080.000000	0.251567  	1080.000000	0.248144  	1080.000000	0.25059   	1080.000000	3.28637e-05	
1100.000000	0.248971  	1100.000000	0.249813  	1100.000000	0.250755  	1100.000000	0.247344  	1100.000000	0.249781  	1100.000000	3.23103e-05	
1120.000000	0.248137  	1120.000000	0.249046  	1120.000000	0.249986  	1120.000000	0.246583  	1120.000000	0.249014  	1120.000000	3.17759e-05	
1140.000000	0.24735   	1140.000000	0.248321  	1140.000000	0.249257  	1140.000000	0.245858  	1140.000000	0.248289  	1140.000000	3.12595e-05	
1160.000000	0.246607  	1160.000000	0.247634  	1160.000000	0.248564  	1160.000000	0.245169  	1160.000000	0.247603  	1160.000000	3.07602e-05	
1180.000000	0.245905  	1180.000000	0.246984  	1180.000000	0.247904  	1180.000000	0.244513  	1180.000000	0.246953  	1180.000000	3.02772e-05	
1200.000000	0.245244  	1200.000000	0.246369  	1200.000000	0.247274  	1200.000000	0.243888  	1200.000000	0.246339  	1200.000000	2.98096e-05	
1220.000000	0.244621  	1220.000000	0.245787  	1220.000000	0.246672  	1220.000000	0.243293  	1220.000000	0.245758  	1220.000000	2.93568e-05	
1240.000000	0.244035  	1240.000000	0.245237  	1240.000000	0.246096  	1240.000000	0.242726  	1240.000000	0.245208  	1240.000000	2.8918e-05	
1260.000000	0.243484  	1260.000000	0.244718  	1260.000000	0.245546  	1260.000000	0.242186  	1260.000000	0.244689  	1260.000000	2.84925e-05	
1280.000000	0.242966  	1280.000000	0.244227  	1280.000000	0.245021  	1280.000000	0.241671  	1280.000000	0.244199  	1280.000000	2.80799e-05	
1300.000000	0.24248   	1300.000000	0.243764  	1300.000000	0.244522  	1300.000000	0.24118   	1300.000000	0.243737  	1300.000000	2.76794e-05	
1320.000000	0.242024  	1320.000000	0.243328  	1320.000000	0.244047  	1320.000000	0.240713  	1320.000000	0.243301  	1320.000000	2.72906e-05	
1340.000000	0.241598  	1340.000000	0.242917  	1340.000000	0.243595  	1340.000000	0.240267  	1340.000000	0.24289   	1340.000000	2.6913e-05	
1360.000000	0.2412    	1360.000000	0.242529  	1360.000000	0.243166  	1360.000000	0.239841  	1360.000000	0.242503  	1360.000000	2.6546e-05	
1380.000000	0.240829  	1380.000000	0.242165  	1380.000000	0.242757  	1380.000000	0.239436  	1380.000000	0.242139  	1380.000000	2.61893e-05	
1400.000000	0.240484  	1400.000000	0.241823  	1400.000000	0.242368  	1400.000000	0.239049  	1400.000000	0.241797  	1400.000000	2.58423e-05	
1420.000000	0.240164  	1420.000000	0.241502  	1420.000000	0.241997  	1420.000000	0.238681  	1420.000000	0.241477  	1420.000000	2.55048e-05	
1440.000000	0.239867  	1440.000000	0.241202  	1440.000000	0.241644  	1440.000000	0.238329  	1440.000000	0.241176  	1440.000000	2.51762e-05	
1460.000000	0.239594  	1460.000000	0.240921  	1460.000000	0.241307  	1460.000000	0.237994  	1460.000000	0.240896  	1460.000000	2.48564e-05	
1480.000000	0.239343  	1480.000000	0.240658  	1480.000000	0.240986  	1480.000000	0.237675  	1480.000000	0.240634  	1480.000000	2.45448e-05	
1500.000000	0.239114  	1500.000000	0.240414  	1500.000000	0.24068   	1500.000000	0.23737   	1500.000000	0.24039   	1500.000000	2.42412e-05	
1520.000000	0.238904  	1520.000000	0.240187  	1520.000000	0.240387  	1520.000000	0.23708   	1520.000000	0.240163  	1520.000000	2.39453e-05	
1540.000000	0.238715  	1540.000000	0.239976  	1540.000000	0.240108  	1540.000000	0.236804  	1540.000000	0.239953  	1540.000000	2.36567e-05	
1560.000000	0.238545  	1560.000000	0.239782  	1560.000000	0.239842  	1560.000000	0.23654   	1560.000000	0.239758  	1560.000000	2.33753e-05	
1580.000000	0.238393  	1580.000000	0.239603  	1580.000000	0.239587  	1580.000000	0.23629   	1580.000000	0.23958   	1580.000000	2.31008e-05	
1600.000000	0.23826   	1600.000000	0.239439  	1600.000000	0.239344  	1600.000000	0.236051  	1600.000000	0.239416  	1600.000000	2.28328e-05	
1620.000000	0.238143  	1620.000000	0.239288  	1620.000000	0.239112  	1620.000000	0.235823  	1620.000000	0.239266  	1620.000000	2.25712e-05	
1640.000000	0.238043  	1640.000000	0.239152  	1640.000000	0.238891  	1640.000000	0.235607  	1640.000000	0.23913   	1640.000000	2.23157e-05	
1660.000000	0.237959  	1660.000000	0.239029  	1660.000000	0.23868   	1660.000000	0.235401  	1660.000000	0.239007  	1660.000000	2.20662e-05	
1680.000000	0.237891  	1680.000000	0.238919  	1680.000000	0.238479  	1680.000000	0.235206  	1680.000000	0.238897  	1680.000000	2.18223e-05	
1700.000000	0.237838  	1700.000000	0.238821  	1700.000000	0.238288  	1700.000000	0.23502   	1700.000000	0.2388    	1700.000000	2.1584e-05	
1750.000000	0.237768  	1750.000000	0.238628  	1750.000000	0.237851  	1750.000000	0.234595  	1750.000000	0.238607  	1750.000000	2.10112e-05	
1800.000000	0.237782  	1800.000000	0.238503  	1800.000000	0.23747   	1800.000000	0.234223  	1800.000000	0.238483  	1800.000000	2.04689e-05	
1850.000000	0.237875  	1850.000000	0.238441  	1850.000000	0.237141  	1850.000000	0.233899  	1850.000000	0.238421  	1850.000000	1.99549e-05	
1900.000000	0.23804   	1900.000000	0.238437  	1900.000000	0.236856  	1900.000000	0.233618  	1900.000000	0.238418  	1900.000000	1.94669e-05	
1950.000000	0.238272  	1950.000000	0.238487  	1950.000000	0.236612  	1950.000000	0.233376  	1950.000000	0.238468  	1950.000000	1.9003e-05	
2000.000000	0.238568  	2000.000000	0.238586  	2000.000000	0.236403  	2000.000000	0.233171  	2000.000000	0.238567  	2000.000000	1.85614e-05	
2100.000000	0.239332  	2100.000000	0.238918  	2100.000000	0.236075  	2100.000000	0.232855  	2100.000000	0.238901  	2100.000000	1.77389e-05	
2200.000000	0.240303  	2200.000000	0.23941   	2200.000000	0.235854  	2200.000000	0.232648  	2200.000000	0.239393  	2200.000000	1.69886e-05	
2300.000000	0.241457  	2300.000000	0.24004   	2300.000000	0.235725  	2300.000000	0.232532  	2300.000000	0.240024  	2300.000000	1.63011e-05	
2400.000000	0.242775  	2400.000000	0.240791  	2400.000000	0.235677  	2400.000000	0.232494  	2400.000000	0.240775  	2400.000000	1.56688e-05	
2500.000000	0.244239  	2500.000000	0.241649  	2500.000000	0.235697  	2500.000000	0.23252   	2500.000000	0.241633  	2500.000000	1.50852e-05	
2600.000000	0.245835  	2600.000000	0.2426    	2600.000000	0.235775  	2600.000000	0.232602  	2600.000000	0.242585  	2600.000000	1.45449e-05	
2700.000000	0.24755   	2700.000000	0.243635  	2700.000000	0.235901  	2700.000000	0.23273   	2700.000000	0.243621  	2700.000000	1.40432e-05	
2800.000000	0.249375  	2800.000000	0.244744  	2800.000000	0.236065  	2800.000000	0.232898  	2800.000000	0.24473   	2800.000000	1.3576e-05	
2900.000000	0.251299  	2900.000000	0.24592   	2900.000000	0.236263  	2900.000000	0.233099  	2900.000000	0.245907  	2900.000000	1.31399e-05	
3000.000000	0.253315  	3000.000000	0.247155  	3000.000000	0.236488  	3000.000000	0.233329  	3000.000000	0.247143  	3000.000000	1.27318e-05	
3200.000000	0.257593  	3200.000000	0.249783  	3200.000000	0.237007  	3200.000000	0.233859  	3200.000000	0.249771  	3200.000000	1.19894e-05	
3400.000000	0.262164  	3400.000000	0.252588  	3400.000000	0.237596  	3400.000000	0.23446   	3400.000000	0.252577  	3400.000000	1.13313e-05	
3600.000000	0.266989  	3600.000000	0.25554   	3600.000000	0.238238  	3600.000000	0.235111  	3600.000000	0.255529  	3600.000000	1.07438e-05	
3800.000000	0.272041  	3800.000000	0.258614  	3800.000000	0.238918  	3800.000000	0.235798  	3800.000000	0.258604  	3800.000000	1.02159e-05	
4000.000000	0.277294  	4000.000000	0.261791  	4000.000000	0.239623  	4000.000000	0.236509  	4000.000000	0.261782  	4000.000000	9.73905e-06	
4200.000000	0.28273   	4200.000000	0.265057  	4200.000000	0.240345  	4200.000000	0.237235  	4200.000000	0.265047  	4200.000000	9.30602e-06	
4400.000000	0.288333  	4400.000000	0.268397  	4400.000000	0.241075  	4400.000000	0.23797   	4400.000000	0.268388  	4400.000000	8.91098e-06	
4600.000000	0.294089  	4600.000000	0.271802  	4600.000000	0.241811  	4600.000000	0.238709  	4600.000000	0.271793  	4600.000000	8.54911e-06	
4800.000000	0.299987  	4800.000000	0.275263  	4800.000000	0.242546  	4800.000000	0.239449  	4800.000000	0.275254  	4800.000000	8.21635e-06	
5000.000000	0.306019  	5000.000000	0.278772  	5000.000000	0.243278  	5000.000000	0.240185  	5000.000000	0.278764  	5000.000000	7.90929e-06	
5250.000000	0.313734  	5250.000000	0.283217  	5250.000000	0.244186  	5250.000000	0.241097  	5250.000000	0.283209  	5250.000000	7.55724e-06	
5500.000000	0.32163   	5500.000000	0.287718  	5500.000000	0.245082  	5500.000000	0.241998  	5500.000000	0.287711  	5500.000000	7.2361e-06	
6000.000000	0.337929  	6000.000000	0.296857  	6000.000000	0.246833  	6000.000000	0.243758  	6000.000000	0.296851  	6000.000000	6.67145e-06	
6500.000000	0.354846  	6500.000000	0.306137  	6500.000000	0.248521  	6500.000000	0.245453  	6500.000000	0.306131  	6500.000000	6.19084e-06	
7000.000000	0.372334  	7000.000000	0.315523  	7000.000000	0.250141  	7000.000000	0.247079  	7000.000000	0.315517  	7000.000000	5.77664e-06	
7500.000000	0.390355  	7500.000000	0.324988  	7500.000000	0.251693  	7500.000000	0.248636  	7500.000000	0.324982  	7500.000000	5.41586e-06	
8000.000000	0.408883  	8000.000000	0.334512  	8000.000000	0.253176  	8000.000000	0.250126  	8000.000000	0.334507  	8000.000000	5.09871e-06	
8500.000000	0.427896  	8500.000000	0.344082  	8500.000000	0.254597  	8500.000000	0.251551  	8500.000000	0.344077  	8500.000000	4.81765e-06	
9000.000000	0.447378  	9000.000000	0.353686  	9000.000000	0.25596   	9000.000000	0.252915  	9000.000000	0.353681  	9000.000000	4.5668e-06	
9500.000000	0.467316  	9500.000000	0.363316  	9500.000000	0.257261  	9500.000000	0.25422   	9500.000000	0.363312  	9500.000000	4.3415e-06	
10000.000000	0.487699  	10000.000000	0.372965  	10000.000000	0.258504  	10000.000000	0.255472  	10000.000000	0.372961  	10000.000000	4.13799e-06	
11000.000000	0.529772  	11000.000000	0.3923    	11000.000000	0.260839  	11000.000000	0.257825  	11000.000000	0.392296  	11000.000000	3.78473e-06	
12000.000000	0.573546  	12000.000000	0.411661  	12000.000000	0.263002  	12000.000000	0.259998  	12000.000000	0.411657  	12000.000000	3.48852e-06	
13000.000000	0.61899   	13000.000000	0.431027  	13000.000000	0.265008  	13000.000000	0.262014  	13000.000000	0.431024  	13000.000000	3.23646e-06	
14000.000000	0.666081  	14000.000000	0.450386  	14000.000000	0.266871  	14000.000000	0.263892  	14000.000000	0.450383  	14000.000000	3.01928e-06	
15000.000000	0.714805  	15000.000000	0.469729  	15000.000000	0.268607  	15000.000000	0.265646  	15000.000000	0.469726  	15000.000000	2.83016e-06	
16000.000000	0.765152  	16000.000000	0.48905   	16000.000000	0.270233  	16000.000000	0.267291  	16000.000000	0.489047  	16000.000000	2.66395e-06	
17000.000000	0.817117  	17000.000000	0.508345  	17000.000000	0.271759  	17000.000000	0.268838  	17000.000000	0.508342  	17000.000000	2.51668e-06	
18000.000000	0.870697  	18000.000000	0.527611  	18000.000000	0.273199  	18000.000000	0.270298  	18000.000000	0.527609  	18000.000000	2.38526e-06	
19000.000000	0.925891  	19000.000000	0.546848  	19000.000000	0.274559  	19000.000000	0.271679  	19000.000000	0.546846  	19000.000000	2.26725e-06	
20000.000000	0.9827    	20000.000000	0.566053  	20000.000000	0.27585   	20000.000000	0.272988  	20000.000000	0.566051  	20000.000000	2.16067e-06	
21000.000000	1.04113   	21000.000000	0.585227  	21000.000000	0.277074  	21000.000000	0.274233  	21000.000000	0.585225  	21000.000000	2.06393e-06	
22000.000000	1.10117   	22000.000000	0.604369  	22000.000000	0.27824   	22000.000000	0.275418  	22000.000000	0.604367  	22000.000000	1.97571e-06	
23000.000000	1.16285   	23000.000000	0.623479  	23000.000000	0.279358  	23000.000000	0.276549  	23000.000000	0.623477  	23000.000000	1.89492e-06	
24000.000000	1.22615   	24000.000000	0.642558  	24000.000000	0.280421  	24000.000000	0.277631  	24000.000000	0.642556  	24000.000000	1.82065e-06	
25000.000000	1.29109   	25000.000000	0.661606  	25000.000000	0.281422  	25000.000000	0.278667  	25000.000000	0.661604  	25000.000000	1.75215e-06	
26000.000000	1.35767   	26000.000000	0.680623  	26000.000000	0.282385  	26000.000000	0.27966   	26000.000000	0.680622  	26000.000000	1.68875e-06	
27000.000000	1.42589   	27000.000000	0.699611  	27000.000000	0.28332   	27000.000000	0.280614  	27000.000000	0.699609  	27000.000000	1.6299e-06	
28000.000000	1.49578   	28000.000000	0.718569  	28000.000000	0.28422   	28000.000000	0.281532  	28000.000000	0.718567  	28000.000000	1.57512e-06	
29000.000000	1.56732   	29000.000000	0.737498  	29000.000000	0.285079  	29000.000000	0.282415  	29000.000000	0.737496  	29000.000000	1.52401e-06	
30000.000000	1.64053   	30000.000000	0.756399  	30000.000000	0.2859    	30000.000000	0.283268  	30000.000000	0.756397  	30000.000000	1.4762e-06	
32000.000000	1.792     	32000.000000	0.794118  	32000.000000	0.287451  	32000.000000	0.284886  	32000.000000	0.794117  	32000.000000	1.38927e-06	
34000.000000	1.95023   	34000.000000	0.831731  	34000.000000	0.288904  	34000.000000	0.2864    	34000.000000	0.83173   	34000.000000	1.31226e-06	
36000.000000	2.11531   	36000.000000	0.869244  	36000.000000	0.290262  	36000.000000	0.287821  	36000.000000	0.869242  	36000.000000	1.24356e-06	
38000.000000	2.28728   	38000.000000	0.906659  	38000.000000	0.291532  	38000.000000	0.289161  	38000.000000	0.906658  	38000.000000	1.18187e-06	
40000.000000	2.46624   	40000.000000	0.943982  	40000.000000	0.292723  	40000.000000	0.290428  	40000.000000	0.943981  	40000.000000	1.12617e-06	
42000.000000	2.65224   	42000.000000	0.981216  	42000.000000	0.293847  	42000.000000	0.291628  	42000.000000	0.981215  	42000.000000	1.07562e-06	
44000.000000	2.84536   	44000.000000	1.01837   	44000.000000	0.294913  	44000.000000	0.292769  	44000.000000	1.01836   	44000.000000	1.02952e-06	
46000.000000	3.04568   	46000.000000	1.05543   	46000.000000	0.295927  	46000.000000	0.293855  	46000.000000	1.05543   	46000.000000	9.87317e-07	
48000.000000	3.25327   	48000.000000	1.09242   	48000.000000	0.296891  	48000.000000	0.294892  	48000.000000	1.09242   	48000.000000	9.48524e-07	
50000.000000	3.4682    	50000.000000	1.12934   	50000.000000	0.297806  	50000.000000	0.295883  	50000.000000	1.12934   	50000.000000	9.12743e-07	
