Energy (MeV/u)1	0 - [He-base] F.Hubert et al, AD&ND Tables 46(1990)1	Energy (MeV/u)2	1 - [H -base] J.F.Ziegler et al, Pergamon Press, NY (low energy)	Energy (MeV/u)3	2 - ATIMA 1.2  LS-theory (recommended for high energy)	Energy (MeV/u)4	3 - ATIMA 1.2  without LS-correction	Energy (MeV/u)5	4 - electrical component of [1] - J.F.Ziegler et al	Energy (MeV/u)6	5 - nuclear component of [1] - J.F.Ziegler et al	
0.001000	2.4249    	0.001000	1.4443    	0.001000	1.54282   	0.001000	1.54282   	0.001000	0.578313  	0.001000	0.865983  	
0.002000	2.57686   	0.002000	1.47279   	0.002000	1.6024    	0.002000	1.6024    	0.002000	0.773074  	0.002000	0.69972   	
0.005000	3.00971   	0.005000	1.59769   	0.005000	1.78744   	0.005000	1.78744   	0.005000	1.13653   	0.005000	0.461161  	
0.008000	3.37794   	0.008000	1.74016   	0.008000	1.97283   	0.008000	1.97283   	0.008000	1.38594   	0.008000	0.354222  	
0.010000	3.59383   	0.010000	1.83257   	0.010000	2.08939   	0.010000	2.08939   	0.010000	1.5231    	0.010000	0.309466  	
0.015000	4.23827   	0.015000	2.08022   	0.015000	2.37739   	0.015000	2.37739   	0.015000	1.84147   	0.015000	0.238745  	
0.020000	4.79926   	0.020000	2.49733   	0.020000	2.77561   	0.020000	2.77561   	0.020000	2.30064   	0.020000	0.196688  	
0.025000	5.42215   	0.025000	2.91692   	0.025000	3.17754   	0.025000	3.17754   	0.025000	2.74937   	0.025000	0.167548  	
0.030000	5.95747   	0.030000	3.33147   	0.030000	3.49333   	0.030000	3.49333   	0.030000	3.18428   	0.030000	0.147193  	
0.035000	6.26889   	0.035000	3.68402   	0.035000	3.79544   	0.035000	3.79544   	0.035000	3.55289   	0.035000	0.131126  	
0.040000	6.50542   	0.040000	3.96717   	0.040000	4.08424   	0.040000	4.08424   	0.040000	3.84826   	0.040000	0.118907  	
0.045000	6.67185   	0.045000	4.23125   	0.045000	4.35871   	0.045000	4.35871   	0.045000	4.12228   	0.045000	0.108966  	
0.050000	6.77355   	0.050000	4.47663   	0.050000	4.61875   	0.050000	4.61875   	0.050000	4.37592   	0.050000	0.100703  	
0.055000	7.02903   	0.055000	4.70394   	0.055000	4.86443   	0.055000	4.86443   	0.055000	4.61023   	0.055000	0.0937139 	
0.060000	7.24559   	0.060000	4.91405   	0.060000	5.09603   	0.060000	5.09603   	0.060000	4.82634   	0.060000	0.0877167 	
0.070000	7.58602   	0.070000	5.28683   	0.070000	5.51856   	0.070000	5.51856   	0.070000	5.20889   	0.070000	0.0779378 	
0.080000	8.0429    	0.080000	5.65983   	0.080000	5.89038   	0.080000	5.89038   	0.080000	5.58954   	0.080000	0.0702815 	
0.090000	8.40647   	0.090000	5.98759   	0.090000	6.21628   	0.090000	6.21628   	0.090000	5.92348   	0.090000	0.0641079 	
0.100000	8.69888   	0.100000	6.26835   	0.100000	6.50127   	0.100000	6.50127   	0.100000	6.20934   	0.100000	0.0590138 	
0.120000	8.92689   	0.120000	6.71737   	0.120000	6.96761   	0.120000	6.96761   	0.120000	6.6663    	0.120000	0.0510769 	
0.140000	9.06032   	0.140000	7.05352   	0.140000	7.32333   	0.140000	7.32333   	0.140000	7.00837   	0.140000	0.0451562 	
0.160000	9.16491   	0.160000	7.3088    	0.160000	7.59498   	0.160000	7.59498   	0.160000	7.26825   	0.160000	0.0405547 	
0.180000	9.26941   	0.180000	7.50489   	0.180000	7.80238   	0.180000	7.80238   	0.180000	7.46802   	0.180000	0.0368663 	
0.200000	9.38371   	0.200000	7.65674   	0.200000	7.96018   	0.200000	7.96018   	0.200000	7.6229    	0.200000	0.033838  	
0.250000	9.43197   	0.250000	7.92633   	0.250000	8.20272   	0.250000	8.20272   	0.250000	7.89814   	0.250000	0.0281859 	
0.300000	9.53493   	0.300000	8.10697   	0.300000	8.30668   	0.300000	8.30668   	0.300000	8.08273   	0.300000	0.0242477 	
0.350000	9.61013   	0.350000	8.19863   	0.350000	8.331     	0.350000	8.331     	0.350000	8.1773    	0.350000	0.0213342 	
0.400000	9.65397   	0.400000	8.2353    	0.400000	8.30898   	0.400000	8.30898   	0.400000	8.21621   	0.400000	0.0190846 	
0.450000	9.70457   	0.450000	8.27002   	0.450000	8.28909   	0.450000	8.28909   	0.450000	8.25273   	0.450000	0.0172912 	
0.500000	9.71619   	0.500000	8.27094   	0.500000	8.29252   	0.500000	8.29252   	0.500000	8.25511   	0.500000	0.0158254 	
0.600000	9.36734   	0.600000	8.23819   	0.600000	8.22653   	0.600000	8.22653   	0.600000	8.22462   	0.600000	0.0135676 	
0.700000	8.94347   	0.700000	8.15109   	0.700000	8.10467   	0.700000	8.10467   	0.700000	8.13919   	0.700000	0.0119045 	
0.800000	8.83356   	0.800000	8.04042   	0.800000	7.93285   	0.800000	7.93285   	0.800000	8.0298    	0.800000	0.0106251 	
0.900000	8.68544   	0.900000	7.90289   	0.900000	7.75836   	0.900000	7.75836   	0.900000	7.89328   	0.900000	0.00960806	
1.000000	8.51468   	1.000000	7.75015   	1.000000	7.58514   	1.000000	7.58514   	1.000000	7.74137   	1.000000	0.00877892	
1.250000	8.02751   	1.250000	7.34403   	1.250000	7.16829   	1.250000	7.16829   	1.250000	7.33679   	1.250000	0.00724623	
1.500000	7.5406    	1.500000	6.94269   	1.500000	6.74552   	1.500000	6.74552   	1.500000	6.9365    	1.500000	0.00619042	
1.750000	7.08318   	1.750000	6.56642   	1.750000	6.37753   	1.750000	6.37753   	1.750000	6.561     	1.750000	0.00541616	
2.000000	6.64776   	2.000000	6.20545   	2.000000	6.05076   	2.000000	6.05076   	2.000000	6.20063   	2.000000	0.00482257	
2.250000	6.26801   	2.250000	5.88165   	2.250000	5.75722   	2.250000	5.75722   	2.250000	5.87729   	2.250000	0.00435215	
2.500000	6.03826   	2.500000	5.59091   	2.500000	5.49158   	2.500000	5.49158   	2.500000	5.58694   	2.500000	0.0039696 	
3.000000	5.42973   	3.000000	5.07407   	3.000000	5.02896   	3.000000	5.02896   	3.000000	5.07069   	3.000000	0.00338395	
3.500000	4.93667   	3.500000	4.65131   	3.500000	4.63977   	3.500000	4.63977   	3.500000	4.64835   	3.500000	0.00295557	
4.000000	4.52947   	4.000000	4.30222   	4.000000	4.30803   	4.000000	4.30803   	4.000000	4.2996    	4.000000	0.00262784	
4.500000	4.18754   	4.500000	4.00726   	4.500000	4.02204   	4.500000	4.02204   	4.500000	4.00489   	4.500000	0.00236857	
5.000000	3.89631   	5.000000	3.75328   	5.000000	3.77302   	5.000000	3.77302   	5.000000	3.75113   	5.000000	0.00215805	
5.500000	3.6452    	5.500000	3.5323    	5.500000	3.55428   	5.500000	3.55428   	5.500000	3.53031   	5.500000	0.00198352	
6.000000	3.4264    	6.000000	3.33806   	6.000000	3.3606    	6.000000	3.3606    	6.000000	3.33622   	6.000000	0.00183635	
6.500000	3.23397   	6.500000	3.16574   	6.500000	3.1879    	6.500000	3.1879    	6.500000	3.16403   	6.500000	0.00171048	
7.000000	3.06338   	7.000000	3.01168   	7.000000	3.03293   	7.000000	3.03293   	7.000000	3.01007   	7.000000	0.00160153	
7.500000	2.91106   	7.500000	2.87301   	7.500000	2.89308   	7.500000	2.89308   	7.500000	2.8715    	7.500000	0.00150626	
8.000000	2.77418   	8.000000	2.74747   	8.000000	2.76622   	8.000000	2.76622   	8.000000	2.74604   	8.000000	0.0014222 	
8.500000	2.65049   	8.500000	2.63323   	8.500000	2.65061   	8.500000	2.65061   	8.500000	2.63188   	8.500000	0.00134745	
9.000000	2.53814   	9.000000	2.52879   	9.000000	2.54479   	9.000000	2.54479   	9.000000	2.52751   	9.000000	0.00128053	
9.500000	2.43561   	9.500000	2.43292   	9.500000	2.44757   	9.500000	2.44757   	9.500000	2.4317    	9.500000	0.00122025	
10.000000	2.34167   	10.000000	2.36099   	10.000000	2.35792   	10.000000	2.35792   	10.000000	2.35983   	10.000000	0.00116565	
11.000000	2.17547   	11.000000	2.20262   	11.000000	2.19536   	11.000000	2.19823   	11.000000	2.20154   	11.000000	0.00107051	
12.000000	2.03297   	12.000000	2.06491   	12.000000	2.05465   	12.000000	2.05947   	12.000000	2.06392   	12.000000	0.000990359	
13.000000	1.90938   	13.000000	1.94415   	13.000000	1.93166   	13.000000	1.93781   	13.000000	1.94323   	13.000000	0.000921872	
14.000000	1.80111   	14.000000	1.83741   	14.000000	1.82327   	14.000000	1.83028   	14.000000	1.83654   	14.000000	0.000862639	
15.000000	1.70545   	15.000000	1.7424    	15.000000	1.72701   	15.000000	1.73457   	15.000000	1.74159   	15.000000	0.000810878	
16.000000	1.62028   	16.000000	1.65731   	16.000000	1.64095   	16.000000	1.64885   	16.000000	1.65654   	16.000000	0.000765239	
17.000000	1.54395   	17.000000	1.58066   	17.000000	1.56357   	17.000000	1.57163   	17.000000	1.57994   	17.000000	0.000724682	
18.000000	1.47512   	18.000000	1.51126   	18.000000	1.49364   	18.000000	1.50173   	18.000000	1.51058   	18.000000	0.00068839	
19.000000	1.41274   	19.000000	1.44814   	19.000000	1.43014   	19.000000	1.43816   	19.000000	1.44748   	19.000000	0.000655715	
20.000000	1.35591   	20.000000	1.39047   	20.000000	1.3722    	20.000000	1.3801    	20.000000	1.38984   	20.000000	0.000626134	
21.000000	1.30393   	21.000000	1.33758   	21.000000	1.31912   	21.000000	1.32689   	21.000000	1.33698   	21.000000	0.000599222	
22.000000	1.25618   	22.000000	1.28889   	22.000000	1.27033   	22.000000	1.27795   	22.000000	1.28832   	22.000000	0.000574627	
23.000000	1.21216   	23.000000	1.24393   	23.000000	1.22538   	23.000000	1.23279   	23.000000	1.24338   	23.000000	0.000552059	
24.000000	1.17145   	24.000000	1.20228   	24.000000	1.18385   	24.000000	1.19101   	24.000000	1.20175   	24.000000	0.000531272	
25.000000	1.13367   	25.000000	1.16359   	25.000000	1.14537   	25.000000	1.15224   	25.000000	1.16308   	25.000000	0.000512062	
27.000000	1.06574   	27.000000	1.09389   	27.000000	1.07629   	27.000000	1.08257   	27.000000	1.09341   	27.000000	0.000477694	
29.000000	1.00633   	29.000000	1.03284   	29.000000	1.01607   	29.000000	1.02179   	29.000000	1.03239   	29.000000	0.000447829	
31.000000	0.953914  	31.000000	0.978913  	31.000000	0.963552  	31.000000	0.968515  	31.000000	0.978491  	31.000000	0.000421625	
33.000000	0.907308  	33.000000	0.930926  	33.000000	0.917207  	33.000000	0.921336  	33.000000	0.930528  	33.000000	0.00039844	
35.000000	0.865582  	35.000000	0.887941  	35.000000	0.87568   	35.000000	0.879086  	35.000000	0.887563  	35.000000	0.000377773	
38.000000	0.810561  	38.000000	0.831243  	38.000000	0.820896  	38.000000	0.823361  	38.000000	0.830892  	38.000000	0.000350653	
41.000000	0.762958  	41.000000	0.782184  	41.000000	0.773348  	41.000000	0.775134  	41.000000	0.781857  	41.000000	0.000327311	
44.000000	0.721345  	44.000000	0.739306  	44.000000	0.731713  	44.000000	0.732966  	44.000000	0.738999  	44.000000	0.000307  	
47.000000	0.684638  	47.000000	0.7015    	47.000000	0.694987  	47.000000	0.695764  	47.000000	0.70121   	47.000000	0.000289158	
50.000000	0.652005  	50.000000	0.667906  	50.000000	0.662253  	50.000000	0.662687  	50.000000	0.667633  	50.000000	0.000273355	
55.000000	0.604953  	55.000000	0.619513  	55.000000	0.614972  	55.000000	0.614993  	55.000000	0.619262  	55.000000	0.000250671	
60.000000	0.565186  	60.000000	0.578665  	60.000000	0.575     	60.000000	0.574686  	60.000000	0.578434  	60.000000	0.000231594	
65.000000	0.531105  	65.000000	0.54371   	65.000000	0.540748  	65.000000	0.540151  	65.000000	0.543495  	65.000000	0.000215318	
70.000000	0.50155   	70.000000	0.513446  	70.000000	0.510971  	70.000000	0.510215  	70.000000	0.513245  	70.000000	0.000201261	
75.000000	0.47566   	75.000000	0.486979  	75.000000	0.484939  	75.000000	0.484004  	75.000000	0.48679   	75.000000	0.000188993	
80.000000	0.45278   	80.000000	0.46363   	80.000000	0.461888  	80.000000	0.460857  	80.000000	0.463452  	80.000000	0.000178189	
85.000000	0.432404  	85.000000	0.442873  	85.000000	0.441365  	85.000000	0.440258  	85.000000	0.442705  	85.000000	0.000168599	
90.000000	0.414133  	90.000000	0.424295  	90.000000	0.422975  	90.000000	0.421805  	90.000000	0.424135  	90.000000	0.000160026	
95.000000	0.39765   	95.000000	0.407567  	95.000000	0.4064    	95.000000	0.405176  	95.000000	0.407415  	95.000000	0.000152315	
100.000000	0.3827    	100.000000	0.392423  	100.000000	0.39138   	100.000000	0.390109  	100.000000	0.392278  	100.000000	0.00014534	
105.000000	0.369073  	105.000000	0.378646  	105.000000	0.377704  	105.000000	0.376393  	105.000000	0.378507  	105.000000	0.000139  	
110.000000	0.356598  	110.000000	0.366058  	110.000000	0.365199  	110.000000	0.363851  	110.000000	0.365924  	110.000000	0.00013321	
115.000000	0.345131  	115.000000	0.354509  	115.000000	0.353715  	115.000000	0.352339  	115.000000	0.354381  	115.000000	0.000127901	
120.000000	0.334551  	120.000000	0.343875  	120.000000	0.343141  	120.000000	0.341734  	120.000000	0.343752  	120.000000	0.000123015	
125.000000	0.324757  	125.000000	0.334051  	125.000000	0.333351  	125.000000	0.331931  	125.000000	0.333932  	125.000000	0.000118503	
130.000000	0.315663  	130.000000	0.324946  	130.000000	0.324248  	130.000000	0.322842  	130.000000	0.324832  	130.000000	0.000114322	
135.000000	0.307193  	135.000000	0.316485  	135.000000	0.315812  	135.000000	0.314392  	135.000000	0.316374  	135.000000	0.000110437	
140.000000	0.299285  	140.000000	0.3086    	140.000000	0.307961  	140.000000	0.306516  	140.000000	0.308493  	140.000000	0.000106818	
145.000000	0.291883  	145.000000	0.301234  	145.000000	0.300607  	145.000000	0.299156  	145.000000	0.301131  	145.000000	0.000103437	
150.000000	0.284939  	150.000000	0.294338  	150.000000	0.293698  	150.000000	0.292264  	150.000000	0.294238  	150.000000	0.000100271	
155.000000	0.275159  	155.000000	0.287868  	155.000000	0.287238  	155.000000	0.285795  	155.000000	0.28777   	155.000000	9.73012e-05	
160.000000	0.269428  	160.000000	0.281784  	160.000000	0.281163  	160.000000	0.279713  	160.000000	0.28169   	160.000000	9.45085e-05	
165.000000	0.264022  	165.000000	0.276054  	165.000000	0.275418  	165.000000	0.273983  	165.000000	0.275962  	165.000000	9.18777e-05	
170.000000	0.258916  	170.000000	0.270648  	170.000000	0.270012  	170.000000	0.268576  	170.000000	0.270558  	170.000000	8.93949e-05	
175.000000	0.254085  	175.000000	0.265538  	175.000000	0.264912  	175.000000	0.263465  	175.000000	0.26545   	175.000000	8.70477e-05	
180.000000	0.249506  	180.000000	0.2607    	180.000000	0.260067  	180.000000	0.258627  	180.000000	0.260615  	180.000000	8.48253e-05	
185.000000	0.24516   	185.000000	0.256114  	185.000000	0.255463  	185.000000	0.25404   	185.000000	0.256032  	185.000000	8.27178e-05	
190.000000	0.241029  	190.000000	0.251761  	190.000000	0.251096  	190.000000	0.249685  	190.000000	0.25168   	190.000000	8.07164e-05	
195.000000	0.237099  	195.000000	0.247622  	195.000000	0.246956  	195.000000	0.245546  	195.000000	0.247544  	195.000000	7.88133e-05	
200.000000	0.233353  	200.000000	0.243683  	200.000000	0.243025  	200.000000	0.241607  	200.000000	0.243606  	200.000000	7.70011e-05	
210.000000	0.226368  	210.000000	0.236349  	210.000000	0.235679  	210.000000	0.234273  	210.000000	0.236276  	210.000000	7.36248e-05	
220.000000	0.219984  	220.000000	0.22966   	220.000000	0.228968  	220.000000	0.227586  	220.000000	0.22959   	220.000000	7.05424e-05	
230.000000	0.214125  	230.000000	0.223535  	230.000000	0.222853  	230.000000	0.221464  	230.000000	0.223467  	230.000000	6.77169e-05	
240.000000	0.20873   	240.000000	0.217906  	240.000000	0.21722   	240.000000	0.21584   	240.000000	0.21784   	240.000000	6.5117e-05	
250.000000	0.203745  	250.000000	0.212714  	250.000000	0.212018  	250.000000	0.210656  	250.000000	0.212652  	250.000000	6.27164e-05	
260.000000	0.199124  	260.000000	0.207912  	260.000000	0.207209  	260.000000	0.205864  	260.000000	0.207852  	260.000000	6.04927e-05	
270.000000	0.19483   	270.000000	0.203458  	270.000000	0.202756  	270.000000	0.20142   	270.000000	0.203399  	270.000000	5.84269e-05	
280.000000	0.190829  	280.000000	0.199315  	280.000000	0.198632  	280.000000	0.19729   	280.000000	0.199258  	280.000000	5.65026e-05	
290.000000	0.187091  	290.000000	0.195452  	290.000000	0.194773  	290.000000	0.193442  	290.000000	0.195397  	290.000000	5.47054e-05	
300.000000	0.183592  	300.000000	0.191842  	300.000000	0.191164  	300.000000	0.189848  	300.000000	0.191789  	300.000000	5.30231e-05	
310.000000	0.18031   	310.000000	0.188462  	310.000000	0.18779   	310.000000	0.186485  	310.000000	0.188411  	310.000000	5.14449e-05	
320.000000	0.177225  	320.000000	0.18529   	320.000000	0.184626  	320.000000	0.183332  	320.000000	0.18524   	320.000000	4.99612e-05	
330.000000	0.17432   	330.000000	0.182309  	330.000000	0.18165   	330.000000	0.18037   	330.000000	0.18226   	330.000000	4.85638e-05	
340.000000	0.17158   	340.000000	0.179501  	340.000000	0.178856  	340.000000	0.177583  	340.000000	0.179454  	340.000000	4.72452e-05	
350.000000	0.168992  	350.000000	0.176853  	350.000000	0.176234  	350.000000	0.174957  	350.000000	0.176807  	350.000000	4.59988e-05	
360.000000	0.166543  	360.000000	0.174352  	360.000000	0.173753  	360.000000	0.172478  	360.000000	0.174307  	360.000000	4.48188e-05	
370.000000	0.164223  	370.000000	0.171985  	370.000000	0.1714    	370.000000	0.170135  	370.000000	0.171942  	370.000000	4.37001e-05	
380.000000	0.162022  	380.000000	0.169744  	380.000000	0.169172  	380.000000	0.167917  	380.000000	0.169701  	380.000000	4.26378e-05	
390.000000	0.159932  	390.000000	0.167618  	390.000000	0.167062  	390.000000	0.165816  	390.000000	0.167576  	390.000000	4.16277e-05	
400.000000	0.157944  	400.000000	0.165599  	400.000000	0.165061  	400.000000	0.163822  	400.000000	0.165558  	400.000000	4.06661e-05	
410.000000	0.156051  	410.000000	0.163679  	410.000000	0.163159  	410.000000	0.161928  	410.000000	0.163639  	410.000000	3.97495e-05	
420.000000	0.154247  	420.000000	0.161852  	420.000000	0.16135   	420.000000	0.160127  	420.000000	0.161813  	420.000000	3.88748e-05	
430.000000	0.152526  	430.000000	0.160111  	430.000000	0.159628  	430.000000	0.158412  	430.000000	0.160073  	430.000000	3.80391e-05	
440.000000	0.150883  	440.000000	0.158451  	440.000000	0.157988  	440.000000	0.156779  	440.000000	0.158414  	440.000000	3.72399e-05	
450.000000	0.149313  	450.000000	0.156866  	450.000000	0.156424  	450.000000	0.15522   	450.000000	0.15683   	450.000000	3.64748e-05	
460.000000	0.14781   	460.000000	0.155352  	460.000000	0.154928  	460.000000	0.153733  	460.000000	0.155316  	460.000000	3.57415e-05	
470.000000	0.146372  	470.000000	0.153904  	470.000000	0.153501  	470.000000	0.152312  	470.000000	0.153869  	470.000000	3.50383e-05	
480.000000	0.144994  	480.000000	0.152518  	480.000000	0.15214   	480.000000	0.150954  	480.000000	0.152484  	480.000000	3.43631e-05	
490.000000	0.143672  	490.000000	0.151191  	490.000000	0.150841  	490.000000	0.149653  	490.000000	0.151157  	490.000000	3.37144e-05	
500.000000	0.142405  	500.000000	0.149919  	500.000000	0.149598  	500.000000	0.148408  	500.000000	0.149886  	500.000000	3.30906e-05	
520.000000	0.140017  	520.000000	0.147527  	520.000000	0.147251  	520.000000	0.146071  	520.000000	0.147496  	520.000000	3.19122e-05	
540.000000	0.137811  	540.000000	0.145322  	540.000000	0.145087  	540.000000	0.143919  	540.000000	0.145291  	540.000000	3.08176e-05	
560.000000	0.135768  	560.000000	0.143282  	560.000000	0.143092  	560.000000	0.141932  	560.000000	0.143252  	560.000000	2.97981e-05	
580.000000	0.133871  	580.000000	0.141392  	580.000000	0.141245  	580.000000	0.140093  	580.000000	0.141363  	580.000000	2.88462e-05	
600.000000	0.132106  	600.000000	0.139637  	600.000000	0.139532  	600.000000	0.138389  	600.000000	0.139609  	600.000000	2.79553e-05	
620.000000	0.130462  	620.000000	0.138004  	620.000000	0.137941  	620.000000	0.136806  	620.000000	0.137976  	620.000000	2.71196e-05	
640.000000	0.128927  	640.000000	0.136482  	640.000000	0.13646   	640.000000	0.135332  	640.000000	0.136455  	640.000000	2.63341e-05	
660.000000	0.127493  	660.000000	0.135061  	660.000000	0.135079  	660.000000	0.133959  	660.000000	0.135035  	660.000000	2.55943e-05	
680.000000	0.126151  	680.000000	0.133733  	680.000000	0.13379   	680.000000	0.132676  	680.000000	0.133708  	680.000000	2.48964e-05	
700.000000	0.124893  	700.000000	0.132489  	700.000000	0.132584  	700.000000	0.131476  	700.000000	0.132465  	700.000000	2.42369e-05	
720.000000	0.123713  	720.000000	0.131324  	720.000000	0.131455  	720.000000	0.130353  	720.000000	0.1313    	720.000000	2.36125e-05	
740.000000	0.122605  	740.000000	0.13023   	740.000000	0.130396  	740.000000	0.1293    	740.000000	0.130207  	740.000000	2.30206e-05	
760.000000	0.121563  	760.000000	0.129203  	760.000000	0.129402  	760.000000	0.128311  	760.000000	0.12918   	760.000000	2.24587e-05	
780.000000	0.120583  	780.000000	0.128237  	780.000000	0.128468  	780.000000	0.127382  	780.000000	0.128215  	780.000000	2.19244e-05	
800.000000	0.119659  	800.000000	0.127327  	800.000000	0.127589  	800.000000	0.126507  	800.000000	0.127306  	800.000000	2.14158e-05	
820.000000	0.11879   	820.000000	0.126471  	820.000000	0.126763  	820.000000	0.125686  	820.000000	0.12645   	820.000000	2.09311e-05	
840.000000	0.117969  	840.000000	0.125663  	840.000000	0.125992  	840.000000	0.12492   	840.000000	0.125643  	840.000000	2.04686e-05	
860.000000	0.117196  	860.000000	0.124901  	860.000000	0.125266  	860.000000	0.124198  	860.000000	0.124881  	860.000000	2.00268e-05	
880.000000	0.116465  	880.000000	0.124182  	880.000000	0.12458   	880.000000	0.123515  	880.000000	0.124162  	880.000000	1.96043e-05	
900.000000	0.115776  	900.000000	0.123503  	900.000000	0.123931  	900.000000	0.122871  	900.000000	0.123483  	900.000000	1.91999e-05	
920.000000	0.115124  	920.000000	0.122861  	920.000000	0.123318  	920.000000	0.122262  	920.000000	0.122842  	920.000000	1.88123e-05	
940.000000	0.114509  	940.000000	0.122254  	940.000000	0.122738  	940.000000	0.121685  	940.000000	0.122235  	940.000000	1.84407e-05	
960.000000	0.113927  	960.000000	0.121679  	960.000000	0.122189  	960.000000	0.121139  	960.000000	0.121661  	960.000000	1.80839e-05	
980.000000	0.113377  	980.000000	0.121136  	980.000000	0.121668  	980.000000	0.120622  	980.000000	0.121119  	980.000000	1.77411e-05	
1000.000000	0.112857  	1000.000000	0.120622  	1000.000000	0.121175  	1000.000000	0.120132  	1000.000000	0.120605  	1000.000000	1.74115e-05	
1020.000000	0.112366  	1020.000000	0.120135  	1020.000000	0.120707  	1020.000000	0.119667  	1020.000000	0.120118  	1020.000000	1.70944e-05	
1040.000000	0.111901  	1040.000000	0.119675  	1040.000000	0.120263  	1040.000000	0.119226  	1040.000000	0.119658  	1040.000000	1.6789e-05	
1060.000000	0.111462  	1060.000000	0.119238  	1060.000000	0.119842  	1060.000000	0.118807  	1060.000000	0.119222  	1060.000000	1.64947e-05	
1080.000000	0.111046  	1080.000000	0.118825  	1080.000000	0.119442  	1080.000000	0.11841   	1080.000000	0.118809  	1080.000000	1.62108e-05	
1100.000000	0.110654  	1100.000000	0.118434  	1100.000000	0.119062  	1100.000000	0.118032  	1100.000000	0.118418  	1100.000000	1.5937e-05	
1120.000000	0.110283  	1120.000000	0.118063  	1120.000000	0.1187    	1120.000000	0.117673  	1120.000000	0.118047  	1120.000000	1.56725e-05	
1140.000000	0.109933  	1140.000000	0.117712  	1140.000000	0.118357  	1140.000000	0.117332  	1140.000000	0.117696  	1140.000000	1.54169e-05	
1160.000000	0.109603  	1160.000000	0.117379  	1160.000000	0.11803   	1160.000000	0.117008  	1160.000000	0.117364  	1160.000000	1.51698e-05	
1180.000000	0.109291  	1180.000000	0.117065  	1180.000000	0.11772   	1180.000000	0.116699  	1180.000000	0.11705   	1180.000000	1.49308e-05	
1200.000000	0.108997  	1200.000000	0.116767  	1200.000000	0.117424  	1200.000000	0.116406  	1200.000000	0.116752  	1200.000000	1.46995e-05	
1220.000000	0.108721  	1220.000000	0.116485  	1220.000000	0.117143  	1220.000000	0.116127  	1220.000000	0.116471  	1220.000000	1.44754e-05	
1240.000000	0.10846   	1240.000000	0.116219  	1240.000000	0.116876  	1240.000000	0.115862  	1240.000000	0.116204  	1240.000000	1.42584e-05	
1260.000000	0.108215  	1260.000000	0.115967  	1260.000000	0.116621  	1260.000000	0.115609  	1260.000000	0.115953  	1260.000000	1.40479e-05	
1280.000000	0.107985  	1280.000000	0.115729  	1280.000000	0.116379  	1280.000000	0.115368  	1280.000000	0.115715  	1280.000000	1.38438e-05	
1300.000000	0.107769  	1300.000000	0.115504  	1300.000000	0.116148  	1300.000000	0.115139  	1300.000000	0.11549   	1300.000000	1.36457e-05	
1320.000000	0.107566  	1320.000000	0.115292  	1320.000000	0.115928  	1320.000000	0.114921  	1320.000000	0.115279  	1320.000000	1.34534e-05	
1340.000000	0.107377  	1340.000000	0.115092  	1340.000000	0.115719  	1340.000000	0.114714  	1340.000000	0.115079  	1340.000000	1.32666e-05	
1360.000000	0.1072    	1360.000000	0.114904  	1360.000000	0.11552   	1360.000000	0.114516  	1360.000000	0.114891  	1360.000000	1.30851e-05	
1380.000000	0.107035  	1380.000000	0.114726  	1380.000000	0.11533   	1380.000000	0.114328  	1380.000000	0.114714  	1380.000000	1.29087e-05	
1400.000000	0.106882  	1400.000000	0.11456   	1400.000000	0.11515   	1400.000000	0.114149  	1400.000000	0.114547  	1400.000000	1.27372e-05	
1420.000000	0.106739  	1420.000000	0.114403  	1420.000000	0.114978  	1420.000000	0.113979  	1420.000000	0.114391  	1420.000000	1.25702e-05	
1440.000000	0.106608  	1440.000000	0.114257  	1440.000000	0.114814  	1440.000000	0.113817  	1440.000000	0.114244  	1440.000000	1.24078e-05	
1460.000000	0.106486  	1460.000000	0.114119  	1460.000000	0.114659  	1460.000000	0.113663  	1460.000000	0.114107  	1460.000000	1.22496e-05	
1480.000000	0.106375  	1480.000000	0.113991  	1480.000000	0.114511  	1480.000000	0.113516  	1480.000000	0.113979  	1480.000000	1.20956e-05	
1500.000000	0.106273  	1500.000000	0.113871  	1500.000000	0.11437   	1500.000000	0.113376  	1500.000000	0.113859  	1500.000000	1.19455e-05	
1520.000000	0.10618   	1520.000000	0.11376   	1520.000000	0.114236  	1520.000000	0.113244  	1520.000000	0.113748  	1520.000000	1.17992e-05	
1540.000000	0.106096  	1540.000000	0.113657  	1540.000000	0.114108  	1540.000000	0.113118  	1540.000000	0.113645  	1540.000000	1.16566e-05	
1560.000000	0.10602   	1560.000000	0.113561  	1560.000000	0.113987  	1560.000000	0.112998  	1560.000000	0.113549  	1560.000000	1.15175e-05	
1580.000000	0.105953  	1580.000000	0.113472  	1580.000000	0.113872  	1580.000000	0.112884  	1580.000000	0.113461  	1580.000000	1.13818e-05	
1600.000000	0.105893  	1600.000000	0.113391  	1600.000000	0.113763  	1600.000000	0.112776  	1600.000000	0.11338   	1600.000000	1.12493e-05	
1620.000000	0.105841  	1620.000000	0.113317  	1620.000000	0.113659  	1620.000000	0.112673  	1620.000000	0.113306  	1620.000000	1.112e-05 	
1640.000000	0.105797  	1640.000000	0.113249  	1640.000000	0.113561  	1640.000000	0.112576  	1640.000000	0.113238  	1640.000000	1.09938e-05	
1660.000000	0.10576   	1660.000000	0.113188  	1660.000000	0.113468  	1660.000000	0.112484  	1660.000000	0.113177  	1660.000000	1.08704e-05	
1680.000000	0.105729  	1680.000000	0.113133  	1680.000000	0.11338   	1680.000000	0.112397  	1680.000000	0.113122  	1680.000000	1.07499e-05	
1700.000000	0.105706  	1700.000000	0.113083  	1700.000000	0.113296  	1700.000000	0.112314  	1700.000000	0.113073  	1700.000000	1.06322e-05	
1750.000000	0.105675  	1750.000000	0.112985  	1750.000000	0.113106  	1750.000000	0.112126  	1750.000000	0.112974  	1750.000000	1.03491e-05	
1800.000000	0.105681  	1800.000000	0.112919  	1800.000000	0.112942  	1800.000000	0.111964  	1800.000000	0.112909  	1800.000000	1.00812e-05	
1850.000000	0.105722  	1850.000000	0.112884  	1850.000000	0.1128    	1850.000000	0.111825  	1850.000000	0.112874  	1850.000000	9.82721e-06	
1900.000000	0.105795  	1900.000000	0.112876  	1900.000000	0.11268   	1900.000000	0.111707  	1900.000000	0.112867  	1900.000000	9.58614e-06	
1950.000000	0.105899  	1950.000000	0.112894  	1950.000000	0.112578  	1950.000000	0.111607  	1950.000000	0.112885  	1950.000000	9.35699e-06	
2000.000000	0.10603   	2000.000000	0.112936  	2000.000000	0.112494  	2000.000000	0.111524  	2000.000000	0.112927  	2000.000000	9.13888e-06	
2100.000000	0.10637   	2100.000000	0.113085  	2100.000000	0.112371  	2100.000000	0.111405  	2100.000000	0.113076  	2100.000000	8.73273e-06	
2200.000000	0.106801  	2200.000000	0.11331   	2200.000000	0.112301  	2200.000000	0.111338  	2200.000000	0.113302  	2200.000000	8.36222e-06	
2300.000000	0.107314  	2300.000000	0.113601  	2300.000000	0.112275  	2300.000000	0.111315  	2300.000000	0.113593  	2300.000000	8.02279e-06	
2400.000000	0.1079    	2400.000000	0.113951  	2400.000000	0.112287  	2400.000000	0.111328  	2400.000000	0.113943  	2400.000000	7.71067e-06	
2500.000000	0.108551  	2500.000000	0.114352  	2500.000000	0.112329  	2500.000000	0.111373  	2500.000000	0.114344  	2500.000000	7.42265e-06	
2600.000000	0.10926   	2600.000000	0.114798  	2600.000000	0.112398  	2600.000000	0.111444  	2600.000000	0.11479   	2600.000000	7.15602e-06	
2700.000000	0.110022  	2700.000000	0.115284  	2700.000000	0.112489  	2700.000000	0.111537  	2700.000000	0.115277  	2700.000000	6.90845e-06	
2800.000000	0.110833  	2800.000000	0.115805  	2800.000000	0.112599  	2800.000000	0.111649  	2800.000000	0.115799  	2800.000000	6.67795e-06	
2900.000000	0.111688  	2900.000000	0.116359  	2900.000000	0.112726  	2900.000000	0.111777  	2900.000000	0.116353  	2900.000000	6.4628e-06	
3000.000000	0.112584  	3000.000000	0.116942  	3000.000000	0.112866  	3000.000000	0.111919  	3000.000000	0.116936  	3000.000000	6.26149e-06	
3200.000000	0.114486  	3200.000000	0.118182  	3200.000000	0.11318   	3200.000000	0.112235  	3200.000000	0.118176  	3200.000000	5.89535e-06	
3400.000000	0.116517  	3400.000000	0.119508  	3400.000000	0.113527  	3400.000000	0.112584  	3400.000000	0.119502  	3400.000000	5.57085e-06	
3600.000000	0.118662  	3600.000000	0.120904  	3600.000000	0.113898  	3600.000000	0.112957  	3600.000000	0.120898  	3600.000000	5.2812e-06	
3800.000000	0.120907  	3800.000000	0.122359  	3800.000000	0.114286  	3800.000000	0.113346  	3800.000000	0.122354  	3800.000000	5.02102e-06	
4000.000000	0.123242  	4000.000000	0.123863  	4000.000000	0.114684  	4000.000000	0.113746  	4000.000000	0.123858  	4000.000000	4.786e-06 	
4200.000000	0.125658  	4200.000000	0.12541   	4200.000000	0.115089  	4200.000000	0.114153  	4200.000000	0.125405  	4200.000000	4.57261e-06	
4400.000000	0.128148  	4400.000000	0.126993  	4400.000000	0.115498  	4400.000000	0.114564  	4400.000000	0.126989  	4400.000000	4.37798e-06	
4600.000000	0.130706  	4600.000000	0.128607  	4600.000000	0.115909  	4600.000000	0.114976  	4600.000000	0.128603  	4600.000000	4.19971e-06	
4800.000000	0.133328  	4800.000000	0.130248  	4800.000000	0.116318  	4800.000000	0.115387  	4800.000000	0.130244  	4800.000000	4.0358e-06	
5000.000000	0.136008  	5000.000000	0.131912  	5000.000000	0.116726  	5000.000000	0.115796  	5000.000000	0.131908  	5000.000000	3.88457e-06	
5250.000000	0.139437  	5250.000000	0.134021  	5250.000000	0.117231  	5250.000000	0.116302  	5250.000000	0.134017  	5250.000000	3.7112e-06	
5500.000000	0.142947  	5500.000000	0.136156  	5500.000000	0.11773   	5500.000000	0.116802  	5500.000000	0.136153  	5500.000000	3.55308e-06	
6000.000000	0.150191  	6000.000000	0.140493  	6000.000000	0.118704  	6000.000000	0.117779  	6000.000000	0.14049   	6000.000000	3.27512e-06	
6500.000000	0.15771   	6500.000000	0.144898  	6500.000000	0.119644  	6500.000000	0.118721  	6500.000000	0.144895  	6500.000000	3.03857e-06	
7000.000000	0.165482  	7000.000000	0.149353  	7000.000000	0.120547  	7000.000000	0.119627  	7000.000000	0.149351  	7000.000000	2.83476e-06	
7500.000000	0.173491  	7500.000000	0.153847  	7500.000000	0.121414  	7500.000000	0.120496  	7500.000000	0.153845  	7500.000000	2.65727e-06	
8000.000000	0.181726  	8000.000000	0.15837   	8000.000000	0.122247  	8000.000000	0.121329  	8000.000000	0.158367  	8000.000000	2.50128e-06	
8500.000000	0.190176  	8500.000000	0.162915  	8500.000000	0.123044  	8500.000000	0.122127  	8500.000000	0.162912  	8500.000000	2.36306e-06	
9000.000000	0.198835  	9000.000000	0.167476  	9000.000000	0.123807  	9000.000000	0.122894  	9000.000000	0.167474  	9000.000000	2.23971e-06	
9500.000000	0.207696  	9500.000000	0.17205   	9500.000000	0.12454   	9500.000000	0.12363   	9500.000000	0.172048  	9500.000000	2.12894e-06	
10000.000000	0.216755  	10000.000000	0.176633  	10000.000000	0.125244  	10000.000000	0.124337  	10000.000000	0.176631  	10000.000000	2.02891e-06	
11000.000000	0.235454  	11000.000000	0.185818  	11000.000000	0.126575  	11000.000000	0.125671  	11000.000000	0.185816  	11000.000000	1.85529e-06	
12000.000000	0.254909  	12000.000000	0.195015  	12000.000000	0.12781   	12000.000000	0.12691   	12000.000000	0.195014  	12000.000000	1.70974e-06	
13000.000000	0.275107  	13000.000000	0.204216  	13000.000000	0.128958  	13000.000000	0.128065  	13000.000000	0.204215  	13000.000000	1.58592e-06	
14000.000000	0.296036  	14000.000000	0.213414  	14000.000000	0.13003   	14000.000000	0.129145  	14000.000000	0.213412  	14000.000000	1.47925e-06	
15000.000000	0.317691  	15000.000000	0.222604  	15000.000000	0.131035  	15000.000000	0.130159  	15000.000000	0.222603  	15000.000000	1.38639e-06	
16000.000000	0.340068  	16000.000000	0.231784  	16000.000000	0.131982  	16000.000000	0.131114  	16000.000000	0.231783  	16000.000000	1.30478e-06	
17000.000000	0.363163  	17000.000000	0.240952  	17000.000000	0.132878  	17000.000000	0.132017  	17000.000000	0.240951  	17000.000000	1.23248e-06	
18000.000000	0.386976  	18000.000000	0.250107  	18000.000000	0.133728  	18000.000000	0.132871  	18000.000000	0.250105  	18000.000000	1.16798e-06	
19000.000000	0.411507  	19000.000000	0.259247  	19000.000000	0.134535  	19000.000000	0.133683  	19000.000000	0.259246  	19000.000000	1.11006e-06	
20000.000000	0.436755  	20000.000000	0.268373  	20000.000000	0.135305  	20000.000000	0.134455  	20000.000000	0.268372  	20000.000000	1.05777e-06	
21000.000000	0.462723  	21000.000000	0.277484  	21000.000000	0.136037  	21000.000000	0.135191  	21000.000000	0.277483  	21000.000000	1.0103e-06	
22000.000000	0.48941   	22000.000000	0.28658   	22000.000000	0.136729  	22000.000000	0.135895  	22000.000000	0.286579  	22000.000000	9.67019e-07	
23000.000000	0.51682   	23000.000000	0.295661  	23000.000000	0.137395  	23000.000000	0.136569  	23000.000000	0.29566   	23000.000000	9.2739e-07	
24000.000000	0.544955  	24000.000000	0.304727  	24000.000000	0.138036  	24000.000000	0.137215  	24000.000000	0.304726  	24000.000000	8.90965e-07	
25000.000000	0.573816  	25000.000000	0.313778  	25000.000000	0.138647  	25000.000000	0.137836  	25000.000000	0.313777  	25000.000000	8.57367e-07	
26000.000000	0.603407  	26000.000000	0.322815  	26000.000000	0.139233  	26000.000000	0.138433  	26000.000000	0.322814  	26000.000000	8.26276e-07	
27000.000000	0.63373   	27000.000000	0.331838  	27000.000000	0.139797  	27000.000000	0.139008  	27000.000000	0.331837  	27000.000000	7.9742e-07	
28000.000000	0.664789  	28000.000000	0.340847  	28000.000000	0.14034   	28000.000000	0.139563  	28000.000000	0.340846  	28000.000000	7.70564e-07	
29000.000000	0.696586  	29000.000000	0.349842  	29000.000000	0.140865  	29000.000000	0.140099  	29000.000000	0.349841  	29000.000000	7.45505e-07	
30000.000000	0.729125  	30000.000000	0.358823  	30000.000000	0.141373  	30000.000000	0.140616  	30000.000000	0.358823  	30000.000000	7.22067e-07	
32000.000000	0.796443  	32000.000000	0.376748  	32000.000000	0.142339  	32000.000000	0.141603  	32000.000000	0.376747  	32000.000000	6.79458e-07	
34000.000000	0.86677   	34000.000000	0.394622  	34000.000000	0.143246  	34000.000000	0.14253   	34000.000000	0.394621  	34000.000000	6.41719e-07	
36000.000000	0.940136  	36000.000000	0.412448  	36000.000000	0.144097  	36000.000000	0.143405  	36000.000000	0.412448  	36000.000000	6.08052e-07	
38000.000000	1.01657   	38000.000000	0.430229  	38000.000000	0.144898  	38000.000000	0.144233  	38000.000000	0.430228  	38000.000000	5.77827e-07	
40000.000000	1.09611   	40000.000000	0.447965  	40000.000000	0.145656  	40000.000000	0.145018  	40000.000000	0.447964  	40000.000000	5.50538e-07	
42000.000000	1.17877   	42000.000000	0.465659  	42000.000000	0.146374  	42000.000000	0.145765  	42000.000000	0.465659  	42000.000000	5.25774e-07	
44000.000000	1.2646    	44000.000000	0.483313  	44000.000000	0.147056  	44000.000000	0.146478  	44000.000000	0.483313  	44000.000000	5.03196e-07	
46000.000000	1.35363   	46000.000000	0.500929  	46000.000000	0.147708  	46000.000000	0.147158  	46000.000000	0.500928  	46000.000000	4.82526e-07	
48000.000000	1.4459    	48000.000000	0.518507  	48000.000000	0.14833   	48000.000000	0.14781   	48000.000000	0.518507  	48000.000000	4.63529e-07	
50000.000000	1.54142   	50000.000000	0.53605   	50000.000000	0.148923  	50000.000000	0.148435  	50000.000000	0.536049  	50000.000000	4.46008e-07	
