Energy (MeV/u)1	0 - [He-base] F.Hubert et al, AD&ND Tables 46(1990)1	Energy (MeV/u)2	1 - [H -base] J.F.Ziegler et al, Pergamon Press, NY (low energy)	Energy (MeV/u)3	2 - ATIMA 1.2  LS-theory (recommended for high energy)	Energy (MeV/u)4	3 - ATIMA 1.2  without LS-correction	Energy (MeV/u)5	4 - electrical component of [1] - J.F.Ziegler et al	Energy (MeV/u)6	5 - nuclear component of [1] - J.F.Ziegler et al	
0.001000	1.55997   	0.001000	1.55997   	0.001000	1.71225   	0.001000	1.71225   	0.001000	0.502767  	0.001000	1.05721   	
0.002000	1.56347   	0.002000	1.56347   	0.002000	1.76499   	0.002000	1.76499   	0.002000	0.672045  	0.002000	0.891422  	
0.005000	1.60543   	0.005000	1.60543   	0.005000	1.90092   	0.005000	1.90092   	0.005000	0.98792   	0.005000	0.617507  	
0.008000	1.68895   	0.008000	1.68895   	0.008000	2.05052   	0.008000	2.05052   	0.008000	1.20467   	0.008000	0.484283  	
0.010000	1.75065   	0.010000	1.75065   	0.010000	2.14909   	0.010000	2.14909   	0.010000	1.32386   	0.010000	0.42679   	
0.015000	1.93634   	0.015000	1.93634   	0.015000	2.40858   	0.015000	2.40858   	0.015000	1.60245   	0.015000	0.333893  	
0.020000	2.33164   	0.020000	2.33164   	0.020000	2.83264   	0.020000	2.83264   	0.020000	2.05419   	0.020000	0.277456  	
0.025000	2.75408   	0.025000	2.75408   	0.025000	3.27646   	0.025000	3.27646   	0.025000	2.51507   	0.025000	0.239008  	
0.030000	3.18574   	0.030000	3.18574   	0.030000	3.642     	0.030000	3.642     	0.030000	2.97485   	0.030000	0.210892  	
0.035000	3.61594   	0.035000	3.61594   	0.035000	3.99882   	0.035000	3.99882   	0.035000	3.42759   	0.035000	0.188343  	
0.040000	4.03983   	0.040000	4.03983   	0.040000	4.34633   	0.040000	4.34633   	0.040000	3.86853   	0.040000	0.171297  	
0.045000	4.45069   	0.045000	4.45069   	0.045000	4.68109   	0.045000	4.68109   	0.045000	4.29397   	0.045000	0.156712  	
0.050000	4.82177   	0.050000	4.82177   	0.050000	5.00337   	0.050000	5.00337   	0.050000	4.67662   	0.050000	0.145155  	
0.055000	5.15108   	0.055000	5.15108   	0.055000	5.3118    	0.055000	5.3118    	0.055000	5.01573   	0.055000	0.135343  	
0.060000	5.46178   	0.060000	5.46178   	0.060000	5.60605   	0.060000	5.60605   	0.060000	5.33489   	0.060000	0.126896  	
0.070000	6.02789   	0.070000	6.02789   	0.070000	6.152     	0.070000	6.152     	0.070000	5.91482   	0.070000	0.113068  	
0.080000	6.52426   	0.080000	6.52426   	0.080000	6.64283   	0.080000	6.64283   	0.080000	6.42206   	0.080000	0.102194  	
0.090000	6.95802   	0.090000	6.95802   	0.090000	7.08198   	0.090000	7.08198   	0.090000	6.86463   	0.090000	0.0933945 	
0.100000	7.33441   	0.100000	7.33441   	0.100000	7.47382   	0.100000	7.47382   	0.100000	7.2483    	0.100000	0.0861124 	
0.120000	7.85014   	0.120000	7.85014   	0.120000	8.13407   	0.120000	8.13407   	0.120000	7.77541   	0.120000	0.0747271 	
0.140000	8.25557   	0.140000	8.25557   	0.140000	8.65861   	0.140000	8.65861   	0.140000	8.18937   	0.140000	0.0662018 	
0.160000	8.58197   	0.160000	8.58197   	0.160000	9.07676   	0.160000	9.07676   	0.160000	8.52241   	0.160000	0.0595562 	
0.180000	8.84987   	0.180000	8.84987   	0.180000	9.41139   	0.180000	9.41139   	0.180000	8.79565   	0.180000	0.0542166 	
0.200000	9.13129   	0.200000	9.13129   	0.200000	9.67996   	0.200000	9.67996   	0.200000	9.08147   	0.200000	0.0498236 	
0.250000	9.66649   	0.250000	9.66649   	0.250000	10.1426   	0.250000	10.1426   	0.250000	9.62489   	0.250000	0.0416017 	
0.300000	10.0082   	0.300000	10.0082   	0.300000	10.4069   	0.300000	10.4069   	0.300000	9.97233   	0.300000	0.0358548 	
0.350000	10.2859   	0.350000	10.2859   	0.350000	10.5506   	0.350000	10.5506   	0.350000	10.2543   	0.350000	0.0315927 	
0.400000	10.4965   	0.400000	10.4965   	0.400000	10.6896   	0.400000	10.6896   	0.400000	10.4682   	0.400000	0.0282955 	
0.450000	10.6313   	0.450000	10.6313   	0.450000	10.8487   	0.450000	10.8487   	0.450000	10.6057   	0.450000	0.0256626 	
0.500000	10.7119   	0.500000	10.7119   	0.500000	10.9427   	0.500000	10.9427   	0.500000	10.6884   	0.500000	0.0235078 	
0.600000	10.8074   	0.600000	10.8074   	0.600000	11.0055   	0.600000	11.0055   	0.600000	10.7873   	0.600000	0.0201832 	
0.700000	10.8237   	0.700000	10.8237   	0.700000	10.9679   	0.700000	10.9679   	0.700000	10.806    	0.700000	0.0177299 	
0.800000	10.7652   	0.800000	10.7652   	0.800000	10.8144   	0.800000	10.8144   	0.800000	10.7493   	0.800000	0.0158396 	
0.900000	10.6589   	0.900000	10.6589   	0.900000	10.6391   	0.900000	10.6391   	0.900000	10.6446   	0.900000	0.0143352 	
1.000000	10.5403   	1.000000	10.5403   	1.000000	10.4569   	1.000000	10.4569   	1.000000	10.5272   	1.000000	0.0131074 	
1.250000	10.1744   	1.250000	10.1744   	1.250000	9.99105   	1.250000	9.99105   	1.250000	10.1636   	1.250000	0.0108345 	
1.500000	9.70141   	1.500000	9.70141   	1.500000	9.47264   	1.500000	9.47264   	1.500000	9.69215   	1.500000	0.00926608	
1.750000	9.24239   	1.750000	9.24239   	1.750000	9.01746   	1.750000	9.01746   	1.750000	9.23428   	1.750000	0.00811436	
2.000000	8.80341   	2.000000	8.80341   	2.000000	8.60913   	2.000000	8.60913   	2.000000	8.79618   	2.000000	0.00723043	
2.250000	8.40254   	2.250000	8.40254   	2.250000	8.23852   	2.250000	8.23852   	2.250000	8.39601   	2.250000	0.00652927	
2.500000	8.18148   	2.500000	8.02928   	2.500000	7.89975   	2.500000	7.89975   	2.500000	8.02333   	2.500000	0.00595864	
3.000000	7.5306    	3.000000	7.37106   	3.000000	7.30149   	3.000000	7.30149   	3.000000	7.36598   	3.000000	0.0050842 	
3.500000	6.96804   	3.500000	6.82281   	3.500000	6.7895    	3.500000	6.7895    	3.500000	6.81837   	3.500000	0.00444389	
4.000000	6.48152   	4.000000	6.35119   	4.000000	6.34644   	4.000000	6.34644   	4.000000	6.34723   	4.000000	0.00395359	
4.500000	6.05854   	4.500000	5.94725   	4.500000	5.95937   	4.500000	5.95937   	4.500000	5.94368   	4.500000	0.00356541	
5.000000	5.68833   	5.000000	5.59697   	5.000000	5.61839   	5.000000	5.61839   	5.000000	5.59372   	5.000000	0.00325001	
5.500000	5.36205   	5.500000	5.28946   	5.500000	5.31575   	5.500000	5.31575   	5.500000	5.28647   	5.500000	0.0029884 	
6.000000	5.07253   	6.000000	5.01683   	6.000000	5.04532   	6.000000	5.04532   	6.000000	5.01406   	6.000000	0.00276768	
6.500000	4.81403   	6.500000	4.77298   	6.500000	4.8022    	6.500000	4.8022    	6.500000	4.7704    	6.500000	0.00257883	
7.000000	4.58188   	7.000000	4.55343   	7.000000	4.58244   	7.000000	4.58244   	7.000000	4.55102   	7.000000	0.0024153 	
7.500000	4.37227   	7.500000	4.35474   	7.500000	4.38281   	7.500000	4.38281   	7.500000	4.35247   	7.500000	0.00227224	
8.000000	4.18208   	8.000000	4.17394   	8.000000	4.20064   	8.000000	4.20064   	8.000000	4.1718    	8.000000	0.00214598	
8.500000	4.00875   	8.500000	4.00863   	8.500000	4.03371   	8.500000	4.03371   	8.500000	4.0066    	8.500000	0.00203367	
9.000000	3.85012   	9.000000	3.85684   	9.000000	3.88018   	9.000000	3.88018   	9.000000	3.85491   	9.000000	0.00193309	
9.500000	3.70439   	9.500000	3.71693   	9.500000	3.73848   	9.500000	3.73848   	9.500000	3.71509   	9.500000	0.00184246	
10.000000	3.57005   	10.000000	3.61264   	10.000000	3.60727   	10.000000	3.60727   	10.000000	3.61088   	10.000000	0.00176035	
11.000000	3.33056   	11.000000	3.37945   	11.000000	3.3672    	11.000000	3.37384   	11.000000	3.37783   	11.000000	0.00161724	
12.000000	3.12337   	12.000000	3.1754    	12.000000	3.15819   	12.000000	3.16942   	12.000000	3.17391   	12.000000	0.00149663	
13.000000	2.94232   	13.000000	2.99547   	13.000000	2.97462   	13.000000	2.98899   	13.000000	2.99408   	13.000000	0.00139353	
14.000000	2.78272   	14.000000	2.83568   	14.000000	2.81208   	14.000000	2.8286    	14.000000	2.83438   	14.000000	0.00130433	
15.000000	2.64093   	15.000000	2.69287   	15.000000	2.6671    	15.000000	2.68512   	15.000000	2.69164   	15.000000	0.00122635	
16.000000	2.51411   	16.000000	2.56449   	16.000000	2.5371    	16.000000	2.55603   	16.000000	2.56333   	16.000000	0.00115758	
17.000000	2.39998   	17.000000	2.44847   	17.000000	2.41992   	17.000000	2.4393    	17.000000	2.44738   	17.000000	0.00109645	
18.000000	2.2967    	18.000000	2.34314   	18.000000	2.31368   	18.000000	2.33325   	18.000000	2.3421    	18.000000	0.00104174	
19.000000	2.20278   	19.000000	2.24707   	19.000000	2.21689   	19.000000	2.23652   	19.000000	2.24608   	19.000000	0.000992467	
20.000000	2.11699   	20.000000	2.15912   	20.000000	2.1284    	20.000000	2.14794   	20.000000	2.15817   	20.000000	0.000947851	
21.000000	2.03831   	21.000000	2.07828   	21.000000	2.04723   	21.000000	2.06655   	21.000000	2.07737   	21.000000	0.000907252	
22.000000	1.96587   	22.000000	2.00374   	22.000000	1.97253   	22.000000	1.99152   	22.000000	2.00287   	22.000000	0.000870142	
23.000000	1.89895   	23.000000	1.93479   	23.000000	1.90359   	23.000000	1.92215   	23.000000	1.93395   	23.000000	0.000836084	
24.000000	1.83693   	24.000000	1.87081   	24.000000	1.83977   	24.000000	1.85786   	24.000000	1.87001   	24.000000	0.00080471	
25.000000	1.77929   	25.000000	1.8113    	25.000000	1.78055   	25.000000	1.79811   	25.000000	1.81053   	25.000000	0.00077571	
27.000000	1.67539   	27.000000	1.70391   	27.000000	1.67408   	27.000000	1.69051   	27.000000	1.70319   	27.000000	0.000723816	
29.000000	1.58427   	29.000000	1.60966   	29.000000	1.58116   	29.000000	1.59641   	29.000000	1.60898   	29.000000	0.000678709	
31.000000	1.50369   	31.000000	1.52627   	31.000000	1.50018   	31.000000	1.51359   	31.000000	1.52563   	31.000000	0.000639122	
33.000000	1.43189   	33.000000	1.45195   	33.000000	1.42875   	33.000000	1.44001   	33.000000	1.45135   	33.000000	0.000604087	
35.000000	1.36749   	35.000000	1.3853    	35.000000	1.36454   	35.000000	1.37408   	35.000000	1.38473   	35.000000	0.00057285	
38.000000	1.2824    	38.000000	1.29728   	38.000000	1.27973   	38.000000	1.28708   	38.000000	1.29675   	38.000000	0.000531851	
41.000000	1.20863   	41.000000	1.22102   	41.000000	1.20606   	41.000000	1.21174   	41.000000	1.22053   	41.000000	0.000496554	
44.000000	1.14402   	44.000000	1.15431   	44.000000	1.14154   	44.000000	1.14585   	44.000000	1.15385   	44.000000	0.000465832	
47.000000	1.08694   	47.000000	1.09545   	47.000000	1.08445   	47.000000	1.0877    	47.000000	1.09501   	47.000000	0.000438838	
50.000000	1.03613   	50.000000	1.04311   	50.000000	1.03361   	50.000000	1.03599   	50.000000	1.0427    	50.000000	0.000414924	
55.000000	0.962736  	55.000000	0.967668  	55.000000	0.960089  	55.000000	0.961409  	55.000000	0.967287  	55.000000	0.000380588	
60.000000	0.900596  	60.000000	0.90395   	60.000000	0.898     	60.000000	0.898376  	60.000000	0.903599  	60.000000	0.000351704	
65.000000	0.84726   	65.000000	0.849401  	65.000000	0.844631  	65.000000	0.844366  	65.000000	0.849074  	65.000000	0.000327054	
70.000000	0.800945  	70.000000	0.802158  	70.000000	0.798245  	70.000000	0.797547  	70.000000	0.801853  	70.000000	0.000305761	
75.000000	0.760324  	75.000000	0.760833  	75.000000	0.757682  	75.000000	0.756556  	75.000000	0.760546  	75.000000	0.000287173	
80.000000	0.724387  	80.000000	0.72437   	80.000000	0.721762  	80.000000	0.720356  	80.000000	0.724099  	80.000000	0.0002708 	
85.000000	0.692351  	85.000000	0.691951  	85.000000	0.689778  	85.000000	0.688143  	85.000000	0.691695  	85.000000	0.000256263	
90.000000	0.663599  	90.000000	0.662932  	90.000000	0.661117  	90.000000	0.659285  	90.000000	0.662689  	90.000000	0.000243266	
95.000000	0.637641  	95.000000	0.636801  	95.000000	0.635282  	95.000000	0.63328   	95.000000	0.636569  	95.000000	0.000231574	
100.000000	0.614079  	100.000000	0.613143  	100.000000	0.611869  	100.000000	0.60972   	100.000000	0.612922  	100.000000	0.000220997	
105.000000	0.592588  	105.000000	0.59162   	105.000000	0.590556  	105.000000	0.588273  	105.000000	0.591409  	105.000000	0.000211381	
110.000000	0.572899  	110.000000	0.571953  	110.000000	0.570993  	110.000000	0.568663  	110.000000	0.571751  	110.000000	0.000202598	
115.000000	0.554791  	115.000000	0.55391   	115.000000	0.553078  	115.000000	0.550663  	115.000000	0.553716  	115.000000	0.000194544	
120.000000	0.538074  	120.000000	0.537296  	120.000000	0.536569  	120.000000	0.534081  	120.000000	0.537109  	120.000000	0.000187131	
125.000000	0.522591  	125.000000	0.521947  	125.000000	0.521255  	125.000000	0.518754  	125.000000	0.521767  	125.000000	0.000180283	
130.000000	0.508207  	130.000000	0.507722  	130.000000	0.50707   	130.000000	0.504545  	130.000000	0.507548  	130.000000	0.000173939	
135.000000	0.494805  	135.000000	0.494501  	135.000000	0.493929  	135.000000	0.491334  	135.000000	0.494333  	135.000000	0.000168042	
140.000000	0.482286  	140.000000	0.482182  	140.000000	0.481654  	140.000000	0.47902   	140.000000	0.482019  	140.000000	0.000162548	
145.000000	0.470562  	145.000000	0.470674  	145.000000	0.470153  	145.000000	0.467514  	145.000000	0.470516  	145.000000	0.000157415	
150.000000	0.459559  	150.000000	0.459899  	150.000000	0.459389  	150.000000	0.456739  	150.000000	0.459746  	150.000000	0.00015261	
155.000000	0.446082  	155.000000	0.449789  	155.000000	0.449287  	155.000000	0.446627  	155.000000	0.449641  	155.000000	0.0001481 	
160.000000	0.436929  	160.000000	0.440284  	160.000000	0.439785  	160.000000	0.437119  	160.000000	0.44014   	160.000000	0.000143859	
165.000000	0.428295  	165.000000	0.431331  	165.000000	0.430834  	165.000000	0.428162  	165.000000	0.431191  	165.000000	0.000139864	
170.000000	0.420136  	170.000000	0.422883  	170.000000	0.422387  	170.000000	0.419709  	170.000000	0.422747  	170.000000	0.000136093	
175.000000	0.412412  	175.000000	0.414899  	175.000000	0.414402  	175.000000	0.41172   	175.000000	0.414766  	175.000000	0.000132528	
180.000000	0.40509   	180.000000	0.407341  	180.000000	0.406842  	180.000000	0.404157  	180.000000	0.407211  	180.000000	0.000129152	
185.000000	0.398139  	185.000000	0.400175  	185.000000	0.399674  	185.000000	0.396987  	185.000000	0.400049  	185.000000	0.000125951	
190.000000	0.391531  	190.000000	0.393373  	190.000000	0.392868  	190.000000	0.390181  	190.000000	0.39325   	190.000000	0.000122911	
195.000000	0.38524   	195.000000	0.386907  	195.000000	0.386403  	195.000000	0.383711  	195.000000	0.386787  	195.000000	0.000120019	
200.000000	0.379244  	200.000000	0.380752  	200.000000	0.380248  	200.000000	0.377554  	200.000000	0.380635  	200.000000	0.000117266	
210.000000	0.368058  	210.000000	0.369293  	210.000000	0.368741  	210.000000	0.36609   	210.000000	0.369181  	210.000000	0.000112135	
220.000000	0.357829  	220.000000	0.358841  	220.000000	0.358279  	220.000000	0.355638  	220.000000	0.358734  	220.000000	0.000107451	
230.000000	0.348438  	230.000000	0.349271  	230.000000	0.348711  	230.000000	0.34607   	230.000000	0.349168  	230.000000	0.000103157	
240.000000	0.339786  	240.000000	0.340475  	240.000000	0.339922  	240.000000	0.33728   	240.000000	0.340376  	240.000000	9.9205e-05	
250.000000	0.331788  	250.000000	0.332364  	250.000000	0.331792  	250.000000	0.329178  	250.000000	0.332268  	250.000000	9.55556e-05	
260.000000	0.324373  	260.000000	0.324861  	260.000000	0.324273  	260.000000	0.321687  	260.000000	0.324768  	260.000000	9.21749e-05	
270.000000	0.317479  	270.000000	0.317901  	270.000000	0.317332  	270.000000	0.314742  	270.000000	0.317812  	270.000000	8.9034e-05	
280.000000	0.311053  	280.000000	0.311427  	280.000000	0.310872  	280.000000	0.308287  	280.000000	0.311341  	280.000000	8.61078e-05	
290.000000	0.305048  	290.000000	0.305392  	290.000000	0.304823  	290.000000	0.302272  	290.000000	0.305308  	290.000000	8.33749e-05	
300.000000	0.299426  	300.000000	0.299752  	300.000000	0.299193  	300.000000	0.296656  	300.000000	0.299671  	300.000000	8.08164e-05	
310.000000	0.29415   	310.000000	0.29447   	310.000000	0.293931  	310.000000	0.2914    	310.000000	0.294391  	310.000000	7.84159e-05	
320.000000	0.28919   	320.000000	0.289514  	320.000000	0.288973  	320.000000	0.286472  	320.000000	0.289438  	320.000000	7.61592e-05	
330.000000	0.284518  	330.000000	0.284856  	330.000000	0.284329  	330.000000	0.281843  	330.000000	0.284782  	330.000000	7.40334e-05	
340.000000	0.280111  	340.000000	0.280469  	340.000000	0.279975  	340.000000	0.277488  	340.000000	0.280397  	340.000000	7.20274e-05	
350.000000	0.275947  	350.000000	0.276331  	350.000000	0.27587   	350.000000	0.273383  	350.000000	0.276261  	350.000000	7.01312e-05	
360.000000	0.272006  	360.000000	0.272423  	360.000000	0.271979  	360.000000	0.269509  	360.000000	0.272355  	360.000000	6.83359e-05	
370.000000	0.268272  	370.000000	0.268726  	370.000000	0.268293  	370.000000	0.265848  	370.000000	0.268659  	370.000000	6.66336e-05	
380.000000	0.264729  	380.000000	0.265223  	380.000000	0.264819  	380.000000	0.262382  	380.000000	0.265158  	380.000000	6.50171e-05	
390.000000	0.261363  	390.000000	0.261901  	390.000000	0.261532  	390.000000	0.259098  	390.000000	0.261838  	390.000000	6.348e-05 	
400.000000	0.258162  	400.000000	0.258746  	400.000000	0.258398  	400.000000	0.255982  	400.000000	0.258684  	400.000000	6.20166e-05	
410.000000	0.255113  	410.000000	0.255747  	410.000000	0.255418  	410.000000	0.253022  	410.000000	0.255686  	410.000000	6.06216e-05	
420.000000	0.252207  	420.000000	0.252892  	420.000000	0.252597  	420.000000	0.250207  	420.000000	0.252833  	420.000000	5.92903e-05	
430.000000	0.249435  	430.000000	0.250172  	430.000000	0.249914  	430.000000	0.247528  	430.000000	0.250114  	430.000000	5.80183e-05	
440.000000	0.246787  	440.000000	0.247578  	440.000000	0.247351  	440.000000	0.244975  	440.000000	0.247522  	440.000000	5.68017e-05	
450.000000	0.244255  	450.000000	0.245102  	450.000000	0.244898  	450.000000	0.24254   	450.000000	0.245047  	450.000000	5.5637e-05	
460.000000	0.241834  	460.000000	0.242736  	460.000000	0.242555  	460.000000	0.240216  	460.000000	0.242682  	460.000000	5.45208e-05	
470.000000	0.239515  	470.000000	0.240474  	470.000000	0.240318  	470.000000	0.237995  	470.000000	0.24042   	470.000000	5.34501e-05	
480.000000	0.237293  	480.000000	0.238309  	480.000000	0.238187  	480.000000	0.235872  	480.000000	0.238256  	480.000000	5.24222e-05	
490.000000	0.235163  	490.000000	0.236235  	490.000000	0.236154  	490.000000	0.23384   	490.000000	0.236183  	490.000000	5.14345e-05	
500.000000	0.233118  	500.000000	0.234247  	500.000000	0.234205  	500.000000	0.231894  	500.000000	0.234197  	500.000000	5.04848e-05	
520.000000	0.229268  	520.000000	0.23051   	520.000000	0.230527  	520.000000	0.228242  	520.000000	0.230462  	520.000000	4.86903e-05	
540.000000	0.22571   	540.000000	0.227064  	540.000000	0.227149  	540.000000	0.224878  	540.000000	0.227017  	540.000000	4.70234e-05	
560.000000	0.222413  	560.000000	0.223877  	560.000000	0.22404   	560.000000	0.221773  	560.000000	0.223831  	560.000000	4.54708e-05	
580.000000	0.219352  	580.000000	0.220924  	580.000000	0.221146  	580.000000	0.218901  	580.000000	0.22088   	580.000000	4.4021e-05	
600.000000	0.216505  	600.000000	0.218181  	600.000000	0.218458  	600.000000	0.216237  	600.000000	0.218138  	600.000000	4.2664e-05	
620.000000	0.213852  	620.000000	0.21563   	620.000000	0.215968  	620.000000	0.213763  	620.000000	0.215588  	620.000000	4.1391e-05	
640.000000	0.211375  	640.000000	0.213252  	640.000000	0.213662  	640.000000	0.21146   	640.000000	0.213211  	640.000000	4.01944e-05	
660.000000	0.209061  	660.000000	0.211032  	660.000000	0.211509  	660.000000	0.209314  	660.000000	0.210993  	660.000000	3.90674e-05	
680.000000	0.206895  	680.000000	0.208957  	680.000000	0.209487  	680.000000	0.207309  	680.000000	0.208919  	680.000000	3.80041e-05	
700.000000	0.204864  	700.000000	0.207014  	700.000000	0.207599  	700.000000	0.205435  	700.000000	0.206977  	700.000000	3.69991e-05	
720.000000	0.20296   	720.000000	0.205193  	720.000000	0.205841  	720.000000	0.20368   	720.000000	0.205157  	720.000000	3.60478e-05	
740.000000	0.201171  	740.000000	0.203484  	740.000000	0.204192  	740.000000	0.202034  	740.000000	0.203449  	740.000000	3.51458e-05	
760.000000	0.19949   	760.000000	0.201879  	760.000000	0.202637  	760.000000	0.200489  	760.000000	0.201844  	760.000000	3.42894e-05	
780.000000	0.197908  	780.000000	0.200369  	780.000000	0.20117   	780.000000	0.199037  	780.000000	0.200336  	780.000000	3.34753e-05	
800.000000	0.196418  	800.000000	0.198948  	800.000000	0.199789  	800.000000	0.19767   	800.000000	0.198916  	800.000000	3.27002e-05	
820.000000	0.195015  	820.000000	0.19761   	820.000000	0.198494  	820.000000	0.196387  	820.000000	0.197578  	820.000000	3.19614e-05	
840.000000	0.193692  	840.000000	0.196348  	840.000000	0.19729   	840.000000	0.19519   	840.000000	0.196317  	840.000000	3.12564e-05	
860.000000	0.192444  	860.000000	0.195157  	860.000000	0.196158  	860.000000	0.194061  	860.000000	0.195127  	860.000000	3.0583e-05	
880.000000	0.191266  	880.000000	0.194034  	880.000000	0.195091  	880.000000	0.192995  	880.000000	0.194004  	880.000000	2.99389e-05	
900.000000	0.190155  	900.000000	0.192972  	900.000000	0.19408   	900.000000	0.191988  	900.000000	0.192943  	900.000000	2.93224e-05	
920.000000	0.189104  	920.000000	0.191969  	920.000000	0.19312   	920.000000	0.191035  	920.000000	0.19194   	920.000000	2.87316e-05	
940.000000	0.188112  	940.000000	0.191021  	940.000000	0.192209  	940.000000	0.190134  	940.000000	0.190992  	940.000000	2.81649e-05	
960.000000	0.187175  	960.000000	0.190124  	960.000000	0.191346  	960.000000	0.189281  	960.000000	0.190096  	960.000000	2.7621e-05	
980.000000	0.186289  	980.000000	0.189275  	980.000000	0.190528  	980.000000	0.188473  	980.000000	0.189248  	980.000000	2.70984e-05	
1000.000000	0.185452  	1000.000000	0.188471  	1000.000000	0.189754  	1000.000000	0.187707  	1000.000000	0.188445  	1000.000000	2.65959e-05	
1020.000000	0.184661  	1020.000000	0.187711  	1020.000000	0.189022  	1020.000000	0.186981  	1020.000000	0.187685  	1020.000000	2.61123e-05	
1040.000000	0.183913  	1040.000000	0.186991  	1040.000000	0.188329  	1040.000000	0.186291  	1040.000000	0.186965  	1040.000000	2.56466e-05	
1060.000000	0.183207  	1060.000000	0.186309  	1060.000000	0.187674  	1060.000000	0.185637  	1060.000000	0.186284  	1060.000000	2.51978e-05	
1080.000000	0.182539  	1080.000000	0.185663  	1080.000000	0.187051  	1080.000000	0.185016  	1080.000000	0.185639  	1080.000000	2.47649e-05	
1100.000000	0.181909  	1100.000000	0.185052  	1100.000000	0.18646   	1100.000000	0.184426  	1100.000000	0.185027  	1100.000000	2.43472e-05	
1120.000000	0.181314  	1120.000000	0.184473  	1120.000000	0.185896  	1120.000000	0.183865  	1120.000000	0.184449  	1120.000000	2.39439e-05	
1140.000000	0.180752  	1140.000000	0.183924  	1140.000000	0.185359  	1140.000000	0.183332  	1140.000000	0.183901  	1140.000000	2.35541e-05	
1160.000000	0.180222  	1160.000000	0.183405  	1160.000000	0.184847  	1160.000000	0.182826  	1160.000000	0.183382  	1160.000000	2.31773e-05	
1180.000000	0.179722  	1180.000000	0.182913  	1180.000000	0.184358  	1180.000000	0.182344  	1180.000000	0.18289   	1180.000000	2.28128e-05	
1200.000000	0.179252  	1200.000000	0.182448  	1200.000000	0.183894  	1200.000000	0.181886  	1200.000000	0.182425  	1200.000000	2.24599e-05	
1220.000000	0.178809  	1220.000000	0.182008  	1220.000000	0.183451  	1220.000000	0.181449  	1220.000000	0.181986  	1220.000000	2.21182e-05	
1240.000000	0.178392  	1240.000000	0.181591  	1240.000000	0.183031  	1240.000000	0.181034  	1240.000000	0.181569  	1240.000000	2.1787e-05	
1260.000000	0.178001  	1260.000000	0.181198  	1260.000000	0.182631  	1260.000000	0.18064   	1260.000000	0.181176  	1260.000000	2.1466e-05	
1280.000000	0.177633  	1280.000000	0.180826  	1280.000000	0.18225   	1280.000000	0.180264  	1280.000000	0.180805  	1280.000000	2.11546e-05	
1300.000000	0.177289  	1300.000000	0.180475  	1300.000000	0.181889  	1300.000000	0.179906  	1300.000000	0.180454  	1300.000000	2.08524e-05	
1320.000000	0.176967  	1320.000000	0.180143  	1320.000000	0.181546  	1320.000000	0.179565  	1320.000000	0.180123  	1320.000000	2.05591e-05	
1340.000000	0.176666  	1340.000000	0.179831  	1340.000000	0.18122   	1340.000000	0.179241  	1340.000000	0.179811  	1340.000000	2.02741e-05	
1360.000000	0.176385  	1360.000000	0.179537  	1360.000000	0.18091   	1360.000000	0.178932  	1360.000000	0.179517  	1360.000000	1.99973e-05	
1380.000000	0.176124  	1380.000000	0.17926   	1380.000000	0.180616  	1380.000000	0.178639  	1380.000000	0.17924   	1380.000000	1.97281e-05	
1400.000000	0.175882  	1400.000000	0.178999  	1400.000000	0.180335  	1400.000000	0.178359  	1400.000000	0.17898   	1400.000000	1.94663e-05	
1420.000000	0.175658  	1420.000000	0.178755  	1420.000000	0.180068  	1420.000000	0.178093  	1420.000000	0.178736  	1420.000000	1.92117e-05	
1440.000000	0.17545   	1440.000000	0.178526  	1440.000000	0.179813  	1440.000000	0.177839  	1440.000000	0.178507  	1440.000000	1.89638e-05	
1460.000000	0.17526   	1460.000000	0.178311  	1460.000000	0.17957   	1460.000000	0.177598  	1460.000000	0.178292  	1460.000000	1.87225e-05	
1480.000000	0.175086  	1480.000000	0.17811   	1480.000000	0.179338  	1480.000000	0.177369  	1480.000000	0.178092  	1480.000000	1.84874e-05	
1500.000000	0.174927  	1500.000000	0.177923  	1500.000000	0.179117  	1500.000000	0.177151  	1500.000000	0.177905  	1500.000000	1.82584e-05	
1520.000000	0.174783  	1520.000000	0.177749  	1520.000000	0.178907  	1520.000000	0.176944  	1520.000000	0.177731  	1520.000000	1.80352e-05	
1540.000000	0.174653  	1540.000000	0.177588  	1540.000000	0.178707  	1540.000000	0.176747  	1540.000000	0.17757   	1540.000000	1.78175e-05	
1560.000000	0.174537  	1560.000000	0.177438  	1560.000000	0.178516  	1560.000000	0.17656   	1560.000000	0.177421  	1560.000000	1.76052e-05	
1580.000000	0.174435  	1580.000000	0.1773    	1580.000000	0.178335  	1580.000000	0.176382  	1580.000000	0.177283  	1580.000000	1.73981e-05	
1600.000000	0.174345  	1600.000000	0.177173  	1600.000000	0.178163  	1600.000000	0.176213  	1600.000000	0.177156  	1600.000000	1.7196e-05	
1620.000000	0.174268  	1620.000000	0.177057  	1620.000000	0.178     	1620.000000	0.176053  	1620.000000	0.17704   	1620.000000	1.69987e-05	
1640.000000	0.174203  	1640.000000	0.176951  	1640.000000	0.177846  	1640.000000	0.175901  	1640.000000	0.176935  	1640.000000	1.6806e-05	
1660.000000	0.17415   	1660.000000	0.176856  	1660.000000	0.177699  	1660.000000	0.175757  	1660.000000	0.176839  	1660.000000	1.66178e-05	
1680.000000	0.174108  	1680.000000	0.176769  	1680.000000	0.17756   	1680.000000	0.17562   	1680.000000	0.176753  	1680.000000	1.64339e-05	
1700.000000	0.174077  	1700.000000	0.176692  	1700.000000	0.177428  	1700.000000	0.175491  	1700.000000	0.176676  	1700.000000	1.62541e-05	
1750.000000	0.174045  	1750.000000	0.176538  	1750.000000	0.17713   	1750.000000	0.175198  	1750.000000	0.176523  	1750.000000	1.58221e-05	
1800.000000	0.174074  	1800.000000	0.176436  	1800.000000	0.17687   	1800.000000	0.174945  	1800.000000	0.17642   	1800.000000	1.54131e-05	
1850.000000	0.17416   	1850.000000	0.17638   	1850.000000	0.176647  	1850.000000	0.174727  	1850.000000	0.176365  	1850.000000	1.50255e-05	
1900.000000	0.174298  	1900.000000	0.176369  	1900.000000	0.176456  	1900.000000	0.174542  	1900.000000	0.176354  	1900.000000	1.46575e-05	
1950.000000	0.174486  	1950.000000	0.176397  	1950.000000	0.176296  	1950.000000	0.174386  	1950.000000	0.176383  	1950.000000	1.43076e-05	
2000.000000	0.17472   	2000.000000	0.176463  	2000.000000	0.176163  	2000.000000	0.174257  	2000.000000	0.176449  	2000.000000	1.39747e-05	
2100.000000	0.175312  	2100.000000	0.176695  	2100.000000	0.175972  	2100.000000	0.174071  	2100.000000	0.176681  	2100.000000	1.33546e-05	
2200.000000	0.176056  	2200.000000	0.177046  	2200.000000	0.175865  	2200.000000	0.173966  	2200.000000	0.177034  	2200.000000	1.27888e-05	
2300.000000	0.176934  	2300.000000	0.177502  	2300.000000	0.175827  	2300.000000	0.17393   	2300.000000	0.17749   	2300.000000	1.22705e-05	
2400.000000	0.17793   	2400.000000	0.178048  	2400.000000	0.175846  	2400.000000	0.173951  	2400.000000	0.178036  	2400.000000	1.17939e-05	
2500.000000	0.179034  	2500.000000	0.178674  	2500.000000	0.175912  	2500.000000	0.174021  	2500.000000	0.178663  	2500.000000	1.1354e-05	
2600.000000	0.180235  	2600.000000	0.179371  	2600.000000	0.176018  	2600.000000	0.174131  	2600.000000	0.17936   	2600.000000	1.09468e-05	
2700.000000	0.181523  	2700.000000	0.18013   	2700.000000	0.176159  	2700.000000	0.174277  	2700.000000	0.18012   	2700.000000	1.05686e-05	
2800.000000	0.182891  	2800.000000	0.180946  	2800.000000	0.17633   	2800.000000	0.174452  	2800.000000	0.180936  	2800.000000	1.02166e-05	
2900.000000	0.184333  	2900.000000	0.181811  	2900.000000	0.176525  	2900.000000	0.174652  	2900.000000	0.181801  	2900.000000	9.88789e-06	
3000.000000	0.185842  	3000.000000	0.182721  	3000.000000	0.176743  	3000.000000	0.174873  	3000.000000	0.182712  	3000.000000	9.58036e-06	
3200.000000	0.189042  	3200.000000	0.184659  	3200.000000	0.17723   	3200.000000	0.175366  	3200.000000	0.18465   	3200.000000	9.02097e-06	
3400.000000	0.192459  	3400.000000	0.18673   	3400.000000	0.177771  	3400.000000	0.175912  	3400.000000	0.186722  	3400.000000	8.52514e-06	
3600.000000	0.196065  	3600.000000	0.188912  	3600.000000	0.17835   	3600.000000	0.176495  	3600.000000	0.188904  	3600.000000	8.08252e-06	
3800.000000	0.19984   	3800.000000	0.191185  	3800.000000	0.178954  	3800.000000	0.177103  	3800.000000	0.191177  	3800.000000	7.68491e-06	
4000.000000	0.203766  	4000.000000	0.193536  	4000.000000	0.179577  	4000.000000	0.177729  	4000.000000	0.193529  	4000.000000	7.3257e-06	
4200.000000	0.207829  	4200.000000	0.195953  	4200.000000	0.18021   	4200.000000	0.178365  	4200.000000	0.195946  	4200.000000	6.99954e-06	
4400.000000	0.212017  	4400.000000	0.198426  	4400.000000	0.180849  	4400.000000	0.179006  	4400.000000	0.19842   	4400.000000	6.70203e-06	
4600.000000	0.216322  	4600.000000	0.200948  	4600.000000	0.18149   	4600.000000	0.179649  	4600.000000	0.200942  	4600.000000	6.4295e-06	
4800.000000	0.220734  	4800.000000	0.203512  	4800.000000	0.18213   	4800.000000	0.180292  	4800.000000	0.203506  	4800.000000	6.17892e-06	
5000.000000	0.225248  	5000.000000	0.206113  	5000.000000	0.182767  	5000.000000	0.180931  	5000.000000	0.206107  	5000.000000	5.94771e-06	
5250.000000	0.231024  	5250.000000	0.209407  	5250.000000	0.183556  	5250.000000	0.181722  	5250.000000	0.209401  	5250.000000	5.68263e-06	
5500.000000	0.236939  	5500.000000	0.212744  	5500.000000	0.184335  	5500.000000	0.182504  	5500.000000	0.212738  	5500.000000	5.44084e-06	
6000.000000	0.249157  	6000.000000	0.21952   	6000.000000	0.185856  	6000.000000	0.18403   	6000.000000	0.219515  	6000.000000	5.01576e-06	
6500.000000	0.261855  	6500.000000	0.226403  	6500.000000	0.187324  	6500.000000	0.185502  	6500.000000	0.226398  	6500.000000	4.65398e-06	
7000.000000	0.274996  	7000.000000	0.233365  	7000.000000	0.188735  	7000.000000	0.186917  	7000.000000	0.23336   	7000.000000	4.34222e-06	
7500.000000	0.288554  	7500.000000	0.240386  	7500.000000	0.190089  	7500.000000	0.188274  	7500.000000	0.240382  	7500.000000	4.0707e-06	
8000.000000	0.302509  	8000.000000	0.247453  	8000.000000	0.19139   	8000.000000	0.189576  	8000.000000	0.247449  	8000.000000	3.83204e-06	
8500.000000	0.316847  	8500.000000	0.254554  	8500.000000	0.192633  	8500.000000	0.190824  	8500.000000	0.254551  	8500.000000	3.62055e-06	
9000.000000	0.331555  	9000.000000	0.261681  	9000.000000	0.193822  	9000.000000	0.192022  	9000.000000	0.261678  	9000.000000	3.43181e-06	
9500.000000	0.346625  	9500.000000	0.268828  	9500.000000	0.194964  	9500.000000	0.193171  	9500.000000	0.268825  	9500.000000	3.2623e-06	
10000.000000	0.362049  	10000.000000	0.275989  	10000.000000	0.196065  	10000.000000	0.194276  	10000.000000	0.275986  	10000.000000	3.1092e-06	
11000.000000	0.393938  	11000.000000	0.29034   	11000.000000	0.198149  	11000.000000	0.196361  	11000.000000	0.290338  	11000.000000	2.84347e-06	
12000.000000	0.427189  	12000.000000	0.304712  	12000.000000	0.200084  	12000.000000	0.198297  	12000.000000	0.304709  	12000.000000	2.62067e-06	
13000.000000	0.461779  	13000.000000	0.319088  	13000.000000	0.201881  	13000.000000	0.200101  	13000.000000	0.319085  	13000.000000	2.4311e-06	
14000.000000	0.497695  	14000.000000	0.333459  	14000.000000	0.203554  	14000.000000	0.201789  	14000.000000	0.333457  	14000.000000	2.26779e-06	
15000.000000	0.534929  	15000.000000	0.347819  	15000.000000	0.20512   	15000.000000	0.203374  	15000.000000	0.347817  	15000.000000	2.12558e-06	
16000.000000	0.573475  	16000.000000	0.362163  	16000.000000	0.206596  	16000.000000	0.204866  	16000.000000	0.362161  	16000.000000	2.00061e-06	
17000.000000	0.613332  	17000.000000	0.376488  	17000.000000	0.207994  	17000.000000	0.206276  	17000.000000	0.376486  	17000.000000	1.88989e-06	
18000.000000	0.6545    	18000.000000	0.390792  	18000.000000	0.20932   	18000.000000	0.207611  	18000.000000	0.39079   	18000.000000	1.7911e-06	
19000.000000	0.696981  	19000.000000	0.405073  	19000.000000	0.210583  	19000.000000	0.208879  	19000.000000	0.405072  	19000.000000	1.70239e-06	
20000.000000	0.740777  	20000.000000	0.419332  	20000.000000	0.211787  	20000.000000	0.210086  	20000.000000	0.419331  	20000.000000	1.62227e-06	
21000.000000	0.785894  	21000.000000	0.433568  	21000.000000	0.212935  	21000.000000	0.211236  	21000.000000	0.433567  	21000.000000	1.54956e-06	
22000.000000	0.832335  	22000.000000	0.447781  	22000.000000	0.214026  	22000.000000	0.212336  	22000.000000	0.447779  	22000.000000	1.48325e-06	
23000.000000	0.880106  	23000.000000	0.46197   	23000.000000	0.215059  	23000.000000	0.213389  	23000.000000	0.461968  	23000.000000	1.42254e-06	
24000.000000	0.929213  	24000.000000	0.476135  	24000.000000	0.216051  	24000.000000	0.214399  	24000.000000	0.476134  	24000.000000	1.36673e-06	
25000.000000	0.979662  	25000.000000	0.490278  	25000.000000	0.217012  	25000.000000	0.215369  	25000.000000	0.490277  	25000.000000	1.31525e-06	
26000.000000	1.03146   	26000.000000	0.504398  	26000.000000	0.217935  	26000.000000	0.216302  	26000.000000	0.504397  	26000.000000	1.26761e-06	
27000.000000	1.08461   	27000.000000	0.518496  	27000.000000	0.218817  	27000.000000	0.2172    	27000.000000	0.518495  	27000.000000	1.22339e-06	
28000.000000	1.13913   	28000.000000	0.532573  	28000.000000	0.219664  	28000.000000	0.218067  	28000.000000	0.532572  	28000.000000	1.18223e-06	
29000.000000	1.19502   	29000.000000	0.546628  	29000.000000	0.220484  	29000.000000	0.218904  	29000.000000	0.546626  	29000.000000	1.14383e-06	
30000.000000	1.25229   	30000.000000	0.560662  	30000.000000	0.221279  	30000.000000	0.219713  	30000.000000	0.56066   	30000.000000	1.10791e-06	
32000.000000	1.37099   	32000.000000	0.588668  	32000.000000	0.222792  	32000.000000	0.221254  	32000.000000	0.588667  	32000.000000	1.0426e-06	
34000.000000	1.4953    	34000.000000	0.616597  	34000.000000	0.224208  	34000.000000	0.222703  	34000.000000	0.616596  	34000.000000	9.84754e-07	
36000.000000	1.62529   	36000.000000	0.64445   	36000.000000	0.225536  	36000.000000	0.22407   	36000.000000	0.644449  	36000.000000	9.33145e-07	
38000.000000	1.76103   	38000.000000	0.672232  	38000.000000	0.226787  	38000.000000	0.225363  	38000.000000	0.672231  	38000.000000	8.86811e-07	
40000.000000	1.90258   	40000.000000	0.699945  	40000.000000	0.22797   	40000.000000	0.226591  	40000.000000	0.699944  	40000.000000	8.44974e-07	
42000.000000	2.05002   	42000.000000	0.727593  	42000.000000	0.229092  	42000.000000	0.227758  	42000.000000	0.727592  	42000.000000	8.07006e-07	
44000.000000	2.20343   	44000.000000	0.755177  	44000.000000	0.230159  	44000.000000	0.228871  	44000.000000	0.755176  	44000.000000	7.72388e-07	
46000.000000	2.36287   	46000.000000	0.782701  	46000.000000	0.231178  	46000.000000	0.229935  	46000.000000	0.7827    	46000.000000	7.40693e-07	
48000.000000	2.52841   	48000.000000	0.810167  	48000.000000	0.232152  	48000.000000	0.230953  	48000.000000	0.810166  	48000.000000	7.11562e-07	
50000.000000	2.70014   	50000.000000	0.837577  	50000.000000	0.233081  	50000.000000	0.231929  	50000.000000	0.837577  	50000.000000	6.84694e-07	
