0.001000	2.6229    	0.001000	1.66543   	0.001000	1.8177    	0.001000	1.8177    	0.001000	0.502767  	0.001000	1.16266   	
0.002000	2.66371   	0.002000	1.63699   	0.002000	1.83852   	0.002000	1.83852   	0.002000	0.672045  	0.002000	0.964947  	
0.005000	2.90869   	0.005000	1.64377   	0.005000	1.93926   	0.005000	1.93926   	0.005000	0.98792   	0.005000	0.655846  	
0.008000	3.17204   	0.008000	1.71488   	0.008000	2.07644   	0.008000	2.07644   	0.008000	1.20467   	0.008000	0.510209  	
0.010000	3.33675   	0.010000	1.77198   	0.010000	2.17041   	0.010000	2.17041   	0.010000	1.32386   	0.010000	0.448113  	
0.015000	3.93118   	0.015000	1.95111   	0.015000	2.42335   	0.015000	2.42335   	0.015000	1.60245   	0.015000	0.348657  	
0.020000	4.50659   	0.020000	2.34293   	0.020000	2.84393   	0.020000	2.84393   	0.020000	2.05419   	0.020000	0.288745  	
0.025000	5.16475   	0.025000	2.76322   	0.025000	3.2856    	0.025000	3.2856    	0.025000	2.51507   	0.025000	0.248143  	
0.030000	5.76839   	0.030000	3.19228   	0.030000	3.64854   	0.030000	3.64854   	0.030000	2.97485   	0.030000	0.217434  	
0.035000	6.3049    	0.035000	3.62254   	0.035000	4.00541   	0.035000	4.00541   	0.035000	3.42759   	0.035000	0.194941  	
0.040000	6.76604   	0.040000	4.04488   	0.040000	4.35138   	0.040000	4.35138   	0.040000	3.86853   	0.040000	0.176347  	
0.045000	7.14323   	0.045000	4.45584   	0.045000	4.68624   	0.045000	4.68624   	0.045000	4.29397   	0.045000	0.161863  	
0.050000	7.37631   	0.050000	4.82641   	0.050000	5.00801   	0.050000	5.00801   	0.050000	4.67662   	0.050000	0.149792  	
0.055000	7.77116   	0.055000	5.15529   	0.055000	5.31601   	0.055000	5.31601   	0.055000	5.01573   	0.055000	0.139558  	
0.060000	8.12056   	0.060000	5.46565   	0.060000	5.60991   	0.060000	5.60991   	0.060000	5.33489   	0.060000	0.13076   	
0.070000	8.69103   	0.070000	6.0312    	0.070000	6.15531   	0.070000	6.15531   	0.070000	5.91482   	0.070000	0.11638   	
0.080000	9.2952    	0.080000	6.52715   	0.080000	6.64573   	0.080000	6.64573   	0.080000	6.42206   	0.080000	0.105092  	
0.090000	9.79121   	0.090000	6.9606    	0.090000	7.08456   	0.090000	7.08456   	0.090000	6.86463   	0.090000	0.0959703 	
0.100000	10.178    	0.100000	7.33673   	0.100000	7.47614   	0.100000	7.47614   	0.100000	7.2483    	0.100000	0.0884306 	
0.120000	10.44     	0.120000	7.85207   	0.120000	8.136     	0.120000	8.136     	0.120000	7.77541   	0.120000	0.076659  	
0.140000	10.6167   	0.140000	8.25723   	0.140000	8.66027   	0.140000	8.66027   	0.140000	8.18937   	0.140000	0.0678577 	
0.160000	10.776    	0.160000	8.58341   	0.160000	9.07821   	0.160000	9.07821   	0.160000	8.52241   	0.160000	0.0610051 	
0.180000	10.9462   	0.180000	8.85116   	0.180000	9.41268   	0.180000	9.41268   	0.180000	8.79565   	0.180000	0.0555045 	
0.200000	11.2149   	0.200000	9.13245   	0.200000	9.68112   	0.200000	9.68112   	0.200000	9.08147   	0.200000	0.0509827 	
0.250000	11.5147   	0.250000	9.66742   	0.250000	10.1435   	0.250000	10.1435   	0.250000	9.62489   	0.250000	0.0425291 	
0.300000	11.7816   	0.300000	10.009    	0.300000	10.4076   	0.300000	10.4076   	0.300000	9.97233   	0.300000	0.0366276 	
0.350000	12.07     	0.350000	10.2866   	0.350000	10.5513   	0.350000	10.5513   	0.350000	10.2543   	0.350000	0.0322551 	
0.400000	12.3128   	0.400000	10.4971   	0.400000	10.6902   	0.400000	10.6902   	0.400000	10.4682   	0.400000	0.028875  	
0.450000	12.4816   	0.450000	10.6319   	0.450000	10.8492   	0.450000	10.8492   	0.450000	10.6057   	0.450000	0.0261778 	
0.500000	12.5893   	0.500000	10.7124   	0.500000	10.9431   	0.500000	10.9431   	0.500000	10.6884   	0.500000	0.0239715 	
0.600000	12.2943   	0.600000	10.8078   	0.600000	11.0059   	0.600000	11.0059   	0.600000	10.7873   	0.600000	0.0205696 	
0.700000	11.8799   	0.700000	10.8241   	0.700000	10.9682   	0.700000	10.9682   	0.700000	10.806    	0.700000	0.0180611 	
0.800000	11.8312   	0.800000	10.7655   	0.800000	10.8147   	0.800000	10.8147   	0.800000	10.7493   	0.800000	0.0161294 	
0.900000	11.7186   	0.900000	10.6592   	0.900000	10.6394   	0.900000	10.6394   	0.900000	10.6446   	0.900000	0.0145928 	
1.000000	11.5846   	1.000000	10.5405   	1.000000	10.4571   	1.000000	10.4571   	1.000000	10.5272   	1.000000	0.0133392 	
1.250000	11.1232   	1.250000	10.1746   	1.250000	9.99124   	1.250000	9.99124   	1.250000	10.1636   	1.250000	0.01102   	
1.500000	10.5396   	1.500000	9.70157   	1.500000	9.4728    	1.500000	9.4728    	1.500000	9.69215   	1.500000	0.00942063	
1.750000	9.97287   	1.750000	9.24253   	1.750000	9.01759   	1.750000	9.01759   	1.750000	9.23428   	1.750000	0.00824683	
2.000000	9.43389   	2.000000	8.80352   	2.000000	8.60924   	2.000000	8.60924   	2.000000	8.79618   	2.000000	0.00734635	
2.250000	8.95706   	2.250000	8.40265   	2.250000	8.23863   	2.250000	8.23863   	2.250000	8.39601   	2.250000	0.0066323 	
2.500000	8.86159   	2.500000	8.02938   	2.500000	7.89984   	2.500000	7.89984   	2.500000	8.02333   	2.500000	0.00605137	
3.000000	8.03384   	3.000000	7.37114   	3.000000	7.30157   	3.000000	7.30157   	3.000000	7.36598   	3.000000	0.00516148	
3.500000	7.3506    	3.500000	6.82288   	3.500000	6.78957   	3.500000	6.78957   	3.500000	6.81837   	3.500000	0.00451012	
4.000000	6.77846   	4.000000	6.35124   	4.000000	6.3465    	4.000000	6.3465    	4.000000	6.34723   	4.000000	0.00401154	
4.500000	6.29282   	4.500000	5.9473    	4.500000	5.95943   	4.500000	5.95943   	4.500000	5.94368   	4.500000	0.00361693	
5.000000	5.87556   	5.000000	5.59701   	5.000000	5.61844   	5.000000	5.61844   	5.000000	5.59372   	5.000000	0.00329638	
5.500000	5.51317   	5.500000	5.2895    	5.500000	5.31579   	5.500000	5.31579   	5.500000	5.28647   	5.500000	0.00303055	
6.000000	5.19544   	6.000000	5.01687   	6.000000	5.04535   	6.000000	5.04535   	6.000000	5.01406   	6.000000	0.00280632	
6.500000	4.91455   	6.500000	4.77301   	6.500000	4.80224   	6.500000	4.80224   	6.500000	4.7704    	6.500000	0.00261449	
7.000000	4.66439   	7.000000	4.55347   	7.000000	4.58248   	7.000000	4.58248   	7.000000	4.55102   	7.000000	0.00244842	
7.500000	4.44011   	7.500000	4.35478   	7.500000	4.38284   	7.500000	4.38284   	7.500000	4.35247   	7.500000	0.00230315	
8.000000	4.23786   	8.000000	4.17397   	8.000000	4.20067   	8.000000	4.20067   	8.000000	4.1718    	8.000000	0.00217496	
8.500000	4.0545    	8.500000	4.00866   	8.500000	4.03374   	8.500000	4.03374   	8.500000	4.0066    	8.500000	0.00206094	
9.000000	3.88747   	9.000000	3.85687   	9.000000	3.88021   	9.000000	3.88021   	9.000000	3.85491   	9.000000	0.00195885	
9.500000	3.73466   	9.500000	3.71696   	9.500000	3.7385    	9.500000	3.7385    	9.500000	3.71509   	9.500000	0.00186686	
10.000000	3.59429   	10.000000	3.61266   	10.000000	3.6073    	10.000000	3.6073    	10.000000	3.61088   	10.000000	0.00178354	
11.000000	3.34522   	11.000000	3.37947   	11.000000	3.36722   	11.000000	3.37386   	11.000000	3.37783   	11.000000	0.00163832	
12.000000	3.13086   	12.000000	3.17542   	12.000000	3.15821   	12.000000	3.16944   	12.000000	3.17391   	12.000000	0.00151595	
13.000000	2.94436   	13.000000	2.99549   	13.000000	2.97464   	13.000000	2.98901   	13.000000	2.99408   	13.000000	0.00141136	
14.000000	2.78054   	14.000000	2.8357    	14.000000	2.81209   	14.000000	2.82862   	14.000000	2.83438   	14.000000	0.00132088	
15.000000	2.63544   	15.000000	2.69288   	15.000000	2.66711   	15.000000	2.68513   	15.000000	2.69164   	15.000000	0.00124181	
16.000000	2.506     	16.000000	2.5645    	16.000000	2.53711   	16.000000	2.55604   	16.000000	2.56333   	16.000000	0.00117207	
17.000000	2.38976   	17.000000	2.44849   	17.000000	2.41993   	17.000000	2.43931   	17.000000	2.44738   	17.000000	0.00111009	
18.000000	2.28479   	18.000000	2.34315   	18.000000	2.31369   	18.000000	2.33327   	18.000000	2.3421    	18.000000	0.00105462	
19.000000	2.18949   	19.000000	2.24709   	19.000000	2.2169    	19.000000	2.23653   	19.000000	2.24608   	19.000000	0.00100467	
20.000000	2.10257   	20.000000	2.15913   	20.000000	2.12842   	20.000000	2.14795   	20.000000	2.15817   	20.000000	0.000959443	
21.000000	2.02296   	21.000000	2.07829   	21.000000	2.04724   	21.000000	2.06656   	21.000000	2.07737   	21.000000	0.000918292	
22.000000	1.94975   	22.000000	2.00375   	22.000000	1.97254   	22.000000	1.99153   	22.000000	2.00287   	22.000000	0.00088068	
23.000000	1.88219   	23.000000	1.9348    	23.000000	1.9036    	23.000000	1.92216   	23.000000	1.93395   	23.000000	0.000846163	
24.000000	1.81964   	24.000000	1.87082   	24.000000	1.83978   	24.000000	1.85787   	24.000000	1.87001   	24.000000	0.000814369	
25.000000	1.76156   	25.000000	1.81131   	25.000000	1.78056   	25.000000	1.79812   	25.000000	1.81053   	25.000000	0.000784983	
27.000000	1.65699   	27.000000	1.70392   	27.000000	1.67409   	27.000000	1.69052   	27.000000	1.70319   	27.000000	0.000732402	
29.000000	1.56541   	29.000000	1.60967   	29.000000	1.58117   	29.000000	1.59642   	29.000000	1.60898   	29.000000	0.000686703	
31.000000	1.48452   	31.000000	1.52627   	31.000000	1.50019   	31.000000	1.5136    	31.000000	1.52563   	31.000000	0.0006466 	
33.000000	1.41253   	33.000000	1.45196   	33.000000	1.42875   	33.000000	1.44002   	33.000000	1.45135   	33.000000	0.000611112	
35.000000	1.34801   	35.000000	1.38531   	35.000000	1.36455   	35.000000	1.37409   	35.000000	1.38473   	35.000000	0.000579474	
38.000000	1.26285   	38.000000	1.29728   	38.000000	1.27974   	38.000000	1.28708   	38.000000	1.29675   	38.000000	0.000537952	
41.000000	1.18909   	41.000000	1.22103   	41.000000	1.20607   	41.000000	1.21175   	41.000000	1.22053   	41.000000	0.000502208	
44.000000	1.12456   	44.000000	1.15432   	44.000000	1.14155   	44.000000	1.14585   	44.000000	1.15385   	44.000000	0.000471101	
47.000000	1.0676    	47.000000	1.09545   	47.000000	1.08446   	47.000000	1.0877    	47.000000	1.09501   	47.000000	0.000443771	
50.000000	1.01693   	50.000000	1.04312   	50.000000	1.03362   	50.000000	1.03599   	50.000000	1.0427    	50.000000	0.000419561	
55.000000	0.943812  	55.000000	0.967672  	55.000000	0.960093  	55.000000	0.961413  	55.000000	0.967287  	55.000000	0.000384803	
60.000000	0.881971  	60.000000	0.903954  	60.000000	0.898004  	60.000000	0.89838   	60.000000	0.903599  	60.000000	0.000355568	
65.000000	0.828939  	65.000000	0.849405  	65.000000	0.844634  	65.000000	0.844369  	65.000000	0.849074  	65.000000	0.000330621	
70.000000	0.782928  	70.000000	0.802162  	70.000000	0.798248  	70.000000	0.797551  	70.000000	0.801853  	70.000000	0.000309072	
75.000000	0.742605  	75.000000	0.760836  	75.000000	0.757685  	75.000000	0.756559  	75.000000	0.760546  	75.000000	0.000290264	
80.000000	0.706957  	80.000000	0.724373  	80.000000	0.721765  	80.000000	0.720358  	80.000000	0.724099  	80.000000	0.000273698	
85.000000	0.6752    	85.000000	0.691954  	85.000000	0.689781  	85.000000	0.688145  	85.000000	0.691695  	85.000000	0.00025899	
90.000000	0.646717  	90.000000	0.662935  	90.000000	0.66112   	90.000000	0.659288  	90.000000	0.662689  	90.000000	0.000245842	
95.000000	0.621016  	95.000000	0.636804  	95.000000	0.635284  	95.000000	0.633283  	95.000000	0.636569  	95.000000	0.000234014	
100.000000	0.5977    	100.000000	0.613145  	100.000000	0.611871  	100.000000	0.609723  	100.000000	0.612922  	100.000000	0.000223315	
105.000000	0.576445  	105.000000	0.591622  	105.000000	0.590558  	105.000000	0.588275  	105.000000	0.591409  	105.000000	0.000213589	
110.000000	0.556983  	110.000000	0.571955  	110.000000	0.570995  	110.000000	0.568665  	110.000000	0.571751  	110.000000	0.000204706	
115.000000	0.53909   	115.000000	0.553912  	115.000000	0.55308   	115.000000	0.550665  	115.000000	0.553716  	115.000000	0.00019656	
120.000000	0.522581  	120.000000	0.537298  	120.000000	0.53657   	120.000000	0.534083  	120.000000	0.537109  	120.000000	0.000189063	
125.000000	0.507296  	125.000000	0.521949  	125.000000	0.521256  	125.000000	0.518756  	125.000000	0.521767  	125.000000	0.000182138	
130.000000	0.493102  	130.000000	0.507724  	130.000000	0.507072  	130.000000	0.504547  	130.000000	0.507548  	130.000000	0.000175722	
135.000000	0.479882  	135.000000	0.494503  	135.000000	0.49393   	135.000000	0.491336  	135.000000	0.494333  	135.000000	0.000169759	
140.000000	0.467538  	140.000000	0.482184  	140.000000	0.481655  	140.000000	0.479022  	140.000000	0.482019  	140.000000	0.000164204	
145.000000	0.455982  	145.000000	0.470675  	145.000000	0.470154  	145.000000	0.467516  	145.000000	0.470516  	145.000000	0.000159014	
150.000000	0.44514   	150.000000	0.4599    	150.000000	0.45939   	150.000000	0.456741  	150.000000	0.459746  	150.000000	0.000154155	
155.000000	0.429868  	155.000000	0.44979   	155.000000	0.449288  	155.000000	0.446629  	155.000000	0.449641  	155.000000	0.000149595	
160.000000	0.420919  	160.000000	0.440285  	160.000000	0.439787  	160.000000	0.43712   	160.000000	0.44014   	160.000000	0.000145308	
165.000000	0.412479  	165.000000	0.431332  	165.000000	0.430836  	165.000000	0.428163  	165.000000	0.431191  	165.000000	0.000141269	
170.000000	0.404506  	170.000000	0.422884  	170.000000	0.422388  	170.000000	0.419711  	170.000000	0.422747  	170.000000	0.000137457	
175.000000	0.396961  	175.000000	0.4149    	175.000000	0.414403  	175.000000	0.411722  	175.000000	0.414766  	175.000000	0.000133853	
180.000000	0.38981   	180.000000	0.407342  	180.000000	0.406843  	180.000000	0.404159  	180.000000	0.407211  	180.000000	0.00013044	
185.000000	0.383024  	185.000000	0.400177  	185.000000	0.399675  	185.000000	0.396989  	185.000000	0.400049  	185.000000	0.000127204	
190.000000	0.376573  	190.000000	0.393374  	190.000000	0.392869  	190.000000	0.390182  	190.000000	0.39325   	190.000000	0.000124131	
195.000000	0.370434  	195.000000	0.386908  	195.000000	0.386404  	195.000000	0.383712  	195.000000	0.386787  	195.000000	0.000121208	
200.000000	0.364585  	200.000000	0.380753  	200.000000	0.380249  	200.000000	0.377555  	200.000000	0.380635  	200.000000	0.000118425	
210.000000	0.353675  	210.000000	0.369294  	210.000000	0.368742  	210.000000	0.366091  	210.000000	0.369181  	210.000000	0.000113239	
220.000000	0.343703  	220.000000	0.358842  	220.000000	0.35828   	220.000000	0.355639  	220.000000	0.358734  	220.000000	0.000108505	
230.000000	0.334552  	230.000000	0.349272  	230.000000	0.348712  	230.000000	0.346071  	230.000000	0.349168  	230.000000	0.000104165	
240.000000	0.326125  	240.000000	0.340476  	240.000000	0.339923  	240.000000	0.337281  	240.000000	0.340376  	240.000000	0.000100171	
250.000000	0.318337  	250.000000	0.332365  	250.000000	0.331793  	250.000000	0.329179  	250.000000	0.332268  	250.000000	9.64829e-05	
260.000000	0.31112   	260.000000	0.324862  	260.000000	0.324274  	260.000000	0.321688  	260.000000	0.324768  	260.000000	9.30666e-05	
270.000000	0.304411  	270.000000	0.317901  	270.000000	0.317333  	270.000000	0.314743  	270.000000	0.317812  	270.000000	8.98926e-05	
280.000000	0.29816   	280.000000	0.311428  	280.000000	0.310873  	280.000000	0.308288  	280.000000	0.311341  	280.000000	8.69358e-05	
290.000000	0.292321  	290.000000	0.305392  	290.000000	0.304824  	290.000000	0.302273  	290.000000	0.305308  	290.000000	8.41743e-05	
300.000000	0.286855  	300.000000	0.299752  	300.000000	0.299194  	300.000000	0.296656  	300.000000	0.299671  	300.000000	8.15891e-05	
310.000000	0.281727  	310.000000	0.294471  	310.000000	0.293932  	310.000000	0.2914    	310.000000	0.294391  	310.000000	7.91638e-05	
320.000000	0.276908  	320.000000	0.289515  	320.000000	0.288974  	320.000000	0.286473  	320.000000	0.289438  	320.000000	7.68836e-05	
330.000000	0.272369  	330.000000	0.284856  	330.000000	0.28433   	330.000000	0.281844  	330.000000	0.284782  	330.000000	7.47359e-05	
340.000000	0.268089  	340.000000	0.28047   	340.000000	0.279976  	340.000000	0.277488  	340.000000	0.280397  	340.000000	7.27092e-05	
350.000000	0.264045  	350.000000	0.276332  	350.000000	0.27587   	350.000000	0.273384  	350.000000	0.276261  	350.000000	7.07936e-05	
360.000000	0.26022   	360.000000	0.272424  	360.000000	0.271979  	360.000000	0.26951   	360.000000	0.272355  	360.000000	6.89799e-05	
370.000000	0.256595  	370.000000	0.268726  	370.000000	0.268293  	370.000000	0.265848  	370.000000	0.268659  	370.000000	6.72601e-05	
380.000000	0.253157  	380.000000	0.265224  	380.000000	0.264819  	380.000000	0.262383  	380.000000	0.265158  	380.000000	6.56272e-05	
390.000000	0.249891  	390.000000	0.261902  	390.000000	0.261533  	390.000000	0.259098  	390.000000	0.261838  	390.000000	6.40745e-05	
400.000000	0.246785  	400.000000	0.258747  	400.000000	0.2584    	400.000000	0.255982  	400.000000	0.258684  	400.000000	6.25962e-05	
410.000000	0.243828  	410.000000	0.255748  	410.000000	0.255419  	410.000000	0.253022  	410.000000	0.255686  	410.000000	6.11871e-05	
420.000000	0.241009  	420.000000	0.252893  	420.000000	0.252592  	420.000000	0.250208  	420.000000	0.252833  	420.000000	5.98423e-05	
430.000000	0.238321  	430.000000	0.250173  	430.000000	0.249906  	430.000000	0.247528  	430.000000	0.250114  	430.000000	5.85574e-05	
440.000000	0.235753  	440.000000	0.247579  	440.000000	0.247345  	440.000000	0.244975  	440.000000	0.247522  	440.000000	5.73286e-05	
450.000000	0.233299  	450.000000	0.245103  	450.000000	0.244898  	450.000000	0.24254   	450.000000	0.245047  	450.000000	5.61522e-05	
460.000000	0.230952  	460.000000	0.242737  	460.000000	0.242557  	460.000000	0.240216  	460.000000	0.242682  	460.000000	5.50248e-05	
470.000000	0.228705  	470.000000	0.240474  	470.000000	0.24032   	470.000000	0.237996  	470.000000	0.24042   	470.000000	5.39434e-05	
480.000000	0.226552  	480.000000	0.238309  	480.000000	0.238187  	480.000000	0.235872  	480.000000	0.238256  	480.000000	5.29052e-05	
490.000000	0.224487  	490.000000	0.236235  	490.000000	0.236154  	490.000000	0.23384   	490.000000	0.236183  	490.000000	5.19077e-05	
500.000000	0.222506  	500.000000	0.234247  	500.000000	0.234205  	500.000000	0.231895  	500.000000	0.234197  	500.000000	5.09484e-05	
520.000000	0.218776  	520.000000	0.230511  	520.000000	0.230527  	520.000000	0.228242  	520.000000	0.230462  	520.000000	4.91361e-05	
540.000000	0.215329  	540.000000	0.227064  	540.000000	0.22715   	540.000000	0.224879  	540.000000	0.227017  	540.000000	4.74527e-05	
560.000000	0.212136  	560.000000	0.223877  	560.000000	0.22404   	560.000000	0.221774  	560.000000	0.223831  	560.000000	4.58848e-05	
580.000000	0.209172  	580.000000	0.220924  	580.000000	0.221147  	580.000000	0.218901  	580.000000	0.22088   	580.000000	4.44207e-05	
600.000000	0.206415  	600.000000	0.218182  	600.000000	0.218459  	600.000000	0.216238  	600.000000	0.218138  	600.000000	4.30504e-05	
620.000000	0.203846  	620.000000	0.21563   	620.000000	0.215968  	620.000000	0.213764  	620.000000	0.215588  	620.000000	4.17649e-05	
640.000000	0.201449  	640.000000	0.213252  	640.000000	0.213662  	640.000000	0.211461  	640.000000	0.213211  	640.000000	4.05566e-05	
660.000000	0.199208  	660.000000	0.211032  	660.000000	0.211509  	660.000000	0.209314  	660.000000	0.210993  	660.000000	3.94187e-05	
680.000000	0.197111  	680.000000	0.208957  	680.000000	0.209487  	680.000000	0.20731   	680.000000	0.208919  	680.000000	3.8345e-05	
700.000000	0.195145  	700.000000	0.207014  	700.000000	0.2076    	700.000000	0.205435  	700.000000	0.206977  	700.000000	3.73303e-05	
720.000000	0.193301  	720.000000	0.205193  	720.000000	0.205841  	720.000000	0.20368   	720.000000	0.205157  	720.000000	3.63698e-05	
740.000000	0.19157   	740.000000	0.203484  	740.000000	0.204192  	740.000000	0.202034  	740.000000	0.203449  	740.000000	3.54591e-05	
760.000000	0.189942  	760.000000	0.201879  	760.000000	0.202637  	760.000000	0.200489  	760.000000	0.201844  	760.000000	3.45945e-05	
780.000000	0.18841   	780.000000	0.200369  	780.000000	0.20117   	780.000000	0.199037  	780.000000	0.200336  	780.000000	3.37725e-05	
800.000000	0.186968  	800.000000	0.198949  	800.000000	0.19979   	800.000000	0.197671  	800.000000	0.198916  	800.000000	3.299e-05 	
820.000000	0.185609  	820.000000	0.19761   	820.000000	0.198494  	820.000000	0.196387  	820.000000	0.197578  	820.000000	3.22441e-05	
840.000000	0.184327  	840.000000	0.196348  	840.000000	0.19729   	840.000000	0.19519   	840.000000	0.196317  	840.000000	3.15324e-05	
860.000000	0.183118  	860.000000	0.195158  	860.000000	0.196159  	860.000000	0.194061  	860.000000	0.195127  	860.000000	3.08525e-05	
880.000000	0.181977  	880.000000	0.194034  	880.000000	0.195091  	880.000000	0.192995  	880.000000	0.194004  	880.000000	3.02024e-05	
900.000000	0.1809    	900.000000	0.192972  	900.000000	0.19408   	900.000000	0.191988  	900.000000	0.192943  	900.000000	2.95799e-05	
920.000000	0.179882  	920.000000	0.191969  	920.000000	0.19312   	920.000000	0.191036  	920.000000	0.19194   	920.000000	2.89836e-05	
940.000000	0.17892   	940.000000	0.191021  	940.000000	0.19221   	940.000000	0.190135  	940.000000	0.190992  	940.000000	2.84116e-05	
960.000000	0.178011  	960.000000	0.190124  	960.000000	0.191346  	960.000000	0.189281  	960.000000	0.190096  	960.000000	2.78625e-05	
980.000000	0.177152  	980.000000	0.189275  	980.000000	0.190529  	980.000000	0.188473  	980.000000	0.189248  	980.000000	2.73349e-05	
1000.000000	0.176339  	1000.000000	0.188472  	1000.000000	0.189755  	1000.000000	0.187707  	1000.000000	0.188445  	1000.000000	2.68277e-05	
1020.000000	0.175571  	1020.000000	0.187711  	1020.000000	0.189022  	1020.000000	0.186981  	1020.000000	0.187685  	1020.000000	2.63396e-05	
1040.000000	0.174845  	1040.000000	0.186991  	1040.000000	0.188329  	1040.000000	0.186292  	1040.000000	0.186965  	1040.000000	2.58695e-05	
1060.000000	0.174159  	1060.000000	0.186309  	1060.000000	0.187674  	1060.000000	0.185637  	1060.000000	0.186284  	1060.000000	2.54165e-05	
1080.000000	0.17351   	1080.000000	0.185664  	1080.000000	0.187052  	1080.000000	0.185016  	1080.000000	0.185639  	1080.000000	2.49796e-05	
1100.000000	0.172897  	1100.000000	0.185052  	1100.000000	0.18646   	1100.000000	0.184426  	1100.000000	0.185027  	1100.000000	2.4558e-05	
1120.000000	0.172318  	1120.000000	0.184473  	1120.000000	0.185897  	1120.000000	0.183866  	1120.000000	0.184449  	1120.000000	2.41509e-05	
1140.000000	0.171771  	1140.000000	0.183924  	1140.000000	0.185359  	1140.000000	0.183333  	1140.000000	0.183901  	1140.000000	2.37575e-05	
1160.000000	0.171255  	1160.000000	0.183405  	1160.000000	0.184847  	1160.000000	0.182826  	1160.000000	0.183382  	1160.000000	2.33772e-05	
1180.000000	0.170768  	1180.000000	0.182913  	1180.000000	0.184358  	1180.000000	0.182344  	1180.000000	0.18289   	1180.000000	2.30092e-05	
1200.000000	0.170309  	1200.000000	0.182448  	1200.000000	0.183894  	1200.000000	0.181886  	1200.000000	0.182425  	1200.000000	2.26531e-05	
1220.000000	0.169876  	1220.000000	0.182008  	1220.000000	0.183452  	1220.000000	0.18145   	1220.000000	0.181986  	1220.000000	2.23082e-05	
1240.000000	0.169469  	1240.000000	0.181591  	1240.000000	0.183031  	1240.000000	0.181035  	1240.000000	0.181569  	1240.000000	2.1974e-05	
1260.000000	0.169086  	1260.000000	0.181198  	1260.000000	0.182632  	1260.000000	0.18064   	1260.000000	0.181176  	1260.000000	2.165e-05 	
1280.000000	0.168726  	1280.000000	0.180826  	1280.000000	0.182251  	1280.000000	0.180264  	1280.000000	0.180805  	1280.000000	2.13357e-05	
1300.000000	0.168389  	1300.000000	0.180475  	1300.000000	0.18189   	1300.000000	0.179906  	1300.000000	0.180454  	1300.000000	2.10308e-05	
1320.000000	0.168072  	1320.000000	0.180143  	1320.000000	0.181546  	1320.000000	0.179565  	1320.000000	0.180123  	1320.000000	2.07347e-05	
1340.000000	0.167776  	1340.000000	0.179831  	1340.000000	0.181219  	1340.000000	0.179241  	1340.000000	0.179811  	1340.000000	2.04471e-05	
1360.000000	0.1675    	1360.000000	0.179537  	1360.000000	0.180908  	1360.000000	0.178933  	1360.000000	0.179517  	1360.000000	2.01677e-05	
1380.000000	0.167242  	1380.000000	0.17926   	1380.000000	0.180612  	1380.000000	0.178639  	1380.000000	0.17924   	1380.000000	1.98961e-05	
1400.000000	0.167003  	1400.000000	0.178999  	1400.000000	0.180331  	1400.000000	0.178359  	1400.000000	0.17898   	1400.000000	1.96319e-05	
1420.000000	0.16678   	1420.000000	0.178755  	1420.000000	0.180063  	1420.000000	0.178093  	1420.000000	0.178736  	1420.000000	1.93749e-05	
1440.000000	0.166575  	1440.000000	0.178526  	1440.000000	0.179808  	1440.000000	0.17784   	1440.000000	0.178507  	1440.000000	1.91248e-05	
1460.000000	0.166385  	1460.000000	0.178311  	1460.000000	0.179565  	1460.000000	0.177599  	1460.000000	0.178292  	1460.000000	1.88813e-05	
1480.000000	0.166211  	1480.000000	0.178111  	1480.000000	0.179333  	1480.000000	0.177369  	1480.000000	0.178092  	1480.000000	1.86441e-05	
1500.000000	0.166051  	1500.000000	0.177924  	1500.000000	0.179113  	1500.000000	0.177151  	1500.000000	0.177905  	1500.000000	1.84129e-05	
1520.000000	0.165906  	1520.000000	0.17775   	1520.000000	0.178904  	1520.000000	0.176944  	1520.000000	0.177731  	1520.000000	1.81877e-05	
1540.000000	0.165774  	1540.000000	0.177588  	1540.000000	0.178704  	1540.000000	0.176747  	1540.000000	0.17757   	1540.000000	1.79681e-05	
1560.000000	0.165656  	1560.000000	0.177438  	1560.000000	0.178515  	1560.000000	0.17656   	1560.000000	0.177421  	1560.000000	1.77538e-05	
1580.000000	0.165551  	1580.000000	0.1773    	1580.000000	0.178335  	1580.000000	0.176382  	1580.000000	0.177283  	1580.000000	1.75449e-05	
1600.000000	0.165458  	1600.000000	0.177174  	1600.000000	0.178163  	1600.000000	0.176213  	1600.000000	0.177156  	1600.000000	1.73409e-05	
1620.000000	0.165377  	1620.000000	0.177057  	1620.000000	0.178001  	1620.000000	0.176053  	1620.000000	0.17704   	1620.000000	1.71418e-05	
1640.000000	0.165308  	1640.000000	0.176952  	1640.000000	0.177846  	1640.000000	0.175901  	1640.000000	0.176935  	1640.000000	1.69474e-05	
1660.000000	0.16525   	1660.000000	0.176856  	1660.000000	0.1777    	1660.000000	0.175757  	1660.000000	0.176839  	1660.000000	1.67574e-05	
1680.000000	0.165202  	1680.000000	0.176769  	1680.000000	0.177561  	1680.000000	0.17562   	1680.000000	0.176753  	1680.000000	1.65719e-05	
1700.000000	0.165165  	1700.000000	0.176692  	1700.000000	0.177429  	1700.000000	0.175491  	1700.000000	0.176676  	1700.000000	1.63905e-05	
1750.000000	0.165117  	1750.000000	0.176539  	1750.000000	0.17713   	1750.000000	0.175198  	1750.000000	0.176523  	1750.000000	1.59545e-05	
1800.000000	0.165126  	1800.000000	0.176436  	1800.000000	0.176871  	1800.000000	0.174945  	1800.000000	0.17642   	1800.000000	1.55419e-05	
1850.000000	0.165191  	1850.000000	0.176381  	1850.000000	0.176647  	1850.000000	0.174727  	1850.000000	0.176365  	1850.000000	1.51508e-05	
1900.000000	0.165305  	1900.000000	0.176369  	1900.000000	0.176457  	1900.000000	0.174542  	1900.000000	0.176354  	1900.000000	1.47795e-05	
1950.000000	0.165467  	1950.000000	0.176397  	1950.000000	0.176296  	1950.000000	0.174386  	1950.000000	0.176383  	1950.000000	1.44265e-05	
2000.000000	0.165672  	2000.000000	0.176463  	2000.000000	0.176164  	2000.000000	0.174257  	2000.000000	0.176449  	2000.000000	1.40906e-05	
2100.000000	0.166202  	2100.000000	0.176695  	2100.000000	0.175971  	2100.000000	0.174071  	2100.000000	0.176681  	2100.000000	1.3465e-05	
2200.000000	0.166877  	2200.000000	0.177046  	2200.000000	0.175862  	2200.000000	0.173966  	2200.000000	0.177034  	2200.000000	1.28942e-05	
2300.000000	0.167679  	2300.000000	0.177502  	2300.000000	0.175823  	2300.000000	0.17393   	2300.000000	0.17749   	2300.000000	1.23713e-05	
2400.000000	0.168594  	2400.000000	0.178048  	2400.000000	0.175841  	2400.000000	0.173951  	2400.000000	0.178036  	2400.000000	1.18905e-05	
2500.000000	0.16961   	2500.000000	0.178674  	2500.000000	0.175908  	2500.000000	0.174021  	2500.000000	0.178663  	2500.000000	1.14468e-05	
2600.000000	0.170719  	2600.000000	0.179371  	2600.000000	0.176015  	2600.000000	0.174131  	2600.000000	0.17936   	2600.000000	1.10359e-05	
2700.000000	0.17191   	2700.000000	0.180131  	2700.000000	0.176157  	2700.000000	0.174277  	2700.000000	0.18012   	2700.000000	1.06545e-05	
2800.000000	0.173177  	2800.000000	0.180946  	2800.000000	0.176329  	2800.000000	0.174452  	2800.000000	0.180936  	2800.000000	1.02993e-05	
2900.000000	0.174513  	2900.000000	0.181811  	2900.000000	0.176526  	2900.000000	0.174652  	2900.000000	0.181801  	2900.000000	9.96783e-06	
3000.000000	0.175913  	3000.000000	0.182721  	3000.000000	0.176744  	3000.000000	0.174873  	3000.000000	0.182712  	3000.000000	9.65763e-06	
3200.000000	0.178884  	3200.000000	0.184659  	3200.000000	0.177232  	3200.000000	0.175367  	3200.000000	0.18465   	3200.000000	9.09341e-06	
3400.000000	0.182058  	3400.000000	0.18673   	3400.000000	0.177772  	3400.000000	0.175912  	3400.000000	0.186722  	3400.000000	8.59332e-06	
3600.000000	0.185409  	3600.000000	0.188912  	3600.000000	0.17835   	3600.000000	0.176495  	3600.000000	0.188904  	3600.000000	8.14692e-06	
3800.000000	0.188917  	3800.000000	0.191185  	3800.000000	0.178954  	3800.000000	0.177103  	3800.000000	0.191177  	3800.000000	7.74592e-06	
4000.000000	0.192565  	4000.000000	0.193536  	4000.000000	0.179576  	4000.000000	0.177729  	4000.000000	0.193529  	4000.000000	7.38366e-06	
4200.000000	0.19634   	4200.000000	0.195953  	4200.000000	0.180208  	4200.000000	0.178365  	4200.000000	0.195946  	4200.000000	7.05474e-06	
4400.000000	0.200231  	4400.000000	0.198427  	4400.000000	0.180847  	4400.000000	0.179006  	4400.000000	0.19842   	4400.000000	6.75472e-06	
4600.000000	0.204228  	4600.000000	0.200948  	4600.000000	0.181487  	4600.000000	0.179649  	4600.000000	0.200942  	4600.000000	6.4799e-06	
4800.000000	0.208325  	4800.000000	0.203512  	4800.000000	0.182127  	4800.000000	0.180292  	4800.000000	0.203506  	4800.000000	6.22722e-06	
5000.000000	0.212513  	5000.000000	0.206113  	5000.000000	0.182763  	5000.000000	0.180931  	5000.000000	0.206107  	5000.000000	5.99407e-06	
5250.000000	0.217871  	5250.000000	0.209407  	5250.000000	0.183551  	5250.000000	0.181722  	5250.000000	0.209401  	5250.000000	5.72679e-06	
5500.000000	0.223354  	5500.000000	0.212744  	5500.000000	0.18433   	5500.000000	0.182504  	5500.000000	0.212738  	5500.000000	5.48299e-06	
6000.000000	0.234673  	6000.000000	0.21952   	6000.000000	0.185851  	6000.000000	0.18403   	6000.000000	0.219515  	6000.000000	5.0544e-06	
6500.000000	0.246421  	6500.000000	0.226403  	6500.000000	0.187319  	6500.000000	0.185502  	6500.000000	0.226398  	6500.000000	4.68964e-06	
7000.000000	0.258565  	7000.000000	0.233365  	7000.000000	0.18873   	7000.000000	0.186917  	7000.000000	0.23336   	7000.000000	4.37534e-06	
7500.000000	0.27108   	7500.000000	0.240386  	7500.000000	0.190084  	7500.000000	0.188274  	7500.000000	0.240382  	7500.000000	4.10161e-06	
8000.000000	0.283946  	8000.000000	0.247453  	8000.000000	0.191384  	8000.000000	0.189576  	8000.000000	0.247449  	8000.000000	3.86101e-06	
8500.000000	0.29715   	8500.000000	0.254554  	8500.000000	0.192629  	8500.000000	0.190824  	8500.000000	0.254551  	8500.000000	3.64782e-06	
9000.000000	0.310679  	9000.000000	0.261681  	9000.000000	0.19382   	9000.000000	0.192022  	9000.000000	0.261678  	9000.000000	3.45757e-06	
9500.000000	0.324525  	9500.000000	0.268828  	9500.000000	0.194964  	9500.000000	0.193171  	9500.000000	0.268825  	9500.000000	3.2867e-06	
10000.000000	0.33868   	10000.000000	0.275989  	10000.000000	0.196066  	10000.000000	0.194276  	10000.000000	0.275986  	10000.000000	3.13238e-06	
11000.000000	0.367897  	11000.000000	0.290341  	11000.000000	0.198145  	11000.000000	0.196361  	11000.000000	0.290338  	11000.000000	2.86454e-06	
12000.000000	0.398296  	12000.000000	0.304712  	12000.000000	0.200073  	12000.000000	0.198297  	12000.000000	0.304709  	12000.000000	2.63999e-06	
13000.000000	0.429854  	13000.000000	0.319088  	13000.000000	0.201868  	13000.000000	0.200101  	13000.000000	0.319085  	13000.000000	2.44893e-06	
14000.000000	0.462557  	14000.000000	0.333459  	14000.000000	0.203546  	14000.000000	0.201789  	14000.000000	0.333457  	14000.000000	2.28435e-06	
15000.000000	0.496393  	15000.000000	0.347819  	15000.000000	0.20512   	15000.000000	0.203374  	15000.000000	0.347817  	15000.000000	2.14104e-06	
16000.000000	0.531356  	16000.000000	0.362163  	16000.000000	0.206601  	16000.000000	0.204866  	16000.000000	0.362161  	16000.000000	2.0151e-06	
17000.000000	0.567442  	17000.000000	0.376488  	17000.000000	0.207998  	17000.000000	0.206276  	17000.000000	0.376486  	17000.000000	1.90353e-06	
18000.000000	0.604651  	18000.000000	0.390792  	18000.000000	0.209321  	18000.000000	0.207611  	18000.000000	0.39079   	18000.000000	1.80398e-06	
19000.000000	0.64298   	19000.000000	0.405073  	19000.000000	0.210577  	19000.000000	0.208879  	19000.000000	0.405072  	19000.000000	1.71459e-06	
20000.000000	0.68243   	20000.000000	0.419333  	20000.000000	0.211772  	20000.000000	0.210086  	20000.000000	0.419331  	20000.000000	1.63387e-06	
21000.000000	0.723004  	21000.000000	0.433568  	21000.000000	0.212912  	21000.000000	0.211236  	21000.000000	0.433567  	21000.000000	1.5606e-06	
22000.000000	0.764704  	22000.000000	0.447781  	22000.000000	0.214001  	22000.000000	0.212336  	22000.000000	0.447779  	22000.000000	1.49379e-06	
23000.000000	0.807532  	23000.000000	0.46197   	23000.000000	0.215036  	23000.000000	0.213389  	23000.000000	0.461968  	23000.000000	1.43262e-06	
24000.000000	0.851492  	24000.000000	0.476135  	24000.000000	0.216027  	24000.000000	0.214399  	24000.000000	0.476134  	24000.000000	1.37639e-06	
25000.000000	0.896588  	25000.000000	0.490278  	25000.000000	0.216983  	25000.000000	0.215369  	25000.000000	0.490277  	25000.000000	1.32452e-06	
26000.000000	0.942823  	26000.000000	0.504398  	26000.000000	0.217902  	26000.000000	0.216302  	26000.000000	0.504397  	26000.000000	1.27652e-06	
27000.000000	0.990203  	27000.000000	0.518496  	27000.000000	0.218784  	27000.000000	0.2172    	27000.000000	0.518495  	27000.000000	1.23197e-06	
28000.000000	1.03873   	28000.000000	0.532573  	28000.000000	0.219632  	28000.000000	0.218067  	28000.000000	0.532572  	28000.000000	1.19051e-06	
29000.000000	1.08842   	29000.000000	0.546628  	29000.000000	0.22045   	29000.000000	0.218904  	29000.000000	0.546626  	29000.000000	1.15182e-06	
30000.000000	1.13926   	30000.000000	0.560662  	30000.000000	0.22124   	30000.000000	0.219713  	30000.000000	0.56066   	30000.000000	1.11564e-06	
32000.000000	1.24444   	32000.000000	0.588668  	32000.000000	0.222745  	32000.000000	0.221254  	32000.000000	0.588667  	32000.000000	1.04985e-06	
34000.000000	1.35433   	34000.000000	0.616597  	34000.000000	0.224158  	34000.000000	0.222703  	34000.000000	0.616596  	34000.000000	9.91572e-07	
36000.000000	1.46896   	36000.000000	0.64445   	36000.000000	0.225483  	36000.000000	0.22407   	36000.000000	0.644449  	36000.000000	9.39585e-07	
38000.000000	1.58839   	38000.000000	0.672232  	38000.000000	0.226728  	38000.000000	0.225363  	38000.000000	0.672231  	38000.000000	8.92911e-07	
40000.000000	1.71266   	40000.000000	0.699945  	40000.000000	0.227903  	40000.000000	0.226591  	40000.000000	0.699944  	40000.000000	8.5077e-07	
42000.000000	1.84183   	42000.000000	0.727593  	42000.000000	0.229018  	42000.000000	0.227758  	42000.000000	0.727592  	42000.000000	8.12525e-07	
44000.000000	1.97595   	44000.000000	0.755177  	44000.000000	0.230079  	44000.000000	0.228871  	44000.000000	0.755176  	44000.000000	7.77657e-07	
46000.000000	2.11505   	46000.000000	0.782701  	46000.000000	0.231093  	46000.000000	0.229935  	46000.000000	0.7827    	46000.000000	7.45733e-07	
48000.000000	2.25921   	48000.000000	0.810167  	48000.000000	0.232063  	48000.000000	0.230953  	48000.000000	0.810166  	48000.000000	7.16392e-07	
50000.000000	2.40847   	50000.000000	0.837577  	50000.000000	0.232988  	50000.000000	0.231929  	50000.000000	0.837577  	50000.000000	6.8933e-07	
