Energy (MeV/u)1	0 - [He-base] F.Hubert et al, AD&ND Tables 46(1990)1	Energy (MeV/u)2	1 - [H -base] J.F.Ziegler et al, Pergamon Press, NY (low energy)	Energy (MeV/u)3	2 - ATIMA 1.2  LS-theory (recommended for high energy)	Energy (MeV/u)4	3 - ATIMA 1.2  without LS-correction	Energy (MeV/u)5	4 - electrical component of [1] - J.F.Ziegler et al	Energy (MeV/u)6	5 - nuclear component of [1] - J.F.Ziegler et al	
0.001000	11.0136   	0.001000	16.3438   	0.001000	12.7828   	0.001000	12.7828   	0.001000	5.77609   	0.001000	10.5677   	
0.002000	11.3192   	0.002000	17.163    	0.002000	12.8048   	0.002000	12.8048   	0.002000	7.49066   	0.002000	9.6723    	
0.005000	11.3259   	0.005000	17.9901   	0.005000	12.3808   	0.005000	12.3808   	0.005000	10.562    	0.005000	7.42803   	
0.008000	11.4159   	0.008000	18.6915   	0.008000	12.3585   	0.008000	12.3585   	0.008000	12.5977   	0.008000	6.09375   	
0.010000	11.535    	0.010000	19.1709   	0.010000	12.4778   	0.010000	12.4778   	0.010000	13.6973   	0.010000	5.47362   	
0.015000	11.9324   	0.015000	20.3628   	0.015000	12.9945   	0.015000	12.9945   	0.015000	15.9466   	0.015000	4.41623   	
0.020000	12.3851   	0.020000	21.5035   	0.020000	13.6457   	0.020000	13.6457   	0.020000	17.7632   	0.020000	3.74036   	
0.025000	12.8477   	0.025000	22.5787   	0.025000	14.3397   	0.025000	14.3397   	0.025000	19.3135   	0.025000	3.26519   	
0.030000	13.3035   	0.030000	23.5902   	0.030000	15.0415   	0.030000	15.0415   	0.030000	20.6802   	0.030000	2.91001   	
0.035000	13.7465   	0.035000	24.5438   	0.035000	15.7364   	0.035000	15.7364   	0.035000	21.9109   	0.035000	2.63291   	
0.040000	14.1744   	0.040000	25.4457   	0.040000	16.418    	0.040000	16.418    	0.040000	23.036    	0.040000	2.40977   	
0.045000	14.5871   	0.045000	26.3019   	0.045000	17.0836   	0.045000	17.0836   	0.045000	24.0762   	0.045000	2.22566   	
0.050000	15.0309   	0.050000	27.4914   	0.050000	18.0691   	0.050000	18.0691   	0.050000	25.4206   	0.050000	2.07078   	
0.055000	15.8665   	0.055000	29.5415   	0.055000	19.882    	0.055000	19.882    	0.055000	27.6031   	0.055000	1.93842   	
0.060000	16.6414   	0.060000	31.5345   	0.060000	21.7105   	0.060000	21.7105   	0.060000	29.7106   	0.060000	1.82381   	
0.070000	17.9908   	0.070000	35.2808   	0.070000	25.3407   	0.070000	25.3407   	0.070000	33.661    	0.070000	1.61974   	
0.080000	19.4807   	0.080000	38.6839   	0.080000	28.898    	0.080000	28.898    	0.080000	37.2124   	0.080000	1.47156   	
0.090000	20.8049   	0.090000	41.6885   	0.090000	32.3037   	0.090000	32.3037   	0.090000	40.3379   	0.090000	1.35062   	
0.100000	21.9939   	0.100000	44.289    	0.100000	35.5197   	0.100000	35.5197   	0.100000	43.0391   	0.100000	1.24982   	
0.120000	23.5378   	0.120000	48.3668   	0.120000	41.3128   	0.120000	41.3128   	0.120000	47.2759   	0.120000	1.09094   	
0.140000	24.8416   	0.140000	51.2097   	0.140000	46.2408   	0.140000	46.2408   	0.140000	50.2388   	0.140000	0.9709    	
0.160000	26.0808   	0.160000	53.1678   	0.160000	50.3692   	0.160000	50.3692   	0.160000	52.2911   	0.160000	0.876681  	
0.180000	27.9004   	0.180000	55.7855   	0.180000	53.8039   	0.180000	53.8039   	0.180000	54.985    	0.180000	0.800555  	
0.200000	29.6651   	0.200000	57.849    	0.200000	56.6581   	0.200000	56.6581   	0.200000	57.1114   	0.200000	0.737633  	
0.250000	32.8909   	0.250000	61.5739   	0.250000	61.9064   	0.250000	61.9064   	0.250000	60.9547   	0.250000	0.619137  	
0.300000	35.8034   	0.300000	64.3417   	0.300000	65.3835   	0.300000	65.3835   	0.300000	63.806    	0.300000	0.535714  	
0.350000	38.4189   	0.350000	66.7088   	0.350000	67.8317   	0.350000	67.8317   	0.350000	66.2353   	0.350000	0.473508  	
0.400000	41.269    	0.400000	69.7038   	0.400000	69.6657   	0.400000	69.6657   	0.400000	69.2786   	0.400000	0.425177  	
0.450000	43.9327   	0.450000	72.6219   	0.450000	71.1149   	0.450000	71.1149   	0.450000	72.2355   	0.450000	0.386448  	
0.500000	46.2591   	0.500000	75.1641   	0.500000	72.3078   	0.500000	72.3078   	0.500000	74.8094   	0.500000	0.354657  	
0.600000	48.3959   	0.600000	79.3026   	0.600000	74.5183   	0.600000	74.5183   	0.600000	78.9971   	0.600000	0.305431  	
0.700000	49.4199   	0.700000	82.4104   	0.700000	77.1821   	0.700000	77.1821   	0.700000	82.1414   	0.700000	0.26896   	
0.800000	51.6314   	0.800000	84.7103   	0.800000	79.1737   	0.800000	79.1737   	0.800000	84.4695   	0.800000	0.240769  	
0.900000	53.3573   	0.900000	86.3782   	0.900000	80.6742   	0.900000	80.6742   	0.900000	86.16     	0.900000	0.218273  	
1.000000	54.7042   	1.000000	87.5517   	1.000000	81.8005   	1.000000	81.8005   	1.000000	87.3519   	1.000000	0.199873  	
1.250000	56.754    	1.250000	88.9631   	1.250000	83.4633   	1.250000	83.4633   	1.250000	88.7974   	1.250000	0.165704  	
1.500000	57.3279   	1.500000	88.4249   	1.500000	84.0462   	1.500000	84.0462   	1.500000	88.2829   	1.500000	0.14204   	
1.750000	57.3585   	1.750000	87.3083   	1.750000	83.9735   	1.750000	83.9735   	1.750000	87.1836   	1.750000	0.124614  	
2.000000	57.0566   	2.000000	85.8802   	2.000000	83.4901   	2.000000	83.4901   	2.000000	85.769    	2.000000	0.111209  	
2.250000	56.515    	2.250000	84.1059   	2.250000	82.7455   	2.250000	82.7455   	2.250000	84.0053   	2.250000	0.100555  	
2.500000	77.5972   	2.500000	82.1081   	2.500000	81.8342   	2.500000	81.8342   	2.500000	82.0162   	2.500000	0.0918699 	
3.000000	74.6312   	3.000000	78.3697   	3.000000	79.7393   	3.000000	79.7393   	3.000000	78.2912   	3.000000	0.0785349 	
3.500000	71.5759   	3.500000	74.9489   	3.500000	77.4948   	3.500000	77.4948   	3.500000	74.8802   	3.500000	0.0687481 	
4.000000	68.6145   	4.000000	71.8273   	4.000000	74.9669   	4.000000	74.9669   	4.000000	71.7661   	4.000000	0.0612404 	
4.500000	65.8175   	4.500000	68.9534   	4.500000	72.5293   	4.500000	72.5293   	4.500000	68.8981   	4.500000	0.0552872 	
5.000000	63.2065   	5.000000	66.3078   	5.000000	70.2626   	5.000000	70.2626   	5.000000	66.2573   	5.000000	0.0504438 	
5.500000	60.7816   	5.500000	63.8581   	5.500000	68.1485   	5.500000	68.1485   	5.500000	63.8116   	5.500000	0.0464217 	
6.000000	58.5332   	6.000000	61.5783   	6.000000	66.1714   	6.000000	66.1714   	6.000000	61.5353   	6.000000	0.0430248 	
6.500000	56.4486   	6.500000	59.4286   	6.500000	64.3176   	6.500000	64.3176   	6.500000	59.3885   	6.500000	0.0401158 	
7.000000	54.5136   	7.000000	57.4248   	7.000000	62.5751   	7.000000	62.5751   	7.000000	57.3872   	7.000000	0.0375947 	
7.500000	52.7147   	7.500000	55.563    	7.500000	60.9337   	7.500000	60.9337   	7.500000	55.5276   	7.500000	0.0353876 	
8.000000	51.0393   	8.000000	53.8257   	8.000000	59.3843   	8.000000	59.3843   	8.000000	53.7922   	8.000000	0.0334382 	
8.500000	49.4757   	8.500000	52.2006   	8.500000	57.9188   	8.500000	57.9188   	8.500000	52.1689   	8.500000	0.0317032 	
9.000000	48.0136   	9.000000	50.6702   	9.000000	56.5303   	9.000000	56.5303   	9.000000	50.64     	9.000000	0.0301485 	
9.500000	46.6436   	9.500000	49.2245   	9.500000	55.2123   	9.500000	55.2123   	9.500000	49.1957   	9.500000	0.0287469 	
10.000000	45.3575   	10.000000	48.3254   	10.000000	53.9595   	10.000000	53.9595   	10.000000	48.2979   	10.000000	0.0274763 	
11.000000	43.0077   	11.000000	46.7855   	11.000000	51.2324   	11.000000	51.6692   	11.000000	46.7602   	11.000000	0.0252603 	
12.000000	40.9141   	12.000000	45.3056   	12.000000	48.7846   	12.000000	49.5816   	12.000000	45.2822   	12.000000	0.0233911 	
13.000000	39.0365   	13.000000	43.8944   	13.000000	46.5754   	13.000000	47.6706   	13.000000	43.8726   	13.000000	0.0217921 	
14.000000	37.3427   	14.000000	42.5547   	14.000000	44.5709   	14.000000	45.9144   	14.000000	42.5343   	14.000000	0.0204076 	
15.000000	35.8065   	15.000000	41.2859   	15.000000	42.7429   	15.000000	44.2948   	15.000000	41.2667   	15.000000	0.0191967 	
16.000000	34.4064   	16.000000	40.0858   	16.000000	41.0706   	16.000000	42.7964   	16.000000	40.0677   	16.000000	0.0181281 	
17.000000	33.1247   	17.000000	38.9509   	17.000000	39.5356   	17.000000	41.406    	17.000000	38.9338   	17.000000	0.0171778 	
18.000000	31.9467   	18.000000	37.8776   	18.000000	38.1205   	18.000000	40.1125   	18.000000	37.8613   	18.000000	0.0163267 	
19.000000	30.8599   	19.000000	36.8619   	19.000000	36.8121   	19.000000	38.9061   	19.000000	36.8463   	19.000000	0.01556   	
20.000000	29.8539   	20.000000	35.9      	20.000000	35.6004   	20.000000	37.7786   	20.000000	35.8852   	20.000000	0.0148654 	
21.000000	28.9199   	21.000000	34.9884   	21.000000	34.4755   	21.000000	36.7225   	21.000000	34.9741   	21.000000	0.0142331 	
22.000000	28.05     	22.000000	34.1234   	22.000000	33.4278   	22.000000	35.7315   	22.000000	34.1098   	22.000000	0.0136549 	
23.000000	27.2378   	23.000000	33.302    	23.000000	32.4502   	23.000000	34.8001   	23.000000	33.2889   	23.000000	0.0131241 	
24.000000	26.4776   	24.000000	32.5211   	24.000000	31.5367   	24.000000	33.9231   	24.000000	32.5085   	24.000000	0.0126349 	
25.000000	25.7644   	25.000000	31.778    	25.000000	30.682    	25.000000	33.0962   	25.000000	31.7658   	25.000000	0.0121826 	
27.000000	24.462    	27.000000	30.395    	27.000000	29.1285   	27.000000	31.5774   	27.000000	30.3836   	27.000000	0.0113729 	
29.000000	23.302    	29.000000	29.1348   	29.000000	27.7554   	29.000000	30.2169   	29.000000	29.1241   	29.000000	0.0106687 	
31.000000	22.2615   	31.000000	27.9822   	31.000000	26.6174   	31.000000	28.9574   	31.000000	27.9722   	31.000000	0.0100504 	
33.000000	21.3226   	33.000000	26.9242   	33.000000	25.657    	33.000000	27.7785   	33.000000	26.9147   	33.000000	0.00950289	
35.000000	20.4706   	35.000000	25.9497   	35.000000	24.7696   	35.000000	26.7001   	35.000000	25.9407   	35.000000	0.00901454	
38.000000	19.3305   	38.000000	24.6244   	38.000000	23.5611   	38.000000	25.2442   	38.000000	24.616    	38.000000	0.00837326	
41.000000	18.3283   	41.000000	23.4396   	41.000000	22.4766   	41.000000	23.9529   	41.000000	23.4318   	41.000000	0.00782086	
44.000000	17.4399   	44.000000	22.3743   	44.000000	21.4993   	44.000000	22.7997   	44.000000	22.367    	44.000000	0.00733982	
47.000000	16.6464   	47.000000	21.4113   	47.000000	20.6125   	47.000000	21.7633   	47.000000	21.4044   	47.000000	0.00691696	
50.000000	15.933    	50.000000	20.5366   	50.000000	19.8051   	50.000000	20.8269   	50.000000	20.53     	50.000000	0.00654219	
55.000000	14.8911   	55.000000	19.2441   	55.000000	18.607    	55.000000	19.452    	55.000000	19.2381   	55.000000	0.00600381	
60.000000	13.9978   	60.000000	18.123    	60.000000	17.5666   	60.000000	18.2674   	60.000000	18.1175   	60.000000	0.00555066	
65.000000	13.2229   	65.000000	17.1412   	65.000000	16.6507   	65.000000	17.2362   	65.000000	17.1361   	65.000000	0.00516374	
70.000000	12.5437   	70.000000	16.2744   	70.000000	15.8404   	70.000000	16.3304   	70.000000	16.2695   	70.000000	0.00482933	
75.000000	11.9432   	75.000000	15.5034   	75.000000	15.1178   	75.000000	15.5285   	75.000000	15.4988   	75.000000	0.0045373 	
80.000000	11.408    	80.000000	14.8132   	80.000000	14.4713   	80.000000	14.8136   	80.000000	14.8089   	80.000000	0.00427996	
85.000000	10.928    	85.000000	14.1917   	85.000000	13.8864   	85.000000	14.1724   	85.000000	14.1877   	85.000000	0.00405139	
90.000000	10.4947   	90.000000	13.6293   	90.000000	13.3573   	90.000000	13.5941   	90.000000	13.6254   	90.000000	0.00384697	
95.000000	10.1015   	95.000000	13.1178   	95.000000	12.8738   	95.000000	13.0698   	95.000000	13.1141   	95.000000	0.00366301	
100.000000	9.74288   	100.000000	12.6507   	100.000000	12.4326   	100.000000	12.5924   	100.000000	12.6472   	100.000000	0.00349654	
105.000000	9.41447   	105.000000	12.2224   	105.000000	12.0286   	105.000000	12.1559   	105.000000	12.2191   	105.000000	0.00334515	
110.000000	9.11245   	110.000000	11.8284   	110.000000	11.6551   	110.000000	11.7552   	110.000000	11.8252   	110.000000	0.00320685	
115.000000	8.83371   	115.000000	11.4646   	115.000000	11.31     	115.000000	11.3862   	115.000000	11.4616   	115.000000	0.00308   	
120.000000	8.57558   	120.000000	11.1278   	120.000000	10.9911   	120.000000	11.0453   	120.000000	11.1248   	120.000000	0.0029632 	
125.000000	8.3358    	125.000000	10.815    	125.000000	10.6945   	125.000000	10.7293   	125.000000	10.8122   	125.000000	0.00285529	
130.000000	8.11243   	130.000000	10.5238   	130.000000	10.4171   	130.000000	10.4357   	130.000000	10.5211   	130.000000	0.00275529	
135.000000	7.9038    	135.000000	10.2521   	135.000000	10.1585   	135.000000	10.1622   	135.000000	10.2494   	135.000000	0.00266233	
140.000000	7.70845   	140.000000	9.99788   	140.000000	9.91689   	140.000000	9.90683   	140.000000	9.99531   	140.000000	0.0025757 	
145.000000	7.52514   	145.000000	9.7596    	145.000000	9.69025   	145.000000	9.6678    	145.000000	9.75711   	145.000000	0.00249475	
150.000000	7.35275   	150.000000	9.5358    	150.000000	9.47694   	150.000000	9.44364   	150.000000	9.53338   	150.000000	0.00241894	
155.000000	7.10635   	155.000000	9.3252    	155.000000	9.2764    	155.000000	9.23301   	155.000000	9.32285   	155.000000	0.00234779	
160.000000	6.96377   	160.000000	9.12668   	160.000000	9.08728   	160.000000	9.03473   	160.000000	9.1244    	160.000000	0.00228088	
165.000000	6.82904   	165.000000	8.93923   	165.000000	8.90832   	165.000000	8.84776   	165.000000	8.93701   	165.000000	0.00221783	
170.000000	6.70153   	170.000000	8.76196   	170.000000	8.73919   	170.000000	8.67116   	170.000000	8.7598    	170.000000	0.00215831	
175.000000	6.58066   	175.000000	8.59407   	175.000000	8.57905   	175.000000	8.5041    	175.000000	8.59196   	175.000000	0.00210203	
180.000000	6.46593   	180.000000	8.43483   	180.000000	8.42685   	180.000000	8.34585   	180.000000	8.43278   	180.000000	0.00204873	
185.000000	6.35687   	185.000000	8.28361   	185.000000	8.28219   	185.000000	8.19572   	185.000000	8.28161   	185.000000	0.00199818	
190.000000	6.25306   	190.000000	8.13981   	190.000000	8.14477   	190.000000	8.05311   	190.000000	8.13786   	190.000000	0.00195016	
195.000000	6.15414   	195.000000	8.00292   	195.000000	8.01409   	195.000000	7.91749   	195.000000	8.00101   	195.000000	0.00190449	
200.000000	6.05975   	200.000000	7.87244   	200.000000	7.88954   	200.000000	7.78835   	200.000000	7.87058   	200.000000	0.00186099	
210.000000	5.8834    	210.000000	7.62902   	210.000000	7.65661   	210.000000	7.54778   	210.000000	7.62724   	210.000000	0.00177993	
220.000000	5.72185   	220.000000	7.40652   	220.000000	7.44379   	220.000000	7.32828   	220.000000	7.40482   	220.000000	0.0017059 	
230.000000	5.57331   	230.000000	7.20238   	230.000000	7.2481    	230.000000	7.12723   	230.000000	7.20074   	230.000000	0.00163802	
240.000000	5.43625   	240.000000	7.01445   	240.000000	7.06792   	240.000000	6.94244   	240.000000	7.01287   	240.000000	0.00157553	
250.000000	5.30939   	250.000000	6.84088   	250.000000	6.90169   	250.000000	6.77204   	250.000000	6.83937   	250.000000	0.00151782	
260.000000	5.19163   	260.000000	6.68013   	260.000000	6.74789   	260.000000	6.61445   	260.000000	6.67867   	260.000000	0.00146435	
270.000000	5.08202   	270.000000	6.53085   	270.000000	6.60501   	270.000000	6.4683    	270.000000	6.52943   	270.000000	0.00141466	
280.000000	4.97975   	280.000000	6.39186   	280.000000	6.47166   	280.000000	6.33242   	280.000000	6.39049   	280.000000	0.00136836	
290.000000	4.8841    	290.000000	6.26217   	290.000000	6.34731   	290.000000	6.20579   	290.000000	6.26085   	290.000000	0.00132511	
300.000000	4.79446   	300.000000	6.14089   	300.000000	6.23122   	300.000000	6.08751   	300.000000	6.1396    	300.000000	0.00128462	
310.000000	4.71029   	310.000000	6.02724   	310.000000	6.12232   	310.000000	5.97681   	310.000000	6.02599   	310.000000	0.00124662	
320.000000	4.63109   	320.000000	5.92054   	320.000000	6.01982   	320.000000	5.87301   	320.000000	5.91933   	320.000000	0.00121089	
330.000000	4.55645   	330.000000	5.8202    	330.000000	5.92377   	330.000000	5.77549   	330.000000	5.81902   	330.000000	0.00117723	
340.000000	4.48599   	340.000000	5.72567   	340.000000	5.83349   	340.000000	5.68372   	340.000000	5.72452   	340.000000	0.00114546	
350.000000	4.41938   	350.000000	5.63648   	350.000000	5.74808   	350.000000	5.59723   	350.000000	5.63536   	350.000000	0.00111543	
360.000000	4.35631   	360.000000	5.5522    	360.000000	5.66711   	360.000000	5.51558   	360.000000	5.55111   	360.000000	0.00108699	
370.000000	4.29651   	370.000000	5.47245   	370.000000	5.59045   	370.000000	5.4384    	370.000000	5.47139   	370.000000	0.00106002	
380.000000	4.23975   	380.000000	5.39689   	380.000000	5.51808   	380.000000	5.36534   	380.000000	5.39586   	380.000000	0.00103441	
390.000000	4.1858    	390.000000	5.32521   	390.000000	5.44958   	390.000000	5.2961    	390.000000	5.3242    	390.000000	0.00101005	
400.000000	4.13446   	400.000000	5.25714   	400.000000	5.38445   	400.000000	5.23039   	400.000000	5.25615   	400.000000	0.000986857	
410.000000	4.08556   	410.000000	5.1924    	410.000000	5.32248   	410.000000	5.16797   	410.000000	5.19144   	410.000000	0.000964746	
420.000000	4.03892   	420.000000	5.13079   	420.000000	5.26356   	420.000000	5.1086    	420.000000	5.12985   	420.000000	0.000943642	
430.000000	3.99442   	430.000000	5.07208   	430.000000	5.20743   	430.000000	5.05208   	430.000000	5.07116   	430.000000	0.000923476	
440.000000	3.9519    	440.000000	5.01609   	440.000000	5.15384   	440.000000	4.99822   	440.000000	5.01519   	440.000000	0.000904188	
450.000000	3.91124   	450.000000	4.96264   	450.000000	5.10268   	450.000000	4.94684   	450.000000	4.96176   	450.000000	0.000885719	
460.000000	3.87233   	460.000000	4.91158   	460.000000	5.05386   	460.000000	4.89778   	460.000000	4.91071   	460.000000	0.000868018	
470.000000	3.83506   	470.000000	4.86275   	470.000000	5.0072    	470.000000	4.85091   	470.000000	4.8619    	470.000000	0.000851038	
480.000000	3.79934   	480.000000	4.81602   	480.000000	4.96244   	480.000000	4.80608   	480.000000	4.81518   	480.000000	0.000834735	
490.000000	3.76508   	490.000000	4.77127   	490.000000	4.91948   	490.000000	4.76318   	490.000000	4.77045   	490.000000	0.000819068	
500.000000	3.73219   	500.000000	4.72838   	500.000000	4.87835   	500.000000	4.72208   	500.000000	4.72757   	500.000000	0.000804001	
520.000000	3.67025   	520.000000	4.64777   	520.000000	4.80142   	520.000000	4.64491   	520.000000	4.64699   	520.000000	0.000775531	
540.000000	3.61296   	540.000000	4.57343   	540.000000	4.73033   	540.000000	4.57382   	540.000000	4.57269   	540.000000	0.00074908	
560.000000	3.55987   	560.000000	4.50473   	560.000000	4.66455   	560.000000	4.50817   	560.000000	4.504     	560.000000	0.00072444	
580.000000	3.51056   	580.000000	4.44108   	580.000000	4.60393   	580.000000	4.44739   	580.000000	4.44038   	580.000000	0.000701427	
600.000000	3.46467   	600.000000	4.38201   	600.000000	4.54753   	600.000000	4.39101   	600.000000	4.38133   	600.000000	0.000679884	
620.000000	3.4219    	620.000000	4.32707   	620.000000	4.49491   	620.000000	4.33861   	620.000000	4.32641   	620.000000	0.000659672	
640.000000	3.38196   	640.000000	4.2759    	640.000000	4.44592   	640.000000	4.28981   	640.000000	4.27526   	640.000000	0.000640671	
660.000000	3.34462   	660.000000	4.22817   	660.000000	4.40025   	660.000000	4.24429   	660.000000	4.22754   	660.000000	0.000622773	
680.000000	3.30967   	680.000000	4.18357   	680.000000	4.35758   	680.000000	4.20176   	680.000000	4.18296   	680.000000	0.000605884	
700.000000	3.2769    	700.000000	4.14184   	700.000000	4.31753   	700.000000	4.16196   	700.000000	4.14125   	700.000000	0.00058992	
720.000000	3.24614   	720.000000	4.10276   	720.000000	4.27985   	720.000000	4.12466   	720.000000	4.10219   	720.000000	0.000574806	
740.000000	3.21725   	740.000000	4.06612   	740.000000	4.24454   	740.000000	4.08966   	740.000000	4.06556   	740.000000	0.000560475	
760.000000	3.19009   	760.000000	4.03172   	760.000000	4.21149   	760.000000	4.05679   	760.000000	4.03117   	760.000000	0.000546867	
780.000000	3.16453   	780.000000	3.9994    	780.000000	4.18042   	780.000000	4.02586   	780.000000	3.99886   	780.000000	0.000533928	
800.000000	3.14045   	800.000000	3.969     	800.000000	4.15103   	800.000000	3.99674   	800.000000	3.96848   	800.000000	0.000521609	
820.000000	3.11776   	820.000000	3.9404    	820.000000	4.12325   	820.000000	3.96929   	820.000000	3.93989   	820.000000	0.000509866	
840.000000	3.09636   	840.000000	3.91346   	840.000000	4.09709   	840.000000	3.94339   	840.000000	3.91296   	840.000000	0.000498659	
860.000000	3.07616   	860.000000	3.88807   	860.000000	4.07247   	860.000000	3.91894   	860.000000	3.88759   	860.000000	0.000487953	
880.000000	3.0571    	880.000000	3.86413   	880.000000	4.04923   	880.000000	3.89582   	880.000000	3.86366   	880.000000	0.000477712	
900.000000	3.0391    	900.000000	3.84155   	900.000000	4.02719   	900.000000	3.87395   	900.000000	3.84108   	900.000000	0.000467909	
920.000000	3.02209   	920.000000	3.82023   	920.000000	4.00625   	920.000000	3.85325   	920.000000	3.81977   	920.000000	0.000458514	
940.000000	3.00602   	940.000000	3.80011   	940.000000	3.98638   	940.000000	3.83364   	940.000000	3.79966   	940.000000	0.000449502	
960.000000	2.99083   	960.000000	3.78109   	960.000000	3.96752   	960.000000	3.81504   	960.000000	3.78065   	960.000000	0.000440851	
980.000000	2.97646   	980.000000	3.76313   	980.000000	3.94965   	980.000000	3.79741   	980.000000	3.7627    	980.000000	0.000432538	
1000.000000	2.96288   	1000.000000	3.74616   	1000.000000	3.93269   	1000.000000	3.78067   	1000.000000	3.74573   	1000.000000	0.000424545	
1020.000000	2.95004   	1020.000000	3.73011   	1020.000000	3.91658   	1020.000000	3.76477   	1020.000000	3.7297    	1020.000000	0.000416852	
1040.000000	2.93791   	1040.000000	3.71495   	1040.000000	3.90127   	1040.000000	3.74966   	1040.000000	3.71454   	1040.000000	0.000409443	
1060.000000	2.92643   	1060.000000	3.70061   	1060.000000	3.8867    	1060.000000	3.73529   	1060.000000	3.70021   	1060.000000	0.000402302	
1080.000000	2.91558   	1080.000000	3.68706   	1080.000000	3.87285   	1080.000000	3.72163   	1080.000000	3.68667   	1080.000000	0.000395415	
1100.000000	2.90533   	1100.000000	3.67425   	1100.000000	3.85966   	1100.000000	3.70863   	1100.000000	3.67387   	1100.000000	0.000388768	
1120.000000	2.89564   	1120.000000	3.66215   	1120.000000	3.84709   	1120.000000	3.69625   	1120.000000	3.66177   	1120.000000	0.000382349	
1140.000000	2.8865    	1140.000000	3.65071   	1140.000000	3.83512   	1140.000000	3.68447   	1140.000000	3.65034   	1140.000000	0.000376146	
1160.000000	2.87787   	1160.000000	3.63991   	1160.000000	3.82372   	1160.000000	3.67324   	1160.000000	3.63954   	1160.000000	0.000370148	
1180.000000	2.86972   	1180.000000	3.62971   	1180.000000	3.81285   	1180.000000	3.66254   	1180.000000	3.62934   	1180.000000	0.000364346	
1200.000000	2.86204   	1200.000000	3.62008   	1200.000000	3.8025    	1200.000000	3.65234   	1200.000000	3.61972   	1200.000000	0.000358729	
1220.000000	2.85481   	1220.000000	3.611     	1220.000000	3.79263   	1220.000000	3.64261   	1220.000000	3.61064   	1220.000000	0.000353289	
1240.000000	2.848     	1240.000000	3.60243   	1240.000000	3.78321   	1240.000000	3.63334   	1240.000000	3.60208   	1240.000000	0.000348017	
1260.000000	2.84159   	1260.000000	3.59436   	1260.000000	3.77422   	1260.000000	3.62449   	1260.000000	3.59402   	1260.000000	0.000342906	
1280.000000	2.83558   	1280.000000	3.58676   	1280.000000	3.76564   	1280.000000	3.61604   	1280.000000	3.58643   	1280.000000	0.000337948	
1300.000000	2.82993   	1300.000000	3.57962   	1300.000000	3.75742   	1300.000000	3.60798   	1300.000000	3.57928   	1300.000000	0.000333137	
1320.000000	2.82464   	1320.000000	3.5729    	1320.000000	3.74957   	1320.000000	3.60029   	1320.000000	3.57257   	1320.000000	0.000328466	
1340.000000	2.8197    	1340.000000	3.56659   	1340.000000	3.74204   	1340.000000	3.59295   	1340.000000	3.56627   	1340.000000	0.000323928	
1360.000000	2.81508   	1360.000000	3.56068   	1360.000000	3.73485   	1360.000000	3.58594   	1360.000000	3.56036   	1360.000000	0.000319519	
1380.000000	2.81077   	1380.000000	3.55514   	1380.000000	3.72797   	1380.000000	3.57924   	1380.000000	3.55483   	1380.000000	0.000315232	
1400.000000	2.80676   	1400.000000	3.54997   	1400.000000	3.7214    	1400.000000	3.57285   	1400.000000	3.54966   	1400.000000	0.000311063	
1420.000000	2.80305   	1420.000000	3.54514   	1420.000000	3.71514   	1420.000000	3.56674   	1420.000000	3.54483   	1420.000000	0.000307007	
1440.000000	2.79961   	1440.000000	3.54064   	1440.000000	3.70916   	1440.000000	3.56091   	1440.000000	3.54034   	1440.000000	0.000303059	
1460.000000	2.79644   	1460.000000	3.53646   	1460.000000	3.70347   	1460.000000	3.55535   	1460.000000	3.53616   	1460.000000	0.000299214	
1480.000000	2.79353   	1480.000000	3.53259   	1480.000000	3.69804   	1480.000000	3.55003   	1480.000000	3.53229   	1480.000000	0.00029547	
1500.000000	2.79086   	1500.000000	3.52901   	1500.000000	3.69286   	1500.000000	3.54495   	1500.000000	3.52871   	1500.000000	0.000291821	
1520.000000	2.78844   	1520.000000	3.52571   	1520.000000	3.68792   	1520.000000	3.54011   	1520.000000	3.52542   	1520.000000	0.000288265	
1540.000000	2.78624   	1540.000000	3.52268   	1540.000000	3.6832    	1540.000000	3.53548   	1540.000000	3.5224    	1540.000000	0.000284798	
1560.000000	2.78427   	1560.000000	3.51991   	1560.000000	3.67869   	1560.000000	3.53106   	1560.000000	3.51963   	1560.000000	0.000281415	
1580.000000	2.78252   	1580.000000	3.5174    	1580.000000	3.67438   	1580.000000	3.52685   	1580.000000	3.51712   	1580.000000	0.000278115	
1600.000000	2.78097   	1600.000000	3.51512   	1600.000000	3.67025   	1600.000000	3.52282   	1600.000000	3.51485   	1600.000000	0.000274895	
1620.000000	2.77962   	1620.000000	3.51308   	1620.000000	3.66631   	1620.000000	3.51899   	1620.000000	3.51281   	1620.000000	0.00027175	
1640.000000	2.77847   	1640.000000	3.51126   	1640.000000	3.66254   	1640.000000	3.51532   	1640.000000	3.511     	1640.000000	0.00026868	
1660.000000	2.7775    	1660.000000	3.50966   	1660.000000	3.65893   	1660.000000	3.51183   	1660.000000	3.5094    	1660.000000	0.00026568	
1680.000000	2.77672   	1680.000000	3.50827   	1680.000000	3.65548   	1680.000000	3.50851   	1680.000000	3.50801   	1680.000000	0.000262749	
1700.000000	2.77611   	1700.000000	3.50708   	1700.000000	3.6522    	1700.000000	3.50533   	1700.000000	3.50682   	1700.000000	0.000259884	
1750.000000	2.77531   	1750.000000	3.50494   	1750.000000	3.64463   	1750.000000	3.49805   	1750.000000	3.50469   	1750.000000	0.000252998	
1800.000000	2.7755    	1800.000000	3.50392   	1800.000000	3.63794   	1800.000000	3.49162   	1800.000000	3.50367   	1800.000000	0.000246479	
1850.000000	2.7766    	1850.000000	3.50392   	1850.000000	3.63206   	1850.000000	3.48596   	1850.000000	3.50368   	1850.000000	0.000240299	
1900.000000	2.77855   	1900.000000	3.50487   	1900.000000	3.6269    	1900.000000	3.481     	1900.000000	3.50464   	1900.000000	0.000234432	
1950.000000	2.78128   	1950.000000	3.50669   	1950.000000	3.62241   	1950.000000	3.47669   	1950.000000	3.50646   	1950.000000	0.000228854	
2000.000000	2.78474   	2000.000000	3.50932   	2000.000000	3.61851   	2000.000000	3.47295   	2000.000000	3.5091    	2000.000000	0.000223544	
2100.000000	2.79369   	2100.000000	3.51677   	2100.000000	3.61229   	2100.000000	3.46703   	2100.000000	3.51656   	2100.000000	0.000213655	
2200.000000	2.80505   	2200.000000	3.52682   	2200.000000	3.60787   	2200.000000	3.46289   	2200.000000	3.52661   	2200.000000	0.000204631	
2300.000000	2.81854   	2300.000000	3.53911   	2300.000000	3.60498   	2300.000000	3.46026   	2300.000000	3.53892   	2300.000000	0.000196363	
2400.000000	2.83394   	2400.000000	3.55338   	2400.000000	3.60336   	2400.000000	3.45889   	2400.000000	3.5532    	2400.000000	0.000188758	
2500.000000	2.85104   	2500.000000	3.56939   	2500.000000	3.60281   	2500.000000	3.45861   	2500.000000	3.5692    	2500.000000	0.000181739	
2600.000000	2.86969   	2600.000000	3.58692   	2600.000000	3.6032    	2600.000000	3.45924   	2600.000000	3.58674   	2600.000000	0.000175239	
2700.000000	2.88972   	2700.000000	3.60581   	2700.000000	3.60438   	2700.000000	3.46066   	2700.000000	3.60564   	2700.000000	0.000169204	
2800.000000	2.91103   	2800.000000	3.62591   	2800.000000	3.60624   	2800.000000	3.46274   	2800.000000	3.62575   	2800.000000	0.000163583	
2900.000000	2.9335    	2900.000000	3.6471    	2900.000000	3.60869   	2900.000000	3.4654    	2900.000000	3.64694   	2900.000000	0.000158336	
3000.000000	2.95703   	3000.000000	3.66926   	3000.000000	3.61164   	3000.000000	3.46856   	3000.000000	3.66911   	3000.000000	0.000153426	
3200.000000	3.00699   	3200.000000	3.71612   	3200.000000	3.6188    	3200.000000	3.47608   	3200.000000	3.71598   	3200.000000	0.000144492	
3400.000000	3.06036   	3400.000000	3.76587   	3400.000000	3.62727   	3400.000000	3.48485   	3400.000000	3.76573   	3400.000000	0.000136573	
3600.000000	3.11669   	3600.000000	3.81799   	3600.000000	3.63671   	3600.000000	3.49455   	3600.000000	3.81786   	3600.000000	0.000129502	
3800.000000	3.17567   	3800.000000	3.87211   	3800.000000	3.64685   	3800.000000	3.50493   	3800.000000	3.87199   	3800.000000	0.000123149	
4000.000000	3.237     	4000.000000	3.9279    	4000.000000	3.65751   	4000.000000	3.51579   	4000.000000	3.92779   	4000.000000	0.000117408	
4200.000000	3.30046   	4200.000000	3.98512   	4200.000000	3.66852   	4200.000000	3.52699   	4200.000000	3.98501   	4200.000000	0.000112195	
4400.000000	3.36586   	4400.000000	4.04355   	4400.000000	3.67977   	4400.000000	3.53842   	4400.000000	4.04344   	4400.000000	0.000107439	
4600.000000	3.43306   	4600.000000	4.10302   	4600.000000	3.69115   	4600.000000	3.54999   	4600.000000	4.10292   	4600.000000	0.000103082	
4800.000000	3.50192   	4800.000000	4.1634    	4800.000000	3.7026    	4800.000000	3.56163   	4800.000000	4.1633    	4800.000000	9.90757e-05	
5000.000000	3.57234   	5000.000000	4.22456   	5000.000000	3.71407   	5000.000000	3.57329   	5000.000000	4.22446   	5000.000000	9.53782e-05	
5250.000000	3.66239   	5250.000000	4.30195   	5250.000000	3.72838   	5250.000000	3.58783   	5250.000000	4.30186   	5250.000000	9.11386e-05	
5500.000000	3.75458   	5500.000000	4.38025   	5500.000000	3.7426    	5500.000000	3.60227   	5500.000000	4.38017   	5500.000000	8.72711e-05	
6000.000000	3.94484   	6000.000000	4.53904   	6000.000000	3.77061   	6000.000000	3.6307    	6000.000000	4.53896   	6000.000000	8.04701e-05	
6500.000000	4.14233   	6500.000000	4.70009   	6500.000000	3.79791   	6500.000000	3.65835   	6500.000000	4.70001   	6500.000000	7.46806e-05	
7000.000000	4.34648   	7000.000000	4.86281   	7000.000000	3.82414   	7000.000000	3.68512   	7000.000000	4.86274   	7000.000000	6.96906e-05	
7500.000000	4.55685   	7500.000000	5.02679   	7500.000000	3.84954   	7500.000000	3.71095   	7500.000000	5.02673   	7500.000000	6.53438e-05	
8000.000000	4.77314   	8000.000000	5.19172   	8000.000000	3.87412   	8000.000000	3.73585   	8000.000000	5.19165   	8000.000000	6.15222e-05	
8500.000000	4.99509   	8500.000000	5.35734   	8500.000000	3.89775   	8500.000000	3.75984   	8500.000000	5.35729   	8500.000000	5.81352e-05	
9000.000000	5.22251   	9000.000000	5.5235    	9000.000000	3.92042   	9000.000000	3.78295   	9000.000000	5.52345   	9000.000000	5.5112e-05	
9500.000000	5.45526   	9500.000000	5.69005   	9500.000000	3.94228   	9500.000000	3.80522   	9500.000000	5.69      	9500.000000	5.23965e-05	
10000.000000	5.69321   	10000.000000	5.85688   	10000.000000	3.96338   	10000.000000	3.82668   	10000.000000	5.85683   	10000.000000	4.99435e-05	
11000.000000	6.18435   	11000.000000	6.19108   	11000.000000	4.00324   	11000.000000	3.86738   	11000.000000	6.19103   	11000.000000	4.5685e-05	
12000.000000	6.69536   	12000.000000	6.5256    	12000.000000	4.04019   	12000.000000	3.90536   	12000.000000	6.52555   	12000.000000	4.21138e-05	
13000.000000	7.22585   	13000.000000	6.86012   	13000.000000	4.07472   	13000.000000	3.94094   	13000.000000	6.86008   	13000.000000	3.90745e-05	
14000.000000	7.77558   	14000.000000	7.19445   	14000.000000	4.10723   	14000.000000	3.97435   	14000.000000	7.19441   	14000.000000	3.64556e-05	
15000.000000	8.34436   	15000.000000	7.52843   	15000.000000	4.13785   	15000.000000	4.00584   	15000.000000	7.5284    	15000.000000	3.41749e-05	
16000.000000	8.93209   	16000.000000	7.862     	16000.000000	4.16662   	16000.000000	4.03559   	16000.000000	7.86196   	16000.000000	3.21701e-05	
17000.000000	9.53871   	17000.000000	8.19507   	17000.000000	4.19366   	17000.000000	4.06379   	17000.000000	8.19504   	17000.000000	3.03937e-05	
18000.000000	10.1642   	18000.000000	8.52762   	18000.000000	4.21916   	18000.000000	4.09057   	18000.000000	8.52759   	18000.000000	2.88085e-05	
19000.000000	10.8085   	19000.000000	8.85963   	19000.000000	4.2433    	19000.000000	4.11606   	19000.000000	8.8596    	19000.000000	2.73848e-05	
20000.000000	11.4717   	20000.000000	9.19107   	20000.000000	4.26623   	20000.000000	4.14039   	20000.000000	9.19104   	20000.000000	2.6099e-05	
21000.000000	12.1537   	21000.000000	9.52195   	21000.000000	4.28809   	21000.000000	4.16365   	21000.000000	9.52192   	21000.000000	2.49317e-05	
22000.000000	12.8547   	22000.000000	9.85226   	22000.000000	4.30901   	22000.000000	4.18592   	22000.000000	9.85224   	22000.000000	2.38672e-05	
23000.000000	13.5746   	23000.000000	10.182    	23000.000000	4.32895   	23000.000000	4.20729   	23000.000000	10.182    	23000.000000	2.28924e-05	
24000.000000	14.3136   	24000.000000	10.5112   	24000.000000	4.34802   	24000.000000	4.22782   	24000.000000	10.5112   	24000.000000	2.19962e-05	
25000.000000	15.0716   	25000.000000	10.8399   	25000.000000	4.3663    	25000.000000	4.24757   	25000.000000	10.8398   	25000.000000	2.11695e-05	
26000.000000	15.8489   	26000.000000	11.168    	26000.000000	4.38383   	26000.000000	4.26661   	26000.000000	11.168    	26000.000000	2.04043e-05	
27000.000000	16.6453   	27000.000000	11.4956   	27000.000000	4.40062   	27000.000000	4.28498   	27000.000000	11.4955   	27000.000000	1.96941e-05	
28000.000000	17.4611   	28000.000000	11.8226   	28000.000000	4.41674   	28000.000000	4.30272   	28000.000000	11.8226   	28000.000000	1.9033e-05	
29000.000000	18.2963   	29000.000000	12.1492   	29000.000000	4.43224   	29000.000000	4.31988   	29000.000000	12.1492   	29000.000000	1.8416e-05	
30000.000000	19.1509   	30000.000000	12.4753   	30000.000000	4.44716   	30000.000000	4.33649   	30000.000000	12.4753   	30000.000000	1.78389e-05	
32000.000000	20.9191   	32000.000000	13.126    	32000.000000	4.47543   	32000.000000	4.3682    	32000.000000	13.126    	32000.000000	1.67896e-05	
34000.000000	22.7663   	34000.000000	13.7748   	34000.000000	4.50181   	34000.000000	4.39808   	34000.000000	13.7748   	34000.000000	1.58599e-05	
36000.000000	24.6933   	36000.000000	14.4219   	36000.000000	4.5264    	36000.000000	4.42634   	36000.000000	14.4219   	36000.000000	1.50305e-05	
38000.000000	26.7009   	38000.000000	15.0673   	38000.000000	4.54935   	38000.000000	4.45313   	38000.000000	15.0673   	38000.000000	1.42857e-05	
40000.000000	28.7899   	40000.000000	15.7111   	40000.000000	4.57086   	40000.000000	4.4786    	40000.000000	15.7111   	40000.000000	1.36131e-05	
42000.000000	30.9612   	42000.000000	16.3534   	42000.000000	4.59113   	42000.000000	4.50288   	42000.000000	16.3534   	42000.000000	1.30026e-05	
44000.000000	33.2156   	44000.000000	16.9942   	44000.000000	4.61032   	44000.000000	4.52607   	44000.000000	16.9942   	44000.000000	1.2446e-05	
46000.000000	35.5541   	46000.000000	17.6336   	46000.000000	4.62859   	46000.000000	4.54826   	46000.000000	17.6336   	46000.000000	1.19363e-05	
48000.000000	37.9774   	48000.000000	18.2716   	48000.000000	4.64597   	48000.000000	4.56954   	48000.000000	18.2716   	48000.000000	1.14678e-05	
50000.000000	40.4864   	50000.000000	18.9083   	50000.000000	4.66242   	50000.000000	4.58997   	50000.000000	18.9083   	50000.000000	1.10356e-05	
