Energy (MeV/u)1	0 - [He-base] F.Hubert et al, AD&ND Tables 46(1990)1	Energy (MeV/u)2	1 - [H -base] J.F.Ziegler et al, Pergamon Press, NY (low energy)	Energy (MeV/u)3	2 - ATIMA 1.2  LS-theory (recommended for high energy)	Energy (MeV/u)4	3 - ATIMA 1.2  without LS-correction	Energy (MeV/u)5	4 - electrical component of [1] - J.F.Ziegler et al	Energy (MeV/u)6	5 - nuclear component of [1] - J.F.Ziegler et al	
0.001000	5.23938   	0.001000	5.03995   	0.001000	4.58545   	0.001000	4.58545   	0.001000	1.87196   	0.001000	3.16799   	
0.002000	5.29957   	0.002000	5.07091   	0.002000	4.64783   	0.002000	4.64783   	0.002000	2.42763   	0.002000	2.64328   	
0.005000	5.55648   	0.005000	5.22863   	0.005000	4.97502   	0.005000	4.97502   	0.005000	3.42303   	0.005000	1.8056    	
0.008000	5.89654   	0.008000	5.48987   	0.008000	5.4161    	0.008000	5.4161    	0.008000	4.08278   	0.008000	1.40709   	
0.010000	6.12622   	0.010000	5.67578   	0.010000	5.71886   	0.010000	5.71886   	0.010000	4.43912   	0.010000	1.23666   	
0.015000	6.98159   	0.015000	6.33319   	0.015000	6.33339   	0.015000	6.33339   	0.015000	5.37003   	0.015000	0.963161  	
0.020000	7.79016   	0.020000	7.13598   	0.020000	6.98116   	0.020000	6.98116   	0.020000	6.33786   	0.020000	0.798119  	
0.025000	8.74088   	0.025000	7.95581   	0.025000	7.6619    	0.025000	7.6619    	0.025000	7.26965   	0.025000	0.686161  	
0.030000	9.60434   	0.030000	8.77508   	0.030000	8.45046   	0.030000	8.45046   	0.030000	8.17054   	0.030000	0.60454   	
0.035000	10.3737   	0.035000	9.57731   	0.035000	9.2243    	0.035000	9.2243    	0.035000	9.0403    	0.035000	0.537011  	
0.040000	11.0309   	0.040000	10.3657   	0.040000	9.98678   	0.040000	9.98678   	0.040000	9.87765   	0.040000	0.488005  	
0.045000	11.5674   	0.045000	11.1293   	0.045000	10.7271   	0.045000	10.7271   	0.045000	10.6813   	0.045000	0.44799   	
0.050000	11.9325   	0.050000	11.8127   	0.050000	11.4419   	0.050000	11.4419   	0.050000	11.3981   	0.050000	0.41463   	
0.055000	12.5603   	0.055000	12.4614   	0.055000	12.1287   	0.055000	12.1287   	0.055000	12.075    	0.055000	0.386342  	
0.060000	13.1201   	0.060000	13.0793   	0.060000	12.7857   	0.060000	12.7857   	0.060000	12.7173   	0.060000	0.362019  	
0.070000	14.0464   	0.070000	14.2211   	0.070000	14.0064   	0.070000	14.0064   	0.070000	13.8988   	0.070000	0.322256  	
0.080000	15.0402   	0.080000	15.2383   	0.080000	15.101    	0.080000	15.101    	0.080000	14.9472   	0.080000	0.291034  	
0.090000	15.872    	0.090000	16.1356   	0.090000	16.0717   	0.090000	16.0717   	0.090000	15.8698   	0.090000	0.265801  	
0.100000	16.5776   	0.100000	16.9209   	0.100000	16.9248   	0.100000	16.9248   	0.100000	16.6759   	0.100000	0.24494   	
0.120000	17.3171   	0.120000	18.1937   	0.120000	18.3149   	0.120000	18.3149   	0.120000	17.9813   	0.120000	0.212364  	
0.140000	17.868    	0.140000	19.1387   	0.140000	19.3527   	0.140000	19.3527   	0.140000	18.9507   	0.140000	0.188003  	
0.160000	18.3544   	0.160000	19.8345   	0.160000	20.1195   	0.160000	20.1195   	0.160000	19.6655   	0.160000	0.169033  	
0.180000	18.8337   	0.180000	20.3471   	0.180000	20.6856   	0.180000	20.6856   	0.180000	20.1933   	0.180000	0.153803  	
0.200000	19.3277   	0.200000	20.7285   	0.200000	21.1067   	0.200000	21.1067   	0.200000	20.5872   	0.200000	0.141283  	
0.250000	20.2669   	0.250000	21.6318   	0.250000	21.7737   	0.250000	21.7737   	0.250000	21.514    	0.250000	0.117871  	
0.300000	21.3921   	0.300000	22.4685   	0.300000	22.1617   	0.300000	22.1617   	0.300000	22.367    	0.300000	0.101525  	
0.350000	22.3301   	0.350000	23.0364   	0.350000	22.4331   	0.350000	22.4331   	0.350000	22.947    	0.350000	0.089412  	
0.400000	23.0997   	0.400000	23.4496   	0.400000	22.8118   	0.400000	22.8118   	0.400000	23.3696   	0.400000	0.0800476 	
0.450000	23.9496   	0.450000	23.9893   	0.450000	23.7336   	0.450000	23.7336   	0.450000	23.9167   	0.450000	0.0725742 	
0.500000	24.6916   	0.500000	24.4754   	0.500000	24.4977   	0.500000	24.4977   	0.500000	24.4089   	0.500000	0.0664606 	
0.600000	24.8951   	0.600000	25.1674   	0.600000	25.2252   	0.600000	25.2252   	0.600000	25.1104   	0.600000	0.0570333 	
0.700000	24.6289   	0.700000	25.5887   	0.700000	25.4064   	0.700000	25.4064   	0.700000	25.5386   	0.700000	0.050081  	
0.800000	24.5815   	0.800000	25.3581   	0.800000	25.4546   	0.800000	25.4546   	0.800000	25.3133   	0.800000	0.0447269 	
0.900000	24.4293   	0.900000	25.0817   	0.900000	25.4058   	0.900000	25.4058   	0.900000	25.0413   	0.900000	0.0404677 	
1.000000	24.2341   	1.000000	24.8041   	1.000000	25.2856   	1.000000	25.2856   	1.000000	24.7671   	1.000000	0.0369928 	
1.250000	23.5598   	1.250000	24.0821   	1.250000	24.7226   	1.250000	24.7226   	1.250000	24.0516   	1.250000	0.0305633 	
1.500000	22.7827   	1.500000	23.3217   	1.500000	23.8593   	1.500000	23.8593   	1.500000	23.2956   	1.500000	0.0261292 	
1.750000	22.0708   	1.750000	22.6528   	1.750000	23.0387   	1.750000	23.0387   	1.750000	22.6299   	1.750000	0.0228746 	
2.000000	21.3659   	2.000000	21.999    	2.000000	22.2617   	2.000000	22.2617   	2.000000	21.9786   	2.000000	0.0203777 	
2.250000	20.6869   	2.250000	21.3374   	2.250000	21.5283   	2.250000	21.5283   	2.250000	21.319    	2.250000	0.0183976 	
2.500000	22.9346   	2.500000	20.6982   	2.500000	20.8371   	2.500000	20.8371   	2.500000	20.6815   	2.500000	0.0167866 	
3.000000	21.3099   	3.000000	19.458    	3.000000	19.573    	3.000000	19.573    	3.000000	19.4436   	3.000000	0.0143188 	
3.500000	19.8785   	3.500000	18.3667   	3.500000	18.4501   	3.500000	18.4501   	3.500000	18.3542   	3.500000	0.0125123 	
4.000000	18.622    	4.000000	17.4211   	4.000000	17.449    	4.000000	17.449    	4.000000	17.41     	4.000000	0.0111295 	
4.500000	17.5162   	4.500000	16.5654   	4.500000	16.5521   	4.500000	16.5521   	4.500000	16.5554   	4.500000	0.0100349 	
5.000000	16.5381   	5.000000	15.786    	5.000000	15.7444   	5.000000	15.7444   	5.000000	15.7768   	5.000000	0.00914582	
5.500000	15.6681   	5.500000	15.0749   	5.500000	15.0136   	5.500000	15.0136   	5.500000	15.0665   	5.500000	0.00840845	
6.000000	14.8897   	6.000000	14.4245   	6.000000	14.3492   	6.000000	14.3492   	6.000000	14.4167   	6.000000	0.00778646	
6.500000	14.1895   	6.500000	13.8279   	6.500000	13.7426   	6.500000	13.7426   	6.500000	13.8207   	6.500000	0.00725435	
7.000000	13.5564   	7.000000	13.279    	7.000000	13.1865   	7.000000	13.1865   	7.000000	13.2722   	7.000000	0.00679365	
7.500000	12.9812   	7.500000	12.7725   	7.500000	12.6747   	7.500000	12.6747   	7.500000	12.7661   	7.500000	0.00639067	
8.000000	12.4562   	8.000000	12.3038   	8.000000	12.2022   	8.000000	12.2022   	8.000000	12.2977   	8.000000	0.00603504	
8.500000	11.9751   	8.500000	11.8688   	8.500000	11.7645   	8.500000	11.7645   	8.500000	11.8631   	8.500000	0.00571876	
9.000000	11.5327   	9.000000	11.464    	9.000000	11.3579   	9.000000	11.3579   	9.000000	11.4586   	9.000000	0.00543552	
9.500000	11.1243   	9.500000	11.0865   	9.500000	10.9792   	9.500000	10.9792   	9.500000	11.0813   	9.500000	0.00518034	
10.000000	10.7462   	10.000000	10.5938   	10.000000	10.6254   	10.000000	10.6254   	10.000000	10.5889   	10.000000	0.00494916	
11.000000	10.0679   	11.000000	9.9998    	11.000000	9.95486   	11.000000	10.0004   	11.000000	9.99525   	11.000000	0.00454627	
12.000000	9.47681   	12.000000	9.47005   	12.000000	9.3688    	12.000000	9.44823   	12.000000	9.46584   	12.000000	0.00420677	
13.000000	8.95679   	13.000000	8.99505   	13.000000	8.85253   	13.000000	8.95723   	13.000000	8.99114   	13.000000	0.0039166 	
14.000000	8.49559   	14.000000	8.56696   	14.000000	8.39458   	14.000000	8.51799   	14.000000	8.56329   	14.000000	0.00366557	
15.000000	8.08362   	15.000000	8.17928   	15.000000	7.98576   	15.000000	8.12291   	15.000000	8.17584   	15.000000	0.00344617	
16.000000	7.71328   	16.000000	7.82664   	16.000000	7.61859   	16.000000	7.76585   	16.000000	7.82339   	16.000000	0.00325268	
17.000000	7.37846   	17.000000	7.50455   	17.000000	7.28711   	17.000000	7.44175   	17.000000	7.50147   	17.000000	0.0030807 	
18.000000	7.0742    	18.000000	7.20924   	18.000000	6.98665   	18.000000	7.1464    	18.000000	7.20631   	18.000000	0.00292679	
19.000000	6.79643   	19.000000	6.93753   	19.000000	6.71336   	19.000000	6.8763    	19.000000	6.93474   	19.000000	0.00278819	
20.000000	6.54179   	20.000000	6.68671   	20.000000	6.46397   	20.000000	6.62849   	20.000000	6.68405   	20.000000	0.00266271	
21.000000	6.30745   	21.000000	6.45448   	21.000000	6.23552   	21.000000	6.40046   	21.000000	6.45193   	21.000000	0.00254852	
22.000000	6.09103   	22.000000	6.23886   	22.000000	6.02535   	22.000000	6.19006   	22.000000	6.23642   	22.000000	0.00244416	
23.000000	5.89053   	23.000000	6.03813   	23.000000	5.83148   	23.000000	5.99545   	23.000000	6.03578   	23.000000	0.00234838	
24.000000	5.70421   	24.000000	5.8508    	24.000000	5.65236   	24.000000	5.81504   	24.000000	5.84854   	24.000000	0.00226016	
25.000000	5.53061   	25.000000	5.67558   	25.000000	5.48662   	25.000000	5.64744   	25.000000	5.6734    	25.000000	0.00217862	
27.000000	5.21657   	27.000000	5.35707   	27.000000	5.19042   	27.000000	5.34598   	27.000000	5.35504   	27.000000	0.00203271	
29.000000	4.94003   	29.000000	5.07505   	29.000000	4.93354   	29.000000	5.08304   	29.000000	5.07314   	29.000000	0.0019059 	
31.000000	4.69456   	31.000000	4.82359   	31.000000	4.70239   	31.000000	4.83915   	31.000000	4.8218    	31.000000	0.00179461	
33.000000	4.4751    	33.000000	4.59799   	33.000000	4.48964   	33.000000	4.60912   	33.000000	4.59629   	33.000000	0.00169613	
35.000000	4.27768   	35.000000	4.39445   	35.000000	4.29788   	35.000000	4.40204   	35.000000	4.39284   	35.000000	0.00160834	
38.000000	4.01597   	38.000000	4.12391   	38.000000	4.04131   	38.000000	4.12742   	38.000000	4.12242   	38.000000	0.00149311	
41.000000	3.78829   	41.000000	3.88799   	41.000000	3.81708   	41.000000	3.88848   	41.000000	3.88659   	41.000000	0.00139392	
44.000000	3.5883    	44.000000	3.68043   	44.000000	3.619     	44.000000	3.67866   	44.000000	3.67912   	44.000000	0.00130759	
47.000000	3.41115   	47.000000	3.49641   	47.000000	3.44302   	47.000000	3.49293   	47.000000	3.49517   	47.000000	0.00123175	
50.000000	3.25309   	50.000000	3.33213   	50.000000	3.28581   	50.000000	3.32734   	50.000000	3.33096   	50.000000	0.00116456	
55.000000	3.02422   	55.000000	3.09427   	55.000000	3.05668   	55.000000	3.08791   	55.000000	3.0932    	55.000000	0.0010681 	
60.000000	2.82992   	60.000000	2.89247   	60.000000	2.86228   	60.000000	2.88505   	60.000000	2.89148   	60.000000	0.00098696	
65.000000	2.66277   	65.000000	2.71909   	65.000000	2.69429   	65.000000	2.71092   	65.000000	2.71817   	65.000000	0.000917724	
70.000000	2.51736   	70.000000	2.5685    	70.000000	2.54808   	70.000000	2.55978   	70.000000	2.56764   	70.000000	0.000857919	
75.000000	2.38964   	75.000000	2.43647   	75.000000	2.41963   	75.000000	2.42735   	75.000000	2.43567   	75.000000	0.000805718	
80.000000	2.27649   	80.000000	2.31977   	80.000000	2.30603   	80.000000	2.31032   	80.000000	2.31901   	80.000000	0.00075974	
85.000000	2.17553   	85.000000	2.21585   	85.000000	2.20449   	85.000000	2.20614   	85.000000	2.21513   	85.000000	0.000718921	
90.000000	2.08483   	90.000000	2.12272   	90.000000	2.11315   	90.000000	2.1128    	90.000000	2.12204   	90.000000	0.000682428	
95.000000	2.00288   	95.000000	2.03878   	95.000000	2.03078   	95.000000	2.02866   	95.000000	2.03813   	95.000000	0.0006496 	
100.000000	1.92845   	100.000000	1.96272   	100.000000	1.95609   	100.000000	1.95244   	100.000000	1.9621    	100.000000	0.000619904	
105.000000	1.86052   	105.000000	1.89348   	105.000000	1.88808   	105.000000	1.88304   	105.000000	1.89289   	105.000000	0.000592907	
110.000000	1.79827   	110.000000	1.83018   	110.000000	1.82568   	110.000000	1.8196    	110.000000	1.82961   	110.000000	0.000568253	
115.000000	1.74098   	115.000000	1.77207   	115.000000	1.76833   	115.000000	1.76137   	115.000000	1.77153   	115.000000	0.000545644	
120.000000	1.68808   	120.000000	1.71856   	120.000000	1.7155    	120.000000	1.70773   	120.000000	1.71803   	120.000000	0.000524834	
125.000000	1.63907   	125.000000	1.66909   	125.000000	1.66666   	125.000000	1.65816   	125.000000	1.66859   	125.000000	0.000505613	
130.000000	1.59353   	130.000000	1.62325   	130.000000	1.62136   	130.000000	1.61221   	130.000000	1.62276   	130.000000	0.000487804	
135.000000	1.55109   	135.000000	1.58063   	135.000000	1.57908   	135.000000	1.56949   	135.000000	1.58016   	135.000000	0.000471255	
140.000000	1.51144   	140.000000	1.54091   	140.000000	1.53975   	140.000000	1.52968   	140.000000	1.54045   	140.000000	0.000455835	
145.000000	1.4743    	145.000000	1.50379   	145.000000	1.50305   	145.000000	1.49248   	145.000000	1.50335   	145.000000	0.00044143	
150.000000	1.43944   	150.000000	1.46904   	150.000000	1.46854   	150.000000	1.45766   	150.000000	1.46862   	150.000000	0.000427942	
155.000000	1.39023   	155.000000	1.43644   	155.000000	1.43614   	155.000000	1.42497   	155.000000	1.43602   	155.000000	0.000415286	
160.000000	1.36144   	160.000000	1.40578   	160.000000	1.4057    	160.000000	1.39425   	160.000000	1.40537   	160.000000	0.000403386	
165.000000	1.33429   	165.000000	1.3769    	165.000000	1.37702   	165.000000	1.36531   	165.000000	1.37651   	165.000000	0.000392174	
170.000000	1.30862   	170.000000	1.34965   	170.000000	1.34987   	170.000000	1.338     	170.000000	1.34927   	170.000000	0.000381593	
175.000000	1.28433   	175.000000	1.32389   	175.000000	1.32417   	175.000000	1.31219   	175.000000	1.32352   	175.000000	0.000371589	
180.000000	1.26129   	180.000000	1.29951   	180.000000	1.29994   	180.000000	1.28776   	180.000000	1.29915   	180.000000	0.000362117	
185.000000	1.23943   	185.000000	1.27639   	185.000000	1.27696   	185.000000	1.2646    	185.000000	1.27604   	185.000000	0.000353134	
190.000000	1.21864   	190.000000	1.25445   	190.000000	1.25506   	190.000000	1.24262   	190.000000	1.2541    	190.000000	0.000344603	
195.000000	1.19885   	195.000000	1.23359   	195.000000	1.23422   	195.000000	1.22173   	195.000000	1.23325   	195.000000	0.00033649	
200.000000	1.17999   	200.000000	1.21373   	200.000000	1.2144    	200.000000	1.20184   	200.000000	1.2134    	200.000000	0.000328765	
210.000000	1.14481   	210.000000	1.17676   	210.000000	1.17764   	210.000000	1.16483   	210.000000	1.17645   	210.000000	0.00031437	
220.000000	1.11263   	220.000000	1.14305   	220.000000	1.14402   	220.000000	1.13108   	220.000000	1.14275   	220.000000	0.000301229	
230.000000	1.0831    	230.000000	1.11217   	230.000000	1.11321   	230.000000	1.10019   	230.000000	1.11189   	230.000000	0.000289181	
240.000000	1.05589   	240.000000	1.0838    	240.000000	1.08484   	240.000000	1.07181   	240.000000	1.08352   	240.000000	0.000278094	
250.000000	1.03075   	250.000000	1.05764   	250.000000	1.05868   	250.000000	1.04566   	250.000000	1.05737   	250.000000	0.000267857	
260.000000	1.00743   	260.000000	1.03344   	260.000000	1.03454   	260.000000	1.02147   	260.000000	1.03318   	260.000000	0.000258373	
270.000000	0.985759  	270.000000	1.01099   	270.000000	1.01216   	270.000000	0.999049  	270.000000	1.01074   	270.000000	0.000249563	
280.000000	0.96556   	280.000000	0.990109  	280.000000	0.991351  	280.000000	0.978205  	280.000000	0.989868  	280.000000	0.000241355	
290.000000	0.946689  	290.000000	0.970644  	290.000000	0.971867  	290.000000	0.958781  	290.000000	0.97041   	290.000000	0.000233689	
300.000000	0.92902   	300.000000	0.952454  	300.000000	0.953721  	300.000000	0.940641  	300.000000	0.952228  	300.000000	0.000226513	
310.000000	0.912443  	310.000000	0.935422  	310.000000	0.936756  	310.000000	0.923662  	310.000000	0.935202  	310.000000	0.00021978	
320.000000	0.896859  	320.000000	0.919441  	320.000000	0.920771  	320.000000	0.90774   	320.000000	0.919228  	320.000000	0.000213451	
330.000000	0.882184  	330.000000	0.904419  	330.000000	0.905804  	330.000000	0.892781  	330.000000	0.904211  	330.000000	0.000207489	
340.000000	0.868341  	340.000000	0.890274  	340.000000	0.891737  	340.000000	0.878703  	340.000000	0.890072  	340.000000	0.000201863	
350.000000	0.855263  	350.000000	0.876933  	350.000000	0.878417  	350.000000	0.865432  	350.000000	0.876736  	350.000000	0.000196545	
360.000000	0.842888  	360.000000	0.864331  	360.000000	0.865829  	360.000000	0.852902  	360.000000	0.864139  	360.000000	0.00019151	
370.000000	0.831163  	370.000000	0.85241   	370.000000	0.853936  	370.000000	0.841056  	370.000000	0.852223  	370.000000	0.000186736	
380.000000	0.820038  	380.000000	0.841118  	380.000000	0.842665  	380.000000	0.829841  	380.000000	0.840936  	380.000000	0.000182203	
390.000000	0.809471  	390.000000	0.830408  	390.000000	0.83199   	390.000000	0.819208  	390.000000	0.83023   	390.000000	0.000177892	
400.000000	0.799421  	400.000000	0.820237  	400.000000	0.821896  	400.000000	0.809116  	400.000000	0.820063  	400.000000	0.000173789	
410.000000	0.789852  	410.000000	0.810568  	410.000000	0.812309  	410.000000	0.799526  	410.000000	0.810398  	410.000000	0.000169877	
420.000000	0.780732  	420.000000	0.801365  	420.000000	0.803153  	420.000000	0.790403  	420.000000	0.801199  	420.000000	0.000166144	
430.000000	0.772031  	430.000000	0.792597  	430.000000	0.794414  	430.000000	0.781714  	430.000000	0.792434  	430.000000	0.000162577	
440.000000	0.763721  	440.000000	0.784235  	440.000000	0.786031  	440.000000	0.773376  	440.000000	0.784076  	440.000000	0.000159165	
450.000000	0.755779  	450.000000	0.776253  	450.000000	0.778002  	450.000000	0.765385  	450.000000	0.776097  	450.000000	0.0001559 	
460.000000	0.748181  	460.000000	0.768627  	460.000000	0.770333  	460.000000	0.757754  	460.000000	0.768474  	460.000000	0.00015277	
470.000000	0.740907  	470.000000	0.761334  	470.000000	0.763     	470.000000	0.750459  	470.000000	0.761184  	470.000000	0.000149768	
480.000000	0.733937  	480.000000	0.754355  	480.000000	0.755985  	480.000000	0.743481  	480.000000	0.754208  	480.000000	0.000146886	
490.000000	0.727253  	490.000000	0.747671  	490.000000	0.749268  	490.000000	0.736799  	490.000000	0.747527  	490.000000	0.000144116	
500.000000	0.72084   	500.000000	0.741264  	500.000000	0.742831  	500.000000	0.730398  	500.000000	0.741123  	500.000000	0.000141453	
520.000000	0.708766  	520.000000	0.729222  	520.000000	0.730737  	520.000000	0.71837   	520.000000	0.729085  	520.000000	0.000136422	
540.000000	0.697606  	540.000000	0.718114  	540.000000	0.719585  	540.000000	0.707281  	540.000000	0.717982  	540.000000	0.000131749	
560.000000	0.687267  	560.000000	0.707843  	560.000000	0.709277  	560.000000	0.697034  	560.000000	0.707716  	560.000000	0.000127396	
580.000000	0.677669  	580.000000	0.698326  	580.000000	0.699728  	580.000000	0.68754   	580.000000	0.698203  	580.000000	0.000123332	
600.000000	0.668741  	600.000000	0.689489  	600.000000	0.690858  	600.000000	0.678727  	600.000000	0.689369  	600.000000	0.000119527	
620.000000	0.660423  	620.000000	0.681267  	620.000000	0.682609  	620.000000	0.670528  	620.000000	0.681151  	620.000000	0.000115959	
640.000000	0.652659  	640.000000	0.673605  	640.000000	0.674926  	640.000000	0.662887  	640.000000	0.673492  	640.000000	0.000112604	
660.000000	0.645402  	660.000000	0.666452  	660.000000	0.667734  	660.000000	0.655752  	660.000000	0.666343  	660.000000	0.000109445	
680.000000	0.63861   	680.000000	0.659766  	680.000000	0.660979  	680.000000	0.64908   	680.000000	0.65966   	680.000000	0.000106464	
700.000000	0.632245  	700.000000	0.653507  	700.000000	0.654658  	700.000000	0.642831  	700.000000	0.653403  	700.000000	0.000103647	
720.000000	0.626273  	720.000000	0.647641  	720.000000	0.648755  	720.000000	0.636969  	720.000000	0.64754   	720.000000	0.000100981	
740.000000	0.620664  	740.000000	0.642135  	740.000000	0.643217  	740.000000	0.631464  	740.000000	0.642037  	740.000000	9.84524e-05	
760.000000	0.615392  	760.000000	0.636964  	760.000000	0.638003  	760.000000	0.626286  	760.000000	0.636868  	760.000000	9.6052e-05	
780.000000	0.610431  	780.000000	0.632101  	780.000000	0.633093  	780.000000	0.621411  	780.000000	0.632007  	780.000000	9.37699e-05	
800.000000	0.605759  	800.000000	0.627524  	800.000000	0.628468  	800.000000	0.616816  	800.000000	0.627432  	800.000000	9.15975e-05	
820.000000	0.601357  	820.000000	0.623212  	820.000000	0.624103  	820.000000	0.612479  	820.000000	0.623123  	820.000000	8.95268e-05	
840.000000	0.597206  	840.000000	0.619148  	840.000000	0.619967  	840.000000	0.608383  	840.000000	0.61906   	840.000000	8.7551e-05	
860.000000	0.59329   	860.000000	0.615314  	860.000000	0.616042  	860.000000	0.60451   	860.000000	0.615228  	860.000000	8.56634e-05	
880.000000	0.589594  	880.000000	0.611694  	880.000000	0.612324  	880.000000	0.600845  	880.000000	0.611611  	880.000000	8.38583e-05	
900.000000	0.586104  	900.000000	0.608276  	900.000000	0.608809  	900.000000	0.597373  	900.000000	0.608194  	900.000000	8.21304e-05	
920.000000	0.582807  	920.000000	0.605046  	920.000000	0.605488  	920.000000	0.594082  	920.000000	0.604965  	920.000000	8.04746e-05	
940.000000	0.579691  	940.000000	0.601991  	940.000000	0.602344  	940.000000	0.59096   	940.000000	0.601913  	940.000000	7.88866e-05	
960.000000	0.576747  	960.000000	0.599103  	960.000000	0.599362  	960.000000	0.587996  	960.000000	0.599026  	960.000000	7.73621e-05	
980.000000	0.573963  	980.000000	0.59637   	980.000000	0.596529  	980.000000	0.58518   	980.000000	0.596294  	980.000000	7.58975e-05	
1000.000000	0.571332  	1000.000000	0.593784  	1000.000000	0.593832  	1000.000000	0.582504  	1000.000000	0.593709  	1000.000000	7.44892e-05	
1020.000000	0.568844  	1020.000000	0.591335  	1020.000000	0.591261  	1020.000000	0.579957  	1020.000000	0.591262  	1020.000000	7.3134e-05	
1040.000000	0.566492  	1040.000000	0.589017  	1040.000000	0.588807  	1040.000000	0.577534  	1040.000000	0.588945  	1040.000000	7.1829e-05	
1060.000000	0.564268  	1060.000000	0.586822  	1060.000000	0.586464  	1060.000000	0.575226  	1060.000000	0.586752  	1060.000000	7.05713e-05	
1080.000000	0.562167  	1080.000000	0.584743  	1080.000000	0.584229  	1080.000000	0.573027  	1080.000000	0.584674  	1080.000000	6.93583e-05	
1100.000000	0.560181  	1100.000000	0.582775  	1100.000000	0.582101  	1100.000000	0.570931  	1100.000000	0.582707  	1100.000000	6.81878e-05	
1120.000000	0.558305  	1120.000000	0.580911  	1120.000000	0.580075  	1120.000000	0.568932  	1120.000000	0.580844  	1120.000000	6.70575e-05	
1140.000000	0.556533  	1140.000000	0.579145  	1140.000000	0.578146  	1140.000000	0.567024  	1140.000000	0.579079  	1140.000000	6.59653e-05	
1160.000000	0.554861  	1160.000000	0.577474  	1160.000000	0.576309  	1160.000000	0.565203  	1160.000000	0.577409  	1160.000000	6.49094e-05	
1180.000000	0.553283  	1180.000000	0.575892  	1180.000000	0.574556  	1180.000000	0.563464  	1180.000000	0.575828  	1180.000000	6.38879e-05	
1200.000000	0.551796  	1200.000000	0.574395  	1200.000000	0.572883  	1200.000000	0.561803  	1200.000000	0.574332  	1200.000000	6.28991e-05	
1220.000000	0.550395  	1220.000000	0.572978  	1220.000000	0.571285  	1220.000000	0.560215  	1220.000000	0.572916  	1220.000000	6.19415e-05	
1240.000000	0.549076  	1240.000000	0.571639  	1240.000000	0.569756  	1240.000000	0.558697  	1240.000000	0.571578  	1240.000000	6.10136e-05	
1260.000000	0.547835  	1260.000000	0.570373  	1260.000000	0.568292  	1260.000000	0.557246  	1260.000000	0.570313  	1260.000000	6.01141e-05	
1280.000000	0.54667   	1280.000000	0.569177  	1280.000000	0.566889  	1280.000000	0.555857  	1280.000000	0.569117  	1280.000000	5.92416e-05	
1300.000000	0.545576  	1300.000000	0.568047  	1300.000000	0.565545  	1300.000000	0.554529  	1300.000000	0.567989  	1300.000000	5.83949e-05	
1320.000000	0.544552  	1320.000000	0.566982  	1320.000000	0.564255  	1320.000000	0.553257  	1320.000000	0.566924  	1320.000000	5.75729e-05	
1340.000000	0.543593  	1340.000000	0.565977  	1340.000000	0.563016  	1340.000000	0.55204   	1340.000000	0.56592   	1340.000000	5.67745e-05	
1360.000000	0.542698  	1360.000000	0.565031  	1360.000000	0.561829  	1360.000000	0.550874  	1360.000000	0.564975  	1360.000000	5.59988e-05	
1380.000000	0.541863  	1380.000000	0.564141  	1380.000000	0.56069   	1380.000000	0.549758  	1380.000000	0.564085  	1380.000000	5.52446e-05	
1400.000000	0.541087  	1400.000000	0.563304  	1400.000000	0.5596    	1400.000000	0.548689  	1400.000000	0.563249  	1400.000000	5.45112e-05	
1420.000000	0.540366  	1420.000000	0.562518  	1420.000000	0.558557  	1420.000000	0.547664  	1420.000000	0.562464  	1420.000000	5.37976e-05	
1440.000000	0.5397    	1440.000000	0.561782  	1440.000000	0.557559  	1440.000000	0.546683  	1440.000000	0.561729  	1440.000000	5.31032e-05	
1460.000000	0.539085  	1460.000000	0.561092  	1460.000000	0.556606  	1460.000000	0.545742  	1460.000000	0.56104   	1460.000000	5.2427e-05	
1480.000000	0.538521  	1480.000000	0.560448  	1480.000000	0.555693  	1480.000000	0.54484   	1480.000000	0.560397  	1480.000000	5.17684e-05	
1500.000000	0.538004  	1500.000000	0.559848  	1500.000000	0.55482   	1500.000000	0.543976  	1500.000000	0.559797  	1500.000000	5.11268e-05	
1520.000000	0.537534  	1520.000000	0.559289  	1520.000000	0.553984  	1520.000000	0.543147  	1520.000000	0.559239  	1520.000000	5.05014e-05	
1540.000000	0.537108  	1540.000000	0.558771  	1540.000000	0.553182  	1540.000000	0.542353  	1540.000000	0.558721  	1540.000000	4.98916e-05	
1560.000000	0.536725  	1560.000000	0.558291  	1560.000000	0.552412  	1560.000000	0.541591  	1560.000000	0.558242  	1560.000000	4.92968e-05	
1580.000000	0.536384  	1580.000000	0.557848  	1580.000000	0.551672  	1580.000000	0.540861  	1580.000000	0.5578    	1580.000000	4.87166e-05	
1600.000000	0.536083  	1600.000000	0.557442  	1600.000000	0.550962  	1600.000000	0.54016   	1600.000000	0.557394  	1600.000000	4.81503e-05	
1620.000000	0.535821  	1620.000000	0.557069  	1620.000000	0.550278  	1620.000000	0.539489  	1620.000000	0.557022  	1620.000000	4.75975e-05	
1640.000000	0.535596  	1640.000000	0.556731  	1640.000000	0.549621  	1640.000000	0.538845  	1640.000000	0.556683  	1640.000000	4.70576e-05	
1660.000000	0.535407  	1660.000000	0.556424  	1660.000000	0.54899   	1660.000000	0.538228  	1660.000000	0.556377  	1660.000000	4.65303e-05	
1680.000000	0.535254  	1680.000000	0.556148  	1680.000000	0.548384  	1680.000000	0.537636  	1680.000000	0.556102  	1680.000000	4.60151e-05	
1700.000000	0.535134  	1700.000000	0.555902  	1700.000000	0.547803  	1700.000000	0.537069  	1700.000000	0.555856  	1700.000000	4.55115e-05	
1750.000000	0.534977  	1750.000000	0.555411  	1750.000000	0.546452  	1750.000000	0.535751  	1750.000000	0.555367  	1750.000000	4.43011e-05	
1800.000000	0.535009  	1800.000000	0.555085  	1800.000000	0.545241  	1800.000000	0.534566  	1800.000000	0.555042  	1800.000000	4.31555e-05	
1850.000000	0.535217  	1850.000000	0.554912  	1850.000000	0.544159  	1850.000000	0.533502  	1850.000000	0.55487   	1850.000000	4.20695e-05	
1900.000000	0.535588  	1900.000000	0.554879  	1900.000000	0.543191  	1900.000000	0.532548  	1900.000000	0.554838  	1900.000000	4.10386e-05	
1950.000000	0.536112  	1950.000000	0.554976  	1950.000000	0.542325  	1950.000000	0.531694  	1950.000000	0.554936  	1950.000000	4.00586e-05	
2000.000000	0.536777  	2000.000000	0.555192  	2000.000000	0.54155   	2000.000000	0.530931  	2000.000000	0.555153  	2000.000000	3.91259e-05	
2100.000000	0.538496  	2100.000000	0.55595   	2100.000000	0.540238  	2100.000000	0.529649  	2100.000000	0.555913  	2100.000000	3.73889e-05	
2200.000000	0.540681  	2200.000000	0.557093  	2200.000000	0.5392    	2200.000000	0.528647  	2200.000000	0.557057  	2200.000000	3.58041e-05	
2300.000000	0.543278  	2300.000000	0.55857   	2300.000000	0.538398  	2300.000000	0.527881  	2300.000000	0.558536  	2300.000000	3.43523e-05	
2400.000000	0.546243  	2400.000000	0.56034   	2400.000000	0.5378    	2400.000000	0.527316  	2400.000000	0.560307  	2400.000000	3.30173e-05	
2500.000000	0.549537  	2500.000000	0.562368  	2500.000000	0.537378  	2500.000000	0.526922  	2500.000000	0.562336  	2500.000000	3.17852e-05	
2600.000000	0.553128  	2600.000000	0.564622  	2600.000000	0.537106  	2600.000000	0.526674  	2600.000000	0.564592  	2600.000000	3.06446e-05	
2700.000000	0.556988  	2700.000000	0.567079  	2700.000000	0.536962  	2700.000000	0.52655   	2700.000000	0.567049  	2700.000000	2.95855e-05	
2800.000000	0.561093  	2800.000000	0.569715  	2800.000000	0.536929  	2800.000000	0.526533  	2800.000000	0.569687  	2800.000000	2.85994e-05	
2900.000000	0.565422  	2900.000000	0.572513  	2900.000000	0.536991  	2900.000000	0.526609  	2900.000000	0.572485  	2900.000000	2.76788e-05	
3000.000000	0.569958  	3000.000000	0.575455  	3000.000000	0.537134  	3000.000000	0.526765  	3000.000000	0.575428  	3000.000000	2.68176e-05	
3200.000000	0.579585  	3200.000000	0.581718  	3200.000000	0.537622  	3200.000000	0.527273  	3200.000000	0.581693  	3200.000000	2.52509e-05	
3400.000000	0.589868  	3400.000000	0.58841   	3400.000000	0.538319  	3400.000000	0.527988  	3400.000000	0.588386  	3400.000000	2.38624e-05	
3600.000000	0.600726  	3600.000000	0.595457  	3600.000000	0.539172  	3600.000000	0.528858  	3600.000000	0.595434  	3600.000000	2.26229e-05	
3800.000000	0.612091  	3800.000000	0.6028    	3800.000000	0.540141  	3800.000000	0.529844  	3800.000000	0.602778  	3800.000000	2.15094e-05	
4000.000000	0.623911  	4000.000000	0.610393  	4000.000000	0.541196  	4000.000000	0.530917  	4000.000000	0.610373  	4000.000000	2.05036e-05	
4200.000000	0.636142  	4200.000000	0.618199  	4200.000000	0.542315  	4200.000000	0.532052  	4200.000000	0.618179  	4200.000000	1.95903e-05	
4400.000000	0.648748  	4400.000000	0.626186  	4400.000000	0.54348   	4400.000000	0.533234  	4400.000000	0.626168  	4400.000000	1.87572e-05	
4600.000000	0.6617    	4600.000000	0.63433   	4600.000000	0.544676  	4600.000000	0.534446  	4600.000000	0.634312  	4600.000000	1.79941e-05	
4800.000000	0.674972  	4800.000000	0.642609  	4800.000000	0.545894  	4800.000000	0.53568   	4800.000000	0.642591  	4800.000000	1.72925e-05	
5000.000000	0.688543  	5000.000000	0.651005  	5000.000000	0.547125  	5000.000000	0.536926  	5000.000000	0.650988  	5000.000000	1.66451e-05	
5250.000000	0.705901  	5250.000000	0.661642  	5250.000000	0.548672  	5250.000000	0.53849   	5250.000000	0.661626  	5250.000000	1.59029e-05	
5500.000000	0.723668  	5500.000000	0.672415  	5500.000000	0.550218  	5500.000000	0.540053  	5500.000000	0.6724    	5500.000000	1.5226e-05	
6000.000000	0.76034   	6000.000000	0.694292  	6000.000000	0.553282  	6000.000000	0.543147  	6000.000000	0.694278  	6000.000000	1.40359e-05	
6500.000000	0.798404  	6500.000000	0.716511  	6500.000000	0.55628   	6500.000000	0.546169  	6500.000000	0.716498  	6500.000000	1.3023e-05	
7000.000000	0.837752  	7000.000000	0.738985  	7000.000000	0.559191  	7000.000000	0.549099  	7000.000000	0.738973  	7000.000000	1.21503e-05	
7500.000000	0.878299  	7500.000000	0.761652  	7500.000000	0.562004  	7500.000000	0.551926  	7500.000000	0.76164   	7500.000000	1.13902e-05	
8000.000000	0.919987  	8000.000000	0.784464  	8000.000000	0.564681  	8000.000000	0.554647  	8000.000000	0.784453  	8000.000000	1.07221e-05	
8500.000000	0.962766  	8500.000000	0.807386  	8500.000000	0.567266  	8500.000000	0.557263  	8500.000000	0.807376  	8500.000000	1.01301e-05	
9000.000000	1.0066    	9000.000000	0.830392  	9000.000000	0.569774  	9000.000000	0.559777  	9000.000000	0.830382  	9000.000000	9.60179e-06	
9500.000000	1.05146   	9500.000000	0.853461  	9500.000000	0.572178  	9500.000000	0.562193  	9500.000000	0.853452  	9500.000000	9.12733e-06	
10000.000000	1.09732   	10000.000000	0.876576  	10000.000000	0.574472  	10000.000000	0.564514  	10000.000000	0.876568  	10000.000000	8.6988e-06	
11000.000000	1.19199   	11000.000000	0.922899  	11000.000000	0.578786  	11000.000000	0.568894  	11000.000000	0.922891  	11000.000000	7.95504e-06	
12000.000000	1.29048   	12000.000000	0.969285  	12000.000000	0.582794  	12000.000000	0.572954  	12000.000000	0.969278  	12000.000000	7.33148e-06	
13000.000000	1.39273   	13000.000000	1.01569   	13000.000000	0.586518  	13000.000000	0.576731  	13000.000000	1.01568   	13000.000000	6.80094e-06	
14000.000000	1.49868   	14000.000000	1.06207   	14000.000000	0.589984  	14000.000000	0.580255  	14000.000000	1.06207   	14000.000000	6.34389e-06	
15000.000000	1.60831   	15000.000000	1.10842   	15000.000000	0.593219  	15000.000000	0.583554  	15000.000000	1.10842   	15000.000000	5.94593e-06	
16000.000000	1.72159   	16000.000000	1.15472   	16000.000000	0.596249  	16000.000000	0.586652  	16000.000000	1.15471   	16000.000000	5.59621e-06	
17000.000000	1.83851   	17000.000000	1.20095   	17000.000000	0.599097  	17000.000000	0.58957   	17000.000000	1.20095   	17000.000000	5.28638e-06	
18000.000000	1.95907   	18000.000000	1.24712   	18000.000000	0.601784  	18000.000000	0.592326  	18000.000000	1.24712   	18000.000000	5.00992e-06	
19000.000000	2.08325   	19000.000000	1.29322   	19000.000000	0.604325  	19000.000000	0.594934  	19000.000000	1.29321   	19000.000000	4.76169e-06	
20000.000000	2.21107   	20000.000000	1.33924   	20000.000000	0.606736  	20000.000000	0.59741   	20000.000000	1.33924   	20000.000000	4.53753e-06	
21000.000000	2.34253   	21000.000000	1.38519   	21000.000000	0.609017  	21000.000000	0.599764  	21000.000000	1.38518   	21000.000000	4.33407e-06	
22000.000000	2.47764   	22000.000000	1.43106   	22000.000000	0.611164  	22000.000000	0.602008  	22000.000000	1.43106   	22000.000000	4.14854e-06	
23000.000000	2.6164    	23000.000000	1.47686   	23000.000000	0.613222  	23000.000000	0.60415   	23000.000000	1.47685   	23000.000000	3.97866e-06	
24000.000000	2.75883   	24000.000000	1.52258   	24000.000000	0.615193  	24000.000000	0.606199  	24000.000000	1.52257   	24000.000000	3.82251e-06	
25000.000000	2.90494   	25000.000000	1.56822   	25000.000000	0.617065  	25000.000000	0.608162  	25000.000000	1.56822   	25000.000000	3.67847e-06	
26000.000000	3.05475   	26000.000000	1.6138    	26000.000000	0.618853  	26000.000000	0.610046  	26000.000000	1.61379   	26000.000000	3.54518e-06	
27000.000000	3.20826   	27000.000000	1.6593    	27000.000000	0.620568  	27000.000000	0.611856  	27000.000000	1.6593    	27000.000000	3.42147e-06	
28000.000000	3.36549   	28000.000000	1.70473   	28000.000000	0.622211  	28000.000000	0.613598  	28000.000000	1.70473   	28000.000000	3.30632e-06	
29000.000000	3.52647   	29000.000000	1.7501    	29000.000000	0.623783  	29000.000000	0.615276  	29000.000000	1.75009   	29000.000000	3.19888e-06	
30000.000000	3.6912    	30000.000000	1.79539   	30000.000000	0.625291  	30000.000000	0.616894  	30000.000000	1.79539   	30000.000000	3.09838e-06	
32000.000000	4.03199   	32000.000000	1.88578   	32000.000000	0.628137  	32000.000000	0.619969  	32000.000000	1.88578   	32000.000000	2.91568e-06	
34000.000000	4.38802   	34000.000000	1.97592   	34000.000000	0.630783  	34000.000000	0.622847  	34000.000000	1.97592   	34000.000000	2.75385e-06	
36000.000000	4.75944   	36000.000000	2.06582   	36000.000000	0.633239  	36000.000000	0.625553  	36000.000000	2.06582   	36000.000000	2.60948e-06	
38000.000000	5.14639   	38000.000000	2.15549   	38000.000000	0.63552   	38000.000000	0.628104  	38000.000000	2.15549   	38000.000000	2.47986e-06	
40000.000000	5.54903   	40000.000000	2.24493   	40000.000000	0.637651  	40000.000000	0.630517  	40000.000000	2.24493   	40000.000000	2.36283e-06	
42000.000000	5.96754   	42000.000000	2.33417   	42000.000000	0.639654  	42000.000000	0.632806  	42000.000000	2.33417   	42000.000000	2.25662e-06	
44000.000000	6.40206   	44000.000000	2.4232    	44000.000000	0.641548  	44000.000000	0.634982  	44000.000000	2.42319   	44000.000000	2.15978e-06	
46000.000000	6.85278   	46000.000000	2.51203   	46000.000000	0.643348  	46000.000000	0.637056  	46000.000000	2.51203   	46000.000000	2.07112e-06	
48000.000000	7.31985   	48000.000000	2.60068   	48000.000000	0.645056  	48000.000000	0.639036  	48000.000000	2.60068   	48000.000000	1.98964e-06	
50000.000000	7.80345   	50000.000000	2.68915   	50000.000000	0.646664  	50000.000000	0.640931  	50000.000000	2.68914   	50000.000000	1.91449e-06	
