Energy (MeV/u)1	0 - [He-base] F.Hubert et al, AD&ND Tables 46(1990)1	Energy (MeV/u)2	1 - [H -base] J.F.Ziegler et al, Pergamon Press, NY (low energy)	Energy (MeV/u)3	2 - ATIMA 1.2  LS-theory (recommended for high energy)	Energy (MeV/u)4	3 - ATIMA 1.2  without LS-correction	Energy (MeV/u)5	4 - electrical component of [1] - J.F.Ziegler et al	Energy (MeV/u)6	5 - nuclear component of [1] - J.F.Ziegler et al	
0.001000	12.755    	0.001000	12.8715   	0.001000	11.0991   	0.001000	11.0991   	0.001000	3.16054   	0.001000	9.71099   	
0.002000	13.1901   	0.002000	13.3991   	0.002000	11.2633   	0.002000	11.2633   	0.002000	4.09871   	0.002000	9.3004    	
0.005000	13.0959   	0.005000	13.3933   	0.005000	10.7175   	0.005000	10.7175   	0.005000	5.77929   	0.005000	7.61401   	
0.008000	13.0191   	0.008000	13.3328   	0.008000	10.3652   	0.008000	10.3652   	0.008000	6.89318   	0.008000	6.43962   	
0.010000	13.0419   	0.010000	13.3567   	0.010000	10.2507   	0.010000	10.2507   	0.010000	7.49482   	0.010000	5.86184   	
0.015000	13.2518   	0.015000	13.5602   	0.015000	10.2098   	0.015000	10.2098   	0.015000	8.7256    	0.015000	4.83461   	
0.020000	13.5712   	0.020000	13.8713   	0.020000	10.3585   	0.020000	10.3585   	0.020000	9.71958   	0.020000	4.15172   	
0.025000	13.9348   	0.025000	14.2276   	0.025000	10.5991   	0.025000	10.5991   	0.025000	10.5679   	0.025000	3.65973   	
0.030000	14.3145   	0.030000	14.6014   	0.030000	10.8873   	0.030000	10.8873   	0.030000	11.3157   	0.030000	3.28566   	
0.035000	14.697    	0.035000	14.9792   	0.035000	11.2008   	0.035000	11.2008   	0.035000	11.9891   	0.035000	2.99006   	
0.040000	15.0758   	0.040000	15.3544   	0.040000	11.5272   	0.040000	11.5272   	0.040000	12.6047   	0.040000	2.74964   	
0.045000	15.4478   	0.045000	15.7236   	0.045000	11.8597   	0.045000	11.8597   	0.045000	13.1739   	0.045000	2.54965   	
0.050000	15.8114   	0.050000	16.0851   	0.050000	12.1939   	0.050000	12.1939   	0.050000	13.7049   	0.050000	2.38027   	
0.055000	16.1661   	0.055000	16.4382   	0.055000	12.5273   	0.055000	12.5273   	0.055000	14.2036   	0.055000	2.23468   	
0.060000	16.5116   	0.060000	16.7827   	0.060000	12.8583   	0.060000	12.8583   	0.060000	14.6747   	0.060000	2.108     	
0.070000	17.6786   	0.070000	17.9748   	0.070000	13.9975   	0.070000	13.9975   	0.070000	16.077    	0.070000	1.8978    	
0.080000	19.7101   	0.080000	20.0449   	0.080000	15.9978   	0.080000	15.9978   	0.080000	18.3149   	0.080000	1.72992   	
0.090000	21.5781   	0.090000	22.0217   	0.090000	17.9628   	0.090000	17.9628   	0.090000	20.4293   	0.090000	1.59233   	
0.100000	23.3219   	0.100000	23.8711   	0.100000	19.8459   	0.100000	19.8459   	0.100000	22.4075   	0.100000	1.46362   	
0.120000	25.8758   	0.120000	27.2255   	0.120000	23.3632   	0.120000	23.3632   	0.120000	25.9422   	0.120000	1.28332   	
0.140000	28.0655   	0.140000	30.0882   	0.140000	26.465    	0.140000	26.465    	0.140000	28.9421   	0.140000	1.14611   	
0.160000	30.065    	0.160000	32.5128   	0.160000	29.163    	0.160000	29.163    	0.160000	31.475    	0.160000	1.0378    	
0.180000	31.9762   	0.180000	34.5716   	0.180000	31.504    	0.180000	31.504    	0.180000	33.6217   	0.180000	0.949894  	
0.200000	33.851    	0.200000	36.3361   	0.200000	33.545    	0.200000	33.545    	0.200000	35.4591   	0.200000	0.876969  	
0.250000	37.4092   	0.250000	39.9711   	0.250000	37.6755   	0.250000	37.6755   	0.250000	39.2321   	0.250000	0.73896   	
0.300000	40.7155   	0.300000	42.8025   	0.300000	40.8921   	0.300000	40.8921   	0.300000	42.1613   	0.300000	0.641255  	
0.350000	43.728    	0.350000	45.1469   	0.350000	43.5571   	0.350000	43.5571   	0.350000	44.5788   	0.350000	0.568094  	
0.400000	46.4464   	0.400000	47.1833   	0.400000	45.8589   	0.400000	45.8589   	0.400000	46.6722   	0.400000	0.511064  	
0.450000	48.8844   	0.450000	49.0003   	0.450000	47.8965   	0.450000	47.8965   	0.450000	48.5351   	0.450000	0.465242  	
0.500000	51.5194   	0.500000	51.0871   	0.500000	49.7251   	0.500000	49.7251   	0.500000	50.6595   	0.500000	0.427544  	
0.600000	54.9356   	0.600000	55.5457   	0.600000	52.8807   	0.600000	52.8807   	0.600000	55.1767   	0.600000	0.369014  	
0.700000	56.9223   	0.700000	59.1404   	0.700000	55.4963   	0.700000	55.4963   	0.700000	58.8149   	0.700000	0.325521  	
0.800000	60.1661   	0.800000	62.0664   	0.800000	58.0192   	0.800000	58.0192   	0.800000	61.7746   	0.800000	0.291822  	
0.900000	62.7788   	0.900000	64.461    	0.900000	60.5075   	0.900000	60.5075   	0.900000	64.1962   	0.900000	0.264878  	
1.000000	64.6133   	1.000000	66.1435   	1.000000	62.5622   	1.000000	62.5622   	1.000000	65.9007   	1.000000	0.242804  	
1.250000	67.4868   	1.250000	68.9945   	1.250000	66.282    	1.250000	66.282    	1.250000	68.7928   	1.250000	0.20172   	
1.500000	69.0473   	1.500000	70.6927   	1.500000	68.5933   	1.500000	68.5933   	1.500000	70.5195   	1.500000	0.173191  	
1.750000	69.4966   	1.750000	71.34     	1.750000	69.9877   	1.750000	69.9877   	1.750000	71.1879   	1.750000	0.152139  	
2.000000	69.2176   	2.000000	71.2754   	2.000000	70.7647   	2.000000	70.7647   	2.000000	71.1395   	2.000000	0.135918  	
2.250000	68.8629   	2.250000	71.0322   	2.250000	71.115    	2.250000	71.115    	2.250000	70.9092   	2.250000	0.123008  	
2.500000	101.77    	2.500000	70.6613   	2.500000	71.1642   	2.500000	71.1642   	2.500000	70.5488   	2.500000	0.112473  	
3.000000	98.7303   	3.000000	69.687    	3.000000	70.6757   	3.000000	70.6757   	3.000000	69.5908   	3.000000	0.0962726 	
3.500000	95.3501   	3.500000	68.5271   	3.500000	69.7221   	3.500000	69.7221   	3.500000	68.4427   	3.500000	0.0843641 	
4.000000	91.937    	4.000000	67.2548   	4.000000	68.5236   	4.000000	68.5236   	4.000000	67.1796   	4.000000	0.0752168 	
4.500000	88.6274   	4.500000	65.9338   	4.500000	67.2016   	4.500000	67.2016   	4.500000	65.8659   	4.500000	0.0679556 	
5.000000	85.4795   	5.000000	64.6014   	5.000000	65.6987   	5.000000	65.6987   	5.000000	64.5393   	5.000000	0.0620426 	
5.500000	82.5137   	5.500000	63.2797   	5.500000	64.1434   	5.500000	64.1434   	5.500000	63.2226   	5.500000	0.0571282 	
6.000000	79.7324   	6.000000	61.9822   	6.000000	62.6514   	6.000000	62.6514   	6.000000	61.9292   	6.000000	0.0529749 	
6.500000	77.1292   	6.500000	60.7092   	6.500000	61.2228   	6.500000	61.2228   	6.500000	60.6597   	6.500000	0.0494157 	
7.000000	74.6937   	7.000000	59.4735   	7.000000	59.8558   	7.000000	59.8558   	7.000000	59.4272   	7.000000	0.0463294 	
7.500000	72.4139   	7.500000	58.2795   	7.500000	58.548    	7.500000	58.548    	7.500000	58.2359   	7.500000	0.0436261 	
8.000000	70.2777   	8.000000	57.1272   	8.000000	57.2967   	8.000000	57.2967   	8.000000	57.0859   	8.000000	0.0412374 	
8.500000	68.2736   	8.500000	56.001    	8.500000	56.099    	8.500000	56.099    	8.500000	55.9619   	8.500000	0.0391104 	
9.000000	66.3905   	9.000000	54.9215   	9.000000	54.9519   	9.000000	54.9519   	9.000000	54.8843   	9.000000	0.0372036 	
9.500000	64.6184   	9.500000	53.8866   	9.500000	53.8525   	9.500000	53.8525   	9.500000	53.8511   	9.500000	0.0354839 	
10.000000	62.9482   	10.000000	52.2043   	10.000000	52.7982   	10.000000	52.7982   	10.000000	52.1704   	10.000000	0.0339245 	
11.000000	59.8807   	11.000000	50.5491   	11.000000	50.3605   	11.000000	50.9856   	11.000000	50.5179   	11.000000	0.0312034 	
12.000000	57.1306   	12.000000	48.9825   	12.000000	48.1563   	12.000000	49.3071   	12.000000	48.9536   	12.000000	0.0289068 	
13.000000	54.6509   	13.000000	47.5011   	13.000000	46.156    	13.000000	47.7511   	13.000000	47.4742   	13.000000	0.0269411 	
14.000000	52.4033   	14.000000	46.1029   	14.000000	44.3341   	14.000000	46.3066   	14.000000	46.0777   	14.000000	0.0252384 	
15.000000	50.3561   	15.000000	44.7838   	15.000000	42.6684   	15.000000	44.9631   	15.000000	44.7601   	15.000000	0.0237485 	
16.000000	48.4831   	16.000000	43.5392   	16.000000	41.1409   	16.000000	43.7115   	16.000000	43.5168   	16.000000	0.0224332 	
17.000000	46.7625   	17.000000	42.3642   	17.000000	39.7369   	17.000000	42.5435   	17.000000	42.3429   	17.000000	0.0212629 	
18.000000	45.1761   	18.000000	41.2539   	18.000000	38.4438   	18.000000	41.4515   	18.000000	41.2337   	18.000000	0.0202147 	
19.000000	43.7082   	19.000000	40.2037   	19.000000	37.2493   	19.000000	40.4291   	19.000000	40.1844   	19.000000	0.0192699 	
20.000000	42.3458   	20.000000	39.2092   	20.000000	36.1416   	20.000000	39.4702   	20.000000	39.1908   	20.000000	0.0184138 	
21.000000	41.0775   	21.000000	38.2663   	21.000000	35.1131   	21.000000	38.5696   	21.000000	38.2487   	21.000000	0.0176343 	
22.000000	39.8937   	22.000000	37.3714   	22.000000	34.1587   	22.000000	37.7227   	22.000000	37.3545   	22.000000	0.0169213 	
23.000000	38.7859   	23.000000	36.521    	23.000000	33.2716   	23.000000	36.9252   	23.000000	36.5048   	23.000000	0.0162665 	
24.000000	37.7469   	24.000000	35.7119   	24.000000	32.4444   	24.000000	36.1734   	24.000000	35.6963   	24.000000	0.015663  	
25.000000	36.7702   	25.000000	34.9413   	25.000000	31.6715   	25.000000	35.4638   	25.000000	34.9262   	25.000000	0.0151049 	
27.000000	34.9819   	27.000000	33.505    	27.000000	30.273    	27.000000	34.1593   	27.000000	33.4909   	27.000000	0.0141054 	
29.000000	33.3838   	29.000000	32.1936   	29.000000	29.0472   	29.000000	32.9906   	29.000000	32.1804   	29.000000	0.0132358 	
31.000000	31.946    	31.000000	30.9915   	31.000000	28.0373   	31.000000	31.8197   	31.000000	30.979    	31.000000	0.012472  	
33.000000	30.6451   	33.000000	29.8855   	33.000000	27.1758   	33.000000	30.635    	33.000000	29.8737   	33.000000	0.0117955 	
35.000000	29.4617   	35.000000	28.8645   	35.000000	26.3708   	35.000000	29.5449   	35.000000	28.8533   	35.000000	0.0111919 	
38.000000	27.8736   	38.000000	27.472    	38.000000	25.2606   	38.000000	28.0633   	38.000000	27.4616   	38.000000	0.010399  	
41.000000	26.4732   	41.000000	26.2231   	41.000000	24.2543   	41.000000	26.7393   	41.000000	26.2134   	41.000000	0.00971568	
44.000000	25.2283   	44.000000	25.0966   	44.000000	23.3339   	44.000000	25.5487   	44.000000	25.0875   	44.000000	0.00912047	
47.000000	24.1137   	47.000000	24.0751   	47.000000	22.4909   	47.000000	24.4719   	47.000000	24.0665   	47.000000	0.00859709	
50.000000	23.1094   	50.000000	23.1445   	50.000000	21.714    	50.000000	23.4932   	50.000000	23.1364   	50.000000	0.00813309	
55.000000	21.6385   	55.000000	21.7645   	55.000000	20.5517   	55.000000	22.0459   	55.000000	21.7571   	55.000000	0.0074663 	
60.000000	20.3736   	60.000000	20.5623   	60.000000	19.5245   	60.000000	20.7888   	60.000000	20.5554   	60.000000	0.00690485	
65.000000	19.2732   	65.000000	19.5054   	65.000000	18.6138   	65.000000	19.6865   	65.000000	19.4989   	65.000000	0.00642528	
70.000000	18.3065   	70.000000	18.5687   	70.000000	17.799    	70.000000	18.7121   	70.000000	18.5627   	70.000000	0.00601068	
75.000000	17.4498   	75.000000	17.7328   	75.000000	17.0641   	75.000000	17.8444   	75.000000	17.7271   	75.000000	0.0056485 	
80.000000	16.685    	80.000000	16.9822   	80.000000	16.4018   	80.000000	17.0668   	80.000000	16.9769   	80.000000	0.00532925	
85.000000	15.9976   	85.000000	16.3044   	85.000000	15.7973   	85.000000	16.3659   	85.000000	16.2993   	85.000000	0.00504564	
90.000000	15.3762   	90.000000	15.6893   	90.000000	15.2473   	90.000000	15.731    	90.000000	15.6845   	90.000000	0.00479193	
95.000000	14.8114   	95.000000	15.1286   	95.000000	14.7427   	95.000000	15.1532   	95.000000	15.124    	95.000000	0.00456356	
100.000000	14.2957   	100.000000	14.6153   	100.000000	14.2782   	100.000000	14.6251   	100.000000	14.6109   	100.000000	0.00435686	
105.000000	13.8227   	105.000000	14.1437   	105.000000	13.8507   	105.000000	14.1405   	105.000000	14.1395   	105.000000	0.00416886	
110.000000	13.3872   	110.000000	13.7089   	110.000000	13.4547   	110.000000	13.6944   	110.000000	13.7049   	110.000000	0.00399708	
115.000000	12.9849   	115.000000	13.3067   	115.000000	13.0866   	115.000000	13.2824   	115.000000	13.3029   	115.000000	0.00383948	
120.000000	12.6119   	120.000000	12.9337   	120.000000	12.7435   	120.000000	12.9006   	120.000000	12.93     	120.000000	0.00369436	
125.000000	12.2651   	125.000000	12.5867   	125.000000	12.4234   	125.000000	12.546    	125.000000	12.5832   	125.000000	0.00356026	
130.000000	11.9417   	130.000000	12.2632   	130.000000	12.1247   	130.000000	12.2157   	130.000000	12.2598   	130.000000	0.00343596	
135.000000	11.6394   	135.000000	11.9608   	135.000000	11.8443   	135.000000	11.9073   	135.000000	11.9575   	135.000000	0.00332041	
140.000000	11.3561   	140.000000	11.6776   	140.000000	11.5813   	140.000000	11.6188   	140.000000	11.6744   	140.000000	0.00321271	
145.000000	11.0901   	145.000000	11.4117   	145.000000	11.334    	145.000000	11.3482   	145.000000	11.4086   	145.000000	0.00311206	
150.000000	10.8398   	150.000000	11.1618   	150.000000	11.1006   	150.000000	11.094    	150.000000	11.1587   	150.000000	0.00301779	
155.000000	10.4799   	155.000000	10.9262   	155.000000	10.8805   	155.000000	10.8548   	155.000000	10.9233   	155.000000	0.00292931	
160.000000	10.2727   	160.000000	10.704    	160.000000	10.6726   	160.000000	10.6292   	160.000000	10.7011   	160.000000	0.00284608	
165.000000	10.0769   	165.000000	10.4939   	165.000000	10.4754   	165.000000	10.4162   	165.000000	10.4911   	165.000000	0.00276764	
170.000000	9.89139   	170.000000	10.295    	170.000000	10.288    	170.000000	10.2147   	170.000000	10.2924   	170.000000	0.0026936 	
175.000000	9.71548   	175.000000	10.1065   	175.000000	10.11     	175.000000	10.0239   	175.000000	10.1039   	175.000000	0.00262357	
180.000000	9.54841   	180.000000	9.92757   	180.000000	9.94093   	180.000000	9.84283   	180.000000	9.92501   	180.000000	0.00255725	
185.000000	9.38952   	185.000000	9.75747   	185.000000	9.78032   	185.000000	9.67089   	185.000000	9.75498   	185.000000	0.00249434	
190.000000	9.23822   	190.000000	9.5956    	190.000000	9.62742   	190.000000	9.50739   	190.000000	9.59317   	190.000000	0.00243458	
195.000000	9.09396   	195.000000	9.44138   	195.000000	9.48139   	195.000000	9.35172   	195.000000	9.439     	195.000000	0.00237773	
200.000000	8.95626   	200.000000	9.29428   	200.000000	9.3417    	200.000000	9.20334   	200.000000	9.29195   	200.000000	0.00232359	
210.000000	8.69883   	210.000000	9.01958   	210.000000	9.08028   	210.000000	8.92653   	210.000000	9.01735   	210.000000	0.00222267	
220.000000	8.46282   	220.000000	8.76816   	220.000000	8.84088   	220.000000	8.6735    	220.000000	8.76603   	220.000000	0.0021305 	
230.000000	8.24566   	230.000000	8.53722   	230.000000	8.62062   	230.000000	8.44137   	230.000000	8.53517   	230.000000	0.00204597	
240.000000	8.04515   	240.000000	8.32438   	240.000000	8.41672   	240.000000	8.22768   	240.000000	8.32241   	240.000000	0.00196814	
250.000000	7.85945   	250.000000	8.12763   	250.000000	8.22794   	250.000000	8.03036   	250.000000	8.12573   	250.000000	0.00189626	
260.000000	7.68697   	260.000000	7.94524   	260.000000	8.05298   	260.000000	7.84763   	260.000000	7.94341   	260.000000	0.00182964	
270.000000	7.52634   	270.000000	7.77571   	270.000000	7.89035   	270.000000	7.67796   	270.000000	7.77394   	270.000000	0.00176773	
280.000000	7.3764    	280.000000	7.61776   	280.000000	7.73879   	280.000000	7.52004   	280.000000	7.61605   	280.000000	0.00171004	
290.000000	7.2361    	290.000000	7.47026   	290.000000	7.59678   	290.000000	7.3727    	290.000000	7.4686    	290.000000	0.00165614	
300.000000	7.10455   	300.000000	7.33223   	300.000000	7.46323   	300.000000	7.23495   	300.000000	7.33062   	300.000000	0.00160567	
310.000000	6.98097   	310.000000	7.20281   	310.000000	7.33799   	310.000000	7.1059    	310.000000	7.20125   	310.000000	0.0015583 	
320.000000	6.86466   	320.000000	7.08123   	320.000000	7.22087   	320.000000	6.98477   	320.000000	7.07972   	320.000000	0.00151376	
330.000000	6.755     	330.000000	6.96682   	330.000000	7.11033   	330.000000	6.87089   	330.000000	6.96535   	330.000000	0.0014718 	
340.000000	6.65144   	340.000000	6.85899   	340.000000	7.00582   	340.000000	6.76362   	340.000000	6.85756   	340.000000	0.00143219	
350.000000	6.5535    	350.000000	6.75719   	350.000000	6.90725   	350.000000	6.66244   	350.000000	6.7558    	350.000000	0.00139473	
360.000000	6.46075   	360.000000	6.66095   	360.000000	6.81416   	360.000000	6.56686   	360.000000	6.6596    	360.000000	0.00135927	
370.000000	6.37278   	370.000000	6.56985   	370.000000	6.72597   	370.000000	6.47644   	370.000000	6.56852   	370.000000	0.00132563	
380.000000	6.28925   	380.000000	6.48349   	380.000000	6.64211   	380.000000	6.39078   	380.000000	6.4822    	380.000000	0.00129369	
390.000000	6.20984   	390.000000	6.40153   	390.000000	6.56235   	390.000000	6.30954   	390.000000	6.40027   	390.000000	0.00126331	
400.000000	6.13426   	400.000000	6.32366   	400.000000	6.48661   	400.000000	6.2324    	400.000000	6.32242   	400.000000	0.00123437	
410.000000	6.06224   	410.000000	6.24958   	410.000000	6.41459   	410.000000	6.15906   	410.000000	6.24837   	410.000000	0.00120679	
420.000000	5.99356   	420.000000	6.17904   	420.000000	6.346     	420.000000	6.08926   	420.000000	6.17786   	420.000000	0.00118046	
430.000000	5.92798   	430.000000	6.11181   	430.000000	6.28064   	430.000000	6.02277   	430.000000	6.11066   	430.000000	0.0011553 	
440.000000	5.86532   	440.000000	6.04766   	440.000000	6.2179    	440.000000	5.95893   	440.000000	6.04653   	440.000000	0.00113123	
450.000000	5.8054    	450.000000	5.98641   	450.000000	6.15767   	450.000000	5.89773   	450.000000	5.9853    	450.000000	0.00110818	
460.000000	5.74804   	460.000000	5.92786   	460.000000	6.09994   	460.000000	5.83927   	460.000000	5.92678   	460.000000	0.0010861 	
470.000000	5.69309   	470.000000	5.87186   	470.000000	6.04459   	470.000000	5.78338   	470.000000	5.87079   	470.000000	0.0010649 	
480.000000	5.64041   	480.000000	5.81825   	480.000000	5.9916    	480.000000	5.72989   	480.000000	5.8172    	480.000000	0.00104455	
490.000000	5.58988   	490.000000	5.76688   	490.000000	5.94086   	490.000000	5.67867   	490.000000	5.76586   	490.000000	0.001025  	
500.000000	5.54137   	500.000000	5.71764   	500.000000	5.89223   	500.000000	5.62958   	500.000000	5.71664   	500.000000	0.00100619	
520.000000	5.44997   	520.000000	5.62505   	520.000000	5.80076   	520.000000	5.53732   	520.000000	5.62408   	520.000000	0.000970652	
540.000000	5.36542   	540.000000	5.53961   	540.000000	5.71643   	540.000000	5.45223   	540.000000	5.53867   	540.000000	0.000937629	
560.000000	5.28704   	560.000000	5.46058   	560.000000	5.63825   	560.000000	5.37357   	560.000000	5.45968   	560.000000	0.000906862	
580.000000	5.21422   	580.000000	5.38733   	580.000000	5.56544   	580.000000	5.30068   	580.000000	5.38645   	580.000000	0.000878125	
600.000000	5.14644   	600.000000	5.31929   	600.000000	5.49805   	600.000000	5.23299   	600.000000	5.31844   	600.000000	0.000851221	
620.000000	5.08325   	620.000000	5.25597   	620.000000	5.43548   	620.000000	5.17001   	620.000000	5.25514   	620.000000	0.000825977	
640.000000	5.02425   	640.000000	5.19695   	640.000000	5.37684   	640.000000	5.11129   	640.000000	5.19615   	640.000000	0.000802243	
660.000000	4.96907   	660.000000	5.14185   	660.000000	5.32193   	660.000000	5.05646   	660.000000	5.14107   	660.000000	0.000779885	
680.000000	4.9174    	680.000000	5.09033   	680.000000	5.27058   	680.000000	5.00518   	680.000000	5.08957   	680.000000	0.000758786	
700.000000	4.86895   	700.000000	5.0421    	700.000000	5.22253   	700.000000	4.95713   	700.000000	5.04136   	700.000000	0.000738841	
720.000000	4.82348   	720.000000	4.99688   	720.000000	5.17744   	720.000000	4.91206   	720.000000	4.99616   	720.000000	0.000719957	
740.000000	4.78077   	740.000000	4.95444   	740.000000	5.13494   	740.000000	4.86973   	740.000000	4.95374   	740.000000	0.000702049	
760.000000	4.74059   	760.000000	4.91458   	760.000000	5.0948    	760.000000	4.82991   	760.000000	4.91389   	760.000000	0.000685044	
780.000000	4.70278   	780.000000	4.87709   	780.000000	5.05698   	780.000000	4.79241   	780.000000	4.87642   	780.000000	0.000668873	
800.000000	4.66717   	800.000000	4.8418    	800.000000	5.02146   	800.000000	4.75706   	800.000000	4.84114   	800.000000	0.000653477	
820.000000	4.6336    	820.000000	4.80855   	820.000000	4.98802   	820.000000	4.72369   	820.000000	4.80791   	820.000000	0.0006388 	
840.000000	4.60194   	840.000000	4.77721   	840.000000	4.95637   	840.000000	4.69218   	840.000000	4.77658   	840.000000	0.000624792	
860.000000	4.57206   	860.000000	4.74764   	860.000000	4.92632   	860.000000	4.66237   	860.000000	4.74703   	860.000000	0.000611408	
880.000000	4.54385   	880.000000	4.71973   	880.000000	4.8978    	880.000000	4.63417   	880.000000	4.71913   	880.000000	0.000598606	
900.000000	4.51721   	900.000000	4.69336   	900.000000	4.87077   	900.000000	4.60745   	900.000000	4.69278   	900.000000	0.00058635	
920.000000	4.49204   	920.000000	4.66845   	920.000000	4.84516   	920.000000	4.58212   	920.000000	4.66787   	920.000000	0.000574604	
940.000000	4.46825   	940.000000	4.64489   	940.000000	4.82088   	940.000000	4.55809   	940.000000	4.64433   	940.000000	0.000563336	
960.000000	4.44577   	960.000000	4.62261   	960.000000	4.79781   	960.000000	4.53528   	960.000000	4.62206   	960.000000	0.000552519	
980.000000	4.42451   	980.000000	4.60153   	980.000000	4.77588   	980.000000	4.5136    	980.000000	4.60099   	980.000000	0.000542124	
1000.000000	4.40441   	1000.000000	4.58158   	1000.000000	4.75503   	1000.000000	4.493     	1000.000000	4.58105   	1000.000000	0.000532128	
1020.000000	4.3854    	1020.000000	4.5627    	1020.000000	4.73519   	1020.000000	4.4734    	1020.000000	4.56217   	1020.000000	0.000522507	
1040.000000	4.36743   	1040.000000	4.54481   	1040.000000	4.7163    	1040.000000	4.45474   	1040.000000	4.5443    	1040.000000	0.000513241	
1060.000000	4.35044   	1060.000000	4.52788   	1060.000000	4.69832   	1060.000000	4.43697   	1060.000000	4.52738   	1060.000000	0.00050431	
1080.000000	4.33438   	1080.000000	4.51185   	1080.000000	4.68117   	1080.000000	4.42004   	1080.000000	4.51135   	1080.000000	0.000495696	
1100.000000	4.31921   	1100.000000	4.49666   	1100.000000	4.6648    	1100.000000	4.4039    	1100.000000	4.49617   	1100.000000	0.000487382	
1120.000000	4.30487   	1120.000000	4.48228   	1120.000000	4.64918   	1120.000000	4.38851   	1120.000000	4.4818    	1120.000000	0.000479352	
1140.000000	4.29133   	1140.000000	4.46866   	1140.000000	4.63424   	1140.000000	4.37382   	1140.000000	4.46819   	1140.000000	0.000471593	
1160.000000	4.27855   	1160.000000	4.45577   	1160.000000	4.61997   	1160.000000	4.3598    	1160.000000	4.4553    	1160.000000	0.00046409	
1180.000000	4.26649   	1180.000000	4.44356   	1180.000000	4.60633   	1180.000000	4.3464    	1180.000000	4.44311   	1180.000000	0.000456831	
1200.000000	4.25513   	1200.000000	4.43201   	1200.000000	4.5933    	1200.000000	4.33361   	1200.000000	4.43156   	1200.000000	0.000449804	
1220.000000	4.24442   	1220.000000	4.42109   	1220.000000	4.58084   	1220.000000	4.32139   	1220.000000	4.42064   	1220.000000	0.000442997	
1240.000000	4.23434   	1240.000000	4.41075   	1240.000000	4.56892   	1240.000000	4.3097    	1240.000000	4.41032   	1240.000000	0.000436401	
1260.000000	4.22486   	1260.000000	4.40098   	1260.000000	4.55753   	1260.000000	4.29852   	1260.000000	4.40055   	1260.000000	0.000430006	
1280.000000	4.21595   	1280.000000	4.39176   	1280.000000	4.54663   	1280.000000	4.28783   	1280.000000	4.39133   	1280.000000	0.000423803	
1300.000000	4.2076    	1300.000000	4.38304   	1300.000000	4.53619   	1300.000000	4.27759   	1300.000000	4.38262   	1300.000000	0.000417782	
1320.000000	4.19977   	1320.000000	4.37482   	1320.000000	4.52621   	1320.000000	4.2678    	1320.000000	4.37441   	1320.000000	0.000411936	
1340.000000	4.19245   	1340.000000	4.36707   	1340.000000	4.51665   	1340.000000	4.25843   	1340.000000	4.36667   	1340.000000	0.000406258	
1360.000000	4.18561   	1360.000000	4.35977   	1360.000000	4.50749   	1360.000000	4.24945   	1360.000000	4.35937   	1360.000000	0.00040074	
1380.000000	4.17924   	1380.000000	4.3529    	1380.000000	4.49872   	1380.000000	4.24085   	1380.000000	4.35251   	1380.000000	0.000395375	
1400.000000	4.17332   	1400.000000	4.34645   	1400.000000	4.4903    	1400.000000	4.23262   	1400.000000	4.34606   	1400.000000	0.000390158	
1420.000000	4.16782   	1420.000000	4.34038   	1420.000000	4.48223   	1420.000000	4.22473   	1420.000000	4.34      	1420.000000	0.000385081	
1440.000000	4.16274   	1440.000000	4.3347    	1440.000000	4.47449   	1440.000000	4.21717   	1440.000000	4.33432   	1440.000000	0.000380139	
1460.000000	4.15805   	1460.000000	4.32939   	1460.000000	4.46706   	1460.000000	4.20992   	1460.000000	4.32901   	1460.000000	0.000375328	
1480.000000	4.15375   	1480.000000	4.32442   	1480.000000	4.45993   	1480.000000	4.20298   	1480.000000	4.32405   	1480.000000	0.000370641	
1500.000000	4.14981   	1500.000000	4.31978   	1500.000000	4.45309   	1500.000000	4.19632   	1500.000000	4.31942   	1500.000000	0.000366074	
1520.000000	4.14623   	1520.000000	4.31547   	1520.000000	4.44653   	1520.000000	4.18994   	1520.000000	4.31511   	1520.000000	0.000361622	
1540.000000	4.14299   	1540.000000	4.31147   	1540.000000	4.44023   	1540.000000	4.18382   	1540.000000	4.31112   	1540.000000	0.000357281	
1560.000000	4.14008   	1560.000000	4.30777   	1560.000000	4.43419   	1560.000000	4.17795   	1560.000000	4.30742   	1560.000000	0.000353047	
1580.000000	4.13749   	1580.000000	4.30436   	1580.000000	4.4284    	1580.000000	4.17233   	1580.000000	4.30401   	1580.000000	0.000348916	
1600.000000	4.13521   	1600.000000	4.30122   	1600.000000	4.42284   	1600.000000	4.16693   	1600.000000	4.30087   	1600.000000	0.000344883	
1620.000000	4.13322   	1620.000000	4.29835   	1620.000000	4.41751   	1620.000000	4.16176   	1620.000000	4.29801   	1620.000000	0.000340947	
1640.000000	4.13153   	1640.000000	4.29573   	1640.000000	4.4124    	1640.000000	4.1568    	1640.000000	4.2954    	1640.000000	0.000337102	
1660.000000	4.13011   	1660.000000	4.29337   	1660.000000	4.4075    	1660.000000	4.15205   	1660.000000	4.29303   	1660.000000	0.000333347	
1680.000000	4.12896   	1680.000000	4.29124   	1680.000000	4.4028    	1680.000000	4.14749   	1680.000000	4.29091   	1680.000000	0.000329677	
1700.000000	4.12807   	1700.000000	4.28934   	1700.000000	4.39829   	1700.000000	4.14312   	1700.000000	4.28901   	1700.000000	0.00032609	
1750.000000	4.12693   	1750.000000	4.28555   	1750.000000	4.3878    	1750.000000	4.13297   	1750.000000	4.28524   	1750.000000	0.000317467	
1800.000000	4.12725   	1800.000000	4.28304   	1800.000000	4.37834   	1800.000000	4.12385   	1800.000000	4.28273   	1800.000000	0.000309304	
1850.000000	4.12891   	1850.000000	4.28171   	1850.000000	4.3698    	1850.000000	4.11566   	1850.000000	4.2814    	1850.000000	0.000301564	
1900.000000	4.13184   	1900.000000	4.28145   	1900.000000	4.36213   	1900.000000	4.10831   	1900.000000	4.28116   	1900.000000	0.000294216	
1950.000000	4.13593   	1950.000000	4.2822    	1950.000000	4.35523   	1950.000000	4.10173   	1950.000000	4.28191   	1950.000000	0.00028723	
2000.000000	4.14111   	2000.000000	4.28387   	2000.000000	4.34906   	2000.000000	4.09586   	2000.000000	4.28359   	2000.000000	0.00028058	
2100.000000	4.15445   	2100.000000	4.28972   	2100.000000	4.33863   	2100.000000	4.08599   	2100.000000	4.28945   	2100.000000	0.000268192	
2200.000000	4.17138   	2200.000000	4.29854   	2200.000000	4.33044   	2200.000000	4.07827   	2200.000000	4.29828   	2200.000000	0.000256887	
2300.000000	4.19149   	2300.000000	4.30994   	2300.000000	4.32411   	2300.000000	4.07239   	2300.000000	4.30969   	2300.000000	0.000246528	
2400.000000	4.21441   	2400.000000	4.3236    	2400.000000	4.31935   	2400.000000	4.06804   	2400.000000	4.32336   	2400.000000	0.000236998	
2500.000000	4.23988   	2500.000000	4.33924   	2500.000000	4.31593   	2500.000000	4.06501   	2500.000000	4.33901   	2500.000000	0.000228202	
2600.000000	4.26762   	2600.000000	4.35664   	2600.000000	4.31365   	2600.000000	4.06311   	2600.000000	4.35642   	2600.000000	0.000220057	
2700.000000	4.29744   	2700.000000	4.37559   	2700.000000	4.31236   	2700.000000	4.06216   	2700.000000	4.37538   	2700.000000	0.000212492	
2800.000000	4.32914   	2800.000000	4.39594   	2800.000000	4.31192   	2800.000000	4.06204   	2800.000000	4.39573   	2800.000000	0.000205447	
2900.000000	4.36257   	2900.000000	4.41752   	2900.000000	4.31221   	2900.000000	4.06264   	2900.000000	4.41733   	2900.000000	0.00019887	
3000.000000	4.39759   	3000.000000	4.44023   	3000.000000	4.31314   	3000.000000	4.06384   	3000.000000	4.44003   	3000.000000	0.000192714	
3200.000000	4.47191   	3200.000000	4.48855   	3200.000000	4.31656   	3200.000000	4.06778   	3200.000000	4.48837   	3200.000000	0.000181514	
3400.000000	4.55129   	3400.000000	4.54019   	3400.000000	4.3216    	3400.000000	4.0733    	3400.000000	4.54002   	3400.000000	0.000171584	
3600.000000	4.63509   	3600.000000	4.59456   	3600.000000	4.32784   	3600.000000	4.08003   	3600.000000	4.5944    	3600.000000	0.000162716	
3800.000000	4.72281   	3800.000000	4.65122   	3800.000000	4.335     	3800.000000	4.08765   	3800.000000	4.65107   	3800.000000	0.000154748	
4000.000000	4.81403   	4000.000000	4.70981   	4000.000000	4.34282   	4000.000000	4.09593   	4000.000000	4.70967   	4000.000000	0.000147548	
4200.000000	4.90842   	4200.000000	4.77004   	4200.000000	4.35116   	4200.000000	4.1047    	4200.000000	4.7699    	4200.000000	0.000141008	
4400.000000	5.0057    	4400.000000	4.83167   	4400.000000	4.35987   	4400.000000	4.11381   	4400.000000	4.83154   	4400.000000	0.000135042	
4600.000000	5.10564   	4600.000000	4.89451   	4600.000000	4.36886   	4600.000000	4.12317   	4600.000000	4.89438   	4600.000000	0.000129575	
4800.000000	5.20805   	4800.000000	4.95839   	4800.000000	4.37803   	4800.000000	4.13269   	4800.000000	4.95827   	4800.000000	0.000124547	
5000.000000	5.31278   	5000.000000	5.02317   	5000.000000	4.38733   	5000.000000	4.14231   	5000.000000	5.02305   	5000.000000	0.000119908	
5250.000000	5.44672   	5250.000000	5.10525   	5250.000000	4.39904   	5250.000000	4.15438   	5250.000000	5.10514   	5250.000000	0.000114587	
5500.000000	5.58382   	5500.000000	5.18838   	5500.000000	4.41078   	5500.000000	4.16644   	5500.000000	5.18827   	5500.000000	0.000109733	
6000.000000	5.86679   	6000.000000	5.35718   	6000.000000	4.43401   	6000.000000	4.19032   	6000.000000	5.35708   	6000.000000	0.000101196	
6500.000000	6.1605    	6500.000000	5.52863   	6500.000000	4.45635   	6500.000000	4.21364   	6500.000000	5.52853   	6500.000000	9.39271e-05	
7000.000000	6.46411   	7000.000000	5.70204   	7000.000000	4.4783    	7000.000000	4.23625   	7000.000000	5.70195   	7000.000000	8.76615e-05	
7500.000000	6.77699   	7500.000000	5.87694   	7500.000000	4.4993    	7500.000000	4.25806   	7500.000000	5.87685   	7500.000000	8.22027e-05	
8000.000000	7.09865   	8000.000000	6.05296   	8000.000000	4.51943   	8000.000000	4.27906   	8000.000000	6.05288   	8000.000000	7.74029e-05	
8500.000000	7.42874   	8500.000000	6.22983   	8500.000000	4.53879   	8500.000000	4.29925   	8500.000000	6.22975   	8500.000000	7.31485e-05	
9000.000000	7.76696   	9000.000000	6.40734   	9000.000000	4.55741   	9000.000000	4.31865   	9000.000000	6.40727   	9000.000000	6.93507e-05	
9500.000000	8.11311   	9500.000000	6.58534   	9500.000000	4.57525   	9500.000000	4.33728   	9500.000000	6.58528   	9500.000000	6.5939e-05	
10000.000000	8.46699   	10000.000000	6.7637    	10000.000000	4.59234   	10000.000000	4.35519   	10000.000000	6.76364   	10000.000000	6.28569e-05	
11000.000000	9.19742   	11000.000000	7.12113   	11000.000000	4.62436   	11000.000000	4.38899   	11000.000000	7.12107   	11000.000000	5.75056e-05	
12000.000000	9.9574    	12000.000000	7.47905   	12000.000000	4.6538    	12000.000000	4.42032   	12000.000000	7.479     	12000.000000	5.30171e-05	
13000.000000	10.7464   	13000.000000	7.83709   	13000.000000	4.6809    	13000.000000	4.44946   	13000.000000	7.83704   	13000.000000	4.91968e-05	
14000.000000	11.5639   	14000.000000	8.19501   	14000.000000	4.70595   	14000.000000	4.47665   	14000.000000	8.19496   	14000.000000	4.59044e-05	
15000.000000	12.4098   	15000.000000	8.55263   	15000.000000	4.72918   	15000.000000	4.5021    	15000.000000	8.55259   	15000.000000	4.30368e-05	
16000.000000	13.2839   	16000.000000	8.90986   	16000.000000	4.75075   	16000.000000	4.526     	16000.000000	8.90982   	16000.000000	4.05159e-05	
17000.000000	14.1861   	17000.000000	9.26662   	17000.000000	4.77085   	17000.000000	4.54851   	17000.000000	9.26658   	17000.000000	3.8282e-05	
18000.000000	15.1163   	18000.000000	9.62285   	18000.000000	4.78968   	18000.000000	4.56977   	18000.000000	9.62282   	18000.000000	3.62882e-05	
19000.000000	16.0745   	19000.000000	9.97854   	19000.000000	4.8074    	19000.000000	4.5899    	19000.000000	9.9785    	19000.000000	3.44975e-05	
20000.000000	17.0608   	20000.000000	10.3336   	20000.000000	4.82418   	20000.000000	4.609     	20000.000000	10.3336   	20000.000000	3.28801e-05	
21000.000000	18.0751   	21000.000000	10.6882   	21000.000000	4.83993   	21000.000000	4.62716   	21000.000000	10.6881   	21000.000000	3.14116e-05	
22000.000000	19.1176   	22000.000000	11.0421   	22000.000000	4.85443   	22000.000000	4.64447   	22000.000000	11.0421   	22000.000000	3.00724e-05	
23000.000000	20.1883   	23000.000000	11.3955   	23000.000000	4.86812   	23000.000000	4.661     	23000.000000	11.3955   	23000.000000	2.88459e-05	
24000.000000	21.2873   	24000.000000	11.7483   	24000.000000	4.88116   	24000.000000	4.67681   	24000.000000	11.7482   	24000.000000	2.77182e-05	
25000.000000	22.4147   	25000.000000	12.1005   	25000.000000	4.89348   	25000.000000	4.69195   	25000.000000	12.1005   	25000.000000	2.66779e-05	
26000.000000	23.5706   	26000.000000	12.4521   	26000.000000	4.90509   	26000.000000	4.70649   	26000.000000	12.4521   	26000.000000	2.5715e-05	
27000.000000	24.7551   	27000.000000	12.8032   	27000.000000	4.91604   	27000.000000	4.72045   	27000.000000	12.8032   	27000.000000	2.48211e-05	
28000.000000	25.9683   	28000.000000	13.1538   	28000.000000	4.92639   	28000.000000	4.73389   	28000.000000	13.1538   	28000.000000	2.39891e-05	
29000.000000	27.2104   	29000.000000	13.5038   	29000.000000	4.93622   	29000.000000	4.74684   	29000.000000	13.5038   	29000.000000	2.32125e-05	
30000.000000	28.4815   	30000.000000	13.8533   	30000.000000	4.94556   	30000.000000	4.75932   	30000.000000	13.8533   	30000.000000	2.24861e-05	
32000.000000	31.1111   	32000.000000	14.5508   	32000.000000	4.96287   	32000.000000	4.78304   	32000.000000	14.5508   	32000.000000	2.11652e-05	
34000.000000	33.8582   	34000.000000	15.2463   	34000.000000	4.97854   	34000.000000	4.80525   	34000.000000	15.2463   	34000.000000	1.99949e-05	
36000.000000	36.724    	36000.000000	15.94     	36000.000000	4.99265   	36000.000000	4.82612   	36000.000000	15.94     	36000.000000	1.89506e-05	
38000.000000	39.7098   	38000.000000	16.6319   	38000.000000	5.00541   	38000.000000	4.84581   	38000.000000	16.6318   	38000.000000	1.80127e-05	
40000.000000	42.8166   	40000.000000	17.322    	40000.000000	5.01699   	40000.000000	4.86443   	40000.000000	17.322    	40000.000000	1.71658e-05	
42000.000000	46.0458   	42000.000000	18.0106   	42000.000000	5.02756   	42000.000000	4.88208   	42000.000000	18.0105   	42000.000000	1.63971e-05	
44000.000000	49.3986   	44000.000000	18.6975   	44000.000000	5.0373    	44000.000000	4.89887   	44000.000000	18.6975   	44000.000000	1.5696e-05	
46000.000000	52.8764   	46000.000000	19.383    	46000.000000	5.04636   	46000.000000	4.91487   	46000.000000	19.3829   	46000.000000	1.50541e-05	
48000.000000	56.4803   	48000.000000	20.067    	48000.000000	5.05477   	48000.000000	4.93015   	48000.000000	20.067    	48000.000000	1.44639e-05	
50000.000000	60.2118   	50000.000000	20.7496   	50000.000000	5.06239   	50000.000000	4.94477   	50000.000000	20.7496   	50000.000000	1.39196e-05	
