Energy (MeV/u)1	0 - [He-base] F.Hubert et al, AD&ND Tables 46(1990)1	Energy (MeV/u)2	1 - [H -base] J.F.Ziegler et al, Pergamon Press, NY (low energy)	Energy (MeV/u)3	2 - ATIMA 1.2  LS-theory (recommended for high energy)	Energy (MeV/u)4	3 - ATIMA 1.2  without LS-correction	Energy (MeV/u)5	4 - electrical component of [1] - J.F.Ziegler et al	Energy (MeV/u)6	5 - nuclear component of [1] - J.F.Ziegler et al	
0.001000	0.278419  	0.001000	0.0509575 	0.001000	0.0497838 	0.001000	0.0497838 	0.001000	0.0354347 	0.001000	0.0155228 	
0.002000	0.35576   	0.002000	0.0759617 	0.002000	0.0739304 	0.002000	0.0739304 	0.002000	0.0613201 	0.002000	0.0146416 	
0.005000	0.550406  	0.005000	0.131847  	0.005000	0.127868  	0.005000	0.127868  	0.005000	0.120122  	0.005000	0.0117257 	
0.008000	0.696289  	0.008000	0.174341  	0.008000	0.16889   	0.008000	0.16889   	0.008000	0.16453   	0.008000	0.00981139	
0.010000	0.776767  	0.010000	0.198415  	0.010000	0.192136  	0.010000	0.192136  	0.010000	0.189526  	0.010000	0.00888902	
0.015000	0.99105   	0.015000	0.241687  	0.015000	0.241531  	0.015000	0.241531  	0.015000	0.234413  	0.015000	0.00727405	
0.020000	1.17032   	0.020000	0.276571  	0.020000	0.283199  	0.020000	0.283199  	0.020000	0.270355  	0.020000	0.00621572	
0.025000	1.32318   	0.025000	0.306199  	0.025000	0.320243  	0.025000	0.320243  	0.025000	0.300739  	0.025000	0.00546004	
0.030000	1.45422   	0.030000	0.332183  	0.030000	0.342698  	0.030000	0.342698  	0.030000	0.327294  	0.030000	0.00488903	
0.035000	1.56622   	0.035000	0.355456  	0.035000	0.362789  	0.035000	0.362789  	0.035000	0.351016  	0.035000	0.00443992	
0.040000	1.6611    	0.040000	0.376604  	0.040000	0.381093  	0.040000	0.381093  	0.040000	0.372528  	0.040000	0.00407597	
0.045000	1.7404    	0.045000	0.396015  	0.045000	0.397982  	0.045000	0.397982  	0.045000	0.392241  	0.045000	0.00377412	
0.050000	1.80549   	0.050000	0.413957  	0.050000	0.413703  	0.050000	0.413703  	0.050000	0.410438  	0.050000	0.0035191 	
0.055000	1.85773   	0.055000	0.430622  	0.055000	0.428427  	0.055000	0.428427  	0.055000	0.427321  	0.055000	0.00330036	
0.060000	1.89842   	0.060000	0.44615   	0.060000	0.442275  	0.060000	0.442275  	0.060000	0.443039  	0.060000	0.00311037	
0.070000	1.95048   	0.070000	0.474201  	0.070000	0.467677  	0.070000	0.467677  	0.070000	0.471406  	0.070000	0.00279583	
0.080000	1.97176   	0.080000	0.498728  	0.080000	0.490388  	0.080000	0.490388  	0.080000	0.496183  	0.080000	0.00254526	
0.090000	1.97124   	0.090000	0.520125  	0.090000	0.51068   	0.090000	0.51068   	0.090000	0.517806  	0.090000	0.00231883	
0.100000	1.95625   	0.100000	0.538751  	0.100000	0.5288    	0.100000	0.5288    	0.100000	0.536601  	0.100000	0.00214961	
0.120000	1.90365   	0.120000	0.568626  	0.120000	0.559064  	0.120000	0.559064  	0.120000	0.566744  	0.120000	0.00188171	
0.140000	1.84152   	0.140000	0.590091  	0.140000	0.582213  	0.140000	0.582213  	0.140000	0.588412  	0.140000	0.00167839	
0.160000	1.78162   	0.160000	0.604644  	0.160000	0.599192  	0.160000	0.599192  	0.160000	0.603126  	0.160000	0.00151823	
0.180000	1.72764   	0.180000	0.613596  	0.180000	0.610894  	0.180000	0.610894  	0.180000	0.612207  	0.180000	0.00138845	
0.200000	1.67985   	0.200000	0.618077  	0.200000	0.618156  	0.200000	0.618156  	0.200000	0.616796  	0.200000	0.00128094	
0.250000	1.5812    	0.250000	0.615599  	0.250000	0.621682  	0.250000	0.621682  	0.250000	0.614521  	0.250000	0.00107784	
0.300000	1.50064   	0.300000	0.601558  	0.300000	0.611564  	0.300000	0.611564  	0.300000	0.600623  	0.300000	0.000934348	
0.350000	1.42961   	0.350000	0.582242  	0.350000	0.594212  	0.350000	0.594212  	0.350000	0.581415  	0.350000	0.000827065	
0.400000	1.36456   	0.400000	0.56108   	0.400000	0.573588  	0.400000	0.573588  	0.400000	0.560336  	0.400000	0.000743538	
0.450000	1.30415   	0.450000	0.53985   	0.450000	0.552002  	0.450000	0.552002  	0.450000	0.539173  	0.450000	0.00067649	
0.500000	1.24787   	0.500000	0.519423  	0.500000	0.530728  	0.500000	0.530728  	0.500000	0.518802  	0.500000	0.000621374	
0.600000	1.14673   	0.600000	0.482258  	0.600000	0.49136   	0.600000	0.49136   	0.600000	0.481722  	0.600000	0.000535885	
0.700000	1.05942   	0.700000	0.450266  	0.700000	0.457261  	0.700000	0.457261  	0.700000	0.449793  	0.700000	0.000472428	
0.800000	0.984032  	0.800000	0.422856  	0.800000	0.42814   	0.800000	0.42814   	0.800000	0.422432  	0.800000	0.000423302	
0.900000	0.918688  	0.900000	0.39923   	0.900000	0.403214  	0.900000	0.403214  	0.900000	0.398846  	0.900000	0.000384053	
1.000000	0.861689  	1.000000	0.378674  	1.000000	0.381694  	1.000000	0.381694  	1.000000	0.378322  	1.000000	0.000351914	
1.250000	0.746991  	1.250000	0.337205  	1.250000	0.338804  	1.250000	0.338804  	1.250000	0.336912  	1.250000	0.000292149	
1.500000	0.660384  	1.500000	0.305505  	1.500000	0.306455  	1.500000	0.306455  	1.500000	0.305255  	1.500000	0.000250687	
1.750000	0.592554  	1.750000	0.280237  	1.750000	0.280882  	1.750000	0.280882  	1.750000	0.280017  	1.750000	0.000220113	
2.000000	0.537886  	2.000000	0.259479  	2.000000	0.259977  	2.000000	0.259977  	2.000000	0.259282  	2.000000	0.00019657	
2.250000	0.492829  	2.250000	0.242044  	2.250000	0.242467  	2.250000	0.242467  	2.250000	0.241867  	2.250000	0.000177843	
2.500000	0.447396  	2.500000	0.227152  	2.500000	0.227533  	2.500000	0.227533  	2.500000	0.22699   	2.500000	0.000162565	
3.000000	0.390509  	3.000000	0.202976  	3.000000	0.203308  	3.000000	0.203308  	3.000000	0.202837  	3.000000	0.000139086	
3.500000	0.347387  	3.500000	0.184131  	3.500000	0.184425  	3.500000	0.184425  	3.500000	0.18401   	3.500000	0.000121836	
4.000000	0.313472  	4.000000	0.16899   	4.000000	0.169245  	4.000000	0.169245  	4.000000	0.168881  	4.000000	0.000108592	
4.500000	0.286041  	4.500000	0.156532  	4.500000	0.156746  	4.500000	0.156746  	4.500000	0.156433  	4.500000	9.80829e-05	
5.000000	0.263359  	5.000000	0.146082  	5.000000	0.146256  	5.000000	0.146256  	5.000000	0.145993  	5.000000	8.95279e-05	
5.500000	0.244266  	5.500000	0.137178  	5.500000	0.13731   	5.500000	0.13731   	5.500000	0.137095  	5.500000	8.24197e-05	
6.000000	0.227956  	6.000000	0.129486  	6.000000	0.129579  	6.000000	0.129579  	6.000000	0.12941   	6.000000	7.64139e-05	
6.500000	0.213849  	6.500000	0.122766  	6.500000	0.122821  	6.500000	0.122821  	6.500000	0.122695  	6.500000	7.12684e-05	
7.000000	0.201518  	7.000000	0.116837  	7.000000	0.116855  	7.000000	0.116855  	7.000000	0.11677   	7.000000	6.68074e-05	
7.500000	0.190642  	7.500000	0.111559  	7.500000	0.111543  	7.500000	0.111543  	7.500000	0.111496  	7.500000	6.29008e-05	
8.000000	0.180971  	8.000000	0.106827  	8.000000	0.106779  	8.000000	0.106779  	8.000000	0.106767  	8.000000	5.94493e-05	
8.500000	0.172313  	8.500000	0.102555  	8.500000	0.102477  	8.500000	0.102477  	8.500000	0.102498  	8.500000	5.63765e-05	
9.000000	0.164512  	9.000000	0.0986752 	9.000000	0.0985698 	9.000000	0.0985698 	9.000000	0.0986216 	9.000000	5.36222e-05	
9.500000	0.157445  	9.500000	0.0951339 	9.500000	0.0950026 	9.500000	0.0950026 	9.500000	0.0950828 	9.500000	5.11385e-05	
10.000000	0.151012  	10.000000	0.0925077 	10.000000	0.0917304 	10.000000	0.0917304 	10.000000	0.0924588 	10.000000	4.88866e-05	
11.000000	0.139725  	11.000000	0.0870615 	11.000000	0.0860205 	11.000000	0.0860283 	11.000000	0.0870166 	11.000000	4.49577e-05	
12.000000	0.13014   	12.000000	0.0822263 	12.000000	0.0810755 	12.000000	0.0810886 	12.000000	0.0821847 	12.000000	4.16425e-05	
13.000000	0.121893  	13.000000	0.0779149 	13.000000	0.0767433 	13.000000	0.0767578 	13.000000	0.0778761 	13.000000	3.88055e-05	
14.000000	0.114716  	14.000000	0.0740521 	14.000000	0.0729093 	14.000000	0.072923  	14.000000	0.0740158 	14.000000	3.63485e-05	
15.000000	0.108411  	15.000000	0.0705746 	15.000000	0.0694847 	15.000000	0.0694983 	15.000000	0.0705404 	15.000000	3.41988e-05	
16.000000	0.102825  	16.000000	0.0674292 	16.000000	0.0664041 	16.000000	0.0664173 	16.000000	0.0673969 	16.000000	3.23013e-05	
17.000000	0.0978401 	17.000000	0.0645717 	17.000000	0.0636159 	17.000000	0.0636274 	17.000000	0.0645411 	17.000000	3.06133e-05	
18.000000	0.0933617 	18.000000	0.0619648 	18.000000	0.0610779 	18.000000	0.0610866 	18.000000	0.0619357 	18.000000	2.91015e-05	
19.000000	0.0893154 	19.000000	0.0595773 	19.000000	0.0587501 	19.000000	0.0587564 	19.000000	0.0595496 	19.000000	2.77391e-05	
20.000000	0.0856404 	20.000000	0.0573829 	20.000000	0.0566118 	20.000000	0.0566181 	20.000000	0.0573564 	20.000000	2.65047e-05	
21.000000	0.0822869 	21.000000	0.055359  	21.000000	0.0546369 	21.000000	0.0546439 	21.000000	0.0553336 	21.000000	2.53807e-05	
22.000000	0.0792136 	22.000000	0.0534866 	22.000000	0.052809  	22.000000	0.0528143 	22.000000	0.0534623 	22.000000	2.43528e-05	
23.000000	0.0763863 	23.000000	0.0517493 	23.000000	0.0511114 	23.000000	0.051113  	23.000000	0.0517259 	23.000000	2.34089e-05	
24.000000	0.073776  	24.000000	0.050133  	24.000000	0.0495282 	24.000000	0.049526  	24.000000	0.0501104 	24.000000	2.2539e-05	
25.000000	0.0713582 	25.000000	0.0486252 	25.000000	0.048047  	25.000000	0.0480416 	25.000000	0.0486035 	25.000000	2.17346e-05	
27.000000	0.0670193 	27.000000	0.0458946 	27.000000	0.0453542 	27.000000	0.0453405 	27.000000	0.0458743 	27.000000	2.02942e-05	
29.000000	0.0632345 	29.000000	0.043487  	29.000000	0.04296   	29.000000	0.042943  	29.000000	0.043468  	29.000000	1.90411e-05	
31.000000	0.0599024 	31.000000	0.041348  	31.000000	0.0408512 	31.000000	0.0408331 	31.000000	0.0413301 	31.000000	1.79406e-05	
33.000000	0.0569449 	33.000000	0.0394347 	33.000000	0.0390006 	33.000000	0.038977  	33.000000	0.0394177 	33.000000	1.6966e-05	
35.000000	0.0543011 	35.000000	0.0377127 	35.000000	0.0373296 	35.000000	0.0373072 	35.000000	0.0376967 	35.000000	1.60965e-05	
38.000000	0.0508205 	38.000000	0.0354298 	38.000000	0.0351191 	38.000000	0.0350931 	38.000000	0.0354148 	38.000000	1.49545e-05	
41.000000	0.047814  	41.000000	0.0334435 	41.000000	0.033192  	41.000000	0.0331655 	41.000000	0.0334296 	41.000000	1.39705e-05	
44.000000	0.0451893 	44.000000	0.0316992 	44.000000	0.0314942 	44.000000	0.0314707 	44.000000	0.0316861 	44.000000	1.31134e-05	
47.000000	0.0428767 	47.000000	0.0301546 	47.000000	0.0299947 	47.000000	0.029968  	47.000000	0.0301423 	47.000000	1.23598e-05	
50.000000	0.0408226 	50.000000	0.028777  	50.000000	0.0286527 	50.000000	0.0286257 	50.000000	0.0287653 	50.000000	1.16918e-05	
55.000000	0.0378639 	55.000000	0.0267839 	55.000000	0.0267088 	55.000000	0.0266795 	55.000000	0.0267732 	55.000000	1.0732e-05	
60.000000	0.0353657 	60.000000	0.0250936 	60.000000	0.0250513 	60.000000	0.0250243 	60.000000	0.0250837 	60.000000	9.92393e-06	
65.000000	0.0332265 	65.000000	0.0236413 	65.000000	0.0236259 	65.000000	0.0235982 	65.000000	0.0236321 	65.000000	9.2338e-06	
70.000000	0.0313726 	70.000000	0.0223796 	70.000000	0.0223841 	70.000000	0.022356  	70.000000	0.0223709 	70.000000	8.63721e-06	
75.000000	0.0297494 	75.000000	0.0212728 	75.000000	0.0212894 	75.000000	0.0212636 	75.000000	0.0212647 	75.000000	8.11611e-06	
80.000000	0.0283156 	80.000000	0.0202939 	80.000000	0.0203231 	80.000000	0.020295  	80.000000	0.0202862 	80.000000	7.65683e-06	
85.000000	0.027039  	85.000000	0.0194216 	85.000000	0.0194566 	85.000000	0.0194299 	85.000000	0.0194144 	85.000000	7.24885e-06	
90.000000	0.0258947 	90.000000	0.0186393 	90.000000	0.018678  	90.000000	0.0186524 	90.000000	0.0186324 	90.000000	6.88391e-06	
95.000000	0.0248627 	95.000000	0.0179336 	95.000000	0.017977  	95.000000	0.0179497 	95.000000	0.017927  	95.000000	6.55545e-06	
100.000000	0.0239268 	100.000000	0.0172936 	100.000000	0.0173374 	100.000000	0.0173112 	100.000000	0.0172874 	100.000000	6.25819e-06	
105.000000	0.0230739 	105.000000	0.0167106 	105.000000	0.0167536 	105.000000	0.0167286 	105.000000	0.0167046 	105.000000	5.98782e-06	
110.000000	0.0222932 	110.000000	0.0161771 	110.000000	0.0162184 	110.000000	0.0161945 	110.000000	0.0161714 	110.000000	5.7408e-06	
115.000000	0.0215756 	115.000000	0.0156871 	115.000000	0.015728  	115.000000	0.0157033 	115.000000	0.0156816 	115.000000	5.51419e-06	
120.000000	0.0209137 	120.000000	0.0152354 	120.000000	0.015275  	120.000000	0.0152498 	120.000000	0.0152301 	120.000000	5.30552e-06	
125.000000	0.020301  	125.000000	0.0148177 	125.000000	0.0148538 	125.000000	0.0148299 	125.000000	0.0148126 	125.000000	5.11273e-06	
130.000000	0.0197322 	130.000000	0.0144302 	130.000000	0.0144631 	130.000000	0.0144399 	130.000000	0.0144252 	130.000000	4.93403e-06	
135.000000	0.0192024 	135.000000	0.0140697 	135.000000	0.0141009 	135.000000	0.0140766 	135.000000	0.0140649 	135.000000	4.76791e-06	
140.000000	0.0187078 	140.000000	0.0137335 	140.000000	0.0137619 	140.000000	0.0137375 	140.000000	0.0137289 	140.000000	4.61308e-06	
145.000000	0.0182449 	145.000000	0.0134192 	145.000000	0.0134437 	145.000000	0.0134202 	145.000000	0.0134148 	145.000000	4.4684e-06	
150.000000	0.0178106 	150.000000	0.0131248 	150.000000	0.0131455 	150.000000	0.0131227 	150.000000	0.0131205 	150.000000	4.3329e-06	
155.000000	0.0171992 	155.000000	0.0128483 	155.000000	0.0128651 	155.000000	0.0128431 	155.000000	0.0128441 	155.000000	4.20571e-06	
160.000000	0.0168407 	160.000000	0.0125882 	160.000000	0.0126016 	160.000000	0.0125798 	160.000000	0.0125842 	160.000000	4.08608e-06	
165.000000	0.0165028 	165.000000	0.0123431 	165.000000	0.0123542 	165.000000	0.0123315 	165.000000	0.0123391 	165.000000	3.97336e-06	
170.000000	0.0161835 	170.000000	0.0121117 	170.000000	0.0121197 	170.000000	0.012097  	170.000000	0.0121078 	170.000000	3.86694e-06	
175.000000	0.0158814 	175.000000	0.0118929 	175.000000	0.0118971 	175.000000	0.011875  	175.000000	0.0118891 	175.000000	3.76631e-06	
180.000000	0.0155951 	180.000000	0.0116856 	180.000000	0.0116863 	180.000000	0.0116647 	180.000000	0.011682  	180.000000	3.67099e-06	
185.000000	0.0153234 	185.000000	0.0114891 	185.000000	0.0114862 	185.000000	0.0114651 	185.000000	0.0114855 	185.000000	3.58059e-06	
190.000000	0.0150651 	190.000000	0.0113024 	190.000000	0.011296  	190.000000	0.0112755 	190.000000	0.0112989 	190.000000	3.49471e-06	
195.000000	0.0148194 	195.000000	0.0111248 	195.000000	0.0111157 	195.000000	0.0110951 	195.000000	0.0111214 	195.000000	3.41302e-06	
200.000000	0.0145852 	200.000000	0.0109558 	200.000000	0.0109445 	200.000000	0.0109232 	200.000000	0.0109525 	200.000000	3.33523e-06	
210.000000	0.0141486 	210.000000	0.0106409 	210.000000	0.0106238 	210.000000	0.0106029 	210.000000	0.0106377 	210.000000	3.19023e-06	
220.000000	0.0137495 	220.000000	0.0103535 	220.000000	0.0103306 	220.000000	0.0103104 	220.000000	0.0103504 	220.000000	3.05779e-06	
230.000000	0.0133832 	230.000000	0.0100901 	230.000000	0.0100617 	230.000000	0.0100423 	230.000000	0.0100872 	230.000000	2.93634e-06	
240.000000	0.013046  	240.000000	0.00984797	240.000000	0.0098156 	240.000000	0.00979571	240.000000	0.00984515	240.000000	2.82454e-06	
250.000000	0.0127343 	250.000000	0.00962456	250.000000	0.00958805	250.000000	0.00956813	250.000000	0.00962184	250.000000	2.72127e-06	
260.000000	0.0124455 	260.000000	0.0094178 	260.000000	0.00937674	260.000000	0.00935749	260.000000	0.00941518	260.000000	2.62558e-06	
270.000000	0.0121771 	270.000000	0.00922593	270.000000	0.00918074	270.000000	0.009162  	270.000000	0.0092234 	270.000000	2.53665e-06	
280.000000	0.011927  	280.000000	0.00904741	280.000000	0.0089984 	280.000000	0.00898012	280.000000	0.00904496	280.000000	2.45378e-06	
290.000000	0.0116933 	290.000000	0.00888091	290.000000	0.00882932	290.000000	0.00881049	290.000000	0.00887853	290.000000	2.37636e-06	
300.000000	0.0114746 	300.000000	0.00872527	300.000000	0.00867085	300.000000	0.00865196	300.000000	0.00872297	300.000000	2.30387e-06	
310.000000	0.0112695 	310.000000	0.00857948	310.000000	0.00852185	310.000000	0.00850349	310.000000	0.00857724	310.000000	2.23584e-06	
320.000000	0.0110766 	320.000000	0.00844265	320.000000	0.0083822 	320.000000	0.00836419	320.000000	0.00844048	320.000000	2.17188e-06	
330.000000	0.0108951 	330.000000	0.00831399	330.000000	0.00825079	330.000000	0.00823324	330.000000	0.00831188	330.000000	2.11161e-06	
340.000000	0.0107238 	340.000000	0.00819282	340.000000	0.00812733	340.000000	0.00810995	340.000000	0.00819076	340.000000	2.05472e-06	
350.000000	0.0105621 	350.000000	0.0080785 	350.000000	0.0080115 	350.000000	0.00799368	350.000000	0.0080765 	350.000000	2.00094e-06	
360.000000	0.010409  	360.000000	0.0079705 	360.000000	0.00790183	360.000000	0.00788388	360.000000	0.00796855	360.000000	1.95002e-06	
370.000000	0.010264  	370.000000	0.00786831	370.000000	0.00779762	370.000000	0.00778003	370.000000	0.0078664 	370.000000	1.90172e-06	
380.000000	0.0101264 	380.000000	0.00777149	380.000000	0.00769896	380.000000	0.00768169	380.000000	0.00776963	380.000000	1.85585e-06	
390.000000	0.00999578	390.000000	0.00767965	390.000000	0.00760547	390.000000	0.00758844	390.000000	0.00767783	390.000000	1.81222e-06	
400.000000	0.00987153	400.000000	0.00759242	400.000000	0.0075166 	400.000000	0.00749992	400.000000	0.00759065	400.000000	1.77068e-06	
410.000000	0.00975323	410.000000	0.00750947	410.000000	0.0074323 	410.000000	0.00741579	410.000000	0.00750774	410.000000	1.73108e-06	
420.000000	0.00964049	420.000000	0.00743052	420.000000	0.00735252	420.000000	0.00733575	420.000000	0.00742883	420.000000	1.69327e-06	
430.000000	0.00953294	430.000000	0.00735529	430.000000	0.00727658	430.000000	0.00725953	430.000000	0.00735364	430.000000	1.65715e-06	
440.000000	0.00943023	440.000000	0.00728354	440.000000	0.00720385	440.000000	0.00718686	440.000000	0.00728192	440.000000	1.62259e-06	
450.000000	0.00933207	450.000000	0.00721504	450.000000	0.00713423	450.000000	0.00711753	450.000000	0.00721345	450.000000	1.58951e-06	
460.000000	0.00923817	460.000000	0.00714959	460.000000	0.00706778	460.000000	0.00705131	460.000000	0.00714803	460.000000	1.55779e-06	
470.000000	0.00914827	470.000000	0.007087  	470.000000	0.00700433	470.000000	0.00698802	470.000000	0.00708547	470.000000	1.52737e-06	
480.000000	0.00906213	480.000000	0.00702709	480.000000	0.00694357	480.000000	0.00692747	480.000000	0.00702559	480.000000	1.49816e-06	
490.000000	0.00897954	490.000000	0.00696971	490.000000	0.00688537	490.000000	0.00686951	490.000000	0.00696824	490.000000	1.47009e-06	
500.000000	0.0089003 	500.000000	0.00691471	500.000000	0.00683012	500.000000	0.00681437	500.000000	0.00691327	500.000000	1.44309e-06	
520.000000	0.00875111	520.000000	0.00681132	520.000000	0.00672795	520.000000	0.00671183	520.000000	0.00680993	520.000000	1.39207e-06	
540.000000	0.00861322	540.000000	0.00671596	540.000000	0.00663354	540.000000	0.00661737	540.000000	0.00671461	540.000000	1.34467e-06	
560.000000	0.00848549	560.000000	0.00662778	560.000000	0.00654595	560.000000	0.00653016	560.000000	0.00662648	560.000000	1.30051e-06	
580.000000	0.00836692	580.000000	0.00654606	580.000000	0.00646501	580.000000	0.00644946	580.000000	0.0065448 	580.000000	1.25926e-06	
600.000000	0.00825663	600.000000	0.00647019	600.000000	0.00638987	600.000000	0.00637464	600.000000	0.00646897	600.000000	1.22065e-06	
620.000000	0.00815387	620.000000	0.0063996 	620.000000	0.00632018	620.000000	0.00630513	620.000000	0.00639842	620.000000	1.18442e-06	
640.000000	0.00805797	640.000000	0.00633383	640.000000	0.00625575	640.000000	0.00624045	640.000000	0.00633268	640.000000	1.15035e-06	
660.000000	0.00796833	660.000000	0.00627243	660.000000	0.00619566	660.000000	0.00618016	660.000000	0.00627132	660.000000	1.11827e-06	
680.000000	0.00788444	680.000000	0.00621505	680.000000	0.00613921	680.000000	0.00612388	680.000000	0.00621396	680.000000	1.08799e-06	
700.000000	0.00780583	700.000000	0.00616134	700.000000	0.00608635	700.000000	0.00607127	700.000000	0.00616028	700.000000	1.05937e-06	
720.000000	0.00773207	720.000000	0.00611101	720.000000	0.00603694	720.000000	0.00602202	720.000000	0.00610997	720.000000	1.03227e-06	
740.000000	0.0076628 	740.000000	0.00606378	740.000000	0.00599062	740.000000	0.00597587	740.000000	0.00606277	740.000000	1.00657e-06	
760.000000	0.00759768	760.000000	0.00601943	760.000000	0.0059471 	760.000000	0.00593257	760.000000	0.00601845	760.000000	9.82169e-07	
780.000000	0.00753641	780.000000	0.00597773	780.000000	0.0059063 	780.000000	0.0058919 	780.000000	0.00597677	780.000000	9.58966e-07	
800.000000	0.00747872	800.000000	0.0059385 	800.000000	0.00586817	800.000000	0.00585366	800.000000	0.00593756	800.000000	9.36874e-07	
820.000000	0.00742435	820.000000	0.00590155	820.000000	0.00583238	820.000000	0.00581767	820.000000	0.00590063	820.000000	9.15814e-07	
840.000000	0.00737309	840.000000	0.00586673	840.000000	0.00579859	840.000000	0.00578377	840.000000	0.00586583	840.000000	8.95716e-07	
860.000000	0.00732473	860.000000	0.00583389	860.000000	0.00576657	860.000000	0.00575182	860.000000	0.00583301	860.000000	8.76512e-07	
880.000000	0.00727909	880.000000	0.0058029 	880.000000	0.00573626	880.000000	0.00572167	880.000000	0.00580204	880.000000	8.58145e-07	
900.000000	0.00723599	900.000000	0.00577365	900.000000	0.00570764	900.000000	0.00569321	900.000000	0.00577281	900.000000	8.40561e-07	
920.000000	0.00719527	920.000000	0.00574601	920.000000	0.00568063	920.000000	0.00566633	920.000000	0.00574519	920.000000	8.23709e-07	
940.000000	0.0071568 	940.000000	0.0057199 	940.000000	0.00565513	940.000000	0.00564091	940.000000	0.00571909	940.000000	8.07544e-07	
960.000000	0.00712044	960.000000	0.00569521	960.000000	0.00563101	960.000000	0.00561688	960.000000	0.00569442	960.000000	7.92024e-07	
980.000000	0.00708607	980.000000	0.00567186	980.000000	0.00560818	980.000000	0.00559413	980.000000	0.00567108	980.000000	7.77112e-07	
1000.000000	0.00705357	1000.000000	0.00564978	1000.000000	0.00558656	1000.000000	0.00557259	1000.000000	0.00564901	1000.000000	7.62771e-07	
1020.000000	0.00702285	1020.000000	0.00562888	1020.000000	0.00556607	1020.000000	0.00555219	1020.000000	0.00562813	1020.000000	7.4897e-07	
1040.000000	0.00699381	1040.000000	0.00560911	1040.000000	0.00554662	1040.000000	0.00553286	1040.000000	0.00560838	1040.000000	7.35677e-07	
1060.000000	0.00696635	1060.000000	0.0055904 	1060.000000	0.00552817	1060.000000	0.00551453	1060.000000	0.00558968	1060.000000	7.22865e-07	
1080.000000	0.0069404 	1080.000000	0.0055727 	1080.000000	0.0055107 	1080.000000	0.00549715	1080.000000	0.00557199	1080.000000	7.10508e-07	
1100.000000	0.00691588	1100.000000	0.00555594	1100.000000	0.00549417	1100.000000	0.00548066	1100.000000	0.00555525	1100.000000	6.98582e-07	
1120.000000	0.00689271	1120.000000	0.00554009	1120.000000	0.00547855	1120.000000	0.00546502	1120.000000	0.0055394 	1120.000000	6.87064e-07	
1140.000000	0.00687084	1140.000000	0.00552509	1140.000000	0.00546378	1140.000000	0.00545017	1140.000000	0.00552441	1140.000000	6.75934e-07	
1160.000000	0.00685019	1160.000000	0.0055109 	1160.000000	0.00544979	1160.000000	0.00543608	1160.000000	0.00551023	1160.000000	6.65171e-07	
1180.000000	0.00683071	1180.000000	0.00549748	1180.000000	0.0054365 	1180.000000	0.00542269	1180.000000	0.00549682	1180.000000	6.54759e-07	
1200.000000	0.00681234	1200.000000	0.00548479	1200.000000	0.00542385	1200.000000	0.00540998	1200.000000	0.00548414	1200.000000	6.44679e-07	
1220.000000	0.00679504	1220.000000	0.0054728 	1220.000000	0.00541179	1220.000000	0.00539791	1220.000000	0.00547216	1220.000000	6.34917e-07	
1240.000000	0.00677875	1240.000000	0.00546147	1240.000000	0.00540029	1240.000000	0.00538645	1240.000000	0.00546085	1240.000000	6.25456e-07	
1260.000000	0.00676344	1260.000000	0.00545078	1260.000000	0.00538933	1260.000000	0.00537556	1260.000000	0.00545016	1260.000000	6.16283e-07	
1280.000000	0.00674905	1280.000000	0.00544069	1280.000000	0.00537891	1280.000000	0.00536521	1280.000000	0.00544008	1280.000000	6.07386e-07	
1300.000000	0.00673554	1300.000000	0.00543117	1300.000000	0.00536901	1300.000000	0.00535539	1300.000000	0.00543058	1300.000000	5.98751e-07	
1320.000000	0.00672289	1320.000000	0.00542221	1320.000000	0.00535961	1320.000000	0.00534605	1320.000000	0.00542162	1320.000000	5.90367e-07	
1340.000000	0.00671106	1340.000000	0.00541378	1340.000000	0.00535069	1340.000000	0.00533719	1340.000000	0.00541319	1340.000000	5.82223e-07	
1360.000000	0.0067    	1360.000000	0.00540584	1360.000000	0.00534223	1360.000000	0.00532877	1360.000000	0.00540527	1360.000000	5.74309e-07	
1380.000000	0.00668969	1380.000000	0.00539839	1380.000000	0.0053342 	1380.000000	0.00532078	1380.000000	0.00539783	1380.000000	5.66614e-07	
1400.000000	0.00668011	1400.000000	0.00539141	1400.000000	0.00532657	1400.000000	0.00531319	1400.000000	0.00539085	1400.000000	5.59131e-07	
1420.000000	0.00667121	1420.000000	0.00538486	1420.000000	0.00531933	1420.000000	0.00530599	1420.000000	0.00538431	1420.000000	5.5185e-07	
1440.000000	0.00666299	1440.000000	0.00537874	1440.000000	0.00531245	1440.000000	0.00529916	1440.000000	0.0053782 	1440.000000	5.44763e-07	
1460.000000	0.0066554 	1460.000000	0.00537303	1460.000000	0.00530591	1460.000000	0.00529268	1460.000000	0.00537249	1460.000000	5.37863e-07	
1480.000000	0.00664842	1480.000000	0.0053677 	1480.000000	0.00529971	1480.000000	0.00528653	1480.000000	0.00536717	1480.000000	5.31141e-07	
1500.000000	0.00664204	1500.000000	0.00536276	1500.000000	0.00529383	1500.000000	0.0052807 	1500.000000	0.00536223	1500.000000	5.24592e-07	
1520.000000	0.00663624	1520.000000	0.00535817	1520.000000	0.00528826	1520.000000	0.00527519	1520.000000	0.00535765	1520.000000	5.18207e-07	
1540.000000	0.00663098	1540.000000	0.00535393	1540.000000	0.005283  	1540.000000	0.00526996	1540.000000	0.00535342	1540.000000	5.11982e-07	
1560.000000	0.00662625	1560.000000	0.00535003	1560.000000	0.00527802	1560.000000	0.00526501	1560.000000	0.00534952	1560.000000	5.0591e-07	
1580.000000	0.00662204	1580.000000	0.00534645	1580.000000	0.00527333	1580.000000	0.00526034	1580.000000	0.00534595	1580.000000	4.99986e-07	
1600.000000	0.00661832	1600.000000	0.00534317	1600.000000	0.00526891	1600.000000	0.00525592	1600.000000	0.00534268	1600.000000	4.94204e-07	
1620.000000	0.00661509	1620.000000	0.0053402 	1620.000000	0.00526475	1620.000000	0.00525174	1620.000000	0.00533971	1620.000000	4.88559e-07	
1640.000000	0.00661231	1640.000000	0.00533751	1640.000000	0.00526084	1640.000000	0.0052478 	1640.000000	0.00533703	1640.000000	4.83045e-07	
1660.000000	0.00660998	1660.000000	0.0053351 	1660.000000	0.00525717	1660.000000	0.00524409	1660.000000	0.00533462	1660.000000	4.7766e-07	
1680.000000	0.00660809	1680.000000	0.00533296	1680.000000	0.00525371	1680.000000	0.00524059	1680.000000	0.00533249	1680.000000	4.72398e-07	
1700.000000	0.00660661	1700.000000	0.00533107	1700.000000	0.00525047	1700.000000	0.0052373 	1700.000000	0.00533061	1700.000000	4.67254e-07	
1750.000000	0.00660466	1750.000000	0.00532743	1750.000000	0.0052432 	1750.000000	0.00522992	1750.000000	0.00532698	1750.000000	4.54889e-07	
1800.000000	0.00660506	1800.000000	0.00532522	1800.000000	0.005237  	1800.000000	0.00522367	1800.000000	0.00532478	1800.000000	4.43184e-07	
1850.000000	0.00660763	1850.000000	0.00532433	1850.000000	0.00523175	1850.000000	0.00521844	1850.000000	0.0053239 	1850.000000	4.32087e-07	
1900.000000	0.00661221	1900.000000	0.00532465	1900.000000	0.00522739	1900.000000	0.00521412	1900.000000	0.00532423	1900.000000	4.21551e-07	
1950.000000	0.00661867	1950.000000	0.00532608	1950.000000	0.00522383	1950.000000	0.00521064	1950.000000	0.00532567	1950.000000	4.11534e-07	
2000.000000	0.00662688	2000.000000	0.00532856	2000.000000	0.00522104	2000.000000	0.00520792	2000.000000	0.00532815	2000.000000	4.01999e-07	
2100.000000	0.0066481 	2100.000000	0.00533631	2100.000000	0.00521748	2100.000000	0.00520448	2100.000000	0.00533593	2100.000000	3.84238e-07	
2200.000000	0.00667507	2200.000000	0.00534739	2200.000000	0.00521625	2200.000000	0.00520334	2200.000000	0.00534703	2200.000000	3.6803e-07	
2300.000000	0.00670714	2300.000000	0.00536137	2300.000000	0.00521696	2300.000000	0.00520412	2300.000000	0.00536101	2300.000000	3.53179e-07	
2400.000000	0.00674375	2400.000000	0.00537787	2400.000000	0.00521926	2400.000000	0.00520649	2400.000000	0.00537753	2400.000000	3.39518e-07	
2500.000000	0.00678441	2500.000000	0.00539659	2500.000000	0.0052229 	2500.000000	0.00521021	2500.000000	0.00539627	2500.000000	3.26908e-07	
2600.000000	0.00682875	2600.000000	0.00541729	2600.000000	0.00522767	2600.000000	0.00521506	2600.000000	0.00541697	2600.000000	3.15232e-07	
2700.000000	0.0068764 	2700.000000	0.00543972	2700.000000	0.00523341	2700.000000	0.00522086	2700.000000	0.00543942	2700.000000	3.04388e-07	
2800.000000	0.00692708	2800.000000	0.00546371	2800.000000	0.00523998	2800.000000	0.00522746	2800.000000	0.00546342	2800.000000	2.94289e-07	
2900.000000	0.00698053	2900.000000	0.0054891 	2900.000000	0.00524725	2900.000000	0.00523473	2900.000000	0.00548881	2900.000000	2.84861e-07	
3000.000000	0.00703652	3000.000000	0.00551573	3000.000000	0.0052551 	3000.000000	0.00524257	3000.000000	0.00551545	3000.000000	2.76038e-07	
3200.000000	0.00715537	3200.000000	0.00557227	3200.000000	0.0052722 	3200.000000	0.00525961	3200.000000	0.00557201	3200.000000	2.59985e-07	
3400.000000	0.00728233	3400.000000	0.00563251	3400.000000	0.00529063	3400.000000	0.00527798	3400.000000	0.00563226	3400.000000	2.45753e-07	
3600.000000	0.00741637	3600.000000	0.00569582	3600.000000	0.00530995	3600.000000	0.00529726	3600.000000	0.00569558	3600.000000	2.33044e-07	
3800.000000	0.00755668	3800.000000	0.00576169	3800.000000	0.00532984	3800.000000	0.00531713	3800.000000	0.00576146	3800.000000	2.21625e-07	
4000.000000	0.00770261	4000.000000	0.00582971	4000.000000	0.00535006	4000.000000	0.00533737	4000.000000	0.0058295 	4000.000000	2.11306e-07	
4200.000000	0.00785361	4200.000000	0.00589958	4200.000000	0.00537044	4200.000000	0.00535779	4200.000000	0.00589937	4200.000000	2.01935e-07	
4400.000000	0.00800924	4400.000000	0.00597101	4400.000000	0.00539088	4400.000000	0.00537825	4400.000000	0.00597081	4400.000000	1.93385e-07	
4600.000000	0.00816914	4600.000000	0.00604378	4600.000000	0.00541125	4600.000000	0.00539867	4600.000000	0.0060436 	4600.000000	1.85552e-07	
4800.000000	0.00833299	4800.000000	0.00611772	4800.000000	0.0054315 	4800.000000	0.00541895	4800.000000	0.00611755	4800.000000	1.78348e-07	
5000.000000	0.00850053	5000.000000	0.00619268	5000.000000	0.00545157	5000.000000	0.00543905	5000.000000	0.0061925 	5000.000000	1.71699e-07	
5250.000000	0.00871482	5250.000000	0.00628759	5250.000000	0.00547633	5250.000000	0.00546384	5250.000000	0.00628743	5250.000000	1.64076e-07	
5500.000000	0.00893418	5500.000000	0.00638368	5500.000000	0.00550068	5500.000000	0.00548822	5500.000000	0.00638352	5500.000000	1.57121e-07	
6000.000000	0.00938691	6000.000000	0.0065787 	6000.000000	0.00554801	6000.000000	0.00553558	6000.000000	0.00657855	6000.000000	1.4489e-07	
6500.000000	0.00985685	6500.000000	0.00677665	6500.000000	0.00559338	6500.000000	0.00558098	6500.000000	0.00677652	6500.000000	1.34477e-07	
7000.000000	0.0103426 	7000.000000	0.0069768 	7000.000000	0.00563676	7000.000000	0.00562439	7000.000000	0.00697668	7000.000000	1.25501e-07	
7500.000000	0.0108432 	7500.000000	0.00717859	7500.000000	0.0056782 	7500.000000	0.00566585	7500.000000	0.00717847	7500.000000	1.17682e-07	
8000.000000	0.0113579 	8000.000000	0.00738162	8000.000000	0.00571783	8000.000000	0.00570545	8000.000000	0.00738151	8000.000000	1.10806e-07	
8500.000000	0.011886  	8500.000000	0.00758559	8500.000000	0.00575556	8500.000000	0.00574328	8500.000000	0.00758549	8500.000000	1.04713e-07	
9000.000000	0.0124272 	9000.000000	0.00779027	9000.000000	0.00579149	9000.000000	0.00577944	9000.000000	0.00779017	9000.000000	9.9273e-08	
9500.000000	0.012981  	9500.000000	0.00799547	9500.000000	0.00582592	9500.000000	0.00581406	9500.000000	0.00799538	9500.000000	9.43866e-08	
10000.000000	0.0135472 	10000.000000	0.00820106	10000.000000	0.00585902	10000.000000	0.00584721	10000.000000	0.00820097	10000.000000	8.99724e-08	
11000.000000	0.0147159 	11000.000000	0.008613  	11000.000000	0.00592138	11000.000000	0.00590954	11000.000000	0.00861292	11000.000000	8.23084e-08	
12000.000000	0.0159318 	12000.000000	0.00902544	12000.000000	0.00597897	12000.000000	0.0059671 	12000.000000	0.00902536	12000.000000	7.58806e-08	
13000.000000	0.0171942 	13000.000000	0.00943797	13000.000000	0.00603232	13000.000000	0.00602051	13000.000000	0.0094379 	13000.000000	7.04099e-08	
14000.000000	0.0185023 	14000.000000	0.00985031	14000.000000	0.00608193	14000.000000	0.00607025	14000.000000	0.00985024	14000.000000	6.56954e-08	
15000.000000	0.0198557 	15000.000000	0.0102623 	15000.000000	0.00612826	15000.000000	0.00611675	15000.000000	0.0102622 	15000.000000	6.15893e-08	
16000.000000	0.0212542 	16000.000000	0.0106738 	16000.000000	0.00617173	16000.000000	0.00616038	16000.000000	0.0106737 	16000.000000	5.79799e-08	
17000.000000	0.0226977 	17000.000000	0.0110847 	17000.000000	0.00621266	17000.000000	0.00620144	17000.000000	0.0110846 	17000.000000	5.47814e-08	
18000.000000	0.024186  	18000.000000	0.011495  	18000.000000	0.00625133	18000.000000	0.00624019	18000.000000	0.011495  	18000.000000	5.19269e-08	
19000.000000	0.0257192 	19000.000000	0.0119047 	19000.000000	0.00628795	19000.000000	0.00627687	19000.000000	0.0119046 	19000.000000	4.93631e-08	
20000.000000	0.0272972 	20000.000000	0.0123136 	20000.000000	0.00632272	20000.000000	0.00631167	20000.000000	0.0123136 	20000.000000	4.70475e-08	
21000.000000	0.0289202 	21000.000000	0.012722  	21000.000000	0.0063558 	21000.000000	0.00634476	21000.000000	0.0127219 	21000.000000	4.49453e-08	
22000.000000	0.0305881 	22000.000000	0.0131296 	22000.000000	0.00638731	22000.000000	0.00637629	22000.000000	0.0131295 	22000.000000	4.30281e-08	
23000.000000	0.0323013 	23000.000000	0.0135365 	23000.000000	0.00641709	23000.000000	0.0064064 	23000.000000	0.0135365 	23000.000000	4.12723e-08	
24000.000000	0.0340597 	24000.000000	0.0139428 	24000.000000	0.00644558	24000.000000	0.00643519	24000.000000	0.0139427 	24000.000000	3.96581e-08	
25000.000000	0.0358635 	25000.000000	0.0143484 	25000.000000	0.00647318	25000.000000	0.00646277	25000.000000	0.0143484 	25000.000000	3.81689e-08	
26000.000000	0.0377129 	26000.000000	0.0147533 	26000.000000	0.00649963	26000.000000	0.00648924	26000.000000	0.0147533 	26000.000000	3.67906e-08	
27000.000000	0.0396081 	27000.000000	0.0151577 	27000.000000	0.00652485	27000.000000	0.00651468	27000.000000	0.0151576 	27000.000000	3.55111e-08	
28000.000000	0.0415493 	28000.000000	0.0155613 	28000.000000	0.00654903	28000.000000	0.00653915	28000.000000	0.0155613 	28000.000000	3.43201e-08	
29000.000000	0.0435366 	29000.000000	0.0159644 	29000.000000	0.00657237	29000.000000	0.00656273	29000.000000	0.0159644 	29000.000000	3.32086e-08	
30000.000000	0.0455703 	30000.000000	0.0163668 	30000.000000	0.00659494	30000.000000	0.00658547	30000.000000	0.0163668 	30000.000000	3.21689e-08	
32000.000000	0.0497777 	32000.000000	0.01717   	32000.000000	0.00663777	32000.000000	0.00662866	32000.000000	0.01717   	32000.000000	3.02783e-08	
34000.000000	0.0541731 	34000.000000	0.0179709 	34000.000000	0.00667774	34000.000000	0.0066691 	34000.000000	0.0179709 	34000.000000	2.86033e-08	
36000.000000	0.0587585 	36000.000000	0.0187696 	36000.000000	0.00671527	36000.000000	0.0067071 	36000.000000	0.0187696 	36000.000000	2.71086e-08	
38000.000000	0.0635357 	38000.000000	0.0195663 	38000.000000	0.00675067	38000.000000	0.00674293	38000.000000	0.0195663 	38000.000000	2.57665e-08	
40000.000000	0.0685066 	40000.000000	0.020361  	40000.000000	0.00678414	40000.000000	0.00677681	40000.000000	0.020361  	40000.000000	2.45544e-08	
42000.000000	0.0736733 	42000.000000	0.0211538 	42000.000000	0.00681582	42000.000000	0.00680893	42000.000000	0.0211538 	42000.000000	2.34543e-08	
44000.000000	0.0790378 	44000.000000	0.0219448 	44000.000000	0.00684588	44000.000000	0.00683946	44000.000000	0.0219448 	44000.000000	2.2451e-08	
46000.000000	0.0846022 	46000.000000	0.022734  	46000.000000	0.00687444	46000.000000	0.00686854	46000.000000	0.022734  	46000.000000	2.15324e-08	
48000.000000	0.0903685 	48000.000000	0.0235216 	48000.000000	0.00690164	48000.000000	0.0068963 	48000.000000	0.0235216 	48000.000000	2.06879e-08	
50000.000000	0.0963389 	50000.000000	0.0243076 	50000.000000	0.00692759	50000.000000	0.00692284	50000.000000	0.0243076 	50000.000000	1.9909e-08	
