Energy (MeV/u)1	0 - [He-base] F.Hubert et al, AD&ND Tables 46(1990)1	Energy (MeV/u)2	1 - [H -base] J.F.Ziegler et al, Pergamon Press, NY (low energy)	Energy (MeV/u)3	2 - ATIMA 1.2  LS-theory (recommended for high energy)	Energy (MeV/u)4	3 - ATIMA 1.2  without LS-correction	Energy (MeV/u)5	4 - electrical component of [1] - J.F.Ziegler et al	Energy (MeV/u)6	5 - nuclear component of [1] - J.F.Ziegler et al	
0.001000	2.9198    	0.001000	3.88498   	0.001000	3.98809   	0.001000	3.98809   	0.001000	1.14952   	0.001000	2.73546   	
0.002000	2.86093   	0.002000	3.73382   	0.002000	3.89539   	0.002000	3.89539   	0.002000	1.49074   	0.002000	2.24308   	
0.005000	2.93561   	0.005000	3.60386   	0.005000	3.89357   	0.005000	3.89357   	0.005000	2.10199   	0.005000	1.50187   	
0.008000	3.10649   	0.008000	3.66791   	0.008000	4.05702   	0.008000	4.05702   	0.008000	2.50712   	0.008000	1.16078   	
0.010000	3.22722   	0.010000	3.74264   	0.010000	4.18977   	0.010000	4.18977   	0.010000	2.72594   	0.010000	1.0167    	
0.015000	3.75029   	0.015000	4.07807   	0.015000	4.60343   	0.015000	4.60343   	0.015000	3.29056   	0.015000	0.787511  	
0.020000	4.27458   	0.020000	4.56636   	0.020000	5.19863   	0.020000	5.19863   	0.020000	3.91599   	0.020000	0.650372  	
0.025000	4.90618   	0.025000	5.18665   	0.025000	5.84123   	0.025000	5.84123   	0.025000	4.62882   	0.025000	0.557828  	
0.030000	5.50441   	0.030000	5.83263   	0.030000	6.55301   	0.030000	6.55301   	0.030000	5.34455   	0.030000	0.488088  	
0.035000	6.04939   	0.035000	6.48587   	0.035000	7.27143   	0.035000	7.27143   	0.035000	6.05058   	0.035000	0.435295  	
0.040000	6.52987   	0.040000	7.1377    	0.040000	7.98814   	0.040000	7.98814   	0.040000	6.74262   	0.040000	0.395075  	
0.045000	6.9391    	0.045000	7.77936   	0.045000	8.69479   	0.045000	8.69479   	0.045000	7.41706   	0.045000	0.362306  	
0.050000	7.27402   	0.050000	8.40584   	0.050000	9.38679   	0.050000	9.38679   	0.050000	8.07081   	0.050000	0.335034  	
0.055000	7.76693   	0.055000	9.08407   	0.055000	10.0607   	0.055000	10.0607   	0.055000	8.77213   	0.055000	0.311944  	
0.060000	8.2159    	0.060000	9.74991   	0.060000	10.714    	0.060000	10.714    	0.060000	9.4578    	0.060000	0.292114  	
0.070000	8.95521   	0.070000	11.0041   	0.070000	11.9515   	0.070000	11.9515   	0.070000	10.7443   	0.070000	0.259746  	
0.080000	9.72606   	0.080000	12.1626   	0.080000	13.0902   	0.080000	13.0902   	0.080000	11.9283   	0.080000	0.234374  	
0.090000	10.3821   	0.090000	13.2345   	0.090000	14.1269   	0.090000	14.1269   	0.090000	13.0206   	0.090000	0.213897  	
0.100000	10.9446   	0.100000	14.2153   	0.100000	15.0625   	0.100000	15.0625   	0.100000	14.0184   	0.100000	0.196986  	
0.120000	11.5897   	0.120000	15.9356   	0.120000	16.6466   	0.120000	16.6466   	0.120000	15.765    	0.120000	0.170615  	
0.140000	12.0868   	0.140000	17.3449   	0.140000	17.8894   	0.140000	17.8894   	0.140000	17.1939   	0.140000	0.150922  	
0.160000	12.513    	0.160000	18.4718   	0.160000	18.8471   	0.160000	18.8471   	0.160000	18.3362   	0.160000	0.135605  	
0.180000	12.9046   	0.180000	19.3466   	0.180000	19.5742   	0.180000	19.5742   	0.180000	19.2233   	0.180000	0.12332   	
0.200000	13.2833   	0.200000	20.0187   	0.200000	20.1193   	0.200000	20.1193   	0.200000	19.9055   	0.200000	0.113228  	
0.250000	13.8205   	0.250000	21.047    	0.250000	20.9309   	0.250000	20.9309   	0.250000	20.9526   	0.250000	0.0943769 	
0.300000	14.3872   	0.300000	21.688    	0.300000	21.273    	0.300000	21.273    	0.300000	21.6068   	0.300000	0.0812313 	
0.350000	14.8365   	0.350000	21.9968   	0.350000	21.5629   	0.350000	21.5629   	0.350000	21.9253   	0.350000	0.0714993 	
0.400000	15.182    	0.400000	22.1415   	0.400000	21.9622   	0.400000	21.9622   	0.400000	22.0775   	0.400000	0.0639811 	
0.450000	15.608    	0.450000	22.4457   	0.450000	22.1991   	0.450000	22.1991   	0.450000	22.3877   	0.450000	0.0579849 	
0.500000	15.9575   	0.500000	22.7131   	0.500000	22.329    	0.500000	22.329    	0.500000	22.66     	0.500000	0.0530823 	
0.600000	15.8526   	0.600000	22.4866   	0.600000	22.3876   	0.600000	22.3876   	0.600000	22.4411   	0.600000	0.0455272 	
0.700000	15.4738   	0.700000	22.1131   	0.700000	22.2681   	0.700000	22.2681   	0.700000	22.0732   	0.700000	0.0399595 	
0.800000	15.459    	0.800000	21.5742   	0.800000	21.8599   	0.800000	21.8599   	0.800000	21.5385   	0.800000	0.0356742 	
0.900000	15.3564   	0.900000	21.0203   	0.900000	21.447    	0.900000	21.447    	0.900000	20.988    	0.900000	0.0322668 	
1.000000	15.0954   	1.000000	20.3259   	1.000000	21.0347   	1.000000	21.0347   	1.000000	20.2964   	1.000000	0.0294881 	
1.250000	14.3406   	1.250000	19.2378   	1.250000	19.9672   	1.250000	19.9672   	1.250000	19.2134   	1.250000	0.0243494 	
1.500000	13.5631   	1.500000	18.2402   	1.500000	18.8557   	1.500000	18.8557   	1.500000	18.2194   	1.500000	0.0208079 	
1.750000	12.8314   	1.750000	17.3516   	1.750000	17.896    	1.750000	17.896    	1.750000	17.3334   	1.750000	0.0182099 	
2.000000	12.1745   	2.000000	16.58     	2.000000	17.046    	2.000000	17.046    	2.000000	16.5638   	2.000000	0.0162175 	
2.250000	11.6112   	2.250000	15.8044   	2.250000	16.2824   	2.250000	16.2824   	2.250000	15.7897   	2.250000	0.0146381 	
2.500000	12.0084   	2.500000	15.1138   	2.500000	15.5896   	2.500000	15.5896   	2.500000	15.1004   	2.500000	0.0133535 	
3.000000	10.9663   	3.000000	13.9161   	3.000000	14.3762   	3.000000	14.3762   	3.000000	13.9048   	3.000000	0.0113863 	
3.500000	10.0908   	3.500000	12.9032   	3.500000	13.3452   	3.500000	13.3452   	3.500000	12.8932   	3.500000	0.00994691	
4.000000	9.34815   	4.000000	12.0322   	4.000000	12.4568   	4.000000	12.4568   	4.000000	12.0234   	4.000000	0.00884547	
4.500000	8.71141   	4.500000	11.2731   	4.500000	11.6827   	4.500000	11.6827   	4.500000	11.2651   	4.500000	0.00797392	
5.000000	8.15987   	5.000000	10.6042   	5.000000	11.0019   	5.000000	11.0019   	5.000000	10.5969   	5.000000	0.00726612	
5.500000	7.67763   	5.500000	10.0204   	5.500000	10.3982   	5.500000	10.3982   	5.500000	10.0137   	5.500000	0.00667924	
6.000000	7.25242   	6.000000	9.49826   	6.000000	9.85905   	6.000000	9.85905   	6.000000	9.49207   	6.000000	0.00618429	
6.500000	6.87466   	6.500000	9.02859   	6.500000	9.37451   	6.500000	9.37451   	6.500000	9.02283   	6.500000	0.00576093	
7.000000	6.53678   	7.000000	8.6039    	7.000000	8.93659   	7.000000	8.93659   	7.000000	8.59851   	7.000000	0.00539444	
7.500000	6.23273   	7.500000	8.21803   	7.500000	8.53881   	7.500000	8.53881   	7.500000	8.21296   	7.500000	0.00507392	
8.000000	5.95762   	8.000000	7.86589   	8.000000	8.17583   	8.000000	8.17583   	8.000000	7.8611    	8.000000	0.0047911 	
8.500000	5.70745   	8.500000	7.54324   	8.500000	7.84324   	8.500000	7.84324   	8.500000	7.5387    	8.500000	0.00453959	
9.000000	5.47896   	9.000000	7.24651   	9.000000	7.53734   	9.000000	7.53734   	9.000000	7.2422    	9.000000	0.0043144 	
9.500000	5.26939   	9.500000	6.97269   	9.500000	7.25501   	9.500000	7.25501   	9.500000	6.96858   	9.500000	0.00411152	
10.000000	5.07647   	10.000000	6.81316   	10.000000	6.9936    	10.000000	6.9936    	10.000000	6.80924   	10.000000	0.00392775	
11.000000	4.7331    	11.000000	6.38184   	11.000000	6.51289   	11.000000	6.52784   	11.000000	6.37823   	11.000000	0.00360752	
12.000000	4.43656   	12.000000	6.00325   	12.000000	6.09606   	12.000000	6.12156   	12.000000	5.99992   	12.000000	0.00333772	
13.000000	4.17777   	13.000000	5.66849   	13.000000	5.7313    	13.000000	5.76424   	13.000000	5.66538   	13.000000	0.00310715	
14.000000	3.94985   	14.000000	5.37046   	14.000000	5.40952   	14.000000	5.44769   	14.000000	5.36755   	14.000000	0.00290772	
15.000000	3.74752   	15.000000	5.10351   	15.000000	5.12362   	15.000000	5.16544   	15.000000	5.10078   	15.000000	0.00273342	
16.000000	3.56664   	16.000000	4.86307   	16.000000	4.86813   	16.000000	4.91233   	16.000000	4.86049   	16.000000	0.00257973	
17.000000	3.40392   	17.000000	4.6454    	17.000000	4.63858   	17.000000	4.68418   	17.000000	4.64296   	17.000000	0.00244315	
18.000000	3.25672   	18.000000	4.44743   	18.000000	4.43125   	18.000000	4.4776    	18.000000	4.44511   	18.000000	0.00232092	
19.000000	3.12289   	19.000000	4.26662   	19.000000	4.24309   	19.000000	4.28975   	19.000000	4.26441   	19.000000	0.00221086	
20.000000	3.00066   	20.000000	4.10084   	20.000000	4.07162   	20.000000	4.11829   	20.000000	4.09873   	20.000000	0.00211122	
21.000000	2.88856   	21.000000	3.9483    	21.000000	3.91484   	21.000000	3.96126   	21.000000	3.94628   	21.000000	0.00202056	
22.000000	2.78536   	22.000000	3.80747   	22.000000	3.7711    	22.000000	3.81699   	22.000000	3.80554   	22.000000	0.00193771	
23.000000	2.69003   	23.000000	3.67706   	23.000000	3.63897   	23.000000	3.68406   	23.000000	3.6752    	23.000000	0.00186168	
24.000000	2.60169   	24.000000	3.55596   	24.000000	3.51716   	24.000000	3.56125   	24.000000	3.55417   	24.000000	0.00179165	
25.000000	2.51959   	25.000000	3.4432    	25.000000	3.40454   	25.000000	3.44752   	25.000000	3.44148   	25.000000	0.00172692	
27.000000	2.37158   	27.000000	3.23949   	27.000000	3.20305   	27.000000	3.24377   	27.000000	3.23788   	27.000000	0.00161112	
29.000000	2.24178   	29.000000	3.06045   	29.000000	3.02853   	29.000000	3.06684   	29.000000	3.05894   	29.000000	0.00151049	
31.000000	2.12699   	31.000000	2.90185   	31.000000	2.87448   	31.000000	2.90869   	31.000000	2.90043   	31.000000	0.00142218	
33.000000	2.0247    	33.000000	2.76038   	33.000000	2.73568   	33.000000	2.76506   	33.000000	2.75903   	33.000000	0.00134404	
35.000000	1.93294   	35.000000	2.63339   	35.000000	2.61128   	35.000000	2.6364    	35.000000	2.63211   	35.000000	0.00127439	
38.000000	1.81171   	38.000000	2.46553   	38.000000	2.4467    	38.000000	2.46668   	38.000000	2.46434   	38.000000	0.00118298	
41.000000	1.7066    	41.000000	2.31999   	41.000000	2.30409   	41.000000	2.31981   	41.000000	2.31888   	41.000000	0.0011043 	
44.000000	1.61454   	44.000000	2.19257   	44.000000	2.17879   	44.000000	2.19144   	44.000000	2.19154   	44.000000	0.00103583	
47.000000	1.53322   	47.000000	2.08008   	47.000000	2.06832   	47.000000	2.07824   	47.000000	2.07911   	47.000000	0.00097568	
50.000000	1.46082   	50.000000	1.98003   	50.000000	1.9699    	50.000000	1.97764   	50.000000	1.9791    	50.000000	0.000922401	
55.000000	1.35627   	55.000000	1.83574   	55.000000	1.82759   	55.000000	1.83271   	55.000000	1.83489   	55.000000	0.000845913	
60.000000	1.26777   	60.000000	1.71383   	60.000000	1.70741   	60.000000	1.71037   	60.000000	1.71305   	60.000000	0.000781586	
65.000000	1.19182   	65.000000	1.60944   	65.000000	1.60437   	65.000000	1.60566   	65.000000	1.60872   	65.000000	0.0007267 	
70.000000	1.12588   	70.000000	1.51902   	70.000000	1.51492   	70.000000	1.515     	70.000000	1.51835   	70.000000	0.000679293	
75.000000	1.06807   	75.000000	1.43993   	75.000000	1.43668   	75.000000	1.4357    	75.000000	1.43929   	75.000000	0.000637918	
80.000000	1.01694   	80.000000	1.37014   	80.000000	1.36743   	80.000000	1.36574   	80.000000	1.36953   	80.000000	0.000601478	
85.000000	0.971367  	85.000000	1.30808   	85.000000	1.30583   	85.000000	1.30355   	85.000000	1.30752   	85.000000	0.000569129	
90.000000	0.930483  	90.000000	1.25255   	90.000000	1.25067   	90.000000	1.24788   	90.000000	1.25201   	90.000000	0.000540211	
95.000000	0.893582  	95.000000	1.20254   	95.000000	1.20099   	95.000000	1.19776   	95.000000	1.20202   	95.000000	0.000514199	
100.000000	0.860097  	100.000000	1.15726   	100.000000	1.156     	100.000000	1.15238   	100.000000	1.15677   	100.000000	0.000490669	
105.000000	0.829564  	105.000000	1.11608   	105.000000	1.11494   	105.000000	1.1111    	105.000000	1.11561   	105.000000	0.00046928	
110.000000	0.801601  	110.000000	1.07845   	110.000000	1.07751   	110.000000	1.07339   	110.000000	1.078     	110.000000	0.000449747	
115.000000	0.77589   	115.000000	1.04393   	115.000000	1.04312   	115.000000	1.03879   	115.000000	1.0435    	115.000000	0.000431836	
120.000000	0.752162  	120.000000	1.01214   	120.000000	1.0114    	120.000000	1.00693   	120.000000	1.01173   	120.000000	0.000415351	
125.000000	0.730191  	125.000000	0.982783  	125.000000	0.9821    	125.000000	0.977505  	125.000000	0.982383  	125.000000	0.000400125	
130.000000	0.709785  	130.000000	0.955575  	130.000000	0.954945  	130.000000	0.950237  	130.000000	0.955189  	130.000000	0.000386018	
135.000000	0.690778  	135.000000	0.93029   	135.000000	0.929708  	135.000000	0.924898  	135.000000	0.929917  	135.000000	0.00037291	
140.000000	0.673028  	140.000000	0.906729  	140.000000	0.906186  	140.000000	0.901289  	140.000000	0.906369  	140.000000	0.000360696	
145.000000	0.65641   	145.000000	0.884722  	145.000000	0.884222  	145.000000	0.879239  	145.000000	0.884373  	145.000000	0.000349287	
150.000000	0.640817  	150.000000	0.864119  	150.000000	0.863659  	150.000000	0.858598  	150.000000	0.86378   	150.000000	0.000338605	
155.000000	0.618844  	155.000000	0.844788  	155.000000	0.844306  	155.000000	0.839234  	155.000000	0.84446   	155.000000	0.000328582	
160.000000	0.605972  	160.000000	0.826616  	160.000000	0.826108  	160.000000	0.821033  	160.000000	0.826297  	160.000000	0.000319157	
165.000000	0.593832  	165.000000	0.8095    	165.000000	0.809022  	165.000000	0.803892  	165.000000	0.80919   	165.000000	0.000310279	
170.000000	0.582363  	170.000000	0.793351  	170.000000	0.792917  	170.000000	0.787722  	170.000000	0.793049  	170.000000	0.000301899	
175.000000	0.571509  	175.000000	0.778089  	175.000000	0.777676  	175.000000	0.772443  	175.000000	0.777795  	175.000000	0.000293978	
180.000000	0.561221  	180.000000	0.763642  	180.000000	0.763215  	180.000000	0.757983  	180.000000	0.763355  	180.000000	0.000286477	
185.000000	0.551457  	185.000000	0.749947  	185.000000	0.749488  	185.000000	0.744278  	185.000000	0.749667  	185.000000	0.000279364	
190.000000	0.542176  	190.000000	0.736946  	190.000000	0.736464  	190.000000	0.731271  	190.000000	0.736673  	190.000000	0.000272609	
195.000000	0.533343  	195.000000	0.724588  	195.000000	0.724117  	195.000000	0.718909  	195.000000	0.724322  	195.000000	0.000266186	
200.000000	0.524926  	200.000000	0.712827  	200.000000	0.712391  	200.000000	0.707147  	200.000000	0.712567  	200.000000	0.000260069	
210.000000	0.509226  	210.000000	0.690929  	210.000000	0.690494  	210.000000	0.685256  	210.000000	0.69068   	210.000000	0.000248673	
220.000000	0.494876  	220.000000	0.670959  	220.000000	0.670501  	220.000000	0.665302  	220.000000	0.670721  	220.000000	0.000238268	
230.000000	0.481706  	230.000000	0.652674  	230.000000	0.652278  	230.000000	0.647041  	230.000000	0.652446  	230.000000	0.000228731	
240.000000	0.469577  	240.000000	0.63587   	240.000000	0.635499  	240.000000	0.630269  	240.000000	0.635651  	240.000000	0.000219954	
250.000000	0.458368  	250.000000	0.620376  	250.000000	0.620008  	250.000000	0.614813  	250.000000	0.620164  	250.000000	0.00021185	
260.000000	0.447979  	260.000000	0.606044  	260.000000	0.605696  	260.000000	0.600526  	260.000000	0.60584   	260.000000	0.000204343	
270.000000	0.438323  	270.000000	0.592751  	270.000000	0.592424  	270.000000	0.587281  	270.000000	0.592553  	270.000000	0.000197369	
280.000000	0.429325  	280.000000	0.580387  	280.000000	0.580088  	280.000000	0.574971  	280.000000	0.580196  	280.000000	0.000190873	
290.000000	0.420919  	290.000000	0.568861  	290.000000	0.568593  	290.000000	0.563501  	290.000000	0.568676  	290.000000	0.000184805	
300.000000	0.413051  	300.000000	0.55809   	300.000000	0.557859  	300.000000	0.552791  	300.000000	0.557911  	300.000000	0.000179126	
310.000000	0.405669  	310.000000	0.548005  	310.000000	0.547812  	310.000000	0.542769  	310.000000	0.547831  	310.000000	0.000173797	
320.000000	0.39873   	320.000000	0.538542  	320.000000	0.538392  	320.000000	0.533371  	320.000000	0.538373  	320.000000	0.000168788	
330.000000	0.392197  	330.000000	0.529647  	330.000000	0.529542  	330.000000	0.524544  	330.000000	0.529483  	330.000000	0.000164069	
340.000000	0.386035  	340.000000	0.521272  	340.000000	0.521213  	340.000000	0.516237  	340.000000	0.521112  	340.000000	0.000159617	
350.000000	0.380213  	350.000000	0.513373  	350.000000	0.513363  	350.000000	0.508407  	350.000000	0.513217  	350.000000	0.000155409	
360.000000	0.374705  	360.000000	0.505911  	360.000000	0.505952  	360.000000	0.501018  	360.000000	0.50576   	360.000000	0.000151425	
370.000000	0.369487  	370.000000	0.498853  	370.000000	0.498904  	370.000000	0.493989  	370.000000	0.498706  	370.000000	0.000147647	
380.000000	0.364537  	380.000000	0.492168  	380.000000	0.492231  	380.000000	0.487336  	380.000000	0.492023  	380.000000	0.00014406	
390.000000	0.359834  	390.000000	0.485826  	390.000000	0.485905  	390.000000	0.481029  	390.000000	0.485686  	390.000000	0.000140649	
400.000000	0.355362  	400.000000	0.479805  	400.000000	0.479902  	400.000000	0.475043  	400.000000	0.479668  	400.000000	0.000137402	
410.000000	0.351105  	410.000000	0.47408   	410.000000	0.474197  	410.000000	0.469355  	410.000000	0.473946  	410.000000	0.000134307	
420.000000	0.347047  	420.000000	0.468632  	420.000000	0.468768  	420.000000	0.463945  	420.000000	0.468501  	420.000000	0.000131353	
430.000000	0.343176  	430.000000	0.463441  	430.000000	0.463601  	430.000000	0.458794  	430.000000	0.463313  	430.000000	0.000128531	
440.000000	0.339479  	440.000000	0.458491  	440.000000	0.45868   	440.000000	0.453884  	440.000000	0.458365  	440.000000	0.000125832	
450.000000	0.335946  	450.000000	0.453766  	450.000000	0.453979  	450.000000	0.449199  	450.000000	0.453642  	450.000000	0.000123248	
460.000000	0.332566  	460.000000	0.449251  	460.000000	0.449475  	460.000000	0.444726  	460.000000	0.44913   	460.000000	0.000120772	
470.000000	0.329331  	470.000000	0.444934  	470.000000	0.445162  	470.000000	0.440451  	470.000000	0.444816  	470.000000	0.000118397	
480.000000	0.32623   	480.000000	0.440803  	480.000000	0.441044  	480.000000	0.436361  	480.000000	0.440687  	480.000000	0.000116116	
490.000000	0.323258  	490.000000	0.436846  	490.000000	0.437115  	490.000000	0.432446  	490.000000	0.436732  	490.000000	0.000113926	
500.000000	0.320405  	500.000000	0.433054  	500.000000	0.433355  	500.000000	0.428695  	500.000000	0.432942  	500.000000	0.000111819	
520.000000	0.315035  	520.000000	0.425925  	520.000000	0.426284  	520.000000	0.42165   	520.000000	0.425817  	520.000000	0.000107839	
540.000000	0.310072  	540.000000	0.419351  	540.000000	0.41977   	540.000000	0.415156  	540.000000	0.419247  	540.000000	0.000104142	
560.000000	0.305474  	560.000000	0.413272  	560.000000	0.413741  	560.000000	0.409156  	560.000000	0.413171  	560.000000	0.000100699	
580.000000	0.301206  	580.000000	0.407639  	580.000000	0.408133  	580.000000	0.403599  	580.000000	0.407542  	580.000000	9.74836e-05	
600.000000	0.297236  	600.000000	0.402409  	600.000000	0.402943  	600.000000	0.398441  	600.000000	0.402315  	600.000000	9.44743e-05	
620.000000	0.293537  	620.000000	0.397544  	620.000000	0.398131  	620.000000	0.393645  	620.000000	0.397452  	620.000000	9.16516e-05	
640.000000	0.290085  	640.000000	0.39301   	640.000000	0.393644  	640.000000	0.389175  	640.000000	0.392921  	640.000000	8.89984e-05	
660.000000	0.286858  	660.000000	0.388778  	660.000000	0.389456  	660.000000	0.385003  	660.000000	0.388691  	660.000000	8.64997e-05	
680.000000	0.283838  	680.000000	0.384822  	680.000000	0.385543  	680.000000	0.381103  	680.000000	0.384737  	680.000000	8.41423e-05	
700.000000	0.281008  	700.000000	0.381119  	700.000000	0.381869  	700.000000	0.377451  	700.000000	0.381037  	700.000000	8.19143e-05	
720.000000	0.278353  	720.000000	0.377648  	720.000000	0.37841   	720.000000	0.374026  	720.000000	0.377568  	720.000000	7.98052e-05	
740.000000	0.27586   	740.000000	0.374391  	740.000000	0.375164  	740.000000	0.370811  	740.000000	0.374314  	740.000000	7.78057e-05	
760.000000	0.273515  	760.000000	0.371332  	760.000000	0.372124  	760.000000	0.367788  	760.000000	0.371256  	760.000000	7.59074e-05	
780.000000	0.27131   	780.000000	0.368456  	780.000000	0.369269  	780.000000	0.364942  	780.000000	0.368382  	780.000000	7.41026e-05	
800.000000	0.269233  	800.000000	0.365749  	800.000000	0.36658   	800.000000	0.36226   	800.000000	0.365677  	800.000000	7.23846e-05	
820.000000	0.267276  	820.000000	0.363199  	820.000000	0.36404   	820.000000	0.359731  	820.000000	0.363129  	820.000000	7.07472e-05	
840.000000	0.265431  	840.000000	0.360796  	840.000000	0.361635  	840.000000	0.357342  	840.000000	0.360727  	840.000000	6.91847e-05	
860.000000	0.26369   	860.000000	0.358529  	860.000000	0.359353  	860.000000	0.355084  	860.000000	0.358461  	860.000000	6.7692e-05	
880.000000	0.262047  	880.000000	0.356389  	880.000000	0.357194  	880.000000	0.352948  	880.000000	0.356323  	880.000000	6.62647e-05	
900.000000	0.260495  	900.000000	0.354369  	900.000000	0.355153  	900.000000	0.350926  	900.000000	0.354304  	900.000000	6.48983e-05	
920.000000	0.259029  	920.000000	0.352459  	920.000000	0.353225  	920.000000	0.34901   	920.000000	0.352396  	920.000000	6.3589e-05	
940.000000	0.257644  	940.000000	0.350654  	940.000000	0.351401  	940.000000	0.347193  	940.000000	0.350592  	940.000000	6.23333e-05	
960.000000	0.256335  	960.000000	0.348947  	960.000000	0.349671  	960.000000	0.345468  	960.000000	0.348886  	960.000000	6.11279e-05	
980.000000	0.255098  	980.000000	0.347332  	980.000000	0.348028  	980.000000	0.343831  	980.000000	0.347272  	980.000000	5.99699e-05	
1000.000000	0.253928  	1000.000000	0.345804  	1000.000000	0.346466  	1000.000000	0.342275  	1000.000000	0.345746  	1000.000000	5.88564e-05	
1020.000000	0.252822  	1020.000000	0.344358  	1020.000000	0.344977  	1020.000000	0.340795  	1020.000000	0.3443    	1020.000000	5.77849e-05	
1040.000000	0.251777  	1040.000000	0.342989  	1040.000000	0.343556  	1040.000000	0.339388  	1040.000000	0.342932  	1040.000000	5.6753e-05	
1060.000000	0.250788  	1060.000000	0.341693  	1060.000000	0.3422    	1060.000000	0.338048  	1060.000000	0.341637  	1060.000000	5.57586e-05	
1080.000000	0.249854  	1080.000000	0.340465  	1080.000000	0.340907  	1080.000000	0.336773  	1080.000000	0.340411  	1080.000000	5.47996e-05	
1100.000000	0.248971  	1100.000000	0.339303  	1100.000000	0.339678  	1100.000000	0.335557  	1100.000000	0.339249  	1100.000000	5.38742e-05	
1120.000000	0.248137  	1120.000000	0.338203  	1120.000000	0.338509  	1120.000000	0.334398  	1120.000000	0.33815   	1120.000000	5.29805e-05	
1140.000000	0.24735   	1140.000000	0.337161  	1140.000000	0.337398  	1140.000000	0.333293  	1140.000000	0.337109  	1140.000000	5.21171e-05	
1160.000000	0.246607  	1160.000000	0.336175  	1160.000000	0.33634   	1160.000000	0.332239  	1160.000000	0.336124  	1160.000000	5.12822e-05	
1180.000000	0.245905  	1180.000000	0.335242  	1180.000000	0.335329  	1180.000000	0.331233  	1180.000000	0.335192  	1180.000000	5.04746e-05	
1200.000000	0.245244  	1200.000000	0.334359  	1200.000000	0.334362  	1200.000000	0.330273  	1200.000000	0.334309  	1200.000000	4.96929e-05	
1220.000000	0.244621  	1220.000000	0.333524  	1220.000000	0.333436  	1220.000000	0.329355  	1220.000000	0.333475  	1220.000000	4.89359e-05	
1240.000000	0.244035  	1240.000000	0.332734  	1240.000000	0.332549  	1240.000000	0.328479  	1240.000000	0.332686  	1240.000000	4.82024e-05	
1260.000000	0.243484  	1260.000000	0.331988  	1260.000000	0.3317    	1260.000000	0.327641  	1260.000000	0.331941  	1260.000000	4.74912e-05	
1280.000000	0.242966  	1280.000000	0.331284  	1280.000000	0.330888  	1280.000000	0.326841  	1280.000000	0.331237  	1280.000000	4.68015e-05	
1300.000000	0.24248   	1300.000000	0.330618  	1300.000000	0.330112  	1300.000000	0.326075  	1300.000000	0.330572  	1300.000000	4.61322e-05	
1320.000000	0.242024  	1320.000000	0.329991  	1320.000000	0.329371  	1320.000000	0.325343  	1320.000000	0.329946  	1320.000000	4.54824e-05	
1340.000000	0.241598  	1340.000000	0.3294    	1340.000000	0.328664  	1340.000000	0.324643  	1340.000000	0.329355  	1340.000000	4.48512e-05	
1360.000000	0.2412    	1360.000000	0.328843  	1360.000000	0.327989  	1360.000000	0.323973  	1360.000000	0.328799  	1360.000000	4.4238e-05	
1380.000000	0.240829  	1380.000000	0.32832   	1380.000000	0.327344  	1380.000000	0.323332  	1380.000000	0.328276  	1380.000000	4.36418e-05	
1400.000000	0.240484  	1400.000000	0.327828  	1400.000000	0.326727  	1400.000000	0.322719  	1400.000000	0.327785  	1400.000000	4.30621e-05	
1420.000000	0.240164  	1420.000000	0.327366  	1420.000000	0.326138  	1420.000000	0.322131  	1420.000000	0.327324  	1420.000000	4.2498e-05	
1440.000000	0.239867  	1440.000000	0.326934  	1440.000000	0.325573  	1440.000000	0.321569  	1440.000000	0.326892  	1440.000000	4.19491e-05	
1460.000000	0.239594  	1460.000000	0.326529  	1460.000000	0.325033  	1460.000000	0.321031  	1460.000000	0.326488  	1460.000000	4.14146e-05	
1480.000000	0.239343  	1480.000000	0.326152  	1480.000000	0.324515  	1480.000000	0.320516  	1480.000000	0.326111  	1480.000000	4.0894e-05	
1500.000000	0.239114  	1500.000000	0.3258    	1500.000000	0.32402   	1500.000000	0.320022  	1500.000000	0.325759  	1500.000000	4.03868e-05	
1520.000000	0.238904  	1520.000000	0.325472  	1520.000000	0.323544  	1520.000000	0.31955   	1520.000000	0.325433  	1520.000000	3.98925e-05	
1540.000000	0.238715  	1540.000000	0.325169  	1540.000000	0.323089  	1540.000000	0.319097  	1540.000000	0.32513   	1540.000000	3.94105e-05	
1560.000000	0.238545  	1560.000000	0.324889  	1560.000000	0.322652  	1560.000000	0.318664  	1560.000000	0.32485   	1560.000000	3.89404e-05	
1580.000000	0.238393  	1580.000000	0.32463   	1580.000000	0.322233  	1580.000000	0.318249  	1580.000000	0.324592  	1580.000000	3.84817e-05	
1600.000000	0.23826   	1600.000000	0.324393  	1600.000000	0.32183   	1600.000000	0.317852  	1600.000000	0.324355  	1600.000000	3.80341e-05	
1620.000000	0.238143  	1620.000000	0.324176  	1620.000000	0.321444  	1620.000000	0.317472  	1620.000000	0.324139  	1620.000000	3.75972e-05	
1640.000000	0.238043  	1640.000000	0.323979  	1640.000000	0.321074  	1640.000000	0.317107  	1640.000000	0.323942  	1640.000000	3.71705e-05	
1660.000000	0.237959  	1660.000000	0.323801  	1660.000000	0.320719  	1660.000000	0.316759  	1660.000000	0.323764  	1660.000000	3.67537e-05	
1680.000000	0.237891  	1680.000000	0.323641  	1680.000000	0.320378  	1680.000000	0.316425  	1680.000000	0.323605  	1680.000000	3.63464e-05	
1700.000000	0.237838  	1700.000000	0.323499  	1700.000000	0.320053  	1700.000000	0.316105  	1700.000000	0.323463  	1700.000000	3.59484e-05	
1750.000000	0.237768  	1750.000000	0.323218  	1750.000000	0.319299  	1750.000000	0.315366  	1750.000000	0.323183  	1750.000000	3.49918e-05	
1800.000000	0.237782  	1800.000000	0.323034  	1800.000000	0.318627  	1800.000000	0.314704  	1800.000000	0.323     	1800.000000	3.40863e-05	
1850.000000	0.237875  	1850.000000	0.322941  	1850.000000	0.318029  	1850.000000	0.314113  	1850.000000	0.322908  	1850.000000	3.3228e-05	
1900.000000	0.23804   	1900.000000	0.32293   	1900.000000	0.317498  	1900.000000	0.313586  	1900.000000	0.322898  	1900.000000	3.24133e-05	
1950.000000	0.238272  	1950.000000	0.322997  	1950.000000	0.317026  	1950.000000	0.313118  	1950.000000	0.322965  	1950.000000	3.16388e-05	
2000.000000	0.238568  	2000.000000	0.323134  	2000.000000	0.316607  	2000.000000	0.312703  	2000.000000	0.323103  	2000.000000	3.09016e-05	
2100.000000	0.239332  	2100.000000	0.323601  	2100.000000	0.315906  	2100.000000	0.312016  	2100.000000	0.323572  	2100.000000	2.95289e-05	
2200.000000	0.240303  	2200.000000	0.324296  	2200.000000	0.315365  	2200.000000	0.311492  	2200.000000	0.324268  	2200.000000	2.82766e-05	
2300.000000	0.241457  	2300.000000	0.32519   	2300.000000	0.314964  	2300.000000	0.311107  	2300.000000	0.325162  	2300.000000	2.71293e-05	
2400.000000	0.242775  	2400.000000	0.326256  	2400.000000	0.314684  	2400.000000	0.310839  	2400.000000	0.32623   	2400.000000	2.60743e-05	
2500.000000	0.244239  	2500.000000	0.327475  	2500.000000	0.314508  	2500.000000	0.310671  	2500.000000	0.32745   	2500.000000	2.51008e-05	
2600.000000	0.245835  	2600.000000	0.328828  	2600.000000	0.31442   	2600.000000	0.310587  	2600.000000	0.328804  	2600.000000	2.41995e-05	
2700.000000	0.24755   	2700.000000	0.330301  	2700.000000	0.314406  	2700.000000	0.310576  	2700.000000	0.330278  	2700.000000	2.33627e-05	
2800.000000	0.249375  	2800.000000	0.33188   	2800.000000	0.314454  	2800.000000	0.310628  	2800.000000	0.331858  	2800.000000	2.25835e-05	
2900.000000	0.251299  	2900.000000	0.333555  	2900.000000	0.314554  	2900.000000	0.310733  	2900.000000	0.333533  	2900.000000	2.18562e-05	
3000.000000	0.253315  	3000.000000	0.335316  	3000.000000	0.3147    	3000.000000	0.310885  	3000.000000	0.335294  	3000.000000	2.11757e-05	
3200.000000	0.257593  	3200.000000	0.339061  	3200.000000	0.315104  	3200.000000	0.311302  	3200.000000	0.339041  	3200.000000	1.9938e-05	
3400.000000	0.262164  	3400.000000	0.343059  	3400.000000	0.315628  	3400.000000	0.311839  	3400.000000	0.343041  	3400.000000	1.8841e-05	
3600.000000	0.266989  	3600.000000	0.347268  	3600.000000	0.316243  	3600.000000	0.312466  	3600.000000	0.34725   	3600.000000	1.78617e-05	
3800.000000	0.272041  	3800.000000	0.351653  	3800.000000	0.316927  	3800.000000	0.313158  	3800.000000	0.351636  	3800.000000	1.69821e-05	
4000.000000	0.277294  	4000.000000	0.356185  	4000.000000	0.317662  	4000.000000	0.3139    	4000.000000	0.356169  	4000.000000	1.61876e-05	
4200.000000	0.28273   	4200.000000	0.360843  	4200.000000	0.318433  	4200.000000	0.314677  	4200.000000	0.360828  	4200.000000	1.54661e-05	
4400.000000	0.288333  	4400.000000	0.365609  	4400.000000	0.31923   	4400.000000	0.315479  	4400.000000	0.365594  	4400.000000	1.4808e-05	
4600.000000	0.294089  	4600.000000	0.370467  	4600.000000	0.320044  	4600.000000	0.316298  	4600.000000	0.370452  	4600.000000	1.42053e-05	
4800.000000	0.299987  	4800.000000	0.375404  	4800.000000	0.320869  	4800.000000	0.317128  	4800.000000	0.375391  	4800.000000	1.36511e-05	
5000.000000	0.306019  	5000.000000	0.380412  	5000.000000	0.3217    	5000.000000	0.317963  	5000.000000	0.380399  	5000.000000	1.31398e-05	
5250.000000	0.313734  	5250.000000	0.386755  	5250.000000	0.32274   	5250.000000	0.31901   	5250.000000	0.386743  	5250.000000	1.25536e-05	
5500.000000	0.32163   	5500.000000	0.393179  	5500.000000	0.323778  	5500.000000	0.320053  	5500.000000	0.393167  	5500.000000	1.20189e-05	
6000.000000	0.337929  	6000.000000	0.406221  	6000.000000	0.325829  	6000.000000	0.322115  	6000.000000	0.40621   	6000.000000	1.1079e-05	
6500.000000	0.354846  	6500.000000	0.419466  	6500.000000	0.327832  	6500.000000	0.324127  	6500.000000	0.419456  	6500.000000	1.02791e-05	
7000.000000	0.372334  	7000.000000	0.432862  	7000.000000	0.329775  	7000.000000	0.326077  	7000.000000	0.432852  	7000.000000	9.58992e-06	
7500.000000	0.390355  	7500.000000	0.446371  	7500.000000	0.331653  	7500.000000	0.32796   	7500.000000	0.446362  	7500.000000	8.9897e-06	
8000.000000	0.408883  	8000.000000	0.459966  	8000.000000	0.333456  	8000.000000	0.329775  	8000.000000	0.459958  	8000.000000	8.46214e-06	
8500.000000	0.427896  	8500.000000	0.473627  	8500.000000	0.335195  	8500.000000	0.331521  	8500.000000	0.473619  	8500.000000	7.99469e-06	
9000.000000	0.447378  	9000.000000	0.487336  	9000.000000	0.336874  	9000.000000	0.333202  	9000.000000	0.487328  	9000.000000	7.57754e-06	
9500.000000	0.467316  	9500.000000	0.501082  	9500.000000	0.338486  	9500.000000	0.334819  	9500.000000	0.501075  	9500.000000	7.20292e-06	
10000.000000	0.487699  	10000.000000	0.514856  	10000.000000	0.340033  	10000.000000	0.336376  	10000.000000	0.514849  	10000.000000	6.86458e-06	
11000.000000	0.529772  	11000.000000	0.542457  	11000.000000	0.342957  	11000.000000	0.339321  	11000.000000	0.542451  	11000.000000	6.27737e-06	
12000.000000	0.573546  	12000.000000	0.570095  	12000.000000	0.345684  	12000.000000	0.342061  	12000.000000	0.570089  	12000.000000	5.78508e-06	
13000.000000	0.61899   	13000.000000	0.597741  	13000.000000	0.348227  	13000.000000	0.344619  	13000.000000	0.597736  	13000.000000	5.36625e-06	
14000.000000	0.666081  	14000.000000	0.625377  	14000.000000	0.3506    	14000.000000	0.347014  	14000.000000	0.625372  	14000.000000	5.00545e-06	
15000.000000	0.714805  	15000.000000	0.652991  	15000.000000	0.352824  	15000.000000	0.349263  	15000.000000	0.652986  	15000.000000	4.69131e-06	
16000.000000	0.765152  	16000.000000	0.680573  	16000.000000	0.354916  	16000.000000	0.351382  	16000.000000	0.680568  	16000.000000	4.41525e-06	
17000.000000	0.817117  	17000.000000	0.708118  	17000.000000	0.356891  	17000.000000	0.353384  	17000.000000	0.708114  	17000.000000	4.17069e-06	
18000.000000	0.870697  	18000.000000	0.735623  	18000.000000	0.358761  	18000.000000	0.35528   	18000.000000	0.735619  	18000.000000	3.95249e-06	
19000.000000	0.925891  	19000.000000	0.763085  	19000.000000	0.360537  	19000.000000	0.357081  	19000.000000	0.763081  	19000.000000	3.75656e-06	
20000.000000	0.9827    	20000.000000	0.790502  	20000.000000	0.362228  	20000.000000	0.358794  	20000.000000	0.790499  	20000.000000	3.57964e-06	
21000.000000	1.04113   	21000.000000	0.817875  	21000.000000	0.363839  	21000.000000	0.360428  	21000.000000	0.817871  	21000.000000	3.41906e-06	
22000.000000	1.10117   	22000.000000	0.845202  	22000.000000	0.365372  	22000.000000	0.36199   	22000.000000	0.845199  	22000.000000	3.27263e-06	
23000.000000	1.16285   	23000.000000	0.872484  	23000.000000	0.366846  	23000.000000	0.363484  	23000.000000	0.872481  	23000.000000	3.13856e-06	
24000.000000	1.22615   	24000.000000	0.899721  	24000.000000	0.368254  	24000.000000	0.364917  	24000.000000	0.899718  	24000.000000	3.01533e-06	
25000.000000	1.29109   	25000.000000	0.926915  	25000.000000	0.369589  	25000.000000	0.366293  	25000.000000	0.926912  	25000.000000	2.90166e-06	
26000.000000	1.35767   	26000.000000	0.954064  	26000.000000	0.370874  	26000.000000	0.367616  	26000.000000	0.954061  	26000.000000	2.79647e-06	
27000.000000	1.42589   	27000.000000	0.981171  	27000.000000	0.372121  	27000.000000	0.36889   	27000.000000	0.981168  	27000.000000	2.69884e-06	
28000.000000	1.49578   	28000.000000	1.00824   	28000.000000	0.373324  	28000.000000	0.370119  	28000.000000	1.00823   	28000.000000	2.60797e-06	
29000.000000	1.56732   	29000.000000	1.03526   	29000.000000	0.374477  	29000.000000	0.371305  	29000.000000	1.03526   	29000.000000	2.52319e-06	
30000.000000	1.64053   	30000.000000	1.06224   	30000.000000	0.375584  	30000.000000	0.372451  	30000.000000	1.06224   	30000.000000	2.44389e-06	
32000.000000	1.792     	32000.000000	1.11609   	32000.000000	0.377684  	32000.000000	0.374634  	32000.000000	1.11609   	32000.000000	2.29972e-06	
34000.000000	1.95023   	34000.000000	1.16979   	34000.000000	0.379653  	34000.000000	0.376685  	34000.000000	1.16979   	34000.000000	2.17202e-06	
36000.000000	2.11531   	36000.000000	1.22334   	36000.000000	0.381501  	36000.000000	0.378619  	36000.000000	1.22334   	36000.000000	2.0581e-06	
38000.000000	2.28728   	38000.000000	1.27676   	38000.000000	0.383236  	38000.000000	0.380448  	38000.000000	1.27676   	38000.000000	1.95583e-06	
40000.000000	2.46624   	40000.000000	1.33004   	40000.000000	0.384872  	40000.000000	0.382183  	40000.000000	1.33004   	40000.000000	1.86349e-06	
42000.000000	2.65224   	42000.000000	1.3832    	42000.000000	0.386422  	42000.000000	0.383833  	42000.000000	1.3832    	42000.000000	1.77969e-06	
44000.000000	2.84536   	44000.000000	1.43623   	44000.000000	0.387896  	44000.000000	0.385405  	44000.000000	1.43623   	44000.000000	1.70329e-06	
46000.000000	3.04568   	46000.000000	1.48915   	46000.000000	0.389304  	46000.000000	0.386907  	46000.000000	1.48915   	46000.000000	1.63334e-06	
48000.000000	3.25327   	48000.000000	1.54196   	48000.000000	0.390647  	48000.000000	0.388345  	48000.000000	1.54196   	48000.000000	1.56906e-06	
50000.000000	3.4682    	50000.000000	1.59466   	50000.000000	0.391924  	50000.000000	0.389722  	50000.000000	1.59466   	50000.000000	1.50977e-06	
