Energy (MeV/u)1	0 - [He-base] F.Hubert et al, AD&ND Tables 46(1990)1	Energy (MeV/u)2	1 - [H -base] J.F.Ziegler et al, Pergamon Press, NY (low energy)	Energy (MeV/u)3	2 - ATIMA 1.2  LS-theory (recommended for high energy)	Energy (MeV/u)4	3 - ATIMA 1.2  without LS-correction	Energy (MeV/u)5	4 - electrical component of [1] - J.F.Ziegler et al	Energy (MeV/u)6	5 - nuclear component of [1] - J.F.Ziegler et al	
0.001000	2.27781   	0.001000	2.27781   	0.001000	2.36614   	0.001000	2.36614   	0.001000	0.981817  	0.001000	1.296     	
0.002000	2.32581   	0.002000	2.32581   	0.002000	2.44473   	0.002000	2.44473   	0.002000	1.28643   	0.002000	1.03938   	
0.005000	2.51902   	0.005000	2.51902   	0.005000	2.70042   	0.005000	2.70042   	0.005000	1.84039   	0.005000	0.678626  	
0.008000	2.73155   	0.008000	2.73155   	0.008000	2.95948   	0.008000	2.95948   	0.008000	2.21242   	0.008000	0.519128  	
0.010000	2.8675    	0.010000	2.8675    	0.010000	3.12219   	0.010000	3.12219   	0.010000	2.41475   	0.010000	0.452748  	
0.015000	3.20583   	0.015000	3.20583   	0.015000	3.50891   	0.015000	3.50891   	0.015000	2.85754   	0.015000	0.348295  	
0.020000	3.57738   	0.020000	3.57738   	0.020000	3.96389   	0.020000	3.96389   	0.020000	3.29094   	0.020000	0.286433  	
0.025000	4.01239   	0.025000	4.01239   	0.025000	4.42374   	0.025000	4.42374   	0.025000	3.76906   	0.025000	0.243332  	
0.030000	4.43963   	0.030000	4.43963   	0.030000	4.84253   	0.030000	4.84253   	0.030000	4.22662   	0.030000	0.213015  	
0.035000	4.85404   	0.035000	4.85404   	0.035000	5.25125   	0.035000	5.25125   	0.035000	4.66362   	0.035000	0.190423  	
0.040000	5.24925   	0.040000	5.24925   	0.040000	5.64758   	0.040000	5.64758   	0.040000	5.07669   	0.040000	0.172562  	
0.045000	5.61403   	0.045000	5.61403   	0.045000	6.03054   	0.045000	6.03054   	0.045000	5.45598   	0.045000	0.158046  	
0.050000	5.95956   	0.050000	5.95956   	0.050000	6.39946   	0.050000	6.39946   	0.050000	5.81357   	0.050000	0.145992  	
0.055000	6.33666   	0.055000	6.33666   	0.055000	6.75396   	0.055000	6.75396   	0.055000	6.20086   	0.055000	0.135804  	
0.060000	6.69884   	0.060000	6.69884   	0.060000	7.0938    	0.060000	7.0938    	0.060000	6.57178   	0.060000	0.127068  	
0.070000	7.37608   	0.070000	7.37608   	0.070000	7.72923   	0.070000	7.72923   	0.070000	7.26324   	0.070000	0.112835  	
0.080000	7.98012   	0.080000	7.98012   	0.080000	8.30627   	0.080000	8.30627   	0.080000	7.87842   	0.080000	0.101701  	
0.090000	8.52993   	0.090000	8.52993   	0.090000	8.82667   	0.090000	8.82667   	0.090000	8.4372    	0.090000	0.0927305 	
0.100000	9.02455   	0.100000	9.02455   	0.100000	9.29312   	0.100000	9.29312   	0.100000	8.93922   	0.100000	0.0853327 	
0.120000	9.8565    	0.120000	9.8565    	0.120000	10.0775   	0.120000	10.0775   	0.120000	9.78269   	0.120000	0.0738147 	
0.140000	10.4889   	0.140000	10.4889   	0.140000	10.6885   	0.140000	10.6885   	0.140000	10.4236   	0.140000	0.0652294 	
0.160000	10.9587   	0.160000	10.9587   	0.160000	11.1557   	0.160000	11.1557   	0.160000	10.9002   	0.160000	0.0585611 	
0.180000	11.2746   	0.180000	11.2746   	0.180000	11.5065   	0.180000	11.5065   	0.180000	11.2214   	0.180000	0.0532189 	
0.200000	11.5099   	0.200000	11.5099   	0.200000	11.7646   	0.200000	11.7646   	0.200000	11.461    	0.200000	0.0488346 	
0.250000	11.8041   	0.250000	11.8041   	0.250000	12.1258   	0.250000	12.1258   	0.250000	11.7634   	0.250000	0.0406563 	
0.300000	11.9955   	0.300000	11.9955   	0.300000	12.2403   	0.300000	12.2403   	0.300000	11.9605   	0.300000	0.0349619 	
0.350000	12.1435   	0.350000	12.1435   	0.350000	12.2287   	0.350000	12.2287   	0.350000	12.1128   	0.350000	0.0307512 	
0.400000	12.2221   	0.400000	12.2221   	0.400000	12.1546   	0.400000	12.1546   	0.400000	12.1946   	0.400000	0.0275015 	
0.450000	12.2624   	0.450000	12.2624   	0.450000	12.1758   	0.450000	12.1758   	0.450000	12.2375   	0.450000	0.0249116 	
0.500000	12.3033   	0.500000	12.3033   	0.500000	12.165    	0.500000	12.165    	0.500000	12.2806   	0.500000	0.0227955 	
0.600000	12.0461   	0.600000	12.0461   	0.600000	12.0534   	0.600000	12.0534   	0.600000	12.0265   	0.600000	0.019537  	
0.700000	11.8386   	0.700000	11.8386   	0.700000	11.8783   	0.700000	11.8783   	0.700000	11.8215   	0.700000	0.017138  	
0.800000	11.6064   	0.800000	11.6064   	0.800000	11.6203   	0.800000	11.6203   	0.800000	11.5911   	0.800000	0.0152928 	
0.900000	11.2738   	0.900000	11.2738   	0.900000	11.3612   	0.900000	11.3612   	0.900000	11.26     	0.900000	0.0138265 	
1.000000	10.9348   	1.000000	10.9348   	1.000000	11.1066   	1.000000	11.1066   	1.000000	10.9221   	1.000000	0.0126314 	
1.250000	10.3582   	1.250000	10.3582   	1.250000	10.4975   	1.250000	10.4975   	1.250000	10.3478   	1.250000	0.0104228 	
1.500000	9.8162    	1.500000	9.8162    	1.500000	9.8712    	1.500000	9.8712    	1.500000	9.80729   	1.500000	0.00890202	
1.750000	9.31956   	1.750000	9.31956   	1.750000	9.32791   	1.750000	9.32791   	1.750000	9.31177   	1.750000	0.00778708	
2.000000	8.8726    	2.000000	8.8726    	2.000000	8.84643   	2.000000	8.84643   	2.000000	8.86567   	2.000000	0.00693252	
2.250000	8.41852   	2.250000	8.41852   	2.250000	8.41433   	2.250000	8.41433   	2.250000	8.41226   	2.250000	0.00625541	
2.500000	8.25807   	2.500000	8.00762   	2.500000	8.02341   	2.500000	8.02341   	2.500000	8.00191   	2.500000	0.00570488	
3.000000	7.48154   	3.000000	7.29338   	3.000000	7.34248   	3.000000	7.34248   	3.000000	7.28851   	3.000000	0.00486223	
3.500000	6.84104   	3.500000	6.68795   	3.500000	6.76914   	3.500000	6.76914   	3.500000	6.68371   	3.500000	0.00424601	
4.000000	6.30509   	4.000000	6.1771    	4.000000	6.27987   	4.000000	6.27987   	4.000000	6.17333   	4.000000	0.00377467	
4.500000	5.85047   	4.500000	5.74127   	4.500000	5.85759   	4.500000	5.85759   	4.500000	5.73787   	4.500000	0.00340185	
5.000000	5.46011   	5.000000	5.36458   	5.000000	5.48951   	5.000000	5.48951   	5.000000	5.36148   	5.000000	0.00309917	
5.500000	5.1213    	5.500000	5.04012   	5.500000	5.16589   	5.500000	5.16589   	5.500000	5.03728   	5.500000	0.00284827	
6.000000	4.82444   	6.000000	4.75266   	6.000000	4.87914   	6.000000	4.87914   	6.000000	4.75003   	6.000000	0.00263672	
6.500000	4.56215   	6.500000	4.49798   	6.500000	4.6233    	6.500000	4.6233    	6.500000	4.49552   	6.500000	0.00245582	
7.000000	4.32867   	7.000000	4.2705    	7.000000	4.39362   	7.000000	4.39362   	7.000000	4.2682    	7.000000	0.00229924	
7.500000	4.11946   	7.500000	4.06592   	7.500000	4.18628   	7.500000	4.18628   	7.500000	4.06376   	7.500000	0.00216233	
8.000000	3.93089   	8.000000	3.88085   	8.000000	3.99816   	8.000000	3.99816   	8.000000	3.87881   	8.000000	0.00204154	
8.500000	3.76001   	8.500000	3.71256   	8.500000	3.8267    	8.500000	3.8267    	8.500000	3.71062   	8.500000	0.00193415	
9.000000	3.60442   	9.000000	3.5588    	9.000000	3.66976   	9.000000	3.66976   	9.000000	3.55697   	9.000000	0.001838  	
9.500000	3.46214   	9.500000	3.41775   	9.500000	3.52557   	9.500000	3.52557   	9.500000	3.416     	9.500000	0.00175139	
10.000000	3.33149   	10.000000	3.38848   	10.000000	3.39263   	10.000000	3.39263   	10.000000	3.38681   	10.000000	0.00167295	
11.000000	3.09979   	11.000000	3.15723   	11.000000	3.1519    	11.000000	3.15658   	11.000000	3.15569   	11.000000	0.00153629	
12.000000	2.90052   	12.000000	2.95677   	12.000000	2.94428   	12.000000	2.95214   	12.000000	2.95535   	12.000000	0.00142117	
13.000000	2.72725   	13.000000	2.78137   	13.000000	2.76344   	13.000000	2.77349   	13.000000	2.78005   	13.000000	0.0013228 	
14.000000	2.57513   	14.000000	2.62662   	14.000000	2.60459   	14.000000	2.61612   	14.000000	2.62538   	14.000000	0.00123774	
15.000000	2.44047   	15.000000	2.48909   	15.000000	2.46406   	15.000000	2.47652   	15.000000	2.48792   	15.000000	0.00116341	
16.000000	2.32038   	16.000000	2.36605   	16.000000	2.33886   	16.000000	2.35192   	16.000000	2.36495   	16.000000	0.00109788	
17.000000	2.21259   	17.000000	2.25534   	17.000000	2.22665   	17.000000	2.24008   	17.000000	2.2543    	17.000000	0.00103964	
18.000000	2.11528   	18.000000	2.15519   	18.000000	2.12562   	18.000000	2.13919   	18.000000	2.1542    	18.000000	0.000987536	
19.000000	2.02697   	19.000000	2.06416   	19.000000	2.03425   	19.000000	2.04777   	19.000000	2.06322   	19.000000	0.000940625	
20.000000	1.94644   	20.000000	1.98105   	20.000000	1.95126   	20.000000	1.96459   	20.000000	1.98015   	20.000000	0.000898158	
21.000000	1.8727    	21.000000	1.90488   	21.000000	1.87558   	21.000000	1.88864   	21.000000	1.90402   	21.000000	0.000859524	
22.000000	1.80491   	22.000000	1.8348    	22.000000	1.80627   	22.000000	1.81903   	22.000000	1.83398   	22.000000	0.000824218	
23.000000	1.74237   	23.000000	1.77012   	23.000000	1.7426    	23.000000	1.75506   	23.000000	1.76933   	23.000000	0.000791822	
24.000000	1.68448   	24.000000	1.71023   	24.000000	1.68397   	24.000000	1.69609   	24.000000	1.70947   	24.000000	0.000761986	
25.000000	1.63074   	25.000000	1.65461   	25.000000	1.62985   	25.000000	1.64158   	25.000000	1.65388   	25.000000	0.000734412	
27.000000	1.53399   	27.000000	1.55449   	27.000000	1.53328   	27.000000	1.54421   	27.000000	1.55381   	27.000000	0.000685085	
29.000000	1.44929   	29.000000	1.46686   	29.000000	1.44977   	29.000000	1.45994   	29.000000	1.46622   	29.000000	0.000642223	
31.000000	1.37449   	31.000000	1.38951   	31.000000	1.37576   	31.000000	1.38469   	31.000000	1.38891   	31.000000	0.000604618	
33.000000	1.30793   	33.000000	1.32072   	33.000000	1.30896   	33.000000	1.31635   	33.000000	1.32015   	33.000000	0.000571346	
35.000000	1.24829   	35.000000	1.25914   	35.000000	1.24901   	35.000000	1.25519   	35.000000	1.25859   	35.000000	0.00054169	
38.000000	1.16959   	38.000000	1.17796   	38.000000	1.16993   	38.000000	1.17458   	38.000000	1.17745   	38.000000	0.000502777	
41.000000	1.10143   	41.000000	1.10777   	41.000000	1.10138   	41.000000	1.10488   	41.000000	1.1073    	41.000000	0.000469287	
44.000000	1.04181   	44.000000	1.04646   	44.000000	1.04142   	44.000000	1.04398   	44.000000	1.04602   	44.000000	0.000440147	
47.000000	0.989185  	47.000000	0.992441  	47.000000	0.98845   	47.000000	0.990306  	47.000000	0.992026  	47.000000	0.00041455	
50.000000	0.942371  	50.000000	0.944466  	50.000000	0.941316  	50.000000	0.942616  	50.000000	0.944075  	50.000000	0.000391879	
55.000000	0.874828  	55.000000	0.875402  	55.000000	0.8734    	55.000000	0.873915  	55.000000	0.875043  	55.000000	0.000359338	
60.000000	0.817699  	60.000000	0.817152  	60.000000	0.816007  	60.000000	0.815919  	60.000000	0.81682   	60.000000	0.000331974	
65.000000	0.768709  	65.000000	0.767337  	65.000000	0.766798  	65.000000	0.766276  	65.000000	0.767029  	65.000000	0.00030863	
70.000000	0.726202  	70.000000	0.724234  	70.000000	0.724167  	70.000000	0.723282  	70.000000	0.723946  	70.000000	0.000288469	
75.000000	0.688948  	75.000000	0.686559  	75.000000	0.686815  	75.000000	0.68567   	75.000000	0.686288  	75.000000	0.000270875	
80.000000	0.656011  	80.000000	0.653338  	80.000000	0.653751  	80.000000	0.652478  	80.000000	0.653083  	80.000000	0.000255381	
85.000000	0.626667  	85.000000	0.623818  	85.000000	0.624423  	85.000000	0.622961  	85.000000	0.623577  	85.000000	0.000241628	
90.000000	0.600346  	90.000000	0.597407  	90.000000	0.598157  	90.000000	0.596535  	90.000000	0.597178  	90.000000	0.000229334	
95.000000	0.576595  	95.000000	0.573635  	95.000000	0.574422  	95.000000	0.572734  	95.000000	0.573416  	95.000000	0.000218277	
100.000000	0.555045  	100.000000	0.55212   	100.000000	0.552926  	100.000000	0.551181  	100.000000	0.551912  	100.000000	0.000208276	
105.000000	0.535399  	105.000000	0.532554  	105.000000	0.533427  	105.000000	0.531569  	105.000000	0.532354  	105.000000	0.000199185	
110.000000	0.517408  	110.000000	0.51468   	110.000000	0.515556  	110.000000	0.513646  	110.000000	0.514489  	110.000000	0.000190884	
115.000000	0.500867  	115.000000	0.498286  	115.000000	0.49914   	115.000000	0.497201  	115.000000	0.498103  	115.000000	0.000183273	
120.000000	0.485603  	120.000000	0.483195  	120.000000	0.484028  	120.000000	0.482056  	120.000000	0.483019  	120.000000	0.000176268	
125.000000	0.471471  	125.000000	0.469255  	125.000000	0.47006   	125.000000	0.468062  	125.000000	0.469086  	125.000000	0.000169798	
130.000000	0.458346  	130.000000	0.45634   	130.000000	0.457114  	130.000000	0.455093  	130.000000	0.456176  	130.000000	0.000163804	
135.000000	0.446121  	135.000000	0.444338  	135.000000	0.445081  	135.000000	0.443039  	135.000000	0.44418   	135.000000	0.000158235	
140.000000	0.434704  	140.000000	0.433157  	140.000000	0.433863  	140.000000	0.431806  	140.000000	0.433003  	140.000000	0.000153046	
145.000000	0.424017  	145.000000	0.422713  	145.000000	0.423388  	145.000000	0.421313  	145.000000	0.422565  	145.000000	0.000148199	
150.000000	0.413988  	150.000000	0.412936  	150.000000	0.413579  	150.000000	0.411489  	150.000000	0.412793  	150.000000	0.000143662	
155.000000	0.403614  	155.000000	0.403764  	155.000000	0.404346  	155.000000	0.402271  	155.000000	0.403625  	155.000000	0.000139404	
160.000000	0.39524   	160.000000	0.395142  	160.000000	0.395663  	160.000000	0.393605  	160.000000	0.395007  	160.000000	0.000135401	
165.000000	0.387343  	165.000000	0.387022  	165.000000	0.387511  	165.000000	0.385444  	165.000000	0.38689   	165.000000	0.00013163	
170.000000	0.379881  	170.000000	0.379361  	170.000000	0.379822  	170.000000	0.377743  	170.000000	0.379232  	170.000000	0.000128071	
175.000000	0.37282   	175.000000	0.37212   	175.000000	0.372552  	175.000000	0.370466  	175.000000	0.371996  	175.000000	0.000124706	
180.000000	0.366127  	180.000000	0.365267  	180.000000	0.365672  	180.000000	0.363578  	180.000000	0.365146  	180.000000	0.000121521	
185.000000	0.359775  	185.000000	0.358771  	185.000000	0.359139  	185.000000	0.357049  	185.000000	0.358652  	185.000000	0.0001185 	
190.000000	0.353736  	190.000000	0.352604  	190.000000	0.352922  	190.000000	0.350852  	190.000000	0.352489  	190.000000	0.000115632	
195.000000	0.347989  	195.000000	0.346743  	195.000000	0.347026  	195.000000	0.344962  	195.000000	0.34663   	195.000000	0.000112904	
200.000000	0.342513  	200.000000	0.341165  	200.000000	0.341429  	200.000000	0.339357  	200.000000	0.341054  	200.000000	0.000110306	
210.000000	0.332297  	210.000000	0.330779  	210.000000	0.330967  	210.000000	0.328923  	210.000000	0.330673  	210.000000	0.000105467	
220.000000	0.322959  	220.000000	0.321308  	220.000000	0.321458  	220.000000	0.319412  	220.000000	0.321207  	220.000000	0.00010105	
230.000000	0.314388  	230.000000	0.312636  	230.000000	0.312727  	230.000000	0.310707  	230.000000	0.312539  	230.000000	9.70001e-05	
240.000000	0.306494  	240.000000	0.304667  	240.000000	0.304727  	240.000000	0.30271   	240.000000	0.304574  	240.000000	9.3274e-05	
250.000000	0.299198  	250.000000	0.297319  	250.000000	0.297341  	250.000000	0.29534   	250.000000	0.29723   	250.000000	8.98337e-05	
260.000000	0.292436  	260.000000	0.290523  	260.000000	0.290513  	260.000000	0.288526  	260.000000	0.290436  	260.000000	8.6647e-05	
270.000000	0.28615   	270.000000	0.284219  	270.000000	0.284196  	270.000000	0.28221   	270.000000	0.284135  	270.000000	8.36867e-05	
280.000000	0.280291  	280.000000	0.278356  	280.000000	0.278299  	280.000000	0.276338  	280.000000	0.278275  	280.000000	8.0929e-05	
290.000000	0.274819  	290.000000	0.27289   	290.000000	0.272828  	290.000000	0.270868  	290.000000	0.272812  	290.000000	7.83537e-05	
300.000000	0.269695  	300.000000	0.267783  	300.000000	0.267712  	300.000000	0.265759  	300.000000	0.267707  	300.000000	7.59431e-05	
310.000000	0.264888  	310.000000	0.263     	310.000000	0.262905  	310.000000	0.260978  	310.000000	0.262927  	310.000000	7.36815e-05	
320.000000	0.260369  	320.000000	0.258513  	320.000000	0.258401  	320.000000	0.256495  	320.000000	0.258441  	320.000000	7.15556e-05	
330.000000	0.256114  	330.000000	0.254295  	330.000000	0.254187  	330.000000	0.252284  	330.000000	0.254225  	330.000000	6.95532e-05	
340.000000	0.2521    	340.000000	0.250323  	340.000000	0.250224  	340.000000	0.248321  	340.000000	0.250256  	340.000000	6.76638e-05	
350.000000	0.248307  	350.000000	0.246577  	350.000000	0.246474  	350.000000	0.244586  	350.000000	0.246511  	350.000000	6.58779e-05	
360.000000	0.244719  	360.000000	0.243039  	360.000000	0.242928  	360.000000	0.241061  	360.000000	0.242975  	360.000000	6.41873e-05	
370.000000	0.241319  	370.000000	0.239691  	370.000000	0.239562  	370.000000	0.237711  	370.000000	0.239629  	370.000000	6.25843e-05	
380.000000	0.238094  	380.000000	0.236521  	380.000000	0.236387  	380.000000	0.234539  	380.000000	0.23646   	380.000000	6.10622e-05	
390.000000	0.235029  	390.000000	0.233513  	390.000000	0.233381  	390.000000	0.231532  	390.000000	0.233454  	390.000000	5.96151e-05	
400.000000	0.232115  	400.000000	0.230657  	400.000000	0.230519  	400.000000	0.228679  	400.000000	0.230599  	400.000000	5.82373e-05	
410.000000	0.22934   	410.000000	0.227942  	410.000000	0.227792  	410.000000	0.225968  	410.000000	0.227885  	410.000000	5.69241e-05	
420.000000	0.226696  	420.000000	0.225358  	420.000000	0.225197  	420.000000	0.223389  	420.000000	0.225302  	420.000000	5.56709e-05	
430.000000	0.224172  	430.000000	0.222896  	430.000000	0.222732  	430.000000	0.220934  	430.000000	0.222841  	430.000000	5.44736e-05	
440.000000	0.221763  	440.000000	0.220548  	440.000000	0.220391  	440.000000	0.218594  	440.000000	0.220494  	440.000000	5.33286e-05	
450.000000	0.219459  	450.000000	0.218306  	450.000000	0.218159  	450.000000	0.216362  	450.000000	0.218254  	450.000000	5.22324e-05	
460.000000	0.217256  	460.000000	0.216164  	460.000000	0.216022  	460.000000	0.21423   	460.000000	0.216113  	460.000000	5.11819e-05	
470.000000	0.215146  	470.000000	0.214116  	470.000000	0.213973  	470.000000	0.212193  	470.000000	0.214066  	470.000000	5.01744e-05	
480.000000	0.213124  	480.000000	0.212156  	480.000000	0.212013  	480.000000	0.210245  	480.000000	0.212107  	480.000000	4.92071e-05	
490.000000	0.211185  	490.000000	0.210279  	490.000000	0.210139  	490.000000	0.20838   	490.000000	0.210231  	490.000000	4.82778e-05	
500.000000	0.209325  	500.000000	0.20848   	500.000000	0.208343  	500.000000	0.206594  	500.000000	0.208432  	500.000000	4.73842e-05	
520.000000	0.205822  	520.000000	0.205097  	520.000000	0.204967  	520.000000	0.203238  	520.000000	0.205051  	520.000000	4.56959e-05	
540.000000	0.202584  	540.000000	0.201977  	540.000000	0.20187   	540.000000	0.200146  	540.000000	0.201933  	540.000000	4.41279e-05	
560.000000	0.199584  	560.000000	0.199092  	560.000000	0.199012  	560.000000	0.19729   	560.000000	0.199049  	560.000000	4.26675e-05	
580.000000	0.196799  	580.000000	0.196418  	580.000000	0.196352  	580.000000	0.194645  	580.000000	0.196377  	580.000000	4.13039e-05	
600.000000	0.194208  	600.000000	0.193935  	600.000000	0.193883  	600.000000	0.192191  	600.000000	0.193895  	600.000000	4.00276e-05	
620.000000	0.191793  	620.000000	0.191625  	620.000000	0.191589  	620.000000	0.18991   	620.000000	0.191586  	620.000000	3.88305e-05	
640.000000	0.189539  	640.000000	0.189471  	640.000000	0.18945   	640.000000	0.187785  	640.000000	0.189434  	640.000000	3.77054e-05	
660.000000	0.187432  	660.000000	0.187461  	660.000000	0.187458  	660.000000	0.185802  	660.000000	0.187425  	660.000000	3.66458e-05	
680.000000	0.18546   	680.000000	0.185582  	680.000000	0.185605  	680.000000	0.183948  	680.000000	0.185546  	680.000000	3.56461e-05	
700.000000	0.183611  	700.000000	0.183822  	700.000000	0.183868  	700.000000	0.182214  	700.000000	0.183788  	700.000000	3.47013e-05	
720.000000	0.181877  	720.000000	0.182173  	720.000000	0.182233  	720.000000	0.180588  	720.000000	0.182139  	720.000000	3.3807e-05	
740.000000	0.180247  	740.000000	0.180625  	740.000000	0.180695  	740.000000	0.179062  	740.000000	0.180592  	740.000000	3.29592e-05	
760.000000	0.178715  	760.000000	0.179171  	760.000000	0.179252  	760.000000	0.177627  	760.000000	0.179138  	760.000000	3.21543e-05	
780.000000	0.177274  	780.000000	0.177803  	780.000000	0.177894  	780.000000	0.176278  	780.000000	0.177771  	780.000000	3.13891e-05	
800.000000	0.175916  	800.000000	0.176515  	800.000000	0.176616  	800.000000	0.175007  	800.000000	0.176485  	800.000000	3.06607e-05	
820.000000	0.174636  	820.000000	0.175302  	820.000000	0.17541   	820.000000	0.173809  	820.000000	0.175272  	820.000000	2.99665e-05	
840.000000	0.173429  	840.000000	0.174158  	840.000000	0.174271  	840.000000	0.172678  	840.000000	0.174129  	840.000000	2.93041e-05	
860.000000	0.17229   	860.000000	0.173079  	860.000000	0.173194  	860.000000	0.171609  	860.000000	0.173051  	860.000000	2.86713e-05	
880.000000	0.171215  	880.000000	0.17206   	880.000000	0.172177  	880.000000	0.170599  	880.000000	0.172032  	880.000000	2.80662e-05	
900.000000	0.1702    	900.000000	0.171098  	900.000000	0.171218  	900.000000	0.169643  	900.000000	0.17107   	900.000000	2.74869e-05	
920.000000	0.16924   	920.000000	0.170188  	920.000000	0.170312  	920.000000	0.168738  	920.000000	0.170161  	920.000000	2.69319e-05	
940.000000	0.168333  	940.000000	0.169328  	940.000000	0.169454  	940.000000	0.16788   	940.000000	0.169301  	940.000000	2.63996e-05	
960.000000	0.167476  	960.000000	0.168514  	960.000000	0.168639  	960.000000	0.167066  	960.000000	0.168488  	960.000000	2.58886e-05	
980.000000	0.166665  	980.000000	0.167744  	980.000000	0.167863  	980.000000	0.166294  	980.000000	0.167718  	980.000000	2.53977e-05	
1000.000000	0.165899  	1000.000000	0.167015  	1000.000000	0.167124  	1000.000000	0.165561  	1000.000000	0.16699   	1000.000000	2.49257e-05	
1020.000000	0.165174  	1020.000000	0.166324  	1020.000000	0.166422  	1020.000000	0.164865  	1020.000000	0.1663    	1020.000000	2.44716e-05	
1040.000000	0.164489  	1040.000000	0.165671  	1040.000000	0.165754  	1040.000000	0.164202  	1040.000000	0.165647  	1040.000000	2.40342e-05	
1060.000000	0.16384   	1060.000000	0.165051  	1060.000000	0.165119  	1060.000000	0.163573  	1060.000000	0.165028  	1060.000000	2.36127e-05	
1080.000000	0.163228  	1080.000000	0.164465  	1080.000000	0.164516  	1080.000000	0.162973  	1080.000000	0.164441  	1080.000000	2.32062e-05	
1100.000000	0.162648  	1100.000000	0.163909  	1100.000000	0.163941  	1100.000000	0.162403  	1100.000000	0.163886  	1100.000000	2.2814e-05	
1120.000000	0.162101  	1120.000000	0.163382  	1120.000000	0.163394  	1120.000000	0.161859  	1120.000000	0.16336   	1120.000000	2.24352e-05	
1140.000000	0.161584  	1140.000000	0.162884  	1140.000000	0.162872  	1140.000000	0.161342  	1140.000000	0.162862  	1140.000000	2.20692e-05	
1160.000000	0.161096  	1160.000000	0.162411  	1160.000000	0.162375  	1160.000000	0.160848  	1160.000000	0.16239   	1160.000000	2.17154e-05	
1180.000000	0.160635  	1180.000000	0.161964  	1180.000000	0.1619    	1180.000000	0.160378  	1180.000000	0.161943  	1180.000000	2.13732e-05	
1200.000000	0.1602    	1200.000000	0.161541  	1200.000000	0.161448  	1200.000000	0.159929  	1200.000000	0.16152   	1200.000000	2.10419e-05	
1220.000000	0.15979   	1220.000000	0.16114   	1220.000000	0.161016  	1220.000000	0.159501  	1220.000000	0.161119  	1220.000000	2.0721e-05	
1240.000000	0.159405  	1240.000000	0.16076   	1240.000000	0.160604  	1240.000000	0.159092  	1240.000000	0.16074   	1240.000000	2.04102e-05	
1260.000000	0.159042  	1260.000000	0.160402  	1260.000000	0.160211  	1260.000000	0.158702  	1260.000000	0.160382  	1260.000000	2.01088e-05	
1280.000000	0.1587    	1280.000000	0.160063  	1280.000000	0.159836  	1280.000000	0.15833   	1280.000000	0.160043  	1280.000000	1.98165e-05	
1300.000000	0.15838   	1300.000000	0.159742  	1300.000000	0.159477  	1300.000000	0.157974  	1300.000000	0.159723  	1300.000000	1.95328e-05	
1320.000000	0.15808   	1320.000000	0.15944   	1320.000000	0.159134  	1320.000000	0.157634  	1320.000000	0.159421  	1320.000000	1.92575e-05	
1340.000000	0.157798  	1340.000000	0.159155  	1340.000000	0.158806  	1340.000000	0.15731   	1340.000000	0.159136  	1340.000000	1.899e-05 	
1360.000000	0.157535  	1360.000000	0.158886  	1360.000000	0.158493  	1360.000000	0.156999  	1360.000000	0.158867  	1360.000000	1.87301e-05	
1380.000000	0.15729   	1380.000000	0.158633  	1380.000000	0.158193  	1380.000000	0.156703  	1380.000000	0.158614  	1380.000000	1.84775e-05	
1400.000000	0.157062  	1400.000000	0.158394  	1400.000000	0.157907  	1400.000000	0.15642   	1400.000000	0.158376  	1400.000000	1.82318e-05	
1420.000000	0.15685   	1420.000000	0.15817   	1420.000000	0.157634  	1420.000000	0.156149  	1420.000000	0.158152  	1420.000000	1.79928e-05	
1440.000000	0.156653  	1440.000000	0.15796   	1440.000000	0.157374  	1440.000000	0.15589   	1440.000000	0.157943  	1440.000000	1.77602e-05	
1460.000000	0.156472  	1460.000000	0.157764  	1460.000000	0.157126  	1460.000000	0.155643  	1460.000000	0.157746  	1460.000000	1.75338e-05	
1480.000000	0.156305  	1480.000000	0.157579  	1480.000000	0.156889  	1480.000000	0.155407  	1480.000000	0.157562  	1480.000000	1.73132e-05	
1500.000000	0.156152  	1500.000000	0.157407  	1500.000000	0.156663  	1500.000000	0.155181  	1500.000000	0.15739   	1500.000000	1.70983e-05	
1520.000000	0.156013  	1520.000000	0.157247  	1520.000000	0.156446  	1520.000000	0.154965  	1520.000000	0.15723   	1520.000000	1.68888e-05	
1540.000000	0.155886  	1540.000000	0.157098  	1540.000000	0.15624   	1540.000000	0.154758  	1540.000000	0.157082  	1540.000000	1.66846e-05	
1560.000000	0.155772  	1560.000000	0.15696   	1560.000000	0.156042  	1560.000000	0.154561  	1560.000000	0.156944  	1560.000000	1.64854e-05	
1580.000000	0.15567   	1580.000000	0.156833  	1580.000000	0.155853  	1580.000000	0.154372  	1580.000000	0.156816  	1580.000000	1.6291e-05	
1600.000000	0.15558   	1600.000000	0.156715  	1600.000000	0.155673  	1600.000000	0.154192  	1600.000000	0.156699  	1600.000000	1.61014e-05	
1620.000000	0.155501  	1620.000000	0.156607  	1620.000000	0.1555    	1620.000000	0.15402   	1620.000000	0.156591  	1620.000000	1.59163e-05	
1640.000000	0.155433  	1640.000000	0.156509  	1640.000000	0.155334  	1640.000000	0.153856  	1640.000000	0.156493  	1640.000000	1.57355e-05	
1660.000000	0.155375  	1660.000000	0.156419  	1660.000000	0.155175  	1660.000000	0.153699  	1660.000000	0.156404  	1660.000000	1.55589e-05	
1680.000000	0.155328  	1680.000000	0.156338  	1680.000000	0.155024  	1680.000000	0.153549  	1680.000000	0.156323  	1680.000000	1.53864e-05	
1700.000000	0.15529   	1700.000000	0.156266  	1700.000000	0.154879  	1700.000000	0.153406  	1700.000000	0.156251  	1700.000000	1.52177e-05	
1750.000000	0.155237  	1750.000000	0.156119  	1750.000000	0.154545  	1750.000000	0.153076  	1750.000000	0.156105  	1750.000000	1.48124e-05	
1800.000000	0.15524   	1800.000000	0.156019  	1800.000000	0.154248  	1800.000000	0.152783  	1800.000000	0.156005  	1800.000000	1.44288e-05	
1850.000000	0.155293  	1850.000000	0.155962  	1850.000000	0.153985  	1850.000000	0.152524  	1850.000000	0.155948  	1850.000000	1.40652e-05	
1900.000000	0.155394  	1900.000000	0.155944  	1900.000000	0.153752  	1900.000000	0.152295  	1900.000000	0.15593   	1900.000000	1.37201e-05	
1950.000000	0.155539  	1950.000000	0.155963  	1950.000000	0.153548  	1950.000000	0.152094  	1950.000000	0.155949  	1950.000000	1.3392e-05	
2000.000000	0.155725  	2000.000000	0.156015  	2000.000000	0.15337   	2000.000000	0.151918  	2000.000000	0.156002  	2000.000000	1.30797e-05	
2100.000000	0.156211  	2100.000000	0.15621   	2100.000000	0.15308   	2100.000000	0.151635  	2100.000000	0.156198  	2100.000000	1.24982e-05	
2200.000000	0.156833  	2200.000000	0.156513  	2200.000000	0.152869  	2200.000000	0.151428  	2200.000000	0.156501  	2200.000000	1.19677e-05	
2300.000000	0.157574  	2300.000000	0.156911  	2300.000000	0.152724  	2300.000000	0.151287  	2300.000000	0.156899  	2300.000000	1.14818e-05	
2400.000000	0.158423  	2400.000000	0.15739   	2400.000000	0.152634  	2400.000000	0.151201  	2400.000000	0.157379  	2400.000000	1.1035e-05	
2500.000000	0.159367  	2500.000000	0.157941  	2500.000000	0.152591  	2500.000000	0.151163  	2500.000000	0.157931  	2500.000000	1.06226e-05	
2600.000000	0.160398  	2600.000000	0.158557  	2600.000000	0.152589  	2600.000000	0.151163  	2600.000000	0.158547  	2600.000000	1.02409e-05	
2700.000000	0.161508  	2700.000000	0.159229  	2700.000000	0.152621  	2700.000000	0.151198  	2700.000000	0.159219  	2700.000000	9.88649e-06	
2800.000000	0.162689  	2800.000000	0.159951  	2800.000000	0.152682  	2800.000000	0.151263  	2800.000000	0.159942  	2800.000000	9.55652e-06	
2900.000000	0.163935  	2900.000000	0.160719  	2900.000000	0.152768  	2900.000000	0.151352  	2900.000000	0.16071   	2900.000000	9.24852e-06	
3000.000000	0.165241  	3000.000000	0.161527  	3000.000000	0.152877  	3000.000000	0.151462  	3000.000000	0.161518  	3000.000000	8.96035e-06	
3200.000000	0.168017  	3200.000000	0.16325   	3200.000000	0.153146  	3200.000000	0.151736  	3200.000000	0.163242  	3200.000000	8.43622e-06	
3400.000000	0.170985  	3400.000000	0.165093  	3400.000000	0.153471  	3400.000000	0.152064  	3400.000000	0.165085  	3400.000000	7.97171e-06	
3600.000000	0.174121  	3600.000000	0.167036  	3600.000000	0.153837  	3600.000000	0.152433  	3600.000000	0.167029  	3600.000000	7.55709e-06	
3800.000000	0.177406  	3800.000000	0.169062  	3800.000000	0.154233  	3800.000000	0.152831  	3800.000000	0.169055  	3800.000000	7.18467e-06	
4000.000000	0.180824  	4000.000000	0.171159  	4000.000000	0.15465   	4000.000000	0.153251  	4000.000000	0.171152  	4000.000000	6.84826e-06	
4200.000000	0.184363  	4200.000000	0.173315  	4200.000000	0.155083  	4200.000000	0.153686  	4200.000000	0.173308  	4200.000000	6.54283e-06	
4400.000000	0.188012  	4400.000000	0.175522  	4400.000000	0.155526  	4400.000000	0.154131  	4400.000000	0.175516  	4400.000000	6.26425e-06	
4600.000000	0.191762  	4600.000000	0.177773  	4600.000000	0.155976  	4600.000000	0.154582  	4600.000000	0.177767  	4600.000000	6.00909e-06	
4800.000000	0.195608  	4800.000000	0.180062  	4800.000000	0.156429  	4800.000000	0.155036  	4800.000000	0.180056  	4800.000000	5.77449e-06	
5000.000000	0.199541  	5000.000000	0.182384  	5000.000000	0.156883  	5000.000000	0.155492  	5000.000000	0.182378  	5000.000000	5.55804e-06	
5250.000000	0.204574  	5250.000000	0.185326  	5250.000000	0.15745   	5250.000000	0.156061  	5250.000000	0.185321  	5250.000000	5.30991e-06	
5500.000000	0.209728  	5500.000000	0.188307  	5500.000000	0.158013  	5500.000000	0.156626  	5500.000000	0.188302  	5500.000000	5.08361e-06	
6000.000000	0.220372  	6000.000000	0.194361  	6000.000000	0.159121  	6000.000000	0.157738  	6000.000000	0.194356  	6000.000000	4.68578e-06	
6500.000000	0.231428  	6500.000000	0.200511  	6500.000000	0.160199  	6500.000000	0.15882   	6500.000000	0.200507  	6500.000000	4.34725e-06	
7000.000000	0.242865  	7000.000000	0.206734  	7000.000000	0.161242  	7000.000000	0.159865  	7000.000000	0.20673   	7000.000000	4.05558e-06	
7500.000000	0.254659  	7500.000000	0.213011  	7500.000000	0.162246  	7500.000000	0.160872  	7500.000000	0.213007  	7500.000000	3.80158e-06	
8000.000000	0.266793  	8000.000000	0.219329  	8000.000000	0.163215  	8000.000000	0.161841  	8000.000000	0.219325  	8000.000000	3.57834e-06	
8500.000000	0.279251  	8500.000000	0.225678  	8500.000000	0.164143  	8500.000000	0.162773  	8500.000000	0.225674  	8500.000000	3.38054e-06	
9000.000000	0.292024  	9000.000000	0.23205   	9000.000000	0.165032  	9000.000000	0.163669  	9000.000000	0.232047  	9000.000000	3.20404e-06	
9500.000000	0.305103  	9500.000000	0.238441  	9500.000000	0.165888  	9500.000000	0.164531  	9500.000000	0.238438  	9500.000000	3.04553e-06	
10000.000000	0.318482  	10000.000000	0.244845  	10000.000000	0.166716  	10000.000000	0.165361  	10000.000000	0.244842  	10000.000000	2.90239e-06	
11000.000000	0.346118  	11000.000000	0.257679  	11000.000000	0.168283  	11000.000000	0.166929  	11000.000000	0.257677  	11000.000000	2.65395e-06	
12000.000000	0.374901  	12000.000000	0.270532  	12000.000000	0.169735  	12000.000000	0.168388  	12000.000000	0.27053   	12000.000000	2.4457e-06	
13000.000000	0.40481   	13000.000000	0.283391  	13000.000000	0.17109   	13000.000000	0.16975   	13000.000000	0.283388  	13000.000000	2.26852e-06	
14000.000000	0.43583   	14000.000000	0.296245  	14000.000000	0.172361  	14000.000000	0.171026  	14000.000000	0.296243  	14000.000000	2.11591e-06	
15000.000000	0.467954  	15000.000000	0.309089  	15000.000000	0.173557  	15000.000000	0.172224  	15000.000000	0.309087  	15000.000000	1.98303e-06	
16000.000000	0.501175  	16000.000000	0.32192   	16000.000000	0.174682  	16000.000000	0.173353  	16000.000000	0.321918  	16000.000000	1.86627e-06	
17000.000000	0.535492  	17000.000000	0.334734  	17000.000000	0.175742  	17000.000000	0.17442   	17000.000000	0.334732  	17000.000000	1.76284e-06	
18000.000000	0.570902  	18000.000000	0.347529  	18000.000000	0.176744  	18000.000000	0.175431  	18000.000000	0.347528  	18000.000000	1.67056e-06	
19000.000000	0.607406  	19000.000000	0.360305  	19000.000000	0.177694  	19000.000000	0.176391  	19000.000000	0.360303  	19000.000000	1.5877e-06	
20000.000000	0.645006  	20000.000000	0.37306   	20000.000000	0.178597  	20000.000000	0.177306  	20000.000000	0.373059  	20000.000000	1.51288e-06	
21000.000000	0.683704  	21000.000000	0.385795  	21000.000000	0.179457  	21000.000000	0.178178  	21000.000000	0.385794  	21000.000000	1.44497e-06	
22000.000000	0.723502  	22000.000000	0.398509  	22000.000000	0.180281  	22000.000000	0.179011  	22000.000000	0.398508  	22000.000000	1.38305e-06	
23000.000000	0.764405  	23000.000000	0.411203  	23000.000000	0.181071  	23000.000000	0.17981   	23000.000000	0.411201  	23000.000000	1.32636e-06	
24000.000000	0.806417  	24000.000000	0.423875  	24000.000000	0.181827  	24000.000000	0.180575  	24000.000000	0.423874  	24000.000000	1.27425e-06	
25000.000000	0.849541  	25000.000000	0.436527  	25000.000000	0.182548  	25000.000000	0.181311  	25000.000000	0.436526  	25000.000000	1.22619e-06	
26000.000000	0.893782  	26000.000000	0.449159  	26000.000000	0.183242  	26000.000000	0.182018  	26000.000000	0.449158  	26000.000000	1.18171e-06	
27000.000000	0.939146  	27000.000000	0.461771  	27000.000000	0.183912  	27000.000000	0.1827    	27000.000000	0.46177   	27000.000000	1.14043e-06	
28000.000000	0.985638  	28000.000000	0.474364  	28000.000000	0.18456   	28000.000000	0.183357  	28000.000000	0.474363  	28000.000000	1.10201e-06	
29000.000000	1.03326   	29000.000000	0.486938  	29000.000000	0.185184  	29000.000000	0.183992  	29000.000000	0.486937  	29000.000000	1.06617e-06	
30000.000000	1.08203   	30000.000000	0.499493  	30000.000000	0.185787  	30000.000000	0.184606  	30000.000000	0.499492  	30000.000000	1.03264e-06	
32000.000000	1.18299   	32000.000000	0.524548  	32000.000000	0.186931  	32000.000000	0.185775  	32000.000000	0.524547  	32000.000000	9.71688e-07	
34000.000000	1.28859   	34000.000000	0.549534  	34000.000000	0.187999  	34000.000000	0.186874  	34000.000000	0.549533  	34000.000000	9.17704e-07	
36000.000000	1.39886   	36000.000000	0.574452  	36000.000000	0.189004  	36000.000000	0.187911  	36000.000000	0.574451  	36000.000000	8.69546e-07	
38000.000000	1.51385   	38000.000000	0.599307  	38000.000000	0.189954  	38000.000000	0.188892  	38000.000000	0.599306  	38000.000000	8.26313e-07	
40000.000000	1.63363   	40000.000000	0.6241    	40000.000000	0.190854  	40000.000000	0.189823  	40000.000000	0.624099  	40000.000000	7.87279e-07	
42000.000000	1.75824   	42000.000000	0.648834  	42000.000000	0.191706  	42000.000000	0.190709  	42000.000000	0.648834  	42000.000000	7.51857e-07	
44000.000000	1.88774   	44000.000000	0.673512  	44000.000000	0.192514  	44000.000000	0.191553  	44000.000000	0.673512  	44000.000000	7.19564e-07	
46000.000000	2.02217   	46000.000000	0.698137  	46000.000000	0.193281  	46000.000000	0.19236   	46000.000000	0.698136  	46000.000000	6.89998e-07	
48000.000000	2.16161   	48000.000000	0.722709  	48000.000000	0.194012  	48000.000000	0.193133  	48000.000000	0.722708  	48000.000000	6.62826e-07	
50000.000000	2.3061    	50000.000000	0.747231  	50000.000000	0.194709  	50000.000000	0.193874  	50000.000000	0.747231  	50000.000000	6.37766e-07	
