0.001000	11.0136   	0.001000	11.2573   	0.001000	10.6667   	0.001000	10.6667   	0.001000	2.46108   	0.001000	8.7962    	
0.002000	11.3192   	0.002000	11.6122   	0.002000	10.836    	0.002000	10.836    	0.002000	3.22876   	0.002000	8.3834    	
0.005000	11.3259   	0.005000	11.4473   	0.005000	10.341    	0.005000	10.341    	0.005000	4.62737   	0.005000	6.81996   	
0.008000	11.4159   	0.008000	11.3204   	0.008000	9.9975    	0.008000	9.9975    	0.008000	5.56806   	0.008000	5.75231   	
0.010000	11.535    	0.010000	11.3104   	0.010000	9.87149   	0.010000	9.87149   	0.010000	6.08009   	0.010000	5.2303    	
0.015000	11.9324   	0.015000	11.4414   	0.015000	9.76732   	0.015000	9.76732   	0.015000	7.13531   	0.015000	4.30613   	
0.020000	12.3851   	0.020000	11.6885   	0.020000	9.82655   	0.020000	9.82655   	0.020000	7.9945    	0.020000	3.69401   	
0.025000	12.8477   	0.025000	11.9863   	0.025000	9.96555   	0.025000	9.96555   	0.025000	8.73232   	0.025000	3.25396   	
0.030000	13.3035   	0.030000	12.3058   	0.030000	10.1463   	0.030000	10.1463   	0.030000	9.38597   	0.030000	2.91984   	
0.035000	13.7465   	0.035000	12.6331   	0.035000	10.3496   	0.035000	10.3496   	0.035000	9.97705   	0.035000	2.65609   	
0.040000	14.1744   	0.040000	12.9611   	0.040000	10.565    	0.040000	10.565    	0.040000	10.5194   	0.040000	2.44174   	
0.045000	14.5871   	0.045000	13.286    	0.045000	10.7865   	0.045000	10.7865   	0.045000	11.0224   	0.045000	2.26354   	
0.050000	15.0309   	0.050000	13.6623   	0.050000	11.1009   	0.050000	11.1009   	0.050000	11.5496   	0.050000	2.11269   	
0.055000	15.8665   	0.055000	14.4493   	0.055000	11.9699   	0.055000	11.9699   	0.055000	12.4662   	0.055000	1.98309   	
0.060000	16.6414   	0.060000	15.2494   	0.060000	12.8729   	0.060000	12.8729   	0.060000	13.379    	0.060000	1.87036   	
0.070000	17.9908   	0.070000	16.831    	0.070000	14.7066   	0.070000	14.7066   	0.070000	15.1476   	0.070000	1.68339   	
0.080000	19.4807   	0.080000	18.3451   	0.080000	16.5405   	0.080000	16.5405   	0.080000	16.811    	0.080000	1.53413   	
0.090000	20.8049   	0.090000	19.7759   	0.090000	18.3314   	0.090000	18.3314   	0.090000	18.3754   	0.090000	1.40049   	
0.100000	21.9939   	0.100000	21.1367   	0.100000	20.0818   	0.100000	20.0818   	0.100000	19.8375   	0.100000	1.29929   	
0.120000	23.5378   	0.120000	23.6461   	0.120000	23.3717   	0.120000	23.3717   	0.120000	22.5073   	0.120000	1.13881   	
0.140000	24.8416   	0.140000	25.8326   	0.140000	26.3398   	0.140000	26.3398   	0.140000	24.8171   	0.140000	1.01552   	
0.160000	26.0808   	0.160000	27.7401   	0.160000	28.9817   	0.160000	28.9817   	0.160000	26.8206   	0.160000	0.91941   	
0.180000	27.9004   	0.180000	30.0548   	0.180000	31.3146   	0.180000	31.3146   	0.180000	29.2134   	0.180000	0.841423  	
0.200000	29.6651   	0.200000	32.1499   	0.200000	33.3688   	0.200000	33.3688   	0.200000	31.3731   	0.200000	0.776738  	
0.250000	32.8909   	0.250000	36.296    	0.250000	37.5094   	0.250000	37.5094   	0.250000	35.6416   	0.250000	0.654359  	
0.300000	35.8034   	0.300000	39.5576   	0.300000	40.608    	0.300000	40.608    	0.300000	38.9899   	0.300000	0.567747  	
0.350000	38.4189   	0.350000	42.2746   	0.350000	43.0202   	0.350000	43.0202   	0.350000	41.7717   	0.350000	0.502908  	
0.400000	41.269    	0.400000	45.1896   	0.400000	44.9765   	0.400000	44.9765   	0.400000	44.7372   	0.400000	0.452375  	
0.450000	43.9327   	0.450000	47.9765   	0.450000	46.6197   	0.450000	46.6197   	0.450000	47.5647   	0.450000	0.411778  	
0.500000	46.2591   	0.500000	50.4725   	0.500000	48.0384   	0.500000	48.0384   	0.500000	50.0941   	0.500000	0.378384  	
0.600000	48.3959   	0.600000	53.4427   	0.600000	50.6175   	0.600000	50.6175   	0.600000	53.1162   	0.600000	0.326544  	
0.700000	49.4199   	0.700000	55.621    	0.700000	53.3963   	0.700000	53.3963   	0.700000	55.3329   	0.700000	0.288028  	
0.800000	51.6314   	0.800000	57.2644   	0.800000	55.6222   	0.800000	55.6222   	0.800000	57.0062   	0.800000	0.25819   	
0.900000	53.3573   	0.900000	58.4553   	0.900000	57.4265   	0.900000	57.4265   	0.900000	58.221    	0.900000	0.234336  	
1.000000	54.7042   	1.000000	59.2892   	1.000000	58.897    	1.000000	58.897    	1.000000	59.0744   	1.000000	0.214794  	
1.250000	56.754    	1.250000	61.808    	1.250000	61.4926   	1.250000	61.4926   	1.250000	61.6295   	1.250000	0.178429  	
1.500000	57.3279   	1.500000	62.908    	1.500000	63.0126   	1.500000	63.0126   	1.500000	62.7548   	1.500000	0.15318   	
1.750000	57.3585   	1.750000	63.4939   	1.750000	63.8288   	1.750000	63.8288   	1.750000	63.3594   	1.750000	0.134551  	
2.000000	57.0566   	2.000000	63.7484   	2.000000	64.1701   	2.000000	64.1701   	2.000000	63.6282   	2.000000	0.120198  	
2.250000	56.515    	2.250000	63.2448   	2.250000	64.1843   	2.250000	64.1843   	2.250000	63.1361   	2.250000	0.108776  	
2.500000	77.5972   	2.500000	62.4769   	2.500000	63.9698   	2.500000	63.9698   	2.500000	62.3774   	2.500000	0.0994553 	
3.000000	74.6312   	3.000000	60.8962   	3.000000	63.1044   	3.000000	63.1044   	3.000000	60.8111   	3.000000	0.0851242 	
3.500000	71.5759   	3.500000	59.3041   	3.500000	61.9079   	3.500000	61.9079   	3.500000	59.2295   	3.500000	0.0745904 	
4.000000	68.6145   	4.000000	57.7473   	4.000000	60.3357   	4.000000	60.3357   	4.000000	57.6808   	4.000000	0.0664996 	
4.500000	65.8175   	4.500000	56.2291   	4.500000	58.7281   	4.500000	58.7281   	4.500000	56.169    	4.500000	0.0600775 	
5.000000	63.2065   	5.000000	54.7666   	5.000000	57.1802   	5.000000	57.1802   	5.000000	54.7118   	5.000000	0.0548481 	
5.500000	60.7816   	5.500000	53.4112   	5.500000	55.6972   	5.500000	55.6972   	5.500000	53.3607   	5.500000	0.050502  	
6.000000	58.5332   	6.000000	52.1052   	6.000000	54.2804   	6.000000	54.2804   	6.000000	52.0583   	6.000000	0.0468291 	
6.500000	56.4486   	6.500000	50.8301   	6.500000	52.9289   	6.500000	52.9289   	6.500000	50.7864   	6.500000	0.0436817 	
7.000000	54.5136   	7.000000	49.6115   	7.000000	51.6402   	7.000000	51.6402   	7.000000	49.5706   	7.000000	0.0409526 	
7.500000	52.7147   	7.500000	48.4564   	7.500000	50.4116   	7.500000	50.4116   	7.500000	48.4179   	7.500000	0.0385622 	
8.000000	51.0393   	8.000000	47.3585   	8.000000	49.2398   	8.000000	49.2398   	8.000000	47.3221   	8.000000	0.0364501 	
8.500000	49.4757   	8.500000	46.3141   	8.500000	48.1217   	8.500000	48.1217   	8.500000	46.2795   	8.500000	0.0345694 	
9.000000	48.0136   	9.000000	45.3136   	9.000000	47.054    	9.000000	47.054    	9.000000	45.2807   	9.000000	0.0328835 	
9.500000	46.6436   	9.500000	44.3532   	9.500000	46.0337   	9.500000	46.0337   	9.500000	44.3218   	9.500000	0.031363  	
10.000000	45.3575   	10.000000	44.76     	10.000000	45.058    	10.000000	45.058    	10.000000	44.73     	10.000000	0.0299843 	
11.000000	43.0077   	11.000000	43.0678   	11.000000	42.9121   	11.000000	43.3694   	11.000000	43.0403   	11.000000	0.0275785 	
12.000000	40.9141   	12.000000	41.4953   	12.000000	40.971    	12.000000	41.8054   	12.000000	41.4698   	12.000000	0.0255481 	
13.000000	39.0365   	13.000000	40.0337   	13.000000	39.2089   	13.000000	40.3555   	13.000000	40.0099   	13.000000	0.0238103 	
14.000000	37.3427   	14.000000	38.6738   	14.000000	37.6031   	14.000000	39.0097   	14.000000	38.6515   	14.000000	0.022305  	
15.000000	35.8065   	15.000000	37.4066   	15.000000	36.1335   	15.000000	37.7582   	15.000000	37.3856   	15.000000	0.0209879 	
16.000000	34.4064   	16.000000	36.2239   	16.000000	34.7857   	16.000000	36.5926   	16.000000	36.204    	16.000000	0.0198252 	
17.000000	33.1247   	17.000000	35.1179   	17.000000	33.5466   	17.000000	35.5049   	17.000000	35.0991   	17.000000	0.0187907 	
18.000000	31.9467   	18.000000	34.0818   	18.000000	32.4025   	18.000000	34.4881   	18.000000	34.0639   	18.000000	0.0178641 	
19.000000	30.8599   	19.000000	33.1093   	19.000000	31.3437   	19.000000	33.5362   	19.000000	33.0923   	19.000000	0.017029  	
20.000000	29.8539   	20.000000	32.1949   	20.000000	30.3629   	20.000000	32.6434   	20.000000	32.1786   	20.000000	0.0162722 	
21.000000	28.9199   	21.000000	31.3336   	21.000000	29.4524   	21.000000	31.805    	21.000000	31.318    	21.000000	0.0155832 	
22.000000	28.05     	22.000000	30.521    	22.000000	28.6044   	22.000000	31.0163   	22.000000	30.506    	22.000000	0.014953  	
23.000000	27.2378   	23.000000	29.753    	23.000000	27.8133   	23.000000	30.2736   	23.000000	29.7386   	23.000000	0.0143742 	
24.000000	26.4776   	24.000000	29.0261   	24.000000	27.0746   	24.000000	29.5731   	24.000000	29.0123   	24.000000	0.0138408 	
25.000000	25.7644   	25.000000	28.3371   	25.000000	26.3841   	25.000000	28.9118   	25.000000	28.3238   	25.000000	0.0133475 	
27.000000	24.462    	27.000000	27.0614   	27.000000	25.1312   	27.000000	27.6953   	27.000000	27.049    	27.000000	0.0124641 	
29.000000	23.302    	29.000000	25.906    	29.000000	24.0269   	29.000000	26.604    	29.000000	25.8944   	29.000000	0.0116955 	
31.000000	22.2615   	31.000000	24.8546   	31.000000	23.1014   	31.000000	25.5513   	31.000000	24.8436   	31.000000	0.0110204 	
33.000000	21.3226   	33.000000	23.8936   	33.000000	22.3056   	33.000000	24.5268   	33.000000	23.8832   	33.000000	0.0104225 	
35.000000	20.4706   	35.000000	23.0118   	35.000000	21.5681   	35.000000	23.5893   	35.000000	23.0019   	35.000000	0.009889  	
38.000000	19.3305   	38.000000	21.8172   	38.000000	20.5609   	38.000000	22.3231   	38.000000	21.808    	38.000000	0.00918822	
41.000000	18.3283   	41.000000	20.7536   	41.000000	19.6537   	41.000000	21.1994   	41.000000	20.745    	41.000000	0.00858437	
44.000000	17.4399   	44.000000	19.8006   	44.000000	18.8338   	44.000000	20.1952   	44.000000	19.7925   	44.000000	0.00805835	
47.000000	16.6464   	47.000000	18.9415   	47.000000	18.0874   	47.000000	19.2922   	47.000000	18.9339   	47.000000	0.00759582	
50.000000	15.933    	50.000000	18.1631   	50.000000	17.4059   	50.000000	18.4758   	50.000000	18.1559   	50.000000	0.00718578	
55.000000	14.8911   	55.000000	17.0162   	55.000000	16.3913   	55.000000	17.276    	55.000000	17.0096   	55.000000	0.00659654	
60.000000	13.9978   	60.000000	16.0243   	60.000000	15.5075   	60.000000	16.2412   	60.000000	16.0182   	60.000000	0.00610039	
65.000000	13.2229   	65.000000	15.1577   	65.000000	14.7265   	65.000000	15.3395   	65.000000	15.152    	65.000000	0.00567661	
70.000000	12.5437   	70.000000	14.3941   	70.000000	14.0338   	70.000000	14.5467   	70.000000	14.3888   	70.000000	0.00531024	
75.000000	11.9432   	75.000000	13.7161   	75.000000	13.4142   	75.000000	13.8442   	75.000000	13.7111   	75.000000	0.00499021	
80.000000	11.408    	80.000000	13.1101   	80.000000	12.8591   	80.000000	13.2175   	80.000000	13.1054   	80.000000	0.00470812	
85.000000	10.928    	85.000000	12.5651   	85.000000	12.3553   	85.000000	12.6548   	85.000000	12.5606   	85.000000	0.00445751	
90.000000	10.4947   	90.000000	12.0723   	90.000000	11.899    	90.000000	12.1469   	90.000000	12.0681   	90.000000	0.00423333	
95.000000	10.1015   	95.000000	11.6247   	95.000000	11.4809   	95.000000	11.6862   	95.000000	11.6207   	95.000000	0.00403154	
100.000000	9.74288   	100.000000	11.2163   	100.000000	11.099    	100.000000	11.2664   	100.000000	11.2124   	100.000000	0.00384891	
105.000000	9.41447   	105.000000	10.8421   	105.000000	10.7489   	105.000000	10.8822   	105.000000	10.8384   	105.000000	0.00368279	
110.000000	9.11245   	110.000000	10.498    	110.000000	10.4246   	110.000000	10.5294   	110.000000	10.4945   	110.000000	0.00353102	
115.000000	8.83371   	115.000000	10.1806   	115.000000	10.1245   	115.000000	10.2043   	115.000000	10.1772   	115.000000	0.00339177	
120.000000	8.57558   	120.000000	9.8868    	120.000000	9.84702   	120.000000	9.90373   	120.000000	9.88354   	120.000000	0.00326355	
125.000000	8.3358    	125.000000	9.61415   	125.000000	9.5886    	125.000000	9.62504   	125.000000	9.611     	125.000000	0.00314507	
130.000000	8.11243   	130.000000	9.36042   	130.000000	9.34647   	130.000000	9.36594   	130.000000	9.35739   	130.000000	0.00303525	
135.000000	7.9038    	135.000000	9.12372   	135.000000	9.12052   	135.000000	9.12445   	135.000000	9.12079   	135.000000	0.00293316	
140.000000	7.70845   	140.000000	8.9024    	140.000000	8.90937   	140.000000	8.89883   	140.000000	8.89956   	140.000000	0.00283799	
145.000000	7.52514   	145.000000	8.69501   	145.000000	8.71109   	145.000000	8.68759   	145.000000	8.69226   	145.000000	0.00274907	
150.000000	7.35275   	150.000000	8.50028   	150.000000	8.52426   	150.000000	8.48939   	150.000000	8.49761   	150.000000	0.00266578	
155.000000	7.10635   	155.000000	8.31709   	155.000000	8.34852   	155.000000	8.30308   	155.000000	8.3145    	155.000000	0.0025876 	
160.000000	6.96377   	160.000000	8.14445   	160.000000	8.18265   	160.000000	8.12763   	160.000000	8.14193   	160.000000	0.00251407	
165.000000	6.82904   	165.000000	7.98148   	165.000000	8.02553   	165.000000	7.96212   	165.000000	7.97903   	165.000000	0.00244478	
170.000000	6.70153   	170.000000	7.82739   	170.000000	7.87696   	170.000000	7.80573   	170.000000	7.82501   	170.000000	0.00237936	
175.000000	6.58066   	175.000000	7.68149   	175.000000	7.73621   	175.000000	7.65774   	175.000000	7.67917   	175.000000	0.00231749	
180.000000	6.46593   	180.000000	7.54313   	180.000000	7.6023    	180.000000	7.5175    	180.000000	7.54087   	180.000000	0.0022589 	
185.000000	6.35687   	185.000000	7.41176   	185.000000	7.47495   	185.000000	7.38441   	185.000000	7.40956   	185.000000	0.00220332	
190.000000	6.25306   	190.000000	7.28686   	190.000000	7.35392   	190.000000	7.25796   	190.000000	7.28471   	190.000000	0.00215052	
195.000000	6.15414   	195.000000	7.16797   	195.000000	7.23879   	195.000000	7.13766   	195.000000	7.16587   	195.000000	0.0021003 	
200.000000	6.05975   	200.000000	7.05467   	200.000000	7.12902   	200.000000	7.02308   	200.000000	7.05262   	200.000000	0.00205247	
210.000000	5.8834    	210.000000	6.84334   	210.000000	6.92347   	210.000000	6.80953   	210.000000	6.84138   	210.000000	0.00196331	
220.000000	5.72185   	220.000000	6.65021   	220.000000	6.73551   	220.000000	6.61458   	220.000000	6.64833   	220.000000	0.00188188	
230.000000	5.57331   	230.000000	6.47305   	230.000000	6.56248   	230.000000	6.43593   	230.000000	6.47124   	230.000000	0.0018072 	
240.000000	5.43625   	240.000000	6.30997   	240.000000	6.40302   	240.000000	6.27164   	240.000000	6.30823   	240.000000	0.00173845	
250.000000	5.30939   	250.000000	6.15938   	250.000000	6.25582   	250.000000	6.12008   	250.000000	6.15771   	250.000000	0.00167494	
260.000000	5.19163   	260.000000	6.01992   	260.000000	6.11956   	260.000000	5.97986   	260.000000	6.0183    	260.000000	0.00161609	
270.000000	5.08202   	270.000000	5.89042   	270.000000	5.99289   	270.000000	5.84976   	270.000000	5.88885   	270.000000	0.0015614 	
280.000000	4.97975   	280.000000	5.76985   	280.000000	5.87453   	280.000000	5.72875   	280.000000	5.76834   	280.000000	0.00151043	
290.000000	4.8841    	290.000000	5.65736   	290.000000	5.76411   	290.000000	5.61594   	290.000000	5.65589   	290.000000	0.00146282	
300.000000	4.79446   	300.000000	5.55215   	300.000000	5.66099   	300.000000	5.51053   	300.000000	5.55074   	300.000000	0.00141823	
310.000000	4.71029   	310.000000	5.45357   	310.000000	5.56419   	310.000000	5.41185   	310.000000	5.4522    	310.000000	0.00137639	
320.000000	4.63109   	320.000000	5.36102   	320.000000	5.47299   	320.000000	5.31928   	320.000000	5.35969   	320.000000	0.00133704	
330.000000	4.55645   	330.000000	5.27398   	330.000000	5.38753   	330.000000	5.23228   	330.000000	5.27268   	330.000000	0.00129997	
340.000000	4.48599   	340.000000	5.19197   	340.000000	5.3072    	340.000000	5.15039   	340.000000	5.19071   	340.000000	0.00126498	
350.000000	4.41938   	350.000000	5.11459   	350.000000	5.23113   	350.000000	5.07319   	350.000000	5.11336   	350.000000	0.0012319 	
360.000000	4.35631   	360.000000	5.04147   	360.000000	5.15895   	360.000000	5.0003    	360.000000	5.04027   	360.000000	0.00120057	
370.000000	4.29651   	370.000000	4.97227   	370.000000	5.09019   	370.000000	4.931     	370.000000	4.9711    	370.000000	0.00117085	
380.000000	4.23975   	380.000000	4.90671   	380.000000	5.02529   	380.000000	4.86538   	380.000000	4.90556   	380.000000	0.00114263	
390.000000	4.1858    	390.000000	4.8445    	390.000000	4.96387   	390.000000	4.80317   	390.000000	4.84338   	390.000000	0.0011158 	
400.000000	4.13446   	400.000000	4.78541   	400.000000	4.90541   	400.000000	4.74412   	400.000000	4.78432   	400.000000	0.00109024	
410.000000	4.08556   	410.000000	4.72921   	410.000000	4.84977   	410.000000	4.688     	410.000000	4.72815   	410.000000	0.00106587	
420.000000	4.03892   	420.000000	4.67572   	420.000000	4.79686   	420.000000	4.63462   	420.000000	4.67468   	420.000000	0.00104261	
430.000000	3.99442   	430.000000	4.62474   	430.000000	4.74644   	430.000000	4.58379   	430.000000	4.62372   	430.000000	0.00102039	
440.000000	3.9519    	440.000000	4.57611   	440.000000	4.69827   	440.000000	4.53533   	440.000000	4.57512   	440.000000	0.000999127	
450.000000	3.91124   	450.000000	4.52969   	450.000000	4.65226   	450.000000	4.4891    	450.000000	4.52871   	450.000000	0.000978769	
460.000000	3.87233   	460.000000	4.48532   	460.000000	4.60836   	460.000000	4.44494   	460.000000	4.48436   	460.000000	0.000959256	
470.000000	3.83506   	470.000000	4.44289   	470.000000	4.56638   	470.000000	4.40274   	470.000000	4.44195   	470.000000	0.000940537	
480.000000	3.79934   	480.000000	4.40228   	480.000000	4.52609   	480.000000	4.36238   	480.000000	4.40136   	480.000000	0.000922562	
490.000000	3.76508   	490.000000	4.36337   	490.000000	4.48738   	490.000000	4.32374   	490.000000	4.36247   	490.000000	0.000905289	
500.000000	3.73219   	500.000000	4.32608   	500.000000	4.45033   	500.000000	4.28672   	500.000000	4.32519   	500.000000	0.000888675	
520.000000	3.67025   	520.000000	4.25597   	520.000000	4.38104   	520.000000	4.21717   	520.000000	4.25511   	520.000000	0.000857281	
540.000000	3.61296   	540.000000	4.19128   	540.000000	4.31695   	540.000000	4.15309   	540.000000	4.19046   	540.000000	0.000828112	
560.000000	3.55987   	560.000000	4.13146   	560.000000	4.25762   	560.000000	4.09388   	560.000000	4.13066   	560.000000	0.000800935	
580.000000	3.51056   	580.000000	4.07602   	580.000000	4.20294   	580.000000	4.03905   	580.000000	4.07524   	580.000000	0.000775551	
600.000000	3.46467   	600.000000	4.02452   	600.000000	4.15204   	600.000000	3.98817   	600.000000	4.02377   	600.000000	0.000751787	
620.000000	3.4219    	620.000000	3.9766    	620.000000	4.10451   	620.000000	3.94086   	620.000000	3.97588   	620.000000	0.000729489	
640.000000	3.38196   	640.000000	3.93194   	640.000000	4.06023   	640.000000	3.89679   	640.000000	3.93123   	640.000000	0.000708525	
660.000000	3.34462   	660.000000	3.89024   	660.000000	4.01896   	660.000000	3.85567   	660.000000	3.88956   	660.000000	0.000688776	
680.000000	3.30967   	680.000000	3.85126   	680.000000	3.98038   	680.000000	3.81723   	680.000000	3.85059   	680.000000	0.00067014	
700.000000	3.2769    	700.000000	3.81476   	700.000000	3.94413   	700.000000	3.78125   	700.000000	3.8141    	700.000000	0.000652522	
720.000000	3.24614   	720.000000	3.78054   	720.000000	3.91001   	720.000000	3.74753   	720.000000	3.7799    	720.000000	0.000635842	
740.000000	3.21725   	740.000000	3.74842   	740.000000	3.87802   	740.000000	3.71587   	740.000000	3.7478    	740.000000	0.000620025	
760.000000	3.19009   	760.000000	3.71825   	760.000000	3.8481    	760.000000	3.68612   	760.000000	3.71764   	760.000000	0.000605004	
780.000000	3.16453   	780.000000	3.68987   	780.000000	3.81995   	780.000000	3.65813   	780.000000	3.68928   	780.000000	0.000590721	
800.000000	3.14045   	800.000000	3.66315   	800.000000	3.7933    	800.000000	3.63176   	800.000000	3.66258   	800.000000	0.000577122	
820.000000	3.11776   	820.000000	3.63798   	820.000000	3.7681    	820.000000	3.6069    	820.000000	3.63742   	820.000000	0.000564158	
840.000000	3.09636   	840.000000	3.61425   	840.000000	3.74435   	840.000000	3.58344   	840.000000	3.6137    	840.000000	0.000551786	
860.000000	3.07616   	860.000000	3.59186   	860.000000	3.72202   	860.000000	3.56127   	860.000000	3.59132   	860.000000	0.000539964	
880.000000	3.0571    	880.000000	3.57072   	880.000000	3.70093   	880.000000	3.54031   	880.000000	3.57019   	880.000000	0.000528657	
900.000000	3.0391    	900.000000	3.55075   	900.000000	3.68092   	900.000000	3.52048   	900.000000	3.55023   	900.000000	0.000517831	
920.000000	3.02209   	920.000000	3.53187   	920.000000	3.66189   	920.000000	3.50169   	920.000000	3.53136   	920.000000	0.000507457	
940.000000	3.00602   	940.000000	3.51402   	940.000000	3.64381   	940.000000	3.48389   	940.000000	3.51352   	940.000000	0.000497505	
960.000000	2.99083   	960.000000	3.49713   	960.000000	3.62666   	960.000000	3.46701   	960.000000	3.49664   	960.000000	0.00048795	
980.000000	2.97646   	980.000000	3.48115   	980.000000	3.61039   	980.000000	3.45099   	980.000000	3.48067   	980.000000	0.000478769	
1000.000000	2.96288   	1000.000000	3.46602   	1000.000000	3.59494   	1000.000000	3.43578   	1000.000000	3.46555   	1000.000000	0.00046994	
1020.000000	2.95004   	1020.000000	3.45169   	1020.000000	3.58027   	1020.000000	3.42133   	1020.000000	3.45123   	1020.000000	0.000461442	
1040.000000	2.93791   	1040.000000	3.43813   	1040.000000	3.56632   	1040.000000	3.40759   	1040.000000	3.43767   	1040.000000	0.000453258	
1060.000000	2.92643   	1060.000000	3.42528   	1060.000000	3.55304   	1060.000000	3.39452   	1060.000000	3.42483   	1060.000000	0.00044537	
1080.000000	2.91558   	1080.000000	3.4131    	1080.000000	3.5404    	1080.000000	3.38208   	1080.000000	3.41266   	1080.000000	0.000437762	
1100.000000	2.90533   	1100.000000	3.40157   	1100.000000	3.52836   	1100.000000	3.37024   	1100.000000	3.40114   	1100.000000	0.000430418	
1120.000000	2.89564   	1120.000000	3.39065   	1120.000000	3.51689   	1120.000000	3.35896   	1120.000000	3.39022   	1120.000000	0.000423327	
1140.000000	2.8865    	1140.000000	3.3803    	1140.000000	3.50596   	1140.000000	3.34822   	1140.000000	3.37988   	1140.000000	0.000416473	
1160.000000	2.87787   	1160.000000	3.3705    	1160.000000	3.49553   	1160.000000	3.33798   	1160.000000	3.37009   	1160.000000	0.000409846	
1180.000000	2.86972   	1180.000000	3.36121   	1180.000000	3.48559   	1180.000000	3.32822   	1180.000000	3.36081   	1180.000000	0.000403435	
1200.000000	2.86204   	1200.000000	3.35243   	1200.000000	3.47612   	1200.000000	3.3189    	1200.000000	3.35203   	1200.000000	0.000397228	
1220.000000	2.85481   	1220.000000	3.34411   	1220.000000	3.46708   	1220.000000	3.31002   	1220.000000	3.34372   	1220.000000	0.000391217	
1240.000000	2.848     	1240.000000	3.33624   	1240.000000	3.45846   	1240.000000	3.30154   	1240.000000	3.33585   	1240.000000	0.000385391	
1260.000000	2.84159   	1260.000000	3.32879   	1260.000000	3.45022   	1260.000000	3.29344   	1260.000000	3.32842   	1260.000000	0.000379743	
1280.000000	2.83558   	1280.000000	3.32176   	1280.000000	3.44234   	1280.000000	3.28571   	1280.000000	3.32138   	1280.000000	0.000374264	
1300.000000	2.82993   	1300.000000	3.31511   	1300.000000	3.4348    	1300.000000	3.27833   	1300.000000	3.31474   	1300.000000	0.000368947	
1320.000000	2.82464   	1320.000000	3.30884   	1320.000000	3.42757   	1320.000000	3.27128   	1320.000000	3.30847   	1320.000000	0.000363784	
1340.000000	2.8197    	1340.000000	3.30292   	1340.000000	3.42065   	1340.000000	3.26455   	1340.000000	3.30256   	1340.000000	0.000358769	
1360.000000	2.81508   	1360.000000	3.29734   	1360.000000	3.41402   	1360.000000	3.25811   	1360.000000	3.29698   	1360.000000	0.000353895	
1380.000000	2.81077   	1380.000000	3.29208   	1380.000000	3.40768   	1380.000000	3.25196   	1380.000000	3.29173   	1380.000000	0.000349157	
1400.000000	2.80676   	1400.000000	3.28714   	1400.000000	3.40162   	1400.000000	3.24608   	1400.000000	3.28679   	1400.000000	0.000344548	
1420.000000	2.80305   	1420.000000	3.28249   	1420.000000	3.39583   	1420.000000	3.24047   	1420.000000	3.28215   	1420.000000	0.000340065	
1440.000000	2.79961   	1440.000000	3.27813   	1440.000000	3.39031   	1440.000000	3.2351    	1440.000000	3.2778    	1440.000000	0.0003357 	
1460.000000	2.79644   	1460.000000	3.27405   	1460.000000	3.38504   	1460.000000	3.22996   	1460.000000	3.27372   	1460.000000	0.000331451	
1480.000000	2.79353   	1480.000000	3.27023   	1480.000000	3.38002   	1480.000000	3.22506   	1480.000000	3.2699    	1480.000000	0.000327311	
1500.000000	2.79086   	1500.000000	3.26666   	1500.000000	3.37522   	1500.000000	3.22037   	1500.000000	3.26634   	1500.000000	0.000323277	
1520.000000	2.78844   	1520.000000	3.26334   	1520.000000	3.37064   	1520.000000	3.21588   	1520.000000	3.26302   	1520.000000	0.000319346	
1540.000000	2.78624   	1540.000000	3.26025   	1540.000000	3.36626   	1540.000000	3.2116    	1540.000000	3.25993   	1540.000000	0.000315512	
1560.000000	2.78427   	1560.000000	3.25738   	1560.000000	3.36207   	1560.000000	3.20751   	1560.000000	3.25707   	1560.000000	0.000311772	
1580.000000	2.78252   	1580.000000	3.25473   	1580.000000	3.35805   	1580.000000	3.20359   	1580.000000	3.25442   	1580.000000	0.000308124	
1600.000000	2.78097   	1600.000000	3.25229   	1600.000000	3.35421   	1600.000000	3.19985   	1600.000000	3.25199   	1600.000000	0.000304562	
1620.000000	2.77962   	1620.000000	3.25005   	1620.000000	3.35052   	1620.000000	3.19628   	1620.000000	3.24975   	1620.000000	0.000301086	
1640.000000	2.77847   	1640.000000	3.24801   	1640.000000	3.34699   	1640.000000	3.19287   	1640.000000	3.24771   	1640.000000	0.00029769	
1660.000000	2.7775    	1660.000000	3.24615   	1660.000000	3.34361   	1660.000000	3.18961   	1660.000000	3.24586   	1660.000000	0.000294373	
1680.000000	2.77672   	1680.000000	3.24447   	1680.000000	3.34038   	1680.000000	3.1865    	1680.000000	3.24418   	1680.000000	0.000291132	
1700.000000	2.77611   	1700.000000	3.24297   	1700.000000	3.33729   	1700.000000	3.18352   	1700.000000	3.24268   	1700.000000	0.000287964	
1750.000000	2.77531   	1750.000000	3.23993   	1750.000000	3.33015   	1750.000000	3.17668   	1750.000000	3.23965   	1750.000000	0.000280349	
1800.000000	2.7755    	1800.000000	3.23786   	1800.000000	3.3238    	1800.000000	3.1706    	1800.000000	3.23758   	1800.000000	0.000273139	
1850.000000	2.7766    	1850.000000	3.23667   	1850.000000	3.31819   	1850.000000	3.16522   	1850.000000	3.2364    	1850.000000	0.000266304	
1900.000000	2.77855   	1900.000000	3.2363    	1900.000000	3.31323   	1900.000000	3.16048   	1900.000000	3.23604   	1900.000000	0.000259814	
1950.000000	2.78128   	1950.000000	3.23668   	1950.000000	3.30887   	1950.000000	3.15631   	1950.000000	3.23643   	1950.000000	0.000253645	
2000.000000	2.78474   	2000.000000	3.23776   	2000.000000	3.30506   	2000.000000	3.15266   	2000.000000	3.23751   	2000.000000	0.000247771	
2100.000000	2.79369   	2100.000000	3.24182   	2100.000000	3.29885   	2100.000000	3.14677   	2100.000000	3.24158   	2100.000000	0.000236831	
2200.000000	2.80505   	2200.000000	3.24811   	2200.000000	3.29428   	2200.000000	3.14249   	2200.000000	3.24789   	2200.000000	0.000226847	
2300.000000	2.81854   	2300.000000	3.25636   	2300.000000	3.29108   	2300.000000	3.13956   	2300.000000	3.25614   	2300.000000	0.000217698	
2400.000000	2.83394   	2400.000000	3.26631   	2400.000000	3.28903   	2400.000000	3.13778   	2400.000000	3.2661    	2400.000000	0.000209282	
2500.000000	2.85104   	2500.000000	3.27775   	2500.000000	3.28795   	2500.000000	3.13697   	2500.000000	3.27755   	2500.000000	0.000201514	
2600.000000	2.86969   	2600.000000	3.29052   	2600.000000	3.28771   	2600.000000	3.13699   	2600.000000	3.29033   	2600.000000	0.00019432	
2700.000000	2.88972   	2700.000000	3.30447   	2700.000000	3.28819   	2700.000000	3.13771   	2700.000000	3.30428   	2700.000000	0.00018764	
2800.000000	2.91103   	2800.000000	3.31947   	2800.000000	3.28928   	2800.000000	3.13904   	2800.000000	3.31928   	2800.000000	0.000181418	
2900.000000	2.9335    	2900.000000	3.3354    	2900.000000	3.29091   	2900.000000	3.14089   	2900.000000	3.33522   	2900.000000	0.000175609	
3000.000000	2.95703   	3000.000000	3.35217   	3000.000000	3.293     	3000.000000	3.14319   	3000.000000	3.352     	3000.000000	0.000170173	
3200.000000	3.00699   	3200.000000	3.38793   	3200.000000	3.2983    	3200.000000	3.14887   	3200.000000	3.38777   	3200.000000	0.000160282	
3400.000000	3.06036   	3400.000000	3.42618   	3400.000000	3.30479   	3400.000000	3.15568   	3400.000000	3.42603   	3400.000000	0.000151512	
3600.000000	3.11669   	3600.000000	3.4665    	3600.000000	3.31217   	3600.000000	3.16334   	3600.000000	3.46636   	3600.000000	0.000143681	
3800.000000	3.17567   	3800.000000	3.50855   	3800.000000	3.32019   	3800.000000	3.1716    	3800.000000	3.50842   	3800.000000	0.000136645	
4000.000000	3.237     	4000.000000	3.55206   	4000.000000	3.32869   	4000.000000	3.18031   	4000.000000	3.55193   	4000.000000	0.000130286	
4200.000000	3.30046   	4200.000000	3.5968    	4200.000000	3.33751   	4200.000000	3.18933   	4200.000000	3.59668   	4200.000000	0.000124511	
4400.000000	3.36586   	4400.000000	3.64261   	4400.000000	3.34655   	4400.000000	3.19856   	4400.000000	3.64249   	4400.000000	0.000119242	
4600.000000	3.43306   	4600.000000	3.68932   	4600.000000	3.35571   	4600.000000	3.20793   	4600.000000	3.68921   	4600.000000	0.000114414	
4800.000000	3.50192   	4800.000000	3.73683   	4800.000000	3.36495   	4800.000000	3.21736   	4800.000000	3.73672   	4800.000000	0.000109975	
5000.000000	3.57234   	5000.000000	3.78501   	5000.000000	3.37422   	5000.000000	3.22682   	5000.000000	3.78491   	5000.000000	0.000105877	
5250.000000	3.66239   	5250.000000	3.84608   	5250.000000	3.38578   	5250.000000	3.23862   	5250.000000	3.84598   	5250.000000	0.000101179	
5500.000000	3.75458   	5500.000000	3.90793   	5500.000000	3.39727   	5500.000000	3.25035   	5500.000000	3.90784   	5500.000000	9.68921e-05	
6000.000000	3.94484   	6000.000000	4.03358   	6000.000000	3.41992   	6000.000000	3.27343   	6000.000000	4.03349   	6000.000000	8.93534e-05	
6500.000000	4.14233   	6500.000000	4.16122   	6500.000000	3.44199   	6500.000000	3.29587   	6500.000000	4.16114   	6500.000000	8.29349e-05	
7000.000000	4.34648   	7000.000000	4.29036   	7000.000000	3.46311   	7000.000000	3.31756   	7000.000000	4.29028   	7000.000000	7.7402e-05	
7500.000000	4.55685   	7500.000000	4.42062   	7500.000000	3.48356   	7500.000000	3.33846   	7500.000000	4.42055   	7500.000000	7.25817e-05	
8000.000000	4.77314   	8000.000000	4.55174   	8000.000000	3.50334   	8000.000000	3.35858   	8000.000000	4.55167   	8000.000000	6.83433e-05	
8500.000000	4.99509   	8500.000000	4.6835    	8500.000000	3.5223    	8500.000000	3.37792   	8500.000000	4.68344   	8500.000000	6.45865e-05	
9000.000000	5.22251   	9000.000000	4.81576   	9000.000000	3.54045   	9000.000000	3.39652   	9000.000000	4.8157    	9000.000000	6.1233e-05	
9500.000000	5.45526   	9500.000000	4.94838   	9500.000000	3.55791   	9500.000000	3.41441   	9500.000000	4.94833   	9500.000000	5.82204e-05	
10000.000000	5.69321   	10000.000000	5.08129   	10000.000000	3.57474   	10000.000000	3.43162   	10000.000000	5.08123   	10000.000000	5.54988e-05	
11000.000000	6.18435   	11000.000000	5.34764   	11000.000000	3.60642   	11000.000000	3.46417   	11000.000000	5.34759   	11000.000000	5.07735e-05	
12000.000000	6.69536   	12000.000000	5.61438   	12000.000000	3.63561   	12000.000000	3.49445   	12000.000000	5.61433   	12000.000000	4.68102e-05	
13000.000000	7.22585   	13000.000000	5.88123   	13000.000000	3.66278   	13000.000000	3.52271   	13000.000000	5.88118   	13000.000000	4.34369e-05	
14000.000000	7.77558   	14000.000000	6.14799   	14000.000000	3.6883    	14000.000000	3.54918   	14000.000000	6.14795   	14000.000000	4.05297e-05	
15000.000000	8.34436   	15000.000000	6.41456   	15000.000000	3.71226   	15000.000000	3.57404   	15000.000000	6.41452   	15000.000000	3.79977e-05	
16000.000000	8.93209   	16000.000000	6.68083   	16000.000000	3.73466   	16000.000000	3.59747   	16000.000000	6.68079   	16000.000000	3.57718e-05	
17000.000000	9.53871   	17000.000000	6.94676   	17000.000000	3.7556    	17000.000000	3.61962   	17000.000000	6.94672   	17000.000000	3.37993e-05	
18000.000000	10.1642   	18000.000000	7.2123    	18000.000000	3.77524   	18000.000000	3.6406    	18000.000000	7.21227   	18000.000000	3.20388e-05	
19000.000000	10.8085   	19000.000000	7.47744   	19000.000000	3.79374   	19000.000000	3.66053   	19000.000000	7.47741   	19000.000000	3.04577e-05	
20000.000000	11.4717   	20000.000000	7.74215   	20000.000000	3.81125   	20000.000000	3.6795    	20000.000000	7.74213   	20000.000000	2.90295e-05	
21000.000000	12.1537   	21000.000000	8.00644   	21000.000000	3.8279    	21000.000000	3.6976    	21000.000000	8.00641   	21000.000000	2.7733e-05	
22000.000000	12.8547   	22000.000000	8.2703    	22000.000000	3.84377   	22000.000000	3.7149    	22000.000000	8.27027   	22000.000000	2.65505e-05	
23000.000000	13.5746   	23000.000000	8.53372   	23000.000000	3.85885   	23000.000000	3.73147   	23000.000000	8.53369   	23000.000000	2.54675e-05	
24000.000000	14.3136   	24000.000000	8.79671   	24000.000000	3.87321   	24000.000000	3.74736   	24000.000000	8.79669   	24000.000000	2.44719e-05	
25000.000000	15.0716   	25000.000000	9.05928   	25000.000000	3.88693   	25000.000000	3.76262   	25000.000000	9.05926   	25000.000000	2.35533e-05	
26000.000000	15.8489   	26000.000000	9.32144   	26000.000000	3.90002   	26000.000000	3.7773    	26000.000000	9.32141   	26000.000000	2.27031e-05	
27000.000000	16.6453   	27000.000000	9.58318   	27000.000000	3.91252   	27000.000000	3.79145   	27000.000000	9.58316   	27000.000000	2.19139e-05	
28000.000000	17.4611   	28000.000000	9.84452   	28000.000000	3.92446   	28000.000000	3.80509   	28000.000000	9.8445    	28000.000000	2.11792e-05	
29000.000000	18.2963   	29000.000000	10.1055   	29000.000000	3.9359    	29000.000000	3.81826   	29000.000000	10.1054   	29000.000000	2.04936e-05	
30000.000000	19.1509   	30000.000000	10.366    	30000.000000	3.94686   	30000.000000	3.831     	30000.000000	10.366    	30000.000000	1.98522e-05	
32000.000000	20.9191   	32000.000000	10.886    	32000.000000	3.96753   	32000.000000	3.85526   	32000.000000	10.886    	32000.000000	1.8686e-05	
34000.000000	22.7663   	34000.000000	11.4045   	34000.000000	3.98667   	34000.000000	3.87807   	34000.000000	11.4045   	34000.000000	1.76526e-05	
36000.000000	24.6933   	36000.000000	11.9217   	36000.000000	4.00435   	36000.000000	3.89959   	36000.000000	11.9216   	36000.000000	1.67306e-05	
38000.000000	26.7009   	38000.000000	12.4375   	38000.000000	4.02069   	38000.000000	3.91995   	38000.000000	12.4374   	38000.000000	1.59026e-05	
40000.000000	28.7899   	40000.000000	12.952    	40000.000000	4.03586   	40000.000000	3.93927   	40000.000000	12.952    	40000.000000	1.51548e-05	
42000.000000	30.9612   	42000.000000	13.4653   	42000.000000	4.05005   	42000.000000	3.95766   	42000.000000	13.4653   	42000.000000	1.44761e-05	
44000.000000	33.2156   	44000.000000	13.9775   	44000.000000	4.06339   	44000.000000	3.97518   	44000.000000	13.9774   	44000.000000	1.38571e-05	
46000.000000	35.5541   	46000.000000	14.4885   	46000.000000	4.07603   	46000.000000	3.99193   	46000.000000	14.4885   	46000.000000	1.32903e-05	
48000.000000	37.9774   	48000.000000	14.9984   	48000.000000	4.08799   	48000.000000	4.00796   	48000.000000	14.9984   	48000.000000	1.27693e-05	
50000.000000	40.4864   	50000.000000	15.5074   	50000.000000	4.09919   	50000.000000	4.02334   	50000.000000	15.5073   	50000.000000	1.22887e-05	
